
DiceLock 9.0.0.1

 TEST COMPONENTS:
 ----------------
 DiceLock:           DiceLockIVIndexed class
 Operation Mode:     CFB_Mode class
 Block Cipher:       Twofish128 class
 Key Modifier:       DecreaseBase0IndexModifier_6_0_0_1 class
   Index bit length: 128
 Random tests:       RandomTestSuite class
                     FrequencyTest class
                     BlockFrequencyTest class
                     CumulativeSumForwardTest class
                     LongestRunOfOnesTest class
                     RunsTest class
 Random alpha:       0.001

 VECTOR TEST: Test vector 0 - Changing symmetric key, shifting 1 bit set


##### INDIVIDUAL TESTS #####

Number tests: 128


Test: 0
Symmetric key bit length: 128
IV bit length:            128
Plaintext bit length:     128
Symmetric key:            80000000000000000000000000000000
IV:                       00000000000000000000000000000000
Plaintext:                00000000000000000000000000000000
Ciphertext:               6bfd32804a1c3206c4bf85eb11241f896bfd32804a1c3206c4bf85eb11241f89
Reciphers for ciphertext: 0
Decipheredtext:           00000000000000000000000000000000
RESULT CIPHER-DECIPHER: -----OK-----


Test: 1
Symmetric key bit length: 128
IV bit length:            128
Plaintext bit length:     128
Symmetric key:            40000000000000000000000000000000
IV:                       00000000000000000000000000000000
Plaintext:                00000000000000000000000000000000
Ciphertext:               f097147ae851845984dc97d5fae40cf9f097147ae851845984dc97d5fae40cf9
Reciphers for ciphertext: 0
Decipheredtext:           00000000000000000000000000000000
RESULT CIPHER-DECIPHER: -----OK-----


Test: 2
Symmetric key bit length: 128
IV bit length:            128
Plaintext bit length:     128
Symmetric key:            20000000000000000000000000000000
IV:                       00000000000000000000000000000000
Plaintext:                00000000000000000000000000000000
Ciphertext:               6117f1977c5abd9647c56544d94584446117f1977c5abd9647c56544d9458444
Reciphers for ciphertext: 0
Decipheredtext:           00000000000000000000000000000000
RESULT CIPHER-DECIPHER: -----OK-----


Test: 3
Symmetric key bit length: 128
IV bit length:            128
Plaintext bit length:     128
Symmetric key:            10000000000000000000000000000000
IV:                       00000000000000000000000000000000
Plaintext:                00000000000000000000000000000000
Ciphertext:               75a6240aae357deddf9993670561828475a6240aae357deddf99936705618284
Reciphers for ciphertext: 0
Decipheredtext:           00000000000000000000000000000000
RESULT CIPHER-DECIPHER: -----OK-----


Test: 4
Symmetric key bit length: 128
IV bit length:            128
Plaintext bit length:     128
Symmetric key:            08000000000000000000000000000000
IV:                       00000000000000000000000000000000
Plaintext:                00000000000000000000000000000000
Ciphertext:               f026bfdf6bfbc7e50c46c533bd271c24f026bfdf6bfbc7e50c46c533bd271c24
Reciphers for ciphertext: 0
Decipheredtext:           00000000000000000000000000000000
RESULT CIPHER-DECIPHER: -----OK-----


Test: 5
Symmetric key bit length: 128
IV bit length:            128
Plaintext bit length:     128
Symmetric key:            04000000000000000000000000000000
IV:                       00000000000000000000000000000000
Plaintext:                00000000000000000000000000000000
Ciphertext:               f3023228d77045d37d1b9cd77437395af3023228d77045d37d1b9cd77437395a
Reciphers for ciphertext: 0
Decipheredtext:           00000000000000000000000000000000
RESULT CIPHER-DECIPHER: -----OK-----


Test: 6
Symmetric key bit length: 128
IV bit length:            128
Plaintext bit length:     128
Symmetric key:            02000000000000000000000000000000
IV:                       00000000000000000000000000000000
Plaintext:                00000000000000000000000000000000
Ciphertext:               f67467bf6b490209809714d50679b2d7f67467bf6b490209809714d50679b2d7
Reciphers for ciphertext: 0
Decipheredtext:           00000000000000000000000000000000
RESULT CIPHER-DECIPHER: -----OK-----


Test: 7
Symmetric key bit length: 128
IV bit length:            128
Plaintext bit length:     128
Symmetric key:            01000000000000000000000000000000
IV:                       00000000000000000000000000000000
Plaintext:                00000000000000000000000000000000
Ciphertext:               2c8431b922c5f560095e9867b1a412562c8431b922c5f560095e9867b1a41256
Reciphers for ciphertext: 0
Decipheredtext:           00000000000000000000000000000000
RESULT CIPHER-DECIPHER: -----OK-----


Test: 8
Symmetric key bit length: 128
IV bit length:            128
Plaintext bit length:     128
Symmetric key:            00800000000000000000000000000000
IV:                       00000000000000000000000000000000
Plaintext:                00000000000000000000000000000000
Ciphertext:               1fb76e90d207ba4c770f67284d6b13591fb76e90d207ba4c770f67284d6b1359
Reciphers for ciphertext: 0
Decipheredtext:           00000000000000000000000000000000
RESULT CIPHER-DECIPHER: -----OK-----


Test: 9
Symmetric key bit length: 128
IV bit length:            128
Plaintext bit length:     128
Symmetric key:            00400000000000000000000000000000
IV:                       00000000000000000000000000000000
Plaintext:                00000000000000000000000000000000
Ciphertext:               a70aece1d41dca9f24bce8393f6d54bfa70aece1d41dca9f24bce8393f6d54bf
Reciphers for ciphertext: 0
Decipheredtext:           00000000000000000000000000000000
RESULT CIPHER-DECIPHER: -----OK-----


Test: 10
Symmetric key bit length: 128
IV bit length:            128
Plaintext bit length:     128
Symmetric key:            00200000000000000000000000000000
IV:                       00000000000000000000000000000000
Plaintext:                00000000000000000000000000000000
Ciphertext:               d4580fc395979689221c57a23598358bd4580fc395979689221c57a23598358b
Reciphers for ciphertext: 0
Decipheredtext:           00000000000000000000000000000000
RESULT CIPHER-DECIPHER: -----OK-----


Test: 11
Symmetric key bit length: 128
IV bit length:            128
Plaintext bit length:     128
Symmetric key:            00100000000000000000000000000000
IV:                       00000000000000000000000000000000
Plaintext:                00000000000000000000000000000000
Ciphertext:               35ca62ba8126f015fabfef8f9119ae6b35ca62ba8126f015fabfef8f9119ae6b
Reciphers for ciphertext: 0
Decipheredtext:           00000000000000000000000000000000
RESULT CIPHER-DECIPHER: -----OK-----


Test: 12
Symmetric key bit length: 128
IV bit length:            128
Plaintext bit length:     128
Symmetric key:            00080000000000000000000000000000
IV:                       00000000000000000000000000000000
Plaintext:                00000000000000000000000000000000
Ciphertext:               c81facb16e087eefa823cf34e02fe482c81facb16e087eefa823cf34e02fe482
Reciphers for ciphertext: 0
Decipheredtext:           00000000000000000000000000000000
RESULT CIPHER-DECIPHER: -----OK-----


Test: 13
Symmetric key bit length: 128
IV bit length:            128
Plaintext bit length:     128
Symmetric key:            00040000000000000000000000000000
IV:                       00000000000000000000000000000000
Plaintext:                00000000000000000000000000000000
Ciphertext:               07400f04e4cc6625ae3fb41ecc863f2a07400f04e4cc6625ae3fb41ecc863f2a
Reciphers for ciphertext: 0
Decipheredtext:           00000000000000000000000000000000
RESULT CIPHER-DECIPHER: -----OK-----


Test: 14
Symmetric key bit length: 128
IV bit length:            128
Plaintext bit length:     128
Symmetric key:            00020000000000000000000000000000
IV:                       00000000000000000000000000000000
Plaintext:                00000000000000000000000000000000
Ciphertext:               5e6beff7f972bfe21549bff37935ac521f63dc980940145cb18ea99f0094e070
Reciphers for ciphertext: 2
Decipheredtext:           00000000000000000000000000000000
RESULT CIPHER-DECIPHER: -----OK-----


Test: 15
Symmetric key bit length: 128
IV bit length:            128
Plaintext bit length:     128
Symmetric key:            00010000000000000000000000000000
IV:                       00000000000000000000000000000000
Plaintext:                00000000000000000000000000000000
Ciphertext:               2b63bef50ba87a58bffca4cf44c229272b63bef50ba87a58bffca4cf44c22927
Reciphers for ciphertext: 0
Decipheredtext:           00000000000000000000000000000000
RESULT CIPHER-DECIPHER: -----OK-----


Test: 16
Symmetric key bit length: 128
IV bit length:            128
Plaintext bit length:     128
Symmetric key:            00008000000000000000000000000000
IV:                       00000000000000000000000000000000
Plaintext:                00000000000000000000000000000000
Ciphertext:               fd49069ae9f1874a264a7bfd894ed886fd49069ae9f1874a264a7bfd894ed886
Reciphers for ciphertext: 0
Decipheredtext:           00000000000000000000000000000000
RESULT CIPHER-DECIPHER: -----OK-----


Test: 17
Symmetric key bit length: 128
IV bit length:            128
Plaintext bit length:     128
Symmetric key:            00004000000000000000000000000000
IV:                       00000000000000000000000000000000
Plaintext:                00000000000000000000000000000000
Ciphertext:               232755c754075bb5cc5b85abfea38779232755c754075bb5cc5b85abfea38779
Reciphers for ciphertext: 0
Decipheredtext:           00000000000000000000000000000000
RESULT CIPHER-DECIPHER: -----OK-----


Test: 18
Symmetric key bit length: 128
IV bit length:            128
Plaintext bit length:     128
Symmetric key:            00002000000000000000000000000000
IV:                       00000000000000000000000000000000
Plaintext:                00000000000000000000000000000000
Ciphertext:               41358b9c76e959037e13f7e5050e0b4241358b9c76e959037e13f7e5050e0b42
Reciphers for ciphertext: 0
Decipheredtext:           00000000000000000000000000000000
RESULT CIPHER-DECIPHER: -----OK-----


Test: 19
Symmetric key bit length: 128
IV bit length:            128
Plaintext bit length:     128
Symmetric key:            00001000000000000000000000000000
IV:                       00000000000000000000000000000000
Plaintext:                00000000000000000000000000000000
Ciphertext:               8978cd09c054bb1abdffbed09d1cf7ec8978cd09c054bb1abdffbed09d1cf7ec
Reciphers for ciphertext: 0
Decipheredtext:           00000000000000000000000000000000
RESULT CIPHER-DECIPHER: -----OK-----


Test: 20
Symmetric key bit length: 128
IV bit length:            128
Plaintext bit length:     128
Symmetric key:            00000800000000000000000000000000
IV:                       00000000000000000000000000000000
Plaintext:                00000000000000000000000000000000
Ciphertext:               60d5831a02ae02a281d2bdbf811070959f2a7ce5fd51fd5d7e2d42407eef8f6a
Reciphers for ciphertext: 1
Decipheredtext:           00000000000000000000000000000000
RESULT CIPHER-DECIPHER: -----OK-----


Test: 21
Symmetric key bit length: 128
IV bit length:            128
Plaintext bit length:     128
Symmetric key:            00000400000000000000000000000000
IV:                       00000000000000000000000000000000
Plaintext:                00000000000000000000000000000000
Ciphertext:               6aa2f0627f312a77c68d1f15df0e13796aa2f0627f312a77c68d1f15df0e1379
Reciphers for ciphertext: 0
Decipheredtext:           00000000000000000000000000000000
RESULT CIPHER-DECIPHER: -----OK-----


Test: 22
Symmetric key bit length: 128
IV bit length:            128
Plaintext bit length:     128
Symmetric key:            00000200000000000000000000000000
IV:                       00000000000000000000000000000000
Plaintext:                00000000000000000000000000000000
Ciphertext:               bcd56984e45dbf087bac8757fc4eff5abcd56984e45dbf087bac8757fc4eff5a
Reciphers for ciphertext: 0
Decipheredtext:           00000000000000000000000000000000
RESULT CIPHER-DECIPHER: -----OK-----


Test: 23
Symmetric key bit length: 128
IV bit length:            128
Plaintext bit length:     128
Symmetric key:            00000100000000000000000000000000
IV:                       00000000000000000000000000000000
Plaintext:                00000000000000000000000000000000
Ciphertext:               9d3c6c8ed48c9de7a64cd05d8bf41d549d3c6c8ed48c9de7a64cd05d8bf41d54
Reciphers for ciphertext: 0
Decipheredtext:           00000000000000000000000000000000
RESULT CIPHER-DECIPHER: -----OK-----


Test: 24
Symmetric key bit length: 128
IV bit length:            128
Plaintext bit length:     128
Symmetric key:            00000080000000000000000000000000
IV:                       00000000000000000000000000000000
Plaintext:                00000000000000000000000000000000
Ciphertext:               fcd577a23f455acde3732c262ebd2d86fcd577a23f455acde3732c262ebd2d86
Reciphers for ciphertext: 0
Decipheredtext:           00000000000000000000000000000000
RESULT CIPHER-DECIPHER: -----OK-----


Test: 25
Symmetric key bit length: 128
IV bit length:            128
Plaintext bit length:     128
Symmetric key:            00000040000000000000000000000000
IV:                       00000000000000000000000000000000
Plaintext:                00000000000000000000000000000000
Ciphertext:               fcd1dbcf27e7a7777361a8abee2bf9b028e30fab7eda8e649da669d7ac70c9b2
Reciphers for ciphertext: 2
Decipheredtext:           00000000000000000000000000000000
RESULT CIPHER-DECIPHER: -----OK-----


Test: 26
Symmetric key bit length: 128
IV bit length:            128
Plaintext bit length:     128
Symmetric key:            00000020000000000000000000000000
IV:                       00000000000000000000000000000000
Plaintext:                00000000000000000000000000000000
Ciphertext:               5742ca8cf1193491c1fbc148627d856e5742ca8cf1193491c1fbc148627d856e
Reciphers for ciphertext: 0
Decipheredtext:           00000000000000000000000000000000
RESULT CIPHER-DECIPHER: -----OK-----


Test: 27
Symmetric key bit length: 128
IV bit length:            128
Plaintext bit length:     128
Symmetric key:            00000010000000000000000000000000
IV:                       00000000000000000000000000000000
Plaintext:                00000000000000000000000000000000
Ciphertext:               75426c9effbf201db73d01fa1060b01f8655cd2af0c64cae1e58abafb3c0da05
Reciphers for ciphertext: 3
Decipheredtext:           00000000000000000000000000000000
RESULT CIPHER-DECIPHER: -----OK-----


Test: 28
Symmetric key bit length: 128
IV bit length:            128
Plaintext bit length:     128
Symmetric key:            00000008000000000000000000000000
IV:                       00000000000000000000000000000000
Plaintext:                00000000000000000000000000000000
Ciphertext:               29a9d577bb3824209fea64128247ce6c29a9d577bb3824209fea64128247ce6c
Reciphers for ciphertext: 0
Decipheredtext:           00000000000000000000000000000000
RESULT CIPHER-DECIPHER: -----OK-----


Test: 29
Symmetric key bit length: 128
IV bit length:            128
Plaintext bit length:     128
Symmetric key:            00000004000000000000000000000000
IV:                       00000000000000000000000000000000
Plaintext:                00000000000000000000000000000000
Ciphertext:               ac4cdb534844ea86000b845fcdad605fac4cdb534844ea86000b845fcdad605f
Reciphers for ciphertext: 0
Decipheredtext:           00000000000000000000000000000000
RESULT CIPHER-DECIPHER: -----OK-----


Test: 30
Symmetric key bit length: 128
IV bit length:            128
Plaintext bit length:     128
Symmetric key:            00000002000000000000000000000000
IV:                       00000000000000000000000000000000
Plaintext:                00000000000000000000000000000000
Ciphertext:               aac6098597d46b8145a60f40d4ec5308aac6098597d46b8145a60f40d4ec5308
Reciphers for ciphertext: 0
Decipheredtext:           00000000000000000000000000000000
RESULT CIPHER-DECIPHER: -----OK-----


Test: 31
Symmetric key bit length: 128
IV bit length:            128
Plaintext bit length:     128
Symmetric key:            00000001000000000000000000000000
IV:                       00000000000000000000000000000000
Plaintext:                00000000000000000000000000000000
Ciphertext:               3a7dfd0855a5be0b16cacbd685facef53a7dfd0855a5be0b16cacbd685facef5
Reciphers for ciphertext: 0
Decipheredtext:           00000000000000000000000000000000
RESULT CIPHER-DECIPHER: -----OK-----


Test: 32
Symmetric key bit length: 128
IV bit length:            128
Plaintext bit length:     128
Symmetric key:            00000000800000000000000000000000
IV:                       00000000000000000000000000000000
Plaintext:                00000000000000000000000000000000
Ciphertext:               aceba627eba87ad051c3e0ca0def6cd7aceba627eba87ad051c3e0ca0def6cd7
Reciphers for ciphertext: 0
Decipheredtext:           00000000000000000000000000000000
RESULT CIPHER-DECIPHER: -----OK-----


Test: 33
Symmetric key bit length: 128
IV bit length:            128
Plaintext bit length:     128
Symmetric key:            00000000400000000000000000000000
IV:                       00000000000000000000000000000000
Plaintext:                00000000000000000000000000000000
Ciphertext:               f0a55dcdbc513efdd603ea455eb9228cf0a55dcdbc513efdd603ea455eb9228c
Reciphers for ciphertext: 0
Decipheredtext:           00000000000000000000000000000000
RESULT CIPHER-DECIPHER: -----OK-----


Test: 34
Symmetric key bit length: 128
IV bit length:            128
Plaintext bit length:     128
Symmetric key:            00000000200000000000000000000000
IV:                       00000000000000000000000000000000
Plaintext:                00000000000000000000000000000000
Ciphertext:               2176debc78d6b4a6d0fb37afa6b510812176debc78d6b4a6d0fb37afa6b51081
Reciphers for ciphertext: 0
Decipheredtext:           00000000000000000000000000000000
RESULT CIPHER-DECIPHER: -----OK-----


Test: 35
Symmetric key bit length: 128
IV bit length:            128
Plaintext bit length:     128
Symmetric key:            00000000100000000000000000000000
IV:                       00000000000000000000000000000000
Plaintext:                00000000000000000000000000000000
Ciphertext:               fdb1b57379b85a85392613e8b4597b63fdb1b57379b85a85392613e8b4597b63
Reciphers for ciphertext: 0
Decipheredtext:           00000000000000000000000000000000
RESULT CIPHER-DECIPHER: -----OK-----


Test: 36
Symmetric key bit length: 128
IV bit length:            128
Plaintext bit length:     128
Symmetric key:            00000000080000000000000000000000
IV:                       00000000000000000000000000000000
Plaintext:                00000000000000000000000000000000
Ciphertext:               58ab1112e0598586e07fc8359ddfc7ec58ab1112e0598586e07fc8359ddfc7ec
Reciphers for ciphertext: 0
Decipheredtext:           00000000000000000000000000000000
RESULT CIPHER-DECIPHER: -----OK-----


Test: 37
Symmetric key bit length: 128
IV bit length:            128
Plaintext bit length:     128
Symmetric key:            00000000040000000000000000000000
IV:                       00000000000000000000000000000000
Plaintext:                00000000000000000000000000000000
Ciphertext:               dd6d1d2629f333528cb66869453bc273dd6d1d2629f333528cb66869453bc273
Reciphers for ciphertext: 0
Decipheredtext:           00000000000000000000000000000000
RESULT CIPHER-DECIPHER: -----OK-----


Test: 38
Symmetric key bit length: 128
IV bit length:            128
Plaintext bit length:     128
Symmetric key:            00000000020000000000000000000000
IV:                       00000000000000000000000000000000
Plaintext:                00000000000000000000000000000000
Ciphertext:               932218d99553bb2d4bfc69f1ea67caae932218d99553bb2d4bfc69f1ea67caae
Reciphers for ciphertext: 0
Decipheredtext:           00000000000000000000000000000000
RESULT CIPHER-DECIPHER: -----OK-----


Test: 39
Symmetric key bit length: 128
IV bit length:            128
Plaintext bit length:     128
Symmetric key:            00000000010000000000000000000000
IV:                       00000000000000000000000000000000
Plaintext:                00000000000000000000000000000000
Ciphertext:               399d066426f7fef66f8983086dc044d8399d066426f7fef66f8983086dc044d8
Reciphers for ciphertext: 0
Decipheredtext:           00000000000000000000000000000000
RESULT CIPHER-DECIPHER: -----OK-----


Test: 40
Symmetric key bit length: 128
IV bit length:            128
Plaintext bit length:     128
Symmetric key:            00000000008000000000000000000000
IV:                       00000000000000000000000000000000
Plaintext:                00000000000000000000000000000000
Ciphertext:               3e1bc58269b6b8c8c8d00806975f83373e1bc58269b6b8c8c8d00806975f8337
Reciphers for ciphertext: 0
Decipheredtext:           00000000000000000000000000000000
RESULT CIPHER-DECIPHER: -----OK-----


Test: 41
Symmetric key bit length: 128
IV bit length:            128
Plaintext bit length:     128
Symmetric key:            00000000004000000000000000000000
IV:                       00000000000000000000000000000000
Plaintext:                00000000000000000000000000000000
Ciphertext:               d50a1f966058c6d702d1afcd700da0e8d50a1f966058c6d702d1afcd700da0e8
Reciphers for ciphertext: 0
Decipheredtext:           00000000000000000000000000000000
RESULT CIPHER-DECIPHER: -----OK-----


Test: 42
Symmetric key bit length: 128
IV bit length:            128
Plaintext bit length:     128
Symmetric key:            00000000002000000000000000000000
IV:                       00000000000000000000000000000000
Plaintext:                00000000000000000000000000000000
Ciphertext:               6e7a6bb3554f12ad1f88c289d621cd0f6e7a6bb3554f12ad1f88c289d621cd0f
Reciphers for ciphertext: 0
Decipheredtext:           00000000000000000000000000000000
RESULT CIPHER-DECIPHER: -----OK-----


Test: 43
Symmetric key bit length: 128
IV bit length:            128
Plaintext bit length:     128
Symmetric key:            00000000001000000000000000000000
IV:                       00000000000000000000000000000000
Plaintext:                00000000000000000000000000000000
Ciphertext:               602b15af95f345764db93eb2e4a469568710828a9b211bb07b4edee71b0fd5da
Reciphers for ciphertext: 2
Decipheredtext:           00000000000000000000000000000000
RESULT CIPHER-DECIPHER: -----OK-----


Test: 44
Symmetric key bit length: 128
IV bit length:            128
Plaintext bit length:     128
Symmetric key:            00000000000800000000000000000000
IV:                       00000000000000000000000000000000
Plaintext:                00000000000000000000000000000000
Ciphertext:               c395a92c1a6884857b263f01f43542dbc395a92c1a6884857b263f01f43542db
Reciphers for ciphertext: 0
Decipheredtext:           00000000000000000000000000000000
RESULT CIPHER-DECIPHER: -----OK-----


Test: 45
Symmetric key bit length: 128
IV bit length:            128
Plaintext bit length:     128
Symmetric key:            00000000000400000000000000000000
IV:                       00000000000000000000000000000000
Plaintext:                00000000000000000000000000000000
Ciphertext:               06562ac497c60f802b68b47db5b86b6a06562ac497c60f802b68b47db5b86b6a
Reciphers for ciphertext: 0
Decipheredtext:           00000000000000000000000000000000
RESULT CIPHER-DECIPHER: -----OK-----


Test: 46
Symmetric key bit length: 128
IV bit length:            128
Plaintext bit length:     128
Symmetric key:            00000000000200000000000000000000
IV:                       00000000000000000000000000000000
Plaintext:                00000000000000000000000000000000
Ciphertext:               255a726f2106177fefa7006bde05d059255a726f2106177fefa7006bde05d059
Reciphers for ciphertext: 0
Decipheredtext:           00000000000000000000000000000000
RESULT CIPHER-DECIPHER: -----OK-----


Test: 47
Symmetric key bit length: 128
IV bit length:            128
Plaintext bit length:     128
Symmetric key:            00000000000100000000000000000000
IV:                       00000000000000000000000000000000
Plaintext:                00000000000000000000000000000000
Ciphertext:               b8fd6a8227d0565a4c174ad270ec1205b8fd6a8227d0565a4c174ad270ec1205
Reciphers for ciphertext: 0
Decipheredtext:           00000000000000000000000000000000
RESULT CIPHER-DECIPHER: -----OK-----


Test: 48
Symmetric key bit length: 128
IV bit length:            128
Plaintext bit length:     128
Symmetric key:            00000000000080000000000000000000
IV:                       00000000000000000000000000000000
Plaintext:                00000000000000000000000000000000
Ciphertext:               c2652fdb48b9ddbfc43b3f7cdd831d6fc2652fdb48b9ddbfc43b3f7cdd831d6f
Reciphers for ciphertext: 0
Decipheredtext:           00000000000000000000000000000000
RESULT CIPHER-DECIPHER: -----OK-----


Test: 49
Symmetric key bit length: 128
IV bit length:            128
Plaintext bit length:     128
Symmetric key:            00000000000040000000000000000000
IV:                       00000000000000000000000000000000
Plaintext:                00000000000000000000000000000000
Ciphertext:               913eb9205db2e17a96a23a724edf4c84913eb9205db2e17a96a23a724edf4c84
Reciphers for ciphertext: 0
Decipheredtext:           00000000000000000000000000000000
RESULT CIPHER-DECIPHER: -----OK-----


Test: 50
Symmetric key bit length: 128
IV bit length:            128
Plaintext bit length:     128
Symmetric key:            00000000000020000000000000000000
IV:                       00000000000000000000000000000000
Plaintext:                00000000000000000000000000000000
Ciphertext:               9a6694feb5ea44ff0572124fdb2656589a6694feb5ea44ff0572124fdb265658
Reciphers for ciphertext: 0
Decipheredtext:           00000000000000000000000000000000
RESULT CIPHER-DECIPHER: -----OK-----


Test: 51
Symmetric key bit length: 128
IV bit length:            128
Plaintext bit length:     128
Symmetric key:            00000000000010000000000000000000
IV:                       00000000000000000000000000000000
Plaintext:                00000000000000000000000000000000
Ciphertext:               e347498deca6b211c30e21fd0b47a333e347498deca6b211c30e21fd0b47a333
Reciphers for ciphertext: 0
Decipheredtext:           00000000000000000000000000000000
RESULT CIPHER-DECIPHER: -----OK-----


Test: 52
Symmetric key bit length: 128
IV bit length:            128
Plaintext bit length:     128
Symmetric key:            00000000000008000000000000000000
IV:                       00000000000000000000000000000000
Plaintext:                00000000000000000000000000000000
Ciphertext:               e70f0d4ed829a81e05d42e511ede9376e70f0d4ed829a81e05d42e511ede9376
Reciphers for ciphertext: 0
Decipheredtext:           00000000000000000000000000000000
RESULT CIPHER-DECIPHER: -----OK-----


Test: 53
Symmetric key bit length: 128
IV bit length:            128
Plaintext bit length:     128
Symmetric key:            00000000000004000000000000000000
IV:                       00000000000000000000000000000000
Plaintext:                00000000000000000000000000000000
Ciphertext:               140bb7cad8d6a3553bef7a3d52347bd8140bb7cad8d6a3553bef7a3d52347bd8
Reciphers for ciphertext: 0
Decipheredtext:           00000000000000000000000000000000
RESULT CIPHER-DECIPHER: -----OK-----


Test: 54
Symmetric key bit length: 128
IV bit length:            128
Plaintext bit length:     128
Symmetric key:            00000000000002000000000000000000
IV:                       00000000000000000000000000000000
Plaintext:                00000000000000000000000000000000
Ciphertext:               5fa55360f440dcca20925a3e15b427645fa55360f440dcca20925a3e15b42764
Reciphers for ciphertext: 0
Decipheredtext:           00000000000000000000000000000000
RESULT CIPHER-DECIPHER: -----OK-----


Test: 55
Symmetric key bit length: 128
IV bit length:            128
Plaintext bit length:     128
Symmetric key:            00000000000001000000000000000000
IV:                       00000000000000000000000000000000
Plaintext:                00000000000000000000000000000000
Ciphertext:               6d5b969dfc3ea0a6682cc66488d221da6d5b969dfc3ea0a6682cc66488d221da
Reciphers for ciphertext: 0
Decipheredtext:           00000000000000000000000000000000
RESULT CIPHER-DECIPHER: -----OK-----


Test: 56
Symmetric key bit length: 128
IV bit length:            128
Plaintext bit length:     128
Symmetric key:            00000000000000800000000000000000
IV:                       00000000000000000000000000000000
Plaintext:                00000000000000000000000000000000
Ciphertext:               e2799d5c380b49d2f6997009079d03d3e2799d5c380b49d2f6997009079d03d3
Reciphers for ciphertext: 0
Decipheredtext:           00000000000000000000000000000000
RESULT CIPHER-DECIPHER: -----OK-----


Test: 57
Symmetric key bit length: 128
IV bit length:            128
Plaintext bit length:     128
Symmetric key:            00000000000000400000000000000000
IV:                       00000000000000000000000000000000
Plaintext:                00000000000000000000000000000000
Ciphertext:               06afbd8077909e847af467bb2d47e89306afbd8077909e847af467bb2d47e893
Reciphers for ciphertext: 0
Decipheredtext:           00000000000000000000000000000000
RESULT CIPHER-DECIPHER: -----OK-----


Test: 58
Symmetric key bit length: 128
IV bit length:            128
Plaintext bit length:     128
Symmetric key:            00000000000000200000000000000000
IV:                       00000000000000000000000000000000
Plaintext:                00000000000000000000000000000000
Ciphertext:               46b1eb96ec9eb10897f1562e5928725346b1eb96ec9eb10897f1562e59287253
Reciphers for ciphertext: 0
Decipheredtext:           00000000000000000000000000000000
RESULT CIPHER-DECIPHER: -----OK-----


Test: 59
Symmetric key bit length: 128
IV bit length:            128
Plaintext bit length:     128
Symmetric key:            00000000000000100000000000000000
IV:                       00000000000000000000000000000000
Plaintext:                00000000000000000000000000000000
Ciphertext:               1793f1d4e1a1606f99c7019c19e851291793f1d4e1a1606f99c7019c19e85129
Reciphers for ciphertext: 0
Decipheredtext:           00000000000000000000000000000000
RESULT CIPHER-DECIPHER: -----OK-----


Test: 60
Symmetric key bit length: 128
IV bit length:            128
Plaintext bit length:     128
Symmetric key:            00000000000000080000000000000000
IV:                       00000000000000000000000000000000
Plaintext:                00000000000000000000000000000000
Ciphertext:               ed785d0ba19553ce73b69f4d570c3a9ded785d0ba19553ce73b69f4d570c3a9d
Reciphers for ciphertext: 0
Decipheredtext:           00000000000000000000000000000000
RESULT CIPHER-DECIPHER: -----OK-----


Test: 61
Symmetric key bit length: 128
IV bit length:            128
Plaintext bit length:     128
Symmetric key:            00000000000000040000000000000000
IV:                       00000000000000000000000000000000
Plaintext:                00000000000000000000000000000000
Ciphertext:               298df7334670b7391be203df7e8890c7298df7334670b7391be203df7e8890c7
Reciphers for ciphertext: 0
Decipheredtext:           00000000000000000000000000000000
RESULT CIPHER-DECIPHER: -----OK-----


Test: 62
Symmetric key bit length: 128
IV bit length:            128
Plaintext bit length:     128
Symmetric key:            00000000000000020000000000000000
IV:                       00000000000000000000000000000000
Plaintext:                00000000000000000000000000000000
Ciphertext:               150c12def6edc844b0b45361c2b3aece150c12def6edc844b0b45361c2b3aece
Reciphers for ciphertext: 0
Decipheredtext:           00000000000000000000000000000000
RESULT CIPHER-DECIPHER: -----OK-----


Test: 63
Symmetric key bit length: 128
IV bit length:            128
Plaintext bit length:     128
Symmetric key:            00000000000000010000000000000000
IV:                       00000000000000000000000000000000
Plaintext:                00000000000000000000000000000000
Ciphertext:               06ffb5e13438ba8dbd8a3edadfac73a106ffb5e13438ba8dbd8a3edadfac73a1
Reciphers for ciphertext: 0
Decipheredtext:           00000000000000000000000000000000
RESULT CIPHER-DECIPHER: -----OK-----


Test: 64
Symmetric key bit length: 128
IV bit length:            128
Plaintext bit length:     128
Symmetric key:            00000000000000008000000000000000
IV:                       00000000000000000000000000000000
Plaintext:                00000000000000000000000000000000
Ciphertext:               6c5e5719d5f31e929ff9c44f086efadb6c5e5719d5f31e929ff9c44f086efadb
Reciphers for ciphertext: 0
Decipheredtext:           00000000000000000000000000000000
RESULT CIPHER-DECIPHER: -----OK-----


Test: 65
Symmetric key bit length: 128
IV bit length:            128
Plaintext bit length:     128
Symmetric key:            00000000000000004000000000000000
IV:                       00000000000000000000000000000000
Plaintext:                00000000000000000000000000000000
Ciphertext:               4c8d0e13996f4d32cb7984b7bb1b34fb4c8d0e13996f4d32cb7984b7bb1b34fb
Reciphers for ciphertext: 0
Decipheredtext:           00000000000000000000000000000000
RESULT CIPHER-DECIPHER: -----OK-----


Test: 66
Symmetric key bit length: 128
IV bit length:            128
Plaintext bit length:     128
Symmetric key:            00000000000000002000000000000000
IV:                       00000000000000000000000000000000
Plaintext:                00000000000000000000000000000000
Ciphertext:               c9bdcffd4b9f3bbbb33a2d2c51ba83f6c9bdcffd4b9f3bbbb33a2d2c51ba83f6
Reciphers for ciphertext: 0
Decipheredtext:           00000000000000000000000000000000
RESULT CIPHER-DECIPHER: -----OK-----


Test: 67
Symmetric key bit length: 128
IV bit length:            128
Plaintext bit length:     128
Symmetric key:            00000000000000001000000000000000
IV:                       00000000000000000000000000000000
Plaintext:                00000000000000000000000000000000
Ciphertext:               929b29dd0d952161ffda8cb417b166ec929b29dd0d952161ffda8cb417b166ec
Reciphers for ciphertext: 0
Decipheredtext:           00000000000000000000000000000000
RESULT CIPHER-DECIPHER: -----OK-----


Test: 68
Symmetric key bit length: 128
IV bit length:            128
Plaintext bit length:     128
Symmetric key:            00000000000000000800000000000000
IV:                       00000000000000000000000000000000
Plaintext:                00000000000000000000000000000000
Ciphertext:               87f9dfcb07275916e7a446d3dce7423287f9dfcb07275916e7a446d3dce74232
Reciphers for ciphertext: 0
Decipheredtext:           00000000000000000000000000000000
RESULT CIPHER-DECIPHER: -----OK-----


Test: 69
Symmetric key bit length: 128
IV bit length:            128
Plaintext bit length:     128
Symmetric key:            00000000000000000400000000000000
IV:                       00000000000000000000000000000000
Plaintext:                00000000000000000000000000000000
Ciphertext:               6fdfd0bc8f49be420cd68a894c7ca4e96fdfd0bc8f49be420cd68a894c7ca4e9
Reciphers for ciphertext: 0
Decipheredtext:           00000000000000000000000000000000
RESULT CIPHER-DECIPHER: -----OK-----


Test: 70
Symmetric key bit length: 128
IV bit length:            128
Plaintext bit length:     128
Symmetric key:            00000000000000000200000000000000
IV:                       00000000000000000000000000000000
Plaintext:                00000000000000000000000000000000
Ciphertext:               cddc09de42dc2cbcd9287a2072a30d23cddc09de42dc2cbcd9287a2072a30d23
Reciphers for ciphertext: 0
Decipheredtext:           00000000000000000000000000000000
RESULT CIPHER-DECIPHER: -----OK-----


Test: 71
Symmetric key bit length: 128
IV bit length:            128
Plaintext bit length:     128
Symmetric key:            00000000000000000100000000000000
IV:                       00000000000000000000000000000000
Plaintext:                00000000000000000000000000000000
Ciphertext:               9b2ff668ba9d77ad1e9f30ba0173ebd49b2ff668ba9d77ad1e9f30ba0173ebd4
Reciphers for ciphertext: 0
Decipheredtext:           00000000000000000000000000000000
RESULT CIPHER-DECIPHER: -----OK-----


Test: 72
Symmetric key bit length: 128
IV bit length:            128
Plaintext bit length:     128
Symmetric key:            00000000000000000080000000000000
IV:                       00000000000000000000000000000000
Plaintext:                00000000000000000000000000000000
Ciphertext:               def29890d59a511b32a30322d7471e38def29890d59a511b32a30322d7471e38
Reciphers for ciphertext: 0
Decipheredtext:           00000000000000000000000000000000
RESULT CIPHER-DECIPHER: -----OK-----


Test: 73
Symmetric key bit length: 128
IV bit length:            128
Plaintext bit length:     128
Symmetric key:            00000000000000000040000000000000
IV:                       00000000000000000000000000000000
Plaintext:                00000000000000000000000000000000
Ciphertext:               5094eaec9f23d0dbfab8240a42ed5bf15094eaec9f23d0dbfab8240a42ed5bf1
Reciphers for ciphertext: 0
Decipheredtext:           00000000000000000000000000000000
RESULT CIPHER-DECIPHER: -----OK-----


Test: 74
Symmetric key bit length: 128
IV bit length:            128
Plaintext bit length:     128
Symmetric key:            00000000000000000020000000000000
IV:                       00000000000000000000000000000000
Plaintext:                00000000000000000000000000000000
Ciphertext:               79cb87bc375f58de8da780b9bad3dea379cb87bc375f58de8da780b9bad3dea3
Reciphers for ciphertext: 0
Decipheredtext:           00000000000000000000000000000000
RESULT CIPHER-DECIPHER: -----OK-----


Test: 75
Symmetric key bit length: 128
IV bit length:            128
Plaintext bit length:     128
Symmetric key:            00000000000000000010000000000000
IV:                       00000000000000000000000000000000
Plaintext:                00000000000000000000000000000000
Ciphertext:               8ec64c267f47a2c4885c4424934868a97139b3d980b85d3b77a3bbdb6cb79756
Reciphers for ciphertext: 1
Decipheredtext:           00000000000000000000000000000000
RESULT CIPHER-DECIPHER: -----OK-----


Test: 76
Symmetric key bit length: 128
IV bit length:            128
Plaintext bit length:     128
Symmetric key:            00000000000000000008000000000000
IV:                       00000000000000000000000000000000
Plaintext:                00000000000000000000000000000000
Ciphertext:               148ed6e8fec02168377c96956ae18d93148ed6e8fec02168377c96956ae18d93
Reciphers for ciphertext: 0
Decipheredtext:           00000000000000000000000000000000
RESULT CIPHER-DECIPHER: -----OK-----


Test: 77
Symmetric key bit length: 128
IV bit length:            128
Plaintext bit length:     128
Symmetric key:            00000000000000000004000000000000
IV:                       00000000000000000000000000000000
Plaintext:                00000000000000000000000000000000
Ciphertext:               0afed5a710f2bf11c77f152951ae32cb0afed5a710f2bf11c77f152951ae32cb
Reciphers for ciphertext: 0
Decipheredtext:           00000000000000000000000000000000
RESULT CIPHER-DECIPHER: -----OK-----


Test: 78
Symmetric key bit length: 128
IV bit length:            128
Plaintext bit length:     128
Symmetric key:            00000000000000000002000000000000
IV:                       00000000000000000000000000000000
Plaintext:                00000000000000000000000000000000
Ciphertext:               c265ac354817550fae12a51c2dcd749cc265ac354817550fae12a51c2dcd749c
Reciphers for ciphertext: 0
Decipheredtext:           00000000000000000000000000000000
RESULT CIPHER-DECIPHER: -----OK-----


Test: 79
Symmetric key bit length: 128
IV bit length:            128
Plaintext bit length:     128
Symmetric key:            00000000000000000001000000000000
IV:                       00000000000000000000000000000000
Plaintext:                00000000000000000000000000000000
Ciphertext:               a3b089f79d0a07ea0893bb48d508b35ba3b089f79d0a07ea0893bb48d508b35b
Reciphers for ciphertext: 0
Decipheredtext:           00000000000000000000000000000000
RESULT CIPHER-DECIPHER: -----OK-----


Test: 80
Symmetric key bit length: 128
IV bit length:            128
Plaintext bit length:     128
Symmetric key:            00000000000000000000800000000000
IV:                       00000000000000000000000000000000
Plaintext:                00000000000000000000000000000000
Ciphertext:               c0a7b6bce0675a48e95d39a7659cb20ac0a7b6bce0675a48e95d39a7659cb20a
Reciphers for ciphertext: 0
Decipheredtext:           00000000000000000000000000000000
RESULT CIPHER-DECIPHER: -----OK-----


Test: 81
Symmetric key bit length: 128
IV bit length:            128
Plaintext bit length:     128
Symmetric key:            00000000000000000000400000000000
IV:                       00000000000000000000000000000000
Plaintext:                00000000000000000000000000000000
Ciphertext:               6ce0a0ba02041cb5e6c0a46de1b71a436ce0a0ba02041cb5e6c0a46de1b71a43
Reciphers for ciphertext: 0
Decipheredtext:           00000000000000000000000000000000
RESULT CIPHER-DECIPHER: -----OK-----


Test: 82
Symmetric key bit length: 128
IV bit length:            128
Plaintext bit length:     128
Symmetric key:            00000000000000000000200000000000
IV:                       00000000000000000000000000000000
Plaintext:                00000000000000000000000000000000
Ciphertext:               e54045c33a386555c5754adb0a181244e54045c33a386555c5754adb0a181244
Reciphers for ciphertext: 0
Decipheredtext:           00000000000000000000000000000000
RESULT CIPHER-DECIPHER: -----OK-----


Test: 83
Symmetric key bit length: 128
IV bit length:            128
Plaintext bit length:     128
Symmetric key:            00000000000000000000100000000000
IV:                       00000000000000000000000000000000
Plaintext:                00000000000000000000000000000000
Ciphertext:               bb652196955bb7be7e8cb8e2e992a750bb652196955bb7be7e8cb8e2e992a750
Reciphers for ciphertext: 0
Decipheredtext:           00000000000000000000000000000000
RESULT CIPHER-DECIPHER: -----OK-----


Test: 84
Symmetric key bit length: 128
IV bit length:            128
Plaintext bit length:     128
Symmetric key:            00000000000000000000080000000000
IV:                       00000000000000000000000000000000
Plaintext:                00000000000000000000000000000000
Ciphertext:               594b2917de6119b62be3ddf10a1a47e0594b2917de6119b62be3ddf10a1a47e0
Reciphers for ciphertext: 0
Decipheredtext:           00000000000000000000000000000000
RESULT CIPHER-DECIPHER: -----OK-----


Test: 85
Symmetric key bit length: 128
IV bit length:            128
Plaintext bit length:     128
Symmetric key:            00000000000000000000040000000000
IV:                       00000000000000000000000000000000
Plaintext:                00000000000000000000000000000000
Ciphertext:               e8b4f95053617f6a10120db196aac4d1e8b4f95053617f6a10120db196aac4d1
Reciphers for ciphertext: 0
Decipheredtext:           00000000000000000000000000000000
RESULT CIPHER-DECIPHER: -----OK-----


Test: 86
Symmetric key bit length: 128
IV bit length:            128
Plaintext bit length:     128
Symmetric key:            00000000000000000000020000000000
IV:                       00000000000000000000000000000000
Plaintext:                00000000000000000000000000000000
Ciphertext:               79646b1cc19708973215b9891a2c101979646b1cc19708973215b9891a2c1019
Reciphers for ciphertext: 0
Decipheredtext:           00000000000000000000000000000000
RESULT CIPHER-DECIPHER: -----OK-----


Test: 87
Symmetric key bit length: 128
IV bit length:            128
Plaintext bit length:     128
Symmetric key:            00000000000000000000010000000000
IV:                       00000000000000000000000000000000
Plaintext:                00000000000000000000000000000000
Ciphertext:               a1819e8a094ab71ac763e4e3c6e3411d5e7e6175f6b548e5389c1b1c391cbee2
Reciphers for ciphertext: 1
Decipheredtext:           00000000000000000000000000000000
RESULT CIPHER-DECIPHER: -----OK-----


Test: 88
Symmetric key bit length: 128
IV bit length:            128
Plaintext bit length:     128
Symmetric key:            00000000000000000000008000000000
IV:                       00000000000000000000000000000000
Plaintext:                00000000000000000000000000000000
Ciphertext:               c0860a7b47544872b9db5c220088de5cc0860a7b47544872b9db5c220088de5c
Reciphers for ciphertext: 0
Decipheredtext:           00000000000000000000000000000000
RESULT CIPHER-DECIPHER: -----OK-----


Test: 89
Symmetric key bit length: 128
IV bit length:            128
Plaintext bit length:     128
Symmetric key:            00000000000000000000004000000000
IV:                       00000000000000000000000000000000
Plaintext:                00000000000000000000000000000000
Ciphertext:               325163f073e5a27ebaf339b1fa53682d325163f073e5a27ebaf339b1fa53682d
Reciphers for ciphertext: 0
Decipheredtext:           00000000000000000000000000000000
RESULT CIPHER-DECIPHER: -----OK-----


Test: 90
Symmetric key bit length: 128
IV bit length:            128
Plaintext bit length:     128
Symmetric key:            00000000000000000000002000000000
IV:                       00000000000000000000000000000000
Plaintext:                00000000000000000000000000000000
Ciphertext:               1a0c4583ceff5810f3ab42a471415a1d1a0c4583ceff5810f3ab42a471415a1d
Reciphers for ciphertext: 0
Decipheredtext:           00000000000000000000000000000000
RESULT CIPHER-DECIPHER: -----OK-----


Test: 91
Symmetric key bit length: 128
IV bit length:            128
Plaintext bit length:     128
Symmetric key:            00000000000000000000001000000000
IV:                       00000000000000000000000000000000
Plaintext:                00000000000000000000000000000000
Ciphertext:               f8ddf239d19363957c7c8c9b537893faf8ddf239d19363957c7c8c9b537893fa
Reciphers for ciphertext: 0
Decipheredtext:           00000000000000000000000000000000
RESULT CIPHER-DECIPHER: -----OK-----


Test: 92
Symmetric key bit length: 128
IV bit length:            128
Plaintext bit length:     128
Symmetric key:            00000000000000000000000800000000
IV:                       00000000000000000000000000000000
Plaintext:                00000000000000000000000000000000
Ciphertext:               d3b9999669509564741f236eef2401f3d3b9999669509564741f236eef2401f3
Reciphers for ciphertext: 0
Decipheredtext:           00000000000000000000000000000000
RESULT CIPHER-DECIPHER: -----OK-----


Test: 93
Symmetric key bit length: 128
IV bit length:            128
Plaintext bit length:     128
Symmetric key:            00000000000000000000000400000000
IV:                       00000000000000000000000000000000
Plaintext:                00000000000000000000000000000000
Ciphertext:               3376da406d82b76591b610c6c9fc3f9e3376da406d82b76591b610c6c9fc3f9e
Reciphers for ciphertext: 0
Decipheredtext:           00000000000000000000000000000000
RESULT CIPHER-DECIPHER: -----OK-----


Test: 94
Symmetric key bit length: 128
IV bit length:            128
Plaintext bit length:     128
Symmetric key:            00000000000000000000000200000000
IV:                       00000000000000000000000000000000
Plaintext:                00000000000000000000000000000000
Ciphertext:               b6ad728d2970637642723ff06204eeadb6ad728d2970637642723ff06204eead
Reciphers for ciphertext: 0
Decipheredtext:           00000000000000000000000000000000
RESULT CIPHER-DECIPHER: -----OK-----


Test: 95
Symmetric key bit length: 128
IV bit length:            128
Plaintext bit length:     128
Symmetric key:            00000000000000000000000100000000
IV:                       00000000000000000000000000000000
Plaintext:                00000000000000000000000000000000
Ciphertext:               f520b57d0019fd43ecffd55754db158e0adf4a82ffe602bc13002aa8ab24ea71
Reciphers for ciphertext: 1
Decipheredtext:           00000000000000000000000000000000
RESULT CIPHER-DECIPHER: -----OK-----


Test: 96
Symmetric key bit length: 128
IV bit length:            128
Plaintext bit length:     128
Symmetric key:            00000000000000000000000080000000
IV:                       00000000000000000000000000000000
Plaintext:                00000000000000000000000000000000
Ciphertext:               d80d1378e30036d92b4a359f68d0cbfed80d1378e30036d92b4a359f68d0cbfe
Reciphers for ciphertext: 0
Decipheredtext:           00000000000000000000000000000000
RESULT CIPHER-DECIPHER: -----OK-----


Test: 97
Symmetric key bit length: 128
IV bit length:            128
Plaintext bit length:     128
Symmetric key:            00000000000000000000000040000000
IV:                       00000000000000000000000000000000
Plaintext:                00000000000000000000000000000000
Ciphertext:               eda13b315897290e4aceb4b513e9749beda13b315897290e4aceb4b513e9749b
Reciphers for ciphertext: 0
Decipheredtext:           00000000000000000000000000000000
RESULT CIPHER-DECIPHER: -----OK-----


Test: 98
Symmetric key bit length: 128
IV bit length:            128
Plaintext bit length:     128
Symmetric key:            00000000000000000000000020000000
IV:                       00000000000000000000000000000000
Plaintext:                00000000000000000000000000000000
Ciphertext:               cba766c94861b0bcd9f239332e7df29234589936b79e4f43260dc6ccd1820d6d
Reciphers for ciphertext: 1
Decipheredtext:           00000000000000000000000000000000
RESULT CIPHER-DECIPHER: -----OK-----


Test: 99
Symmetric key bit length: 128
IV bit length:            128
Plaintext bit length:     128
Symmetric key:            00000000000000000000000010000000
IV:                       00000000000000000000000000000000
Plaintext:                00000000000000000000000000000000
Ciphertext:               c7a8ff65cd38d008ec6745897e010122c7a8ff65cd38d008ec6745897e010122
Reciphers for ciphertext: 0
Decipheredtext:           00000000000000000000000000000000
RESULT CIPHER-DECIPHER: -----OK-----


Test: 100
Symmetric key bit length: 128
IV bit length:            128
Plaintext bit length:     128
Symmetric key:            00000000000000000000000008000000
IV:                       00000000000000000000000000000000
Plaintext:                00000000000000000000000000000000
Ciphertext:               3afe23d89e79e9f8a54f103ed51eb14d3afe23d89e79e9f8a54f103ed51eb14d
Reciphers for ciphertext: 0
Decipheredtext:           00000000000000000000000000000000
RESULT CIPHER-DECIPHER: -----OK-----


Test: 101
Symmetric key bit length: 128
IV bit length:            128
Plaintext bit length:     128
Symmetric key:            00000000000000000000000004000000
IV:                       00000000000000000000000000000000
Plaintext:                00000000000000000000000000000000
Ciphertext:               27994d1aa909806c7cc8e4ac4cd5479b27994d1aa909806c7cc8e4ac4cd5479b
Reciphers for ciphertext: 0
Decipheredtext:           00000000000000000000000000000000
RESULT CIPHER-DECIPHER: -----OK-----


Test: 102
Symmetric key bit length: 128
IV bit length:            128
Plaintext bit length:     128
Symmetric key:            00000000000000000000000002000000
IV:                       00000000000000000000000000000000
Plaintext:                00000000000000000000000000000000
Ciphertext:               610d5528725b34fd70adc66e83bae266610d5528725b34fd70adc66e83bae266
Reciphers for ciphertext: 0
Decipheredtext:           00000000000000000000000000000000
RESULT CIPHER-DECIPHER: -----OK-----


Test: 103
Symmetric key bit length: 128
IV bit length:            128
Plaintext bit length:     128
Symmetric key:            00000000000000000000000001000000
IV:                       00000000000000000000000000000000
Plaintext:                00000000000000000000000000000000
Ciphertext:               3a3064dff6e0b54d864e81fa762700653a3064dff6e0b54d864e81fa76270065
Reciphers for ciphertext: 0
Decipheredtext:           00000000000000000000000000000000
RESULT CIPHER-DECIPHER: -----OK-----


Test: 104
Symmetric key bit length: 128
IV bit length:            128
Plaintext bit length:     128
Symmetric key:            00000000000000000000000000800000
IV:                       00000000000000000000000000000000
Plaintext:                00000000000000000000000000000000
Ciphertext:               5e9b5966ed3a2358005c9773f8690ad95e9b5966ed3a2358005c9773f8690ad9
Reciphers for ciphertext: 0
Decipheredtext:           00000000000000000000000000000000
RESULT CIPHER-DECIPHER: -----OK-----


Test: 105
Symmetric key bit length: 128
IV bit length:            128
Plaintext bit length:     128
Symmetric key:            00000000000000000000000000400000
IV:                       00000000000000000000000000000000
Plaintext:                00000000000000000000000000000000
Ciphertext:               713738f580ced6e358d2cdceda64f99f713738f580ced6e358d2cdceda64f99f
Reciphers for ciphertext: 0
Decipheredtext:           00000000000000000000000000000000
RESULT CIPHER-DECIPHER: -----OK-----


Test: 106
Symmetric key bit length: 128
IV bit length:            128
Plaintext bit length:     128
Symmetric key:            00000000000000000000000000200000
IV:                       00000000000000000000000000000000
Plaintext:                00000000000000000000000000000000
Ciphertext:               ec7fe3578906291b2dcf0ad7ff8b5358ec7fe3578906291b2dcf0ad7ff8b5358
Reciphers for ciphertext: 0
Decipheredtext:           00000000000000000000000000000000
RESULT CIPHER-DECIPHER: -----OK-----


Test: 107
Symmetric key bit length: 128
IV bit length:            128
Plaintext bit length:     128
Symmetric key:            00000000000000000000000000100000
IV:                       00000000000000000000000000000000
Plaintext:                00000000000000000000000000000000
Ciphertext:               0f714c096c244bed865a9e064576fe5d0f714c096c244bed865a9e064576fe5d
Reciphers for ciphertext: 0
Decipheredtext:           00000000000000000000000000000000
RESULT CIPHER-DECIPHER: -----OK-----


Test: 108
Symmetric key bit length: 128
IV bit length:            128
Plaintext bit length:     128
Symmetric key:            00000000000000000000000000080000
IV:                       00000000000000000000000000000000
Plaintext:                00000000000000000000000000000000
Ciphertext:               b7c226c60b6f3031a1e2160823a62679b7c226c60b6f3031a1e2160823a62679
Reciphers for ciphertext: 0
Decipheredtext:           00000000000000000000000000000000
RESULT CIPHER-DECIPHER: -----OK-----


Test: 109
Symmetric key bit length: 128
IV bit length:            128
Plaintext bit length:     128
Symmetric key:            00000000000000000000000000040000
IV:                       00000000000000000000000000000000
Plaintext:                00000000000000000000000000000000
Ciphertext:               5c78c4bc8f15dc964fe9ec75203ad7d85c78c4bc8f15dc964fe9ec75203ad7d8
Reciphers for ciphertext: 0
Decipheredtext:           00000000000000000000000000000000
RESULT CIPHER-DECIPHER: -----OK-----


Test: 110
Symmetric key bit length: 128
IV bit length:            128
Plaintext bit length:     128
Symmetric key:            00000000000000000000000000020000
IV:                       00000000000000000000000000000000
Plaintext:                00000000000000000000000000000000
Ciphertext:               178fb7443fbd17dcf1af122d4d117239178fb7443fbd17dcf1af122d4d117239
Reciphers for ciphertext: 0
Decipheredtext:           00000000000000000000000000000000
RESULT CIPHER-DECIPHER: -----OK-----


Test: 111
Symmetric key bit length: 128
IV bit length:            128
Plaintext bit length:     128
Symmetric key:            00000000000000000000000000010000
IV:                       00000000000000000000000000000000
Plaintext:                00000000000000000000000000000000
Ciphertext:               c55c99851bd135155a080a9c4e54b919c55c99851bd135155a080a9c4e54b919
Reciphers for ciphertext: 0
Decipheredtext:           00000000000000000000000000000000
RESULT CIPHER-DECIPHER: -----OK-----


Test: 112
Symmetric key bit length: 128
IV bit length:            128
Plaintext bit length:     128
Symmetric key:            00000000000000000000000000008000
IV:                       00000000000000000000000000000000
Plaintext:                00000000000000000000000000000000
Ciphertext:               ad75c80d72ea278b3ede380daab1f708ad75c80d72ea278b3ede380daab1f708
Reciphers for ciphertext: 0
Decipheredtext:           00000000000000000000000000000000
RESULT CIPHER-DECIPHER: -----OK-----


Test: 113
Symmetric key bit length: 128
IV bit length:            128
Plaintext bit length:     128
Symmetric key:            00000000000000000000000000004000
IV:                       00000000000000000000000000000000
Plaintext:                00000000000000000000000000000000
Ciphertext:               95054d1eca74f75515ae8c17941d3a5495054d1eca74f75515ae8c17941d3a54
Reciphers for ciphertext: 0
Decipheredtext:           00000000000000000000000000000000
RESULT CIPHER-DECIPHER: -----OK-----


Test: 114
Symmetric key bit length: 128
IV bit length:            128
Plaintext bit length:     128
Symmetric key:            00000000000000000000000000002000
IV:                       00000000000000000000000000000000
Plaintext:                00000000000000000000000000000000
Ciphertext:               8e0b0d4f95c9c9d65420b4b1869a1d3e8e0b0d4f95c9c9d65420b4b1869a1d3e
Reciphers for ciphertext: 0
Decipheredtext:           00000000000000000000000000000000
RESULT CIPHER-DECIPHER: -----OK-----


Test: 115
Symmetric key bit length: 128
IV bit length:            128
Plaintext bit length:     128
Symmetric key:            00000000000000000000000000001000
IV:                       00000000000000000000000000000000
Plaintext:                00000000000000000000000000000000
Ciphertext:               7712ea2f0598cc8cfb9a934dec848b5f7712ea2f0598cc8cfb9a934dec848b5f
Reciphers for ciphertext: 0
Decipheredtext:           00000000000000000000000000000000
RESULT CIPHER-DECIPHER: -----OK-----


Test: 116
Symmetric key bit length: 128
IV bit length:            128
Plaintext bit length:     128
Symmetric key:            00000000000000000000000000000800
IV:                       00000000000000000000000000000000
Plaintext:                00000000000000000000000000000000
Ciphertext:               638cf1f08bafe7c3f7fb297e8341fa711f55702f99ba5e3931364c3e3764ab05
Reciphers for ciphertext: 2
Decipheredtext:           00000000000000000000000000000000
RESULT CIPHER-DECIPHER: -----OK-----


Test: 117
Symmetric key bit length: 128
IV bit length:            128
Plaintext bit length:     128
Symmetric key:            00000000000000000000000000000400
IV:                       00000000000000000000000000000000
Plaintext:                00000000000000000000000000000000
Ciphertext:               3fa52e9b242f9af61322fbb6ba583a013fa52e9b242f9af61322fbb6ba583a01
Reciphers for ciphertext: 0
Decipheredtext:           00000000000000000000000000000000
RESULT CIPHER-DECIPHER: -----OK-----


Test: 118
Symmetric key bit length: 128
IV bit length:            128
Plaintext bit length:     128
Symmetric key:            00000000000000000000000000000200
IV:                       00000000000000000000000000000000
Plaintext:                00000000000000000000000000000000
Ciphertext:               3d47d74f667d60458188922ee8d8a7a03d47d74f667d60458188922ee8d8a7a0
Reciphers for ciphertext: 0
Decipheredtext:           00000000000000000000000000000000
RESULT CIPHER-DECIPHER: -----OK-----


Test: 119
Symmetric key bit length: 128
IV bit length:            128
Plaintext bit length:     128
Symmetric key:            00000000000000000000000000000100
IV:                       00000000000000000000000000000000
Plaintext:                00000000000000000000000000000000
Ciphertext:               036b4e4e02d84c56ac61007dac33ec33036b4e4e02d84c56ac61007dac33ec33
Reciphers for ciphertext: 0
Decipheredtext:           00000000000000000000000000000000
RESULT CIPHER-DECIPHER: -----OK-----


Test: 120
Symmetric key bit length: 128
IV bit length:            128
Plaintext bit length:     128
Symmetric key:            00000000000000000000000000000080
IV:                       00000000000000000000000000000000
Plaintext:                00000000000000000000000000000000
Ciphertext:               4e171141e51234de6e4b236643a6dc854e171141e51234de6e4b236643a6dc85
Reciphers for ciphertext: 0
Decipheredtext:           00000000000000000000000000000000
RESULT CIPHER-DECIPHER: -----OK-----


Test: 121
Symmetric key bit length: 128
IV bit length:            128
Plaintext bit length:     128
Symmetric key:            00000000000000000000000000000040
IV:                       00000000000000000000000000000000
Plaintext:                00000000000000000000000000000000
Ciphertext:               db720e7b04462829dfa258ed9e7c7f2fdb720e7b04462829dfa258ed9e7c7f2f
Reciphers for ciphertext: 0
Decipheredtext:           00000000000000000000000000000000
RESULT CIPHER-DECIPHER: -----OK-----


Test: 122
Symmetric key bit length: 128
IV bit length:            128
Plaintext bit length:     128
Symmetric key:            00000000000000000000000000000020
IV:                       00000000000000000000000000000000
Plaintext:                00000000000000000000000000000000
Ciphertext:               8b10e11115ff4336de57f2ea13aabbfa8b10e11115ff4336de57f2ea13aabbfa
Reciphers for ciphertext: 0
Decipheredtext:           00000000000000000000000000000000
RESULT CIPHER-DECIPHER: -----OK-----


Test: 123
Symmetric key bit length: 128
IV bit length:            128
Plaintext bit length:     128
Symmetric key:            00000000000000000000000000000010
IV:                       00000000000000000000000000000000
Plaintext:                00000000000000000000000000000000
Ciphertext:               f0e35bff226c064e08368af440298db9f0e35bff226c064e08368af440298db9
Reciphers for ciphertext: 0
Decipheredtext:           00000000000000000000000000000000
RESULT CIPHER-DECIPHER: -----OK-----


Test: 124
Symmetric key bit length: 128
IV bit length:            128
Plaintext bit length:     128
Symmetric key:            00000000000000000000000000000008
IV:                       00000000000000000000000000000000
Plaintext:                00000000000000000000000000000000
Ciphertext:               6c4c8811b4df74f2a7d7f79a6253cea76c4c8811b4df74f2a7d7f79a6253cea7
Reciphers for ciphertext: 0
Decipheredtext:           00000000000000000000000000000000
RESULT CIPHER-DECIPHER: -----OK-----


Test: 125
Symmetric key bit length: 128
IV bit length:            128
Plaintext bit length:     128
Symmetric key:            00000000000000000000000000000004
IV:                       00000000000000000000000000000000
Plaintext:                00000000000000000000000000000000
Ciphertext:               7dd12ad3bc7a419f92753d8cc39637f07dd12ad3bc7a419f92753d8cc39637f0
Reciphers for ciphertext: 0
Decipheredtext:           00000000000000000000000000000000
RESULT CIPHER-DECIPHER: -----OK-----


Test: 126
Symmetric key bit length: 128
IV bit length:            128
Plaintext bit length:     128
Symmetric key:            00000000000000000000000000000002
IV:                       00000000000000000000000000000000
Plaintext:                00000000000000000000000000000000
Ciphertext:               a465b01ea32b2f4f87c85fd06f9b0a02a465b01ea32b2f4f87c85fd06f9b0a02
Reciphers for ciphertext: 0
Decipheredtext:           00000000000000000000000000000000
RESULT CIPHER-DECIPHER: -----OK-----


Test: 127
Symmetric key bit length: 128
IV bit length:            128
Plaintext bit length:     128
Symmetric key:            00000000000000000000000000000001
IV:                       00000000000000000000000000000000
Plaintext:                00000000000000000000000000000000
Ciphertext:               8dc902ddae09f52b1a3a77ee89c1441e8dc902ddae09f52b1a3a77ee89c1441e
Reciphers for ciphertext: 0
Decipheredtext:           00000000000000000000000000000000
RESULT CIPHER-DECIPHER: -----OK-----


 DATA SHA1 (hexadecimal): 32d6638e9733fbb33505a4c6cf7731fee76a40c3

