
DiceLock 9.0.0.1

 TEST COMPONENTS:
 ----------------
 DiceLock:           DiceLockIVIndexed class
 Operation Mode:     CFB_Mode class
 Block Cipher:       Twofish128 class
 Key Modifier:       IncreaseBase0IndexModifier_6_0_0_1 class
   Index bit length: 128
 Random tests:       RandomTestSuite class
                     FrequencyTest class
                     BlockFrequencyTest class
                     CumulativeSumForwardTest class
                     LongestRunOfOnesTest class
                     RunsTest class
 Random alpha:       0.001

 VECTOR TEST: Test vector 5 - IV all byte value 0xXX


##### INDIVIDUAL TESTS #####

Number tests: 128


Test: 0
Symmetric key bit length: 128
IV bit length:            128
Plaintext bit length:     128
Symmetric key:            00000000000000000000000000000000
IV:                       00000000000000000000000000000000
Plaintext:                00000000000000000000000000000000
Ciphertext:               9f589f5cf6122c32b6bfec2f2ae8c35a9f589f5cf6122c32b6bfec2f2ae8c35a
Reciphers for ciphertext: 0
Decipheredtext:           00000000000000000000000000000000
RESULT CIPHER-DECIPHER: -----OK-----


Test: 1
Symmetric key bit length: 128
IV bit length:            128
Plaintext bit length:     128
Symmetric key:            00000000000000000000000000000000
IV:                       01010101010101010101010101010101
Plaintext:                00000000000000000000000000000000
Ciphertext:               8dad8440a360f0e078c773ad06778ba48dad8440a360f0e078c773ad06778ba4
Reciphers for ciphertext: 0
Decipheredtext:           00000000000000000000000000000000
RESULT CIPHER-DECIPHER: -----OK-----


Test: 2
Symmetric key bit length: 128
IV bit length:            128
Plaintext bit length:     128
Symmetric key:            00000000000000000000000000000000
IV:                       02020202020202020202020202020202
Plaintext:                00000000000000000000000000000000
Ciphertext:               5d1249a4d09b84134c163baa1bb52a185d1249a4d09b84134c163baa1bb52a18
Reciphers for ciphertext: 0
Decipheredtext:           00000000000000000000000000000000
RESULT CIPHER-DECIPHER: -----OK-----


Test: 3
Symmetric key bit length: 128
IV bit length:            128
Plaintext bit length:     128
Symmetric key:            00000000000000000000000000000000
IV:                       03030303030303030303030303030303
Plaintext:                00000000000000000000000000000000
Ciphertext:               a742825c1ab67602e853fb65b82e50dca742825c1ab67602e853fb65b82e50dc
Reciphers for ciphertext: 0
Decipheredtext:           00000000000000000000000000000000
RESULT CIPHER-DECIPHER: -----OK-----


Test: 4
Symmetric key bit length: 128
IV bit length:            128
Plaintext bit length:     128
Symmetric key:            00000000000000000000000000000000
IV:                       04040404040404040404040404040404
Plaintext:                00000000000000000000000000000000
Ciphertext:               d70a551125302bebf71b7a6182a117dfd70a551125302bebf71b7a6182a117df
Reciphers for ciphertext: 0
Decipheredtext:           00000000000000000000000000000000
RESULT CIPHER-DECIPHER: -----OK-----


Test: 5
Symmetric key bit length: 128
IV bit length:            128
Plaintext bit length:     128
Symmetric key:            00000000000000000000000000000000
IV:                       05050505050505050505050505050505
Plaintext:                00000000000000000000000000000000
Ciphertext:               882d3497714a7fb977870a570cfc9bea882d3497714a7fb977870a570cfc9bea
Reciphers for ciphertext: 0
Decipheredtext:           00000000000000000000000000000000
RESULT CIPHER-DECIPHER: -----OK-----


Test: 6
Symmetric key bit length: 128
IV bit length:            128
Plaintext bit length:     128
Symmetric key:            00000000000000000000000000000000
IV:                       06060606060606060606060606060606
Plaintext:                00000000000000000000000000000000
Ciphertext:               e8e8c8e021eebc00dae55f0f84c8a0fde8e8c8e021eebc00dae55f0f84c8a0fd
Reciphers for ciphertext: 0
Decipheredtext:           00000000000000000000000000000000
RESULT CIPHER-DECIPHER: -----OK-----


Test: 7
Symmetric key bit length: 128
IV bit length:            128
Plaintext bit length:     128
Symmetric key:            00000000000000000000000000000000
IV:                       07070707070707070707070707070707
Plaintext:                00000000000000000000000000000000
Ciphertext:               d206287ae1c7efe330f69f899c0151017366d853b39e5aea13faa3cc7de1a6f5
Reciphers for ciphertext: 1
Decipheredtext:           00000000000000000000000000000000
RESULT CIPHER-DECIPHER: -----OK-----


Test: 8
Symmetric key bit length: 128
IV bit length:            128
Plaintext bit length:     128
Symmetric key:            00000000000000000000000000000000
IV:                       08080808080808080808080808080808
Plaintext:                00000000000000000000000000000000
Ciphertext:               b0f8b86618d4e34c107818ec8eb8f78cb0f8b86618d4e34c107818ec8eb8f78c
Reciphers for ciphertext: 0
Decipheredtext:           00000000000000000000000000000000
RESULT CIPHER-DECIPHER: -----OK-----


Test: 9
Symmetric key bit length: 128
IV bit length:            128
Plaintext bit length:     128
Symmetric key:            00000000000000000000000000000000
IV:                       09090909090909090909090909090909
Plaintext:                00000000000000000000000000000000
Ciphertext:               e58bfc378649269a8c74f59acf1dc466e58bfc378649269a8c74f59acf1dc466
Reciphers for ciphertext: 0
Decipheredtext:           00000000000000000000000000000000
RESULT CIPHER-DECIPHER: -----OK-----


Test: 10
Symmetric key bit length: 128
IV bit length:            128
Plaintext bit length:     128
Symmetric key:            00000000000000000000000000000000
IV:                       0a0a0a0a0a0a0a0a0a0a0a0a0a0a0a0a
Plaintext:                00000000000000000000000000000000
Ciphertext:               7527dd8f3af5dae77406b9f91f864e2341568b4bb5edb42ad4cf1fbf01296872
Reciphers for ciphertext: 1
Decipheredtext:           00000000000000000000000000000000
RESULT CIPHER-DECIPHER: -----OK-----


Test: 11
Symmetric key bit length: 128
IV bit length:            128
Plaintext bit length:     128
Symmetric key:            00000000000000000000000000000000
IV:                       0b0b0b0b0b0b0b0b0b0b0b0b0b0b0b0b
Plaintext:                00000000000000000000000000000000
Ciphertext:               89cceae338a3ef519201ffeec03ff6b589cceae338a3ef519201ffeec03ff6b5
Reciphers for ciphertext: 0
Decipheredtext:           00000000000000000000000000000000
RESULT CIPHER-DECIPHER: -----OK-----


Test: 12
Symmetric key bit length: 128
IV bit length:            128
Plaintext bit length:     128
Symmetric key:            00000000000000000000000000000000
IV:                       0c0c0c0c0c0c0c0c0c0c0c0c0c0c0c0c
Plaintext:                00000000000000000000000000000000
Ciphertext:               ee9d842de3d42be0af5bcc7215b39f03ee9d842de3d42be0af5bcc7215b39f03
Reciphers for ciphertext: 0
Decipheredtext:           00000000000000000000000000000000
RESULT CIPHER-DECIPHER: -----OK-----


Test: 13
Symmetric key bit length: 128
IV bit length:            128
Plaintext bit length:     128
Symmetric key:            00000000000000000000000000000000
IV:                       0d0d0d0d0d0d0d0d0d0d0d0d0d0d0d0d
Plaintext:                00000000000000000000000000000000
Ciphertext:               457e6429b9374bb5790da4ebfc47eedd457e6429b9374bb5790da4ebfc47eedd
Reciphers for ciphertext: 0
Decipheredtext:           00000000000000000000000000000000
RESULT CIPHER-DECIPHER: -----OK-----


Test: 14
Symmetric key bit length: 128
IV bit length:            128
Plaintext bit length:     128
Symmetric key:            00000000000000000000000000000000
IV:                       0e0e0e0e0e0e0e0e0e0e0e0e0e0e0e0e
Plaintext:                00000000000000000000000000000000
Ciphertext:               595e4f5dc5d77f4152b42639a88a508c595e4f5dc5d77f4152b42639a88a508c
Reciphers for ciphertext: 0
Decipheredtext:           00000000000000000000000000000000
RESULT CIPHER-DECIPHER: -----OK-----


Test: 15
Symmetric key bit length: 128
IV bit length:            128
Plaintext bit length:     128
Symmetric key:            00000000000000000000000000000000
IV:                       0f0f0f0f0f0f0f0f0f0f0f0f0f0f0f0f
Plaintext:                00000000000000000000000000000000
Ciphertext:               19c7a21e5dcf2d3aa791b65cd5afbc9e19c7a21e5dcf2d3aa791b65cd5afbc9e
Reciphers for ciphertext: 0
Decipheredtext:           00000000000000000000000000000000
RESULT CIPHER-DECIPHER: -----OK-----


Test: 16
Symmetric key bit length: 128
IV bit length:            128
Plaintext bit length:     128
Symmetric key:            00000000000000000000000000000000
IV:                       10101010101010101010101010101010
Plaintext:                00000000000000000000000000000000
Ciphertext:               771d591428af301d69fa1e227d083527771d591428af301d69fa1e227d083527
Reciphers for ciphertext: 0
Decipheredtext:           00000000000000000000000000000000
RESULT CIPHER-DECIPHER: -----OK-----


Test: 17
Symmetric key bit length: 128
IV bit length:            128
Plaintext bit length:     128
Symmetric key:            00000000000000000000000000000000
IV:                       11111111111111111111111111111111
Plaintext:                00000000000000000000000000000000
Ciphertext:               a340d3f734c3a859dcd1145d5d43653da340d3f734c3a859dcd1145d5d43653d
Reciphers for ciphertext: 0
Decipheredtext:           00000000000000000000000000000000
RESULT CIPHER-DECIPHER: -----OK-----


Test: 18
Symmetric key bit length: 128
IV bit length:            128
Plaintext bit length:     128
Symmetric key:            00000000000000000000000000000000
IV:                       12121212121212121212121212121212
Plaintext:                00000000000000000000000000000000
Ciphertext:               7e163f10e74e342a203bca6d9639975d7e163f10e74e342a203bca6d9639975d
Reciphers for ciphertext: 0
Decipheredtext:           00000000000000000000000000000000
RESULT CIPHER-DECIPHER: -----OK-----


Test: 19
Symmetric key bit length: 128
IV bit length:            128
Plaintext bit length:     128
Symmetric key:            00000000000000000000000000000000
IV:                       13131313131313131313131313131313
Plaintext:                00000000000000000000000000000000
Ciphertext:               19421132574a5c9ac43b6cb8a78ffe3419421132574a5c9ac43b6cb8a78ffe34
Reciphers for ciphertext: 0
Decipheredtext:           00000000000000000000000000000000
RESULT CIPHER-DECIPHER: -----OK-----


Test: 20
Symmetric key bit length: 128
IV bit length:            128
Plaintext bit length:     128
Symmetric key:            00000000000000000000000000000000
IV:                       14141414141414141414141414141414
Plaintext:                00000000000000000000000000000000
Ciphertext:               938fd280fb17adf2badef6f2c6c6a153938fd280fb17adf2badef6f2c6c6a153
Reciphers for ciphertext: 0
Decipheredtext:           00000000000000000000000000000000
RESULT CIPHER-DECIPHER: -----OK-----


Test: 21
Symmetric key bit length: 128
IV bit length:            128
Plaintext bit length:     128
Symmetric key:            00000000000000000000000000000000
IV:                       15151515151515151515151515151515
Plaintext:                00000000000000000000000000000000
Ciphertext:               18958eded20bdb1f0901cd2719e1f85418958eded20bdb1f0901cd2719e1f854
Reciphers for ciphertext: 0
Decipheredtext:           00000000000000000000000000000000
RESULT CIPHER-DECIPHER: -----OK-----


Test: 22
Symmetric key bit length: 128
IV bit length:            128
Plaintext bit length:     128
Symmetric key:            00000000000000000000000000000000
IV:                       16161616161616161616161616161616
Plaintext:                00000000000000000000000000000000
Ciphertext:               88effe34c14f1917e7280b5b7332605088effe34c14f1917e7280b5b73326050
Reciphers for ciphertext: 0
Decipheredtext:           00000000000000000000000000000000
RESULT CIPHER-DECIPHER: -----OK-----


Test: 23
Symmetric key bit length: 128
IV bit length:            128
Plaintext bit length:     128
Symmetric key:            00000000000000000000000000000000
IV:                       17171717171717171717171717171717
Plaintext:                00000000000000000000000000000000
Ciphertext:               b33170541669fd63eaac8b514250676db33170541669fd63eaac8b514250676d
Reciphers for ciphertext: 0
Decipheredtext:           00000000000000000000000000000000
RESULT CIPHER-DECIPHER: -----OK-----


Test: 24
Symmetric key bit length: 128
IV bit length:            128
Plaintext bit length:     128
Symmetric key:            00000000000000000000000000000000
IV:                       18181818181818181818181818181818
Plaintext:                00000000000000000000000000000000
Ciphertext:               075d794bdb73caad7686c5cf066fedab075d794bdb73caad7686c5cf066fedab
Reciphers for ciphertext: 0
Decipheredtext:           00000000000000000000000000000000
RESULT CIPHER-DECIPHER: -----OK-----


Test: 25
Symmetric key bit length: 128
IV bit length:            128
Plaintext bit length:     128
Symmetric key:            00000000000000000000000000000000
IV:                       19191919191919191919191919191919
Plaintext:                00000000000000000000000000000000
Ciphertext:               dd60c859df25774cf1b2664f80cc2e9add60c859df25774cf1b2664f80cc2e9a
Reciphers for ciphertext: 0
Decipheredtext:           00000000000000000000000000000000
RESULT CIPHER-DECIPHER: -----OK-----


Test: 26
Symmetric key bit length: 128
IV bit length:            128
Plaintext bit length:     128
Symmetric key:            00000000000000000000000000000000
IV:                       1a1a1a1a1a1a1a1a1a1a1a1a1a1a1a1a
Plaintext:                00000000000000000000000000000000
Ciphertext:               407e22419a2bb6ab6f137ddd147a7457407e22419a2bb6ab6f137ddd147a7457
Reciphers for ciphertext: 0
Decipheredtext:           00000000000000000000000000000000
RESULT CIPHER-DECIPHER: -----OK-----


Test: 27
Symmetric key bit length: 128
IV bit length:            128
Plaintext bit length:     128
Symmetric key:            00000000000000000000000000000000
IV:                       1b1b1b1b1b1b1b1b1b1b1b1b1b1b1b1b
Plaintext:                00000000000000000000000000000000
Ciphertext:               a78ccdaad1b9e44a3756e69528c5f2e4a78ccdaad1b9e44a3756e69528c5f2e4
Reciphers for ciphertext: 0
Decipheredtext:           00000000000000000000000000000000
RESULT CIPHER-DECIPHER: -----OK-----


Test: 28
Symmetric key bit length: 128
IV bit length:            128
Plaintext bit length:     128
Symmetric key:            00000000000000000000000000000000
IV:                       1c1c1c1c1c1c1c1c1c1c1c1c1c1c1c1c
Plaintext:                00000000000000000000000000000000
Ciphertext:               92cb42f0df3293f6ed017e21a359931792cb42f0df3293f6ed017e21a3599317
Reciphers for ciphertext: 0
Decipheredtext:           00000000000000000000000000000000
RESULT CIPHER-DECIPHER: -----OK-----


Test: 29
Symmetric key bit length: 128
IV bit length:            128
Plaintext bit length:     128
Symmetric key:            00000000000000000000000000000000
IV:                       1d1d1d1d1d1d1d1d1d1d1d1d1d1d1d1d
Plaintext:                00000000000000000000000000000000
Ciphertext:               400591675500e15eec9b86cf52fc45e2400591675500e15eec9b86cf52fc45e2
Reciphers for ciphertext: 0
Decipheredtext:           00000000000000000000000000000000
RESULT CIPHER-DECIPHER: -----OK-----


Test: 30
Symmetric key bit length: 128
IV bit length:            128
Plaintext bit length:     128
Symmetric key:            00000000000000000000000000000000
IV:                       1e1e1e1e1e1e1e1e1e1e1e1e1e1e1e1e
Plaintext:                00000000000000000000000000000000
Ciphertext:               1578e7ab1520361c43d5b74b3d8ffad01578e7ab1520361c43d5b74b3d8ffad0
Reciphers for ciphertext: 0
Decipheredtext:           00000000000000000000000000000000
RESULT CIPHER-DECIPHER: -----OK-----


Test: 31
Symmetric key bit length: 128
IV bit length:            128
Plaintext bit length:     128
Symmetric key:            00000000000000000000000000000000
IV:                       1f1f1f1f1f1f1f1f1f1f1f1f1f1f1f1f
Plaintext:                00000000000000000000000000000000
Ciphertext:               95e64155cd67cb992801f551bb6e5a2895e64155cd67cb992801f551bb6e5a28
Reciphers for ciphertext: 0
Decipheredtext:           00000000000000000000000000000000
RESULT CIPHER-DECIPHER: -----OK-----


Test: 32
Symmetric key bit length: 128
IV bit length:            128
Plaintext bit length:     128
Symmetric key:            00000000000000000000000000000000
IV:                       20202020202020202020202020202020
Plaintext:                00000000000000000000000000000000
Ciphertext:               e932348b7f24d54542d6ca211eeeee41e932348b7f24d54542d6ca211eeeee41
Reciphers for ciphertext: 0
Decipheredtext:           00000000000000000000000000000000
RESULT CIPHER-DECIPHER: -----OK-----


Test: 33
Symmetric key bit length: 128
IV bit length:            128
Plaintext bit length:     128
Symmetric key:            00000000000000000000000000000000
IV:                       21212121212121212121212121212121
Plaintext:                00000000000000000000000000000000
Ciphertext:               b038362c199b79971f38606b2ce1c681b038362c199b79971f38606b2ce1c681
Reciphers for ciphertext: 0
Decipheredtext:           00000000000000000000000000000000
RESULT CIPHER-DECIPHER: -----OK-----


Test: 34
Symmetric key bit length: 128
IV bit length:            128
Plaintext bit length:     128
Symmetric key:            00000000000000000000000000000000
IV:                       22222222222222222222222222222222
Plaintext:                00000000000000000000000000000000
Ciphertext:               b29372d8968726106ff68c0417e67967b29372d8968726106ff68c0417e67967
Reciphers for ciphertext: 0
Decipheredtext:           00000000000000000000000000000000
RESULT CIPHER-DECIPHER: -----OK-----


Test: 35
Symmetric key bit length: 128
IV bit length:            128
Plaintext bit length:     128
Symmetric key:            00000000000000000000000000000000
IV:                       23232323232323232323232323232323
Plaintext:                00000000000000000000000000000000
Ciphertext:               3a37ccfdbc5908ffe07ab74787feec943a37ccfdbc5908ffe07ab74787feec94
Reciphers for ciphertext: 0
Decipheredtext:           00000000000000000000000000000000
RESULT CIPHER-DECIPHER: -----OK-----


Test: 36
Symmetric key bit length: 128
IV bit length:            128
Plaintext bit length:     128
Symmetric key:            00000000000000000000000000000000
IV:                       24242424242424242424242424242424
Plaintext:                00000000000000000000000000000000
Ciphertext:               92014019f1c3db8190326bc12df462cf92014019f1c3db8190326bc12df462cf
Reciphers for ciphertext: 0
Decipheredtext:           00000000000000000000000000000000
RESULT CIPHER-DECIPHER: -----OK-----


Test: 37
Symmetric key bit length: 128
IV bit length:            128
Plaintext bit length:     128
Symmetric key:            00000000000000000000000000000000
IV:                       25252525252525252525252525252525
Plaintext:                00000000000000000000000000000000
Ciphertext:               0cbac1fc9cbeb0ee0c9b54022d10281e0cbac1fc9cbeb0ee0c9b54022d10281e
Reciphers for ciphertext: 0
Decipheredtext:           00000000000000000000000000000000
RESULT CIPHER-DECIPHER: -----OK-----


Test: 38
Symmetric key bit length: 128
IV bit length:            128
Plaintext bit length:     128
Symmetric key:            00000000000000000000000000000000
IV:                       26262626262626262626262626262626
Plaintext:                00000000000000000000000000000000
Ciphertext:               276626ae6cf3de88b043e452fe121a6a276626ae6cf3de88b043e452fe121a6a
Reciphers for ciphertext: 0
Decipheredtext:           00000000000000000000000000000000
RESULT CIPHER-DECIPHER: -----OK-----


Test: 39
Symmetric key bit length: 128
IV bit length:            128
Plaintext bit length:     128
Symmetric key:            00000000000000000000000000000000
IV:                       27272727272727272727272727272727
Plaintext:                00000000000000000000000000000000
Ciphertext:               572a1ba95955669d96ccaa374ec43447c83a08e0d91178a1e3975bfc5183f508
Reciphers for ciphertext: 1
Decipheredtext:           00000000000000000000000000000000
RESULT CIPHER-DECIPHER: -----OK-----


Test: 40
Symmetric key bit length: 128
IV bit length:            128
Plaintext bit length:     128
Symmetric key:            00000000000000000000000000000000
IV:                       28282828282828282828282828282828
Plaintext:                00000000000000000000000000000000
Ciphertext:               698f341ec04af13655caffafb08984bf698f341ec04af13655caffafb08984bf
Reciphers for ciphertext: 0
Decipheredtext:           00000000000000000000000000000000
RESULT CIPHER-DECIPHER: -----OK-----


Test: 41
Symmetric key bit length: 128
IV bit length:            128
Plaintext bit length:     128
Symmetric key:            00000000000000000000000000000000
IV:                       29292929292929292929292929292929
Plaintext:                00000000000000000000000000000000
Ciphertext:               db1c55301547da9cf1836f145ee10361db1c55301547da9cf1836f145ee10361
Reciphers for ciphertext: 0
Decipheredtext:           00000000000000000000000000000000
RESULT CIPHER-DECIPHER: -----OK-----


Test: 42
Symmetric key bit length: 128
IV bit length:            128
Plaintext bit length:     128
Symmetric key:            00000000000000000000000000000000
IV:                       2a2a2a2a2a2a2a2a2a2a2a2a2a2a2a2a
Plaintext:                00000000000000000000000000000000
Ciphertext:               b0775bb88489c42d5adb5352f6d0ee06b0775bb88489c42d5adb5352f6d0ee06
Reciphers for ciphertext: 0
Decipheredtext:           00000000000000000000000000000000
RESULT CIPHER-DECIPHER: -----OK-----


Test: 43
Symmetric key bit length: 128
IV bit length:            128
Plaintext bit length:     128
Symmetric key:            00000000000000000000000000000000
IV:                       2b2b2b2b2b2b2b2b2b2b2b2b2b2b2b2b
Plaintext:                00000000000000000000000000000000
Ciphertext:               8df046bca9bd55dca8162576b82fb93b8df046bca9bd55dca8162576b82fb93b
Reciphers for ciphertext: 0
Decipheredtext:           00000000000000000000000000000000
RESULT CIPHER-DECIPHER: -----OK-----


Test: 44
Symmetric key bit length: 128
IV bit length:            128
Plaintext bit length:     128
Symmetric key:            00000000000000000000000000000000
IV:                       2c2c2c2c2c2c2c2c2c2c2c2c2c2c2c2c
Plaintext:                00000000000000000000000000000000
Ciphertext:               2f9cc111fec605a81cdea5853db9e8432f9cc111fec605a81cdea5853db9e843
Reciphers for ciphertext: 0
Decipheredtext:           00000000000000000000000000000000
RESULT CIPHER-DECIPHER: -----OK-----


Test: 45
Symmetric key bit length: 128
IV bit length:            128
Plaintext bit length:     128
Symmetric key:            00000000000000000000000000000000
IV:                       2d2d2d2d2d2d2d2d2d2d2d2d2d2d2d2d
Plaintext:                00000000000000000000000000000000
Ciphertext:               3d57747be99af5ef2244140ae0ec07b33d57747be99af5ef2244140ae0ec07b3
Reciphers for ciphertext: 0
Decipheredtext:           00000000000000000000000000000000
RESULT CIPHER-DECIPHER: -----OK-----


Test: 46
Symmetric key bit length: 128
IV bit length:            128
Plaintext bit length:     128
Symmetric key:            00000000000000000000000000000000
IV:                       2e2e2e2e2e2e2e2e2e2e2e2e2e2e2e2e
Plaintext:                00000000000000000000000000000000
Ciphertext:               5f2f415fc6a94274581592cf5f71c3bf5f2f415fc6a94274581592cf5f71c3bf
Reciphers for ciphertext: 0
Decipheredtext:           00000000000000000000000000000000
RESULT CIPHER-DECIPHER: -----OK-----


Test: 47
Symmetric key bit length: 128
IV bit length:            128
Plaintext bit length:     128
Symmetric key:            00000000000000000000000000000000
IV:                       2f2f2f2f2f2f2f2f2f2f2f2f2f2f2f2f
Plaintext:                00000000000000000000000000000000
Ciphertext:               665d4424f376309654a4b52dc5ce19b3665d4424f376309654a4b52dc5ce19b3
Reciphers for ciphertext: 0
Decipheredtext:           00000000000000000000000000000000
RESULT CIPHER-DECIPHER: -----OK-----


Test: 48
Symmetric key bit length: 128
IV bit length:            128
Plaintext bit length:     128
Symmetric key:            00000000000000000000000000000000
IV:                       30303030303030303030303030303030
Plaintext:                00000000000000000000000000000000
Ciphertext:               ff18970889b5ccf281de51c84427f48cff18970889b5ccf281de51c84427f48c
Reciphers for ciphertext: 0
Decipheredtext:           00000000000000000000000000000000
RESULT CIPHER-DECIPHER: -----OK-----


Test: 49
Symmetric key bit length: 128
IV bit length:            128
Plaintext bit length:     128
Symmetric key:            00000000000000000000000000000000
IV:                       31313131313131313131313131313131
Plaintext:                00000000000000000000000000000000
Ciphertext:               180924f576bd968d457f9cc28d88c914180924f576bd968d457f9cc28d88c914
Reciphers for ciphertext: 0
Decipheredtext:           00000000000000000000000000000000
RESULT CIPHER-DECIPHER: -----OK-----


Test: 50
Symmetric key bit length: 128
IV bit length:            128
Plaintext bit length:     128
Symmetric key:            00000000000000000000000000000000
IV:                       32323232323232323232323232323232
Plaintext:                00000000000000000000000000000000
Ciphertext:               c3a82d16f6977293840b3259fe6a5dddc3a82d16f6977293840b3259fe6a5ddd
Reciphers for ciphertext: 0
Decipheredtext:           00000000000000000000000000000000
RESULT CIPHER-DECIPHER: -----OK-----


Test: 51
Symmetric key bit length: 128
IV bit length:            128
Plaintext bit length:     128
Symmetric key:            00000000000000000000000000000000
IV:                       33333333333333333333333333333333
Plaintext:                00000000000000000000000000000000
Ciphertext:               dc1e24da2a4bfc72a41aa9312848e8bcdc1e24da2a4bfc72a41aa9312848e8bc
Reciphers for ciphertext: 0
Decipheredtext:           00000000000000000000000000000000
RESULT CIPHER-DECIPHER: -----OK-----


Test: 52
Symmetric key bit length: 128
IV bit length:            128
Plaintext bit length:     128
Symmetric key:            00000000000000000000000000000000
IV:                       34343434343434343434343434343434
Plaintext:                00000000000000000000000000000000
Ciphertext:               94ab2f576965f32a697c200cba9a376294ab2f576965f32a697c200cba9a3762
Reciphers for ciphertext: 0
Decipheredtext:           00000000000000000000000000000000
RESULT CIPHER-DECIPHER: -----OK-----


Test: 53
Symmetric key bit length: 128
IV bit length:            128
Plaintext bit length:     128
Symmetric key:            00000000000000000000000000000000
IV:                       35353535353535353535353535353535
Plaintext:                00000000000000000000000000000000
Ciphertext:               317f714dde96840e954d5d93460787fe317f714dde96840e954d5d93460787fe
Reciphers for ciphertext: 0
Decipheredtext:           00000000000000000000000000000000
RESULT CIPHER-DECIPHER: -----OK-----


Test: 54
Symmetric key bit length: 128
IV bit length:            128
Plaintext bit length:     128
Symmetric key:            00000000000000000000000000000000
IV:                       36363636363636363636363636363636
Plaintext:                00000000000000000000000000000000
Ciphertext:               e00ec113210477a0cebfab63ccc28f49e00ec113210477a0cebfab63ccc28f49
Reciphers for ciphertext: 0
Decipheredtext:           00000000000000000000000000000000
RESULT CIPHER-DECIPHER: -----OK-----


Test: 55
Symmetric key bit length: 128
IV bit length:            128
Plaintext bit length:     128
Symmetric key:            00000000000000000000000000000000
IV:                       37373737373737373737373737373737
Plaintext:                00000000000000000000000000000000
Ciphertext:               1ae8222733b8a9e3b83fc4679131fc651ae8222733b8a9e3b83fc4679131fc65
Reciphers for ciphertext: 0
Decipheredtext:           00000000000000000000000000000000
RESULT CIPHER-DECIPHER: -----OK-----


Test: 56
Symmetric key bit length: 128
IV bit length:            128
Plaintext bit length:     128
Symmetric key:            00000000000000000000000000000000
IV:                       38383838383838383838383838383838
Plaintext:                00000000000000000000000000000000
Ciphertext:               adad8ae25f8d288cb0d965fb12a1a674adad8ae25f8d288cb0d965fb12a1a674
Reciphers for ciphertext: 0
Decipheredtext:           00000000000000000000000000000000
RESULT CIPHER-DECIPHER: -----OK-----


Test: 57
Symmetric key bit length: 128
IV bit length:            128
Plaintext bit length:     128
Symmetric key:            00000000000000000000000000000000
IV:                       39393939393939393939393939393939
Plaintext:                00000000000000000000000000000000
Ciphertext:               27d771ef52a200e4d99c38dabd627eb727d771ef52a200e4d99c38dabd627eb7
Reciphers for ciphertext: 0
Decipheredtext:           00000000000000000000000000000000
RESULT CIPHER-DECIPHER: -----OK-----


Test: 58
Symmetric key bit length: 128
IV bit length:            128
Plaintext bit length:     128
Symmetric key:            00000000000000000000000000000000
IV:                       3a3a3a3a3a3a3a3a3a3a3a3a3a3a3a3a
Plaintext:                00000000000000000000000000000000
Ciphertext:               c853b60f6e079936f0677039e2d8e842c853b60f6e079936f0677039e2d8e842
Reciphers for ciphertext: 0
Decipheredtext:           00000000000000000000000000000000
RESULT CIPHER-DECIPHER: -----OK-----


Test: 59
Symmetric key bit length: 128
IV bit length:            128
Plaintext bit length:     128
Symmetric key:            00000000000000000000000000000000
IV:                       3b3b3b3b3b3b3b3b3b3b3b3b3b3b3b3b
Plaintext:                00000000000000000000000000000000
Ciphertext:               3ac08d7f579b88c0815def327a4247f93ac08d7f579b88c0815def327a4247f9
Reciphers for ciphertext: 0
Decipheredtext:           00000000000000000000000000000000
RESULT CIPHER-DECIPHER: -----OK-----


Test: 60
Symmetric key bit length: 128
IV bit length:            128
Plaintext bit length:     128
Symmetric key:            00000000000000000000000000000000
IV:                       3c3c3c3c3c3c3c3c3c3c3c3c3c3c3c3c
Plaintext:                00000000000000000000000000000000
Ciphertext:               78e75bc0a1a29dba2ea12c5e3f98ce1a78e75bc0a1a29dba2ea12c5e3f98ce1a
Reciphers for ciphertext: 0
Decipheredtext:           00000000000000000000000000000000
RESULT CIPHER-DECIPHER: -----OK-----


Test: 61
Symmetric key bit length: 128
IV bit length:            128
Plaintext bit length:     128
Symmetric key:            00000000000000000000000000000000
IV:                       3d3d3d3d3d3d3d3d3d3d3d3d3d3d3d3d
Plaintext:                00000000000000000000000000000000
Ciphertext:               f907d48be963b4a16eae4337fcff1493f907d48be963b4a16eae4337fcff1493
Reciphers for ciphertext: 0
Decipheredtext:           00000000000000000000000000000000
RESULT CIPHER-DECIPHER: -----OK-----


Test: 62
Symmetric key bit length: 128
IV bit length:            128
Plaintext bit length:     128
Symmetric key:            00000000000000000000000000000000
IV:                       3e3e3e3e3e3e3e3e3e3e3e3e3e3e3e3e
Plaintext:                00000000000000000000000000000000
Ciphertext:               bf7d0c8a22195a3c702e92ba2530c0d2bf7d0c8a22195a3c702e92ba2530c0d2
Reciphers for ciphertext: 0
Decipheredtext:           00000000000000000000000000000000
RESULT CIPHER-DECIPHER: -----OK-----


Test: 63
Symmetric key bit length: 128
IV bit length:            128
Plaintext bit length:     128
Symmetric key:            00000000000000000000000000000000
IV:                       3f3f3f3f3f3f3f3f3f3f3f3f3f3f3f3f
Plaintext:                00000000000000000000000000000000
Ciphertext:               43da1fbdd31ba980e1973a064fc499cb43da1fbdd31ba980e1973a064fc499cb
Reciphers for ciphertext: 0
Decipheredtext:           00000000000000000000000000000000
RESULT CIPHER-DECIPHER: -----OK-----


Test: 64
Symmetric key bit length: 128
IV bit length:            128
Plaintext bit length:     128
Symmetric key:            00000000000000000000000000000000
IV:                       40404040404040404040404040404040
Plaintext:                00000000000000000000000000000000
Ciphertext:               8587828fa3f10007ab30f27dacbc6d4d8587828fa3f10007ab30f27dacbc6d4d
Reciphers for ciphertext: 0
Decipheredtext:           00000000000000000000000000000000
RESULT CIPHER-DECIPHER: -----OK-----


Test: 65
Symmetric key bit length: 128
IV bit length:            128
Plaintext bit length:     128
Symmetric key:            00000000000000000000000000000000
IV:                       41414141414141414141414141414141
Plaintext:                00000000000000000000000000000000
Ciphertext:               09e2cd1bbf9f8172fc6ba306b4a99ea309e2cd1bbf9f8172fc6ba306b4a99ea3
Reciphers for ciphertext: 0
Decipheredtext:           00000000000000000000000000000000
RESULT CIPHER-DECIPHER: -----OK-----


Test: 66
Symmetric key bit length: 128
IV bit length:            128
Plaintext bit length:     128
Symmetric key:            00000000000000000000000000000000
IV:                       42424242424242424242424242424242
Plaintext:                00000000000000000000000000000000
Ciphertext:               b3ccf17aaca7f0ccecba36dbcfba7cfb6a6e7e43884fa7144521a456a2b5d2b0
Reciphers for ciphertext: 1
Decipheredtext:           00000000000000000000000000000000
RESULT CIPHER-DECIPHER: -----OK-----


Test: 67
Symmetric key bit length: 128
IV bit length:            128
Plaintext bit length:     128
Symmetric key:            00000000000000000000000000000000
IV:                       43434343434343434343434343434343
Plaintext:                00000000000000000000000000000000
Ciphertext:               5967e52ef72de5d99019773eddad1b6e5967e52ef72de5d99019773eddad1b6e
Reciphers for ciphertext: 0
Decipheredtext:           00000000000000000000000000000000
RESULT CIPHER-DECIPHER: -----OK-----


Test: 68
Symmetric key bit length: 128
IV bit length:            128
Plaintext bit length:     128
Symmetric key:            00000000000000000000000000000000
IV:                       44444444444444444444444444444444
Plaintext:                00000000000000000000000000000000
Ciphertext:               0a89c510b0a0fe2631153652e46a6cd60a89c510b0a0fe2631153652e46a6cd6
Reciphers for ciphertext: 0
Decipheredtext:           00000000000000000000000000000000
RESULT CIPHER-DECIPHER: -----OK-----


Test: 69
Symmetric key bit length: 128
IV bit length:            128
Plaintext bit length:     128
Symmetric key:            00000000000000000000000000000000
IV:                       45454545454545454545454545454545
Plaintext:                00000000000000000000000000000000
Ciphertext:               39da9c7d536bb27dceeb671b0df10a7639da9c7d536bb27dceeb671b0df10a76
Reciphers for ciphertext: 0
Decipheredtext:           00000000000000000000000000000000
RESULT CIPHER-DECIPHER: -----OK-----


Test: 70
Symmetric key bit length: 128
IV bit length:            128
Plaintext bit length:     128
Symmetric key:            00000000000000000000000000000000
IV:                       46464646464646464646464646464646
Plaintext:                00000000000000000000000000000000
Ciphertext:               8a945aecb7d5d1992f50235deacdc7fd8a945aecb7d5d1992f50235deacdc7fd
Reciphers for ciphertext: 0
Decipheredtext:           00000000000000000000000000000000
RESULT CIPHER-DECIPHER: -----OK-----


Test: 71
Symmetric key bit length: 128
IV bit length:            128
Plaintext bit length:     128
Symmetric key:            00000000000000000000000000000000
IV:                       47474747474747474747474747474747
Plaintext:                00000000000000000000000000000000
Ciphertext:               1e6c145376b44db7b1d6946ee07c2f301e6c145376b44db7b1d6946ee07c2f30
Reciphers for ciphertext: 0
Decipheredtext:           00000000000000000000000000000000
RESULT CIPHER-DECIPHER: -----OK-----


Test: 72
Symmetric key bit length: 128
IV bit length:            128
Plaintext bit length:     128
Symmetric key:            00000000000000000000000000000000
IV:                       48484848484848484848484848484848
Plaintext:                00000000000000000000000000000000
Ciphertext:               06473f50d79f81c5b2cf96c438d5dbeb06473f50d79f81c5b2cf96c438d5dbeb
Reciphers for ciphertext: 0
Decipheredtext:           00000000000000000000000000000000
RESULT CIPHER-DECIPHER: -----OK-----


Test: 73
Symmetric key bit length: 128
IV bit length:            128
Plaintext bit length:     128
Symmetric key:            00000000000000000000000000000000
IV:                       49494949494949494949494949494949
Plaintext:                00000000000000000000000000000000
Ciphertext:               66067e4b5b502b1d0cfbf0a75399401066067e4b5b502b1d0cfbf0a753994010
Reciphers for ciphertext: 0
Decipheredtext:           00000000000000000000000000000000
RESULT CIPHER-DECIPHER: -----OK-----


Test: 74
Symmetric key bit length: 128
IV bit length:            128
Plaintext bit length:     128
Symmetric key:            00000000000000000000000000000000
IV:                       4a4a4a4a4a4a4a4a4a4a4a4a4a4a4a4a
Plaintext:                00000000000000000000000000000000
Ciphertext:               8d33902d01bd5ae8f3c5a07daabc093e8d33902d01bd5ae8f3c5a07daabc093e
Reciphers for ciphertext: 0
Decipheredtext:           00000000000000000000000000000000
RESULT CIPHER-DECIPHER: -----OK-----


Test: 75
Symmetric key bit length: 128
IV bit length:            128
Plaintext bit length:     128
Symmetric key:            00000000000000000000000000000000
IV:                       4b4b4b4b4b4b4b4b4b4b4b4b4b4b4b4b
Plaintext:                00000000000000000000000000000000
Ciphertext:               a23014f49498ea421c53e5170776c5b2a23014f49498ea421c53e5170776c5b2
Reciphers for ciphertext: 0
Decipheredtext:           00000000000000000000000000000000
RESULT CIPHER-DECIPHER: -----OK-----


Test: 76
Symmetric key bit length: 128
IV bit length:            128
Plaintext bit length:     128
Symmetric key:            00000000000000000000000000000000
IV:                       4c4c4c4c4c4c4c4c4c4c4c4c4c4c4c4c
Plaintext:                00000000000000000000000000000000
Ciphertext:               fa20c22c662212da83865cdb191788d5fa20c22c662212da83865cdb191788d5
Reciphers for ciphertext: 0
Decipheredtext:           00000000000000000000000000000000
RESULT CIPHER-DECIPHER: -----OK-----


Test: 77
Symmetric key bit length: 128
IV bit length:            128
Plaintext bit length:     128
Symmetric key:            00000000000000000000000000000000
IV:                       4d4d4d4d4d4d4d4d4d4d4d4d4d4d4d4d
Plaintext:                00000000000000000000000000000000
Ciphertext:               717dc0f88ba1849c056351d79893c3f9717dc0f88ba1849c056351d79893c3f9
Reciphers for ciphertext: 0
Decipheredtext:           00000000000000000000000000000000
RESULT CIPHER-DECIPHER: -----OK-----


Test: 78
Symmetric key bit length: 128
IV bit length:            128
Plaintext bit length:     128
Symmetric key:            00000000000000000000000000000000
IV:                       4e4e4e4e4e4e4e4e4e4e4e4e4e4e4e4e
Plaintext:                00000000000000000000000000000000
Ciphertext:               ce2f5d7e6e92202f782dc0f55258a7ccce2f5d7e6e92202f782dc0f55258a7cc
Reciphers for ciphertext: 0
Decipheredtext:           00000000000000000000000000000000
RESULT CIPHER-DECIPHER: -----OK-----


Test: 79
Symmetric key bit length: 128
IV bit length:            128
Plaintext bit length:     128
Symmetric key:            00000000000000000000000000000000
IV:                       4f4f4f4f4f4f4f4f4f4f4f4f4f4f4f4f
Plaintext:                00000000000000000000000000000000
Ciphertext:               8549d239aefc688660d5e4fbced60a348549d239aefc688660d5e4fbced60a34
Reciphers for ciphertext: 0
Decipheredtext:           00000000000000000000000000000000
RESULT CIPHER-DECIPHER: -----OK-----


Test: 80
Symmetric key bit length: 128
IV bit length:            128
Plaintext bit length:     128
Symmetric key:            00000000000000000000000000000000
IV:                       50505050505050505050505050505050
Plaintext:                00000000000000000000000000000000
Ciphertext:               05f3970ab5c7d9aa2c7e560e7019cc2a05f3970ab5c7d9aa2c7e560e7019cc2a
Reciphers for ciphertext: 0
Decipheredtext:           00000000000000000000000000000000
RESULT CIPHER-DECIPHER: -----OK-----


Test: 81
Symmetric key bit length: 128
IV bit length:            128
Plaintext bit length:     128
Symmetric key:            00000000000000000000000000000000
IV:                       51515151515151515151515151515151
Plaintext:                00000000000000000000000000000000
Ciphertext:               09f6bf388f40771f582b52ca0d14ecf909f6bf388f40771f582b52ca0d14ecf9
Reciphers for ciphertext: 0
Decipheredtext:           00000000000000000000000000000000
RESULT CIPHER-DECIPHER: -----OK-----


Test: 82
Symmetric key bit length: 128
IV bit length:            128
Plaintext bit length:     128
Symmetric key:            00000000000000000000000000000000
IV:                       52525252525252525252525252525252
Plaintext:                00000000000000000000000000000000
Ciphertext:               edbc55f1cc2aabd9167a82b5516bc18fedbc55f1cc2aabd9167a82b5516bc18f
Reciphers for ciphertext: 0
Decipheredtext:           00000000000000000000000000000000
RESULT CIPHER-DECIPHER: -----OK-----


Test: 83
Symmetric key bit length: 128
IV bit length:            128
Plaintext bit length:     128
Symmetric key:            00000000000000000000000000000000
IV:                       53535353535353535353535353535353
Plaintext:                00000000000000000000000000000000
Ciphertext:               272118a330f49131f0e905a9e0eebde2272118a330f49131f0e905a9e0eebde2
Reciphers for ciphertext: 0
Decipheredtext:           00000000000000000000000000000000
RESULT CIPHER-DECIPHER: -----OK-----


Test: 84
Symmetric key bit length: 128
IV bit length:            128
Plaintext bit length:     128
Symmetric key:            00000000000000000000000000000000
IV:                       54545454545454545454545454545454
Plaintext:                00000000000000000000000000000000
Ciphertext:               8456e1d4f2e9c54621f5f2119ba818ba8456e1d4f2e9c54621f5f2119ba818ba
Reciphers for ciphertext: 0
Decipheredtext:           00000000000000000000000000000000
RESULT CIPHER-DECIPHER: -----OK-----


Test: 85
Symmetric key bit length: 128
IV bit length:            128
Plaintext bit length:     128
Symmetric key:            00000000000000000000000000000000
IV:                       55555555555555555555555555555555
Plaintext:                00000000000000000000000000000000
Ciphertext:               64ec4faeefe11cd82c5c51703e9df92564ec4faeefe11cd82c5c51703e9df925
Reciphers for ciphertext: 0
Decipheredtext:           00000000000000000000000000000000
RESULT CIPHER-DECIPHER: -----OK-----


Test: 86
Symmetric key bit length: 128
IV bit length:            128
Plaintext bit length:     128
Symmetric key:            00000000000000000000000000000000
IV:                       56565656565656565656565656565656
Plaintext:                00000000000000000000000000000000
Ciphertext:               8cd290d18841e93dbc008964e559e5ab8cd290d18841e93dbc008964e559e5ab
Reciphers for ciphertext: 0
Decipheredtext:           00000000000000000000000000000000
RESULT CIPHER-DECIPHER: -----OK-----


Test: 87
Symmetric key bit length: 128
IV bit length:            128
Plaintext bit length:     128
Symmetric key:            00000000000000000000000000000000
IV:                       57575757575757575757575757575757
Plaintext:                00000000000000000000000000000000
Ciphertext:               ecf67d8b131caee37c500a23e9834177ecf67d8b131caee37c500a23e9834177
Reciphers for ciphertext: 0
Decipheredtext:           00000000000000000000000000000000
RESULT CIPHER-DECIPHER: -----OK-----


Test: 88
Symmetric key bit length: 128
IV bit length:            128
Plaintext bit length:     128
Symmetric key:            00000000000000000000000000000000
IV:                       58585858585858585858585858585858
Plaintext:                00000000000000000000000000000000
Ciphertext:               deeff8e2465d1ada46ec874f1c8f2f63deeff8e2465d1ada46ec874f1c8f2f63
Reciphers for ciphertext: 0
Decipheredtext:           00000000000000000000000000000000
RESULT CIPHER-DECIPHER: -----OK-----


Test: 89
Symmetric key bit length: 128
IV bit length:            128
Plaintext bit length:     128
Symmetric key:            00000000000000000000000000000000
IV:                       59595959595959595959595959595959
Plaintext:                00000000000000000000000000000000
Ciphertext:               e9f34ecd6c1c63f8f35d09ac1fe0b3f8e9f34ecd6c1c63f8f35d09ac1fe0b3f8
Reciphers for ciphertext: 0
Decipheredtext:           00000000000000000000000000000000
RESULT CIPHER-DECIPHER: -----OK-----


Test: 90
Symmetric key bit length: 128
IV bit length:            128
Plaintext bit length:     128
Symmetric key:            00000000000000000000000000000000
IV:                       5a5a5a5a5a5a5a5a5a5a5a5a5a5a5a5a
Plaintext:                00000000000000000000000000000000
Ciphertext:               16335d60a311e196efc63d2d8e922bc716335d60a311e196efc63d2d8e922bc7
Reciphers for ciphertext: 0
Decipheredtext:           00000000000000000000000000000000
RESULT CIPHER-DECIPHER: -----OK-----


Test: 91
Symmetric key bit length: 128
IV bit length:            128
Plaintext bit length:     128
Symmetric key:            00000000000000000000000000000000
IV:                       5b5b5b5b5b5b5b5b5b5b5b5b5b5b5b5b
Plaintext:                00000000000000000000000000000000
Ciphertext:               363f8c372c7744b7199594db00df2a8b363f8c372c7744b7199594db00df2a8b
Reciphers for ciphertext: 0
Decipheredtext:           00000000000000000000000000000000
RESULT CIPHER-DECIPHER: -----OK-----


Test: 92
Symmetric key bit length: 128
IV bit length:            128
Plaintext bit length:     128
Symmetric key:            00000000000000000000000000000000
IV:                       5c5c5c5c5c5c5c5c5c5c5c5c5c5c5c5c
Plaintext:                00000000000000000000000000000000
Ciphertext:               35096b5c1874f788a8ab2c97f46309ae35096b5c1874f788a8ab2c97f46309ae
Reciphers for ciphertext: 0
Decipheredtext:           00000000000000000000000000000000
RESULT CIPHER-DECIPHER: -----OK-----


Test: 93
Symmetric key bit length: 128
IV bit length:            128
Plaintext bit length:     128
Symmetric key:            00000000000000000000000000000000
IV:                       5d5d5d5d5d5d5d5d5d5d5d5d5d5d5d5d
Plaintext:                00000000000000000000000000000000
Ciphertext:               f0e3cdb2b8d8927806134ba2029a21c1f0e3cdb2b8d8927806134ba2029a21c1
Reciphers for ciphertext: 0
Decipheredtext:           00000000000000000000000000000000
RESULT CIPHER-DECIPHER: -----OK-----


Test: 94
Symmetric key bit length: 128
IV bit length:            128
Plaintext bit length:     128
Symmetric key:            00000000000000000000000000000000
IV:                       5e5e5e5e5e5e5e5e5e5e5e5e5e5e5e5e
Plaintext:                00000000000000000000000000000000
Ciphertext:               f258daeba86853eedb8f4e0d4418559df258daeba86853eedb8f4e0d4418559d
Reciphers for ciphertext: 0
Decipheredtext:           00000000000000000000000000000000
RESULT CIPHER-DECIPHER: -----OK-----


Test: 95
Symmetric key bit length: 128
IV bit length:            128
Plaintext bit length:     128
Symmetric key:            00000000000000000000000000000000
IV:                       5f5f5f5f5f5f5f5f5f5f5f5f5f5f5f5f
Plaintext:                00000000000000000000000000000000
Ciphertext:               2bb0c79c6fcb72f0340bc5a62798f9ef2bb0c79c6fcb72f0340bc5a62798f9ef
Reciphers for ciphertext: 0
Decipheredtext:           00000000000000000000000000000000
RESULT CIPHER-DECIPHER: -----OK-----


Test: 96
Symmetric key bit length: 128
IV bit length:            128
Plaintext bit length:     128
Symmetric key:            00000000000000000000000000000000
IV:                       60606060606060606060606060606060
Plaintext:                00000000000000000000000000000000
Ciphertext:               da8f3c32b61acb0b9d8e0bb5c937f27fda8f3c32b61acb0b9d8e0bb5c937f27f
Reciphers for ciphertext: 0
Decipheredtext:           00000000000000000000000000000000
RESULT CIPHER-DECIPHER: -----OK-----


Test: 97
Symmetric key bit length: 128
IV bit length:            128
Plaintext bit length:     128
Symmetric key:            00000000000000000000000000000000
IV:                       61616161616161616161616161616161
Plaintext:                00000000000000000000000000000000
Ciphertext:               1baba653729e6a4d3af7439dafe83a881baba653729e6a4d3af7439dafe83a88
Reciphers for ciphertext: 0
Decipheredtext:           00000000000000000000000000000000
RESULT CIPHER-DECIPHER: -----OK-----


Test: 98
Symmetric key bit length: 128
IV bit length:            128
Plaintext bit length:     128
Symmetric key:            00000000000000000000000000000000
IV:                       62626262626262626262626262626262
Plaintext:                00000000000000000000000000000000
Ciphertext:               d028ecb830f591ae704c4082eda1c4a5d028ecb830f591ae704c4082eda1c4a5
Reciphers for ciphertext: 0
Decipheredtext:           00000000000000000000000000000000
RESULT CIPHER-DECIPHER: -----OK-----


Test: 99
Symmetric key bit length: 128
IV bit length:            128
Plaintext bit length:     128
Symmetric key:            00000000000000000000000000000000
IV:                       63636363636363636363636363636363
Plaintext:                00000000000000000000000000000000
Ciphertext:               26d5370a569ea9e56c1f900a1090dcb226d5370a569ea9e56c1f900a1090dcb2
Reciphers for ciphertext: 0
Decipheredtext:           00000000000000000000000000000000
RESULT CIPHER-DECIPHER: -----OK-----


Test: 100
Symmetric key bit length: 128
IV bit length:            128
Plaintext bit length:     128
Symmetric key:            00000000000000000000000000000000
IV:                       64646464646464646464646464646464
Plaintext:                00000000000000000000000000000000
Ciphertext:               e3b58509abbfc0a539b6fde4311dc0eee3b58509abbfc0a539b6fde4311dc0ee
Reciphers for ciphertext: 0
Decipheredtext:           00000000000000000000000000000000
RESULT CIPHER-DECIPHER: -----OK-----


Test: 101
Symmetric key bit length: 128
IV bit length:            128
Plaintext bit length:     128
Symmetric key:            00000000000000000000000000000000
IV:                       65656565656565656565656565656565
Plaintext:                00000000000000000000000000000000
Ciphertext:               5987c4747653c600b4475a8e5c16c55f5987c4747653c600b4475a8e5c16c55f
Reciphers for ciphertext: 0
Decipheredtext:           00000000000000000000000000000000
RESULT CIPHER-DECIPHER: -----OK-----


Test: 102
Symmetric key bit length: 128
IV bit length:            128
Plaintext bit length:     128
Symmetric key:            00000000000000000000000000000000
IV:                       66666666666666666666666666666666
Plaintext:                00000000000000000000000000000000
Ciphertext:               9b2b8ee610b2ba855844097a9b9aa0cb9b2b8ee610b2ba855844097a9b9aa0cb
Reciphers for ciphertext: 0
Decipheredtext:           00000000000000000000000000000000
RESULT CIPHER-DECIPHER: -----OK-----


Test: 103
Symmetric key bit length: 128
IV bit length:            128
Plaintext bit length:     128
Symmetric key:            00000000000000000000000000000000
IV:                       67676767676767676767676767676767
Plaintext:                00000000000000000000000000000000
Ciphertext:               129c7afdac27b9d7ef2ec41a1e8f2668129c7afdac27b9d7ef2ec41a1e8f2668
Reciphers for ciphertext: 0
Decipheredtext:           00000000000000000000000000000000
RESULT CIPHER-DECIPHER: -----OK-----


Test: 104
Symmetric key bit length: 128
IV bit length:            128
Plaintext bit length:     128
Symmetric key:            00000000000000000000000000000000
IV:                       68686868686868686868686868686868
Plaintext:                00000000000000000000000000000000
Ciphertext:               95c11b62762f224fa3ae155dcb9acdc195c11b62762f224fa3ae155dcb9acdc1
Reciphers for ciphertext: 0
Decipheredtext:           00000000000000000000000000000000
RESULT CIPHER-DECIPHER: -----OK-----


Test: 105
Symmetric key bit length: 128
IV bit length:            128
Plaintext bit length:     128
Symmetric key:            00000000000000000000000000000000
IV:                       69696969696969696969696969696969
Plaintext:                00000000000000000000000000000000
Ciphertext:               463fdf3b1657f5783809ddc2e7ef39c3463fdf3b1657f5783809ddc2e7ef39c3
Reciphers for ciphertext: 0
Decipheredtext:           00000000000000000000000000000000
RESULT CIPHER-DECIPHER: -----OK-----


Test: 106
Symmetric key bit length: 128
IV bit length:            128
Plaintext bit length:     128
Symmetric key:            00000000000000000000000000000000
IV:                       6a6a6a6a6a6a6a6a6a6a6a6a6a6a6a6a
Plaintext:                00000000000000000000000000000000
Ciphertext:               683410ebda8d75a09f43ff73ca0627a4683410ebda8d75a09f43ff73ca0627a4
Reciphers for ciphertext: 0
Decipheredtext:           00000000000000000000000000000000
RESULT CIPHER-DECIPHER: -----OK-----


Test: 107
Symmetric key bit length: 128
IV bit length:            128
Plaintext bit length:     128
Symmetric key:            00000000000000000000000000000000
IV:                       6b6b6b6b6b6b6b6b6b6b6b6b6b6b6b6b
Plaintext:                00000000000000000000000000000000
Ciphertext:               3ad7c22fe3fee3661aabb9e0f71ae4b43ad7c22fe3fee3661aabb9e0f71ae4b4
Reciphers for ciphertext: 0
Decipheredtext:           00000000000000000000000000000000
RESULT CIPHER-DECIPHER: -----OK-----


Test: 108
Symmetric key bit length: 128
IV bit length:            128
Plaintext bit length:     128
Symmetric key:            00000000000000000000000000000000
IV:                       6c6c6c6c6c6c6c6c6c6c6c6c6c6c6c6c
Plaintext:                00000000000000000000000000000000
Ciphertext:               2121ae4b72f250fc6be8cb83a06968572121ae4b72f250fc6be8cb83a0696857
Reciphers for ciphertext: 0
Decipheredtext:           00000000000000000000000000000000
RESULT CIPHER-DECIPHER: -----OK-----


Test: 109
Symmetric key bit length: 128
IV bit length:            128
Plaintext bit length:     128
Symmetric key:            00000000000000000000000000000000
IV:                       6d6d6d6d6d6d6d6d6d6d6d6d6d6d6d6d
Plaintext:                00000000000000000000000000000000
Ciphertext:               8f3092634f5d615025421906783d668c8f3092634f5d615025421906783d668c
Reciphers for ciphertext: 0
Decipheredtext:           00000000000000000000000000000000
RESULT CIPHER-DECIPHER: -----OK-----


Test: 110
Symmetric key bit length: 128
IV bit length:            128
Plaintext bit length:     128
Symmetric key:            00000000000000000000000000000000
IV:                       6e6e6e6e6e6e6e6e6e6e6e6e6e6e6e6e
Plaintext:                00000000000000000000000000000000
Ciphertext:               28c3e0066bc3dffb15324f99c45c030328c3e0066bc3dffb15324f99c45c0303
Reciphers for ciphertext: 0
Decipheredtext:           00000000000000000000000000000000
RESULT CIPHER-DECIPHER: -----OK-----


Test: 111
Symmetric key bit length: 128
IV bit length:            128
Plaintext bit length:     128
Symmetric key:            00000000000000000000000000000000
IV:                       6f6f6f6f6f6f6f6f6f6f6f6f6f6f6f6f
Plaintext:                00000000000000000000000000000000
Ciphertext:               5962f547a552018160795e54930ac5045962f547a552018160795e54930ac504
Reciphers for ciphertext: 0
Decipheredtext:           00000000000000000000000000000000
RESULT CIPHER-DECIPHER: -----OK-----


Test: 112
Symmetric key bit length: 128
IV bit length:            128
Plaintext bit length:     128
Symmetric key:            00000000000000000000000000000000
IV:                       70707070707070707070707070707070
Plaintext:                00000000000000000000000000000000
Ciphertext:               851292606248d05acd377d62e5a1f91d851292606248d05acd377d62e5a1f91d
Reciphers for ciphertext: 0
Decipheredtext:           00000000000000000000000000000000
RESULT CIPHER-DECIPHER: -----OK-----


Test: 113
Symmetric key bit length: 128
IV bit length:            128
Plaintext bit length:     128
Symmetric key:            00000000000000000000000000000000
IV:                       71717171717171717171717171717171
Plaintext:                00000000000000000000000000000000
Ciphertext:               e64abac4e23f244ba5792398ae37dd5ae64abac4e23f244ba5792398ae37dd5a
Reciphers for ciphertext: 0
Decipheredtext:           00000000000000000000000000000000
RESULT CIPHER-DECIPHER: -----OK-----


Test: 114
Symmetric key bit length: 128
IV bit length:            128
Plaintext bit length:     128
Symmetric key:            00000000000000000000000000000000
IV:                       72727272727272727272727272727272
Plaintext:                00000000000000000000000000000000
Ciphertext:               409af9a31c95612f5acd7f89e410bd86409af9a31c95612f5acd7f89e410bd86
Reciphers for ciphertext: 0
Decipheredtext:           00000000000000000000000000000000
RESULT CIPHER-DECIPHER: -----OK-----


Test: 115
Symmetric key bit length: 128
IV bit length:            128
Plaintext bit length:     128
Symmetric key:            00000000000000000000000000000000
IV:                       73737373737373737373737373737373
Plaintext:                00000000000000000000000000000000
Ciphertext:               9174647ff401e9511ef37c8045cdd2eb9174647ff401e9511ef37c8045cdd2eb
Reciphers for ciphertext: 0
Decipheredtext:           00000000000000000000000000000000
RESULT CIPHER-DECIPHER: -----OK-----


Test: 116
Symmetric key bit length: 128
IV bit length:            128
Plaintext bit length:     128
Symmetric key:            00000000000000000000000000000000
IV:                       74747474747474747474747474747474
Plaintext:                00000000000000000000000000000000
Ciphertext:               bafc683568fe4cc70778742fbd4cdd26bafc683568fe4cc70778742fbd4cdd26
Reciphers for ciphertext: 0
Decipheredtext:           00000000000000000000000000000000
RESULT CIPHER-DECIPHER: -----OK-----


Test: 117
Symmetric key bit length: 128
IV bit length:            128
Plaintext bit length:     128
Symmetric key:            00000000000000000000000000000000
IV:                       75757575757575757575757575757575
Plaintext:                00000000000000000000000000000000
Ciphertext:               ca76fea1fbd3276b9017d18da97314efca76fea1fbd3276b9017d18da97314ef
Reciphers for ciphertext: 0
Decipheredtext:           00000000000000000000000000000000
RESULT CIPHER-DECIPHER: -----OK-----


Test: 118
Symmetric key bit length: 128
IV bit length:            128
Plaintext bit length:     128
Symmetric key:            00000000000000000000000000000000
IV:                       76767676767676767676767676767676
Plaintext:                00000000000000000000000000000000
Ciphertext:               926adb7d2fb51af3ec70b86239c8cce4926adb7d2fb51af3ec70b86239c8cce4
Reciphers for ciphertext: 0
Decipheredtext:           00000000000000000000000000000000
RESULT CIPHER-DECIPHER: -----OK-----


Test: 119
Symmetric key bit length: 128
IV bit length:            128
Plaintext bit length:     128
Symmetric key:            00000000000000000000000000000000
IV:                       77777777777777777777777777777777
Plaintext:                00000000000000000000000000000000
Ciphertext:               72c82264bdb1cce65ad924afa93aa6f672c82264bdb1cce65ad924afa93aa6f6
Reciphers for ciphertext: 0
Decipheredtext:           00000000000000000000000000000000
RESULT CIPHER-DECIPHER: -----OK-----


Test: 120
Symmetric key bit length: 128
IV bit length:            128
Plaintext bit length:     128
Symmetric key:            00000000000000000000000000000000
IV:                       78787878787878787878787878787878
Plaintext:                00000000000000000000000000000000
Ciphertext:               72379b6247ca257fad467f5e24996d9572379b6247ca257fad467f5e24996d95
Reciphers for ciphertext: 0
Decipheredtext:           00000000000000000000000000000000
RESULT CIPHER-DECIPHER: -----OK-----


Test: 121
Symmetric key bit length: 128
IV bit length:            128
Plaintext bit length:     128
Symmetric key:            00000000000000000000000000000000
IV:                       79797979797979797979797979797979
Plaintext:                00000000000000000000000000000000
Ciphertext:               17f19c9512d56ba6ec116676667571e117f19c9512d56ba6ec116676667571e1
Reciphers for ciphertext: 0
Decipheredtext:           00000000000000000000000000000000
RESULT CIPHER-DECIPHER: -----OK-----


Test: 122
Symmetric key bit length: 128
IV bit length:            128
Plaintext bit length:     128
Symmetric key:            00000000000000000000000000000000
IV:                       7a7a7a7a7a7a7a7a7a7a7a7a7a7a7a7a
Plaintext:                00000000000000000000000000000000
Ciphertext:               53cb218f84c1e241ecbf0246660449ac53cb218f84c1e241ecbf0246660449ac
Reciphers for ciphertext: 0
Decipheredtext:           00000000000000000000000000000000
RESULT CIPHER-DECIPHER: -----OK-----


Test: 123
Symmetric key bit length: 128
IV bit length:            128
Plaintext bit length:     128
Symmetric key:            00000000000000000000000000000000
IV:                       7b7b7b7b7b7b7b7b7b7b7b7b7b7b7b7b
Plaintext:                00000000000000000000000000000000
Ciphertext:               f23db4a2313d9bb9d3fa2aba3804c8d7f23db4a2313d9bb9d3fa2aba3804c8d7
Reciphers for ciphertext: 0
Decipheredtext:           00000000000000000000000000000000
RESULT CIPHER-DECIPHER: -----OK-----


Test: 124
Symmetric key bit length: 128
IV bit length:            128
Plaintext bit length:     128
Symmetric key:            00000000000000000000000000000000
IV:                       7c7c7c7c7c7c7c7c7c7c7c7c7c7c7c7c
Plaintext:                00000000000000000000000000000000
Ciphertext:               35dc399fc373193ea5bd53c10ce3cc7a35dc399fc373193ea5bd53c10ce3cc7a
Reciphers for ciphertext: 0
Decipheredtext:           00000000000000000000000000000000
RESULT CIPHER-DECIPHER: -----OK-----


Test: 125
Symmetric key bit length: 128
IV bit length:            128
Plaintext bit length:     128
Symmetric key:            00000000000000000000000000000000
IV:                       7d7d7d7d7d7d7d7d7d7d7d7d7d7d7d7d
Plaintext:                00000000000000000000000000000000
Ciphertext:               3b7e1ec44eeca6a3e7960176379fecd63b7e1ec44eeca6a3e7960176379fecd6
Reciphers for ciphertext: 0
Decipheredtext:           00000000000000000000000000000000
RESULT CIPHER-DECIPHER: -----OK-----


Test: 126
Symmetric key bit length: 128
IV bit length:            128
Plaintext bit length:     128
Symmetric key:            00000000000000000000000000000000
IV:                       7e7e7e7e7e7e7e7e7e7e7e7e7e7e7e7e
Plaintext:                00000000000000000000000000000000
Ciphertext:               0f4f479586b2e2535704fb9adc9215000f4f479586b2e2535704fb9adc921500
Reciphers for ciphertext: 0
Decipheredtext:           00000000000000000000000000000000
RESULT CIPHER-DECIPHER: -----OK-----


Test: 127
Symmetric key bit length: 128
IV bit length:            128
Plaintext bit length:     128
Symmetric key:            00000000000000000000000000000000
IV:                       7f7f7f7f7f7f7f7f7f7f7f7f7f7f7f7f
Plaintext:                00000000000000000000000000000000
Ciphertext:               de7a494a0438e32b0dc9e84240ecd5d0de7a494a0438e32b0dc9e84240ecd5d0
Reciphers for ciphertext: 0
Decipheredtext:           00000000000000000000000000000000
RESULT CIPHER-DECIPHER: -----OK-----


 DATA SHA1 (hexadecimal): f7e631dcabb43834e5881f975a5cc82d488f04b4

