
DiceLock 9.0.0.1

 TEST COMPONENTS:
 ----------------
 DiceLock:           DiceLockIVIndexed class
 Operation Mode:     CFB_Mode class
 Block Cipher:       Serpent192 class
 Key Modifier:       DecreaseBase0IndexModifier_6_0_0_1 class
   Index bit length: 192
 Random tests:       RandomTestSuite class
                     FrequencyTest class
                     BlockFrequencyTest class
                     CumulativeSumForwardTest class
                     LongestRunOfOnesTest class
                     RunsTest class
 Random alpha:       0.001

 VECTOR TEST: Test vector 3 - Changing symmetric key, IV and plaintext, shifting 1 bit set


##### INDIVIDUAL TESTS #####

Number tests: 128


Test: 0
Symmetric key bit length: 192
IV bit length:            128
Plaintext bit length:     136
Symmetric key:            000000000000000080000000000000000000000000000000
IV:                       80000000000000000000000000000000
Plaintext:                0080000000000000000000000000000000
Ciphertext:               07cc675d10690c2cda7472e7e98d612c00bdd5bf1f89f7ad074c675d10690c2cda7472e7e98d612c2b
Reciphers for ciphertext: 0
Decipheredtext:           0080000000000000000000000000000000
RESULT CIPHER-DECIPHER: -----OK-----


Test: 1
Symmetric key bit length: 192
IV bit length:            128
Plaintext bit length:     136
Symmetric key:            000000000000000040000000000000000000000000000000
IV:                       40000000000000000000000000000000
Plaintext:                0040000000000000000000000000000000
Ciphertext:               1e1b083b86e3c4fd7c7817d24e1a3f503d5f6cdf43ced9a61e5b083b86e3c4fd7c7817d24e1a3f5030
Reciphers for ciphertext: 0
Decipheredtext:           0040000000000000000000000000000000
RESULT CIPHER-DECIPHER: -----OK-----


Test: 2
Symmetric key bit length: 192
IV bit length:            128
Plaintext bit length:     136
Symmetric key:            000000000000000020000000000000000000000000000000
IV:                       20000000000000000000000000000000
Plaintext:                0020000000000000000000000000000000
Ciphertext:               1f6b0bafe2fb5ad87f62bea53b18fe7e318e389a4754f045e0b4f4501d04a527809d415ac4e7018105
Reciphers for ciphertext: 1
Decipheredtext:           0020000000000000000000000000000000
RESULT CIPHER-DECIPHER: -----OK-----


Test: 3
Symmetric key bit length: 192
IV bit length:            128
Plaintext bit length:     136
Symmetric key:            000000000000000010000000000000000000000000000000
IV:                       10000000000000000000000000000000
Plaintext:                0010000000000000000000000000000000
Ciphertext:               5be60af798ab7eb6204e6d3ebee8314532d8f57b70fe8d4f5bf60af798ab7eb6204e6d3ebee83145c7
Reciphers for ciphertext: 0
Decipheredtext:           0010000000000000000000000000000000
RESULT CIPHER-DECIPHER: -----OK-----


Test: 4
Symmetric key bit length: 192
IV bit length:            128
Plaintext bit length:     136
Symmetric key:            000000000000000008000000000000000000000000000000
IV:                       08000000000000000000000000000000
Plaintext:                0008000000000000000000000000000000
Ciphertext:               67678c1b1883288d8f385ddc284202e71c3ad980f83156f5676f8c1b1883288d8f385ddc284202e791
Reciphers for ciphertext: 0
Decipheredtext:           0008000000000000000000000000000000
RESULT CIPHER-DECIPHER: -----OK-----


Test: 5
Symmetric key bit length: 192
IV bit length:            128
Plaintext bit length:     136
Symmetric key:            000000000000000004000000000000000000000000000000
IV:                       04000000000000000000000000000000
Plaintext:                0004000000000000000000000000000000
Ciphertext:               459d01b389c64aeabc940b8b4f98c985aa5b0855064de962459901b389c64aeabc940b8b4f98c985ae
Reciphers for ciphertext: 0
Decipheredtext:           0004000000000000000000000000000000
RESULT CIPHER-DECIPHER: -----OK-----


Test: 6
Symmetric key bit length: 192
IV bit length:            128
Plaintext bit length:     136
Symmetric key:            000000000000000002000000000000000000000000000000
IV:                       02000000000000000000000000000000
Plaintext:                0002000000000000000000000000000000
Ciphertext:               182ddb40d3f4e70633322b5a6fdaba6ded34da678cc291da182fdb40d3f4e70633322b5a6fdaba6d83
Reciphers for ciphertext: 0
Decipheredtext:           0002000000000000000000000000000000
RESULT CIPHER-DECIPHER: -----OK-----


Test: 7
Symmetric key bit length: 192
IV bit length:            128
Plaintext bit length:     136
Symmetric key:            000000000000000001000000000000000000000000000000
IV:                       01000000000000000000000000000000
Plaintext:                0001000000000000000000000000000000
Ciphertext:               3df4105007e81cc698f6108b8112faf5d97857c4dbe547203df5105007e81cc698f6108b8112faf506
Reciphers for ciphertext: 0
Decipheredtext:           0001000000000000000000000000000000
RESULT CIPHER-DECIPHER: -----OK-----


Test: 8
Symmetric key bit length: 192
IV bit length:            128
Plaintext bit length:     136
Symmetric key:            000000000000000000800000000000000000000000000000
IV:                       00800000000000000000000000000000
Plaintext:                0000800000000000000000000000000000
Ciphertext:               ecdad14c76e75f8f5cf658dcc9d9ce4f51eaa4148fb5c03cecda514c76e75f8f5cf658dcc9d9ce4fb3
Reciphers for ciphertext: 0
Decipheredtext:           0000800000000000000000000000000000
RESULT CIPHER-DECIPHER: -----OK-----


Test: 9
Symmetric key bit length: 192
IV bit length:            128
Plaintext bit length:     136
Symmetric key:            000000000000000000400000000000000000000000000000
IV:                       00400000000000000000000000000000
Plaintext:                0000400000000000000000000000000000
Ciphertext:               58a15db885655047ddde651d68e0bb1753b4355a027a618c58a11db885655047ddde651d68e0bb17ec
Reciphers for ciphertext: 0
Decipheredtext:           0000400000000000000000000000000000
RESULT CIPHER-DECIPHER: -----OK-----


Test: 10
Symmetric key bit length: 192
IV bit length:            128
Plaintext bit length:     136
Symmetric key:            000000000000000000200000000000000000000000000000
IV:                       00200000000000000000000000000000
Plaintext:                0000200000000000000000000000000000
Ciphertext:               dd5bc97e5c62a86590cabe53d62144a2d0dbaf6031757fbfdd5be97e5c62a86590cabe53d62144a231
Reciphers for ciphertext: 0
Decipheredtext:           0000200000000000000000000000000000
RESULT CIPHER-DECIPHER: -----OK-----


Test: 11
Symmetric key bit length: 192
IV bit length:            128
Plaintext bit length:     136
Symmetric key:            000000000000000000100000000000000000000000000000
IV:                       00100000000000000000000000000000
Plaintext:                0000100000000000000000000000000000
Ciphertext:               c7b32c9e1c92a87dc2e94c25da12ad5c2b7c7eae55ad93cec7b33c9e1c92a87dc2e94c25da12ad5c4a
Reciphers for ciphertext: 0
Decipheredtext:           0000100000000000000000000000000000
RESULT CIPHER-DECIPHER: -----OK-----


Test: 12
Symmetric key bit length: 192
IV bit length:            128
Plaintext bit length:     136
Symmetric key:            000000000000000000080000000000000000000000000000
IV:                       00080000000000000000000000000000
Plaintext:                0000080000000000000000000000000000
Ciphertext:               ab07405bbd99912a9fd088a17d1391fa24143cf41cdd5a7eab07485bbd99912a9fd088a17d1391fa27
Reciphers for ciphertext: 0
Decipheredtext:           0000080000000000000000000000000000
RESULT CIPHER-DECIPHER: -----OK-----


Test: 13
Symmetric key bit length: 192
IV bit length:            128
Plaintext bit length:     136
Symmetric key:            000000000000000000040000000000000000000000000000
IV:                       00040000000000000000000000000000
Plaintext:                0000040000000000000000000000000000
Ciphertext:               91839515e1d77f7c29131d97bfb87cbca082d48462a94cbc91839115e1d77f7c29131d97bfb87cbc25
Reciphers for ciphertext: 0
Decipheredtext:           0000040000000000000000000000000000
RESULT CIPHER-DECIPHER: -----OK-----


Test: 14
Symmetric key bit length: 192
IV bit length:            128
Plaintext bit length:     136
Symmetric key:            000000000000000000020000000000000000000000000000
IV:                       00020000000000000000000000000000
Plaintext:                0000020000000000000000000000000000
Ciphertext:               01793fcb69f3f335755be06c09ed8c0c65ce567d4819779501793dcb69f3f335755be06c09ed8c0ce9
Reciphers for ciphertext: 0
Decipheredtext:           0000020000000000000000000000000000
RESULT CIPHER-DECIPHER: -----OK-----


Test: 15
Symmetric key bit length: 192
IV bit length:            128
Plaintext bit length:     136
Symmetric key:            000000000000000000010000000000000000000000000000
IV:                       00010000000000000000000000000000
Plaintext:                0000010000000000000000000000000000
Ciphertext:               afb41a99da86fd341c4355450774c093e92012c51c08fd72afb41b99da86fd341c4355450774c0937e
Reciphers for ciphertext: 0
Decipheredtext:           0000010000000000000000000000000000
RESULT CIPHER-DECIPHER: -----OK-----


Test: 16
Symmetric key bit length: 192
IV bit length:            128
Plaintext bit length:     136
Symmetric key:            000000000000000000008000000000000000000000000000
IV:                       00008000000000000000000000000000
Plaintext:                0000008000000000000000000000000000
Ciphertext:               2db0a16512ba4c56bc8cd465faeadf1c58c659f0693013a82db0a1e512ba4c56bc8cd465faeadf1cfa
Reciphers for ciphertext: 0
Decipheredtext:           0000008000000000000000000000000000
RESULT CIPHER-DECIPHER: -----OK-----


Test: 17
Symmetric key bit length: 192
IV bit length:            128
Plaintext bit length:     136
Symmetric key:            000000000000000000004000000000000000000000000000
IV:                       00004000000000000000000000000000
Plaintext:                0000004000000000000000000000000000
Ciphertext:               44d1fd7c812e653a669dd7b3b5108fadfc149299f98e8c5944d1fd3c812e653a669dd7b3b5108fadf5
Reciphers for ciphertext: 0
Decipheredtext:           0000004000000000000000000000000000
RESULT CIPHER-DECIPHER: -----OK-----


Test: 18
Symmetric key bit length: 192
IV bit length:            128
Plaintext bit length:     136
Symmetric key:            000000000000000000002000000000000000000000000000
IV:                       00002000000000000000000000000000
Plaintext:                0000002000000000000000000000000000
Ciphertext:               17651c425b3789f213a1dcea47cdde339e36c6a4b0ee039217651c625b3789f213a1dcea47cdde331d
Reciphers for ciphertext: 0
Decipheredtext:           0000002000000000000000000000000000
RESULT CIPHER-DECIPHER: -----OK-----


Test: 19
Symmetric key bit length: 192
IV bit length:            128
Plaintext bit length:     136
Symmetric key:            000000000000000000001000000000000000000000000000
IV:                       00001000000000000000000000000000
Plaintext:                0000001000000000000000000000000000
Ciphertext:               b8d4bac751b48ada7e35550aa495010ae13eb98235f5dcafb8d4bad751b48ada7e35550aa495010a9f
Reciphers for ciphertext: 0
Decipheredtext:           0000001000000000000000000000000000
RESULT CIPHER-DECIPHER: -----OK-----


Test: 20
Symmetric key bit length: 192
IV bit length:            128
Plaintext bit length:     136
Symmetric key:            000000000000000000000800000000000000000000000000
IV:                       00000800000000000000000000000000
Plaintext:                0000000800000000000000000000000000
Ciphertext:               a5cd3c24c49bbbdfd88e486b929a822db13ae2993d42e1cda5cd3c2cc49bbbdfd88e486b929a822df0
Reciphers for ciphertext: 0
Decipheredtext:           0000000800000000000000000000000000
RESULT CIPHER-DECIPHER: -----OK-----


Test: 21
Symmetric key bit length: 192
IV bit length:            128
Plaintext bit length:     136
Symmetric key:            000000000000000000000400000000000000000000000000
IV:                       00000400000000000000000000000000
Plaintext:                0000000400000000000000000000000000
Ciphertext:               306a9a05878255d401f33a129cead7ecedae4a8753507dd7306a9a01878255d401f33a129cead7ec5f
Reciphers for ciphertext: 0
Decipheredtext:           0000000400000000000000000000000000
RESULT CIPHER-DECIPHER: -----OK-----


Test: 22
Symmetric key bit length: 192
IV bit length:            128
Plaintext bit length:     136
Symmetric key:            000000000000000000000200000000000000000000000000
IV:                       00000200000000000000000000000000
Plaintext:                0000000200000000000000000000000000
Ciphertext:               c361c8c7ec463ba1bdb83f5a94afddaafc3bce69d5fe8ee4c361c8c5ec463ba1bdb83f5a94afddaaa5
Reciphers for ciphertext: 0
Decipheredtext:           0000000200000000000000000000000000
RESULT CIPHER-DECIPHER: -----OK-----


Test: 23
Symmetric key bit length: 192
IV bit length:            128
Plaintext bit length:     136
Symmetric key:            000000000000000000000100000000000000000000000000
IV:                       00000100000000000000000000000000
Plaintext:                0000000100000000000000000000000000
Ciphertext:               a7c1786cbca7c7b73f137f9b5022f9180fcb2b860df4c35ca7c1786dbca7c7b73f137f9b5022f918cc
Reciphers for ciphertext: 0
Decipheredtext:           0000000100000000000000000000000000
RESULT CIPHER-DECIPHER: -----OK-----


Test: 24
Symmetric key bit length: 192
IV bit length:            128
Plaintext bit length:     136
Symmetric key:            000000000000000000000080000000000000000000000000
IV:                       00000080000000000000000000000000
Plaintext:                0000000080000000000000000000000000
Ciphertext:               d72674375b322b717b10855ba1c32b8b55caf80931dcdd3fd7267437db322b717b10855ba1c32b8b54
Reciphers for ciphertext: 0
Decipheredtext:           0000000080000000000000000000000000
RESULT CIPHER-DECIPHER: -----OK-----


Test: 25
Symmetric key bit length: 192
IV bit length:            128
Plaintext bit length:     136
Symmetric key:            000000000000000000000040000000000000000000000000
IV:                       00000040000000000000000000000000
Plaintext:                0000000040000000000000000000000000
Ciphertext:               449fe1765c75088e901c976ce431155316ab47ac95ba64df449fe1761c75088e901c976ce4311553a4
Reciphers for ciphertext: 0
Decipheredtext:           0000000040000000000000000000000000
RESULT CIPHER-DECIPHER: -----OK-----


Test: 26
Symmetric key bit length: 192
IV bit length:            128
Plaintext bit length:     136
Symmetric key:            000000000000000000000020000000000000000000000000
IV:                       00000020000000000000000000000000
Plaintext:                0000000020000000000000000000000000
Ciphertext:               addbe9fad98b365c412ad97159cd7ee62b4989c2bdcb7b86addbe9faf98b365c412ad97159cd7ee6ec
Reciphers for ciphertext: 0
Decipheredtext:           0000000020000000000000000000000000
RESULT CIPHER-DECIPHER: -----OK-----


Test: 27
Symmetric key bit length: 192
IV bit length:            128
Plaintext bit length:     136
Symmetric key:            000000000000000000000010000000000000000000000000
IV:                       00000010000000000000000000000000
Plaintext:                0000000010000000000000000000000000
Ciphertext:               6aedbf994c336b7fc74407b780bcb54cccf7cde43cf50dfd6aedbf995c336b7fc74407b780bcb54c5b
Reciphers for ciphertext: 0
Decipheredtext:           0000000010000000000000000000000000
RESULT CIPHER-DECIPHER: -----OK-----


Test: 28
Symmetric key bit length: 192
IV bit length:            128
Plaintext bit length:     136
Symmetric key:            000000000000000000000008000000000000000000000000
IV:                       00000008000000000000000000000000
Plaintext:                0000000008000000000000000000000000
Ciphertext:               87282e2c9684861642a451ec41f359702da75bbfe3e7b1cf87282e2c9e84861642a451ec41f359708a
Reciphers for ciphertext: 0
Decipheredtext:           0000000008000000000000000000000000
RESULT CIPHER-DECIPHER: -----OK-----


Test: 29
Symmetric key bit length: 192
IV bit length:            128
Plaintext bit length:     136
Symmetric key:            000000000000000000000004000000000000000000000000
IV:                       00000004000000000000000000000000
Plaintext:                0000000004000000000000000000000000
Ciphertext:               80c7e76ccef6c9fa89d8209c3b265fca7b9cf11151842fd880c7e76ccaf6c9fa89d8209c3b265fca74
Reciphers for ciphertext: 0
Decipheredtext:           0000000004000000000000000000000000
RESULT CIPHER-DECIPHER: -----OK-----


Test: 30
Symmetric key bit length: 192
IV bit length:            128
Plaintext bit length:     136
Symmetric key:            000000000000000000000002000000000000000000000000
IV:                       00000002000000000000000000000000
Plaintext:                0000000002000000000000000000000000
Ciphertext:               03f995199a01bd130b47c33f312f1c3b5b2d5f72ba44874b03f995199801bd130b47c33f312f1c3b11
Reciphers for ciphertext: 0
Decipheredtext:           0000000002000000000000000000000000
RESULT CIPHER-DECIPHER: -----OK-----


Test: 31
Symmetric key bit length: 192
IV bit length:            128
Plaintext bit length:     136
Symmetric key:            000000000000000000000001000000000000000000000000
IV:                       00000001000000000000000000000000
Plaintext:                0000000001000000000000000000000000
Ciphertext:               5777609a58d1ef790dc880bc929b1f481d23e9cae4f0ea5a5777609a59d1ef790dc880bc929b1f48ba
Reciphers for ciphertext: 0
Decipheredtext:           0000000001000000000000000000000000
RESULT CIPHER-DECIPHER: -----OK-----


Test: 32
Symmetric key bit length: 192
IV bit length:            128
Plaintext bit length:     136
Symmetric key:            000000000000000000000000800000000000000000000000
IV:                       00000000800000000000000000000000
Plaintext:                0000000000800000000000000000000000
Ciphertext:               485b96d0bb7325ee73df360556fed546a2a9529f5ab8cc22485b96d0bbf325ee73df360556fed54689
Reciphers for ciphertext: 0
Decipheredtext:           0000000000800000000000000000000000
RESULT CIPHER-DECIPHER: -----OK-----


Test: 33
Symmetric key bit length: 192
IV bit length:            128
Plaintext bit length:     136
Symmetric key:            000000000000000000000000400000000000000000000000
IV:                       00000000400000000000000000000000
Plaintext:                0000000000400000000000000000000000
Ciphertext:               52266440beccb42828a2065998c7e0261c3cdae6a307aae152266440be8cb42828a2065998c7e02674
Reciphers for ciphertext: 0
Decipheredtext:           0000000000400000000000000000000000
RESULT CIPHER-DECIPHER: -----OK-----


Test: 34
Symmetric key bit length: 192
IV bit length:            128
Plaintext bit length:     136
Symmetric key:            000000000000000000000000200000000000000000000000
IV:                       00000000200000000000000000000000
Plaintext:                0000000000200000000000000000000000
Ciphertext:               0dbe45e576a7375ac3e11cf96b53f843d585093907a823000dbe45e57687375ac3e11cf96b53f843cd
Reciphers for ciphertext: 0
Decipheredtext:           0000000000200000000000000000000000
RESULT CIPHER-DECIPHER: -----OK-----


Test: 35
Symmetric key bit length: 192
IV bit length:            128
Plaintext bit length:     136
Symmetric key:            000000000000000000000000100000000000000000000000
IV:                       00000000100000000000000000000000
Plaintext:                0000000000100000000000000000000000
Ciphertext:               50be66257bc7fef05748f6385136e98cb02520f6c73d015e50be66257bd7fef05748f6385136e98c61
Reciphers for ciphertext: 0
Decipheredtext:           0000000000100000000000000000000000
RESULT CIPHER-DECIPHER: -----OK-----


Test: 36
Symmetric key bit length: 192
IV bit length:            128
Plaintext bit length:     136
Symmetric key:            000000000000000000000000080000000000000000000000
IV:                       00000000080000000000000000000000
Plaintext:                0000000000080000000000000000000000
Ciphertext:               e2452a8a37b4fc21744cdd032ba6ee265cbcd8c21a751e92e2452a8a37bcfc21744cdd032ba6ee263d
Reciphers for ciphertext: 0
Decipheredtext:           0000000000080000000000000000000000
RESULT CIPHER-DECIPHER: -----OK-----


Test: 37
Symmetric key bit length: 192
IV bit length:            128
Plaintext bit length:     136
Symmetric key:            000000000000000000000000040000000000000000000000
IV:                       00000000040000000000000000000000
Plaintext:                0000000000040000000000000000000000
Ciphertext:               ac82983b8e3e9ca568a5ed14a713743e34ccc163c525b4e2ac82983b8e3a9ca568a5ed14a713743ec1
Reciphers for ciphertext: 0
Decipheredtext:           0000000000040000000000000000000000
RESULT CIPHER-DECIPHER: -----OK-----


Test: 38
Symmetric key bit length: 192
IV bit length:            128
Plaintext bit length:     136
Symmetric key:            000000000000000000000000020000000000000000000000
IV:                       00000000020000000000000000000000
Plaintext:                0000000000020000000000000000000000
Ciphertext:               848fdc9b00aa5b8c9bc33f532c80adcded23b3e4a6d26899848fdc9b00a85b8c9bc33f532c80adcd56
Reciphers for ciphertext: 0
Decipheredtext:           0000000000020000000000000000000000
RESULT CIPHER-DECIPHER: -----OK-----


Test: 39
Symmetric key bit length: 192
IV bit length:            128
Plaintext bit length:     136
Symmetric key:            000000000000000000000000010000000000000000000000
IV:                       00000000010000000000000000000000
Plaintext:                0000000000010000000000000000000000
Ciphertext:               72efc198de78886492401deaa904884ed1d1f2d390bbb4c172efc198de79886492401deaa904884e82
Reciphers for ciphertext: 0
Decipheredtext:           0000000000010000000000000000000000
RESULT CIPHER-DECIPHER: -----OK-----


Test: 40
Symmetric key bit length: 192
IV bit length:            128
Plaintext bit length:     136
Symmetric key:            000000000000000000000000008000000000000000000000
IV:                       00000000008000000000000000000000
Plaintext:                0000000000008000000000000000000000
Ciphertext:               487b17ef3478e9d10d4ebcc0b6e8dd63df88134af324280d487b17ef347869d10d4ebcc0b6e8dd6366
Reciphers for ciphertext: 0
Decipheredtext:           0000000000008000000000000000000000
RESULT CIPHER-DECIPHER: -----OK-----


Test: 41
Symmetric key bit length: 192
IV bit length:            128
Plaintext bit length:     136
Symmetric key:            000000000000000000000000004000000000000000000000
IV:                       00000000004000000000000000000000
Plaintext:                0000000000004000000000000000000000
Ciphertext:               c42291d2486228362d5bb8514bad1c9e6f471d7afabb248fc42291d2486268362d5bb8514bad1c9e36
Reciphers for ciphertext: 0
Decipheredtext:           0000000000004000000000000000000000
RESULT CIPHER-DECIPHER: -----OK-----


Test: 42
Symmetric key bit length: 192
IV bit length:            128
Plaintext bit length:     136
Symmetric key:            000000000000000000000000002000000000000000000000
IV:                       00000000002000000000000000000000
Plaintext:                0000000000002000000000000000000000
Ciphertext:               9848c42c6f7828c76d8b419cb3c560503ca794c0dfbafaa99848c42c6f7808c76d8b419cb3c56050d3
Reciphers for ciphertext: 0
Decipheredtext:           0000000000002000000000000000000000
RESULT CIPHER-DECIPHER: -----OK-----


Test: 43
Symmetric key bit length: 192
IV bit length:            128
Plaintext bit length:     136
Symmetric key:            000000000000000000000000001000000000000000000000
IV:                       00000000001000000000000000000000
Plaintext:                0000000000001000000000000000000000
Ciphertext:               a4274e5bff0e697e6693d61c0edc4c292af2bf03a27f11bda4274e5bff0e797e6693d61c0edc4c290f
Reciphers for ciphertext: 0
Decipheredtext:           0000000000001000000000000000000000
RESULT CIPHER-DECIPHER: -----OK-----


Test: 44
Symmetric key bit length: 192
IV bit length:            128
Plaintext bit length:     136
Symmetric key:            000000000000000000000000000800000000000000000000
IV:                       00000000000800000000000000000000
Plaintext:                0000000000000800000000000000000000
Ciphertext:               b933a32dc5e6387f29395e98be5e3d7d2e59758fbe2c7c4cb933a32dc5e6307f29395e98be5e3d7d9f
Reciphers for ciphertext: 0
Decipheredtext:           0000000000000800000000000000000000
RESULT CIPHER-DECIPHER: -----OK-----


Test: 45
Symmetric key bit length: 192
IV bit length:            128
Plaintext bit length:     136
Symmetric key:            000000000000000000000000000400000000000000000000
IV:                       00000000000400000000000000000000
Plaintext:                0000000000000400000000000000000000
Ciphertext:               717526c38dc5f4dd1b63c31710e90bdee66a87e3b542d669717526c38dc5f0dd1b63c31710e90bde50
Reciphers for ciphertext: 0
Decipheredtext:           0000000000000400000000000000000000
RESULT CIPHER-DECIPHER: -----OK-----


Test: 46
Symmetric key bit length: 192
IV bit length:            128
Plaintext bit length:     136
Symmetric key:            000000000000000000000000000200000000000000000000
IV:                       00000000000200000000000000000000
Plaintext:                0000000000000200000000000000000000
Ciphertext:               228dc24354f1b1416fc2c801ac8532eb7bc9b2374d38b8bd228dc24354f1b3416fc2c801ac8532eb09
Reciphers for ciphertext: 0
Decipheredtext:           0000000000000200000000000000000000
RESULT CIPHER-DECIPHER: -----OK-----


Test: 47
Symmetric key bit length: 192
IV bit length:            128
Plaintext bit length:     136
Symmetric key:            000000000000000000000000000100000000000000000000
IV:                       00000000000100000000000000000000
Plaintext:                0000000000000100000000000000000000
Ciphertext:               c29254a75fa87cdd4e79111b11918811d2c0db6c692ac484c29254a75fa87ddd4e79111b1191881133
Reciphers for ciphertext: 0
Decipheredtext:           0000000000000100000000000000000000
RESULT CIPHER-DECIPHER: -----OK-----


Test: 48
Symmetric key bit length: 192
IV bit length:            128
Plaintext bit length:     136
Symmetric key:            000000000000000000000000000080000000000000000000
IV:                       00000000000080000000000000000000
Plaintext:                0000000000000080000000000000000000
Ciphertext:               522b4cc130b7d73b15277dcfa33f9056a10eacf465b1d4c6522b4cc130b7d7bb15277dcfa33f90563d
Reciphers for ciphertext: 0
Decipheredtext:           0000000000000080000000000000000000
RESULT CIPHER-DECIPHER: -----OK-----


Test: 49
Symmetric key bit length: 192
IV bit length:            128
Plaintext bit length:     136
Symmetric key:            000000000000000000000000000040000000000000000000
IV:                       00000000000040000000000000000000
Plaintext:                0000000000000040000000000000000000
Ciphertext:               6424c42341ded22db410ddf21a45f9edde87c1cc9f7c84f96424c42341ded26db410ddf21a45f9ed33
Reciphers for ciphertext: 0
Decipheredtext:           0000000000000040000000000000000000
RESULT CIPHER-DECIPHER: -----OK-----


Test: 50
Symmetric key bit length: 192
IV bit length:            128
Plaintext bit length:     136
Symmetric key:            000000000000000000000000000020000000000000000000
IV:                       00000000000020000000000000000000
Plaintext:                0000000000000020000000000000000000
Ciphertext:               5c8f16efbc2267b420f677698390dd7a1220c0526126fd485c8f16efbc22679420f677698390dd7a43
Reciphers for ciphertext: 0
Decipheredtext:           0000000000000020000000000000000000
RESULT CIPHER-DECIPHER: -----OK-----


Test: 51
Symmetric key bit length: 192
IV bit length:            128
Plaintext bit length:     136
Symmetric key:            000000000000000000000000000010000000000000000000
IV:                       00000000000010000000000000000000
Plaintext:                0000000000000010000000000000000000
Ciphertext:               6ea875af260494674387c9eece96e3e1136b9ad57a063a656ea875af260494774387c9eece96e3e11e
Reciphers for ciphertext: 0
Decipheredtext:           0000000000000010000000000000000000
RESULT CIPHER-DECIPHER: -----OK-----


Test: 52
Symmetric key bit length: 192
IV bit length:            128
Plaintext bit length:     136
Symmetric key:            000000000000000000000000000008000000000000000000
IV:                       00000000000008000000000000000000
Plaintext:                0000000000000008000000000000000000
Ciphertext:               953aab3d081c716674a1694fa1a4e743b7f571f713ae5dc9953aab3d081c716e74a1694fa1a4e74381
Reciphers for ciphertext: 0
Decipheredtext:           0000000000000008000000000000000000
RESULT CIPHER-DECIPHER: -----OK-----


Test: 53
Symmetric key bit length: 192
IV bit length:            128
Plaintext bit length:     136
Symmetric key:            000000000000000000000000000004000000000000000000
IV:                       00000000000004000000000000000000
Plaintext:                0000000000000004000000000000000000
Ciphertext:               c8bd2bfa0b0877ba39dc06e9c6aceb984675d3f8ee69c6c0c8bd2bfa0b0877be39dc06e9c6aceb9892
Reciphers for ciphertext: 0
Decipheredtext:           0000000000000004000000000000000000
RESULT CIPHER-DECIPHER: -----OK-----


Test: 54
Symmetric key bit length: 192
IV bit length:            128
Plaintext bit length:     136
Symmetric key:            000000000000000000000000000002000000000000000000
IV:                       00000000000002000000000000000000
Plaintext:                0000000000000002000000000000000000
Ciphertext:               e4a5b3b053b3c887dbfba0ccca32e4419336ee5141e8ba28e4a5b3b053b3c885dbfba0ccca32e441e0
Reciphers for ciphertext: 0
Decipheredtext:           0000000000000002000000000000000000
RESULT CIPHER-DECIPHER: -----OK-----


Test: 55
Symmetric key bit length: 192
IV bit length:            128
Plaintext bit length:     136
Symmetric key:            000000000000000000000000000001000000000000000000
IV:                       00000000000001000000000000000000
Plaintext:                0000000000000001000000000000000000
Ciphertext:               2f94575f4d473441d2f43dbb2e33f400cb21c77fc83d1c792f94575f4d473440d2f43dbb2e33f4001e
Reciphers for ciphertext: 0
Decipheredtext:           0000000000000001000000000000000000
RESULT CIPHER-DECIPHER: -----OK-----


Test: 56
Symmetric key bit length: 192
IV bit length:            128
Plaintext bit length:     136
Symmetric key:            000000000000000000000000000000800000000000000000
IV:                       00000000000000800000000000000000
Plaintext:                0000000000000000800000000000000000
Ciphertext:               396dba7192ceb703f8f73882a62d586dbcc2115912a97d02396dba7192ceb70378f73882a62d586d56
Reciphers for ciphertext: 0
Decipheredtext:           0000000000000000800000000000000000
RESULT CIPHER-DECIPHER: -----OK-----


Test: 57
Symmetric key bit length: 192
IV bit length:            128
Plaintext bit length:     136
Symmetric key:            000000000000000000000000000000400000000000000000
IV:                       00000000000000400000000000000000
Plaintext:                0000000000000000400000000000000000
Ciphertext:               4cf43799c3a5a19fa3ab6cb69d1a2e619cf9a5d0ea1573684cf43799c3a5a19fe3ab6cb69d1a2e61a5
Reciphers for ciphertext: 0
Decipheredtext:           0000000000000000400000000000000000
RESULT CIPHER-DECIPHER: -----OK-----


Test: 58
Symmetric key bit length: 192
IV bit length:            128
Plaintext bit length:     136
Symmetric key:            000000000000000000000000000000200000000000000000
IV:                       00000000000000200000000000000000
Plaintext:                0000000000000000200000000000000000
Ciphertext:               13911726bb1bef551c1225a6148823c7cd45ebd9e446841eec6ee8d944e410aac3edda59eb77dc38c7
Reciphers for ciphertext: 1
Decipheredtext:           0000000000000000200000000000000000
RESULT CIPHER-DECIPHER: -----OK-----


Test: 59
Symmetric key bit length: 192
IV bit length:            128
Plaintext bit length:     136
Symmetric key:            000000000000000000000000000000100000000000000000
IV:                       00000000000000100000000000000000
Plaintext:                0000000000000000100000000000000000
Ciphertext:               1f848733025068cb25b203f1615be28fc744c771f9b652911f848733025068cb35b203f1615be28fc2
Reciphers for ciphertext: 0
Decipheredtext:           0000000000000000100000000000000000
RESULT CIPHER-DECIPHER: -----OK-----


Test: 60
Symmetric key bit length: 192
IV bit length:            128
Plaintext bit length:     136
Symmetric key:            000000000000000000000000000000080000000000000000
IV:                       00000000000000080000000000000000
Plaintext:                0000000000000000080000000000000000
Ciphertext:               8de3fccfcf49690292a0c65f6102972b05528ee6b5cf00448de3fccfcf4969029aa0c65f6102972be3
Reciphers for ciphertext: 0
Decipheredtext:           0000000000000000080000000000000000
RESULT CIPHER-DECIPHER: -----OK-----


Test: 61
Symmetric key bit length: 192
IV bit length:            128
Plaintext bit length:     136
Symmetric key:            000000000000000000000000000000040000000000000000
IV:                       00000000000000040000000000000000
Plaintext:                0000000000000000040000000000000000
Ciphertext:               420b90bf42a14571642820b91c16662ec368712f4491ff6c420b90bf42a14571602820b91c16662e7f
Reciphers for ciphertext: 0
Decipheredtext:           0000000000000000040000000000000000
RESULT CIPHER-DECIPHER: -----OK-----


Test: 62
Symmetric key bit length: 192
IV bit length:            128
Plaintext bit length:     136
Symmetric key:            000000000000000000000000000000020000000000000000
IV:                       00000000000000020000000000000000
Plaintext:                0000000000000000020000000000000000
Ciphertext:               85205213f27cc9e9e191ba0ac04020c36368743ebafa949585205213f27cc9e9e391ba0ac04020c345
Reciphers for ciphertext: 0
Decipheredtext:           0000000000000000020000000000000000
RESULT CIPHER-DECIPHER: -----OK-----


Test: 63
Symmetric key bit length: 192
IV bit length:            128
Plaintext bit length:     136
Symmetric key:            000000000000000000000000000000010000000000000000
IV:                       00000000000000010000000000000000
Plaintext:                0000000000000000010000000000000000
Ciphertext:               47f54ce66e93f651c6ff434fe23a97fb179dc18d9c9c1390b80ab319916c09ae3800bcb01dc5680455
Reciphers for ciphertext: 1
Decipheredtext:           0000000000000000010000000000000000
RESULT CIPHER-DECIPHER: -----OK-----


Test: 64
Symmetric key bit length: 192
IV bit length:            128
Plaintext bit length:     136
Symmetric key:            000000000000000000000000000000008000000000000000
IV:                       00000000000000008000000000000000
Plaintext:                0000000000000000008000000000000000
Ciphertext:               5571c24830139fd89e53ae0d48829b225817a09a716220785571c24830139fd89ed3ae0d48829b2261
Reciphers for ciphertext: 0
Decipheredtext:           0000000000000000008000000000000000
RESULT CIPHER-DECIPHER: -----OK-----


Test: 65
Symmetric key bit length: 192
IV bit length:            128
Plaintext bit length:     136
Symmetric key:            000000000000000000000000000000004000000000000000
IV:                       00000000000000004000000000000000
Plaintext:                0000000000000000004000000000000000
Ciphertext:               847a916a6ad438c546ff80cee72938966c9c58348b796770847a916a6ad438c546bf80cee7293896d8
Reciphers for ciphertext: 0
Decipheredtext:           0000000000000000004000000000000000
RESULT CIPHER-DECIPHER: -----OK-----


Test: 66
Symmetric key bit length: 192
IV bit length:            128
Plaintext bit length:     136
Symmetric key:            000000000000000000000000000000002000000000000000
IV:                       00000000000000002000000000000000
Plaintext:                0000000000000000002000000000000000
Ciphertext:               d2f2b0a0cf6767a84bc9b26935be63f4a57a747b38309657d2f2b0a0cf6767a84be9b26935be63f4f6
Reciphers for ciphertext: 0
Decipheredtext:           0000000000000000002000000000000000
RESULT CIPHER-DECIPHER: -----OK-----


Test: 67
Symmetric key bit length: 192
IV bit length:            128
Plaintext bit length:     136
Symmetric key:            000000000000000000000000000000001000000000000000
IV:                       00000000000000001000000000000000
Plaintext:                0000000000000000001000000000000000
Ciphertext:               7300612cb37d1a8c9c299841871841d06c311825221cb9ab7300612cb37d1a8c9c399841871841d07e
Reciphers for ciphertext: 0
Decipheredtext:           0000000000000000001000000000000000
RESULT CIPHER-DECIPHER: -----OK-----


Test: 68
Symmetric key bit length: 192
IV bit length:            128
Plaintext bit length:     136
Symmetric key:            000000000000000000000000000000000800000000000000
IV:                       00000000000000000800000000000000
Plaintext:                0000000000000000000800000000000000
Ciphertext:               dc48d7dd138512f232145e59e346d47c0810488638a54c5cdc48d7dd138512f2321c5e59e346d47cc0
Reciphers for ciphertext: 0
Decipheredtext:           0000000000000000000800000000000000
RESULT CIPHER-DECIPHER: -----OK-----


Test: 69
Symmetric key bit length: 192
IV bit length:            128
Plaintext bit length:     136
Symmetric key:            000000000000000000000000000000000400000000000000
IV:                       00000000000000000400000000000000
Plaintext:                0000000000000000000400000000000000
Ciphertext:               56436ffc35caaa0b87b318be4e9f4749658d78d211d155c556436ffc35caaa0b87b718be4e9f474989
Reciphers for ciphertext: 0
Decipheredtext:           0000000000000000000400000000000000
RESULT CIPHER-DECIPHER: -----OK-----


Test: 70
Symmetric key bit length: 192
IV bit length:            128
Plaintext bit length:     136
Symmetric key:            000000000000000000000000000000000200000000000000
IV:                       00000000000000000200000000000000
Plaintext:                0000000000000000000200000000000000
Ciphertext:               c3bc29ed3af762c70d51c2c69ad125d9c48d330758022aecc3bc29ed3af762c70d53c2c69ad125d9a8
Reciphers for ciphertext: 0
Decipheredtext:           0000000000000000000200000000000000
RESULT CIPHER-DECIPHER: -----OK-----


Test: 71
Symmetric key bit length: 192
IV bit length:            128
Plaintext bit length:     136
Symmetric key:            000000000000000000000000000000000100000000000000
IV:                       00000000000000000100000000000000
Plaintext:                0000000000000000000100000000000000
Ciphertext:               a9b4b2869ab466aff994d31587d1e69ea11d54c494ecffeaa9b4b2869ab466aff995d31587d1e69e07
Reciphers for ciphertext: 0
Decipheredtext:           0000000000000000000100000000000000
RESULT CIPHER-DECIPHER: -----OK-----


Test: 72
Symmetric key bit length: 192
IV bit length:            128
Plaintext bit length:     136
Symmetric key:            000000000000000000000000000000000080000000000000
IV:                       00000000000000000080000000000000
Plaintext:                0000000000000000000080000000000000
Ciphertext:               5221b2c6a04dddd23a2696022752f9dd78b13a4d222652265221b2c6a04dddd23a2616022752f9dd14
Reciphers for ciphertext: 0
Decipheredtext:           0000000000000000000080000000000000
RESULT CIPHER-DECIPHER: -----OK-----


Test: 73
Symmetric key bit length: 192
IV bit length:            128
Plaintext bit length:     136
Symmetric key:            000000000000000000000000000000000040000000000000
IV:                       00000000000000000040000000000000
Plaintext:                0000000000000000000040000000000000
Ciphertext:               6bf806894b33f1351f5562c405340ec9e3377607288408356bf806894b33f1351f5522c405340ec9de
Reciphers for ciphertext: 0
Decipheredtext:           0000000000000000000040000000000000
RESULT CIPHER-DECIPHER: -----OK-----


Test: 74
Symmetric key bit length: 192
IV bit length:            128
Plaintext bit length:     136
Symmetric key:            000000000000000000000000000000000020000000000000
IV:                       00000000000000000020000000000000
Plaintext:                0000000000000000000020000000000000
Ciphertext:               b3bdaddf3b9af4b146b215912a408192b05a13a8616d1a7eb3bdaddf3b9af4b146b235912a408192f0
Reciphers for ciphertext: 0
Decipheredtext:           0000000000000000000020000000000000
RESULT CIPHER-DECIPHER: -----OK-----


Test: 75
Symmetric key bit length: 192
IV bit length:            128
Plaintext bit length:     136
Symmetric key:            000000000000000000000000000000000010000000000000
IV:                       00000000000000000010000000000000
Plaintext:                0000000000000000000010000000000000
Ciphertext:               faa9cf81b16cfe04ffbfca706d76ce1f0e3f76b2b8eac104faa9cf81b16cfe04ffbfda706d76ce1fb1
Reciphers for ciphertext: 0
Decipheredtext:           0000000000000000000010000000000000
RESULT CIPHER-DECIPHER: -----OK-----


Test: 76
Symmetric key bit length: 192
IV bit length:            128
Plaintext bit length:     136
Symmetric key:            000000000000000000000000000000000008000000000000
IV:                       00000000000000000008000000000000
Plaintext:                0000000000000000000008000000000000
Ciphertext:               4a17660dab07c12f2932c95e4734bcc791b055e64570287e4a17660dab07c12f2932c15e4734bcc735
Reciphers for ciphertext: 0
Decipheredtext:           0000000000000000000008000000000000
RESULT CIPHER-DECIPHER: -----OK-----


Test: 77
Symmetric key bit length: 192
IV bit length:            128
Plaintext bit length:     136
Symmetric key:            000000000000000000000000000000000004000000000000
IV:                       00000000000000000004000000000000
Plaintext:                0000000000000000000004000000000000
Ciphertext:               b6392d723f995110da1e25a836d80a496660f1f7a208265bb6392d723f995110da1e21a836d80a4995
Reciphers for ciphertext: 0
Decipheredtext:           0000000000000000000004000000000000
RESULT CIPHER-DECIPHER: -----OK-----


Test: 78
Symmetric key bit length: 192
IV bit length:            128
Plaintext bit length:     136
Symmetric key:            000000000000000000000000000000000002000000000000
IV:                       00000000000000000002000000000000
Plaintext:                0000000000000000000002000000000000
Ciphertext:               3c16dbca6279c4712e14036bfc93400ef89434fdac45437c3c16dbca6279c4712e14016bfc93400e6b
Reciphers for ciphertext: 0
Decipheredtext:           0000000000000000000002000000000000
RESULT CIPHER-DECIPHER: -----OK-----


Test: 79
Symmetric key bit length: 192
IV bit length:            128
Plaintext bit length:     136
Symmetric key:            000000000000000000000000000000000001000000000000
IV:                       00000000000000000001000000000000
Plaintext:                0000000000000000000001000000000000
Ciphertext:               3a766f99b6e1fc6dbbfe02c9972da89dfd25470fc20b4c903a766f99b6e1fc6dbbfe03c9972da89d98
Reciphers for ciphertext: 0
Decipheredtext:           0000000000000000000001000000000000
RESULT CIPHER-DECIPHER: -----OK-----


Test: 80
Symmetric key bit length: 192
IV bit length:            128
Plaintext bit length:     136
Symmetric key:            000000000000000000000000000000000000800000000000
IV:                       00000000000000000000800000000000
Plaintext:                0000000000000000000000800000000000
Ciphertext:               a82887bcee9f690562ea925dff9c4a4129eb059b6e46e797a82887bcee9f690562ea92ddff9c4a41e6
Reciphers for ciphertext: 0
Decipheredtext:           0000000000000000000000800000000000
RESULT CIPHER-DECIPHER: -----OK-----


Test: 81
Symmetric key bit length: 192
IV bit length:            128
Plaintext bit length:     136
Symmetric key:            000000000000000000000000000000000000400000000000
IV:                       00000000000000000000400000000000
Plaintext:                0000000000000000000000400000000000
Ciphertext:               fa63a0b53631b12752237fa24f35862700c5ff2d0154d21cfa63a0b53631b12752237fe24f358627e2
Reciphers for ciphertext: 0
Decipheredtext:           0000000000000000000000400000000000
RESULT CIPHER-DECIPHER: -----OK-----


Test: 82
Symmetric key bit length: 192
IV bit length:            128
Plaintext bit length:     136
Symmetric key:            000000000000000000000000000000000000200000000000
IV:                       00000000000000000000200000000000
Plaintext:                0000000000000000000000200000000000
Ciphertext:               e9d1ef92643dbe0fa1d06054adc400b650ce7f6f66ba7174e9d1ef92643dbe0fa1d06074adc400b6c0
Reciphers for ciphertext: 0
Decipheredtext:           0000000000000000000000200000000000
RESULT CIPHER-DECIPHER: -----OK-----


Test: 83
Symmetric key bit length: 192
IV bit length:            128
Plaintext bit length:     136
Symmetric key:            000000000000000000000000000000000000100000000000
IV:                       00000000000000000000100000000000
Plaintext:                0000000000000000000000100000000000
Ciphertext:               b80f8a8c967456e95754c5fc7756216f2f7f92dfa71e8370b80f8a8c967456e95754c5ec7756216f4d
Reciphers for ciphertext: 0
Decipheredtext:           0000000000000000000000100000000000
RESULT CIPHER-DECIPHER: -----OK-----


Test: 84
Symmetric key bit length: 192
IV bit length:            128
Plaintext bit length:     136
Symmetric key:            000000000000000000000000000000000000080000000000
IV:                       00000000000000000000080000000000
Plaintext:                0000000000000000000000080000000000
Ciphertext:               a447245c1ab7b2443fb3012d6e6e1474e5435e94d8fa75f9a447245c1ab7b2443fb301256e6e14747d
Reciphers for ciphertext: 0
Decipheredtext:           0000000000000000000000080000000000
RESULT CIPHER-DECIPHER: -----OK-----


Test: 85
Symmetric key bit length: 192
IV bit length:            128
Plaintext bit length:     136
Symmetric key:            000000000000000000000000000000000000040000000000
IV:                       00000000000000000000040000000000
Plaintext:                0000000000000000000000040000000000
Ciphertext:               3c57911e738efb28ec034f20d1896690ea29a402f47cb7143c57911e738efb28ec034f24d1896690c6
Reciphers for ciphertext: 0
Decipheredtext:           0000000000000000000000040000000000
RESULT CIPHER-DECIPHER: -----OK-----


Test: 86
Symmetric key bit length: 192
IV bit length:            128
Plaintext bit length:     136
Symmetric key:            000000000000000000000000000000000000020000000000
IV:                       00000000000000000000020000000000
Plaintext:                0000000000000000000000020000000000
Ciphertext:               aeb98e0f8effd9b8ed6dcd610cbd235a24bac54fa5e0f928aeb98e0f8effd9b8ed6dcd630cbd235a92
Reciphers for ciphertext: 0
Decipheredtext:           0000000000000000000000020000000000
RESULT CIPHER-DECIPHER: -----OK-----


Test: 87
Symmetric key bit length: 192
IV bit length:            128
Plaintext bit length:     136
Symmetric key:            000000000000000000000000000000000000010000000000
IV:                       00000000000000000000010000000000
Plaintext:                0000000000000000000000010000000000
Ciphertext:               317da751723752c301e1830593d094db83dedb6b3738eecb317da751723752c301e1830493d094db1e
Reciphers for ciphertext: 0
Decipheredtext:           0000000000000000000000010000000000
RESULT CIPHER-DECIPHER: -----OK-----


Test: 88
Symmetric key bit length: 192
IV bit length:            128
Plaintext bit length:     136
Symmetric key:            000000000000000000000000000000000000008000000000
IV:                       00000000000000000000008000000000
Plaintext:                0000000000000000000000008000000000
Ciphertext:               5ba1a85ca21582b65a30838895cf2b4debfd1aab17541d12a45e57a35dea7d49a5cf7c77ea30d4b263
Reciphers for ciphertext: 1
Decipheredtext:           0000000000000000000000008000000000
RESULT CIPHER-DECIPHER: -----OK-----


Test: 89
Symmetric key bit length: 192
IV bit length:            128
Plaintext bit length:     136
Symmetric key:            000000000000000000000000000000000000004000000000
IV:                       00000000000000000000004000000000
Plaintext:                0000000000000000000000004000000000
Ciphertext:               98a620020dbe9dccdd3ad9853713809bc90f923917c091ca98a620020dbe9dccdd3ad9857713809b00
Reciphers for ciphertext: 0
Decipheredtext:           0000000000000000000000004000000000
RESULT CIPHER-DECIPHER: -----OK-----


Test: 90
Symmetric key bit length: 192
IV bit length:            128
Plaintext bit length:     136
Symmetric key:            000000000000000000000000000000000000002000000000
IV:                       00000000000000000000002000000000
Plaintext:                0000000000000000000000002000000000
Ciphertext:               59591be8a30013d3653cb13caa341d8d4b5355d8e88c139f59591be8a30013d3653cb13c8a341d8d19
Reciphers for ciphertext: 0
Decipheredtext:           0000000000000000000000002000000000
RESULT CIPHER-DECIPHER: -----OK-----


Test: 91
Symmetric key bit length: 192
IV bit length:            128
Plaintext bit length:     136
Symmetric key:            000000000000000000000000000000000000001000000000
IV:                       00000000000000000000001000000000
Plaintext:                0000000000000000000000001000000000
Ciphertext:               679ccb0cc9b0041aaabef436bba9dd6c2cc62d555f5ccd98679ccb0cc9b0041aaabef436aba9dd6cc6
Reciphers for ciphertext: 0
Decipheredtext:           0000000000000000000000001000000000
RESULT CIPHER-DECIPHER: -----OK-----


Test: 92
Symmetric key bit length: 192
IV bit length:            128
Plaintext bit length:     136
Symmetric key:            000000000000000000000000000000000000000800000000
IV:                       00000000000000000000000800000000
Plaintext:                0000000000000000000000000800000000
Ciphertext:               84a3360c1c2d4d8a999b158dca9096dd81c4e78cea59e00b84a3360c1c2d4d8a999b158dc29096ddaa
Reciphers for ciphertext: 0
Decipheredtext:           0000000000000000000000000800000000
RESULT CIPHER-DECIPHER: -----OK-----


Test: 93
Symmetric key bit length: 192
IV bit length:            128
Plaintext bit length:     136
Symmetric key:            000000000000000000000000000000000000000400000000
IV:                       00000000000000000000000400000000
Plaintext:                0000000000000000000000000400000000
Ciphertext:               1d0c67ca883cb7ceaa639bdba244722924ccd1e7c5ed31ed1d0c67ca883cb7ceaa639bdba644722949
Reciphers for ciphertext: 0
Decipheredtext:           0000000000000000000000000400000000
RESULT CIPHER-DECIPHER: -----OK-----


Test: 94
Symmetric key bit length: 192
IV bit length:            128
Plaintext bit length:     136
Symmetric key:            000000000000000000000000000000000000000200000000
IV:                       00000000000000000000000200000000
Plaintext:                0000000000000000000000000200000000
Ciphertext:               8d410699d8cf70e1fe05a52ba25f1c30f8bae3c3970bf7ab8d410699d8cf70e1fe05a52ba05f1c3048
Reciphers for ciphertext: 0
Decipheredtext:           0000000000000000000000000200000000
RESULT CIPHER-DECIPHER: -----OK-----


Test: 95
Symmetric key bit length: 192
IV bit length:            128
Plaintext bit length:     136
Symmetric key:            000000000000000000000000000000000000000100000000
IV:                       00000000000000000000000100000000
Plaintext:                0000000000000000000000000100000000
Ciphertext:               f131b7ad03677f46b349253f65d257e97de57e7d92374ae3f131b7ad03677f46b349253f64d257e9e4
Reciphers for ciphertext: 0
Decipheredtext:           0000000000000000000000000100000000
RESULT CIPHER-DECIPHER: -----OK-----


Test: 96
Symmetric key bit length: 192
IV bit length:            128
Plaintext bit length:     136
Symmetric key:            000000000000000000000000000000000000000080000000
IV:                       00000000000000000000000080000000
Plaintext:                0000000000000000000000000080000000
Ciphertext:               1939e385108c05e31f786e0f0db4d82eb786f1e614435da71939e385108c05e31f786e0f0d34d82ebe
Reciphers for ciphertext: 0
Decipheredtext:           0000000000000000000000000080000000
RESULT CIPHER-DECIPHER: -----OK-----


Test: 97
Symmetric key bit length: 192
IV bit length:            128
Plaintext bit length:     136
Symmetric key:            000000000000000000000000000000000000000040000000
IV:                       00000000000000000000000040000000
Plaintext:                0000000000000000000000000040000000
Ciphertext:               d1f70ad1a412b5ea0d770d271fd102721ac6b3a7468eefd1d1f70ad1a412b5ea0d770d271f9102721c
Reciphers for ciphertext: 0
Decipheredtext:           0000000000000000000000000040000000
RESULT CIPHER-DECIPHER: -----OK-----


Test: 98
Symmetric key bit length: 192
IV bit length:            128
Plaintext bit length:     136
Symmetric key:            000000000000000000000000000000000000000020000000
IV:                       00000000000000000000000020000000
Plaintext:                0000000000000000000000000020000000
Ciphertext:               209ffc5269914b269d6b443c33f1ca2510d732bc0f4815f5209ffc5269914b269d6b443c33d1ca2596
Reciphers for ciphertext: 0
Decipheredtext:           0000000000000000000000000020000000
RESULT CIPHER-DECIPHER: -----OK-----


Test: 99
Symmetric key bit length: 192
IV bit length:            128
Plaintext bit length:     136
Symmetric key:            000000000000000000000000000000000000000010000000
IV:                       00000000000000000000000010000000
Plaintext:                0000000000000000000000000010000000
Ciphertext:               253b8fa989f7c52a136908858860cec69b8adafc169f728e253b8fa989f7c52a136908858870cec65e
Reciphers for ciphertext: 0
Decipheredtext:           0000000000000000000000000010000000
RESULT CIPHER-DECIPHER: -----OK-----


Test: 100
Symmetric key bit length: 192
IV bit length:            128
Plaintext bit length:     136
Symmetric key:            000000000000000000000000000000000000000008000000
IV:                       00000000000000000000000008000000
Plaintext:                0000000000000000000000000008000000
Ciphertext:               95d298cc53b33721585819ff2bba82c844322eb964e3023195d298cc53b33721585819ff2bb282c830
Reciphers for ciphertext: 0
Decipheredtext:           0000000000000000000000000008000000
RESULT CIPHER-DECIPHER: -----OK-----


Test: 101
Symmetric key bit length: 192
IV bit length:            128
Plaintext bit length:     136
Symmetric key:            000000000000000000000000000000000000000004000000
IV:                       00000000000000000000000004000000
Plaintext:                0000000000000000000000000004000000
Ciphertext:               aa0a3c4e1265b4e44f973fbdb1bc4fe8ecbc4d2500620e00aa0a3c4e1265b4e44f973fbdb1b84fe897
Reciphers for ciphertext: 0
Decipheredtext:           0000000000000000000000000004000000
RESULT CIPHER-DECIPHER: -----OK-----


Test: 102
Symmetric key bit length: 192
IV bit length:            128
Plaintext bit length:     136
Symmetric key:            000000000000000000000000000000000000000002000000
IV:                       00000000000000000000000002000000
Plaintext:                0000000000000000000000000002000000
Ciphertext:               3a271dd396d357d912d37c644e6bc91b6f55895c644a342e6de7a934176f82a22e0193fa79fb87a1ef
Reciphers for ciphertext: 2
Decipheredtext:           0000000000000000000000000002000000
RESULT CIPHER-DECIPHER: -----OK-----


Test: 103
Symmetric key bit length: 192
IV bit length:            128
Plaintext bit length:     136
Symmetric key:            000000000000000000000000000000000000000001000000
IV:                       00000000000000000000000001000000
Plaintext:                0000000000000000000000000001000000
Ciphertext:               b9bf62063966607a85fe76be97c617923aa962b49f0f8504b9bf62063966607a85fe76be97c7179248
Reciphers for ciphertext: 0
Decipheredtext:           0000000000000000000000000001000000
RESULT CIPHER-DECIPHER: -----OK-----


Test: 104
Symmetric key bit length: 192
IV bit length:            128
Plaintext bit length:     136
Symmetric key:            000000000000000000000000000000000000000000800000
IV:                       00000000000000000000000000800000
Plaintext:                0000000000000000000000000000800000
Ciphertext:               f5d592d18cae3a5dfb8e6fdb96af392c8964e9a833826fd50a2a6d2e7351c5a204719024695046d36e
Reciphers for ciphertext: 1
Decipheredtext:           0000000000000000000000000000800000
RESULT CIPHER-DECIPHER: -----OK-----


Test: 105
Symmetric key bit length: 192
IV bit length:            128
Plaintext bit length:     136
Symmetric key:            000000000000000000000000000000000000000000400000
IV:                       00000000000000000000000000400000
Plaintext:                0000000000000000000000000000400000
Ciphertext:               8dd1e9ad95078999c7be1aff4b9e50b42d8be28f6bdb3e608dd1e9ad95078999c7be1aff4b9e10b429
Reciphers for ciphertext: 0
Decipheredtext:           0000000000000000000000000000400000
RESULT CIPHER-DECIPHER: -----OK-----


Test: 106
Symmetric key bit length: 192
IV bit length:            128
Plaintext bit length:     136
Symmetric key:            000000000000000000000000000000000000000000200000
IV:                       00000000000000000000000000200000
Plaintext:                0000000000000000000000000000200000
Ciphertext:               33bd414ad80aa7771b04f4ae93fcb5e60a24fb7c7374e57e33bd414ad80aa7771b04f4ae93fc95e6eb
Reciphers for ciphertext: 0
Decipheredtext:           0000000000000000000000000000200000
RESULT CIPHER-DECIPHER: -----OK-----


Test: 107
Symmetric key bit length: 192
IV bit length:            128
Plaintext bit length:     136
Symmetric key:            000000000000000000000000000000000000000000100000
IV:                       00000000000000000000000000100000
Plaintext:                0000000000000000000000000000100000
Ciphertext:               e857e1d830461f314a594df8c39bc7ea5b960076a7cc53d8e857e1d830461f314a594df8c39bd7eac7
Reciphers for ciphertext: 0
Decipheredtext:           0000000000000000000000000000100000
RESULT CIPHER-DECIPHER: -----OK-----


Test: 108
Symmetric key bit length: 192
IV bit length:            128
Plaintext bit length:     136
Symmetric key:            000000000000000000000000000000000000000000080000
IV:                       00000000000000000000000000080000
Plaintext:                0000000000000000000000000000080000
Ciphertext:               5ed7692ca53eebcaff2f0a4238e199d3e4c2c4d9877eb9075ed7692ca53eebcaff2f0a4238e191d304
Reciphers for ciphertext: 0
Decipheredtext:           0000000000000000000000000000080000
RESULT CIPHER-DECIPHER: -----OK-----


Test: 109
Symmetric key bit length: 192
IV bit length:            128
Plaintext bit length:     136
Symmetric key:            000000000000000000000000000000000000000000040000
IV:                       00000000000000000000000000040000
Plaintext:                0000000000000000000000000000040000
Ciphertext:               482d6567d562ae87fe3dc9d4ae560b00124447c32ecd7318482d6567d562ae87fe3dc9d4ae560f0013
Reciphers for ciphertext: 0
Decipheredtext:           0000000000000000000000000000040000
RESULT CIPHER-DECIPHER: -----OK-----


Test: 110
Symmetric key bit length: 192
IV bit length:            128
Plaintext bit length:     136
Symmetric key:            000000000000000000000000000000000000000000020000
IV:                       00000000000000000000000000020000
Plaintext:                0000000000000000000000000000020000
Ciphertext:               5ed5af3db7b3e4b4d6ce7cbd09091be2ab91220a6b39e2fd5ed5af3db7b3e4b4d6ce7cbd090919e20e
Reciphers for ciphertext: 0
Decipheredtext:           0000000000000000000000000000020000
RESULT CIPHER-DECIPHER: -----OK-----


Test: 111
Symmetric key bit length: 192
IV bit length:            128
Plaintext bit length:     136
Symmetric key:            000000000000000000000000000000000000000000010000
IV:                       00000000000000000000000000010000
Plaintext:                0000000000000000000000000000010000
Ciphertext:               d0bbb0c07cb5c20145ae493b9be8e96a345eaa2a36ceae5bd0bbb0c07cb5c20145ae493b9be8e86a2e
Reciphers for ciphertext: 0
Decipheredtext:           0000000000000000000000000000010000
RESULT CIPHER-DECIPHER: -----OK-----


Test: 112
Symmetric key bit length: 192
IV bit length:            128
Plaintext bit length:     136
Symmetric key:            000000000000000000000000000000000000000000008000
IV:                       00000000000000000000000000008000
Plaintext:                0000000000000000000000000000008000
Ciphertext:               730d366cdbeee86943f2ac17c1f1bfd45bab5fe7922c20e1730d366cdbeee86943f2ac17c1f1bf5445
Reciphers for ciphertext: 0
Decipheredtext:           0000000000000000000000000000008000
RESULT CIPHER-DECIPHER: -----OK-----


Test: 113
Symmetric key bit length: 192
IV bit length:            128
Plaintext bit length:     136
Symmetric key:            000000000000000000000000000000000000000000004000
IV:                       00000000000000000000000000004000
Plaintext:                0000000000000000000000000000004000
Ciphertext:               f46e93bcf700d3e932dc323541855e7dfa402e8790727913f46e93bcf700d3e932dc323541855e3d0a
Reciphers for ciphertext: 0
Decipheredtext:           0000000000000000000000000000004000
RESULT CIPHER-DECIPHER: -----OK-----


Test: 114
Symmetric key bit length: 192
IV bit length:            128
Plaintext bit length:     136
Symmetric key:            000000000000000000000000000000000000000000002000
IV:                       00000000000000000000000000002000
Plaintext:                0000000000000000000000000000002000
Ciphertext:               f78704cddc5cb8008242a6049d700365a81407695866070df78704cddc5cb8008242a6049d700345ea
Reciphers for ciphertext: 0
Decipheredtext:           0000000000000000000000000000002000
RESULT CIPHER-DECIPHER: -----OK-----


Test: 115
Symmetric key bit length: 192
IV bit length:            128
Plaintext bit length:     136
Symmetric key:            000000000000000000000000000000000000000000001000
IV:                       00000000000000000000000000001000
Plaintext:                0000000000000000000000000000001000
Ciphertext:               0d4063bbdbe4b37589afee8cb7d2b892be2cb6dab9287db80d4063bbdbe4b37589afee8cb7d2b88240
Reciphers for ciphertext: 0
Decipheredtext:           0000000000000000000000000000001000
RESULT CIPHER-DECIPHER: -----OK-----


Test: 116
Symmetric key bit length: 192
IV bit length:            128
Plaintext bit length:     136
Symmetric key:            000000000000000000000000000000000000000000000800
IV:                       00000000000000000000000000000800
Plaintext:                0000000000000000000000000000000800
Ciphertext:               ff25725c342ab623ec5e613a944de2bb643e3ffe93d4662eff25725c342ab623ec5e613a944de2b3a3
Reciphers for ciphertext: 0
Decipheredtext:           0000000000000000000000000000000800
RESULT CIPHER-DECIPHER: -----OK-----


Test: 117
Symmetric key bit length: 192
IV bit length:            128
Plaintext bit length:     136
Symmetric key:            000000000000000000000000000000000000000000000400
IV:                       00000000000000000000000000000400
Plaintext:                0000000000000000000000000000000400
Ciphertext:               fbfd80e49aacfb6480e123c8ffbbf19bcd2b394748cb96a0b777267d2a871f3b6bcde0b684eb78f1a5
Reciphers for ciphertext: 2
Decipheredtext:           0000000000000000000000000000000400
RESULT CIPHER-DECIPHER: -----OK-----


Test: 118
Symmetric key bit length: 192
IV bit length:            128
Plaintext bit length:     136
Symmetric key:            000000000000000000000000000000000000000000000200
IV:                       00000000000000000000000000000200
Plaintext:                0000000000000000000000000000000200
Ciphertext:               eb10454c49a896459a51351ca31596bb7f2d411a8cbc395feb10454c49a896459a51351ca31596b907
Reciphers for ciphertext: 0
Decipheredtext:           0000000000000000000000000000000200
RESULT CIPHER-DECIPHER: -----OK-----


Test: 119
Symmetric key bit length: 192
IV bit length:            128
Plaintext bit length:     136
Symmetric key:            000000000000000000000000000000000000000000000100
IV:                       00000000000000000000000000000100
Plaintext:                0000000000000000000000000000000100
Ciphertext:               68b646aff23984f27838400ec2622a89d4996cfce1712f3468b646aff23984f27838400ec2622a8852
Reciphers for ciphertext: 0
Decipheredtext:           0000000000000000000000000000000100
RESULT CIPHER-DECIPHER: -----OK-----


Test: 120
Symmetric key bit length: 192
IV bit length:            128
Plaintext bit length:     136
Symmetric key:            000000000000000000000000000000000000000000000080
IV:                       00000000000000000000000000000080
Plaintext:                0000000000000000000000000000000080
Ciphertext:               7f5e92f6157489c15276535d5c693611a7866172bd968b677f5e92f6157489c15276535d5c69361127
Reciphers for ciphertext: 0
Decipheredtext:           0000000000000000000000000000000080
RESULT CIPHER-DECIPHER: -----OK-----


Test: 121
Symmetric key bit length: 192
IV bit length:            128
Plaintext bit length:     136
Symmetric key:            000000000000000000000000000000000000000000000040
IV:                       00000000000000000000000000000040
Plaintext:                0000000000000000000000000000000040
Ciphertext:               ffc697ce69f73f7c2d55ec092555cdcc772cab4c858cdd97ffc697ce69f73f7c2d55ec092555cdcc37
Reciphers for ciphertext: 0
Decipheredtext:           0000000000000000000000000000000040
RESULT CIPHER-DECIPHER: -----OK-----


Test: 122
Symmetric key bit length: 192
IV bit length:            128
Plaintext bit length:     136
Symmetric key:            000000000000000000000000000000000000000000000020
IV:                       00000000000000000000000000000020
Plaintext:                0000000000000000000000000000000020
Ciphertext:               f0604bf1677e48f0fdde5766ed8e2b4cd77834631dab41d0f0604bf1677e48f0fdde5766ed8e2b4cf7
Reciphers for ciphertext: 0
Decipheredtext:           0000000000000000000000000000000020
RESULT CIPHER-DECIPHER: -----OK-----


Test: 123
Symmetric key bit length: 192
IV bit length:            128
Plaintext bit length:     136
Symmetric key:            000000000000000000000000000000000000000000000010
IV:                       00000000000000000000000000000010
Plaintext:                0000000000000000000000000000000010
Ciphertext:               4cc9f40da8efb28756e2d478f416d16889907d60ef4bb62b4cc9f40da8efb28756e2d478f416d16899
Reciphers for ciphertext: 0
Decipheredtext:           0000000000000000000000000000000010
RESULT CIPHER-DECIPHER: -----OK-----


Test: 124
Symmetric key bit length: 192
IV bit length:            128
Plaintext bit length:     136
Symmetric key:            000000000000000000000000000000000000000000000008
IV:                       00000000000000000000000000000008
Plaintext:                0000000000000000000000000000000008
Ciphertext:               bcbe44a24653375fba68234bcda640be8d0125ce05e826cabcbe44a24653375fba68234bcda640be85
Reciphers for ciphertext: 0
Decipheredtext:           0000000000000000000000000000000008
RESULT CIPHER-DECIPHER: -----OK-----


Test: 125
Symmetric key bit length: 192
IV bit length:            128
Plaintext bit length:     136
Symmetric key:            000000000000000000000000000000000000000000000004
IV:                       00000000000000000000000000000004
Plaintext:                0000000000000000000000000000000004
Ciphertext:               642fab78b9a6c9e50d54232fd1696308d4e93cbed8452c7f642fab78b9a6c9e50d54232fd1696308d0
Reciphers for ciphertext: 0
Decipheredtext:           0000000000000000000000000000000004
RESULT CIPHER-DECIPHER: -----OK-----


Test: 126
Symmetric key bit length: 192
IV bit length:            128
Plaintext bit length:     136
Symmetric key:            000000000000000000000000000000000000000000000002
IV:                       00000000000000000000000000000002
Plaintext:                0000000000000000000000000000000002
Ciphertext:               a5df4bd0d6673d656e30f8e5c5c5083dabc477de2143f17aa5df4bd0d6673d656e30f8e5c5c5083da9
Reciphers for ciphertext: 0
Decipheredtext:           0000000000000000000000000000000002
RESULT CIPHER-DECIPHER: -----OK-----


Test: 127
Symmetric key bit length: 192
IV bit length:            128
Plaintext bit length:     136
Symmetric key:            000000000000000000000000000000000000000000000001
IV:                       00000000000000000000000000000001
Plaintext:                0000000000000000000000000000000001
Ciphertext:               c30416e9338b4bab5879718d31df43d0c4c6a87c10fcfca5c30416e9338b4bab5879718d31df43d0c5
Reciphers for ciphertext: 0
Decipheredtext:           0000000000000000000000000000000001
RESULT CIPHER-DECIPHER: -----OK-----


 DATA SHA1 (hexadecimal): ddb4772c91b8bbf7226cadffb6658af247d9d85e

