
DiceLock 9.0.0.1

 TEST COMPONENTS:
 ----------------
 DiceLock:           DiceLockIVIndexed class
 Operation Mode:     CFB_Mode class
 Block Cipher:       AES192 class
 Key Modifier:       IncreaseBase0IndexModifier_6_0_0_1 class
   Index bit length: 192
 Random tests:       RandomTestSuite class
                     FrequencyTest class
                     BlockFrequencyTest class
                     CumulativeSumForwardTest class
                     LongestRunOfOnesTest class
                     RunsTest class
 Random alpha:       0.001

 VECTOR TEST: Test vector 1 - Changing IV, shifting 1 bit set


##### INDIVIDUAL TESTS #####

Number tests: 128


Test: 0
Symmetric key bit length: 192
IV bit length:            128
Plaintext bit length:     128
Symmetric key:            000000000000000000000000000000000000000000000000
IV:                       80000000000000000000000000000000
Plaintext:                00000000000000000000000000000000
Ciphertext:               6cd02513e8d4dc986b4afe087a60bd0c0a4ef31eae2429b56cd02513e8d4dc986b4afe087a60bd0c
Reciphers for ciphertext: 0
Decipheredtext:           00000000000000000000000000000000
RESULT CIPHER-DECIPHER: -----OK-----


Test: 1
Symmetric key bit length: 192
IV bit length:            128
Plaintext bit length:     128
Symmetric key:            000000000000000000000000000000000000000000000000
IV:                       40000000000000000000000000000000
Plaintext:                00000000000000000000000000000000
Ciphertext:               423d2772a0ca56daabb48d212906298791005219762fd2ff423d2772a0ca56daabb48d2129062987
Reciphers for ciphertext: 0
Decipheredtext:           00000000000000000000000000000000
RESULT CIPHER-DECIPHER: -----OK-----


Test: 2
Symmetric key bit length: 192
IV bit length:            128
Plaintext bit length:     128
Symmetric key:            000000000000000000000000000000000000000000000000
IV:                       20000000000000000000000000000000
Plaintext:                00000000000000000000000000000000
Ciphertext:               1021f2a8da70eb2219dc16804445ff98ef35f0b5938aaaf61021f2a8da70eb2219dc16804445ff98
Reciphers for ciphertext: 0
Decipheredtext:           00000000000000000000000000000000
RESULT CIPHER-DECIPHER: -----OK-----


Test: 3
Symmetric key bit length: 192
IV bit length:            128
Plaintext bit length:     128
Symmetric key:            000000000000000000000000000000000000000000000000
IV:                       10000000000000000000000000000000
Plaintext:                00000000000000000000000000000000
Ciphertext:               c636e35b402577f96974d8804295ebb87d2f44bf28cae170c636e35b402577f96974d8804295ebb8
Reciphers for ciphertext: 0
Decipheredtext:           00000000000000000000000000000000
RESULT CIPHER-DECIPHER: -----OK-----


Test: 4
Symmetric key bit length: 192
IV bit length:            128
Plaintext bit length:     128
Symmetric key:            000000000000000000000000000000000000000000000000
IV:                       08000000000000000000000000000000
Plaintext:                00000000000000000000000000000000
Ciphertext:               1566d2e57e8393c19e29f892ea28a9a72b6bf5a3dc4b13b01566d2e57e8393c19e29f892ea28a9a7
Reciphers for ciphertext: 0
Decipheredtext:           00000000000000000000000000000000
RESULT CIPHER-DECIPHER: -----OK-----


Test: 5
Symmetric key bit length: 192
IV bit length:            128
Plaintext bit length:     128
Symmetric key:            000000000000000000000000000000000000000000000000
IV:                       04000000000000000000000000000000
Plaintext:                00000000000000000000000000000000
Ciphertext:               883c878fed70b36cc09d040f9619dd19ef43c36156418520883c878fed70b36cc09d040f9619dd19
Reciphers for ciphertext: 0
Decipheredtext:           00000000000000000000000000000000
RESULT CIPHER-DECIPHER: -----OK-----


Test: 6
Symmetric key bit length: 192
IV bit length:            128
Plaintext bit length:     128
Symmetric key:            000000000000000000000000000000000000000000000000
IV:                       02000000000000000000000000000000
Plaintext:                00000000000000000000000000000000
Ciphertext:               06734593a974965790e715594fc34aa9219ece423982ffa506734593a974965790e715594fc34aa9
Reciphers for ciphertext: 0
Decipheredtext:           00000000000000000000000000000000
RESULT CIPHER-DECIPHER: -----OK-----


Test: 7
Symmetric key bit length: 192
IV bit length:            128
Plaintext bit length:     128
Symmetric key:            000000000000000000000000000000000000000000000000
IV:                       01000000000000000000000000000000
Plaintext:                00000000000000000000000000000000
Ciphertext:               f19b389948d9a45534e5bd36c984134ac7e8a27e3eaacd49f19b389948d9a45534e5bd36c984134a
Reciphers for ciphertext: 0
Decipheredtext:           00000000000000000000000000000000
RESULT CIPHER-DECIPHER: -----OK-----


Test: 8
Symmetric key bit length: 192
IV bit length:            128
Plaintext bit length:     128
Symmetric key:            000000000000000000000000000000000000000000000000
IV:                       00800000000000000000000000000000
Plaintext:                00000000000000000000000000000000
Ciphertext:               d8410dfc14fa6d175ec968ea8cac514c8c46418f17651f48d8410dfc14fa6d175ec968ea8cac514c
Reciphers for ciphertext: 0
Decipheredtext:           00000000000000000000000000000000
RESULT CIPHER-DECIPHER: -----OK-----


Test: 9
Symmetric key bit length: 192
IV bit length:            128
Plaintext bit length:     128
Symmetric key:            000000000000000000000000000000000000000000000000
IV:                       00400000000000000000000000000000
Plaintext:                00000000000000000000000000000000
Ciphertext:               7e6c6ebb4029a177cf7b2fdd9ac6bb7a073ef2089dd6234f7e6c6ebb4029a177cf7b2fdd9ac6bb7a
Reciphers for ciphertext: 0
Decipheredtext:           00000000000000000000000000000000
RESULT CIPHER-DECIPHER: -----OK-----


Test: 10
Symmetric key bit length: 192
IV bit length:            128
Plaintext bit length:     128
Symmetric key:            000000000000000000000000000000000000000000000000
IV:                       00200000000000000000000000000000
Plaintext:                00000000000000000000000000000000
Ciphertext:               4b51dd4850dc0a6c3a46d924003d2c27e0040b063a6b611f4b51dd4850dc0a6c3a46d924003d2c27
Reciphers for ciphertext: 0
Decipheredtext:           00000000000000000000000000000000
RESULT CIPHER-DECIPHER: -----OK-----


Test: 11
Symmetric key bit length: 192
IV bit length:            128
Plaintext bit length:     128
Symmetric key:            000000000000000000000000000000000000000000000000
IV:                       00100000000000000000000000000000
Plaintext:                00000000000000000000000000000000
Ciphertext:               2e510a9d917b15be32a192b12a668f23951182b3367eedf92e510a9d917b15be32a192b12a668f23
Reciphers for ciphertext: 0
Decipheredtext:           00000000000000000000000000000000
RESULT CIPHER-DECIPHER: -----OK-----


Test: 12
Symmetric key bit length: 192
IV bit length:            128
Plaintext bit length:     128
Symmetric key:            000000000000000000000000000000000000000000000000
IV:                       00080000000000000000000000000000
Plaintext:                00000000000000000000000000000000
Ciphertext:               88f6f79962b0fb77fea8e7c632d3108e768979b54313e44c88f6f79962b0fb77fea8e7c632d3108e
Reciphers for ciphertext: 0
Decipheredtext:           00000000000000000000000000000000
RESULT CIPHER-DECIPHER: -----OK-----


Test: 13
Symmetric key bit length: 192
IV bit length:            128
Plaintext bit length:     128
Symmetric key:            000000000000000000000000000000000000000000000000
IV:                       00040000000000000000000000000000
Plaintext:                00000000000000000000000000000000
Ciphertext:               a3a35ab1d88daf07b52794a0f065383af25fb4742e1b45fca3a35ab1d88daf07b52794a0f065383a
Reciphers for ciphertext: 0
Decipheredtext:           00000000000000000000000000000000
RESULT CIPHER-DECIPHER: -----OK-----


Test: 14
Symmetric key bit length: 192
IV bit length:            128
Plaintext bit length:     128
Symmetric key:            000000000000000000000000000000000000000000000000
IV:                       00020000000000000000000000000000
Plaintext:                00000000000000000000000000000000
Ciphertext:               dc6cc878433e2b3bb193049a4ecbfc53bf2ed45e7056dbc5dc6cc878433e2b3bb193049a4ecbfc53
Reciphers for ciphertext: 0
Decipheredtext:           00000000000000000000000000000000
RESULT CIPHER-DECIPHER: -----OK-----


Test: 15
Symmetric key bit length: 192
IV bit length:            128
Plaintext bit length:     128
Symmetric key:            000000000000000000000000000000000000000000000000
IV:                       00010000000000000000000000000000
Plaintext:                00000000000000000000000000000000
Ciphertext:               efcd3763eb7b1a415938248a9a5b4fd5c2e7c6d2d29bb6e6efcd3763eb7b1a415938248a9a5b4fd5
Reciphers for ciphertext: 0
Decipheredtext:           00000000000000000000000000000000
RESULT CIPHER-DECIPHER: -----OK-----


Test: 16
Symmetric key bit length: 192
IV bit length:            128
Plaintext bit length:     128
Symmetric key:            000000000000000000000000000000000000000000000000
IV:                       00008000000000000000000000000000
Plaintext:                00000000000000000000000000000000
Ciphertext:               ab7e9fb9a66dbe5bb44854f07d9015ee4e0c5221c51ca2ecab7e9fb9a66dbe5bb44854f07d9015ee
Reciphers for ciphertext: 0
Decipheredtext:           00000000000000000000000000000000
RESULT CIPHER-DECIPHER: -----OK-----


Test: 17
Symmetric key bit length: 192
IV bit length:            128
Plaintext bit length:     128
Symmetric key:            000000000000000000000000000000000000000000000000
IV:                       00004000000000000000000000000000
Plaintext:                00000000000000000000000000000000
Ciphertext:               8b8e9d3365f8f6743ecf7e33e99255a44bedda1e362203458b8e9d3365f8f6743ecf7e33e99255a4
Reciphers for ciphertext: 0
Decipheredtext:           00000000000000000000000000000000
RESULT CIPHER-DECIPHER: -----OK-----


Test: 18
Symmetric key bit length: 192
IV bit length:            128
Plaintext bit length:     128
Symmetric key:            000000000000000000000000000000000000000000000000
IV:                       00002000000000000000000000000000
Plaintext:                00000000000000000000000000000000
Ciphertext:               54d37b4f176ff3d8f6afc866066d8572a4acb62015b74c0d54d37b4f176ff3d8f6afc866066d8572
Reciphers for ciphertext: 0
Decipheredtext:           00000000000000000000000000000000
RESULT CIPHER-DECIPHER: -----OK-----


Test: 19
Symmetric key bit length: 192
IV bit length:            128
Plaintext bit length:     128
Symmetric key:            000000000000000000000000000000000000000000000000
IV:                       00001000000000000000000000000000
Plaintext:                00000000000000000000000000000000
Ciphertext:               e93310889480fbf3c00342e3126d0d02743e703d7497de2032550f3c0a4c95e8a5afec1898259986
Reciphers for ciphertext: 1
Decipheredtext:           00000000000000000000000000000000
RESULT CIPHER-DECIPHER: -----OK-----


Test: 20
Symmetric key bit length: 192
IV bit length:            128
Plaintext bit length:     128
Symmetric key:            000000000000000000000000000000000000000000000000
IV:                       00000800000000000000000000000000
Plaintext:                00000000000000000000000000000000
Ciphertext:               d321ab2511f92f098174aa2de6e85da2b98741f10805097ad321ab2511f92f098174aa2de6e85da2
Reciphers for ciphertext: 0
Decipheredtext:           00000000000000000000000000000000
RESULT CIPHER-DECIPHER: -----OK-----


Test: 21
Symmetric key bit length: 192
IV bit length:            128
Plaintext bit length:     128
Symmetric key:            000000000000000000000000000000000000000000000000
IV:                       00000400000000000000000000000000
Plaintext:                00000000000000000000000000000000
Ciphertext:               d8e3f40b1112d5149d58c481dfa9983fd68a9e675461a20dd8e3f40b1112d5149d58c481dfa9983f
Reciphers for ciphertext: 0
Decipheredtext:           00000000000000000000000000000000
RESULT CIPHER-DECIPHER: -----OK-----


Test: 22
Symmetric key bit length: 192
IV bit length:            128
Plaintext bit length:     128
Symmetric key:            000000000000000000000000000000000000000000000000
IV:                       00000200000000000000000000000000
Plaintext:                00000000000000000000000000000000
Ciphertext:               2454c4e0806639ddf19854d6c68054adb927c624aed8ae6f2454c4e0806639ddf19854d6c68054ad
Reciphers for ciphertext: 0
Decipheredtext:           00000000000000000000000000000000
RESULT CIPHER-DECIPHER: -----OK-----


Test: 23
Symmetric key bit length: 192
IV bit length:            128
Plaintext bit length:     128
Symmetric key:            000000000000000000000000000000000000000000000000
IV:                       00000100000000000000000000000000
Plaintext:                00000000000000000000000000000000
Ciphertext:               a5506d410f7ca32f3955dd79d9d09418afbe60f39a997415a5506d410f7ca32f3955dd79d9d09418
Reciphers for ciphertext: 0
Decipheredtext:           00000000000000000000000000000000
RESULT CIPHER-DECIPHER: -----OK-----


Test: 24
Symmetric key bit length: 192
IV bit length:            128
Plaintext bit length:     128
Symmetric key:            000000000000000000000000000000000000000000000000
IV:                       00000080000000000000000000000000
Plaintext:                00000000000000000000000000000000
Ciphertext:               7908ee40677699568a7dc1aa317c7e4e1881c0bf76cd10617908ee40677699568a7dc1aa317c7e4e
Reciphers for ciphertext: 0
Decipheredtext:           00000000000000000000000000000000
RESULT CIPHER-DECIPHER: -----OK-----


Test: 25
Symmetric key bit length: 192
IV bit length:            128
Plaintext bit length:     128
Symmetric key:            000000000000000000000000000000000000000000000000
IV:                       00000040000000000000000000000000
Plaintext:                00000000000000000000000000000000
Ciphertext:               b4b7b29dd43b2f5cf765e251922739825d64ecef2b91fa71b4b7b29dd43b2f5cf765e25192273982
Reciphers for ciphertext: 0
Decipheredtext:           00000000000000000000000000000000
RESULT CIPHER-DECIPHER: -----OK-----


Test: 26
Symmetric key bit length: 192
IV bit length:            128
Plaintext bit length:     128
Symmetric key:            000000000000000000000000000000000000000000000000
IV:                       00000020000000000000000000000000
Plaintext:                00000000000000000000000000000000
Ciphertext:               92afe9668159beffe2a86f8503260164e5f3aa3e42942f0692afe9668159beffe2a86f8503260164
Reciphers for ciphertext: 0
Decipheredtext:           00000000000000000000000000000000
RESULT CIPHER-DECIPHER: -----OK-----


Test: 27
Symmetric key bit length: 192
IV bit length:            128
Plaintext bit length:     128
Symmetric key:            000000000000000000000000000000000000000000000000
IV:                       00000010000000000000000000000000
Plaintext:                00000000000000000000000000000000
Ciphertext:               5c36a232fba6d187a84657ad4028b18f0fd40479fd35045b5c36a232fba6d187a84657ad4028b18f
Reciphers for ciphertext: 0
Decipheredtext:           00000000000000000000000000000000
RESULT CIPHER-DECIPHER: -----OK-----


Test: 28
Symmetric key bit length: 192
IV bit length:            128
Plaintext bit length:     128
Symmetric key:            000000000000000000000000000000000000000000000000
IV:                       00000008000000000000000000000000
Plaintext:                00000000000000000000000000000000
Ciphertext:               a2e994dfab3a798df8f54f6da87e58e245a905c56d26e29ea2e994dfab3a798df8f54f6da87e58e2
Reciphers for ciphertext: 0
Decipheredtext:           00000000000000000000000000000000
RESULT CIPHER-DECIPHER: -----OK-----


Test: 29
Symmetric key bit length: 192
IV bit length:            128
Plaintext bit length:     128
Symmetric key:            000000000000000000000000000000000000000000000000
IV:                       00000004000000000000000000000000
Plaintext:                00000000000000000000000000000000
Ciphertext:               6cdab10a72adf77d71d0765baae95631817ae57fc059fb5a6cdab10a72adf77d71d0765baae95631
Reciphers for ciphertext: 0
Decipheredtext:           00000000000000000000000000000000
RESULT CIPHER-DECIPHER: -----OK-----


Test: 30
Symmetric key bit length: 192
IV bit length:            128
Plaintext bit length:     128
Symmetric key:            000000000000000000000000000000000000000000000000
IV:                       00000002000000000000000000000000
Plaintext:                00000000000000000000000000000000
Ciphertext:               9fe3c801bcaaf7bb800f2e6bf3278e219db865280d3cfafc9fe3c801bcaaf7bb800f2e6bf3278e21
Reciphers for ciphertext: 0
Decipheredtext:           00000000000000000000000000000000
RESULT CIPHER-DECIPHER: -----OK-----


Test: 31
Symmetric key bit length: 192
IV bit length:            128
Plaintext bit length:     128
Symmetric key:            000000000000000000000000000000000000000000000000
IV:                       00000001000000000000000000000000
Plaintext:                00000000000000000000000000000000
Ciphertext:               b459d90d9a6c392e5493bc91cf5a08633600a478a8a14027b459d90d9a6c392e5493bc91cf5a0863
Reciphers for ciphertext: 0
Decipheredtext:           00000000000000000000000000000000
RESULT CIPHER-DECIPHER: -----OK-----


Test: 32
Symmetric key bit length: 192
IV bit length:            128
Plaintext bit length:     128
Symmetric key:            000000000000000000000000000000000000000000000000
IV:                       00000000800000000000000000000000
Plaintext:                00000000000000000000000000000000
Ciphertext:               0518a9fa5007f6787e0fb4e5ac27d758316663a608bcce5a0518a9fa5007f6787e0fb4e5ac27d758
Reciphers for ciphertext: 0
Decipheredtext:           00000000000000000000000000000000
RESULT CIPHER-DECIPHER: -----OK-----


Test: 33
Symmetric key bit length: 192
IV bit length:            128
Plaintext bit length:     128
Symmetric key:            000000000000000000000000000000000000000000000000
IV:                       00000000400000000000000000000000
Plaintext:                00000000000000000000000000000000
Ciphertext:               bed9795415d28599700ed7952384a96308029bbc945f4347bed9795415d28599700ed7952384a963
Reciphers for ciphertext: 0
Decipheredtext:           00000000000000000000000000000000
RESULT CIPHER-DECIPHER: -----OK-----


Test: 34
Symmetric key bit length: 192
IV bit length:            128
Plaintext bit length:     128
Symmetric key:            000000000000000000000000000000000000000000000000
IV:                       00000000200000000000000000000000
Plaintext:                00000000000000000000000000000000
Ciphertext:               f0140421173d60251ef6cab0229b1b50b8e1296bd6d32651f0140421173d60251ef6cab0229b1b50
Reciphers for ciphertext: 0
Decipheredtext:           00000000000000000000000000000000
RESULT CIPHER-DECIPHER: -----OK-----


Test: 35
Symmetric key bit length: 192
IV bit length:            128
Plaintext bit length:     128
Symmetric key:            000000000000000000000000000000000000000000000000
IV:                       00000000100000000000000000000000
Plaintext:                00000000000000000000000000000000
Ciphertext:               460eb4652b3f6779ea28cb11b37529ed0ceadee1536fa5c2460eb4652b3f6779ea28cb11b37529ed
Reciphers for ciphertext: 0
Decipheredtext:           00000000000000000000000000000000
RESULT CIPHER-DECIPHER: -----OK-----


Test: 36
Symmetric key bit length: 192
IV bit length:            128
Plaintext bit length:     128
Symmetric key:            000000000000000000000000000000000000000000000000
IV:                       00000000080000000000000000000000
Plaintext:                00000000000000000000000000000000
Ciphertext:               c4283d351c960a6ac13cd19ccf03ae38932b5ee3e0afeb4cc4283d351c960a6ac13cd19ccf03ae38
Reciphers for ciphertext: 0
Decipheredtext:           00000000000000000000000000000000
RESULT CIPHER-DECIPHER: -----OK-----


Test: 37
Symmetric key bit length: 192
IV bit length:            128
Plaintext bit length:     128
Symmetric key:            000000000000000000000000000000000000000000000000
IV:                       00000000040000000000000000000000
Plaintext:                00000000000000000000000000000000
Ciphertext:               6815a10047b2c834a798ebdcc6786c75c52bf7bb42b42c4b6815a10047b2c834a798ebdcc6786c75
Reciphers for ciphertext: 0
Decipheredtext:           00000000000000000000000000000000
RESULT CIPHER-DECIPHER: -----OK-----


Test: 38
Symmetric key bit length: 192
IV bit length:            128
Plaintext bit length:     128
Symmetric key:            000000000000000000000000000000000000000000000000
IV:                       00000000020000000000000000000000
Plaintext:                00000000000000000000000000000000
Ciphertext:               98ba19f0cdd5990d0386b32ce56c9c4cc020647de159d5904a0fac8072df7f4da6c0dc2174650043
Reciphers for ciphertext: 1
Decipheredtext:           00000000000000000000000000000000
RESULT CIPHER-DECIPHER: -----OK-----


Test: 39
Symmetric key bit length: 192
IV bit length:            128
Plaintext bit length:     128
Symmetric key:            000000000000000000000000000000000000000000000000
IV:                       00000000010000000000000000000000
Plaintext:                00000000000000000000000000000000
Ciphertext:               de76f62c61e07915162da13e79679dece9efeea765396c08de76f62c61e07915162da13e79679dec
Reciphers for ciphertext: 0
Decipheredtext:           00000000000000000000000000000000
RESULT CIPHER-DECIPHER: -----OK-----


Test: 40
Symmetric key bit length: 192
IV bit length:            128
Plaintext bit length:     128
Symmetric key:            000000000000000000000000000000000000000000000000
IV:                       00000000008000000000000000000000
Plaintext:                00000000000000000000000000000000
Ciphertext:               dd0325d6854803d06d1d2277d5fb8d672e84b420d2a85556dd0325d6854803d06d1d2277d5fb8d67
Reciphers for ciphertext: 0
Decipheredtext:           00000000000000000000000000000000
RESULT CIPHER-DECIPHER: -----OK-----


Test: 41
Symmetric key bit length: 192
IV bit length:            128
Plaintext bit length:     128
Symmetric key:            000000000000000000000000000000000000000000000000
IV:                       00000000004000000000000000000000
Plaintext:                00000000000000000000000000000000
Ciphertext:               580b71a41de37d6fac83ccb0b3bb1c9706fea0c511c3d1f5580b71a41de37d6fac83ccb0b3bb1c97
Reciphers for ciphertext: 0
Decipheredtext:           00000000000000000000000000000000
RESULT CIPHER-DECIPHER: -----OK-----


Test: 42
Symmetric key bit length: 192
IV bit length:            128
Plaintext bit length:     128
Symmetric key:            000000000000000000000000000000000000000000000000
IV:                       00000000002000000000000000000000
Plaintext:                00000000000000000000000000000000
Ciphertext:               e9b1ab470a1b02ef0ff5e6754a092c96ee87d43e4e39c54fe9b1ab470a1b02ef0ff5e6754a092c96
Reciphers for ciphertext: 0
Decipheredtext:           00000000000000000000000000000000
RESULT CIPHER-DECIPHER: -----OK-----


Test: 43
Symmetric key bit length: 192
IV bit length:            128
Plaintext bit length:     128
Symmetric key:            000000000000000000000000000000000000000000000000
IV:                       00000000001000000000000000000000
Plaintext:                00000000000000000000000000000000
Ciphertext:               8590620f5af5993b7410282f4126bc1f85030ecd3b0c53748590620f5af5993b7410282f4126bc1f
Reciphers for ciphertext: 0
Decipheredtext:           00000000000000000000000000000000
RESULT CIPHER-DECIPHER: -----OK-----


Test: 44
Symmetric key bit length: 192
IV bit length:            128
Plaintext bit length:     128
Symmetric key:            000000000000000000000000000000000000000000000000
IV:                       00000000000800000000000000000000
Plaintext:                00000000000000000000000000000000
Ciphertext:               8d4914d2f1b22b2e268e66e532d29d7cf6b0fc18e817e2488d4914d2f1b22b2e268e66e532d29d7c
Reciphers for ciphertext: 0
Decipheredtext:           00000000000000000000000000000000
RESULT CIPHER-DECIPHER: -----OK-----


Test: 45
Symmetric key bit length: 192
IV bit length:            128
Plaintext bit length:     128
Symmetric key:            000000000000000000000000000000000000000000000000
IV:                       00000000000400000000000000000000
Plaintext:                00000000000000000000000000000000
Ciphertext:               fd826ce48e62c5e30867044b86ba4b56cc1bca3b3c81f9f7fd826ce48e62c5e30867044b86ba4b56
Reciphers for ciphertext: 0
Decipheredtext:           00000000000000000000000000000000
RESULT CIPHER-DECIPHER: -----OK-----


Test: 46
Symmetric key bit length: 192
IV bit length:            128
Plaintext bit length:     128
Symmetric key:            000000000000000000000000000000000000000000000000
IV:                       00000000000200000000000000000000
Plaintext:                00000000000000000000000000000000
Ciphertext:               100e7b831c9f35fa1271f5f1316c6fcfa8021ba655118085100e7b831c9f35fa1271f5f1316c6fcf
Reciphers for ciphertext: 0
Decipheredtext:           00000000000000000000000000000000
RESULT CIPHER-DECIPHER: -----OK-----


Test: 47
Symmetric key bit length: 192
IV bit length:            128
Plaintext bit length:     128
Symmetric key:            000000000000000000000000000000000000000000000000
IV:                       00000000000100000000000000000000
Plaintext:                00000000000000000000000000000000
Ciphertext:               0a2dd0c17f68b996aa96c007003d0b3172572853b479cef20a2dd0c17f68b996aa96c007003d0b31
Reciphers for ciphertext: 0
Decipheredtext:           00000000000000000000000000000000
RESULT CIPHER-DECIPHER: -----OK-----


Test: 48
Symmetric key bit length: 192
IV bit length:            128
Plaintext bit length:     128
Symmetric key:            000000000000000000000000000000000000000000000000
IV:                       00000000000080000000000000000000
Plaintext:                00000000000000000000000000000000
Ciphertext:               c95f68c57e06b0a2e1f623c83c5d80bf1a9d5aa5e4fa3af7c95f68c57e06b0a2e1f623c83c5d80bf
Reciphers for ciphertext: 0
Decipheredtext:           00000000000000000000000000000000
RESULT CIPHER-DECIPHER: -----OK-----


Test: 49
Symmetric key bit length: 192
IV bit length:            128
Plaintext bit length:     128
Symmetric key:            000000000000000000000000000000000000000000000000
IV:                       00000000000040000000000000000000
Plaintext:                00000000000000000000000000000000
Ciphertext:               571cafc92c7c8a5ec54c0741e186905c825aabf860440810571cafc92c7c8a5ec54c0741e186905c
Reciphers for ciphertext: 0
Decipheredtext:           00000000000000000000000000000000
RESULT CIPHER-DECIPHER: -----OK-----


Test: 50
Symmetric key bit length: 192
IV bit length:            128
Plaintext bit length:     128
Symmetric key:            000000000000000000000000000000000000000000000000
IV:                       00000000000020000000000000000000
Plaintext:                00000000000000000000000000000000
Ciphertext:               22514353e95312c112255e1eed0b2df6a9530c3abb38b2b122514353e95312c112255e1eed0b2df6
Reciphers for ciphertext: 0
Decipheredtext:           00000000000000000000000000000000
RESULT CIPHER-DECIPHER: -----OK-----


Test: 51
Symmetric key bit length: 192
IV bit length:            128
Plaintext bit length:     128
Symmetric key:            000000000000000000000000000000000000000000000000
IV:                       00000000000010000000000000000000
Plaintext:                00000000000000000000000000000000
Ciphertext:               791a8bf462bd17580bd9152c6d11c6c51b8d65374280ce53791a8bf462bd17580bd9152c6d11c6c5
Reciphers for ciphertext: 0
Decipheredtext:           00000000000000000000000000000000
RESULT CIPHER-DECIPHER: -----OK-----


Test: 52
Symmetric key bit length: 192
IV bit length:            128
Plaintext bit length:     128
Symmetric key:            000000000000000000000000000000000000000000000000
IV:                       00000000000008000000000000000000
Plaintext:                00000000000000000000000000000000
Ciphertext:               5882a0178d548f84a165db809c60dc2880cdcdf7053d63865882a0178d548f84a165db809c60dc28
Reciphers for ciphertext: 0
Decipheredtext:           00000000000000000000000000000000
RESULT CIPHER-DECIPHER: -----OK-----


Test: 53
Symmetric key bit length: 192
IV bit length:            128
Plaintext bit length:     128
Symmetric key:            000000000000000000000000000000000000000000000000
IV:                       00000000000004000000000000000000
Plaintext:                00000000000000000000000000000000
Ciphertext:               3ce4a90eed4458ca6039e42ddadb71c3b042d57bd43e9f823ce4a90eed4458ca6039e42ddadb71c3
Reciphers for ciphertext: 0
Decipheredtext:           00000000000000000000000000000000
RESULT CIPHER-DECIPHER: -----OK-----


Test: 54
Symmetric key bit length: 192
IV bit length:            128
Plaintext bit length:     128
Symmetric key:            000000000000000000000000000000000000000000000000
IV:                       00000000000002000000000000000000
Plaintext:                00000000000000000000000000000000
Ciphertext:               d3cbab261207a16be2751e77044fd7c98e1ab877c5c84041d3cbab261207a16be2751e77044fd7c9
Reciphers for ciphertext: 0
Decipheredtext:           00000000000000000000000000000000
RESULT CIPHER-DECIPHER: -----OK-----


Test: 55
Symmetric key bit length: 192
IV bit length:            128
Plaintext bit length:     128
Symmetric key:            000000000000000000000000000000000000000000000000
IV:                       00000000000001000000000000000000
Plaintext:                00000000000000000000000000000000
Ciphertext:               24e32b698a7b32217093628b01f424abb6b0c7b80429af4624e32b698a7b32217093628b01f424ab
Reciphers for ciphertext: 0
Decipheredtext:           00000000000000000000000000000000
RESULT CIPHER-DECIPHER: -----OK-----


Test: 56
Symmetric key bit length: 192
IV bit length:            128
Plaintext bit length:     128
Symmetric key:            000000000000000000000000000000000000000000000000
IV:                       00000000000000800000000000000000
Plaintext:                00000000000000000000000000000000
Ciphertext:               9f6afc0af27cf565110c77e3c24f4f5b184785d055eb73da9f6afc0af27cf565110c77e3c24f4f5b
Reciphers for ciphertext: 0
Decipheredtext:           00000000000000000000000000000000
RESULT CIPHER-DECIPHER: -----OK-----


Test: 57
Symmetric key bit length: 192
IV bit length:            128
Plaintext bit length:     128
Symmetric key:            000000000000000000000000000000000000000000000000
IV:                       00000000000000400000000000000000
Plaintext:                00000000000000000000000000000000
Ciphertext:               e088aa5cda20ef267bb039b00c72c45b31d6f66d77cf034ee088aa5cda20ef267bb039b00c72c45b
Reciphers for ciphertext: 0
Decipheredtext:           00000000000000000000000000000000
RESULT CIPHER-DECIPHER: -----OK-----


Test: 58
Symmetric key bit length: 192
IV bit length:            128
Plaintext bit length:     128
Symmetric key:            000000000000000000000000000000000000000000000000
IV:                       00000000000000200000000000000000
Plaintext:                00000000000000000000000000000000
Ciphertext:               5cf1018b7e0ba1775601c2e2799003603b3147038fe1693b5cf1018b7e0ba1775601c2e279900360
Reciphers for ciphertext: 0
Decipheredtext:           00000000000000000000000000000000
RESULT CIPHER-DECIPHER: -----OK-----


Test: 59
Symmetric key bit length: 192
IV bit length:            128
Plaintext bit length:     128
Symmetric key:            000000000000000000000000000000000000000000000000
IV:                       00000000000000100000000000000000
Plaintext:                00000000000000000000000000000000
Ciphertext:               3b1a7388b89fb9416ad8753cf5af35d2a3322ea01605871b3b1a7388b89fb9416ad8753cf5af35d2
Reciphers for ciphertext: 0
Decipheredtext:           00000000000000000000000000000000
RESULT CIPHER-DECIPHER: -----OK-----


Test: 60
Symmetric key bit length: 192
IV bit length:            128
Plaintext bit length:     128
Symmetric key:            000000000000000000000000000000000000000000000000
IV:                       00000000000000080000000000000000
Plaintext:                00000000000000000000000000000000
Ciphertext:               137fa4ed00afcd9f5d8bc0d14bd5837ac134d7c4414ba9cd137fa4ed00afcd9f5d8bc0d14bd5837a
Reciphers for ciphertext: 0
Decipheredtext:           00000000000000000000000000000000
RESULT CIPHER-DECIPHER: -----OK-----


Test: 61
Symmetric key bit length: 192
IV bit length:            128
Plaintext bit length:     128
Symmetric key:            000000000000000000000000000000000000000000000000
IV:                       00000000000000040000000000000000
Plaintext:                00000000000000000000000000000000
Ciphertext:               806f5c9b663559bb56f234881e4a3e6094a0d084270fa895806f5c9b663559bb56f234881e4a3e60
Reciphers for ciphertext: 0
Decipheredtext:           00000000000000000000000000000000
RESULT CIPHER-DECIPHER: -----OK-----


Test: 62
Symmetric key bit length: 192
IV bit length:            128
Plaintext bit length:     128
Symmetric key:            000000000000000000000000000000000000000000000000
IV:                       00000000000000020000000000000000
Plaintext:                00000000000000000000000000000000
Ciphertext:               8069a449152292df2de8642992c632b650990b75ddc9eb5f8069a449152292df2de8642992c632b6
Reciphers for ciphertext: 0
Decipheredtext:           00000000000000000000000000000000
RESULT CIPHER-DECIPHER: -----OK-----


Test: 63
Symmetric key bit length: 192
IV bit length:            128
Plaintext bit length:     128
Symmetric key:            000000000000000000000000000000000000000000000000
IV:                       00000000000000010000000000000000
Plaintext:                00000000000000000000000000000000
Ciphertext:               37c6cf2a1abd1b1f1922b46c7b4a280d12385b00e1cd500837c6cf2a1abd1b1f1922b46c7b4a280d
Reciphers for ciphertext: 0
Decipheredtext:           00000000000000000000000000000000
RESULT CIPHER-DECIPHER: -----OK-----


Test: 64
Symmetric key bit length: 192
IV bit length:            128
Plaintext bit length:     128
Symmetric key:            000000000000000000000000000000000000000000000000
IV:                       00000000000000008000000000000000
Plaintext:                00000000000000000000000000000000
Ciphertext:               7b2835260e5a0aa2b5dc301800ec8438802782cea6c105b4cbd1e78c0bc9fa2077639477d9232afe
Reciphers for ciphertext: 1
Decipheredtext:           00000000000000000000000000000000
RESULT CIPHER-DECIPHER: -----OK-----


Test: 65
Symmetric key bit length: 192
IV bit length:            128
Plaintext bit length:     128
Symmetric key:            000000000000000000000000000000000000000000000000
IV:                       00000000000000004000000000000000
Plaintext:                00000000000000000000000000000000
Ciphertext:               ee81faf2f9058213ffcacf281cb8509eca5b4bb2c5fc1aa0ee81faf2f9058213ffcacf281cb8509e
Reciphers for ciphertext: 0
Decipheredtext:           00000000000000000000000000000000
RESULT CIPHER-DECIPHER: -----OK-----


Test: 66
Symmetric key bit length: 192
IV bit length:            128
Plaintext bit length:     128
Symmetric key:            000000000000000000000000000000000000000000000000
IV:                       00000000000000002000000000000000
Plaintext:                00000000000000000000000000000000
Ciphertext:               57f22d93c37129ba331fdba38e005a1e21c38248e4757c2d57f22d93c37129ba331fdba38e005a1e
Reciphers for ciphertext: 0
Decipheredtext:           00000000000000000000000000000000
RESULT CIPHER-DECIPHER: -----OK-----


Test: 67
Symmetric key bit length: 192
IV bit length:            128
Plaintext bit length:     128
Symmetric key:            000000000000000000000000000000000000000000000000
IV:                       00000000000000001000000000000000
Plaintext:                00000000000000000000000000000000
Ciphertext:               ec798782e87b7d9f780cc3c3a46519b58bb3175578f46285ec798782e87b7d9f780cc3c3a46519b5
Reciphers for ciphertext: 0
Decipheredtext:           00000000000000000000000000000000
RESULT CIPHER-DECIPHER: -----OK-----


Test: 68
Symmetric key bit length: 192
IV bit length:            128
Plaintext bit length:     128
Symmetric key:            000000000000000000000000000000000000000000000000
IV:                       00000000000000000800000000000000
Plaintext:                00000000000000000000000000000000
Ciphertext:               43ea28497f5d40e3a4744fa2edaa42de6012038f2213125343ea28497f5d40e3a4744fa2edaa42de
Reciphers for ciphertext: 0
Decipheredtext:           00000000000000000000000000000000
RESULT CIPHER-DECIPHER: -----OK-----


Test: 69
Symmetric key bit length: 192
IV bit length:            128
Plaintext bit length:     128
Symmetric key:            000000000000000000000000000000000000000000000000
IV:                       00000000000000000400000000000000
Plaintext:                00000000000000000000000000000000
Ciphertext:               91f004e7debf41b3414dd8c5c317372c2a8234aa9f0cb28991f004e7debf41b3414dd8c5c317372c
Reciphers for ciphertext: 0
Decipheredtext:           00000000000000000000000000000000
RESULT CIPHER-DECIPHER: -----OK-----


Test: 70
Symmetric key bit length: 192
IV bit length:            128
Plaintext bit length:     128
Symmetric key:            000000000000000000000000000000000000000000000000
IV:                       00000000000000000200000000000000
Plaintext:                00000000000000000000000000000000
Ciphertext:               c249eae54e7b4df43b938c1b4cc28314c828e6a644fa52bec249eae54e7b4df43b938c1b4cc28314
Reciphers for ciphertext: 0
Decipheredtext:           00000000000000000000000000000000
RESULT CIPHER-DECIPHER: -----OK-----


Test: 71
Symmetric key bit length: 192
IV bit length:            128
Plaintext bit length:     128
Symmetric key:            000000000000000000000000000000000000000000000000
IV:                       00000000000000000100000000000000
Plaintext:                00000000000000000000000000000000
Ciphertext:               32c289d7eefb99d2f17ad7b7d45fe1ec0c3303bc9ef914db32c289d7eefb99d2f17ad7b7d45fe1ec
Reciphers for ciphertext: 0
Decipheredtext:           00000000000000000000000000000000
RESULT CIPHER-DECIPHER: -----OK-----


Test: 72
Symmetric key bit length: 192
IV bit length:            128
Plaintext bit length:     128
Symmetric key:            000000000000000000000000000000000000000000000000
IV:                       00000000000000000080000000000000
Plaintext:                00000000000000000000000000000000
Ciphertext:               a675fb2e8ddbf810cef01cf2b728cd2ba1acd727adcfb31aa675fb2e8ddbf810cef01cf2b728cd2b
Reciphers for ciphertext: 0
Decipheredtext:           00000000000000000000000000000000
RESULT CIPHER-DECIPHER: -----OK-----


Test: 73
Symmetric key bit length: 192
IV bit length:            128
Plaintext bit length:     128
Symmetric key:            000000000000000000000000000000000000000000000000
IV:                       00000000000000000040000000000000
Plaintext:                00000000000000000000000000000000
Ciphertext:               a418aaab6e6921cc731aa8a34938608002bcb559ac5f9eeca418aaab6e6921cc731aa8a349386080
Reciphers for ciphertext: 0
Decipheredtext:           00000000000000000000000000000000
RESULT CIPHER-DECIPHER: -----OK-----


Test: 74
Symmetric key bit length: 192
IV bit length:            128
Plaintext bit length:     128
Symmetric key:            000000000000000000000000000000000000000000000000
IV:                       00000000000000000020000000000000
Plaintext:                00000000000000000000000000000000
Ciphertext:               2e2b0f44863e67d9b0215c4abd60417fa703a510987449172e2b0f44863e67d9b0215c4abd60417f
Reciphers for ciphertext: 0
Decipheredtext:           00000000000000000000000000000000
RESULT CIPHER-DECIPHER: -----OK-----


Test: 75
Symmetric key bit length: 192
IV bit length:            128
Plaintext bit length:     128
Symmetric key:            000000000000000000000000000000000000000000000000
IV:                       00000000000000000010000000000000
Plaintext:                00000000000000000000000000000000
Ciphertext:               f0af7cb19e911d481f6426daefdd224008428e32455f5e2ff0af7cb19e911d481f6426daefdd2240
Reciphers for ciphertext: 0
Decipheredtext:           00000000000000000000000000000000
RESULT CIPHER-DECIPHER: -----OK-----


Test: 76
Symmetric key bit length: 192
IV bit length:            128
Plaintext bit length:     128
Symmetric key:            000000000000000000000000000000000000000000000000
IV:                       00000000000000000008000000000000
Plaintext:                00000000000000000000000000000000
Ciphertext:               cb1304daaa2df6878f56ac2e0f887e0498e675adf5f5b2b8cb1304daaa2df6878f56ac2e0f887e04
Reciphers for ciphertext: 0
Decipheredtext:           00000000000000000000000000000000
RESULT CIPHER-DECIPHER: -----OK-----


Test: 77
Symmetric key bit length: 192
IV bit length:            128
Plaintext bit length:     128
Symmetric key:            000000000000000000000000000000000000000000000000
IV:                       00000000000000000004000000000000
Plaintext:                00000000000000000000000000000000
Ciphertext:               b1b70a7e6a0cd1916d9b78bea19084aec6222d1ddcb738bdb1b70a7e6a0cd1916d9b78bea19084ae
Reciphers for ciphertext: 0
Decipheredtext:           00000000000000000000000000000000
RESULT CIPHER-DECIPHER: -----OK-----


Test: 78
Symmetric key bit length: 192
IV bit length:            128
Plaintext bit length:     128
Symmetric key:            000000000000000000000000000000000000000000000000
IV:                       00000000000000000002000000000000
Plaintext:                00000000000000000000000000000000
Ciphertext:               0cde9f9be646a5fce3436b794a9cfc65b6d765abc19c7acb0cde9f9be646a5fce3436b794a9cfc65
Reciphers for ciphertext: 0
Decipheredtext:           00000000000000000000000000000000
RESULT CIPHER-DECIPHER: -----OK-----


Test: 79
Symmetric key bit length: 192
IV bit length:            128
Plaintext bit length:     128
Symmetric key:            000000000000000000000000000000000000000000000000
IV:                       00000000000000000001000000000000
Plaintext:                00000000000000000000000000000000
Ciphertext:               68c7946d476a0a36674b36afd7e5df33e6cea9e760e7db0668c7946d476a0a36674b36afd7e5df33
Reciphers for ciphertext: 0
Decipheredtext:           00000000000000000000000000000000
RESULT CIPHER-DECIPHER: -----OK-----


Test: 80
Symmetric key bit length: 192
IV bit length:            128
Plaintext bit length:     128
Symmetric key:            000000000000000000000000000000000000000000000000
IV:                       00000000000000000000800000000000
Plaintext:                00000000000000000000000000000000
Ciphertext:               48770159a07dd8dfff06c80105f8d57c5f7c99bdad8f289b48770159a07dd8dfff06c80105f8d57c
Reciphers for ciphertext: 0
Decipheredtext:           00000000000000000000000000000000
RESULT CIPHER-DECIPHER: -----OK-----


Test: 81
Symmetric key bit length: 192
IV bit length:            128
Plaintext bit length:     128
Symmetric key:            000000000000000000000000000000000000000000000000
IV:                       00000000000000000000400000000000
Plaintext:                00000000000000000000000000000000
Ciphertext:               665e62801b3260e3c45bd3be34dfdebe36282c80f8230233665e62801b3260e3c45bd3be34dfdebe
Reciphers for ciphertext: 0
Decipheredtext:           00000000000000000000000000000000
RESULT CIPHER-DECIPHER: -----OK-----


Test: 82
Symmetric key bit length: 192
IV bit length:            128
Plaintext bit length:     128
Symmetric key:            000000000000000000000000000000000000000000000000
IV:                       00000000000000000000200000000000
Plaintext:                00000000000000000000000000000000
Ciphertext:               4159c1f686bfbe5b0e50bdb0da532b699c4303bfce8e6f124159c1f686bfbe5b0e50bdb0da532b69
Reciphers for ciphertext: 0
Decipheredtext:           00000000000000000000000000000000
RESULT CIPHER-DECIPHER: -----OK-----


Test: 83
Symmetric key bit length: 192
IV bit length:            128
Plaintext bit length:     128
Symmetric key:            000000000000000000000000000000000000000000000000
IV:                       00000000000000000000100000000000
Plaintext:                00000000000000000000000000000000
Ciphertext:               6333100a5a4ad917dc2d4e78a04869a33155169ba0909b1c6333100a5a4ad917dc2d4e78a04869a3
Reciphers for ciphertext: 0
Decipheredtext:           00000000000000000000000000000000
RESULT CIPHER-DECIPHER: -----OK-----


Test: 84
Symmetric key bit length: 192
IV bit length:            128
Plaintext bit length:     128
Symmetric key:            000000000000000000000000000000000000000000000000
IV:                       00000000000000000000080000000000
Plaintext:                00000000000000000000000000000000
Ciphertext:               866a4519ab1d199f25886b89d0539acc7ee139387bae5437866a4519ab1d199f25886b89d0539acc
Reciphers for ciphertext: 0
Decipheredtext:           00000000000000000000000000000000
RESULT CIPHER-DECIPHER: -----OK-----


Test: 85
Symmetric key bit length: 192
IV bit length:            128
Plaintext bit length:     128
Symmetric key:            000000000000000000000000000000000000000000000000
IV:                       00000000000000000000040000000000
Plaintext:                00000000000000000000000000000000
Ciphertext:               ec0cfd37e4cbc7e8be385283f7aea75a249f2df6dcc69de6ec0cfd37e4cbc7e8be385283f7aea75a
Reciphers for ciphertext: 0
Decipheredtext:           00000000000000000000000000000000
RESULT CIPHER-DECIPHER: -----OK-----


Test: 86
Symmetric key bit length: 192
IV bit length:            128
Plaintext bit length:     128
Symmetric key:            000000000000000000000000000000000000000000000000
IV:                       00000000000000000000020000000000
Plaintext:                00000000000000000000000000000000
Ciphertext:               ca2f383aacca0810aa13f3e710621422ca11fe1fbcd8935eca2f383aacca0810aa13f3e710621422
Reciphers for ciphertext: 0
Decipheredtext:           00000000000000000000000000000000
RESULT CIPHER-DECIPHER: -----OK-----


Test: 87
Symmetric key bit length: 192
IV bit length:            128
Plaintext bit length:     128
Symmetric key:            000000000000000000000000000000000000000000000000
IV:                       00000000000000000000010000000000
Plaintext:                00000000000000000000000000000000
Ciphertext:               1d0eef6870444f950937831ec0a55d98ad746396a52691651d0eef6870444f950937831ec0a55d98
Reciphers for ciphertext: 0
Decipheredtext:           00000000000000000000000000000000
RESULT CIPHER-DECIPHER: -----OK-----


Test: 88
Symmetric key bit length: 192
IV bit length:            128
Plaintext bit length:     128
Symmetric key:            000000000000000000000000000000000000000000000000
IV:                       00000000000000000000008000000000
Plaintext:                00000000000000000000000000000000
Ciphertext:               37839b35ed6801e7670496d479a95017270e1297773d15e437839b35ed6801e7670496d479a95017
Reciphers for ciphertext: 0
Decipheredtext:           00000000000000000000000000000000
RESULT CIPHER-DECIPHER: -----OK-----


Test: 89
Symmetric key bit length: 192
IV bit length:            128
Plaintext bit length:     128
Symmetric key:            000000000000000000000000000000000000000000000000
IV:                       00000000000000000000004000000000
Plaintext:                00000000000000000000000000000000
Ciphertext:               02317c8c7098c4f94ab867ac7a49dd8d2be7f48b5840a94002317c8c7098c4f94ab867ac7a49dd8d
Reciphers for ciphertext: 0
Decipheredtext:           00000000000000000000000000000000
RESULT CIPHER-DECIPHER: -----OK-----


Test: 90
Symmetric key bit length: 192
IV bit length:            128
Plaintext bit length:     128
Symmetric key:            000000000000000000000000000000000000000000000000
IV:                       00000000000000000000002000000000
Plaintext:                00000000000000000000000000000000
Ciphertext:               feb4cb4e3f7f8bf3367ebd43236518b4491ab26ae4e97fd11bf633aace961f9a18fb4ebc1b68005b
Reciphers for ciphertext: 1
Decipheredtext:           00000000000000000000000000000000
RESULT CIPHER-DECIPHER: -----OK-----


Test: 91
Symmetric key bit length: 192
IV bit length:            128
Plaintext bit length:     128
Symmetric key:            000000000000000000000000000000000000000000000000
IV:                       00000000000000000000001000000000
Plaintext:                00000000000000000000000000000000
Ciphertext:               36bedef1e4aa3e4a40a305741713fcbf0f8c1ff28e86337b36bedef1e4aa3e4a40a305741713fcbf
Reciphers for ciphertext: 0
Decipheredtext:           00000000000000000000000000000000
RESULT CIPHER-DECIPHER: -----OK-----


Test: 92
Symmetric key bit length: 192
IV bit length:            128
Plaintext bit length:     128
Symmetric key:            000000000000000000000000000000000000000000000000
IV:                       00000000000000000000000800000000
Plaintext:                00000000000000000000000000000000
Ciphertext:               b2dfe3c4870269c1e3feec39161540d9571ef4fd38f3841eb2dfe3c4870269c1e3feec39161540d9
Reciphers for ciphertext: 0
Decipheredtext:           00000000000000000000000000000000
RESULT CIPHER-DECIPHER: -----OK-----


Test: 93
Symmetric key bit length: 192
IV bit length:            128
Plaintext bit length:     128
Symmetric key:            000000000000000000000000000000000000000000000000
IV:                       00000000000000000000000400000000
Plaintext:                00000000000000000000000000000000
Ciphertext:               147ef2518ad45da0026056ecbf6a3dfad138af1af35d550d147ef2518ad45da0026056ecbf6a3dfa
Reciphers for ciphertext: 0
Decipheredtext:           00000000000000000000000000000000
RESULT CIPHER-DECIPHER: -----OK-----


Test: 94
Symmetric key bit length: 192
IV bit length:            128
Plaintext bit length:     128
Symmetric key:            000000000000000000000000000000000000000000000000
IV:                       00000000000000000000000200000000
Plaintext:                00000000000000000000000000000000
Ciphertext:               027a75e4de635790e47ace90d792880411bf3e968f330ca3027a75e4de635790e47ace90d7928804
Reciphers for ciphertext: 0
Decipheredtext:           00000000000000000000000000000000
RESULT CIPHER-DECIPHER: -----OK-----


Test: 95
Symmetric key bit length: 192
IV bit length:            128
Plaintext bit length:     128
Symmetric key:            000000000000000000000000000000000000000000000000
IV:                       00000000000000000000000100000000
Plaintext:                00000000000000000000000000000000
Ciphertext:               c5cf3ccb59bf87d0afbd629f48cfbb7bbabba64479184a592999d86c9ab8540c16cb536c9c53d730
Reciphers for ciphertext: 1
Decipheredtext:           00000000000000000000000000000000
RESULT CIPHER-DECIPHER: -----OK-----


Test: 96
Symmetric key bit length: 192
IV bit length:            128
Plaintext bit length:     128
Symmetric key:            000000000000000000000000000000000000000000000000
IV:                       00000000000000000000000080000000
Plaintext:                00000000000000000000000000000000
Ciphertext:               35165c93f564c97e1c32ef97e8151a87abd1dda23250e40c35165c93f564c97e1c32ef97e8151a87
Reciphers for ciphertext: 0
Decipheredtext:           00000000000000000000000000000000
RESULT CIPHER-DECIPHER: -----OK-----


Test: 97
Symmetric key bit length: 192
IV bit length:            128
Plaintext bit length:     128
Symmetric key:            000000000000000000000000000000000000000000000000
IV:                       00000000000000000000000040000000
Plaintext:                00000000000000000000000000000000
Ciphertext:               449de37f7d5a1bbd628abbe7e061701d0b16dcecf9281921449de37f7d5a1bbd628abbe7e061701d
Reciphers for ciphertext: 0
Decipheredtext:           00000000000000000000000000000000
RESULT CIPHER-DECIPHER: -----OK-----


Test: 98
Symmetric key bit length: 192
IV bit length:            128
Plaintext bit length:     128
Symmetric key:            000000000000000000000000000000000000000000000000
IV:                       00000000000000000000000020000000
Plaintext:                00000000000000000000000000000000
Ciphertext:               b1d45eaf218f1799b149bad677fe129f5e3014b83975b67fb1d45eaf218f1799b149bad677fe129f
Reciphers for ciphertext: 0
Decipheredtext:           00000000000000000000000000000000
RESULT CIPHER-DECIPHER: -----OK-----


Test: 99
Symmetric key bit length: 192
IV bit length:            128
Plaintext bit length:     128
Symmetric key:            000000000000000000000000000000000000000000000000
IV:                       00000000000000000000000010000000
Plaintext:                00000000000000000000000000000000
Ciphertext:               be08ac6db6bd0583aa9d2abc71c73dcd6e6220ef16878a29be08ac6db6bd0583aa9d2abc71c73dcd
Reciphers for ciphertext: 0
Decipheredtext:           00000000000000000000000000000000
RESULT CIPHER-DECIPHER: -----OK-----


Test: 100
Symmetric key bit length: 192
IV bit length:            128
Plaintext bit length:     128
Symmetric key:            000000000000000000000000000000000000000000000000
IV:                       00000000000000000000000008000000
Plaintext:                00000000000000000000000000000000
Ciphertext:               bcc835bd3df1a79e4c7c145b899a5c2515f68a95d02b8295bcc835bd3df1a79e4c7c145b899a5c25
Reciphers for ciphertext: 0
Decipheredtext:           00000000000000000000000000000000
RESULT CIPHER-DECIPHER: -----OK-----


Test: 101
Symmetric key bit length: 192
IV bit length:            128
Plaintext bit length:     128
Symmetric key:            000000000000000000000000000000000000000000000000
IV:                       00000000000000000000000004000000
Plaintext:                00000000000000000000000000000000
Ciphertext:               3d311ea611ff5af371301c58a8e9912dd62cd84cdebf6fae3d311ea611ff5af371301c58a8e9912d
Reciphers for ciphertext: 0
Decipheredtext:           00000000000000000000000000000000
RESULT CIPHER-DECIPHER: -----OK-----


Test: 102
Symmetric key bit length: 192
IV bit length:            128
Plaintext bit length:     128
Symmetric key:            000000000000000000000000000000000000000000000000
IV:                       00000000000000000000000002000000
Plaintext:                00000000000000000000000000000000
Ciphertext:               a5a1bea594acc7ca80f09ea5addb5c719702aa149549ae23a5a1bea594acc7ca80f09ea5addb5c71
Reciphers for ciphertext: 0
Decipheredtext:           00000000000000000000000000000000
RESULT CIPHER-DECIPHER: -----OK-----


Test: 103
Symmetric key bit length: 192
IV bit length:            128
Plaintext bit length:     128
Symmetric key:            000000000000000000000000000000000000000000000000
IV:                       00000000000000000000000001000000
Plaintext:                00000000000000000000000000000000
Ciphertext:               0f09492429fe7222d6cd8190d9f2ffbfd39c68ec1df4fbb70f09492429fe7222d6cd8190d9f2ffbf
Reciphers for ciphertext: 0
Decipheredtext:           00000000000000000000000000000000
RESULT CIPHER-DECIPHER: -----OK-----


Test: 104
Symmetric key bit length: 192
IV bit length:            128
Plaintext bit length:     128
Symmetric key:            000000000000000000000000000000000000000000000000
IV:                       00000000000000000000000000800000
Plaintext:                00000000000000000000000000000000
Ciphertext:               816d2220a16b8aaee71364fd43636c6f1ca6a6454494eeaa816d2220a16b8aaee71364fd43636c6f
Reciphers for ciphertext: 0
Decipheredtext:           00000000000000000000000000000000
RESULT CIPHER-DECIPHER: -----OK-----


Test: 105
Symmetric key bit length: 192
IV bit length:            128
Plaintext bit length:     128
Symmetric key:            000000000000000000000000000000000000000000000000
IV:                       00000000000000000000000000400000
Plaintext:                00000000000000000000000000000000
Ciphertext:               d7e8702408419ed73191b107eaf75a0b88133e8781466147d7e8702408419ed73191b107eaf75a0b
Reciphers for ciphertext: 0
Decipheredtext:           00000000000000000000000000000000
RESULT CIPHER-DECIPHER: -----OK-----


Test: 106
Symmetric key bit length: 192
IV bit length:            128
Plaintext bit length:     128
Symmetric key:            000000000000000000000000000000000000000000000000
IV:                       00000000000000000000000000200000
Plaintext:                00000000000000000000000000000000
Ciphertext:               9b170efb1e235b433c78e276bea082f078584055faef3dc19b170efb1e235b433c78e276bea082f0
Reciphers for ciphertext: 0
Decipheredtext:           00000000000000000000000000000000
RESULT CIPHER-DECIPHER: -----OK-----


Test: 107
Symmetric key bit length: 192
IV bit length:            128
Plaintext bit length:     128
Symmetric key:            000000000000000000000000000000000000000000000000
IV:                       00000000000000000000000000100000
Plaintext:                00000000000000000000000000000000
Ciphertext:               03bbecc5598ae974430f29395522f096fbfae1620da381d303bbecc5598ae974430f29395522f096
Reciphers for ciphertext: 0
Decipheredtext:           00000000000000000000000000000000
RESULT CIPHER-DECIPHER: -----OK-----


Test: 108
Symmetric key bit length: 192
IV bit length:            128
Plaintext bit length:     128
Symmetric key:            000000000000000000000000000000000000000000000000
IV:                       00000000000000000000000000080000
Plaintext:                00000000000000000000000000000000
Ciphertext:               db53517766c0e8cf42059607cba89380d8b981e6d9a32db8db53517766c0e8cf42059607cba89380
Reciphers for ciphertext: 0
Decipheredtext:           00000000000000000000000000000000
RESULT CIPHER-DECIPHER: -----OK-----


Test: 109
Symmetric key bit length: 192
IV bit length:            128
Plaintext bit length:     128
Symmetric key:            000000000000000000000000000000000000000000000000
IV:                       00000000000000000000000000040000
Plaintext:                00000000000000000000000000000000
Ciphertext:               2e2af4b7931f0aeffac5471148a5bb97b4503f41e005e5682e2af4b7931f0aeffac5471148a5bb97
Reciphers for ciphertext: 0
Decipheredtext:           00000000000000000000000000000000
RESULT CIPHER-DECIPHER: -----OK-----


Test: 110
Symmetric key bit length: 192
IV bit length:            128
Plaintext bit length:     128
Symmetric key:            000000000000000000000000000000000000000000000000
IV:                       00000000000000000000000000020000
Plaintext:                00000000000000000000000000000000
Ciphertext:               c872c0408266403b984f635ff5683de4e5d09908dd1a1db4c872c0408266403b984f635ff5683de4
Reciphers for ciphertext: 0
Decipheredtext:           00000000000000000000000000000000
RESULT CIPHER-DECIPHER: -----OK-----


Test: 111
Symmetric key bit length: 192
IV bit length:            128
Plaintext bit length:     128
Symmetric key:            000000000000000000000000000000000000000000000000
IV:                       00000000000000000000000000010000
Plaintext:                00000000000000000000000000000000
Ciphertext:               15dcf750b0e3a68ad1f4efd07e8967b4ebc7df5e3dfbc10a15dcf750b0e3a68ad1f4efd07e8967b4
Reciphers for ciphertext: 0
Decipheredtext:           00000000000000000000000000000000
RESULT CIPHER-DECIPHER: -----OK-----


Test: 112
Symmetric key bit length: 192
IV bit length:            128
Plaintext bit length:     128
Symmetric key:            000000000000000000000000000000000000000000000000
IV:                       00000000000000000000000000008000
Plaintext:                00000000000000000000000000000000
Ciphertext:               b41092048e9e6a749f6fd8ce515a23a39c3ead252d14b0e4b41092048e9e6a749f6fd8ce515a23a3
Reciphers for ciphertext: 0
Decipheredtext:           00000000000000000000000000000000
RESULT CIPHER-DECIPHER: -----OK-----


Test: 113
Symmetric key bit length: 192
IV bit length:            128
Plaintext bit length:     128
Symmetric key:            000000000000000000000000000000000000000000000000
IV:                       00000000000000000000000000004000
Plaintext:                00000000000000000000000000000000
Ciphertext:               4da9267d62507994312bd5c99adde730ec3857abad3610044da9267d62507994312bd5c99adde730
Reciphers for ciphertext: 0
Decipheredtext:           00000000000000000000000000000000
RESULT CIPHER-DECIPHER: -----OK-----


Test: 114
Symmetric key bit length: 192
IV bit length:            128
Plaintext bit length:     128
Symmetric key:            000000000000000000000000000000000000000000000000
IV:                       00000000000000000000000000002000
Plaintext:                00000000000000000000000000000000
Ciphertext:               9e2fca6d1d626e9c6a924ebf7dbf618afba9b3fb67e6a0f89e2fca6d1d626e9c6a924ebf7dbf618a
Reciphers for ciphertext: 0
Decipheredtext:           00000000000000000000000000000000
RESULT CIPHER-DECIPHER: -----OK-----


Test: 115
Symmetric key bit length: 192
IV bit length:            128
Plaintext bit length:     128
Symmetric key:            000000000000000000000000000000000000000000000000
IV:                       00000000000000000000000000001000
Plaintext:                00000000000000000000000000000000
Ciphertext:               e092e8d7ef2c2465aefb2493c3063590037a7e33fef38916e092e8d7ef2c2465aefb2493c3063590
Reciphers for ciphertext: 0
Decipheredtext:           00000000000000000000000000000000
RESULT CIPHER-DECIPHER: -----OK-----


Test: 116
Symmetric key bit length: 192
IV bit length:            128
Plaintext bit length:     128
Symmetric key:            000000000000000000000000000000000000000000000000
IV:                       00000000000000000000000000000800
Plaintext:                00000000000000000000000000000000
Ciphertext:               1c0e58da37d1068378a88dbe2ede4e103c199488c5dddf571c0e58da37d1068378a88dbe2ede4e10
Reciphers for ciphertext: 0
Decipheredtext:           00000000000000000000000000000000
RESULT CIPHER-DECIPHER: -----OK-----


Test: 117
Symmetric key bit length: 192
IV bit length:            128
Plaintext bit length:     128
Symmetric key:            000000000000000000000000000000000000000000000000
IV:                       00000000000000000000000000000400
Plaintext:                00000000000000000000000000000000
Ciphertext:               19063f854232b8509a6a3a6d468099591973e8da6131787419063f854232b8509a6a3a6d46809959
Reciphers for ciphertext: 0
Decipheredtext:           00000000000000000000000000000000
RESULT CIPHER-DECIPHER: -----OK-----


Test: 118
Symmetric key bit length: 192
IV bit length:            128
Plaintext bit length:     128
Symmetric key:            000000000000000000000000000000000000000000000000
IV:                       00000000000000000000000000000200
Plaintext:                00000000000000000000000000000000
Ciphertext:               447fb09e54efa285f7530f25c4ea00223232c2cc119e9a5e447fb09e54efa285f7530f25c4ea0022
Reciphers for ciphertext: 0
Decipheredtext:           00000000000000000000000000000000
RESULT CIPHER-DECIPHER: -----OK-----


Test: 119
Symmetric key bit length: 192
IV bit length:            128
Plaintext bit length:     128
Symmetric key:            000000000000000000000000000000000000000000000000
IV:                       00000000000000000000000000000100
Plaintext:                00000000000000000000000000000000
Ciphertext:               f7abe86321be40e1fbfdafed37cc1d9bc0773b21040686ed586f6402fb86beaaea19eb0e5e21fd2a
Reciphers for ciphertext: 1
Decipheredtext:           00000000000000000000000000000000
RESULT CIPHER-DECIPHER: -----OK-----


Test: 120
Symmetric key bit length: 192
IV bit length:            128
Plaintext bit length:     128
Symmetric key:            000000000000000000000000000000000000000000000000
IV:                       00000000000000000000000000000080
Plaintext:                00000000000000000000000000000000
Ciphertext:               4e8506cd006666341d6cf51f98b41f35a4d2360a31c74e794e8506cd006666341d6cf51f98b41f35
Reciphers for ciphertext: 0
Decipheredtext:           00000000000000000000000000000000
RESULT CIPHER-DECIPHER: -----OK-----


Test: 121
Symmetric key bit length: 192
IV bit length:            128
Plaintext bit length:     128
Symmetric key:            000000000000000000000000000000000000000000000000
IV:                       00000000000000000000000000000040
Plaintext:                00000000000000000000000000000000
Ciphertext:               53995de0009ca18becafb8307c54c14c3d5ec944da889fae53995de0009ca18becafb8307c54c14c
Reciphers for ciphertext: 0
Decipheredtext:           00000000000000000000000000000000
RESULT CIPHER-DECIPHER: -----OK-----


Test: 122
Symmetric key bit length: 192
IV bit length:            128
Plaintext bit length:     128
Symmetric key:            000000000000000000000000000000000000000000000000
IV:                       00000000000000000000000000000020
Plaintext:                00000000000000000000000000000000
Ciphertext:               2006bf99f4c58b6cc2627856593faeea39a825cfe96ba8152006bf99f4c58b6cc2627856593faeea
Reciphers for ciphertext: 0
Decipheredtext:           00000000000000000000000000000000
RESULT CIPHER-DECIPHER: -----OK-----


Test: 123
Symmetric key bit length: 192
IV bit length:            128
Plaintext bit length:     128
Symmetric key:            000000000000000000000000000000000000000000000000
IV:                       00000000000000000000000000000010
Plaintext:                00000000000000000000000000000000
Ciphertext:               2da697d2737cb30b744a4644fa1cbc6ea17ea826378b96322da697d2737cb30b744a4644fa1cbc6e
Reciphers for ciphertext: 0
Decipheredtext:           00000000000000000000000000000000
RESULT CIPHER-DECIPHER: -----OK-----


Test: 124
Symmetric key bit length: 192
IV bit length:            128
Plaintext bit length:     128
Symmetric key:            000000000000000000000000000000000000000000000000
IV:                       00000000000000000000000000000008
Plaintext:                00000000000000000000000000000000
Ciphertext:               47a22acdb60c3a986a8f76ecd0ea34339cb004ee97220a0947a22acdb60c3a986a8f76ecd0ea3433
Reciphers for ciphertext: 0
Decipheredtext:           00000000000000000000000000000000
RESULT CIPHER-DECIPHER: -----OK-----


Test: 125
Symmetric key bit length: 192
IV bit length:            128
Plaintext bit length:     128
Symmetric key:            000000000000000000000000000000000000000000000000
IV:                       00000000000000000000000000000004
Plaintext:                00000000000000000000000000000000
Ciphertext:               fdaa17c2cde20268fe36e164ea53215185faf0352d6ffb00fdaa17c2cde20268fe36e164ea532151
Reciphers for ciphertext: 0
Decipheredtext:           00000000000000000000000000000000
RESULT CIPHER-DECIPHER: -----OK-----


Test: 126
Symmetric key bit length: 192
IV bit length:            128
Plaintext bit length:     128
Symmetric key:            000000000000000000000000000000000000000000000000
IV:                       00000000000000000000000000000002
Plaintext:                00000000000000000000000000000000
Ciphertext:               9ae7247c07f0fe411c267e4384b0f6000d4b9b8150136d1981c54875de47be618345d06eea672249
Reciphers for ciphertext: 2
Decipheredtext:           00000000000000000000000000000000
RESULT CIPHER-DECIPHER: -----OK-----


Test: 127
Symmetric key bit length: 192
IV bit length:            128
Plaintext bit length:     128
Symmetric key:            000000000000000000000000000000000000000000000000
IV:                       00000000000000000000000000000001
Plaintext:                00000000000000000000000000000000
Ciphertext:               cd33b28ac773f74ba00ed1f312572435f747483d63d8d4b4cd33b28ac773f74ba00ed1f312572435
Reciphers for ciphertext: 0
Decipheredtext:           00000000000000000000000000000000
RESULT CIPHER-DECIPHER: -----OK-----


 DATA SHA1 (hexadecimal): 97ced10dc94e86dd75cb6131ffef1b8f8cc0fecd

