
DiceLock 9.0.0.1

 TEST COMPONENTS:
 ----------------
 DiceLock:           DiceLockIVIndexed class
 Operation Mode:     CFB_Mode class
 Block Cipher:       Camellia256 class
 Key Modifier:       DecreaseBase0IndexModifier_6_0_0_1 class
   Index bit length: 256
 Random tests:       RandomTestSuite class
                     FrequencyTest class
                     BlockFrequencyTest class
                     CumulativeSumForwardTest class
                     LongestRunOfOnesTest class
                     RunsTest class
 Random alpha:       0.001

 VECTOR TEST: Test vector 7 - Symmetric key all byte value 0xXX, IV all byte value 0xYY and plaintext all byte value 0xZZ


##### INDIVIDUAL TESTS #####

Number tests: 128


Test: 0
Symmetric key bit length: 256
IV bit length:            128
Plaintext bit length:     128
Symmetric key:            0000000000000000000000000000000000000000000000000000000000000000
IV:                       ffffffffffffffffffffffffffffffff
Plaintext:                ffffffffffffffffffffffffffffffff
Ciphertext:               c941969986d050427748e8d1628d76c6f81df3425e4e42a77a8555c9f2794c3b36be6966792fafbd88b7172e9d728939
Reciphers for ciphertext: 0
Decipheredtext:           ffffffffffffffffffffffffffffffff
RESULT CIPHER-DECIPHER: -----OK-----


Test: 1
Symmetric key bit length: 256
IV bit length:            128
Plaintext bit length:     128
Symmetric key:            0101010101010101010101010101010101010101010101010101010101010101
IV:                       fefefefefefefefefefefefefefefefe
Plaintext:                fefefefefefefefefefefefefefefefe
Ciphertext:               041a1ff8449867fae957b5cf63c5fb7480812c4e542720ee8e216992892c6715fae4e106ba66990417a94b319d3b058a
Reciphers for ciphertext: 0
Decipheredtext:           fefefefefefefefefefefefefefefefe
RESULT CIPHER-DECIPHER: -----OK-----


Test: 2
Symmetric key bit length: 256
IV bit length:            128
Plaintext bit length:     128
Symmetric key:            0202020202020202020202020202020202020202020202020202020202020202
IV:                       fdfdfdfdfdfdfdfdfdfdfdfdfdfdfdfd
Plaintext:                fdfdfdfdfdfdfdfdfdfdfdfdfdfdfdfd
Ciphertext:               f4d2178916d5e603c8080bc8d99f60c63f05b1c9de17fcbff8192cded7178b9b092fea74eb281bfe35f5f63524629d3b
Reciphers for ciphertext: 0
Decipheredtext:           fdfdfdfdfdfdfdfdfdfdfdfdfdfdfdfd
RESULT CIPHER-DECIPHER: -----OK-----


Test: 3
Symmetric key bit length: 256
IV bit length:            128
Plaintext bit length:     128
Symmetric key:            0303030303030303030303030303030303030303030303030303030303030303
IV:                       fcfcfcfcfcfcfcfcfcfcfcfcfcfcfcfc
Plaintext:                fcfcfcfcfcfcfcfcfcfcfcfcfcfcfcfc
Ciphertext:               5d7ff0ea1e83a7b9cd6de401da8b15c6f900a24fb091fe09c338a4dc8f01f234a1830c16e27f5b45319118fd2677e93a
Reciphers for ciphertext: 0
Decipheredtext:           fcfcfcfcfcfcfcfcfcfcfcfcfcfcfcfc
RESULT CIPHER-DECIPHER: -----OK-----


Test: 4
Symmetric key bit length: 256
IV bit length:            128
Plaintext bit length:     128
Symmetric key:            0404040404040404040404040404040404040404040404040404040404040404
IV:                       fbfbfbfbfbfbfbfbfbfbfbfbfbfbfbfb
Plaintext:                fbfbfbfbfbfbfbfbfbfbfbfbfbfbfbfb
Ciphertext:               299d4ed95bdc52ec7768f298842ce58c8762c913c9f3c53578b452f888786a75d266b522a027a9178c9309637fd71e77
Reciphers for ciphertext: 0
Decipheredtext:           fbfbfbfbfbfbfbfbfbfbfbfbfbfbfbfb
RESULT CIPHER-DECIPHER: -----OK-----


Test: 5
Symmetric key bit length: 256
IV bit length:            128
Plaintext bit length:     128
Symmetric key:            0505050505050505050505050505050505050505050505050505050505050505
IV:                       fafafafafafafafafafafafafafafafa
Plaintext:                fafafafafafafafafafafafafafafafa
Ciphertext:               e32d7860503784ce6601896451b523eb8580e9e0834e8296c3cf23425915af7719d7829aaacd7e349cfb739eab4fd911
Reciphers for ciphertext: 0
Decipheredtext:           fafafafafafafafafafafafafafafafa
RESULT CIPHER-DECIPHER: -----OK-----


Test: 6
Symmetric key bit length: 256
IV bit length:            128
Plaintext bit length:     128
Symmetric key:            0606060606060606060606060606060606060606060606060606060606060606
IV:                       f9f9f9f9f9f9f9f9f9f9f9f9f9f9f9f9
Plaintext:                f9f9f9f9f9f9f9f9f9f9f9f9f9f9f9f9
Ciphertext:               bb2a997e0083168959732c36ba15e3a3510cfa944e56c7a951fe43512897ab7642d36087f97aef70a08ad5cf43ec1a5a
Reciphers for ciphertext: 0
Decipheredtext:           f9f9f9f9f9f9f9f9f9f9f9f9f9f9f9f9
RESULT CIPHER-DECIPHER: -----OK-----


Test: 7
Symmetric key bit length: 256
IV bit length:            128
Plaintext bit length:     128
Symmetric key:            0707070707070707070707070707070707070707070707070707070707070707
IV:                       f8f8f8f8f8f8f8f8f8f8f8f8f8f8f8f8
Plaintext:                f8f8f8f8f8f8f8f8f8f8f8f8f8f8f8f8
Ciphertext:               9ff6f22905bf80ac67c851abe1fc7ac9560fbcfb12cfddef47cf4d6a8c574c0a670e0ad1fd4778549f30a95319048231
Reciphers for ciphertext: 0
Decipheredtext:           f8f8f8f8f8f8f8f8f8f8f8f8f8f8f8f8
RESULT CIPHER-DECIPHER: -----OK-----


Test: 8
Symmetric key bit length: 256
IV bit length:            128
Plaintext bit length:     128
Symmetric key:            0808080808080808080808080808080808080808080808080808080808080808
IV:                       f7f7f7f7f7f7f7f7f7f7f7f7f7f7f7f7
Plaintext:                f7f7f7f7f7f7f7f7f7f7f7f7f7f7f7f7
Ciphertext:               7c550615dfbe2ac9795bb77a8fb889a41dcafb49e3e8d6a33b143f85cd32834c8ba2f1e22849dd3e8eac408d784f7e53
Reciphers for ciphertext: 0
Decipheredtext:           f7f7f7f7f7f7f7f7f7f7f7f7f7f7f7f7
RESULT CIPHER-DECIPHER: -----OK-----


Test: 9
Symmetric key bit length: 256
IV bit length:            128
Plaintext bit length:     128
Symmetric key:            0909090909090909090909090909090909090909090909090909090909090909
IV:                       f6f6f6f6f6f6f6f6f6f6f6f6f6f6f6f6
Plaintext:                f6f6f6f6f6f6f6f6f6f6f6f6f6f6f6f6
Ciphertext:               7eb285ebe697aea951a92c192d9150165b08b3b94d079dc8d9ecf87b703da2b28844731d1061585fa75fdaefdb67a6e0
Reciphers for ciphertext: 0
Decipheredtext:           f6f6f6f6f6f6f6f6f6f6f6f6f6f6f6f6
RESULT CIPHER-DECIPHER: -----OK-----


Test: 10
Symmetric key bit length: 256
IV bit length:            128
Plaintext bit length:     128
Symmetric key:            0a0a0a0a0a0a0a0a0a0a0a0a0a0a0a0a0a0a0a0a0a0a0a0a0a0a0a0a0a0a0a0a
IV:                       f5f5f5f5f5f5f5f5f5f5f5f5f5f5f5f5
Plaintext:                f5f5f5f5f5f5f5f5f5f5f5f5f5f5f5f5
Ciphertext:               b473e1883db94f050a4201b1c6f47bae32eb4f7a94f63753da88ca43c62b54e64186147dc84cbaf0ffb7f44433018e5b
Reciphers for ciphertext: 0
Decipheredtext:           f5f5f5f5f5f5f5f5f5f5f5f5f5f5f5f5
RESULT CIPHER-DECIPHER: -----OK-----


Test: 11
Symmetric key bit length: 256
IV bit length:            128
Plaintext bit length:     128
Symmetric key:            0b0b0b0b0b0b0b0b0b0b0b0b0b0b0b0b0b0b0b0b0b0b0b0b0b0b0b0b0b0b0b0b
IV:                       f4f4f4f4f4f4f4f4f4f4f4f4f4f4f4f4
Plaintext:                f4f4f4f4f4f4f4f4f4f4f4f4f4f4f4f4
Ciphertext:               ed5ef5d2dfff19d2defe679f7ccb151325555c77e350c56aaf516468a530124319aa01262b0bed262a0a936b883fe1e7
Reciphers for ciphertext: 0
Decipheredtext:           f4f4f4f4f4f4f4f4f4f4f4f4f4f4f4f4
RESULT CIPHER-DECIPHER: -----OK-----


Test: 12
Symmetric key bit length: 256
IV bit length:            128
Plaintext bit length:     128
Symmetric key:            0c0c0c0c0c0c0c0c0c0c0c0c0c0c0c0c0c0c0c0c0c0c0c0c0c0c0c0c0c0c0c0c
IV:                       f3f3f3f3f3f3f3f3f3f3f3f3f3f3f3f3
Plaintext:                f3f3f3f3f3f3f3f3f3f3f3f3f3f3f3f3
Ciphertext:               f124f234839a8324621f28247fbbc22220b0a7076b24901d13a6477535f579f802d701c7706970d791ecdbd78c4831d1
Reciphers for ciphertext: 0
Decipheredtext:           f3f3f3f3f3f3f3f3f3f3f3f3f3f3f3f3
RESULT CIPHER-DECIPHER: -----OK-----


Test: 13
Symmetric key bit length: 256
IV bit length:            128
Plaintext bit length:     128
Symmetric key:            0d0d0d0d0d0d0d0d0d0d0d0d0d0d0d0d0d0d0d0d0d0d0d0d0d0d0d0d0d0d0d0d
IV:                       f2f2f2f2f2f2f2f2f2f2f2f2f2f2f2f2
Plaintext:                f2f2f2f2f2f2f2f2f2f2f2f2f2f2f2f2
Ciphertext:               ddcb1154a9e25ea05b15d2f2584dae6e9110389cde75bc2b290897edff5bc5f62f39e3a65b10ac52a9e72000aabf5c9c
Reciphers for ciphertext: 0
Decipheredtext:           f2f2f2f2f2f2f2f2f2f2f2f2f2f2f2f2
RESULT CIPHER-DECIPHER: -----OK-----


Test: 14
Symmetric key bit length: 256
IV bit length:            128
Plaintext bit length:     128
Symmetric key:            0e0e0e0e0e0e0e0e0e0e0e0e0e0e0e0e0e0e0e0e0e0e0e0e0e0e0e0e0e0e0e0e
IV:                       f1f1f1f1f1f1f1f1f1f1f1f1f1f1f1f1
Plaintext:                f1f1f1f1f1f1f1f1f1f1f1f1f1f1f1f1
Ciphertext:               38d2a8164ab61414336b57dea0df15aa7d481c237f6be1d2256175a5fd15d210c92359e7bb47e5e5c29aa62f512ee45b
Reciphers for ciphertext: 0
Decipheredtext:           f1f1f1f1f1f1f1f1f1f1f1f1f1f1f1f1
RESULT CIPHER-DECIPHER: -----OK-----


Test: 15
Symmetric key bit length: 256
IV bit length:            128
Plaintext bit length:     128
Symmetric key:            0f0f0f0f0f0f0f0f0f0f0f0f0f0f0f0f0f0f0f0f0f0f0f0f0f0f0f0f0f0f0f0f
IV:                       f0f0f0f0f0f0f0f0f0f0f0f0f0f0f0f0
Plaintext:                f0f0f0f0f0f0f0f0f0f0f0f0f0f0f0f0
Ciphertext:               e8724eba36bb0e0f97424a0ba4bb678e49802fb59ba182a1cce936b129c73f8a1882be4ac64bfeff67b2bafb544b977e
Reciphers for ciphertext: 0
Decipheredtext:           f0f0f0f0f0f0f0f0f0f0f0f0f0f0f0f0
RESULT CIPHER-DECIPHER: -----OK-----


Test: 16
Symmetric key bit length: 256
IV bit length:            128
Plaintext bit length:     128
Symmetric key:            1010101010101010101010101010101010101010101010101010101010101010
IV:                       efefefefefefefefefefefefefefefef
Plaintext:                efefefefefefefefefefefefefefefef
Ciphertext:               90807a92cfd4ecbbb13d5847f5bf86fdae96f94ed6de1e7cf00a2adee0e5c7307f6f957d203b03545ed2b7a81a506912
Reciphers for ciphertext: 0
Decipheredtext:           efefefefefefefefefefefefefefefef
RESULT CIPHER-DECIPHER: -----OK-----


Test: 17
Symmetric key bit length: 256
IV bit length:            128
Plaintext bit length:     128
Symmetric key:            1111111111111111111111111111111111111111111111111111111111111111
IV:                       eeeeeeeeeeeeeeeeeeeeeeeeeeeeeeee
Plaintext:                eeeeeeeeeeeeeeeeeeeeeeeeeeeeeeee
Ciphertext:               67ede272f1c9e11e9f7ff0860e400efdb158bc5fe38ca54bcd973a73c38f6f0191c0243470cb12db6bc748b67e0bad9b
Reciphers for ciphertext: 2
Decipheredtext:           eeeeeeeeeeeeeeeeeeeeeeeeeeeeeeee
RESULT CIPHER-DECIPHER: -----OK-----


Test: 18
Symmetric key bit length: 256
IV bit length:            128
Plaintext bit length:     128
Symmetric key:            1212121212121212121212121212121212121212121212121212121212121212
IV:                       edededededededededededededededed
Plaintext:                edededededededededededededededed
Ciphertext:               9ced29a35babfea0d45b40a69250f84a4f3086fcf3f997cc6ede78c4bf8414247100c44eb646134d39b6ad4b7fbd15a7
Reciphers for ciphertext: 0
Decipheredtext:           edededededededededededededededed
RESULT CIPHER-DECIPHER: -----OK-----


Test: 19
Symmetric key bit length: 256
IV bit length:            128
Plaintext bit length:     128
Symmetric key:            1313131313131313131313131313131313131313131313131313131313131313
IV:                       ecececececececececececececececec
Plaintext:                ecececececececececececececececec
Ciphertext:               5647d2be1cfa3533023b5983d8cf59ad4ee7125052bc302864403f86e30cacd2baab3e52f016d9dfeed7b56f3423b541
Reciphers for ciphertext: 0
Decipheredtext:           ecececececececececececececececec
RESULT CIPHER-DECIPHER: -----OK-----


Test: 20
Symmetric key bit length: 256
IV bit length:            128
Plaintext bit length:     128
Symmetric key:            1414141414141414141414141414141414141414141414141414141414141414
IV:                       ebebebebebebebebebebebebebebebeb
Plaintext:                ebebebebebebebebebebebebebebebeb
Ciphertext:               15d065d4817ea708aa005c07500431235e10ed367014bd35748dc8783ab41670fe3b8e3f6a954ce341ebb7ecbbefdac8
Reciphers for ciphertext: 0
Decipheredtext:           ebebebebebebebebebebebebebebebeb
RESULT CIPHER-DECIPHER: -----OK-----


Test: 21
Symmetric key bit length: 256
IV bit length:            128
Plaintext bit length:     128
Symmetric key:            1515151515151515151515151515151515151515151515151515151515151515
IV:                       eaeaeaeaeaeaeaeaeaeaeaeaeaeaeaea
Plaintext:                eaeaeaeaeaeaeaeaeaeaeaeaeaeaeaea
Ciphertext:               a37ef4bfb9d81d8d2c5d5145f8cb0493fb8de90c35d514f7af6be63028aaf03349941e555332f767c6b7bbaf1221ee79
Reciphers for ciphertext: 0
Decipheredtext:           eaeaeaeaeaeaeaeaeaeaeaeaeaeaeaea
RESULT CIPHER-DECIPHER: -----OK-----


Test: 22
Symmetric key bit length: 256
IV bit length:            128
Plaintext bit length:     128
Symmetric key:            1616161616161616161616161616161616161616161616161616161616161616
IV:                       e9e9e9e9e9e9e9e9e9e9e9e9e9e9e9e9
Plaintext:                e9e9e9e9e9e9e9e9e9e9e9e9e9e9e9e9
Ciphertext:               5466b995edf2080ebc2077819781e871be2ac4617a0ad6f7d2f36c4079f9dcd4bd8f507c041be1e755c99e687e680198
Reciphers for ciphertext: 0
Decipheredtext:           e9e9e9e9e9e9e9e9e9e9e9e9e9e9e9e9
RESULT CIPHER-DECIPHER: -----OK-----


Test: 23
Symmetric key bit length: 256
IV bit length:            128
Plaintext bit length:     128
Symmetric key:            1717171717171717171717171717171717171717171717171717171717171717
IV:                       e8e8e8e8e8e8e8e8e8e8e8e8e8e8e8e8
Plaintext:                e8e8e8e8e8e8e8e8e8e8e8e8e8e8e8e8
Ciphertext:               ebb955c498fbe67c1129f10584c5a1c9f80d90a11d7f5c3151a6eab53d2b521d0351bd2c70130e94f9c119ed6c2d4921
Reciphers for ciphertext: 0
Decipheredtext:           e8e8e8e8e8e8e8e8e8e8e8e8e8e8e8e8
RESULT CIPHER-DECIPHER: -----OK-----


Test: 24
Symmetric key bit length: 256
IV bit length:            128
Plaintext bit length:     128
Symmetric key:            1818181818181818181818181818181818181818181818181818181818181818
IV:                       e7e7e7e7e7e7e7e7e7e7e7e7e7e7e7e7
Plaintext:                e7e7e7e7e7e7e7e7e7e7e7e7e7e7e7e7
Ciphertext:               42fc58ffc14fbe6e3226e08b507ea692b00cf83fb09cb8fff7704ead44859cd0a51bbf1826a85989d5c1076cb7994175
Reciphers for ciphertext: 0
Decipheredtext:           e7e7e7e7e7e7e7e7e7e7e7e7e7e7e7e7
RESULT CIPHER-DECIPHER: -----OK-----


Test: 25
Symmetric key bit length: 256
IV bit length:            128
Plaintext bit length:     128
Symmetric key:            1919191919191919191919191919191919191919191919191919191919191919
IV:                       e6e6e6e6e6e6e6e6e6e6e6e6e6e6e6e6
Plaintext:                e6e6e6e6e6e6e6e6e6e6e6e6e6e6e6e6
Ciphertext:               c4253549d450321aa08187ebdc075111eec005ee3684e88cda16473e54ab9e6822c3d3af32b6d4fc4667610d3ae1b7f7
Reciphers for ciphertext: 0
Decipheredtext:           e6e6e6e6e6e6e6e6e6e6e6e6e6e6e6e6
RESULT CIPHER-DECIPHER: -----OK-----


Test: 26
Symmetric key bit length: 256
IV bit length:            128
Plaintext bit length:     128
Symmetric key:            1a1a1a1a1a1a1a1a1a1a1a1a1a1a1a1a1a1a1a1a1a1a1a1a1a1a1a1a1a1a1a1a
IV:                       e5e5e5e5e5e5e5e5e5e5e5e5e5e5e5e5
Plaintext:                e5e5e5e5e5e5e5e5e5e5e5e5e5e5e5e5
Ciphertext:               3c9147a25e199fa32a6fe914fd9f51d95b98b323bd0af50c519f8697b8592ce1d974a247bbfc7a46cf8a0cf1187ab43c
Reciphers for ciphertext: 0
Decipheredtext:           e5e5e5e5e5e5e5e5e5e5e5e5e5e5e5e5
RESULT CIPHER-DECIPHER: -----OK-----


Test: 27
Symmetric key bit length: 256
IV bit length:            128
Plaintext bit length:     128
Symmetric key:            1b1b1b1b1b1b1b1b1b1b1b1b1b1b1b1b1b1b1b1b1b1b1b1b1b1b1b1b1b1b1b1b
IV:                       e4e4e4e4e4e4e4e4e4e4e4e4e4e4e4e4
Plaintext:                e4e4e4e4e4e4e4e4e4e4e4e4e4e4e4e4
Ciphertext:               e566d96ceddf91b9bb0441359b581e46688f9e954539644969f78c337731bca901823d88093b755d5fe0a5d17fbcfaa2
Reciphers for ciphertext: 0
Decipheredtext:           e4e4e4e4e4e4e4e4e4e4e4e4e4e4e4e4
RESULT CIPHER-DECIPHER: -----OK-----


Test: 28
Symmetric key bit length: 256
IV bit length:            128
Plaintext bit length:     128
Symmetric key:            1c1c1c1c1c1c1c1c1c1c1c1c1c1c1c1c1c1c1c1c1c1c1c1c1c1c1c1c1c1c1c1c
IV:                       e3e3e3e3e3e3e3e3e3e3e3e3e3e3e3e3
Plaintext:                e3e3e3e3e3e3e3e3e3e3e3e3e3e3e3e3
Ciphertext:               7cc3a6017416286ecde9b7cc931ed5787253548f0f6f0fb867dfbddbed03b1309f2045e297f5cb8d2e0a542f70fd369b
Reciphers for ciphertext: 0
Decipheredtext:           e3e3e3e3e3e3e3e3e3e3e3e3e3e3e3e3
RESULT CIPHER-DECIPHER: -----OK-----


Test: 29
Symmetric key bit length: 256
IV bit length:            128
Plaintext bit length:     128
Symmetric key:            1d1d1d1d1d1d1d1d1d1d1d1d1d1d1d1d1d1d1d1d1d1d1d1d1d1d1d1d1d1d1d1d
IV:                       e2e2e2e2e2e2e2e2e2e2e2e2e2e2e2e2
Plaintext:                e2e2e2e2e2e2e2e2e2e2e2e2e2e2e2e2
Ciphertext:               4d60b87411bece99ef155d1d5e5af4e828d230bc2a09a8b79ff2d7ae0a97a8edaf825a96f35c2c7b0df7bfffbcb8160a
Reciphers for ciphertext: 0
Decipheredtext:           e2e2e2e2e2e2e2e2e2e2e2e2e2e2e2e2
RESULT CIPHER-DECIPHER: -----OK-----


Test: 30
Symmetric key bit length: 256
IV bit length:            128
Plaintext bit length:     128
Symmetric key:            1e1e1e1e1e1e1e1e1e1e1e1e1e1e1e1e1e1e1e1e1e1e1e1e1e1e1e1e1e1e1e1e
IV:                       e1e1e1e1e1e1e1e1e1e1e1e1e1e1e1e1
Plaintext:                e1e1e1e1e1e1e1e1e1e1e1e1e1e1e1e1
Ciphertext:               3c5b855546625a83387f705cdb58c364684a2933a74cbfeb508bf28f308deca7ddba64b4a783bb62d99e91bd3ab92285
Reciphers for ciphertext: 0
Decipheredtext:           e1e1e1e1e1e1e1e1e1e1e1e1e1e1e1e1
RESULT CIPHER-DECIPHER: -----OK-----


Test: 31
Symmetric key bit length: 256
IV bit length:            128
Plaintext bit length:     128
Symmetric key:            1f1f1f1f1f1f1f1f1f1f1f1f1f1f1f1f1f1f1f1f1f1f1f1f1f1f1f1f1f1f1f1f
IV:                       e0e0e0e0e0e0e0e0e0e0e0e0e0e0e0e0
Plaintext:                e0e0e0e0e0e0e0e0e0e0e0e0e0e0e0e0
Ciphertext:               4435134dffaeca732c4d281c14215d5a94cf56b7cbeaaffa66036ec086618bcea4d5f3ad1f4e2a93ccadc8fcf4c1bdba
Reciphers for ciphertext: 0
Decipheredtext:           e0e0e0e0e0e0e0e0e0e0e0e0e0e0e0e0
RESULT CIPHER-DECIPHER: -----OK-----


Test: 32
Symmetric key bit length: 256
IV bit length:            128
Plaintext bit length:     128
Symmetric key:            2020202020202020202020202020202020202020202020202020202020202020
IV:                       dfdfdfdfdfdfdfdfdfdfdfdfdfdfdfdf
Plaintext:                dfdfdfdfdfdfdfdfdfdfdfdfdfdfdfdf
Ciphertext:               608534d14dd8923a4248bad9c2be5cb5dda55a6a50c94c4f5fe45032c23ecc53bf5aeb0e92074de59d9765061d61836a
Reciphers for ciphertext: 0
Decipheredtext:           dfdfdfdfdfdfdfdfdfdfdfdfdfdfdfdf
RESULT CIPHER-DECIPHER: -----OK-----


Test: 33
Symmetric key bit length: 256
IV bit length:            128
Plaintext bit length:     128
Symmetric key:            2121212121212121212121212121212121212121212121212121212121212121
IV:                       dededededededededededededededede
Plaintext:                dededededededededededededededede
Ciphertext:               17d6feb4aad26d8ff2f7cdaf06ae4201f4db06dc3c5510e4b3ca0fcb28b0689ac908206a740cb3512c291371d8709cdf
Reciphers for ciphertext: 0
Decipheredtext:           dededededededededededededededede
RESULT CIPHER-DECIPHER: -----OK-----


Test: 34
Symmetric key bit length: 256
IV bit length:            128
Plaintext bit length:     128
Symmetric key:            2222222222222222222222222222222222222222222222222222222222222222
IV:                       dddddddddddddddddddddddddddddddd
Plaintext:                dddddddddddddddddddddddddddddddd
Ciphertext:               538cb6ec97b505ab88947f79224d8ca8bf2bf21cd4d8b5dfed694179c76b757a8e516b314a68d8765549a2a4ff905175
Reciphers for ciphertext: 0
Decipheredtext:           dddddddddddddddddddddddddddddddd
RESULT CIPHER-DECIPHER: -----OK-----


Test: 35
Symmetric key bit length: 256
IV bit length:            128
Plaintext bit length:     128
Symmetric key:            2323232323232323232323232323232323232323232323232323232323232323
IV:                       dcdcdcdcdcdcdcdcdcdcdcdcdcdcdcdc
Plaintext:                dcdcdcdcdcdcdcdcdcdcdcdcdcdcdcdc
Ciphertext:               8fc41717854994de5e6d659ec47251ce8cccded17148780ae1ebc430beabd59b5318cbcb5995480282b1b94218ae8d12
Reciphers for ciphertext: 0
Decipheredtext:           dcdcdcdcdcdcdcdcdcdcdcdcdcdcdcdc
RESULT CIPHER-DECIPHER: -----OK-----


Test: 36
Symmetric key bit length: 256
IV bit length:            128
Plaintext bit length:     128
Symmetric key:            2424242424242424242424242424242424242424242424242424242424242424
IV:                       dbdbdbdbdbdbdbdbdbdbdbdbdbdbdbdb
Plaintext:                dbdbdbdbdbdbdbdbdbdbdbdbdbdbdbdb
Ciphertext:               21b026b81f94047660377607c4d4ee1ee261554a4abcfa9ff89efa42591c0646fa6bfd63c44fdfadbbecaddc1f0f35c5
Reciphers for ciphertext: 0
Decipheredtext:           dbdbdbdbdbdbdbdbdbdbdbdbdbdbdbdb
RESULT CIPHER-DECIPHER: -----OK-----


Test: 37
Symmetric key bit length: 256
IV bit length:            128
Plaintext bit length:     128
Symmetric key:            2525252525252525252525252525252525252525252525252525252525252525
IV:                       dadadadadadadadadadadadadadadada
Plaintext:                dadadadadadadadadadadadadadadada
Ciphertext:               bdee1364e3db285ec0446b274e919e79799c77aa4b50a9f5b34f0964a139c7286734c9be3901f2841a9eb1fd944b44a3
Reciphers for ciphertext: 0
Decipheredtext:           dadadadadadadadadadadadadadadada
RESULT CIPHER-DECIPHER: -----OK-----


Test: 38
Symmetric key bit length: 256
IV bit length:            128
Plaintext bit length:     128
Symmetric key:            2626262626262626262626262626262626262626262626262626262626262626
IV:                       d9d9d9d9d9d9d9d9d9d9d9d9d9d9d9d9
Plaintext:                d9d9d9d9d9d9d9d9d9d9d9d9d9d9d9d9
Ciphertext:               121786360c2d306e15beee47bfd80aac4344fa73d9c8a7cc5e8c63154dd7aa4fcbce5fefd5f4e9b7cc67379e6601d375
Reciphers for ciphertext: 0
Decipheredtext:           d9d9d9d9d9d9d9d9d9d9d9d9d9d9d9d9
RESULT CIPHER-DECIPHER: -----OK-----


Test: 39
Symmetric key bit length: 256
IV bit length:            128
Plaintext bit length:     128
Symmetric key:            2727272727272727272727272727272727272727272727272727272727272727
IV:                       d8d8d8d8d8d8d8d8d8d8d8d8d8d8d8d8
Plaintext:                d8d8d8d8d8d8d8d8d8d8d8d8d8d8d8d8
Ciphertext:               9f5338777218d0744c3d2f247a4b0f7999922f9cd378fad5c97811174d13c66f478be0afaac008ac94e5f7fca293d7a1
Reciphers for ciphertext: 0
Decipheredtext:           d8d8d8d8d8d8d8d8d8d8d8d8d8d8d8d8
RESULT CIPHER-DECIPHER: -----OK-----


Test: 40
Symmetric key bit length: 256
IV bit length:            128
Plaintext bit length:     128
Symmetric key:            2828282828282828282828282828282828282828282828282828282828282828
IV:                       d7d7d7d7d7d7d7d7d7d7d7d7d7d7d7d7
Plaintext:                d7d7d7d7d7d7d7d7d7d7d7d7d7d7d7d7
Ciphertext:               32ca7d29dac8f3cccf3850e21e290217e8102a7c9e56d75af3af21e974b81c50e51daafe0d1f241b18ef8735c9fed5c0
Reciphers for ciphertext: 0
Decipheredtext:           d7d7d7d7d7d7d7d7d7d7d7d7d7d7d7d7
RESULT CIPHER-DECIPHER: -----OK-----


Test: 41
Symmetric key bit length: 256
IV bit length:            128
Plaintext bit length:     128
Symmetric key:            2929292929292929292929292929292929292929292929292929292929292929
IV:                       d6d6d6d6d6d6d6d6d6d6d6d6d6d6d6d6
Plaintext:                d6d6d6d6d6d6d6d6d6d6d6d6d6d6d6d6
Ciphertext:               fc0bb945093debb96b2a4b5b78b56db8ccf0df482f83353a264b80ce813686b12add6f93dfeb3d6fbdfc9d8dae63bb6e
Reciphers for ciphertext: 0
Decipheredtext:           d6d6d6d6d6d6d6d6d6d6d6d6d6d6d6d6
RESULT CIPHER-DECIPHER: -----OK-----


Test: 42
Symmetric key bit length: 256
IV bit length:            128
Plaintext bit length:     128
Symmetric key:            2a2a2a2a2a2a2a2a2a2a2a2a2a2a2a2a2a2a2a2a2a2a2a2a2a2a2a2a2a2a2a2a
IV:                       d5d5d5d5d5d5d5d5d5d5d5d5d5d5d5d5
Plaintext:                d5d5d5d5d5d5d5d5d5d5d5d5d5d5d5d5
Ciphertext:               c56c05149ac6b8dbe60f79461c06b84e04414f2566e270015b462b0295938e2a10b9d0c14f136d0e33daac93c9d36d9b
Reciphers for ciphertext: 0
Decipheredtext:           d5d5d5d5d5d5d5d5d5d5d5d5d5d5d5d5
RESULT CIPHER-DECIPHER: -----OK-----


Test: 43
Symmetric key bit length: 256
IV bit length:            128
Plaintext bit length:     128
Symmetric key:            2b2b2b2b2b2b2b2b2b2b2b2b2b2b2b2b2b2b2b2b2b2b2b2b2b2b2b2b2b2b2b2b
IV:                       d4d4d4d4d4d4d4d4d4d4d4d4d4d4d4d4
Plaintext:                d4d4d4d4d4d4d4d4d4d4d4d4d4d4d4d4
Ciphertext:               f3a7a99f388d5112a63bc232a2c8e5da171e6a2d41835306cfa269dbf40dc56c27737d4bec5985c672ef16e6761c310e
Reciphers for ciphertext: 0
Decipheredtext:           d4d4d4d4d4d4d4d4d4d4d4d4d4d4d4d4
RESULT CIPHER-DECIPHER: -----OK-----


Test: 44
Symmetric key bit length: 256
IV bit length:            128
Plaintext bit length:     128
Symmetric key:            2c2c2c2c2c2c2c2c2c2c2c2c2c2c2c2c2c2c2c2c2c2c2c2c2c2c2c2c2c2c2c2c
IV:                       d3d3d3d3d3d3d3d3d3d3d3d3d3d3d3d3
Plaintext:                d3d3d3d3d3d3d3d3d3d3d3d3d3d3d3d3
Ciphertext:               79570b7ea1f8a7a54fc345cf2084801351b53fa5c15d6bcbfcd1e71852436683aa84d8ad722b74769c10961cf35753c0
Reciphers for ciphertext: 0
Decipheredtext:           d3d3d3d3d3d3d3d3d3d3d3d3d3d3d3d3
RESULT CIPHER-DECIPHER: -----OK-----


Test: 45
Symmetric key bit length: 256
IV bit length:            128
Plaintext bit length:     128
Symmetric key:            2d2d2d2d2d2d2d2d2d2d2d2d2d2d2d2d2d2d2d2d2d2d2d2d2d2d2d2d2d2d2d2d
IV:                       d2d2d2d2d2d2d2d2d2d2d2d2d2d2d2d2
Plaintext:                d2d2d2d2d2d2d2d2d2d2d2d2d2d2d2d2
Ciphertext:               bf9b5cc862129f136e3204863760833acd4aab5d9b677b9204d4eb77bd6dc8c56d498e1ab0c04dc1bce0d654e5b251e8
Reciphers for ciphertext: 0
Decipheredtext:           d2d2d2d2d2d2d2d2d2d2d2d2d2d2d2d2
RESULT CIPHER-DECIPHER: -----OK-----


Test: 46
Symmetric key bit length: 256
IV bit length:            128
Plaintext bit length:     128
Symmetric key:            2e2e2e2e2e2e2e2e2e2e2e2e2e2e2e2e2e2e2e2e2e2e2e2e2e2e2e2e2e2e2e2e
IV:                       d1d1d1d1d1d1d1d1d1d1d1d1d1d1d1d1
Plaintext:                d1d1d1d1d1d1d1d1d1d1d1d1d1d1d1d1
Ciphertext:               e91eefc0168e00ba37db8c070c07c736197b462a11488be9d2681c41e47a18e438cf3e11c75fd16be60a5dd6ddd616e7
Reciphers for ciphertext: 0
Decipheredtext:           d1d1d1d1d1d1d1d1d1d1d1d1d1d1d1d1
RESULT CIPHER-DECIPHER: -----OK-----


Test: 47
Symmetric key bit length: 256
IV bit length:            128
Plaintext bit length:     128
Symmetric key:            2f2f2f2f2f2f2f2f2f2f2f2f2f2f2f2f2f2f2f2f2f2f2f2f2f2f2f2f2f2f2f2f
IV:                       d0d0d0d0d0d0d0d0d0d0d0d0d0d0d0d0
Plaintext:                d0d0d0d0d0d0d0d0d0d0d0d0d0d0d0d0
Ciphertext:               90aec264a1cf616ed4b830389122c9a9c35b745784523dbbfa4b4844d4f0a866407e12b4711fb1be0468e0e841f21979
Reciphers for ciphertext: 0
Decipheredtext:           d0d0d0d0d0d0d0d0d0d0d0d0d0d0d0d0
RESULT CIPHER-DECIPHER: -----OK-----


Test: 48
Symmetric key bit length: 256
IV bit length:            128
Plaintext bit length:     128
Symmetric key:            3030303030303030303030303030303030303030303030303030303030303030
IV:                       cfcfcfcfcfcfcfcfcfcfcfcfcfcfcfcf
Plaintext:                cfcfcfcfcfcfcfcfcfcfcfcfcfcfcfcf
Ciphertext:               92280331b4cbd1157a287da96b0ddc4b9ad4fc3fb26cc9c09832234ce0c052ba5de7ccfe7b041edab5e7b266a4c21384
Reciphers for ciphertext: 0
Decipheredtext:           cfcfcfcfcfcfcfcfcfcfcfcfcfcfcfcf
RESULT CIPHER-DECIPHER: -----OK-----


Test: 49
Symmetric key bit length: 256
IV bit length:            128
Plaintext bit length:     128
Symmetric key:            3131313131313131313131313131313131313131313131313131313131313131
IV:                       cececececececececececececececece
Plaintext:                cececececececececececececececece
Ciphertext:               d9fc17caaf5b8776c506a03c3541d13bee72ed6e426354f05f0ba4de627622a31732d904619549b80bc86ef2fb8f1ff5
Reciphers for ciphertext: 0
Decipheredtext:           cececececececececececececececece
RESULT CIPHER-DECIPHER: -----OK-----


Test: 50
Symmetric key bit length: 256
IV bit length:            128
Plaintext bit length:     128
Symmetric key:            3232323232323232323232323232323232323232323232323232323232323232
IV:                       cdcdcdcdcdcdcdcdcdcdcdcdcdcdcdcd
Plaintext:                cdcdcdcdcdcdcdcdcdcdcdcdcdcdcdcd
Ciphertext:               7370608f25f54f9c5fdf861d44b508dd0ebfa723678eb9e65825d0b53b79b787bebdad42e838825192124bd08978c510
Reciphers for ciphertext: 0
Decipheredtext:           cdcdcdcdcdcdcdcdcdcdcdcdcdcdcdcd
RESULT CIPHER-DECIPHER: -----OK-----


Test: 51
Symmetric key bit length: 256
IV bit length:            128
Plaintext bit length:     128
Symmetric key:            3333333333333333333333333333333333333333333333333333333333333333
IV:                       cccccccccccccccccccccccccccccccc
Plaintext:                cccccccccccccccccccccccccccccccc
Ciphertext:               bfc5df3d187a02e2e1c837df39667034b6f8eae358172bb7191536952020ec06730913f1d4b6ce2e2d04fb13f5aabcf8
Reciphers for ciphertext: 0
Decipheredtext:           cccccccccccccccccccccccccccccccc
RESULT CIPHER-DECIPHER: -----OK-----


Test: 52
Symmetric key bit length: 256
IV bit length:            128
Plaintext bit length:     128
Symmetric key:            3434343434343434343434343434343434343434343434343434343434343434
IV:                       cbcbcbcbcbcbcbcbcbcbcbcbcbcbcbcb
Plaintext:                cbcbcbcbcbcbcbcbcbcbcbcbcbcbcbcb
Ciphertext:               a59cabceb2821ad4322559ed07b0963447c56a835674dde08a54ef32479f275a6e5760057949d11ff9ee9226cc7b5dff
Reciphers for ciphertext: 0
Decipheredtext:           cbcbcbcbcbcbcbcbcbcbcbcbcbcbcbcb
RESULT CIPHER-DECIPHER: -----OK-----


Test: 53
Symmetric key bit length: 256
IV bit length:            128
Plaintext bit length:     128
Symmetric key:            3535353535353535353535353535353535353535353535353535353535353535
IV:                       cacacacacacacacacacacacacacacaca
Plaintext:                cacacacacacacacacacacacacacacaca
Ciphertext:               5ebbf1266f9ce3fd6ee3c318999a25abdccdeecb7ef0f1621128875b0360e9a194713beca5562937a42909d25350ef61
Reciphers for ciphertext: 0
Decipheredtext:           cacacacacacacacacacacacacacacaca
RESULT CIPHER-DECIPHER: -----OK-----


Test: 54
Symmetric key bit length: 256
IV bit length:            128
Plaintext bit length:     128
Symmetric key:            3636363636363636363636363636363636363636363636363636363636363636
IV:                       c9c9c9c9c9c9c9c9c9c9c9c9c9c9c9c9
Plaintext:                c9c9c9c9c9c9c9c9c9c9c9c9c9c9c9c9
Ciphertext:               48cd20cfb520eb9a490e2da630ce9f65e541168e18f5f89bf7ed9a116720d7bc8104e9067ce9225380c7e46ff90756ac
Reciphers for ciphertext: 0
Decipheredtext:           c9c9c9c9c9c9c9c9c9c9c9c9c9c9c9c9
RESULT CIPHER-DECIPHER: -----OK-----


Test: 55
Symmetric key bit length: 256
IV bit length:            128
Plaintext bit length:     128
Symmetric key:            3737373737373737373737373737373737373737373737373737373737373737
IV:                       c8c8c8c8c8c8c8c8c8c8c8c8c8c8c8c8
Plaintext:                c8c8c8c8c8c8c8c8c8c8c8c8c8c8c8c8
Ciphertext:               dee280571f7f04d7419111abc12436ab16c6e3db062a26b1c2d57089e3f7794f162a489fd7b7cc1f8959d96309ecfe63
Reciphers for ciphertext: 0
Decipheredtext:           c8c8c8c8c8c8c8c8c8c8c8c8c8c8c8c8
RESULT CIPHER-DECIPHER: -----OK-----


Test: 56
Symmetric key bit length: 256
IV bit length:            128
Plaintext bit length:     128
Symmetric key:            3838383838383838383838383838383838383838383838383838383838383838
IV:                       c7c7c7c7c7c7c7c7c7c7c7c7c7c7c7c7
Plaintext:                c7c7c7c7c7c7c7c7c7c7c7c7c7c7c7c7
Ciphertext:               42c429633a849366cc9062ebba4bf29deca00278a8cabbba211779fd6d819c8f8503eea4fd4354a10b57a52c7d8c355a
Reciphers for ciphertext: 0
Decipheredtext:           c7c7c7c7c7c7c7c7c7c7c7c7c7c7c7c7
RESULT CIPHER-DECIPHER: -----OK-----


Test: 57
Symmetric key bit length: 256
IV bit length:            128
Plaintext bit length:     128
Symmetric key:            3939393939393939393939393939393939393939393939393939393939393939
IV:                       c6c6c6c6c6c6c6c6c6c6c6c6c6c6c6c6
Plaintext:                c6c6c6c6c6c6c6c6c6c6c6c6c6c6c6c6
Ciphertext:               bbc3b45f4634ece8eff20e4809c6aee7585567e85ca1fcd6448b41c16441eadf7d05729980f22a2e2934c88ecf006821
Reciphers for ciphertext: 0
Decipheredtext:           c6c6c6c6c6c6c6c6c6c6c6c6c6c6c6c6
RESULT CIPHER-DECIPHER: -----OK-----


Test: 58
Symmetric key bit length: 256
IV bit length:            128
Plaintext bit length:     128
Symmetric key:            3a3a3a3a3a3a3a3a3a3a3a3a3a3a3a3a3a3a3a3a3a3a3a3a3a3a3a3a3a3a3a3a
IV:                       c5c5c5c5c5c5c5c5c5c5c5c5c5c5c5c5
Plaintext:                c5c5c5c5c5c5c5c5c5c5c5c5c5c5c5c5
Ciphertext:               f5d021bc08024bc635a5187ecafdf070e8947b02d8fa01458b4708b3e93291a63015e479cdc78e03f060ddbb0f3835b5
Reciphers for ciphertext: 0
Decipheredtext:           c5c5c5c5c5c5c5c5c5c5c5c5c5c5c5c5
RESULT CIPHER-DECIPHER: -----OK-----


Test: 59
Symmetric key bit length: 256
IV bit length:            128
Plaintext bit length:     128
Symmetric key:            3b3b3b3b3b3b3b3b3b3b3b3b3b3b3b3b3b3b3b3b3b3b3b3b3b3b3b3b3b3b3b3b
IV:                       c4c4c4c4c4c4c4c4c4c4c4c4c4c4c4c4
Plaintext:                c4c4c4c4c4c4c4c4c4c4c4c4c4c4c4c4
Ciphertext:               7625b446209864ddac70a1e1618191118699ccd58084db611edd0062b1190367b2e17082e45ca01968b46525a54555d5
Reciphers for ciphertext: 0
Decipheredtext:           c4c4c4c4c4c4c4c4c4c4c4c4c4c4c4c4
RESULT CIPHER-DECIPHER: -----OK-----


Test: 60
Symmetric key bit length: 256
IV bit length:            128
Plaintext bit length:     128
Symmetric key:            3c3c3c3c3c3c3c3c3c3c3c3c3c3c3c3c3c3c3c3c3c3c3c3c3c3c3c3c3c3c3c3c
IV:                       c3c3c3c3c3c3c3c3c3c3c3c3c3c3c3c3
Plaintext:                c3c3c3c3c3c3c3c3c3c3c3c3c3c3c3c3
Ciphertext:               2376d89766564ccefab19acf5374ade9d69a93b0bf8c3b26cfaa8b75e5112c95e0b51b54a5958f0d3972590c90b76e2a
Reciphers for ciphertext: 0
Decipheredtext:           c3c3c3c3c3c3c3c3c3c3c3c3c3c3c3c3
RESULT CIPHER-DECIPHER: -----OK-----


Test: 61
Symmetric key bit length: 256
IV bit length:            128
Plaintext bit length:     128
Symmetric key:            3d3d3d3d3d3d3d3d3d3d3d3d3d3d3d3d3d3d3d3d3d3d3d3d3d3d3d3d3d3d3d3d
IV:                       c2c2c2c2c2c2c2c2c2c2c2c2c2c2c2c2
Plaintext:                c2c2c2c2c2c2c2c2c2c2c2c2c2c2c2c2
Ciphertext:               21503248d3be0a3554b4ccb89b3baea010d9aee5735ea8d42652b6eb6dfb5cc5e392f08a117cc8f796760e7a59f96c62
Reciphers for ciphertext: 0
Decipheredtext:           c2c2c2c2c2c2c2c2c2c2c2c2c2c2c2c2
RESULT CIPHER-DECIPHER: -----OK-----


Test: 62
Symmetric key bit length: 256
IV bit length:            128
Plaintext bit length:     128
Symmetric key:            3e3e3e3e3e3e3e3e3e3e3e3e3e3e3e3e3e3e3e3e3e3e3e3e3e3e3e3e3e3e3e3e
IV:                       c1c1c1c1c1c1c1c1c1c1c1c1c1c1c1c1
Plaintext:                c1c1c1c1c1c1c1c1c1c1c1c1c1c1c1c1
Ciphertext:               ec4dce3ec7ca6d657103c4cb5a8d3a71b1c20e0a643e66d43fac691d8228e3132d8c0fff060baca4b0c2050a9b4cfbb0
Reciphers for ciphertext: 0
Decipheredtext:           c1c1c1c1c1c1c1c1c1c1c1c1c1c1c1c1
RESULT CIPHER-DECIPHER: -----OK-----


Test: 63
Symmetric key bit length: 256
IV bit length:            128
Plaintext bit length:     128
Symmetric key:            3f3f3f3f3f3f3f3f3f3f3f3f3f3f3f3f3f3f3f3f3f3f3f3f3f3f3f3f3f3f3f3f
IV:                       c0c0c0c0c0c0c0c0c0c0c0c0c0c0c0c0
Plaintext:                c0c0c0c0c0c0c0c0c0c0c0c0c0c0c0c0
Ciphertext:               99d9d34145b3d24e76ca235c98ef81c4c25f57e2ec2df6afce9884a5a501cb35591913818573128eb60ae39c582f4104
Reciphers for ciphertext: 0
Decipheredtext:           c0c0c0c0c0c0c0c0c0c0c0c0c0c0c0c0
RESULT CIPHER-DECIPHER: -----OK-----


Test: 64
Symmetric key bit length: 256
IV bit length:            128
Plaintext bit length:     128
Symmetric key:            4040404040404040404040404040404040404040404040404040404040404040
IV:                       bfbfbfbfbfbfbfbfbfbfbfbfbfbfbfbf
Plaintext:                bfbfbfbfbfbfbfbfbfbfbfbfbfbfbfbf
Ciphertext:               a835577b2e96e519cbed7a595356259021b6cd04e77aeaa0d2bdf3d710981044178ae8c491295aa67452c5e6ece99a2f
Reciphers for ciphertext: 0
Decipheredtext:           bfbfbfbfbfbfbfbfbfbfbfbfbfbfbfbf
RESULT CIPHER-DECIPHER: -----OK-----


Test: 65
Symmetric key bit length: 256
IV bit length:            128
Plaintext bit length:     128
Symmetric key:            4141414141414141414141414141414141414141414141414141414141414141
IV:                       bebebebebebebebebebebebebebebebe
Plaintext:                bebebebebebebebebebebebebebebebe
Ciphertext:               b0d73fa0b0d248224875fc5bb5a5f07e0e81682027ae1db063d82514e558fadb0e69811e0e6cf69cf6cb42e50b1b4ec0
Reciphers for ciphertext: 0
Decipheredtext:           bebebebebebebebebebebebebebebebe
RESULT CIPHER-DECIPHER: -----OK-----


Test: 66
Symmetric key bit length: 256
IV bit length:            128
Plaintext bit length:     128
Symmetric key:            4242424242424242424242424242424242424242424242424242424242424242
IV:                       bdbdbdbdbdbdbdbdbdbdbdbdbdbdbdbd
Plaintext:                bdbdbdbdbdbdbdbdbdbdbdbdbdbdbdbd
Ciphertext:               902c2514ef9906d24f76cb471cdffbbd3fb6e2ff67432e4475c60f03bf3116bc2d9198a95224bb6ff2cb76faa1624600
Reciphers for ciphertext: 0
Decipheredtext:           bdbdbdbdbdbdbdbdbdbdbdbdbdbdbdbd
RESULT CIPHER-DECIPHER: -----OK-----


Test: 67
Symmetric key bit length: 256
IV bit length:            128
Plaintext bit length:     128
Symmetric key:            4343434343434343434343434343434343434343434343434343434343434343
IV:                       bcbcbcbcbcbcbcbcbcbcbcbcbcbcbcbc
Plaintext:                bcbcbcbcbcbcbcbcbcbcbcbcbcbcbcbc
Ciphertext:               c83ae5f629ff0b651e1b9f8476eb55e0d1a704f6518b68d27dc3e785c55daff97486594a9543b7d9a2a72338ca57e95c
Reciphers for ciphertext: 0
Decipheredtext:           bcbcbcbcbcbcbcbcbcbcbcbcbcbcbcbc
RESULT CIPHER-DECIPHER: -----OK-----


Test: 68
Symmetric key bit length: 256
IV bit length:            128
Plaintext bit length:     128
Symmetric key:            4444444444444444444444444444444444444444444444444444444444444444
IV:                       bbbbbbbbbbbbbbbbbbbbbbbbbbbbbbbb
Plaintext:                bbbbbbbbbbbbbbbbbbbbbbbbbbbbbbbb
Ciphertext:               62a9cbce2ccbf6df548a8434cb98bd2effffef3fbc6ceb64b1fbd2886b56f923d912707597704d64ef313f8f70230695
Reciphers for ciphertext: 0
Decipheredtext:           bbbbbbbbbbbbbbbbbbbbbbbbbbbbbbbb
RESULT CIPHER-DECIPHER: -----OK-----


Test: 69
Symmetric key bit length: 256
IV bit length:            128
Plaintext bit length:     128
Symmetric key:            4545454545454545454545454545454545454545454545454545454545454545
IV:                       babababababababababababababababa
Plaintext:                babababababababababababababababa
Ciphertext:               987daa2215c2884e3f13327258ab18fb219dc4ed479be8ae7879ea9a39e67f7522c71098af7832f485a988c8e211a241
Reciphers for ciphertext: 0
Decipheredtext:           babababababababababababababababa
RESULT CIPHER-DECIPHER: -----OK-----


Test: 70
Symmetric key bit length: 256
IV bit length:            128
Plaintext bit length:     128
Symmetric key:            4646464646464646464646464646464646464646464646464646464646464646
IV:                       b9b9b9b9b9b9b9b9b9b9b9b9b9b9b9b9
Plaintext:                b9b9b9b9b9b9b9b9b9b9b9b9b9b9b9b9
Ciphertext:               1e92b9b686a3dba90da4e9d5016725baba90c874da1060e87746543099544eefa72b000f3f1a6210b41d506cb8de9c03
Reciphers for ciphertext: 0
Decipheredtext:           b9b9b9b9b9b9b9b9b9b9b9b9b9b9b9b9
RESULT CIPHER-DECIPHER: -----OK-----


Test: 71
Symmetric key bit length: 256
IV bit length:            128
Plaintext bit length:     128
Symmetric key:            4747474747474747474747474747474747474747474747474747474747474747
IV:                       b8b8b8b8b8b8b8b8b8b8b8b8b8b8b8b8
Plaintext:                b8b8b8b8b8b8b8b8b8b8b8b8b8b8b8b8
Ciphertext:               bb66d0ea3f48774e31d35468df1e673383dd0b14a0ed8e920aa8fd77d079745e03de685287f0cff6896becd067a6df8b
Reciphers for ciphertext: 0
Decipheredtext:           b8b8b8b8b8b8b8b8b8b8b8b8b8b8b8b8
RESULT CIPHER-DECIPHER: -----OK-----


Test: 72
Symmetric key bit length: 256
IV bit length:            128
Plaintext bit length:     128
Symmetric key:            4848484848484848484848484848484848484848484848484848484848484848
IV:                       b7b7b7b7b7b7b7b7b7b7b7b7b7b7b7b7
Plaintext:                b7b7b7b7b7b7b7b7b7b7b7b7b7b7b7b7
Ciphertext:               8bb48305df2add59ba9fb160576842bad66ec621fbd3a8d461fc32244687dea73c0334b2689d6aee0d2806d7e0dff50d
Reciphers for ciphertext: 0
Decipheredtext:           b7b7b7b7b7b7b7b7b7b7b7b7b7b7b7b7
RESULT CIPHER-DECIPHER: -----OK-----


Test: 73
Symmetric key bit length: 256
IV bit length:            128
Plaintext bit length:     128
Symmetric key:            4949494949494949494949494949494949494949494949494949494949494949
IV:                       b6b6b6b6b6b6b6b6b6b6b6b6b6b6b6b6
Plaintext:                b6b6b6b6b6b6b6b6b6b6b6b6b6b6b6b6
Ciphertext:               f63ca7a1b2c3adbb6c4d7246a22e0d8993c0050646d7f32e34cda5b4c2c4cad7408a111704751b0ddafbc4f01498bb3f
Reciphers for ciphertext: 0
Decipheredtext:           b6b6b6b6b6b6b6b6b6b6b6b6b6b6b6b6
RESULT CIPHER-DECIPHER: -----OK-----


Test: 74
Symmetric key bit length: 256
IV bit length:            128
Plaintext bit length:     128
Symmetric key:            4a4a4a4a4a4a4a4a4a4a4a4a4a4a4a4a4a4a4a4a4a4a4a4a4a4a4a4a4a4a4a4a
IV:                       b5b5b5b5b5b5b5b5b5b5b5b5b5b5b5b5
Plaintext:                b5b5b5b5b5b5b5b5b5b5b5b5b5b5b5b5
Ciphertext:               18190ae27966be4f8add9ebc4c90db4133fda499c29a5ea8d81ed39298ff9c41adacbf57ccd30bfa3f682b09f9256ef4
Reciphers for ciphertext: 0
Decipheredtext:           b5b5b5b5b5b5b5b5b5b5b5b5b5b5b5b5
RESULT CIPHER-DECIPHER: -----OK-----


Test: 75
Symmetric key bit length: 256
IV bit length:            128
Plaintext bit length:     128
Symmetric key:            4b4b4b4b4b4b4b4b4b4b4b4b4b4b4b4b4b4b4b4b4b4b4b4b4b4b4b4b4b4b4b4b
IV:                       b4b4b4b4b4b4b4b4b4b4b4b4b4b4b4b4
Plaintext:                b4b4b4b4b4b4b4b4b4b4b4b4b4b4b4b4
Ciphertext:               4570c81ee3ba4210da5c9c03607a923b123fadf8199e70fdfe666afd873ccdd0f1c47caa570ef6a46ee828b7d4ce268f
Reciphers for ciphertext: 0
Decipheredtext:           b4b4b4b4b4b4b4b4b4b4b4b4b4b4b4b4
RESULT CIPHER-DECIPHER: -----OK-----


Test: 76
Symmetric key bit length: 256
IV bit length:            128
Plaintext bit length:     128
Symmetric key:            4c4c4c4c4c4c4c4c4c4c4c4c4c4c4c4c4c4c4c4c4c4c4c4c4c4c4c4c4c4c4c4c
IV:                       b3b3b3b3b3b3b3b3b3b3b3b3b3b3b3b3
Plaintext:                b3b3b3b3b3b3b3b3b3b3b3b3b3b3b3b3
Ciphertext:               fe5f6eab96a8d48dfd36f563147fd6c3a98a70e4bb8407a4b3f8b22715e737e74decdd18251b673e4e8546d0a7cc6570
Reciphers for ciphertext: 0
Decipheredtext:           b3b3b3b3b3b3b3b3b3b3b3b3b3b3b3b3
RESULT CIPHER-DECIPHER: -----OK-----


Test: 77
Symmetric key bit length: 256
IV bit length:            128
Plaintext bit length:     128
Symmetric key:            4d4d4d4d4d4d4d4d4d4d4d4d4d4d4d4d4d4d4d4d4d4d4d4d4d4d4d4d4d4d4d4d
IV:                       b2b2b2b2b2b2b2b2b2b2b2b2b2b2b2b2
Plaintext:                b2b2b2b2b2b2b2b2b2b2b2b2b2b2b2b2
Ciphertext:               4f5ac558560b96dcbbd1ffc326c6c9bb6d4b323815a0acb6d44ba37f2f66e794fde877eae4b9246e09634d7194747b09
Reciphers for ciphertext: 0
Decipheredtext:           b2b2b2b2b2b2b2b2b2b2b2b2b2b2b2b2
RESULT CIPHER-DECIPHER: -----OK-----


Test: 78
Symmetric key bit length: 256
IV bit length:            128
Plaintext bit length:     128
Symmetric key:            4e4e4e4e4e4e4e4e4e4e4e4e4e4e4e4e4e4e4e4e4e4e4e4e4e4e4e4e4e4e4e4e
IV:                       b1b1b1b1b1b1b1b1b1b1b1b1b1b1b1b1
Plaintext:                b1b1b1b1b1b1b1b1b1b1b1b1b1b1b1b1
Ciphertext:               83e55ee7464aea9eeb9b783c359e42da8143849f9a94dcf8701e1ea6fe5e6c193254ef56f7fb5b2f5a2ac98d842ff36b
Reciphers for ciphertext: 0
Decipheredtext:           b1b1b1b1b1b1b1b1b1b1b1b1b1b1b1b1
RESULT CIPHER-DECIPHER: -----OK-----


Test: 79
Symmetric key bit length: 256
IV bit length:            128
Plaintext bit length:     128
Symmetric key:            4f4f4f4f4f4f4f4f4f4f4f4f4f4f4f4f4f4f4f4f4f4f4f4f4f4f4f4f4f4f4f4f
IV:                       b0b0b0b0b0b0b0b0b0b0b0b0b0b0b0b0
Plaintext:                b0b0b0b0b0b0b0b0b0b0b0b0b0b0b0b0
Ciphertext:               33fadd1d78f58b155791f87478d57144ee8afd073d7a0a6375f04587395b058b834a6dadc8453ba5e72148c4c865c1f4
Reciphers for ciphertext: 0
Decipheredtext:           b0b0b0b0b0b0b0b0b0b0b0b0b0b0b0b0
RESULT CIPHER-DECIPHER: -----OK-----


Test: 80
Symmetric key bit length: 256
IV bit length:            128
Plaintext bit length:     128
Symmetric key:            5050505050505050505050505050505050505050505050505050505050505050
IV:                       afafafafafafafafafafafafafafafaf
Plaintext:                afafafafafafafafafafafafafafafaf
Ciphertext:               edcdc0c54730524859f8862de7bc8e9fa6dd62f89f56ab0a50034ac86fa71d3742626f6ae89ffde7f657298248132130
Reciphers for ciphertext: 0
Decipheredtext:           afafafafafafafafafafafafafafafaf
RESULT CIPHER-DECIPHER: -----OK-----


Test: 81
Symmetric key bit length: 256
IV bit length:            128
Plaintext bit length:     128
Symmetric key:            5151515151515151515151515151515151515151515151515151515151515151
IV:                       aeaeaeaeaeaeaeaeaeaeaeaeaeaeaeae
Plaintext:                aeaeaeaeaeaeaeaeaeaeaeaeaeaeaeae
Ciphertext:               ee631bc8c974bcc39f0b5973cf1e8c87cbd22cc8689b1df5163c1fc5f85ce1f340cdb56667da126d31a5f7dd61b02229
Reciphers for ciphertext: 0
Decipheredtext:           aeaeaeaeaeaeaeaeaeaeaeaeaeaeaeae
RESULT CIPHER-DECIPHER: -----OK-----


Test: 82
Symmetric key bit length: 256
IV bit length:            128
Plaintext bit length:     128
Symmetric key:            5252525252525252525252525252525252525252525252525252525252525252
IV:                       adadadadadadadadadadadadadadadad
Plaintext:                adadadadadadadadadadadadadadadad
Ciphertext:               cd37872c99ae71f995ec0abf989576ba2bad66047a2b527d5e0dfbe330e6ac6a609a2a813403dc543841a7123538db17
Reciphers for ciphertext: 0
Decipheredtext:           adadadadadadadadadadadadadadadad
RESULT CIPHER-DECIPHER: -----OK-----


Test: 83
Symmetric key bit length: 256
IV bit length:            128
Plaintext bit length:     128
Symmetric key:            5353535353535353535353535353535353535353535353535353535353535353
IV:                       acacacacacacacacacacacacacacacac
Plaintext:                acacacacacacacacacacacacacacacac
Ciphertext:               500ae7df3c635915371257f22f611ae54482641765f0328475ea7fc281f503cafca64b7390cff5b99bbefb5e83cdb649
Reciphers for ciphertext: 0
Decipheredtext:           acacacacacacacacacacacacacacacac
RESULT CIPHER-DECIPHER: -----OK-----


Test: 84
Symmetric key bit length: 256
IV bit length:            128
Plaintext bit length:     128
Symmetric key:            5454545454545454545454545454545454545454545454545454545454545454
IV:                       abababababababababababababababab
Plaintext:                abababababababababababababababab
Ciphertext:               47ea8199622a47fed11dfeaf48674818dfc23e1abd23ffd237c4d61a0e9dfdd9ec412a32c981ec557ab65504e3cce3b3
Reciphers for ciphertext: 0
Decipheredtext:           abababababababababababababababab
RESULT CIPHER-DECIPHER: -----OK-----


Test: 85
Symmetric key bit length: 256
IV bit length:            128
Plaintext bit length:     128
Symmetric key:            5555555555555555555555555555555555555555555555555555555555555555
IV:                       aaaaaaaaaaaaaaaaaaaaaaaaaaaaaaaa
Plaintext:                aaaaaaaaaaaaaaaaaaaaaaaaaaaaaaaa
Ciphertext:               800815448f82fb9c1643cc4885ee677da674d6aa3bc1ef6e226410326dccf68f2aa2bfee25285136bce966e22f44cdd7
Reciphers for ciphertext: 0
Decipheredtext:           aaaaaaaaaaaaaaaaaaaaaaaaaaaaaaaa
RESULT CIPHER-DECIPHER: -----OK-----


Test: 86
Symmetric key bit length: 256
IV bit length:            128
Plaintext bit length:     128
Symmetric key:            5656565656565656565656565656565656565656565656565656565656565656
IV:                       a9a9a9a9a9a9a9a9a9a9a9a9a9a9a9a9
Plaintext:                a9a9a9a9a9a9a9a9a9a9a9a9a9a9a9a9
Ciphertext:               0ea914b43d5cd9fd55b176ce5819e7bf7d86410b5189bd904ac213a25582eb1fa700bd1d94f57054fc18df67f1b04e16
Reciphers for ciphertext: 0
Decipheredtext:           a9a9a9a9a9a9a9a9a9a9a9a9a9a9a9a9
RESULT CIPHER-DECIPHER: -----OK-----


Test: 87
Symmetric key bit length: 256
IV bit length:            128
Plaintext bit length:     128
Symmetric key:            5757575757575757575757575757575757575757575757575757575757575757
IV:                       a8a8a8a8a8a8a8a8a8a8a8a8a8a8a8a8
Plaintext:                a8a8a8a8a8a8a8a8a8a8a8a8a8a8a8a8
Ciphertext:               f60fd698c86d13a9fbfdca578a1818179b5bbe670a08dc37c1b3b1c51c8245515ea77e3060c5bb01535562ff22b0b0bf
Reciphers for ciphertext: 0
Decipheredtext:           a8a8a8a8a8a8a8a8a8a8a8a8a8a8a8a8
RESULT CIPHER-DECIPHER: -----OK-----


Test: 88
Symmetric key bit length: 256
IV bit length:            128
Plaintext bit length:     128
Symmetric key:            5858585858585858585858585858585858585858585858585858585858585858
IV:                       a7a7a7a7a7a7a7a7a7a7a7a7a7a7a7a7
Plaintext:                a7a7a7a7a7a7a7a7a7a7a7a7a7a7a7a7
Ciphertext:               c2346df6ed9fab17c935e189365cfbe0e7d41283080072d79e38c762dbe4528e6593ca514a380cb06e92462e91fb5c47
Reciphers for ciphertext: 0
Decipheredtext:           a7a7a7a7a7a7a7a7a7a7a7a7a7a7a7a7
RESULT CIPHER-DECIPHER: -----OK-----


Test: 89
Symmetric key bit length: 256
IV bit length:            128
Plaintext bit length:     128
Symmetric key:            5959595959595959595959595959595959595959595959595959595959595959
IV:                       a6a6a6a6a6a6a6a6a6a6a6a6a6a6a6a6
Plaintext:                a6a6a6a6a6a6a6a6a6a6a6a6a6a6a6a6
Ciphertext:               64a25ef7a0970b499274853db7c30f22b0410f6803df3968b5013e898a8a64edc204f8510631adef34d2239b1165a984
Reciphers for ciphertext: 0
Decipheredtext:           a6a6a6a6a6a6a6a6a6a6a6a6a6a6a6a6
RESULT CIPHER-DECIPHER: -----OK-----


Test: 90
Symmetric key bit length: 256
IV bit length:            128
Plaintext bit length:     128
Symmetric key:            5a5a5a5a5a5a5a5a5a5a5a5a5a5a5a5a5a5a5a5a5a5a5a5a5a5a5a5a5a5a5a5a
IV:                       a5a5a5a5a5a5a5a5a5a5a5a5a5a5a5a5
Plaintext:                a5a5a5a5a5a5a5a5a5a5a5a5a5a5a5a5
Ciphertext:               20a94011e07b8e06accf53517c7b0344d6c734b59377290661af977095077dc6850ce5b445de2ba3096af6f4d9dea6e1
Reciphers for ciphertext: 0
Decipheredtext:           a5a5a5a5a5a5a5a5a5a5a5a5a5a5a5a5
RESULT CIPHER-DECIPHER: -----OK-----


Test: 91
Symmetric key bit length: 256
IV bit length:            128
Plaintext bit length:     128
Symmetric key:            5b5b5b5b5b5b5b5b5b5b5b5b5b5b5b5b5b5b5b5b5b5b5b5b5b5b5b5b5b5b5b5b
IV:                       a4a4a4a4a4a4a4a4a4a4a4a4a4a4a4a4
Plaintext:                a4a4a4a4a4a4a4a4a4a4a4a4a4a4a4a4
Ciphertext:               0b7cb02a491f0971d8c1b1fa60f043b14874c788cf070f8195c6d236bfb196b7afd8148eedbbadd57c65155ec454e715
Reciphers for ciphertext: 0
Decipheredtext:           a4a4a4a4a4a4a4a4a4a4a4a4a4a4a4a4
RESULT CIPHER-DECIPHER: -----OK-----


Test: 92
Symmetric key bit length: 256
IV bit length:            128
Plaintext bit length:     128
Symmetric key:            5c5c5c5c5c5c5c5c5c5c5c5c5c5c5c5c5c5c5c5c5c5c5c5c5c5c5c5c5c5c5c5c
IV:                       a3a3a3a3a3a3a3a3a3a3a3a3a3a3a3a3
Plaintext:                a3a3a3a3a3a3a3a3a3a3a3a3a3a3a3a3
Ciphertext:               e14a9f5ccb9cedf59cd82edf29b514c71d183a5c3adb759edc316220a141498442e93cff683f4e563f7b8d7c8a16b764
Reciphers for ciphertext: 0
Decipheredtext:           a3a3a3a3a3a3a3a3a3a3a3a3a3a3a3a3
RESULT CIPHER-DECIPHER: -----OK-----


Test: 93
Symmetric key bit length: 256
IV bit length:            128
Plaintext bit length:     128
Symmetric key:            5d5d5d5d5d5d5d5d5d5d5d5d5d5d5d5d5d5d5d5d5d5d5d5d5d5d5d5d5d5d5d5d
IV:                       a2a2a2a2a2a2a2a2a2a2a2a2a2a2a2a2
Plaintext:                a2a2a2a2a2a2a2a2a2a2a2a2a2a2a2a2
Ciphertext:               0bc345895acfefc5f251f7aa8cf72c5e00681edffbd90b135e065148467fe77aa961e72bf86d4d6750f355082e558efc
Reciphers for ciphertext: 0
Decipheredtext:           a2a2a2a2a2a2a2a2a2a2a2a2a2a2a2a2
RESULT CIPHER-DECIPHER: -----OK-----


Test: 94
Symmetric key bit length: 256
IV bit length:            128
Plaintext bit length:     128
Symmetric key:            5e5e5e5e5e5e5e5e5e5e5e5e5e5e5e5e5e5e5e5e5e5e5e5e5e5e5e5e5e5e5e5e
IV:                       a1a1a1a1a1a1a1a1a1a1a1a1a1a1a1a1
Plaintext:                a1a1a1a1a1a1a1a1a1a1a1a1a1a1a1a1
Ciphertext:               fd0559a8ced3f42de6d84a239c01b0c1a902a49edc5bbbca0dc732b0494dd8a25ca4f8096f72558c4779eb823da01160
Reciphers for ciphertext: 0
Decipheredtext:           a1a1a1a1a1a1a1a1a1a1a1a1a1a1a1a1
RESULT CIPHER-DECIPHER: -----OK-----


Test: 95
Symmetric key bit length: 256
IV bit length:            128
Plaintext bit length:     128
Symmetric key:            5f5f5f5f5f5f5f5f5f5f5f5f5f5f5f5f5f5f5f5f5f5f5f5f5f5f5f5f5f5f5f5f
IV:                       a0a0a0a0a0a0a0a0a0a0a0a0a0a0a0a0
Plaintext:                a0a0a0a0a0a0a0a0a0a0a0a0a0a0a0a0
Ciphertext:               aaf1f07d5dd083ecc09b377c9648f6438c5e5dda4a1af7d613b0f3d9e075c3160a5150ddfd70234c603b97dc36e856e3
Reciphers for ciphertext: 0
Decipheredtext:           a0a0a0a0a0a0a0a0a0a0a0a0a0a0a0a0
RESULT CIPHER-DECIPHER: -----OK-----


Test: 96
Symmetric key bit length: 256
IV bit length:            128
Plaintext bit length:     128
Symmetric key:            6060606060606060606060606060606060606060606060606060606060606060
IV:                       9f9f9f9f9f9f9f9f9f9f9f9f9f9f9f9f
Plaintext:                9f9f9f9f9f9f9f9f9f9f9f9f9f9f9f9f
Ciphertext:               5c3b8bdac1f6f27df0d64469b0903da9a34a20df9b8f4da5c757f78611af681cc3a414455e696de26f49dbf62f0fa236
Reciphers for ciphertext: 0
Decipheredtext:           9f9f9f9f9f9f9f9f9f9f9f9f9f9f9f9f
RESULT CIPHER-DECIPHER: -----OK-----


Test: 97
Symmetric key bit length: 256
IV bit length:            128
Plaintext bit length:     128
Symmetric key:            6161616161616161616161616161616161616161616161616161616161616161
IV:                       9e9e9e9e9e9e9e9e9e9e9e9e9e9e9e9e
Plaintext:                9e9e9e9e9e9e9e9e9e9e9e9e9e9e9e9e
Ciphertext:               faa5685c8343227e702c48671bed4066adda9cae8a649d6470b748995e4fec86643bf6c21dddbce0eeb2d6f98573def8
Reciphers for ciphertext: 0
Decipheredtext:           9e9e9e9e9e9e9e9e9e9e9e9e9e9e9e9e
RESULT CIPHER-DECIPHER: -----OK-----


Test: 98
Symmetric key bit length: 256
IV bit length:            128
Plaintext bit length:     128
Symmetric key:            6262626262626262626262626262626262626262626262626262626262626262
IV:                       9d9d9d9d9d9d9d9d9d9d9d9d9d9d9d9d
Plaintext:                9d9d9d9d9d9d9d9d9d9d9d9d9d9d9d9d
Ciphertext:               70a797e2c9784d9307d47942dc16cbe0e32023b9fa4dde75607f747b223a7f84ed3a0a7f54e5d00e9a49e4df418b567d
Reciphers for ciphertext: 0
Decipheredtext:           9d9d9d9d9d9d9d9d9d9d9d9d9d9d9d9d
RESULT CIPHER-DECIPHER: -----OK-----


Test: 99
Symmetric key bit length: 256
IV bit length:            128
Plaintext bit length:     128
Symmetric key:            6363636363636363636363636363636363636363636363636363636363636363
IV:                       9c9c9c9c9c9c9c9c9c9c9c9c9c9c9c9c
Plaintext:                9c9c9c9c9c9c9c9c9c9c9c9c9c9c9c9c
Ciphertext:               13642096332e3fe63a5b28997bd403be71461f184b8f00e1d6558aa3e641fb1b8ff8bc0aafb2a37aa6c7b405e7489f22
Reciphers for ciphertext: 0
Decipheredtext:           9c9c9c9c9c9c9c9c9c9c9c9c9c9c9c9c
RESULT CIPHER-DECIPHER: -----OK-----


Test: 100
Symmetric key bit length: 256
IV bit length:            128
Plaintext bit length:     128
Symmetric key:            6464646464646464646464646464646464646464646464646464646464646464
IV:                       9b9b9b9b9b9b9b9b9b9b9b9b9b9b9b9b
Plaintext:                9b9b9b9b9b9b9b9b9b9b9b9b9b9b9b9b
Ciphertext:               dc2cab5700ff968df0fe3798030528a8d7ed6dc2660399682e45c4ec5d95e8a147b730cc9b640d166b65ac03989eb333
Reciphers for ciphertext: 0
Decipheredtext:           9b9b9b9b9b9b9b9b9b9b9b9b9b9b9b9b
RESULT CIPHER-DECIPHER: -----OK-----


Test: 101
Symmetric key bit length: 256
IV bit length:            128
Plaintext bit length:     128
Symmetric key:            6565656565656565656565656565656565656565656565656565656565656565
IV:                       9a9a9a9a9a9a9a9a9a9a9a9a9a9a9a9a
Plaintext:                9a9a9a9a9a9a9a9a9a9a9a9a9a9a9a9a
Ciphertext:               4a8838fa0ebc1ff25362292802f06d621a2d623b2cff929108526d3439ee43f4d012a26094268568c9f8b3b2986af7f8
Reciphers for ciphertext: 0
Decipheredtext:           9a9a9a9a9a9a9a9a9a9a9a9a9a9a9a9a
RESULT CIPHER-DECIPHER: -----OK-----


Test: 102
Symmetric key bit length: 256
IV bit length:            128
Plaintext bit length:     128
Symmetric key:            6666666666666666666666666666666666666666666666666666666666666666
IV:                       99999999999999999999999999999999
Plaintext:                99999999999999999999999999999999
Ciphertext:               4051848d2dd5013175b123e2cbd80af52443f4f92e9041c11507b6711fb5c357d9c81d14b44c98a8ec28ba7b5241936c
Reciphers for ciphertext: 0
Decipheredtext:           99999999999999999999999999999999
RESULT CIPHER-DECIPHER: -----OK-----


Test: 103
Symmetric key bit length: 256
IV bit length:            128
Plaintext bit length:     128
Symmetric key:            6767676767676767676767676767676767676767676767676767676767676767
IV:                       98989898989898989898989898989898
Plaintext:                98989898989898989898989898989898
Ciphertext:               5346d3c32d54201563305c56cda11072cfec35af523cbb0e915588e2e0c7d206cbde4b5bb5ccb88dfba8c4ce553988ea
Reciphers for ciphertext: 0
Decipheredtext:           98989898989898989898989898989898
RESULT CIPHER-DECIPHER: -----OK-----


Test: 104
Symmetric key bit length: 256
IV bit length:            128
Plaintext bit length:     128
Symmetric key:            6868686868686868686868686868686868686868686868686868686868686868
IV:                       97979797979797979797979797979797
Plaintext:                97979797979797979797979797979797
Ciphertext:               12f9bff535bfcf870e05f9669b55e1f0be0ad9a67d11026aea6fe30d6332a998856e2862a228581099926ef10cc27667
Reciphers for ciphertext: 0
Decipheredtext:           97979797979797979797979797979797
RESULT CIPHER-DECIPHER: -----OK-----


Test: 105
Symmetric key bit length: 256
IV bit length:            128
Plaintext bit length:     128
Symmetric key:            6969696969696969696969696969696969696969696969696969696969696969
IV:                       96969696969696969696969696969696
Plaintext:                96969696969696969696969696969696
Ciphertext:               9a58ab7de52b4d628e74fdfa6b390d59a5541aade4f07843e44bab8f730bf3b70cce3deb73bddbf418e26b6cfdaf9bcf
Reciphers for ciphertext: 0
Decipheredtext:           96969696969696969696969696969696
RESULT CIPHER-DECIPHER: -----OK-----


Test: 106
Symmetric key bit length: 256
IV bit length:            128
Plaintext bit length:     128
Symmetric key:            6a6a6a6a6a6a6a6a6a6a6a6a6a6a6a6a6a6a6a6a6a6a6a6a6a6a6a6a6a6a6a6a
IV:                       95959595959595959595959595959595
Plaintext:                95959595959595959595959595959595
Ciphertext:               d3e485c9b0fd7c9895b311d3bcfbe2abe01565ed0e154afa983f2caac5976e3e4671105c2568e90d00268446296e773e
Reciphers for ciphertext: 0
Decipheredtext:           95959595959595959595959595959595
RESULT CIPHER-DECIPHER: -----OK-----


Test: 107
Symmetric key bit length: 256
IV bit length:            128
Plaintext bit length:     128
Symmetric key:            6b6b6b6b6b6b6b6b6b6b6b6b6b6b6b6b6b6b6b6b6b6b6b6b6b6b6b6b6b6b6b6b
IV:                       94949494949494949494949494949494
Plaintext:                94949494949494949494949494949494
Ciphertext:               f092beb03184c47c491f64b54f5d4331cc7ba01e963673744bb43b23563790f464062a24a51050e8dd8bf021dbc9d7a5
Reciphers for ciphertext: 0
Decipheredtext:           94949494949494949494949494949494
RESULT CIPHER-DECIPHER: -----OK-----


Test: 108
Symmetric key bit length: 256
IV bit length:            128
Plaintext bit length:     128
Symmetric key:            6c6c6c6c6c6c6c6c6c6c6c6c6c6c6c6c6c6c6c6c6c6c6c6c6c6c6c6c6c6c6c6c
IV:                       93939393939393939393939393939393
Plaintext:                93939393939393939393939393939393
Ciphertext:               27db910a29a302510e568a4bd2a2d913a305a880661b60cd29b3d6d931f97be0b4480299ba3091c29dc519d841314a80
Reciphers for ciphertext: 0
Decipheredtext:           93939393939393939393939393939393
RESULT CIPHER-DECIPHER: -----OK-----


Test: 109
Symmetric key bit length: 256
IV bit length:            128
Plaintext bit length:     128
Symmetric key:            6d6d6d6d6d6d6d6d6d6d6d6d6d6d6d6d6d6d6d6d6d6d6d6d6d6d6d6d6d6d6d6d
IV:                       92929292929292929292929292929292
Plaintext:                92929292929292929292929292929292
Ciphertext:               223f9ae7c45e172f936e0ef2c8d77a79168a66b62a81fbea11e9e7931a371f9cb0ad087556cc85bd01fc9c605a45e8eb
Reciphers for ciphertext: 0
Decipheredtext:           92929292929292929292929292929292
RESULT CIPHER-DECIPHER: -----OK-----


Test: 110
Symmetric key bit length: 256
IV bit length:            128
Plaintext bit length:     128
Symmetric key:            6e6e6e6e6e6e6e6e6e6e6e6e6e6e6e6e6e6e6e6e6e6e6e6e6e6e6e6e6e6e6e6e
IV:                       91919191919191919191919191919191
Plaintext:                91919191919191919191919191919191
Ciphertext:               85411feeddae17d4f9910776d567c312ff5b27352cfe784dcd645203e51387d214d08e7f4c3f8645680096e744f65283
Reciphers for ciphertext: 0
Decipheredtext:           91919191919191919191919191919191
RESULT CIPHER-DECIPHER: -----OK-----


Test: 111
Symmetric key bit length: 256
IV bit length:            128
Plaintext bit length:     128
Symmetric key:            6f6f6f6f6f6f6f6f6f6f6f6f6f6f6f6f6f6f6f6f6f6f6f6f6f6f6f6f6f6f6f6f
IV:                       90909090909090909090909090909090
Plaintext:                90909090909090909090909090909090
Ciphertext:               9eeef82aa86e51b547c3dc00e3754cd71bdc8022f2665ed54b86c488a22e2a810e7e68ba38fec125d7534c9073e5dc47
Reciphers for ciphertext: 0
Decipheredtext:           90909090909090909090909090909090
RESULT CIPHER-DECIPHER: -----OK-----


Test: 112
Symmetric key bit length: 256
IV bit length:            128
Plaintext bit length:     128
Symmetric key:            7070707070707070707070707070707070707070707070707070707070707070
IV:                       8f8f8f8f8f8f8f8f8f8f8f8f8f8f8f8f
Plaintext:                8f8f8f8f8f8f8f8f8f8f8f8f8f8f8f8f
Ciphertext:               ad32fa12d92e68d65f58e9179bd2ad03538ab83fe1308a1bc5517073ded2f45c22bd759d56a1e759d0d76698145d228c
Reciphers for ciphertext: 0
Decipheredtext:           8f8f8f8f8f8f8f8f8f8f8f8f8f8f8f8f
RESULT CIPHER-DECIPHER: -----OK-----


Test: 113
Symmetric key bit length: 256
IV bit length:            128
Plaintext bit length:     128
Symmetric key:            7171717171717171717171717171717171717171717171717171717171717171
IV:                       8e8e8e8e8e8e8e8e8e8e8e8e8e8e8e8e
Plaintext:                8e8e8e8e8e8e8e8e8e8e8e8e8e8e8e8e
Ciphertext:               306cfaa4c2e7f00c38645f42ffb95ceb907c107a05e50b446d72e3592e77e5adbee2742a4c697e82b6ead1cc7137d265
Reciphers for ciphertext: 0
Decipheredtext:           8e8e8e8e8e8e8e8e8e8e8e8e8e8e8e8e
RESULT CIPHER-DECIPHER: -----OK-----


Test: 114
Symmetric key bit length: 256
IV bit length:            128
Plaintext bit length:     128
Symmetric key:            7272727272727272727272727272727272727272727272727272727272727272
IV:                       8d8d8d8d8d8d8d8d8d8d8d8d8d8d8d8d
Plaintext:                8d8d8d8d8d8d8d8d8d8d8d8d8d8d8d8d
Ciphertext:               15dcbfeb1e75e2d8a54e39cdc58092f48018eddda2dcdb05fcd3b2cd8d29b4f39851326693f86f5528c3b440480d1f79
Reciphers for ciphertext: 0
Decipheredtext:           8d8d8d8d8d8d8d8d8d8d8d8d8d8d8d8d
RESULT CIPHER-DECIPHER: -----OK-----


Test: 115
Symmetric key bit length: 256
IV bit length:            128
Plaintext bit length:     128
Symmetric key:            7373737373737373737373737373737373737373737373737373737373737373
IV:                       8c8c8c8c8c8c8c8c8c8c8c8c8c8c8c8c
Plaintext:                8c8c8c8c8c8c8c8c8c8c8c8c8c8c8c8c
Ciphertext:               cd084d3903e3af8cd1e0d1e91b3a39ca01c5b8120a622682dc22bb8c7b637ea44184c1b58f6f23005d6c5d6597b6b546
Reciphers for ciphertext: 0
Decipheredtext:           8c8c8c8c8c8c8c8c8c8c8c8c8c8c8c8c
RESULT CIPHER-DECIPHER: -----OK-----


Test: 116
Symmetric key bit length: 256
IV bit length:            128
Plaintext bit length:     128
Symmetric key:            7474747474747474747474747474747474747474747474747474747474747474
IV:                       8b8b8b8b8b8b8b8b8b8b8b8b8b8b8b8b
Plaintext:                8b8b8b8b8b8b8b8b8b8b8b8b8b8b8b8b
Ciphertext:               92534dc0294255c12eb7b89a36ed993fdf293d39712f21ba44f4e11b4ef59eca19d8c64ba2c9de4aa53c3311bd6612b4
Reciphers for ciphertext: 0
Decipheredtext:           8b8b8b8b8b8b8b8b8b8b8b8b8b8b8b8b
RESULT CIPHER-DECIPHER: -----OK-----


Test: 117
Symmetric key bit length: 256
IV bit length:            128
Plaintext bit length:     128
Symmetric key:            7575757575757575757575757575757575757575757575757575757575757575
IV:                       8a8a8a8a8a8a8a8a8a8a8a8a8a8a8a8a
Plaintext:                8a8a8a8a8a8a8a8a8a8a8a8a8a8a8a8a
Ciphertext:               8caf04efa05d9f57bd5c0b30fe75d25fe449b95612e5dc572804fa0ea39f227006258e652ad715dd37d681ba74ff58d5
Reciphers for ciphertext: 0
Decipheredtext:           8a8a8a8a8a8a8a8a8a8a8a8a8a8a8a8a
RESULT CIPHER-DECIPHER: -----OK-----


Test: 118
Symmetric key bit length: 256
IV bit length:            128
Plaintext bit length:     128
Symmetric key:            7676767676767676767676767676767676767676767676767676767676767676
IV:                       89898989898989898989898989898989
Plaintext:                89898989898989898989898989898989
Ciphertext:               3b048194b0cba5ff2acab6732a215d2f7ee305aec1dd5081487191ef19cecef1b28d081d39422c76a3433ffaa3a8d4a6
Reciphers for ciphertext: 0
Decipheredtext:           89898989898989898989898989898989
RESULT CIPHER-DECIPHER: -----OK-----


Test: 119
Symmetric key bit length: 256
IV bit length:            128
Plaintext bit length:     128
Symmetric key:            7777777777777777777777777777777777777777777777777777777777777777
IV:                       88888888888888888888888888888888
Plaintext:                88888888888888888888888888888888
Ciphertext:               3fcd038fb8a9ebfd96ef5fdec563ac94b520f7b82dc2ba015b797c41cf189aaeb7458b07302163751e67d7564deb241c
Reciphers for ciphertext: 0
Decipheredtext:           88888888888888888888888888888888
RESULT CIPHER-DECIPHER: -----OK-----


Test: 120
Symmetric key bit length: 256
IV bit length:            128
Plaintext bit length:     128
Symmetric key:            7878787878787878787878787878787878787878787878787878787878787878
IV:                       87878787878787878787878787878787
Plaintext:                87878787878787878787878787878787
Ciphertext:               e07cd9b3bb36e9f6f0da2223f646dbdd192d9d6bfee58e53840ac180940245f867fb5e343cb16e71775da5a471c15c5a
Reciphers for ciphertext: 0
Decipheredtext:           87878787878787878787878787878787
RESULT CIPHER-DECIPHER: -----OK-----


Test: 121
Symmetric key bit length: 256
IV bit length:            128
Plaintext bit length:     128
Symmetric key:            7979797979797979797979797979797979797979797979797979797979797979
IV:                       86868686868686868686868686868686
Plaintext:                86868686868686868686868686868686
Ciphertext:               7d78ee9bb5fd3890761292dfc03014439ecb3f4f33525e3596449da103d6940afbfe681d337bbe16f094145946b692c5
Reciphers for ciphertext: 0
Decipheredtext:           86868686868686868686868686868686
RESULT CIPHER-DECIPHER: -----OK-----


Test: 122
Symmetric key bit length: 256
IV bit length:            128
Plaintext bit length:     128
Symmetric key:            7a7a7a7a7a7a7a7a7a7a7a7a7a7a7a7a7a7a7a7a7a7a7a7a7a7a7a7a7a7a7a7a
IV:                       85858585858585858585858585858585
Plaintext:                85858585858585858585858585858585
Ciphertext:               2b7d1811e8c19b5d2f71e3c557e196d1ffabc22727f838454ae5832fb52ca9aeaef89d946d441ed8aaf46640d2641354
Reciphers for ciphertext: 0
Decipheredtext:           85858585858585858585858585858585
RESULT CIPHER-DECIPHER: -----OK-----


Test: 123
Symmetric key bit length: 256
IV bit length:            128
Plaintext bit length:     128
Symmetric key:            7b7b7b7b7b7b7b7b7b7b7b7b7b7b7b7b7b7b7b7b7b7b7b7b7b7b7b7b7b7b7b7b
IV:                       84848484848484848484848484848484
Plaintext:                84848484848484848484848484848484
Ciphertext:               ac94515ec0e3943b8a89278f043ee4019c1be17b107641cea9dbe0fba239c1052810d5da446710bf0e0da30b80ba6085
Reciphers for ciphertext: 0
Decipheredtext:           84848484848484848484848484848484
RESULT CIPHER-DECIPHER: -----OK-----


Test: 124
Symmetric key bit length: 256
IV bit length:            128
Plaintext bit length:     128
Symmetric key:            7c7c7c7c7c7c7c7c7c7c7c7c7c7c7c7c7c7c7c7c7c7c7c7c7c7c7c7c7c7c7c7c
IV:                       83838383838383838383838383838383
Plaintext:                83838383838383838383838383838383
Ciphertext:               5978f474a4f56781486cdf333e8d56fee786fd6417ee81199c41d3c0e200a4c7dafb77f72776e402cbef5cb0bd0ed57d
Reciphers for ciphertext: 0
Decipheredtext:           83838383838383838383838383838383
RESULT CIPHER-DECIPHER: -----OK-----


Test: 125
Symmetric key bit length: 256
IV bit length:            128
Plaintext bit length:     128
Symmetric key:            7d7d7d7d7d7d7d7d7d7d7d7d7d7d7d7d7d7d7d7d7d7d7d7d7d7d7d7d7d7d7d7d
IV:                       82828282828282828282828282828282
Plaintext:                82828282828282828282828282828282
Ciphertext:               6c60ebdfb4810fdddde474f7ececc28b87b4a84d0ccf2d27d457175d957b256feee2695d36038d5f5f66f6756e6e4009
Reciphers for ciphertext: 0
Decipheredtext:           82828282828282828282828282828282
RESULT CIPHER-DECIPHER: -----OK-----


Test: 126
Symmetric key bit length: 256
IV bit length:            128
Plaintext bit length:     128
Symmetric key:            7e7e7e7e7e7e7e7e7e7e7e7e7e7e7e7e7e7e7e7e7e7e7e7e7e7e7e7e7e7e7e7e
IV:                       81818181818181818181818181818181
Plaintext:                81818181818181818181818181818181
Ciphertext:               16acc38a7430789f5cc62ba430499eb77f9b73a1f76c10a87c8f92a6c34d405d972d420bf5b1f91edd47aa25b1c81f36
Reciphers for ciphertext: 0
Decipheredtext:           81818181818181818181818181818181
RESULT CIPHER-DECIPHER: -----OK-----


Test: 127
Symmetric key bit length: 256
IV bit length:            128
Plaintext bit length:     128
Symmetric key:            7f7f7f7f7f7f7f7f7f7f7f7f7f7f7f7f7f7f7f7f7f7f7f7f7f7f7f7f7f7f7f7f
IV:                       80808080808080808080808080808080
Plaintext:                80808080808080808080808080808080
Ciphertext:               19d66fac27572a07a955144b6cbd054b4cca6edfa725815da7a4d9cdb889c5ad9956ef2ca7d7aa8729d594cbec3d85cb
Reciphers for ciphertext: 0
Decipheredtext:           80808080808080808080808080808080
RESULT CIPHER-DECIPHER: -----OK-----


 DATA SHA1 (hexadecimal): 85da8c73596a4c70173f0e6b70bfe3f2e9084e35

