
DiceLock 9.0.0.1

 TEST COMPONENTS:
 ----------------
 DiceLock:           DiceLockIVIndexed class
 Operation Mode:     CFB_Mode class
 Block Cipher:       Camellia128 class
 Key Modifier:       IncreaseBase0IndexModifier_6_0_0_1 class
   Index bit length: 128
 Random tests:       RandomTestSuite class
                     FrequencyTest class
                     BlockFrequencyTest class
                     CumulativeSumForwardTest class
                     LongestRunOfOnesTest class
                     RunsTest class
 Random alpha:       0.001

 VECTOR TEST: Test vector 4 - Symmetric key all byte value 0xXX


##### INDIVIDUAL TESTS #####

Number tests: 128


Test: 0
Symmetric key bit length: 128
IV bit length:            128
Plaintext bit length:     136
Symmetric key:            00000000000000000000000000000000
IV:                       00000000000000000000000000000000
Plaintext:                0000000000000000000000000000000000
Ciphertext:               3d028025b156327c17f762c1f2cbca713d028025b156327c17f762c1f2cbca713b
Reciphers for ciphertext: 0
Decipheredtext:           0000000000000000000000000000000000
RESULT CIPHER-DECIPHER: -----OK-----


Test: 1
Symmetric key bit length: 128
IV bit length:            128
Plaintext bit length:     136
Symmetric key:            01010101010101010101010101010101
IV:                       00000000000000000000000000000000
Plaintext:                0000000000000000000000000000000000
Ciphertext:               502bc580ce85c5987d579fc60f862871502bc580ce85c5987d579fc60f8628716b
Reciphers for ciphertext: 0
Decipheredtext:           0000000000000000000000000000000000
RESULT CIPHER-DECIPHER: -----OK-----


Test: 2
Symmetric key bit length: 128
IV bit length:            128
Plaintext bit length:     136
Symmetric key:            02020202020202020202020202020202
IV:                       00000000000000000000000000000000
Plaintext:                0000000000000000000000000000000000
Ciphertext:               550db22ef1a4fc017a61e9a1a482f7c7550db22ef1a4fc017a61e9a1a482f7c7fe
Reciphers for ciphertext: 0
Decipheredtext:           0000000000000000000000000000000000
RESULT CIPHER-DECIPHER: -----OK-----


Test: 3
Symmetric key bit length: 128
IV bit length:            128
Plaintext bit length:     136
Symmetric key:            03030303030303030303030303030303
IV:                       00000000000000000000000000000000
Plaintext:                0000000000000000000000000000000000
Ciphertext:               930deb41af4329baa1eb4fe558b4c031930deb41af4329baa1eb4fe558b4c0311a
Reciphers for ciphertext: 0
Decipheredtext:           0000000000000000000000000000000000
RESULT CIPHER-DECIPHER: -----OK-----


Test: 4
Symmetric key bit length: 128
IV bit length:            128
Plaintext bit length:     136
Symmetric key:            04040404040404040404040404040404
IV:                       00000000000000000000000000000000
Plaintext:                0000000000000000000000000000000000
Ciphertext:               6c8ef6e1183d9445b6db76da2468e86b6c8ef6e1183d9445b6db76da2468e86b18
Reciphers for ciphertext: 0
Decipheredtext:           0000000000000000000000000000000000
RESULT CIPHER-DECIPHER: -----OK-----


Test: 5
Symmetric key bit length: 128
IV bit length:            128
Plaintext bit length:     136
Symmetric key:            05050505050505050505050505050505
IV:                       00000000000000000000000000000000
Plaintext:                0000000000000000000000000000000000
Ciphertext:               478e3f1a29061388d9631d3afd8d86ad478e3f1a29061388d9631d3afd8d86ad22
Reciphers for ciphertext: 0
Decipheredtext:           0000000000000000000000000000000000
RESULT CIPHER-DECIPHER: -----OK-----


Test: 6
Symmetric key bit length: 128
IV bit length:            128
Plaintext bit length:     136
Symmetric key:            06060606060606060606060606060606
IV:                       00000000000000000000000000000000
Plaintext:                0000000000000000000000000000000000
Ciphertext:               a63991144290b9a84c10fb295033645aa63991144290b9a84c10fb295033645a79
Reciphers for ciphertext: 0
Decipheredtext:           0000000000000000000000000000000000
RESULT CIPHER-DECIPHER: -----OK-----


Test: 7
Symmetric key bit length: 128
IV bit length:            128
Plaintext bit length:     136
Symmetric key:            07070707070707070707070707070707
IV:                       00000000000000000000000000000000
Plaintext:                0000000000000000000000000000000000
Ciphertext:               1c445bad0526d12bc8d41aa19e9627b71c445bad0526d12bc8d41aa19e9627b7f4
Reciphers for ciphertext: 0
Decipheredtext:           0000000000000000000000000000000000
RESULT CIPHER-DECIPHER: -----OK-----


Test: 8
Symmetric key bit length: 128
IV bit length:            128
Plaintext bit length:     136
Symmetric key:            08080808080808080808080808080808
IV:                       00000000000000000000000000000000
Plaintext:                0000000000000000000000000000000000
Ciphertext:               33b0561335b2ea94af256440df3af24133b0561335b2ea94af256440df3af2412b
Reciphers for ciphertext: 0
Decipheredtext:           0000000000000000000000000000000000
RESULT CIPHER-DECIPHER: -----OK-----


Test: 9
Symmetric key bit length: 128
IV bit length:            128
Plaintext bit length:     136
Symmetric key:            09090909090909090909090909090909
IV:                       00000000000000000000000000000000
Plaintext:                0000000000000000000000000000000000
Ciphertext:               17a832802b3c49c3a86b18f6b6dcfe6d17a832802b3c49c3a86b18f6b6dcfe6d71
Reciphers for ciphertext: 0
Decipheredtext:           0000000000000000000000000000000000
RESULT CIPHER-DECIPHER: -----OK-----


Test: 10
Symmetric key bit length: 128
IV bit length:            128
Plaintext bit length:     136
Symmetric key:            0a0a0a0a0a0a0a0a0a0a0a0a0a0a0a0a
IV:                       00000000000000000000000000000000
Plaintext:                0000000000000000000000000000000000
Ciphertext:               99c48b92d15cc32fc5459298f26ec6db99c48b92d15cc32fc5459298f26ec6db92
Reciphers for ciphertext: 0
Decipheredtext:           0000000000000000000000000000000000
RESULT CIPHER-DECIPHER: -----OK-----


Test: 11
Symmetric key bit length: 128
IV bit length:            128
Plaintext bit length:     136
Symmetric key:            0b0b0b0b0b0b0b0b0b0b0b0b0b0b0b0b
IV:                       00000000000000000000000000000000
Plaintext:                0000000000000000000000000000000000
Ciphertext:               1914e79bf028c226f8a647687a7c12d61914e79bf028c226f8a647687a7c12d6f8
Reciphers for ciphertext: 0
Decipheredtext:           0000000000000000000000000000000000
RESULT CIPHER-DECIPHER: -----OK-----


Test: 12
Symmetric key bit length: 128
IV bit length:            128
Plaintext bit length:     136
Symmetric key:            0c0c0c0c0c0c0c0c0c0c0c0c0c0c0c0c
IV:                       00000000000000000000000000000000
Plaintext:                0000000000000000000000000000000000
Ciphertext:               11ee7562d0a9790a99d047d83ac3f35611ee7562d0a9790a99d047d83ac3f35644
Reciphers for ciphertext: 0
Decipheredtext:           0000000000000000000000000000000000
RESULT CIPHER-DECIPHER: -----OK-----


Test: 13
Symmetric key bit length: 128
IV bit length:            128
Plaintext bit length:     136
Symmetric key:            0d0d0d0d0d0d0d0d0d0d0d0d0d0d0d0d
IV:                       00000000000000000000000000000000
Plaintext:                0000000000000000000000000000000000
Ciphertext:               5b12bda7fa0cdefc4ac70c1a3352c20a5b12bda7fa0cdefc4ac70c1a3352c20af9
Reciphers for ciphertext: 0
Decipheredtext:           0000000000000000000000000000000000
RESULT CIPHER-DECIPHER: -----OK-----


Test: 14
Symmetric key bit length: 128
IV bit length:            128
Plaintext bit length:     136
Symmetric key:            0e0e0e0e0e0e0e0e0e0e0e0e0e0e0e0e
IV:                       00000000000000000000000000000000
Plaintext:                0000000000000000000000000000000000
Ciphertext:               2e27465e23129d822216fcdc3c02d4752e27465e23129d822216fcdc3c02d47522
Reciphers for ciphertext: 0
Decipheredtext:           0000000000000000000000000000000000
RESULT CIPHER-DECIPHER: -----OK-----


Test: 15
Symmetric key bit length: 128
IV bit length:            128
Plaintext bit length:     136
Symmetric key:            0f0f0f0f0f0f0f0f0f0f0f0f0f0f0f0f
IV:                       00000000000000000000000000000000
Plaintext:                0000000000000000000000000000000000
Ciphertext:               4aa9c9c614bf820c294b42c2f2a683e34aa9c9c614bf820c294b42c2f2a683e3fd
Reciphers for ciphertext: 0
Decipheredtext:           0000000000000000000000000000000000
RESULT CIPHER-DECIPHER: -----OK-----


Test: 16
Symmetric key bit length: 128
IV bit length:            128
Plaintext bit length:     136
Symmetric key:            10101010101010101010101010101010
IV:                       00000000000000000000000000000000
Plaintext:                0000000000000000000000000000000000
Ciphertext:               bf9aec98b57c90ad952c88e568e69e98bf9aec98b57c90ad952c88e568e69e980c
Reciphers for ciphertext: 0
Decipheredtext:           0000000000000000000000000000000000
RESULT CIPHER-DECIPHER: -----OK-----


Test: 17
Symmetric key bit length: 128
IV bit length:            128
Plaintext bit length:     136
Symmetric key:            11111111111111111111111111111111
IV:                       00000000000000000000000000000000
Plaintext:                0000000000000000000000000000000000
Ciphertext:               4db34e47f214ace217f72c9173b4fb244db34e47f214ace217f72c9173b4fb2450
Reciphers for ciphertext: 0
Decipheredtext:           0000000000000000000000000000000000
RESULT CIPHER-DECIPHER: -----OK-----


Test: 18
Symmetric key bit length: 128
IV bit length:            128
Plaintext bit length:     136
Symmetric key:            12121212121212121212121212121212
IV:                       00000000000000000000000000000000
Plaintext:                0000000000000000000000000000000000
Ciphertext:               fda9b22181401480161c0d8515c5181ce556660a9d9d34b7b07de57b55350155b6
Reciphers for ciphertext: 1
Decipheredtext:           0000000000000000000000000000000000
RESULT CIPHER-DECIPHER: -----OK-----


Test: 19
Symmetric key bit length: 128
IV bit length:            128
Plaintext bit length:     136
Symmetric key:            13131313131313131313131313131313
IV:                       00000000000000000000000000000000
Plaintext:                0000000000000000000000000000000000
Ciphertext:               30e5087c2671cf31ae016a4588314f5730e5087c2671cf31ae016a4588314f57c4
Reciphers for ciphertext: 0
Decipheredtext:           0000000000000000000000000000000000
RESULT CIPHER-DECIPHER: -----OK-----


Test: 20
Symmetric key bit length: 128
IV bit length:            128
Plaintext bit length:     136
Symmetric key:            14141414141414141414141414141414
IV:                       00000000000000000000000000000000
Plaintext:                0000000000000000000000000000000000
Ciphertext:               2a87a81ce56f91c88d23b62f4178856e2a87a81ce56f91c88d23b62f4178856e65
Reciphers for ciphertext: 0
Decipheredtext:           0000000000000000000000000000000000
RESULT CIPHER-DECIPHER: -----OK-----


Test: 21
Symmetric key bit length: 128
IV bit length:            128
Plaintext bit length:     136
Symmetric key:            15151515151515151515151515151515
IV:                       00000000000000000000000000000000
Plaintext:                0000000000000000000000000000000000
Ciphertext:               9e9986d17b276678d74261f7a5554cd59e9986d17b276678d74261f7a5554cd5b4
Reciphers for ciphertext: 0
Decipheredtext:           0000000000000000000000000000000000
RESULT CIPHER-DECIPHER: -----OK-----


Test: 22
Symmetric key bit length: 128
IV bit length:            128
Plaintext bit length:     136
Symmetric key:            16161616161616161616161616161616
IV:                       00000000000000000000000000000000
Plaintext:                0000000000000000000000000000000000
Ciphertext:               3e737372116ee48d4213e608e8b3e0503e737372116ee48d4213e608e8b3e05059
Reciphers for ciphertext: 0
Decipheredtext:           0000000000000000000000000000000000
RESULT CIPHER-DECIPHER: -----OK-----


Test: 23
Symmetric key bit length: 128
IV bit length:            128
Plaintext bit length:     136
Symmetric key:            17171717171717171717171717171717
IV:                       00000000000000000000000000000000
Plaintext:                0000000000000000000000000000000000
Ciphertext:               1741010c8a0c2401150d3824d047e2b736fba8dd661c42c2bec7b0621f7fb3a34d
Reciphers for ciphertext: 4
Decipheredtext:           0000000000000000000000000000000000
RESULT CIPHER-DECIPHER: -----OK-----


Test: 24
Symmetric key bit length: 128
IV bit length:            128
Plaintext bit length:     136
Symmetric key:            18181818181818181818181818181818
IV:                       00000000000000000000000000000000
Plaintext:                0000000000000000000000000000000000
Ciphertext:               b853f0002f6837aa651b3cc2351b9867b853f0002f6837aa651b3cc2351b98676c
Reciphers for ciphertext: 0
Decipheredtext:           0000000000000000000000000000000000
RESULT CIPHER-DECIPHER: -----OK-----


Test: 25
Symmetric key bit length: 128
IV bit length:            128
Plaintext bit length:     136
Symmetric key:            19191919191919191919191919191919
IV:                       00000000000000000000000000000000
Plaintext:                0000000000000000000000000000000000
Ciphertext:               342316fdfd7f19fabef7d402be331a48fae65a025c13052f1ce14a30c277fa5101
Reciphers for ciphertext: 1
Decipheredtext:           0000000000000000000000000000000000
RESULT CIPHER-DECIPHER: -----OK-----


Test: 26
Symmetric key bit length: 128
IV bit length:            128
Plaintext bit length:     136
Symmetric key:            1a1a1a1a1a1a1a1a1a1a1a1a1a1a1a1a
IV:                       00000000000000000000000000000000
Plaintext:                0000000000000000000000000000000000
Ciphertext:               b7cd2ddaf9e85cb55e30d3bda291153ab7cd2ddaf9e85cb55e30d3bda291153a3f
Reciphers for ciphertext: 0
Decipheredtext:           0000000000000000000000000000000000
RESULT CIPHER-DECIPHER: -----OK-----


Test: 27
Symmetric key bit length: 128
IV bit length:            128
Plaintext bit length:     136
Symmetric key:            1b1b1b1b1b1b1b1b1b1b1b1b1b1b1b1b
IV:                       00000000000000000000000000000000
Plaintext:                0000000000000000000000000000000000
Ciphertext:               9c7c8722b0be86a18eaeb156ee55f28a9c7c8722b0be86a18eaeb156ee55f28a88
Reciphers for ciphertext: 0
Decipheredtext:           0000000000000000000000000000000000
RESULT CIPHER-DECIPHER: -----OK-----


Test: 28
Symmetric key bit length: 128
IV bit length:            128
Plaintext bit length:     136
Symmetric key:            1c1c1c1c1c1c1c1c1c1c1c1c1c1c1c1c
IV:                       00000000000000000000000000000000
Plaintext:                0000000000000000000000000000000000
Ciphertext:               c70f83c285dff9abeeb5859902564d1ec70f83c285dff9abeeb5859902564d1e5f
Reciphers for ciphertext: 0
Decipheredtext:           0000000000000000000000000000000000
RESULT CIPHER-DECIPHER: -----OK-----


Test: 29
Symmetric key bit length: 128
IV bit length:            128
Plaintext bit length:     136
Symmetric key:            1d1d1d1d1d1d1d1d1d1d1d1d1d1d1d1d
IV:                       00000000000000000000000000000000
Plaintext:                0000000000000000000000000000000000
Ciphertext:               befa3529d28dc28a78c516fac222fa59befa3529d28dc28a78c516fac222fa595a
Reciphers for ciphertext: 0
Decipheredtext:           0000000000000000000000000000000000
RESULT CIPHER-DECIPHER: -----OK-----


Test: 30
Symmetric key bit length: 128
IV bit length:            128
Plaintext bit length:     136
Symmetric key:            1e1e1e1e1e1e1e1e1e1e1e1e1e1e1e1e
IV:                       00000000000000000000000000000000
Plaintext:                0000000000000000000000000000000000
Ciphertext:               1c3c0bcc2e5ab0828c87977f45accdbd1c3c0bcc2e5ab0828c87977f45accdbdca
Reciphers for ciphertext: 0
Decipheredtext:           0000000000000000000000000000000000
RESULT CIPHER-DECIPHER: -----OK-----


Test: 31
Symmetric key bit length: 128
IV bit length:            128
Plaintext bit length:     136
Symmetric key:            1f1f1f1f1f1f1f1f1f1f1f1f1f1f1f1f
IV:                       00000000000000000000000000000000
Plaintext:                0000000000000000000000000000000000
Ciphertext:               4af393fe088e32bbb389b64db288fe514af393fe088e32bbb389b64db288fe5147
Reciphers for ciphertext: 0
Decipheredtext:           0000000000000000000000000000000000
RESULT CIPHER-DECIPHER: -----OK-----


Test: 32
Symmetric key bit length: 128
IV bit length:            128
Plaintext bit length:     136
Symmetric key:            20202020202020202020202020202020
IV:                       00000000000000000000000000000000
Plaintext:                0000000000000000000000000000000000
Ciphertext:               c401f906b441bd98d7b6ecdd22ada19bc401f906b441bd98d7b6ecdd22ada19b8e
Reciphers for ciphertext: 0
Decipheredtext:           0000000000000000000000000000000000
RESULT CIPHER-DECIPHER: -----OK-----


Test: 33
Symmetric key bit length: 128
IV bit length:            128
Plaintext bit length:     136
Symmetric key:            21212121212121212121212121212121
IV:                       00000000000000000000000000000000
Plaintext:                0000000000000000000000000000000000
Ciphertext:               226f4cafd2298b87ee1808db5bda930d226f4cafd2298b87ee1808db5bda930ddd
Reciphers for ciphertext: 0
Decipheredtext:           0000000000000000000000000000000000
RESULT CIPHER-DECIPHER: -----OK-----


Test: 34
Symmetric key bit length: 128
IV bit length:            128
Plaintext bit length:     136
Symmetric key:            22222222222222222222222222222222
IV:                       00000000000000000000000000000000
Plaintext:                0000000000000000000000000000000000
Ciphertext:               b609f2d51cce729287e2f12d2e58ecc9b609f2d51cce729287e2f12d2e58ecc944
Reciphers for ciphertext: 0
Decipheredtext:           0000000000000000000000000000000000
RESULT CIPHER-DECIPHER: -----OK-----


Test: 35
Symmetric key bit length: 128
IV bit length:            128
Plaintext bit length:     136
Symmetric key:            23232323232323232323232323232323
IV:                       00000000000000000000000000000000
Plaintext:                0000000000000000000000000000000000
Ciphertext:               78903faee850ee03aab59222dfa2434878903faee850ee03aab59222dfa24348df
Reciphers for ciphertext: 0
Decipheredtext:           0000000000000000000000000000000000
RESULT CIPHER-DECIPHER: -----OK-----


Test: 36
Symmetric key bit length: 128
IV bit length:            128
Plaintext bit length:     136
Symmetric key:            24242424242424242424242424242424
IV:                       00000000000000000000000000000000
Plaintext:                0000000000000000000000000000000000
Ciphertext:               722c4d08081d8adc6c36420961e8a646722c4d08081d8adc6c36420961e8a646f3
Reciphers for ciphertext: 0
Decipheredtext:           0000000000000000000000000000000000
RESULT CIPHER-DECIPHER: -----OK-----


Test: 37
Symmetric key bit length: 128
IV bit length:            128
Plaintext bit length:     136
Symmetric key:            25252525252525252525252525252525
IV:                       00000000000000000000000000000000
Plaintext:                0000000000000000000000000000000000
Ciphertext:               73f0834cc3140a757ddc614715cc4ec773f0834cc3140a757ddc614715cc4ec79a
Reciphers for ciphertext: 0
Decipheredtext:           0000000000000000000000000000000000
RESULT CIPHER-DECIPHER: -----OK-----


Test: 38
Symmetric key bit length: 128
IV bit length:            128
Plaintext bit length:     136
Symmetric key:            26262626262626262626262626262626
IV:                       00000000000000000000000000000000
Plaintext:                0000000000000000000000000000000000
Ciphertext:               56e2b9efffc5431adb5c6ba37dc0b9b656e2b9efffc5431adb5c6ba37dc0b9b664
Reciphers for ciphertext: 0
Decipheredtext:           0000000000000000000000000000000000
RESULT CIPHER-DECIPHER: -----OK-----


Test: 39
Symmetric key bit length: 128
IV bit length:            128
Plaintext bit length:     136
Symmetric key:            27272727272727272727272727272727
IV:                       00000000000000000000000000000000
Plaintext:                0000000000000000000000000000000000
Ciphertext:               83d6a808a1f5bb8460ac7bee3d19691583d6a808a1f5bb8460ac7bee3d1969153d
Reciphers for ciphertext: 0
Decipheredtext:           0000000000000000000000000000000000
RESULT CIPHER-DECIPHER: -----OK-----


Test: 40
Symmetric key bit length: 128
IV bit length:            128
Plaintext bit length:     136
Symmetric key:            28282828282828282828282828282828
IV:                       00000000000000000000000000000000
Plaintext:                0000000000000000000000000000000000
Ciphertext:               60f55354ae8527fb3a16a13f8d7be1d660f55354ae8527fb3a16a13f8d7be1d656
Reciphers for ciphertext: 0
Decipheredtext:           0000000000000000000000000000000000
RESULT CIPHER-DECIPHER: -----OK-----


Test: 41
Symmetric key bit length: 128
IV bit length:            128
Plaintext bit length:     136
Symmetric key:            29292929292929292929292929292929
IV:                       00000000000000000000000000000000
Plaintext:                0000000000000000000000000000000000
Ciphertext:               cfd2a82f7f59759c190434005ad28f5fcfd2a82f7f59759c190434005ad28f5fe2
Reciphers for ciphertext: 0
Decipheredtext:           0000000000000000000000000000000000
RESULT CIPHER-DECIPHER: -----OK-----


Test: 42
Symmetric key bit length: 128
IV bit length:            128
Plaintext bit length:     136
Symmetric key:            2a2a2a2a2a2a2a2a2a2a2a2a2a2a2a2a
IV:                       00000000000000000000000000000000
Plaintext:                0000000000000000000000000000000000
Ciphertext:               3f91ea82ca4283b6c5de06f33d36a5233f91ea82ca4283b6c5de06f33d36a523a1
Reciphers for ciphertext: 0
Decipheredtext:           0000000000000000000000000000000000
RESULT CIPHER-DECIPHER: -----OK-----


Test: 43
Symmetric key bit length: 128
IV bit length:            128
Plaintext bit length:     136
Symmetric key:            2b2b2b2b2b2b2b2b2b2b2b2b2b2b2b2b
IV:                       00000000000000000000000000000000
Plaintext:                0000000000000000000000000000000000
Ciphertext:               44eadd2ecfef5d608354e3838c41c8cc44eadd2ecfef5d608354e3838c41c8ccbc
Reciphers for ciphertext: 0
Decipheredtext:           0000000000000000000000000000000000
RESULT CIPHER-DECIPHER: -----OK-----


Test: 44
Symmetric key bit length: 128
IV bit length:            128
Plaintext bit length:     136
Symmetric key:            2c2c2c2c2c2c2c2c2c2c2c2c2c2c2c2c
IV:                       00000000000000000000000000000000
Plaintext:                0000000000000000000000000000000000
Ciphertext:               c7f1e234f3486770d63996c4f9783873c7f1e234f3486770d63996c4f9783873ad
Reciphers for ciphertext: 0
Decipheredtext:           0000000000000000000000000000000000
RESULT CIPHER-DECIPHER: -----OK-----


Test: 45
Symmetric key bit length: 128
IV bit length:            128
Plaintext bit length:     136
Symmetric key:            2d2d2d2d2d2d2d2d2d2d2d2d2d2d2d2d
IV:                       00000000000000000000000000000000
Plaintext:                0000000000000000000000000000000000
Ciphertext:               4ffe2923533054816f372c001b9748294ffe2923533054816f372c001b97482988
Reciphers for ciphertext: 0
Decipheredtext:           0000000000000000000000000000000000
RESULT CIPHER-DECIPHER: -----OK-----


Test: 46
Symmetric key bit length: 128
IV bit length:            128
Plaintext bit length:     136
Symmetric key:            2e2e2e2e2e2e2e2e2e2e2e2e2e2e2e2e
IV:                       00000000000000000000000000000000
Plaintext:                0000000000000000000000000000000000
Ciphertext:               4ff46e2d67faa552cc042b92fe63ba354ff46e2d67faa552cc042b92fe63ba35e8
Reciphers for ciphertext: 0
Decipheredtext:           0000000000000000000000000000000000
RESULT CIPHER-DECIPHER: -----OK-----


Test: 47
Symmetric key bit length: 128
IV bit length:            128
Plaintext bit length:     136
Symmetric key:            2f2f2f2f2f2f2f2f2f2f2f2f2f2f2f2f
IV:                       00000000000000000000000000000000
Plaintext:                0000000000000000000000000000000000
Ciphertext:               ec936d89a6b80a6e3c5d5d8ecc0c1d39ec936d89a6b80a6e3c5d5d8ecc0c1d39b2
Reciphers for ciphertext: 0
Decipheredtext:           0000000000000000000000000000000000
RESULT CIPHER-DECIPHER: -----OK-----


Test: 48
Symmetric key bit length: 128
IV bit length:            128
Plaintext bit length:     136
Symmetric key:            30303030303030303030303030303030
IV:                       00000000000000000000000000000000
Plaintext:                0000000000000000000000000000000000
Ciphertext:               34e444f24a091f5b761db431f8a0962134e444f24a091f5b761db431f8a0962160
Reciphers for ciphertext: 0
Decipheredtext:           0000000000000000000000000000000000
RESULT CIPHER-DECIPHER: -----OK-----


Test: 49
Symmetric key bit length: 128
IV bit length:            128
Plaintext bit length:     136
Symmetric key:            31313131313131313131313131313131
IV:                       00000000000000000000000000000000
Plaintext:                0000000000000000000000000000000000
Ciphertext:               03e4e5b8be75c55d591229a494a568f803e4e5b8be75c55d591229a494a568f85e
Reciphers for ciphertext: 0
Decipheredtext:           0000000000000000000000000000000000
RESULT CIPHER-DECIPHER: -----OK-----


Test: 50
Symmetric key bit length: 128
IV bit length:            128
Plaintext bit length:     136
Symmetric key:            32323232323232323232323232323232
IV:                       00000000000000000000000000000000
Plaintext:                0000000000000000000000000000000000
Ciphertext:               8307be92cb83a319b78d8b42546fbfbb8307be92cb83a319b78d8b42546fbfbbbe
Reciphers for ciphertext: 0
Decipheredtext:           0000000000000000000000000000000000
RESULT CIPHER-DECIPHER: -----OK-----


Test: 51
Symmetric key bit length: 128
IV bit length:            128
Plaintext bit length:     136
Symmetric key:            33333333333333333333333333333333
IV:                       00000000000000000000000000000000
Plaintext:                0000000000000000000000000000000000
Ciphertext:               ac6eeb112b729e3b2a4a1162d54f7dd9ac6eeb112b729e3b2a4a1162d54f7dd961
Reciphers for ciphertext: 0
Decipheredtext:           0000000000000000000000000000000000
RESULT CIPHER-DECIPHER: -----OK-----


Test: 52
Symmetric key bit length: 128
IV bit length:            128
Plaintext bit length:     136
Symmetric key:            34343434343434343434343434343434
IV:                       00000000000000000000000000000000
Plaintext:                0000000000000000000000000000000000
Ciphertext:               3ad3b75a193c7cd2ba4c1c42ce7b0d383ad3b75a193c7cd2ba4c1c42ce7b0d38c2
Reciphers for ciphertext: 0
Decipheredtext:           0000000000000000000000000000000000
RESULT CIPHER-DECIPHER: -----OK-----


Test: 53
Symmetric key bit length: 128
IV bit length:            128
Plaintext bit length:     136
Symmetric key:            35353535353535353535353535353535
IV:                       00000000000000000000000000000000
Plaintext:                0000000000000000000000000000000000
Ciphertext:               0406aa9e6c6bdaf5494d902ffad192c40406aa9e6c6bdaf5494d902ffad192c47d
Reciphers for ciphertext: 0
Decipheredtext:           0000000000000000000000000000000000
RESULT CIPHER-DECIPHER: -----OK-----


Test: 54
Symmetric key bit length: 128
IV bit length:            128
Plaintext bit length:     136
Symmetric key:            36363636363636363636363636363636
IV:                       00000000000000000000000000000000
Plaintext:                0000000000000000000000000000000000
Ciphertext:               1cff6f1353e32eb827218f9fec8679791cff6f1353e32eb827218f9fec867979b3
Reciphers for ciphertext: 0
Decipheredtext:           0000000000000000000000000000000000
RESULT CIPHER-DECIPHER: -----OK-----


Test: 55
Symmetric key bit length: 128
IV bit length:            128
Plaintext bit length:     136
Symmetric key:            37373737373737373737373737373737
IV:                       00000000000000000000000000000000
Plaintext:                0000000000000000000000000000000000
Ciphertext:               17d21113dc3c6a2e4954006a0d8aeedf17d21113dc3c6a2e4954006a0d8aeedf21
Reciphers for ciphertext: 0
Decipheredtext:           0000000000000000000000000000000000
RESULT CIPHER-DECIPHER: -----OK-----


Test: 56
Symmetric key bit length: 128
IV bit length:            128
Plaintext bit length:     136
Symmetric key:            38383838383838383838383838383838
IV:                       00000000000000000000000000000000
Plaintext:                0000000000000000000000000000000000
Ciphertext:               5367a14598c9a868b60663fcf23196265367a14598c9a868b60663fcf2319626a3
Reciphers for ciphertext: 0
Decipheredtext:           0000000000000000000000000000000000
RESULT CIPHER-DECIPHER: -----OK-----


Test: 57
Symmetric key bit length: 128
IV bit length:            128
Plaintext bit length:     136
Symmetric key:            39393939393939393939393939393939
IV:                       00000000000000000000000000000000
Plaintext:                0000000000000000000000000000000000
Ciphertext:               7f110c7658c9043b4dcc52e6a30aa2657f110c7658c9043b4dcc52e6a30aa26569
Reciphers for ciphertext: 0
Decipheredtext:           0000000000000000000000000000000000
RESULT CIPHER-DECIPHER: -----OK-----


Test: 58
Symmetric key bit length: 128
IV bit length:            128
Plaintext bit length:     136
Symmetric key:            3a3a3a3a3a3a3a3a3a3a3a3a3a3a3a3a
IV:                       00000000000000000000000000000000
Plaintext:                0000000000000000000000000000000000
Ciphertext:               87ea1cb1e6524d0439598a92ad1a87d987ea1cb1e6524d0439598a92ad1a87d9e7
Reciphers for ciphertext: 0
Decipheredtext:           0000000000000000000000000000000000
RESULT CIPHER-DECIPHER: -----OK-----


Test: 59
Symmetric key bit length: 128
IV bit length:            128
Plaintext bit length:     136
Symmetric key:            3b3b3b3b3b3b3b3b3b3b3b3b3b3b3b3b
IV:                       00000000000000000000000000000000
Plaintext:                0000000000000000000000000000000000
Ciphertext:               77e726e370aa2990039d28ec58342739803b31361c5ba69cdc40e1ca76b7319df6
Reciphers for ciphertext: 1
Decipheredtext:           0000000000000000000000000000000000
RESULT CIPHER-DECIPHER: -----OK-----


Test: 60
Symmetric key bit length: 128
IV bit length:            128
Plaintext bit length:     136
Symmetric key:            3c3c3c3c3c3c3c3c3c3c3c3c3c3c3c3c
IV:                       00000000000000000000000000000000
Plaintext:                0000000000000000000000000000000000
Ciphertext:               146c9428c45e03a383acf4708cc0d547146c9428c45e03a383acf4708cc0d54743
Reciphers for ciphertext: 0
Decipheredtext:           0000000000000000000000000000000000
RESULT CIPHER-DECIPHER: -----OK-----


Test: 61
Symmetric key bit length: 128
IV bit length:            128
Plaintext bit length:     136
Symmetric key:            3d3d3d3d3d3d3d3d3d3d3d3d3d3d3d3d
IV:                       00000000000000000000000000000000
Plaintext:                0000000000000000000000000000000000
Ciphertext:               683dd626c6bdf4ab8a8c1c7d38abf162683dd626c6bdf4ab8a8c1c7d38abf1628f
Reciphers for ciphertext: 0
Decipheredtext:           0000000000000000000000000000000000
RESULT CIPHER-DECIPHER: -----OK-----


Test: 62
Symmetric key bit length: 128
IV bit length:            128
Plaintext bit length:     136
Symmetric key:            3e3e3e3e3e3e3e3e3e3e3e3e3e3e3e3e
IV:                       00000000000000000000000000000000
Plaintext:                0000000000000000000000000000000000
Ciphertext:               1fc198f9819cd0b6e2f4486c79a02cfc1fc198f9819cd0b6e2f4486c79a02cfc29
Reciphers for ciphertext: 0
Decipheredtext:           0000000000000000000000000000000000
RESULT CIPHER-DECIPHER: -----OK-----


Test: 63
Symmetric key bit length: 128
IV bit length:            128
Plaintext bit length:     136
Symmetric key:            3f3f3f3f3f3f3f3f3f3f3f3f3f3f3f3f
IV:                       00000000000000000000000000000000
Plaintext:                0000000000000000000000000000000000
Ciphertext:               8587323fa79200190728d0c47f66e7888587323fa79200190728d0c47f66e78821
Reciphers for ciphertext: 0
Decipheredtext:           0000000000000000000000000000000000
RESULT CIPHER-DECIPHER: -----OK-----


Test: 64
Symmetric key bit length: 128
IV bit length:            128
Plaintext bit length:     136
Symmetric key:            40404040404040404040404040404040
IV:                       00000000000000000000000000000000
Plaintext:                0000000000000000000000000000000000
Ciphertext:               c14a35e561ef8bb2a8b47f03aac4597dc14a35e561ef8bb2a8b47f03aac4597d0c
Reciphers for ciphertext: 0
Decipheredtext:           0000000000000000000000000000000000
RESULT CIPHER-DECIPHER: -----OK-----


Test: 65
Symmetric key bit length: 128
IV bit length:            128
Plaintext bit length:     136
Symmetric key:            41414141414141414141414141414141
IV:                       00000000000000000000000000000000
Plaintext:                0000000000000000000000000000000000
Ciphertext:               527573bbedf0eabf285cb95e9ec470486565f0bcf615c135172cee0a2e58714d46
Reciphers for ciphertext: 1
Decipheredtext:           0000000000000000000000000000000000
RESULT CIPHER-DECIPHER: -----OK-----


Test: 66
Symmetric key bit length: 128
IV bit length:            128
Plaintext bit length:     136
Symmetric key:            42424242424242424242424242424242
IV:                       00000000000000000000000000000000
Plaintext:                0000000000000000000000000000000000
Ciphertext:               1f4d252e4d3b39c97f286dcd03b35cbb1f4d252e4d3b39c97f286dcd03b35cbb11
Reciphers for ciphertext: 0
Decipheredtext:           0000000000000000000000000000000000
RESULT CIPHER-DECIPHER: -----OK-----


Test: 67
Symmetric key bit length: 128
IV bit length:            128
Plaintext bit length:     136
Symmetric key:            43434343434343434343434343434343
IV:                       00000000000000000000000000000000
Plaintext:                0000000000000000000000000000000000
Ciphertext:               bad8fd416dda5b5f479529d901357925bad8fd416dda5b5f479529d90135792507
Reciphers for ciphertext: 0
Decipheredtext:           0000000000000000000000000000000000
RESULT CIPHER-DECIPHER: -----OK-----


Test: 68
Symmetric key bit length: 128
IV bit length:            128
Plaintext bit length:     136
Symmetric key:            44444444444444444444444444444444
IV:                       00000000000000000000000000000000
Plaintext:                0000000000000000000000000000000000
Ciphertext:               578270c65e997bb06ccd9f034e7667fe578270c65e997bb06ccd9f034e7667fe01
Reciphers for ciphertext: 0
Decipheredtext:           0000000000000000000000000000000000
RESULT CIPHER-DECIPHER: -----OK-----


Test: 69
Symmetric key bit length: 128
IV bit length:            128
Plaintext bit length:     136
Symmetric key:            45454545454545454545454545454545
IV:                       00000000000000000000000000000000
Plaintext:                0000000000000000000000000000000000
Ciphertext:               efd1fc7f0ecc1472bfecc0bd54992049efd1fc7f0ecc1472bfecc0bd5499204987
Reciphers for ciphertext: 0
Decipheredtext:           0000000000000000000000000000000000
RESULT CIPHER-DECIPHER: -----OK-----


Test: 70
Symmetric key bit length: 128
IV bit length:            128
Plaintext bit length:     136
Symmetric key:            46464646464646464646464646464646
IV:                       00000000000000000000000000000000
Plaintext:                0000000000000000000000000000000000
Ciphertext:               5d2c2d213e3ff97bae934819d55588e55d2c2d213e3ff97bae934819d55588e57d
Reciphers for ciphertext: 0
Decipheredtext:           0000000000000000000000000000000000
RESULT CIPHER-DECIPHER: -----OK-----


Test: 71
Symmetric key bit length: 128
IV bit length:            128
Plaintext bit length:     136
Symmetric key:            47474747474747474747474747474747
IV:                       00000000000000000000000000000000
Plaintext:                0000000000000000000000000000000000
Ciphertext:               8d800b99ee09d6af1f4879b949982a668d800b99ee09d6af1f4879b949982a6633
Reciphers for ciphertext: 0
Decipheredtext:           0000000000000000000000000000000000
RESULT CIPHER-DECIPHER: -----OK-----


Test: 72
Symmetric key bit length: 128
IV bit length:            128
Plaintext bit length:     136
Symmetric key:            48484848484848484848484848484848
IV:                       00000000000000000000000000000000
Plaintext:                0000000000000000000000000000000000
Ciphertext:               a79253db8b679989c72cd4eedd0e413da79253db8b679989c72cd4eedd0e413d39
Reciphers for ciphertext: 0
Decipheredtext:           0000000000000000000000000000000000
RESULT CIPHER-DECIPHER: -----OK-----


Test: 73
Symmetric key bit length: 128
IV bit length:            128
Plaintext bit length:     136
Symmetric key:            49494949494949494949494949494949
IV:                       00000000000000000000000000000000
Plaintext:                0000000000000000000000000000000000
Ciphertext:               fbec821986eff991d58483ceaca1d595fbec821986eff991d58483ceaca1d59587
Reciphers for ciphertext: 0
Decipheredtext:           0000000000000000000000000000000000
RESULT CIPHER-DECIPHER: -----OK-----


Test: 74
Symmetric key bit length: 128
IV bit length:            128
Plaintext bit length:     136
Symmetric key:            4a4a4a4a4a4a4a4a4a4a4a4a4a4a4a4a
IV:                       00000000000000000000000000000000
Plaintext:                0000000000000000000000000000000000
Ciphertext:               ead7135d3f32fd4c8854b413fa07d4a5ead7135d3f32fd4c8854b413fa07d4a522
Reciphers for ciphertext: 0
Decipheredtext:           0000000000000000000000000000000000
RESULT CIPHER-DECIPHER: -----OK-----


Test: 75
Symmetric key bit length: 128
IV bit length:            128
Plaintext bit length:     136
Symmetric key:            4b4b4b4b4b4b4b4b4b4b4b4b4b4b4b4b
IV:                       00000000000000000000000000000000
Plaintext:                0000000000000000000000000000000000
Ciphertext:               0143649d966b8b35045fdd8e49c310360143649d966b8b35045fdd8e49c3103604
Reciphers for ciphertext: 0
Decipheredtext:           0000000000000000000000000000000000
RESULT CIPHER-DECIPHER: -----OK-----


Test: 76
Symmetric key bit length: 128
IV bit length:            128
Plaintext bit length:     136
Symmetric key:            4c4c4c4c4c4c4c4c4c4c4c4c4c4c4c4c
IV:                       00000000000000000000000000000000
Plaintext:                0000000000000000000000000000000000
Ciphertext:               b4191f4bfe1c1d94bd2d8cf2eac1622db4191f4bfe1c1d94bd2d8cf2eac1622d98
Reciphers for ciphertext: 0
Decipheredtext:           0000000000000000000000000000000000
RESULT CIPHER-DECIPHER: -----OK-----


Test: 77
Symmetric key bit length: 128
IV bit length:            128
Plaintext bit length:     136
Symmetric key:            4d4d4d4d4d4d4d4d4d4d4d4d4d4d4d4d
IV:                       00000000000000000000000000000000
Plaintext:                0000000000000000000000000000000000
Ciphertext:               997d1a5c30a22db0c849f8597a1aa08f997d1a5c30a22db0c849f8597a1aa08f7c
Reciphers for ciphertext: 0
Decipheredtext:           0000000000000000000000000000000000
RESULT CIPHER-DECIPHER: -----OK-----


Test: 78
Symmetric key bit length: 128
IV bit length:            128
Plaintext bit length:     136
Symmetric key:            4e4e4e4e4e4e4e4e4e4e4e4e4e4e4e4e
IV:                       00000000000000000000000000000000
Plaintext:                0000000000000000000000000000000000
Ciphertext:               e6d20e61962877b3d02510a26710f80be6d20e61962877b3d02510a26710f80bec
Reciphers for ciphertext: 0
Decipheredtext:           0000000000000000000000000000000000
RESULT CIPHER-DECIPHER: -----OK-----


Test: 79
Symmetric key bit length: 128
IV bit length:            128
Plaintext bit length:     136
Symmetric key:            4f4f4f4f4f4f4f4f4f4f4f4f4f4f4f4f
IV:                       00000000000000000000000000000000
Plaintext:                0000000000000000000000000000000000
Ciphertext:               a351b9994276248176bc2e2897327109a351b9994276248176bc2e28973271092f
Reciphers for ciphertext: 0
Decipheredtext:           0000000000000000000000000000000000
RESULT CIPHER-DECIPHER: -----OK-----


Test: 80
Symmetric key bit length: 128
IV bit length:            128
Plaintext bit length:     136
Symmetric key:            50505050505050505050505050505050
IV:                       00000000000000000000000000000000
Plaintext:                0000000000000000000000000000000000
Ciphertext:               860ae47204bb17ce553d6d0e40379761860ae47204bb17ce553d6d0e403797612a
Reciphers for ciphertext: 0
Decipheredtext:           0000000000000000000000000000000000
RESULT CIPHER-DECIPHER: -----OK-----


Test: 81
Symmetric key bit length: 128
IV bit length:            128
Plaintext bit length:     136
Symmetric key:            51515151515151515151515151515151
IV:                       00000000000000000000000000000000
Plaintext:                0000000000000000000000000000000000
Ciphertext:               c58c4f472837e61d6d51d91ac7ab43cec58c4f472837e61d6d51d91ac7ab43cee8
Reciphers for ciphertext: 0
Decipheredtext:           0000000000000000000000000000000000
RESULT CIPHER-DECIPHER: -----OK-----


Test: 82
Symmetric key bit length: 128
IV bit length:            128
Plaintext bit length:     136
Symmetric key:            52525252525252525252525252525252
IV:                       00000000000000000000000000000000
Plaintext:                0000000000000000000000000000000000
Ciphertext:               4fb7f5cfbce70ebb8b34a66735a86db94fb7f5cfbce70ebb8b34a66735a86db943
Reciphers for ciphertext: 0
Decipheredtext:           0000000000000000000000000000000000
RESULT CIPHER-DECIPHER: -----OK-----


Test: 83
Symmetric key bit length: 128
IV bit length:            128
Plaintext bit length:     136
Symmetric key:            53535353535353535353535353535353
IV:                       00000000000000000000000000000000
Plaintext:                0000000000000000000000000000000000
Ciphertext:               415684c09dba56117e731fa4f4c6777e415684c09dba56117e731fa4f4c6777e8c
Reciphers for ciphertext: 0
Decipheredtext:           0000000000000000000000000000000000
RESULT CIPHER-DECIPHER: -----OK-----


Test: 84
Symmetric key bit length: 128
IV bit length:            128
Plaintext bit length:     136
Symmetric key:            54545454545454545454545454545454
IV:                       00000000000000000000000000000000
Plaintext:                0000000000000000000000000000000000
Ciphertext:               23e4ce590cea5c41be7021b212b76e3123e4ce590cea5c41be7021b212b76e31f4
Reciphers for ciphertext: 0
Decipheredtext:           0000000000000000000000000000000000
RESULT CIPHER-DECIPHER: -----OK-----


Test: 85
Symmetric key bit length: 128
IV bit length:            128
Plaintext bit length:     136
Symmetric key:            55555555555555555555555555555555
IV:                       00000000000000000000000000000000
Plaintext:                0000000000000000000000000000000000
Ciphertext:               4b02e5a9b962a1dbe40d4bb0298d450d4b02e5a9b962a1dbe40d4bb0298d450dd6
Reciphers for ciphertext: 0
Decipheredtext:           0000000000000000000000000000000000
RESULT CIPHER-DECIPHER: -----OK-----


Test: 86
Symmetric key bit length: 128
IV bit length:            128
Plaintext bit length:     136
Symmetric key:            56565656565656565656565656565656
IV:                       00000000000000000000000000000000
Plaintext:                0000000000000000000000000000000000
Ciphertext:               dc4fae7f89ef02eeb4cefad5c9b6ced25a803acc62d6e8ee275837612783369846
Reciphers for ciphertext: 1
Decipheredtext:           0000000000000000000000000000000000
RESULT CIPHER-DECIPHER: -----OK-----


Test: 87
Symmetric key bit length: 128
IV bit length:            128
Plaintext bit length:     136
Symmetric key:            57575757575757575757575757575757
IV:                       00000000000000000000000000000000
Plaintext:                0000000000000000000000000000000000
Ciphertext:               e2f337e4008ecf3d28e7b3bca2e2cddfe2f337e4008ecf3d28e7b3bca2e2cddff2
Reciphers for ciphertext: 0
Decipheredtext:           0000000000000000000000000000000000
RESULT CIPHER-DECIPHER: -----OK-----


Test: 88
Symmetric key bit length: 128
IV bit length:            128
Plaintext bit length:     136
Symmetric key:            58585858585858585858585858585858
IV:                       00000000000000000000000000000000
Plaintext:                0000000000000000000000000000000000
Ciphertext:               3c75ceb2a51545ab09babb8c10e4ed363c75ceb2a51545ab09babb8c10e4ed3665
Reciphers for ciphertext: 0
Decipheredtext:           0000000000000000000000000000000000
RESULT CIPHER-DECIPHER: -----OK-----


Test: 89
Symmetric key bit length: 128
IV bit length:            128
Plaintext bit length:     136
Symmetric key:            59595959595959595959595959595959
IV:                       00000000000000000000000000000000
Plaintext:                0000000000000000000000000000000000
Ciphertext:               63a284c33c82033a96c07d4b98b4214763a284c33c82033a96c07d4b98b421476b
Reciphers for ciphertext: 0
Decipheredtext:           0000000000000000000000000000000000
RESULT CIPHER-DECIPHER: -----OK-----


Test: 90
Symmetric key bit length: 128
IV bit length:            128
Plaintext bit length:     136
Symmetric key:            5a5a5a5a5a5a5a5a5a5a5a5a5a5a5a5a
IV:                       00000000000000000000000000000000
Plaintext:                0000000000000000000000000000000000
Ciphertext:               c65fd7e9e83be0897d287d484ff66ffbc35f4bb23c2b57ae2c6ca175b5f04cf8b6
Reciphers for ciphertext: 2
Decipheredtext:           0000000000000000000000000000000000
RESULT CIPHER-DECIPHER: -----OK-----


Test: 91
Symmetric key bit length: 128
IV bit length:            128
Plaintext bit length:     136
Symmetric key:            5b5b5b5b5b5b5b5b5b5b5b5b5b5b5b5b
IV:                       00000000000000000000000000000000
Plaintext:                0000000000000000000000000000000000
Ciphertext:               192f249782b5e8d24615bef0857a62e4192f249782b5e8d24615bef0857a62e4f5
Reciphers for ciphertext: 0
Decipheredtext:           0000000000000000000000000000000000
RESULT CIPHER-DECIPHER: -----OK-----


Test: 92
Symmetric key bit length: 128
IV bit length:            128
Plaintext bit length:     136
Symmetric key:            5c5c5c5c5c5c5c5c5c5c5c5c5c5c5c5c
IV:                       00000000000000000000000000000000
Plaintext:                0000000000000000000000000000000000
Ciphertext:               4bf92e0eb207732c058a41bf2d4817cf4bf92e0eb207732c058a41bf2d4817cf7e
Reciphers for ciphertext: 0
Decipheredtext:           0000000000000000000000000000000000
RESULT CIPHER-DECIPHER: -----OK-----


Test: 93
Symmetric key bit length: 128
IV bit length:            128
Plaintext bit length:     136
Symmetric key:            5d5d5d5d5d5d5d5d5d5d5d5d5d5d5d5d
IV:                       00000000000000000000000000000000
Plaintext:                0000000000000000000000000000000000
Ciphertext:               69b252ab18db9bc1ea1d69e2d8d8b51c69b252ab18db9bc1ea1d69e2d8d8b51c2f
Reciphers for ciphertext: 0
Decipheredtext:           0000000000000000000000000000000000
RESULT CIPHER-DECIPHER: -----OK-----


Test: 94
Symmetric key bit length: 128
IV bit length:            128
Plaintext bit length:     136
Symmetric key:            5e5e5e5e5e5e5e5e5e5e5e5e5e5e5e5e
IV:                       00000000000000000000000000000000
Plaintext:                0000000000000000000000000000000000
Ciphertext:               cd46b5bb8bfa0978159e85d1076e5e20cd46b5bb8bfa0978159e85d1076e5e200d
Reciphers for ciphertext: 0
Decipheredtext:           0000000000000000000000000000000000
RESULT CIPHER-DECIPHER: -----OK-----


Test: 95
Symmetric key bit length: 128
IV bit length:            128
Plaintext bit length:     136
Symmetric key:            5f5f5f5f5f5f5f5f5f5f5f5f5f5f5f5f
IV:                       00000000000000000000000000000000
Plaintext:                0000000000000000000000000000000000
Ciphertext:               b6d5e54934ca07cba6d4b8a9843c3d86b6d5e54934ca07cba6d4b8a9843c3d86da
Reciphers for ciphertext: 0
Decipheredtext:           0000000000000000000000000000000000
RESULT CIPHER-DECIPHER: -----OK-----


Test: 96
Symmetric key bit length: 128
IV bit length:            128
Plaintext bit length:     136
Symmetric key:            60606060606060606060606060606060
IV:                       00000000000000000000000000000000
Plaintext:                0000000000000000000000000000000000
Ciphertext:               148fd7173464e6327cbcf1f6a8e11c20148fd7173464e6327cbcf1f6a8e11c2098
Reciphers for ciphertext: 0
Decipheredtext:           0000000000000000000000000000000000
RESULT CIPHER-DECIPHER: -----OK-----


Test: 97
Symmetric key bit length: 128
IV bit length:            128
Plaintext bit length:     136
Symmetric key:            61616161616161616161616161616161
IV:                       00000000000000000000000000000000
Plaintext:                0000000000000000000000000000000000
Ciphertext:               ba499ac1aaddd8c8d7653682be87cceaba499ac1aaddd8c8d7653682be87cceaa9
Reciphers for ciphertext: 0
Decipheredtext:           0000000000000000000000000000000000
RESULT CIPHER-DECIPHER: -----OK-----


Test: 98
Symmetric key bit length: 128
IV bit length:            128
Plaintext bit length:     136
Symmetric key:            62626262626262626262626262626262
IV:                       00000000000000000000000000000000
Plaintext:                0000000000000000000000000000000000
Ciphertext:               25c018e7d951bd2fe6599921823d806225c018e7d951bd2fe6599921823d80627e
Reciphers for ciphertext: 0
Decipheredtext:           0000000000000000000000000000000000
RESULT CIPHER-DECIPHER: -----OK-----


Test: 99
Symmetric key bit length: 128
IV bit length:            128
Plaintext bit length:     136
Symmetric key:            63636363636363636363636363636363
IV:                       00000000000000000000000000000000
Plaintext:                0000000000000000000000000000000000
Ciphertext:               f23afdb76a2ca4366e15dc8f44c6bdcff23afdb76a2ca4366e15dc8f44c6bdcf2e
Reciphers for ciphertext: 0
Decipheredtext:           0000000000000000000000000000000000
RESULT CIPHER-DECIPHER: -----OK-----


Test: 100
Symmetric key bit length: 128
IV bit length:            128
Plaintext bit length:     136
Symmetric key:            64646464646464646464646464646464
IV:                       00000000000000000000000000000000
Plaintext:                0000000000000000000000000000000000
Ciphertext:               d33f5d82c4c0576ecf64f0c1810434c0d33f5d82c4c0576ecf64f0c1810434c096
Reciphers for ciphertext: 0
Decipheredtext:           0000000000000000000000000000000000
RESULT CIPHER-DECIPHER: -----OK-----


Test: 101
Symmetric key bit length: 128
IV bit length:            128
Plaintext bit length:     136
Symmetric key:            65656565656565656565656565656565
IV:                       00000000000000000000000000000000
Plaintext:                0000000000000000000000000000000000
Ciphertext:               eeb06655867b94b95ccece599432d5abeeb06655867b94b95ccece599432d5ab63
Reciphers for ciphertext: 0
Decipheredtext:           0000000000000000000000000000000000
RESULT CIPHER-DECIPHER: -----OK-----


Test: 102
Symmetric key bit length: 128
IV bit length:            128
Plaintext bit length:     136
Symmetric key:            66666666666666666666666666666666
IV:                       00000000000000000000000000000000
Plaintext:                0000000000000000000000000000000000
Ciphertext:               e8964a81e3db7e439658d28ba055005ee8964a81e3db7e439658d28ba055005e74
Reciphers for ciphertext: 0
Decipheredtext:           0000000000000000000000000000000000
RESULT CIPHER-DECIPHER: -----OK-----


Test: 103
Symmetric key bit length: 128
IV bit length:            128
Plaintext bit length:     136
Symmetric key:            67676767676767676767676767676767
IV:                       00000000000000000000000000000000
Plaintext:                0000000000000000000000000000000000
Ciphertext:               d624dc42994a4ae84d5f45d107cb18c0d624dc42994a4ae84d5f45d107cb18c05a
Reciphers for ciphertext: 0
Decipheredtext:           0000000000000000000000000000000000
RESULT CIPHER-DECIPHER: -----OK-----


Test: 104
Symmetric key bit length: 128
IV bit length:            128
Plaintext bit length:     136
Symmetric key:            68686868686868686868686868686868
IV:                       00000000000000000000000000000000
Plaintext:                0000000000000000000000000000000000
Ciphertext:               e66d902feda46ed8081f16fe5d4e2ed4e66d902feda46ed8081f16fe5d4e2ed444
Reciphers for ciphertext: 0
Decipheredtext:           0000000000000000000000000000000000
RESULT CIPHER-DECIPHER: -----OK-----


Test: 105
Symmetric key bit length: 128
IV bit length:            128
Plaintext bit length:     136
Symmetric key:            69696969696969696969696969696969
IV:                       00000000000000000000000000000000
Plaintext:                0000000000000000000000000000000000
Ciphertext:               a419b0b6d09b6cfc0e19d2a6f7333638a419b0b6d09b6cfc0e19d2a6f73336381a
Reciphers for ciphertext: 0
Decipheredtext:           0000000000000000000000000000000000
RESULT CIPHER-DECIPHER: -----OK-----


Test: 106
Symmetric key bit length: 128
IV bit length:            128
Plaintext bit length:     136
Symmetric key:            6a6a6a6a6a6a6a6a6a6a6a6a6a6a6a6a
IV:                       00000000000000000000000000000000
Plaintext:                0000000000000000000000000000000000
Ciphertext:               af44cc936edc077343a11bd7ea3ad361af44cc936edc077343a11bd7ea3ad36144
Reciphers for ciphertext: 0
Decipheredtext:           0000000000000000000000000000000000
RESULT CIPHER-DECIPHER: -----OK-----


Test: 107
Symmetric key bit length: 128
IV bit length:            128
Plaintext bit length:     136
Symmetric key:            6b6b6b6b6b6b6b6b6b6b6b6b6b6b6b6b
IV:                       00000000000000000000000000000000
Plaintext:                0000000000000000000000000000000000
Ciphertext:               88db114cd028e087eb1ba646435c264388db114cd028e087eb1ba646435c264347
Reciphers for ciphertext: 0
Decipheredtext:           0000000000000000000000000000000000
RESULT CIPHER-DECIPHER: -----OK-----


Test: 108
Symmetric key bit length: 128
IV bit length:            128
Plaintext bit length:     136
Symmetric key:            6c6c6c6c6c6c6c6c6c6c6c6c6c6c6c6c
IV:                       00000000000000000000000000000000
Plaintext:                0000000000000000000000000000000000
Ciphertext:               e3c03818d4906151404890de2d5b160a8b52775cff0d81189fd3bd57bd0d45496c
Reciphers for ciphertext: 1
Decipheredtext:           0000000000000000000000000000000000
RESULT CIPHER-DECIPHER: -----OK-----


Test: 109
Symmetric key bit length: 128
IV bit length:            128
Plaintext bit length:     136
Symmetric key:            6d6d6d6d6d6d6d6d6d6d6d6d6d6d6d6d
IV:                       00000000000000000000000000000000
Plaintext:                0000000000000000000000000000000000
Ciphertext:               4181d169cd10d2201f9e8e9e7841f5434181d169cd10d2201f9e8e9e7841f543c7
Reciphers for ciphertext: 0
Decipheredtext:           0000000000000000000000000000000000
RESULT CIPHER-DECIPHER: -----OK-----


Test: 110
Symmetric key bit length: 128
IV bit length:            128
Plaintext bit length:     136
Symmetric key:            6e6e6e6e6e6e6e6e6e6e6e6e6e6e6e6e
IV:                       00000000000000000000000000000000
Plaintext:                0000000000000000000000000000000000
Ciphertext:               5fc0d13439f33e07eb896ff96e26ff8c5fc0d13439f33e07eb896ff96e26ff8cc7
Reciphers for ciphertext: 0
Decipheredtext:           0000000000000000000000000000000000
RESULT CIPHER-DECIPHER: -----OK-----


Test: 111
Symmetric key bit length: 128
IV bit length:            128
Plaintext bit length:     136
Symmetric key:            6f6f6f6f6f6f6f6f6f6f6f6f6f6f6f6f
IV:                       00000000000000000000000000000000
Plaintext:                0000000000000000000000000000000000
Ciphertext:               e8c8d6be0e1b965293a2e915ee470e36e8c8d6be0e1b965293a2e915ee470e36f1
Reciphers for ciphertext: 0
Decipheredtext:           0000000000000000000000000000000000
RESULT CIPHER-DECIPHER: -----OK-----


Test: 112
Symmetric key bit length: 128
IV bit length:            128
Plaintext bit length:     136
Symmetric key:            70707070707070707070707070707070
IV:                       00000000000000000000000000000000
Plaintext:                0000000000000000000000000000000000
Ciphertext:               26b204f26aee9376d7ff482eaea0c16726b204f26aee9376d7ff482eaea0c167f0
Reciphers for ciphertext: 0
Decipheredtext:           0000000000000000000000000000000000
RESULT CIPHER-DECIPHER: -----OK-----


Test: 113
Symmetric key bit length: 128
IV bit length:            128
Plaintext bit length:     136
Symmetric key:            71717171717171717171717171717171
IV:                       00000000000000000000000000000000
Plaintext:                0000000000000000000000000000000000
Ciphertext:               0d62fb540295c3e0d1d051d3a271f1580d62fb540295c3e0d1d051d3a271f15853
Reciphers for ciphertext: 0
Decipheredtext:           0000000000000000000000000000000000
RESULT CIPHER-DECIPHER: -----OK-----


Test: 114
Symmetric key bit length: 128
IV bit length:            128
Plaintext bit length:     136
Symmetric key:            72727272727272727272727272727272
IV:                       00000000000000000000000000000000
Plaintext:                0000000000000000000000000000000000
Ciphertext:               2236f222672d60aee5d7e955e6f0aa522236f222672d60aee5d7e955e6f0aa52d7
Reciphers for ciphertext: 0
Decipheredtext:           0000000000000000000000000000000000
RESULT CIPHER-DECIPHER: -----OK-----


Test: 115
Symmetric key bit length: 128
IV bit length:            128
Plaintext bit length:     136
Symmetric key:            73737373737373737373737373737373
IV:                       00000000000000000000000000000000
Plaintext:                0000000000000000000000000000000000
Ciphertext:               4bdd9faefada004c4dfc79a43b4c0cb14bdd9faefada004c4dfc79a43b4c0cb190
Reciphers for ciphertext: 0
Decipheredtext:           0000000000000000000000000000000000
RESULT CIPHER-DECIPHER: -----OK-----


Test: 116
Symmetric key bit length: 128
IV bit length:            128
Plaintext bit length:     136
Symmetric key:            74747474747474747474747474747474
IV:                       00000000000000000000000000000000
Plaintext:                0000000000000000000000000000000000
Ciphertext:               59e19566fcf2b9b694a3d57a51d3c47a59e19566fcf2b9b694a3d57a51d3c47a8d
Reciphers for ciphertext: 0
Decipheredtext:           0000000000000000000000000000000000
RESULT CIPHER-DECIPHER: -----OK-----


Test: 117
Symmetric key bit length: 128
IV bit length:            128
Plaintext bit length:     136
Symmetric key:            75757575757575757575757575757575
IV:                       00000000000000000000000000000000
Plaintext:                0000000000000000000000000000000000
Ciphertext:               e5a05e37349ba8b6e446c181d58d3cc4e5a05e37349ba8b6e446c181d58d3cc4a7
Reciphers for ciphertext: 0
Decipheredtext:           0000000000000000000000000000000000
RESULT CIPHER-DECIPHER: -----OK-----


Test: 118
Symmetric key bit length: 128
IV bit length:            128
Plaintext bit length:     136
Symmetric key:            76767676767676767676767676767676
IV:                       00000000000000000000000000000000
Plaintext:                0000000000000000000000000000000000
Ciphertext:               cba852713d0e058a63b9402684d4dc1acba852713d0e058a63b9402684d4dc1a96
Reciphers for ciphertext: 0
Decipheredtext:           0000000000000000000000000000000000
RESULT CIPHER-DECIPHER: -----OK-----


Test: 119
Symmetric key bit length: 128
IV bit length:            128
Plaintext bit length:     136
Symmetric key:            77777777777777777777777777777777
IV:                       00000000000000000000000000000000
Plaintext:                0000000000000000000000000000000000
Ciphertext:               002f8a9018ab8d539afc240fd6657d65002f8a9018ab8d539afc240fd6657d659c
Reciphers for ciphertext: 0
Decipheredtext:           0000000000000000000000000000000000
RESULT CIPHER-DECIPHER: -----OK-----


Test: 120
Symmetric key bit length: 128
IV bit length:            128
Plaintext bit length:     136
Symmetric key:            78787878787878787878787878787878
IV:                       00000000000000000000000000000000
Plaintext:                0000000000000000000000000000000000
Ciphertext:               7953cef6ae3c2143387f6b09ad2e80fe7953cef6ae3c2143387f6b09ad2e80fe2f
Reciphers for ciphertext: 0
Decipheredtext:           0000000000000000000000000000000000
RESULT CIPHER-DECIPHER: -----OK-----


Test: 121
Symmetric key bit length: 128
IV bit length:            128
Plaintext bit length:     136
Symmetric key:            79797979797979797979797979797979
IV:                       00000000000000000000000000000000
Plaintext:                0000000000000000000000000000000000
Ciphertext:               340f060226dc1e71f356d21e67572619340f060226dc1e71f356d21e6757261900
Reciphers for ciphertext: 0
Decipheredtext:           0000000000000000000000000000000000
RESULT CIPHER-DECIPHER: -----OK-----


Test: 122
Symmetric key bit length: 128
IV bit length:            128
Plaintext bit length:     136
Symmetric key:            7a7a7a7a7a7a7a7a7a7a7a7a7a7a7a7a
IV:                       00000000000000000000000000000000
Plaintext:                0000000000000000000000000000000000
Ciphertext:               224e6b8530ec5ca6e09156f1012d3eca224e6b8530ec5ca6e09156f1012d3ecade
Reciphers for ciphertext: 0
Decipheredtext:           0000000000000000000000000000000000
RESULT CIPHER-DECIPHER: -----OK-----


Test: 123
Symmetric key bit length: 128
IV bit length:            128
Plaintext bit length:     136
Symmetric key:            7b7b7b7b7b7b7b7b7b7b7b7b7b7b7b7b
IV:                       00000000000000000000000000000000
Plaintext:                0000000000000000000000000000000000
Ciphertext:               e6bb5cb12ce6e487bb3098bb33e6f38cc6efbb96875f5b0e6cb93b2c4a6a09177a
Reciphers for ciphertext: 1
Decipheredtext:           0000000000000000000000000000000000
RESULT CIPHER-DECIPHER: -----OK-----


Test: 124
Symmetric key bit length: 128
IV bit length:            128
Plaintext bit length:     136
Symmetric key:            7c7c7c7c7c7c7c7c7c7c7c7c7c7c7c7c
IV:                       00000000000000000000000000000000
Plaintext:                0000000000000000000000000000000000
Ciphertext:               9213fc3e997a5115c7018beaf7ed27289213fc3e997a5115c7018beaf7ed272841
Reciphers for ciphertext: 0
Decipheredtext:           0000000000000000000000000000000000
RESULT CIPHER-DECIPHER: -----OK-----


Test: 125
Symmetric key bit length: 128
IV bit length:            128
Plaintext bit length:     136
Symmetric key:            7d7d7d7d7d7d7d7d7d7d7d7d7d7d7d7d
IV:                       00000000000000000000000000000000
Plaintext:                0000000000000000000000000000000000
Ciphertext:               95e2061b0767794aec8947d232ae77fc95e2061b0767794aec8947d232ae77fc72
Reciphers for ciphertext: 0
Decipheredtext:           0000000000000000000000000000000000
RESULT CIPHER-DECIPHER: -----OK-----


Test: 126
Symmetric key bit length: 128
IV bit length:            128
Plaintext bit length:     136
Symmetric key:            7e7e7e7e7e7e7e7e7e7e7e7e7e7e7e7e
IV:                       00000000000000000000000000000000
Plaintext:                0000000000000000000000000000000000
Ciphertext:               942f8d03dea62e012608ed114de3c572942f8d03dea62e012608ed114de3c57216
Reciphers for ciphertext: 0
Decipheredtext:           0000000000000000000000000000000000
RESULT CIPHER-DECIPHER: -----OK-----


Test: 127
Symmetric key bit length: 128
IV bit length:            128
Plaintext bit length:     136
Symmetric key:            7f7f7f7f7f7f7f7f7f7f7f7f7f7f7f7f
IV:                       00000000000000000000000000000000
Plaintext:                0000000000000000000000000000000000
Ciphertext:               af415bcac23498401bbccd0c506fc7e0af415bcac23498401bbccd0c506fc7e0aa
Reciphers for ciphertext: 0
Decipheredtext:           0000000000000000000000000000000000
RESULT CIPHER-DECIPHER: -----OK-----


 DATA SHA1 (hexadecimal): cb2c7aeab43cff4e635b230f1e48b03571d082ea

