
DiceLock 9.0.0.1

 TEST COMPONENTS:
 ----------------
 DiceLock:           DiceLockIVIndexed class
 Operation Mode:     CBC_Mode class
 Crypto pads:        0 - ANSI_X_923 class
                     1 - ISO_IEC_9797_1 class
                     2 - PKCS7 class
 Block Cipher:       Camellia256 class
 Key Modifier:       IncreaseBase0IndexModifier_6_0_0_1 class
   Index bit length: 256
 Random tests:       RandomTestSuite class
                     FrequencyTest class
                     BlockFrequencyTest class
                     CumulativeSumForwardTest class
                     LongestRunOfOnesTest class
                     RunsTest class
 Random alpha:       0.001

 VECTOR TEST: Test vector 0 - Changing symmetric key, shifting 1 bit set


##### INDIVIDUAL TESTS #####

Number tests: 128


Test: 0
Crypto pad: 0
Symmetric key bit length: 256
IV bit length:            128
Plaintext bit length:     136
Symmetric key:            0000000000000000000000000000000080000000000000000000000000000000
IV:                       00000000000000000000000000000000
Plaintext:                0000000000000000000000000000000000
Ciphertext:               49191e1fc277c01aa57b49940a5418cfa3991bdf420ae35e4faf2240a22fca954800869b1d0c081c71caad53e77ed84145b61539fe311adc0335f83cdc8be099bb418e2324ff15a10447e291edea459a
Reciphers for ciphertext: 1
Decipheredtext:           0000000000000000000000000000000000
RESULT CIPHER-DECIPHER: -----OK-----


Test: 1
Crypto pad: 0
Symmetric key bit length: 256
IV bit length:            128
Plaintext bit length:     136
Symmetric key:            0000000000000000000000000000000040000000000000000000000000000000
IV:                       00000000000000000000000000000000
Plaintext:                0000000000000000000000000000000000
Ciphertext:               182a96cc3bf10035b9db292d1399f993b7e7e0b4e50acfc50bc83acd859d5fbe3560aa30a9d75c364d1abc99885eab74182a96cc3bf10035b9db292d1399f993f34e9fd6bba18f6c5d73fa0daec8a131
Reciphers for ciphertext: 0
Decipheredtext:           0000000000000000000000000000000000
RESULT CIPHER-DECIPHER: -----OK-----


Test: 2
Crypto pad: 2
Symmetric key bit length: 256
IV bit length:            128
Plaintext bit length:     136
Symmetric key:            0000000000000000000000000000000020000000000000000000000000000000
IV:                       00000000000000000000000000000000
Plaintext:                0000000000000000000000000000000000
Ciphertext:               91e0e6991989d1fc4cbd754e4e7d0590b3360207009c9786a419aae07714fb0a228f6ee5f9f3c1b89dd0022fed848cad91e0e6991989d1fc4cbd754e4e7d0590158ab6a4ff2eb48968e7596412ebe6fc
Reciphers for ciphertext: 0
Decipheredtext:           0000000000000000000000000000000000
RESULT CIPHER-DECIPHER: -----OK-----


Test: 3
Crypto pad: 0
Symmetric key bit length: 256
IV bit length:            128
Plaintext bit length:     136
Symmetric key:            0000000000000000000000000000000010000000000000000000000000000000
IV:                       00000000000000000000000000000000
Plaintext:                0000000000000000000000000000000000
Ciphertext:               f3efc4e6f207e370c8cae39408c4bf1b6f596e06ecea129809f55a14a93a8d5e222b5f2f361dfa30c1ad55f81b17d1eff3efc4e6f207e370c8cae39408c4bf1bdce5bfb943a4eb1cf3629f4eb485b3db
Reciphers for ciphertext: 0
Decipheredtext:           0000000000000000000000000000000000
RESULT CIPHER-DECIPHER: -----OK-----


Test: 4
Crypto pad: 2
Symmetric key bit length: 256
IV bit length:            128
Plaintext bit length:     136
Symmetric key:            0000000000000000000000000000000008000000000000000000000000000000
IV:                       00000000000000000000000000000000
Plaintext:                0000000000000000000000000000000000
Ciphertext:               aa767ab2ec6fa2fa183daf9c0f3bae5ea6ad08459bf2a80dc5935e4ae4fa95537226ee13b807a5eaae6529ea696de36faa767ab2ec6fa2fa183daf9c0f3bae5ef6d750541e3f5f374ab9aba2b588f8b1
Reciphers for ciphertext: 0
Decipheredtext:           0000000000000000000000000000000000
RESULT CIPHER-DECIPHER: -----OK-----


Test: 5
Crypto pad: 0
Symmetric key bit length: 256
IV bit length:            128
Plaintext bit length:     136
Symmetric key:            0000000000000000000000000000000004000000000000000000000000000000
IV:                       00000000000000000000000000000000
Plaintext:                0000000000000000000000000000000000
Ciphertext:               d1ff11f4d1aeeaae01a115081af886ef2a9f8c53c9eeea9532f30c597c4c5754c4b187d37a2f7b3516a7b4dfee890975d1ff11f4d1aeeaae01a115081af886efd312256d65a40aca93e00e767b49f2cf
Reciphers for ciphertext: 0
Decipheredtext:           0000000000000000000000000000000000
RESULT CIPHER-DECIPHER: -----OK-----


Test: 6
Crypto pad: 0
Symmetric key bit length: 256
IV bit length:            128
Plaintext bit length:     136
Symmetric key:            0000000000000000000000000000000002000000000000000000000000000000
IV:                       00000000000000000000000000000000
Plaintext:                0000000000000000000000000000000000
Ciphertext:               5390139711090b56b28338fea98fcc829d299766be50930075e24717c116ff1a311c39b9bea0df536208046d60c5bddc5390139711090b56b28338fea98fcc829211ba6b2a7f038780bc302f7f9544ac
Reciphers for ciphertext: 0
Decipheredtext:           0000000000000000000000000000000000
RESULT CIPHER-DECIPHER: -----OK-----


Test: 7
Crypto pad: 2
Symmetric key bit length: 256
IV bit length:            128
Plaintext bit length:     136
Symmetric key:            0000000000000000000000000000000001000000000000000000000000000000
IV:                       00000000000000000000000000000000
Plaintext:                0000000000000000000000000000000000
Ciphertext:               13e693ccf6ebf0e6061b92b7ed0b95b6e63889bd14710fc2d370cc57c7abc25e3ff4086c8eb6e74f11e27f9d30b980d613e693ccf6ebf0e6061b92b7ed0b95b69f014b7d671b8089e30081c7a754bd4e
Reciphers for ciphertext: 0
Decipheredtext:           0000000000000000000000000000000000
RESULT CIPHER-DECIPHER: -----OK-----


Test: 8
Crypto pad: 2
Symmetric key bit length: 256
IV bit length:            128
Plaintext bit length:     136
Symmetric key:            0000000000000000000000000000000000800000000000000000000000000000
IV:                       00000000000000000000000000000000
Plaintext:                0000000000000000000000000000000000
Ciphertext:               588fb2f95861d3c427669c68d04adb252bdf1180c306e756ee957ec01c8c558f447efdb6b190e1e349c3b745ac85a3e5588fb2f95861d3c427669c68d04adb2563a7792e13e61ca755a4412068355e0c
Reciphers for ciphertext: 0
Decipheredtext:           0000000000000000000000000000000000
RESULT CIPHER-DECIPHER: -----OK-----


Test: 9
Crypto pad: 1
Symmetric key bit length: 256
IV bit length:            128
Plaintext bit length:     136
Symmetric key:            0000000000000000000000000000000000400000000000000000000000000000
IV:                       00000000000000000000000000000000
Plaintext:                0000000000000000000000000000000000
Ciphertext:               f472ecdf8debc416313aaf7c8aafb43e89d7786735d88408ec5195053c8486214c90fbf5fd7c6baf1a22a00afcdf3acdf472ecdf8debc416313aaf7c8aafb43e49c554a7522fd289009353ebf4879184
Reciphers for ciphertext: 0
Decipheredtext:           0000000000000000000000000000000000
RESULT CIPHER-DECIPHER: -----OK-----


Test: 10
Crypto pad: 1
Symmetric key bit length: 256
IV bit length:            128
Plaintext bit length:     136
Symmetric key:            0000000000000000000000000000000000200000000000000000000000000000
IV:                       00000000000000000000000000000000
Plaintext:                0000000000000000000000000000000000
Ciphertext:               eaa654be38e857941a921c70ac7fc7ce568fe0bf7f978b51f469ac118fb8ec5f098afc80e124c32034900bc5cfe39699eaa654be38e857941a921c70ac7fc7ce878eca0518d9bf28582c484a72f8e888
Reciphers for ciphertext: 0
Decipheredtext:           0000000000000000000000000000000000
RESULT CIPHER-DECIPHER: -----OK-----


Test: 11
Crypto pad: 0
Symmetric key bit length: 256
IV bit length:            128
Plaintext bit length:     136
Symmetric key:            0000000000000000000000000000000000100000000000000000000000000000
IV:                       00000000000000000000000000000000
Plaintext:                0000000000000000000000000000000000
Ciphertext:               f2a4e47ae80cdf506b9513c510ea0954e372cdc6a20584cf24a87fc0beae8a5d5f3e270473365f6210de24d98267d792f2a4e47ae80cdf506b9513c510ea0954e9c4f5561f1ce56f617cd10a5ebecd00
Reciphers for ciphertext: 0
Decipheredtext:           0000000000000000000000000000000000
RESULT CIPHER-DECIPHER: -----OK-----


Test: 12
Crypto pad: 1
Symmetric key bit length: 256
IV bit length:            128
Plaintext bit length:     136
Symmetric key:            0000000000000000000000000000000000080000000000000000000000000000
IV:                       00000000000000000000000000000000
Plaintext:                0000000000000000000000000000000000
Ciphertext:               f08ec7ed8fbb99f175a990c3e4decb6b52b7a849ac30d3123fd90f4c293d34b96925591d672fb5ba55b65c027716ee4cf08ec7ed8fbb99f175a990c3e4decb6b2526f312662510148dc52379beb40013
Reciphers for ciphertext: 0
Decipheredtext:           0000000000000000000000000000000000
RESULT CIPHER-DECIPHER: -----OK-----


Test: 13
Crypto pad: 2
Symmetric key bit length: 256
IV bit length:            128
Plaintext bit length:     136
Symmetric key:            0000000000000000000000000000000000040000000000000000000000000000
IV:                       00000000000000000000000000000000
Plaintext:                0000000000000000000000000000000000
Ciphertext:               5c767bc584ca3653ede27cd8b209a0ad2bf688e6437aa7a5ec5138e309424c4046bab7ac2475996b75ec5ec59fa9a6345c767bc584ca3653ede27cd8b209a0adb2251483c7b4c4878260a64b17355042
Reciphers for ciphertext: 0
Decipheredtext:           0000000000000000000000000000000000
RESULT CIPHER-DECIPHER: -----OK-----


Test: 14
Crypto pad: 1
Symmetric key bit length: 256
IV bit length:            128
Plaintext bit length:     136
Symmetric key:            0000000000000000000000000000000000020000000000000000000000000000
IV:                       00000000000000000000000000000000
Plaintext:                0000000000000000000000000000000000
Ciphertext:               aff9a8ba92a40b2bf42fdb4089b1f9cc516edb093ee8eac5df018af5e6f825131f48f5b8f667d6faa15fb7195b359e2aaff9a8ba92a40b2bf42fdb4089b1f9cc79cfea7c792a4be833f79bcde97bf3fc
Reciphers for ciphertext: 0
Decipheredtext:           0000000000000000000000000000000000
RESULT CIPHER-DECIPHER: -----OK-----


Test: 15
Crypto pad: 1
Symmetric key bit length: 256
IV bit length:            128
Plaintext bit length:     136
Symmetric key:            0000000000000000000000000000000000010000000000000000000000000000
IV:                       00000000000000000000000000000000
Plaintext:                0000000000000000000000000000000000
Ciphertext:               bfc1e9198bbe22266712eb1ecb17d748ddc0680d43bed52e60c73b3bde5d1ea6fd527f0647901e1db54fcaf20eb3b64fbfc1e9198bbe22266712eb1ecb17d748d7ebed69b962f24ef125ea895890067b
Reciphers for ciphertext: 0
Decipheredtext:           0000000000000000000000000000000000
RESULT CIPHER-DECIPHER: -----OK-----


Test: 16
Crypto pad: 0
Symmetric key bit length: 256
IV bit length:            128
Plaintext bit length:     136
Symmetric key:            0000000000000000000000000000000000008000000000000000000000000000
IV:                       00000000000000000000000000000000
Plaintext:                0000000000000000000000000000000000
Ciphertext:               235184136a29208bd041e60bcb9f746429856041d10ff4b6db26869896de1c7404def3ac2c3b5f0c6d6e05f87931fe9a235184136a29208bd041e60bcb9f7464786e86d02409957fb293172b2d262f9f
Reciphers for ciphertext: 0
Decipheredtext:           0000000000000000000000000000000000
RESULT CIPHER-DECIPHER: -----OK-----


Test: 17
Crypto pad: 1
Symmetric key bit length: 256
IV bit length:            128
Plaintext bit length:     136
Symmetric key:            0000000000000000000000000000000000004000000000000000000000000000
IV:                       00000000000000000000000000000000
Plaintext:                0000000000000000000000000000000000
Ciphertext:               83dc48f9177c5c94cbc22e83a2b7682922e358f39b31071058c220d2415c73d5298eb4a5011c935de3251e96adf366bb83dc48f9177c5c94cbc22e83a2b76829543959cbd1e225754e3819fe14aa025f
Reciphers for ciphertext: 0
Decipheredtext:           0000000000000000000000000000000000
RESULT CIPHER-DECIPHER: -----OK-----


Test: 18
Crypto pad: 0
Symmetric key bit length: 256
IV bit length:            128
Plaintext bit length:     136
Symmetric key:            0000000000000000000000000000000000002000000000000000000000000000
IV:                       00000000000000000000000000000000
Plaintext:                0000000000000000000000000000000000
Ciphertext:               72cd31acb7a1a459e4d27c1f26039fa7d2cc54b41eb5610efef60401e5b17295456b86d6fe9b188123ca5efa4332fd3372cd31acb7a1a459e4d27c1f26039fa78649cd9bea392fb42de72bf4b5dbd1d5
Reciphers for ciphertext: 0
Decipheredtext:           0000000000000000000000000000000000
RESULT CIPHER-DECIPHER: -----OK-----


Test: 19
Crypto pad: 2
Symmetric key bit length: 256
IV bit length:            128
Plaintext bit length:     136
Symmetric key:            0000000000000000000000000000000000001000000000000000000000000000
IV:                       00000000000000000000000000000000
Plaintext:                0000000000000000000000000000000000
Ciphertext:               139ac4734c3136fd9982fcc7a569b9d3d99ee57b1b12311f7faa61a35942a602926d64457a85d14c71d89cc51dfbb7a5139ac4734c3136fd9982fcc7a569b9d398d73123852cff8a936b43ed190c3889
Reciphers for ciphertext: 0
Decipheredtext:           0000000000000000000000000000000000
RESULT CIPHER-DECIPHER: -----OK-----


Test: 20
Crypto pad: 0
Symmetric key bit length: 256
IV bit length:            128
Plaintext bit length:     136
Symmetric key:            0000000000000000000000000000000000000800000000000000000000000000
IV:                       00000000000000000000000000000000
Plaintext:                0000000000000000000000000000000000
Ciphertext:               12ffa3ef4346f4c57a03a36f9938b25123db34ef6f7907ac354da0a9532d8f55838598c59e5f2bc803cea468bed4948512ffa3ef4346f4c57a03a36f9938b2512023b47028621ed08e790a6ab48c700a
Reciphers for ciphertext: 0
Decipheredtext:           0000000000000000000000000000000000
RESULT CIPHER-DECIPHER: -----OK-----


Test: 21
Crypto pad: 2
Symmetric key bit length: 256
IV bit length:            128
Plaintext bit length:     136
Symmetric key:            0000000000000000000000000000000000000400000000000000000000000000
IV:                       00000000000000000000000000000000
Plaintext:                0000000000000000000000000000000000
Ciphertext:               43ddb100ce22e5553cf4dcf814bf3cac778e477c918546b4f2a5f390f198542d47b563749c63b1290c534dd3cf72263243ddb100ce22e5553cf4dcf814bf3cac3fb312c95d2ed5a1259744325c095dfa
Reciphers for ciphertext: 0
Decipheredtext:           0000000000000000000000000000000000
RESULT CIPHER-DECIPHER: -----OK-----


Test: 22
Crypto pad: 1
Symmetric key bit length: 256
IV bit length:            128
Plaintext bit length:     136
Symmetric key:            0000000000000000000000000000000000000200000000000000000000000000
IV:                       00000000000000000000000000000000
Plaintext:                0000000000000000000000000000000000
Ciphertext:               abdadf4c948bb61c0a917885ade4c7c5f39b84d0316bf36ce421c71ae416b5e19fe74b250963219ffa5338d62694d097abdadf4c948bb61c0a917885ade4c7c5a25e849321b02821ab0459b31e9c5524
Reciphers for ciphertext: 0
Decipheredtext:           0000000000000000000000000000000000
RESULT CIPHER-DECIPHER: -----OK-----


Test: 23
Crypto pad: 1
Symmetric key bit length: 256
IV bit length:            128
Plaintext bit length:     136
Symmetric key:            0000000000000000000000000000000000000100000000000000000000000000
IV:                       00000000000000000000000000000000
Plaintext:                0000000000000000000000000000000000
Ciphertext:               197391e089de173b522ddd8cbeec311868750aae555de57b2eed04e25b9ca6ab0743e8ebc5d7d70f9a3ac3e6307f18c7197391e089de173b522ddd8cbeec3118fa622c9186b21caa15ccb6f6f2bf4b28
Reciphers for ciphertext: 0
Decipheredtext:           0000000000000000000000000000000000
RESULT CIPHER-DECIPHER: -----OK-----


Test: 24
Crypto pad: 0
Symmetric key bit length: 256
IV bit length:            128
Plaintext bit length:     136
Symmetric key:            0000000000000000000000000000000000000080000000000000000000000000
IV:                       00000000000000000000000000000000
Plaintext:                0000000000000000000000000000000000
Ciphertext:               43fbe8bf2728c55c9368d01e40c1cf96bf02ca138189326fbfcb37195d4d575a9a8b39a966b653763c09621249356cda43fbe8bf2728c55c9368d01e40c1cf9641621c4d7958a8000b9772b7f2d2d4ce
Reciphers for ciphertext: 0
Decipheredtext:           0000000000000000000000000000000000
RESULT CIPHER-DECIPHER: -----OK-----


Test: 25
Crypto pad: 2
Symmetric key bit length: 256
IV bit length:            128
Plaintext bit length:     136
Symmetric key:            0000000000000000000000000000000000000040000000000000000000000000
IV:                       00000000000000000000000000000000
Plaintext:                0000000000000000000000000000000000
Ciphertext:               0f5de5f67ec84f2cb253a0bc48991c71b4a74a429b652399b9b3a868bcff18c554626ac167a6b972535cab99551aea710f5de5f67ec84f2cb253a0bc48991c717471f3cafea1ab69bf9b86f1d4c0b2e6
Reciphers for ciphertext: 0
Decipheredtext:           0000000000000000000000000000000000
RESULT CIPHER-DECIPHER: -----OK-----


Test: 26
Crypto pad: 1
Symmetric key bit length: 256
IV bit length:            128
Plaintext bit length:     136
Symmetric key:            0000000000000000000000000000000000000020000000000000000000000000
IV:                       00000000000000000000000000000000
Plaintext:                0000000000000000000000000000000000
Ciphertext:               52ba4666b972eae3d2e960d7372d3c487fb4fa593a6d6c95083c93ee3ccdc6f2b7a36acdcad0e718e4d001014e82dfa252ba4666b972eae3d2e960d7372d3c481b9df9d5cee2e5b1e97543c54de50b84
Reciphers for ciphertext: 0
Decipheredtext:           0000000000000000000000000000000000
RESULT CIPHER-DECIPHER: -----OK-----


Test: 27
Crypto pad: 1
Symmetric key bit length: 256
IV bit length:            128
Plaintext bit length:     136
Symmetric key:            0000000000000000000000000000000000000010000000000000000000000000
IV:                       00000000000000000000000000000000
Plaintext:                0000000000000000000000000000000000
Ciphertext:               0735ae765bc079a93b451d873fa9370269b9e6c9564dfd04ee5a30c4bf84e98fdaf38b08335166cb08aea71a5aca1b4a0735ae765bc079a93b451d873fa937029281f55f55c8bb2c45c59d7aba20c5b0
Reciphers for ciphertext: 0
Decipheredtext:           0000000000000000000000000000000000
RESULT CIPHER-DECIPHER: -----OK-----


Test: 28
Crypto pad: 1
Symmetric key bit length: 256
IV bit length:            128
Plaintext bit length:     136
Symmetric key:            0000000000000000000000000000000000000008000000000000000000000000
IV:                       00000000000000000000000000000000
Plaintext:                0000000000000000000000000000000000
Ciphertext:               89d988508a4569e2232f72412ae50b65a3ff1ec2a1eda827a0d659b293b80c8eb63b999662352a129b0166df0a5c28a289d988508a4569e2232f72412ae50b6529cb86333521f0b992a5607dfa63a897
Reciphers for ciphertext: 0
Decipheredtext:           0000000000000000000000000000000000
RESULT CIPHER-DECIPHER: -----OK-----


Test: 29
Crypto pad: 1
Symmetric key bit length: 256
IV bit length:            128
Plaintext bit length:     136
Symmetric key:            0000000000000000000000000000000000000004000000000000000000000000
IV:                       00000000000000000000000000000000
Plaintext:                0000000000000000000000000000000000
Ciphertext:               bcf0ee2403bc9344030c0ff065b6fd8883f77d976009962e4fe528e3548d7ae83a1ac3c07992bedf3d2f4423f0fcebe6bcf0ee2403bc9344030c0ff065b6fd88f16cefa12adc1f2364e04a0bd705c740
Reciphers for ciphertext: 0
Decipheredtext:           0000000000000000000000000000000000
RESULT CIPHER-DECIPHER: -----OK-----


Test: 30
Crypto pad: 2
Symmetric key bit length: 256
IV bit length:            128
Plaintext bit length:     136
Symmetric key:            0000000000000000000000000000000000000002000000000000000000000000
IV:                       00000000000000000000000000000000
Plaintext:                0000000000000000000000000000000000
Ciphertext:               25d76d36f3376d6fd835ba012c7dd2e51a8fc5b8c82eed9d6388f38b357f7e01c14d4987ad461d368089fa86230513ae25d76d36f3376d6fd835ba012c7dd2e57f8802a51b3ca10ea2d4db8833d8317a
Reciphers for ciphertext: 0
Decipheredtext:           0000000000000000000000000000000000
RESULT CIPHER-DECIPHER: -----OK-----


Test: 31
Crypto pad: 1
Symmetric key bit length: 256
IV bit length:            128
Plaintext bit length:     136
Symmetric key:            0000000000000000000000000000000000000001000000000000000000000000
IV:                       00000000000000000000000000000000
Plaintext:                0000000000000000000000000000000000
Ciphertext:               ef364a31e8551732d4b2098281d4e2c992e95400228f24b77365bd227f8b079a0bf66507962b9e21440ed04c147e2cd0ef364a31e8551732d4b2098281d4e2c979f3f6854f64e96df4981898e005f72f
Reciphers for ciphertext: 0
Decipheredtext:           0000000000000000000000000000000000
RESULT CIPHER-DECIPHER: -----OK-----


Test: 32
Crypto pad: 1
Symmetric key bit length: 256
IV bit length:            128
Plaintext bit length:     136
Symmetric key:            0000000000000000000000000000000000000000800000000000000000000000
IV:                       00000000000000000000000000000000
Plaintext:                0000000000000000000000000000000000
Ciphertext:               64b1f927c0a7315ea60bc5f2a0dccfe2ec5c4e860c711ded13e826cdab416e8f81b24ddfd3e28b36e666c375d6e94fc464b1f927c0a7315ea60bc5f2a0dccfe2a50fad9c682c7433b7d67d430a48dce4
Reciphers for ciphertext: 0
Decipheredtext:           0000000000000000000000000000000000
RESULT CIPHER-DECIPHER: -----OK-----


Test: 33
Crypto pad: 1
Symmetric key bit length: 256
IV bit length:            128
Plaintext bit length:     136
Symmetric key:            0000000000000000000000000000000000000000400000000000000000000000
IV:                       00000000000000000000000000000000
Plaintext:                0000000000000000000000000000000000
Ciphertext:               ca99e0edfa0e121f27659346bcdcc443c4ac48c8cf649a9162c38016218e4e86d427b053e0ce69bbb3569dda395a85d7ca99e0edfa0e121f27659346bcdcc4435420d7dbce4cbb4b1812355f0b5b5ad7
Reciphers for ciphertext: 0
Decipheredtext:           0000000000000000000000000000000000
RESULT CIPHER-DECIPHER: -----OK-----


Test: 34
Crypto pad: 0
Symmetric key bit length: 256
IV bit length:            128
Plaintext bit length:     136
Symmetric key:            0000000000000000000000000000000000000000200000000000000000000000
IV:                       00000000000000000000000000000000
Plaintext:                0000000000000000000000000000000000
Ciphertext:               1816d9d23d1069bc6dec195f60994c05d9f7a0f12614d7c1898f005e5f5d1dd242557986e6e4f26c272a3aa8552d95ea1816d9d23d1069bc6dec195f60994c0566a9cc32bc0879a7012cf2f41778ca95
Reciphers for ciphertext: 0
Decipheredtext:           0000000000000000000000000000000000
RESULT CIPHER-DECIPHER: -----OK-----


Test: 35
Crypto pad: 0
Symmetric key bit length: 256
IV bit length:            128
Plaintext bit length:     136
Symmetric key:            0000000000000000000000000000000000000000100000000000000000000000
IV:                       00000000000000000000000000000000
Plaintext:                0000000000000000000000000000000000
Ciphertext:               9819575f6890e093091378aed0612051e1fc4e1ab1b49a0f3b86ab270737afb2b0deb83eabe37f9f732c423ecd652f619819575f6890e093091378aed0612051a27624c8962e32a2e8b90ebbd31db07e
Reciphers for ciphertext: 0
Decipheredtext:           0000000000000000000000000000000000
RESULT CIPHER-DECIPHER: -----OK-----


Test: 36
Crypto pad: 1
Symmetric key bit length: 256
IV bit length:            128
Plaintext bit length:     136
Symmetric key:            0000000000000000000000000000000000000000080000000000000000000000
IV:                       00000000000000000000000000000000
Plaintext:                0000000000000000000000000000000000
Ciphertext:               41903de72a486b823842fba2840e265c851b41beda855694afc7d25c27fa87366378575560dd69d1855f5c9ab79214e841903de72a486b823842fba2840e265c7aa008d02b19892843399ec2742df6ff
Reciphers for ciphertext: 0
Decipheredtext:           0000000000000000000000000000000000
RESULT CIPHER-DECIPHER: -----OK-----


Test: 37
Crypto pad: 0
Symmetric key bit length: 256
IV bit length:            128
Plaintext bit length:     136
Symmetric key:            0000000000000000000000000000000000000000040000000000000000000000
IV:                       00000000000000000000000000000000
Plaintext:                0000000000000000000000000000000000
Ciphertext:               30651d416912a01edec4290d34b4a605a12b7c614ece85f8b9fd988a25a91702feba6798c7faaf8d9e1d530f5bf0cfae30651d416912a01edec4290d34b4a605bf167c5c66564eee2febe957134050ea
Reciphers for ciphertext: 0
Decipheredtext:           0000000000000000000000000000000000
RESULT CIPHER-DECIPHER: -----OK-----


Test: 38
Crypto pad: 2
Symmetric key bit length: 256
IV bit length:            128
Plaintext bit length:     136
Symmetric key:            0000000000000000000000000000000000000000020000000000000000000000
IV:                       00000000000000000000000000000000
Plaintext:                0000000000000000000000000000000000
Ciphertext:               0949ad8ab2e85995686d6d495aba1028f2e1e2c3c716dfd89c228edc1cd4380244f5a711fea7e46277dbb36a4f4c71530949ad8ab2e85995686d6d495aba10287adf2952f5b7d74f69ccbfeb9ed8f754
Reciphers for ciphertext: 0
Decipheredtext:           0000000000000000000000000000000000
RESULT CIPHER-DECIPHER: -----OK-----


Test: 39
Crypto pad: 1
Symmetric key bit length: 256
IV bit length:            128
Plaintext bit length:     136
Symmetric key:            0000000000000000000000000000000000000000010000000000000000000000
IV:                       00000000000000000000000000000000
Plaintext:                0000000000000000000000000000000000
Ciphertext:               3789c2d08e122be204662fe9a0fdf77a53617ee3d273156e617297c85a631066f79e110e2fa429ea1d92d8914e8759df3789c2d08e122be204662fe9a0fdf77a536ec3b72413e15a2a6ce461325f5534
Reciphers for ciphertext: 0
Decipheredtext:           0000000000000000000000000000000000
RESULT CIPHER-DECIPHER: -----OK-----


Test: 40
Crypto pad: 1
Symmetric key bit length: 256
IV bit length:            128
Plaintext bit length:     136
Symmetric key:            0000000000000000000000000000000000000000008000000000000000000000
IV:                       00000000000000000000000000000000
Plaintext:                0000000000000000000000000000000000
Ciphertext:               a0c66ee031ff045123475e6f5fa64f57922922eeed89b0aa02ec898118c2f1fafbab2dfdb287b2ec205d95b683603536a0c66ee031ff045123475e6f5fa64f57478c616ce376a65e6e0896d98ab00794
Reciphers for ciphertext: 0
Decipheredtext:           0000000000000000000000000000000000
RESULT CIPHER-DECIPHER: -----OK-----


Test: 41
Crypto pad: 2
Symmetric key bit length: 256
IV bit length:            128
Plaintext bit length:     136
Symmetric key:            0000000000000000000000000000000000000000004000000000000000000000
IV:                       00000000000000000000000000000000
Plaintext:                0000000000000000000000000000000000
Ciphertext:               1baccdd314af39124709013c94cad1ac1596b8cd28950d3e863c780abf27c00fea90cef34ccdc8eacc8b24d36a9ff9ca1baccdd314af39124709013c94cad1ac275c1a23a61ba4693687ce7417d6ec9a
Reciphers for ciphertext: 0
Decipheredtext:           0000000000000000000000000000000000
RESULT CIPHER-DECIPHER: -----OK-----


Test: 42
Crypto pad: 1
Symmetric key bit length: 256
IV bit length:            128
Plaintext bit length:     136
Symmetric key:            0000000000000000000000000000000000000000002000000000000000000000
IV:                       00000000000000000000000000000000
Plaintext:                0000000000000000000000000000000000
Ciphertext:               2fb5df5527a8e06aed03d683edf14e9aabd76753dd1ea4bbe9f983e84d431dc42af4777f43252eacfc233c3440d727a42fb5df5527a8e06aed03d683edf14e9a824ed3ec2c686b30869c95a8bb93e8d7
Reciphers for ciphertext: 0
Decipheredtext:           0000000000000000000000000000000000
RESULT CIPHER-DECIPHER: -----OK-----


Test: 43
Crypto pad: 2
Symmetric key bit length: 256
IV bit length:            128
Plaintext bit length:     136
Symmetric key:            0000000000000000000000000000000000000000001000000000000000000000
IV:                       00000000000000000000000000000000
Plaintext:                0000000000000000000000000000000000
Ciphertext:               ff2c61ad63cda6207605c18c888b383d2d6e21ce28d503fb54f8770fa4fc2eb76d37f222daeb1fd3515663a50a1b310eff2c61ad63cda6207605c18c888b383de3f85bf5a4e86cb5cde3ae7ea041a670
Reciphers for ciphertext: 0
Decipheredtext:           0000000000000000000000000000000000
RESULT CIPHER-DECIPHER: -----OK-----


Test: 44
Crypto pad: 2
Symmetric key bit length: 256
IV bit length:            128
Plaintext bit length:     136
Symmetric key:            0000000000000000000000000000000000000000000800000000000000000000
IV:                       00000000000000000000000000000000
Plaintext:                0000000000000000000000000000000000
Ciphertext:               71ce4a5b48671ab9a6561b7109fb8345c708cf0723b0a823faec8a69f0680097e71a333341efded809b9dcad8a9e780e71ce4a5b48671ab9a6561b7109fb83458aff1a780b03935fb5c86a8568765065
Reciphers for ciphertext: 0
Decipheredtext:           0000000000000000000000000000000000
RESULT CIPHER-DECIPHER: -----OK-----


Test: 45
Crypto pad: 2
Symmetric key bit length: 256
IV bit length:            128
Plaintext bit length:     136
Symmetric key:            0000000000000000000000000000000000000000000400000000000000000000
IV:                       00000000000000000000000000000000
Plaintext:                0000000000000000000000000000000000
Ciphertext:               37299c12377e9cb8df5fe730dffcb5cabdcd166f39d18c717760eb0c36e5cec372f04facbbb885df680c18584b5f3e3637299c12377e9cb8df5fe730dffcb5ca13b15e0a41209aacf0817460e814163a
Reciphers for ciphertext: 0
Decipheredtext:           0000000000000000000000000000000000
RESULT CIPHER-DECIPHER: -----OK-----


Test: 46
Crypto pad: 0
Symmetric key bit length: 256
IV bit length:            128
Plaintext bit length:     136
Symmetric key:            0000000000000000000000000000000000000000000200000000000000000000
IV:                       00000000000000000000000000000000
Plaintext:                0000000000000000000000000000000000
Ciphertext:               c5454350a7cb0ec5ca3932a3948f48bc884d2aa264c66e4de2bd374329896f9040b3296ebd964e952b37ead5e0e1cf71c5454350a7cb0ec5ca3932a3948f48bc2e269448b95df098752c9c0fb6f61c0a
Reciphers for ciphertext: 0
Decipheredtext:           0000000000000000000000000000000000
RESULT CIPHER-DECIPHER: -----OK-----


Test: 47
Crypto pad: 1
Symmetric key bit length: 256
IV bit length:            128
Plaintext bit length:     136
Symmetric key:            0000000000000000000000000000000000000000000100000000000000000000
IV:                       00000000000000000000000000000000
Plaintext:                0000000000000000000000000000000000
Ciphertext:               8ab40d09ffbd0c82e9091fc80d2a63c91413541f0709177e40030949ad911a7026bda00a479d3b49ca01173062e194d98ab40d09ffbd0c82e9091fc80d2a63c964f8049ac931ad392b76404833f6aeef
Reciphers for ciphertext: 0
Decipheredtext:           0000000000000000000000000000000000
RESULT CIPHER-DECIPHER: -----OK-----


Test: 48
Crypto pad: 0
Symmetric key bit length: 256
IV bit length:            128
Plaintext bit length:     136
Symmetric key:            0000000000000000000000000000000000000000000080000000000000000000
IV:                       00000000000000000000000000000000
Plaintext:                0000000000000000000000000000000000
Ciphertext:               9cb3fe43eae3dc7ac4f97e609fde9f1008b82023d643672b8d983901ddf396b207060a09dbaf6a6b4c3ae6ade1c1ede09cb3fe43eae3dc7ac4f97e609fde9f107a70da953d66310abf628c26fb2664c9
Reciphers for ciphertext: 0
Decipheredtext:           0000000000000000000000000000000000
RESULT CIPHER-DECIPHER: -----OK-----


Test: 49
Crypto pad: 0
Symmetric key bit length: 256
IV bit length:            128
Plaintext bit length:     136
Symmetric key:            0000000000000000000000000000000000000000000040000000000000000000
IV:                       00000000000000000000000000000000
Plaintext:                0000000000000000000000000000000000
Ciphertext:               51369dc689b25c3ac593b578baea046ed272cb8f5ac4eb8a4039210ab4d468c778c304b6dc60730e268f8c4459b48fa051369dc689b25c3ac593b578baea046e96ff2979bcfb9ab1712a5a9f16ed6935
Reciphers for ciphertext: 0
Decipheredtext:           0000000000000000000000000000000000
RESULT CIPHER-DECIPHER: -----OK-----


Test: 50
Crypto pad: 1
Symmetric key bit length: 256
IV bit length:            128
Plaintext bit length:     136
Symmetric key:            0000000000000000000000000000000000000000000020000000000000000000
IV:                       00000000000000000000000000000000
Plaintext:                0000000000000000000000000000000000
Ciphertext:               13d9d885a24ae8b859f239890df438c9531979af1598825f908a541ffa327dc77a601b7fa4bd4dfb02ca595703faef8413d9d885a24ae8b859f239890df438c92b55cccc01584c48f640c2d7b89b7a78
Reciphers for ciphertext: 0
Decipheredtext:           0000000000000000000000000000000000
RESULT CIPHER-DECIPHER: -----OK-----


Test: 51
Crypto pad: 2
Symmetric key bit length: 256
IV bit length:            128
Plaintext bit length:     136
Symmetric key:            0000000000000000000000000000000000000000000010000000000000000000
IV:                       00000000000000000000000000000000
Plaintext:                0000000000000000000000000000000000
Ciphertext:               ceacae376290d5c62d2dae422ca6e5c0111a98e4d8b1c19154f42d4d64d4f1e41fb06c2ab11b8e011e303ca01ebb17a8ceacae376290d5c62d2dae422ca6e5c04b7f9d05c957d61aefd248a52f399451
Reciphers for ciphertext: 0
Decipheredtext:           0000000000000000000000000000000000
RESULT CIPHER-DECIPHER: -----OK-----


Test: 52
Crypto pad: 0
Symmetric key bit length: 256
IV bit length:            128
Plaintext bit length:     136
Symmetric key:            0000000000000000000000000000000000000000000008000000000000000000
IV:                       00000000000000000000000000000000
Plaintext:                0000000000000000000000000000000000
Ciphertext:               6ae17d621f97b62f4571ab165ce0a11f3fda8f223f97a0d5d4ba93547db31e38c8c22cc1aff53a2f283912df30fc18b26ae17d621f97b62f4571ab165ce0a11fc29f74158fd51fe216db62c5919f737c
Reciphers for ciphertext: 0
Decipheredtext:           0000000000000000000000000000000000
RESULT CIPHER-DECIPHER: -----OK-----


Test: 53
Crypto pad: 0
Symmetric key bit length: 256
IV bit length:            128
Plaintext bit length:     136
Symmetric key:            0000000000000000000000000000000000000000000004000000000000000000
IV:                       00000000000000000000000000000000
Plaintext:                0000000000000000000000000000000000
Ciphertext:               c91318f8fd17e9bc656e639a0d648b3aa56708f9021eb0ee8a491d6bc6ca37645d0c529c2aa970356b2e38dc4f9c143fc91318f8fd17e9bc656e639a0d648b3aa87b40f66c8ff2038e79e2a147e9b1dc
Reciphers for ciphertext: 0
Decipheredtext:           0000000000000000000000000000000000
RESULT CIPHER-DECIPHER: -----OK-----


Test: 54
Crypto pad: 1
Symmetric key bit length: 256
IV bit length:            128
Plaintext bit length:     136
Symmetric key:            0000000000000000000000000000000000000000000002000000000000000000
IV:                       00000000000000000000000000000000
Plaintext:                0000000000000000000000000000000000
Ciphertext:               bff1bc1c935e40fb0c20ded5985f191020e3de772559e6284cfad31b062f92b1f04b6c23c9356b698a78098d4593bd35bff1bc1c935e40fb0c20ded5985f1910af2e074f89ae06718356739bcffdb76c
Reciphers for ciphertext: 0
Decipheredtext:           0000000000000000000000000000000000
RESULT CIPHER-DECIPHER: -----OK-----


Test: 55
Crypto pad: 0
Symmetric key bit length: 256
IV bit length:            128
Plaintext bit length:     136
Symmetric key:            0000000000000000000000000000000000000000000001000000000000000000
IV:                       00000000000000000000000000000000
Plaintext:                0000000000000000000000000000000000
Ciphertext:               96f0b387f487bbdd5227b595a506f9635ff9e7e375f2f87eeb740a34f8c8cc1cd999b2c08384804c7aeadf769042c9c996f0b387f487bbdd5227b595a506f963065e420398c92fcdd2d14cf106540694
Reciphers for ciphertext: 0
Decipheredtext:           0000000000000000000000000000000000
RESULT CIPHER-DECIPHER: -----OK-----


Test: 56
Crypto pad: 1
Symmetric key bit length: 256
IV bit length:            128
Plaintext bit length:     136
Symmetric key:            0000000000000000000000000000000000000000000000800000000000000000
IV:                       00000000000000000000000000000000
Plaintext:                0000000000000000000000000000000000
Ciphertext:               62265b7efb73a77205ecbbfd166b3eaedb463047db21a2437a94b2fe728c12e0df341dab6a72b459e69ac653309c7fb262265b7efb73a77205ecbbfd166b3eaed0b2941396facee704fbc462dee875ab
Reciphers for ciphertext: 0
Decipheredtext:           0000000000000000000000000000000000
RESULT CIPHER-DECIPHER: -----OK-----


Test: 57
Crypto pad: 1
Symmetric key bit length: 256
IV bit length:            128
Plaintext bit length:     136
Symmetric key:            0000000000000000000000000000000000000000000000400000000000000000
IV:                       00000000000000000000000000000000
Plaintext:                0000000000000000000000000000000000
Ciphertext:               016e8f3087757e8f576b19a58d356fb66a43bbd0f60f61eb405e467ae2adfec3b70c7f49a11673a9d4d6bdc5b87aa069016e8f3087757e8f576b19a58d356fb6ea302bde67fb1c6111ba68106c904c2f
Reciphers for ciphertext: 0
Decipheredtext:           0000000000000000000000000000000000
RESULT CIPHER-DECIPHER: -----OK-----


Test: 58
Crypto pad: 2
Symmetric key bit length: 256
IV bit length:            128
Plaintext bit length:     136
Symmetric key:            0000000000000000000000000000000000000000000000200000000000000000
IV:                       00000000000000000000000000000000
Plaintext:                0000000000000000000000000000000000
Ciphertext:               456faf632ea07797cec23dc6553988f957d083ba2ae8de7a2651f9e60ca40c02d86475844865fc0ccea724699ad8583e456faf632ea07797cec23dc6553988f96e872f32059a07d209f843d954f28bdb
Reciphers for ciphertext: 0
Decipheredtext:           0000000000000000000000000000000000
RESULT CIPHER-DECIPHER: -----OK-----


Test: 59
Crypto pad: 1
Symmetric key bit length: 256
IV bit length:            128
Plaintext bit length:     136
Symmetric key:            0000000000000000000000000000000000000000000000100000000000000000
IV:                       00000000000000000000000000000000
Plaintext:                0000000000000000000000000000000000
Ciphertext:               147694e2231fa00d6b62d3e51cc8201d6b8de8d805ae0feb45cc850bf8205556237468c6c51a8ba60b4189eaa7eed384147694e2231fa00d6b62d3e51cc8201d9f6c476007e25e11e3864073420b8c16
Reciphers for ciphertext: 0
Decipheredtext:           0000000000000000000000000000000000
RESULT CIPHER-DECIPHER: -----OK-----


Test: 60
Crypto pad: 2
Symmetric key bit length: 256
IV bit length:            128
Plaintext bit length:     136
Symmetric key:            0000000000000000000000000000000000000000000000080000000000000000
IV:                       00000000000000000000000000000000
Plaintext:                0000000000000000000000000000000000
Ciphertext:               2299d31f3d747838c65fe7c6c0c592143f0532237f7c55373f91408b21f7076214f8ffa2791c5f9834c577a63377b57c2299d31f3d747838c65fe7c6c0c592149c6dab58962f52eac964ebba3d5ebff4
Reciphers for ciphertext: 0
Decipheredtext:           0000000000000000000000000000000000
RESULT CIPHER-DECIPHER: -----OK-----


Test: 61
Crypto pad: 0
Symmetric key bit length: 256
IV bit length:            128
Plaintext bit length:     136
Symmetric key:            0000000000000000000000000000000000000000000000040000000000000000
IV:                       00000000000000000000000000000000
Plaintext:                0000000000000000000000000000000000
Ciphertext:               c5a669612a23e4f7551d79650071e0409f393521a70e2d8c3e329207ce60b55ffe81ef8f07f5a0d23c091e08eafd5447c5a669612a23e4f7551d79650071e040447c644da039078c812264693a48a8a7
Reciphers for ciphertext: 0
Decipheredtext:           0000000000000000000000000000000000
RESULT CIPHER-DECIPHER: -----OK-----


Test: 62
Crypto pad: 2
Symmetric key bit length: 256
IV bit length:            128
Plaintext bit length:     136
Symmetric key:            0000000000000000000000000000000000000000000000020000000000000000
IV:                       00000000000000000000000000000000
Plaintext:                0000000000000000000000000000000000
Ciphertext:               f0a32d722edfd2ba628c781dacd5fc503a377d31cc781fdb9ade4158f9d701e00c84858d8caf5c7166e03b598613f0eef0a32d722edfd2ba628c781dacd5fc5051c0de644f6168c7c4a66fc167c49cf1
Reciphers for ciphertext: 0
Decipheredtext:           0000000000000000000000000000000000
RESULT CIPHER-DECIPHER: -----OK-----


Test: 63
Crypto pad: 0
Symmetric key bit length: 256
IV bit length:            128
Plaintext bit length:     136
Symmetric key:            0000000000000000000000000000000000000000000000010000000000000000
IV:                       00000000000000000000000000000000
Plaintext:                0000000000000000000000000000000000
Ciphertext:               422c8e2a0dff095e40654cb2b7176a9b1be3926e76f7580728a31f6e92e718f4fd54112a6d6f02defcea93932d1bc946422c8e2a0dff095e40654cb2b7176a9bde20e4fe6d46b0f63eac64157b3880ff
Reciphers for ciphertext: 0
Decipheredtext:           0000000000000000000000000000000000
RESULT CIPHER-DECIPHER: -----OK-----


Test: 64
Crypto pad: 0
Symmetric key bit length: 256
IV bit length:            128
Plaintext bit length:     136
Symmetric key:            0000000000000000000000000000000000000000000000008000000000000000
IV:                       00000000000000000000000000000000
Plaintext:                0000000000000000000000000000000000
Ciphertext:               99def168961d4ab9e63157e60f76399c821fff4e0ec4858f2ff22e9f3866260fc26ca3db7e1c6b30e76c93f2346d94a299def168961d4ab9e63157e60f76399c56eceac28d1d3bb72b602fa802313790
Reciphers for ciphertext: 0
Decipheredtext:           0000000000000000000000000000000000
RESULT CIPHER-DECIPHER: -----OK-----


Test: 65
Crypto pad: 0
Symmetric key bit length: 256
IV bit length:            128
Plaintext bit length:     136
Symmetric key:            0000000000000000000000000000000000000000000000004000000000000000
IV:                       00000000000000000000000000000000
Plaintext:                0000000000000000000000000000000000
Ciphertext:               49c92acc622a00bcff7dfdcabf33cb4c2b448e0b0058f4ff42c16d4d39add554c481f141929957500c9d8917c264e98e49c92acc622a00bcff7dfdcabf33cb4cf07f3e17f05bdee412e4d6ad49521112
Reciphers for ciphertext: 0
Decipheredtext:           0000000000000000000000000000000000
RESULT CIPHER-DECIPHER: -----OK-----


Test: 66
Crypto pad: 2
Symmetric key bit length: 256
IV bit length:            128
Plaintext bit length:     136
Symmetric key:            0000000000000000000000000000000000000000000000002000000000000000
IV:                       00000000000000000000000000000000
Plaintext:                0000000000000000000000000000000000
Ciphertext:               517117a096b2ee66d4bef2d1ee570ce76b4825e45f3c0c57b436da6bd17977d89d754e8be4d1dbd22259bc9f1bcdfd72517117a096b2ee66d4bef2d1ee570ce710a4175a7459207ed961f5a3869a030b
Reciphers for ciphertext: 0
Decipheredtext:           0000000000000000000000000000000000
RESULT CIPHER-DECIPHER: -----OK-----


Test: 67
Crypto pad: 1
Symmetric key bit length: 256
IV bit length:            128
Plaintext bit length:     136
Symmetric key:            0000000000000000000000000000000000000000000000001000000000000000
IV:                       00000000000000000000000000000000
Plaintext:                0000000000000000000000000000000000
Ciphertext:               9daecc0e82559bc2cdb8a01ab30ba60564df790d0a43caff84ed7b12035fd13e30aee8ed5b82fd93cc1f9d7f3eef66a69daecc0e82559bc2cdb8a01ab30ba605b719879326e5b47b250869c36abc4729
Reciphers for ciphertext: 0
Decipheredtext:           0000000000000000000000000000000000
RESULT CIPHER-DECIPHER: -----OK-----


Test: 68
Crypto pad: 2
Symmetric key bit length: 256
IV bit length:            128
Plaintext bit length:     136
Symmetric key:            0000000000000000000000000000000000000000000000000800000000000000
IV:                       00000000000000000000000000000000
Plaintext:                0000000000000000000000000000000000
Ciphertext:               50b2882928dab54488413aba5743535ed18b07c4333bcdd2b2d23f3c5becb9f3a323c9ac5fc378b0a8aef906ab74541a50b2882928dab54488413aba5743535e96a8c802e2259fff9d2a0d788fefe464
Reciphers for ciphertext: 0
Decipheredtext:           0000000000000000000000000000000000
RESULT CIPHER-DECIPHER: -----OK-----


Test: 69
Crypto pad: 0
Symmetric key bit length: 256
IV bit length:            128
Plaintext bit length:     136
Symmetric key:            0000000000000000000000000000000000000000000000000400000000000000
IV:                       00000000000000000000000000000000
Plaintext:                0000000000000000000000000000000000
Ciphertext:               e6725f73ed920f473e1442abec7db72256053fc0b25918615e42649efd65143dd6803b0cc76e6cb4cae27fae25540c01e6725f73ed920f473e1442abec7db722345e558b2a2747637d442062b862d479
Reciphers for ciphertext: 0
Decipheredtext:           0000000000000000000000000000000000
RESULT CIPHER-DECIPHER: -----OK-----


Test: 70
Crypto pad: 1
Symmetric key bit length: 256
IV bit length:            128
Plaintext bit length:     136
Symmetric key:            0000000000000000000000000000000000000000000000000200000000000000
IV:                       00000000000000000000000000000000
Plaintext:                0000000000000000000000000000000000
Ciphertext:               cb4f06002c5864e40c80f97157452575eb0642685639a2c754200192b2b7469bff92729d46268ee616216638c69b2200cb4f06002c5864e40c80f9715745257538057c553445e98a550bd1078edc9bae
Reciphers for ciphertext: 0
Decipheredtext:           0000000000000000000000000000000000
RESULT CIPHER-DECIPHER: -----OK-----


Test: 71
Crypto pad: 1
Symmetric key bit length: 256
IV bit length:            128
Plaintext bit length:     136
Symmetric key:            0000000000000000000000000000000000000000000000000100000000000000
IV:                       00000000000000000000000000000000
Plaintext:                0000000000000000000000000000000000
Ciphertext:               8df72d7c8ae547f2aa3e9afaad1d62f0e29be901f8266120ec8dc9f334141611930d8f079f6e05446e0330eb821105098df72d7c8ae547f2aa3e9afaad1d62f0abdff0529592a6f489035859703fb8b2
Reciphers for ciphertext: 0
Decipheredtext:           0000000000000000000000000000000000
RESULT CIPHER-DECIPHER: -----OK-----


Test: 72
Crypto pad: 1
Symmetric key bit length: 256
IV bit length:            128
Plaintext bit length:     136
Symmetric key:            0000000000000000000000000000000000000000000000000080000000000000
IV:                       00000000000000000000000000000000
Plaintext:                0000000000000000000000000000000000
Ciphertext:               0da429e486f5ed9460b7c54460b0a6994f09d76313d0d62618118cbc3c866221cd89462fc8eaa763fa20da0a5df177950da429e486f5ed9460b7c54460b0a69902492a1e5b61cdbcedbae4909e78fdf8
Reciphers for ciphertext: 0
Decipheredtext:           0000000000000000000000000000000000
RESULT CIPHER-DECIPHER: -----OK-----


Test: 73
Crypto pad: 2
Symmetric key bit length: 256
IV bit length:            128
Plaintext bit length:     136
Symmetric key:            0000000000000000000000000000000000000000000000000040000000000000
IV:                       00000000000000000000000000000000
Plaintext:                0000000000000000000000000000000000
Ciphertext:               24832db462328d93306c6714e100adab75b66be5eb17757699437fef76bd424efe7c066acfd0394b6c1f5354ab2c608624832db462328d93306c6714e100adab826793e6169b336e2a547d63576bfc5a
Reciphers for ciphertext: 0
Decipheredtext:           0000000000000000000000000000000000
RESULT CIPHER-DECIPHER: -----OK-----


Test: 74
Crypto pad: 2
Symmetric key bit length: 256
IV bit length:            128
Plaintext bit length:     136
Symmetric key:            0000000000000000000000000000000000000000000000000020000000000000
IV:                       00000000000000000000000000000000
Plaintext:                0000000000000000000000000000000000
Ciphertext:               3170d82fec3d2a58c7d2f28bac4c7809bc1b2f546e9abad25e68b418c7953936282e54dc91edcc910a0be0c75d9684e33170d82fec3d2a58c7d2f28bac4c78097c8be06edefa251dfe68b79c321f62c2
Reciphers for ciphertext: 0
Decipheredtext:           0000000000000000000000000000000000
RESULT CIPHER-DECIPHER: -----OK-----


Test: 75
Crypto pad: 2
Symmetric key bit length: 256
IV bit length:            128
Plaintext bit length:     136
Symmetric key:            0000000000000000000000000000000000000000000000000010000000000000
IV:                       00000000000000000000000000000000
Plaintext:                0000000000000000000000000000000000
Ciphertext:               638a46425aea9c808ac752ee69f56822eb022096a7df2c631c51dd5327b70859c95905f164aa9d25055153ad8d973d19638a46425aea9c808ac752ee69f568220806368f18dae25e14eae33839e0e057
Reciphers for ciphertext: 0
Decipheredtext:           0000000000000000000000000000000000
RESULT CIPHER-DECIPHER: -----OK-----


Test: 76
Crypto pad: 2
Symmetric key bit length: 256
IV bit length:            128
Plaintext bit length:     136
Symmetric key:            0000000000000000000000000000000000000000000000000008000000000000
IV:                       00000000000000000000000000000000
Plaintext:                0000000000000000000000000000000000
Ciphertext:               f98954d90c5e3db2eec8a86078d70763eda20197aaea7537e30f4a11a67d29ac0f8c4c1899e2c577897c3ddd34ea66b6f98954d90c5e3db2eec8a86078d70763e37c4df1a1ac3532b6fba47faea7c126
Reciphers for ciphertext: 0
Decipheredtext:           0000000000000000000000000000000000
RESULT CIPHER-DECIPHER: -----OK-----


Test: 77
Crypto pad: 2
Symmetric key bit length: 256
IV bit length:            128
Plaintext bit length:     136
Symmetric key:            0000000000000000000000000000000000000000000000000004000000000000
IV:                       00000000000000000000000000000000
Plaintext:                0000000000000000000000000000000000
Ciphertext:               8d5868451617fb145b8f7f91712a7aa035695d724fb76947e83a6f1a7d3c1fc27901a76ec0d27ca61a45369fceda98228d5868451617fb145b8f7f91712a7aa05aaf57af6313da52101b88697af3d91a
Reciphers for ciphertext: 0
Decipheredtext:           0000000000000000000000000000000000
RESULT CIPHER-DECIPHER: -----OK-----


Test: 78
Crypto pad: 0
Symmetric key bit length: 256
IV bit length:            128
Plaintext bit length:     136
Symmetric key:            0000000000000000000000000000000000000000000000000002000000000000
IV:                       00000000000000000000000000000000
Plaintext:                0000000000000000000000000000000000
Ciphertext:               2292ba337a4f465e0dfb85daac266ae66c534988e5fd381230ea93b7d4747c3518f2b5762791526b448f3d123b62bb492292ba337a4f465e0dfb85daac266ae60289eb988cc46661272790eb33425466
Reciphers for ciphertext: 0
Decipheredtext:           0000000000000000000000000000000000
RESULT CIPHER-DECIPHER: -----OK-----


Test: 79
Crypto pad: 0
Symmetric key bit length: 256
IV bit length:            128
Plaintext bit length:     136
Symmetric key:            0000000000000000000000000000000000000000000000000001000000000000
IV:                       00000000000000000000000000000000
Plaintext:                0000000000000000000000000000000000
Ciphertext:               f2560d5063a2f928d699005012a0c8393abe10f8dd09d79e2b5d4f2799b1635e44226adc5004b19ad650a6291de5ee7ef2560d5063a2f928d699005012a0c839082165b4819f0b34589f30fcf9ba7195
Reciphers for ciphertext: 0
Decipheredtext:           0000000000000000000000000000000000
RESULT CIPHER-DECIPHER: -----OK-----


Test: 80
Crypto pad: 1
Symmetric key bit length: 256
IV bit length:            128
Plaintext bit length:     136
Symmetric key:            0000000000000000000000000000000000000000000000000000800000000000
IV:                       00000000000000000000000000000000
Plaintext:                0000000000000000000000000000000000
Ciphertext:               44968aeabb2852075f83fb942e05099dff934726bcb803c3128ec9c23d98d9a312394801963797aaaa951b74d977fed144968aeabb2852075f83fb942e05099dab98656a490eff201c92589135623b5b
Reciphers for ciphertext: 0
Decipheredtext:           0000000000000000000000000000000000
RESULT CIPHER-DECIPHER: -----OK-----


Test: 81
Crypto pad: 2
Symmetric key bit length: 256
IV bit length:            128
Plaintext bit length:     136
Symmetric key:            0000000000000000000000000000000000000000000000000000400000000000
IV:                       00000000000000000000000000000000
Plaintext:                0000000000000000000000000000000000
Ciphertext:               eb339742ab40b5627a7cb60d4f54dd2e3432c0f5a40e37827d9aa8ba161bcbb4990aca79f6d41aa6b52a9cf1f37ea729eb339742ab40b5627a7cb60d4f54dd2ea677962c940cc7d2f8a49c9d43569c64
Reciphers for ciphertext: 0
Decipheredtext:           0000000000000000000000000000000000
RESULT CIPHER-DECIPHER: -----OK-----


Test: 82
Crypto pad: 1
Symmetric key bit length: 256
IV bit length:            128
Plaintext bit length:     136
Symmetric key:            0000000000000000000000000000000000000000000000000000200000000000
IV:                       00000000000000000000000000000000
Plaintext:                0000000000000000000000000000000000
Ciphertext:               9aaa6fc3bbde523e9fcd9d5c0255f9129e97deaebb7447405323d2ab9f53794fc48061090c808ec5fbe72f5aa79e59fd9aaa6fc3bbde523e9fcd9d5c0255f9125d38d96b6d92fa42d77f94011cac26a0
Reciphers for ciphertext: 0
Decipheredtext:           0000000000000000000000000000000000
RESULT CIPHER-DECIPHER: -----OK-----


Test: 83
Crypto pad: 0
Symmetric key bit length: 256
IV bit length:            128
Plaintext bit length:     136
Symmetric key:            0000000000000000000000000000000000000000000000000000100000000000
IV:                       00000000000000000000000000000000
Plaintext:                0000000000000000000000000000000000
Ciphertext:               e6e25cbaff57f4c6056706fd13e6a2e35196ca60c389c1efda342daa7cc1f5bd2444f6c7ce7991a030b1a62bed12af07e6e25cbaff57f4c6056706fd13e6a2e3a462c354371225519f51b3ca9c280391
Reciphers for ciphertext: 0
Decipheredtext:           0000000000000000000000000000000000
RESULT CIPHER-DECIPHER: -----OK-----


Test: 84
Crypto pad: 0
Symmetric key bit length: 256
IV bit length:            128
Plaintext bit length:     136
Symmetric key:            0000000000000000000000000000000000000000000000000000080000000000
IV:                       00000000000000000000000000000000
Plaintext:                0000000000000000000000000000000000
Ciphertext:               8a9628166922e8ec6fc28f5e847b9c71055b76889a3ffabef37965be73f5d4762dd40e8004d1ff7c5de2bb9503eead088a9628166922e8ec6fc28f5e847b9c7197d0c03c35381e379b5005b8fd7cc4a0
Reciphers for ciphertext: 0
Decipheredtext:           0000000000000000000000000000000000
RESULT CIPHER-DECIPHER: -----OK-----


Test: 85
Crypto pad: 0
Symmetric key bit length: 256
IV bit length:            128
Plaintext bit length:     136
Symmetric key:            0000000000000000000000000000000000000000000000000000040000000000
IV:                       00000000000000000000000000000000
Plaintext:                0000000000000000000000000000000000
Ciphertext:               97cf8ff5d1337da8602f8ab6c0224af7ad6dcdad1536becd69939fe8b0b8916335d39b35b48f99b19281426ea07da38797cf8ff5d1337da8602f8ab6c0224af786b4850424abb531be62836ab19498f6
Reciphers for ciphertext: 0
Decipheredtext:           0000000000000000000000000000000000
RESULT CIPHER-DECIPHER: -----OK-----


Test: 86
Crypto pad: 2
Symmetric key bit length: 256
IV bit length:            128
Plaintext bit length:     136
Symmetric key:            0000000000000000000000000000000000000000000000000000020000000000
IV:                       00000000000000000000000000000000
Plaintext:                0000000000000000000000000000000000
Ciphertext:               ddbbe09a93364599e9233969adbeba63b77744293992dff021ce5543db03c323a438a2b9e76cda06c85919bd9e9ed28bddbbe09a93364599e9233969adbeba63b4f72fa2c632cd2d2ab66f6483ac2c8b
Reciphers for ciphertext: 0
Decipheredtext:           0000000000000000000000000000000000
RESULT CIPHER-DECIPHER: -----OK-----


Test: 87
Crypto pad: 1
Symmetric key bit length: 256
IV bit length:            128
Plaintext bit length:     136
Symmetric key:            0000000000000000000000000000000000000000000000000000010000000000
IV:                       00000000000000000000000000000000
Plaintext:                0000000000000000000000000000000000
Ciphertext:               e772954b9da3da8a005582c4e9e5b6fa5a3f6714a434f2386e3f144c485b0fe8772c9041f70df7c6bbe99a9ff0c5ce5ee772954b9da3da8a005582c4e9e5b6fad7af84c1e1b20f17078e624f6a78b853
Reciphers for ciphertext: 0
Decipheredtext:           0000000000000000000000000000000000
RESULT CIPHER-DECIPHER: -----OK-----


Test: 88
Crypto pad: 0
Symmetric key bit length: 256
IV bit length:            128
Plaintext bit length:     136
Symmetric key:            0000000000000000000000000000000000000000000000000000008000000000
IV:                       00000000000000000000000000000000
Plaintext:                0000000000000000000000000000000000
Ciphertext:               507dfd30f7eef807f994b298d487fde68ed4f81303db9349cfb7d2fa72935d4bbc44fdd6c247533ddc39c6ab6930f93a507dfd30f7eef807f994b298d487fde6a026e4e43e60de984e8175e423736ab1
Reciphers for ciphertext: 0
Decipheredtext:           0000000000000000000000000000000000
RESULT CIPHER-DECIPHER: -----OK-----


Test: 89
Crypto pad: 0
Symmetric key bit length: 256
IV bit length:            128
Plaintext bit length:     136
Symmetric key:            0000000000000000000000000000000000000000000000000000004000000000
IV:                       00000000000000000000000000000000
Plaintext:                0000000000000000000000000000000000
Ciphertext:               6ff09f69aed61f091f92503547a19b6867c7a134be31d9189aee45ba6563cf6960b5090180dad008a8971ca1694eb94d6ff09f69aed61f091f92503547a19b688cfaa747278d25be67f98e3946d5caa8
Reciphers for ciphertext: 0
Decipheredtext:           0000000000000000000000000000000000
RESULT CIPHER-DECIPHER: -----OK-----


Test: 90
Crypto pad: 0
Symmetric key bit length: 256
IV bit length:            128
Plaintext bit length:     136
Symmetric key:            0000000000000000000000000000000000000000000000000000002000000000
IV:                       00000000000000000000000000000000
Plaintext:                0000000000000000000000000000000000
Ciphertext:               1141e6bb725e09640dd6971f4ef1a886d1d28cc7905c524e8ccb7e33f7cca45e8e7b08250223a97871384ae7fe09d8871141e6bb725e09640dd6971f4ef1a8864ca3202b9b7f037199f596407d56e34d
Reciphers for ciphertext: 0
Decipheredtext:           0000000000000000000000000000000000
RESULT CIPHER-DECIPHER: -----OK-----


Test: 91
Crypto pad: 1
Symmetric key bit length: 256
IV bit length:            128
Plaintext bit length:     136
Symmetric key:            0000000000000000000000000000000000000000000000000000001000000000
IV:                       00000000000000000000000000000000
Plaintext:                0000000000000000000000000000000000
Ciphertext:               9c0e8061ba0361b730d24675ef1287056cbb0849aaa264218d8732dfafe0311a0f81190310a91a82aa87e4cd4561c4fe9c0e8061ba0361b730d24675ef128705e1a4a8a269a16208fced3fe78a06c927
Reciphers for ciphertext: 0
Decipheredtext:           0000000000000000000000000000000000
RESULT CIPHER-DECIPHER: -----OK-----


Test: 92
Crypto pad: 2
Symmetric key bit length: 256
IV bit length:            128
Plaintext bit length:     136
Symmetric key:            0000000000000000000000000000000000000000000000000000000800000000
IV:                       00000000000000000000000000000000
Plaintext:                0000000000000000000000000000000000
Ciphertext:               7d0137240d0d3d086198e83bc0cf22d01d7ac5a4ce4e2c00ea698228107d10afac815cbe53d343d111fdf240266552b57d0137240d0d3d086198e83bc0cf22d0fa6c8077538c85b9e6fd15d97a789b41
Reciphers for ciphertext: 0
Decipheredtext:           0000000000000000000000000000000000
RESULT CIPHER-DECIPHER: -----OK-----


Test: 93
Crypto pad: 1
Symmetric key bit length: 256
IV bit length:            128
Plaintext bit length:     136
Symmetric key:            0000000000000000000000000000000000000000000000000000000400000000
IV:                       00000000000000000000000000000000
Plaintext:                0000000000000000000000000000000000
Ciphertext:               bc4460ff55ebfaa1171b0ce2498302813b79f1cebf0df02fd77f0bf363c83c6cc4509521fc39500e66c9188cfc603e23bc4460ff55ebfaa1171b0ce24983028196ecda674bdc8c2293197c439cc630c2
Reciphers for ciphertext: 0
Decipheredtext:           0000000000000000000000000000000000
RESULT CIPHER-DECIPHER: -----OK-----


Test: 94
Crypto pad: 2
Symmetric key bit length: 256
IV bit length:            128
Plaintext bit length:     136
Symmetric key:            0000000000000000000000000000000000000000000000000000000200000000
IV:                       00000000000000000000000000000000
Plaintext:                0000000000000000000000000000000000
Ciphertext:               cdbe93adcf1867b952fb82c42df60cfdd6b2532f72d7c076405e9690ee1e34b1b27d33a00f04de9f06820e009f668945cdbe93adcf1867b952fb82c42df60cfdef6b0af55e3fbacff6babfa881d038bb
Reciphers for ciphertext: 0
Decipheredtext:           0000000000000000000000000000000000
RESULT CIPHER-DECIPHER: -----OK-----


Test: 95
Crypto pad: 2
Symmetric key bit length: 256
IV bit length:            128
Plaintext bit length:     136
Symmetric key:            0000000000000000000000000000000000000000000000000000000100000000
IV:                       00000000000000000000000000000000
Plaintext:                0000000000000000000000000000000000
Ciphertext:               007aa375e4402b8a5657c01259af3d491f6371d874882064b2c38f4277ac5cba2c5a2912506f7f5c44345fbdd96dc018007aa375e4402b8a5657c01259af3d499364daf82f5e2fb5e2f2ce5f4e085510
Reciphers for ciphertext: 0
Decipheredtext:           0000000000000000000000000000000000
RESULT CIPHER-DECIPHER: -----OK-----


Test: 96
Crypto pad: 1
Symmetric key bit length: 256
IV bit length:            128
Plaintext bit length:     136
Symmetric key:            0000000000000000000000000000000000000000000000000000000080000000
IV:                       00000000000000000000000000000000
Plaintext:                0000000000000000000000000000000000
Ciphertext:               f5c2b13998e5687c773017c14eb01fe4b430eb9ad7190f9e0acd81e95e7e366b28d79b1e8dffe413587974d76defafacf5c2b13998e5687c773017c14eb01fe41b2179f021031af418aee83ef1dd172d
Reciphers for ciphertext: 0
Decipheredtext:           0000000000000000000000000000000000
RESULT CIPHER-DECIPHER: -----OK-----


Test: 97
Crypto pad: 2
Symmetric key bit length: 256
IV bit length:            128
Plaintext bit length:     136
Symmetric key:            0000000000000000000000000000000000000000000000000000000040000000
IV:                       00000000000000000000000000000000
Plaintext:                0000000000000000000000000000000000
Ciphertext:               0ae71bfdd72fbc4576305e4b0807e17ce3a06b99e8c7fed4707aeda51e92fa62bb6598b3ff2cfcf4ed55f9dc4ef3f8030ae71bfdd72fbc4576305e4b0807e17c328fd740ec596f43e2948dd42cfc4d03
Reciphers for ciphertext: 0
Decipheredtext:           0000000000000000000000000000000000
RESULT CIPHER-DECIPHER: -----OK-----


Test: 98
Crypto pad: 1
Symmetric key bit length: 256
IV bit length:            128
Plaintext bit length:     136
Symmetric key:            0000000000000000000000000000000000000000000000000000000020000000
IV:                       00000000000000000000000000000000
Plaintext:                0000000000000000000000000000000000
Ciphertext:               35fb1ce6cb7449df115d3ac6ba6564399795c6083c00bff4188a0873407adf40b7190ddc7caa1394888c42d7db4bb7e935fb1ce6cb7449df115d3ac6ba656439d9331a6a7f2ece25f9a5fad041440b1d
Reciphers for ciphertext: 0
Decipheredtext:           0000000000000000000000000000000000
RESULT CIPHER-DECIPHER: -----OK-----


Test: 99
Crypto pad: 2
Symmetric key bit length: 256
IV bit length:            128
Plaintext bit length:     136
Symmetric key:            0000000000000000000000000000000000000000000000000000000010000000
IV:                       00000000000000000000000000000000
Plaintext:                0000000000000000000000000000000000
Ciphertext:               6d64cec5d9d74bd40fbc0be69c70b7774166ea0f01c72aa6558d536fdfbb5ae762c26a7dbe76dfcb07c88d5f4f3d13b86d64cec5d9d74bd40fbc0be69c70b777d3eb200267e64823e955fb39eb938f05
Reciphers for ciphertext: 0
Decipheredtext:           0000000000000000000000000000000000
RESULT CIPHER-DECIPHER: -----OK-----


Test: 100
Crypto pad: 2
Symmetric key bit length: 256
IV bit length:            128
Plaintext bit length:     136
Symmetric key:            0000000000000000000000000000000000000000000000000000000008000000
IV:                       00000000000000000000000000000000
Plaintext:                0000000000000000000000000000000000
Ciphertext:               7257851acd3e3e3ae50048973c3a2ae8be56795d7ad24273edadc5150d2cef06a1df597bb1b41bd165cb0731ee842d607257851acd3e3e3ae50048973c3a2ae85e16561b9eaf7feb5025bb395d80b79f
Reciphers for ciphertext: 0
Decipheredtext:           0000000000000000000000000000000000
RESULT CIPHER-DECIPHER: -----OK-----


Test: 101
Crypto pad: 1
Symmetric key bit length: 256
IV bit length:            128
Plaintext bit length:     136
Symmetric key:            0000000000000000000000000000000000000000000000000000000004000000
IV:                       00000000000000000000000000000000
Plaintext:                0000000000000000000000000000000000
Ciphertext:               50852661d5bd7960412b29a86f549619e1dfe45a028a852f79afc880846e503087445550dd51f2b08ebf9a494c41898750852661d5bd7960412b29a86f549619db2961d145c50b3d5ce26bf1f535e8f1
Reciphers for ciphertext: 0
Decipheredtext:           0000000000000000000000000000000000
RESULT CIPHER-DECIPHER: -----OK-----


Test: 102
Crypto pad: 1
Symmetric key bit length: 256
IV bit length:            128
Plaintext bit length:     136
Symmetric key:            0000000000000000000000000000000000000000000000000000000002000000
IV:                       00000000000000000000000000000000
Plaintext:                0000000000000000000000000000000000
Ciphertext:               cdf3561d971d40521cd46bae98f5867a849708a4f731c32ac0dd31620c15c98b319231a1c7520dc4c271a9fdc1af79b4cdf3561d971d40521cd46bae98f5867a56719550e9c1437bddb3d3481a7a5d44
Reciphers for ciphertext: 0
Decipheredtext:           0000000000000000000000000000000000
RESULT CIPHER-DECIPHER: -----OK-----


Test: 103
Crypto pad: 0
Symmetric key bit length: 256
IV bit length:            128
Plaintext bit length:     136
Symmetric key:            0000000000000000000000000000000000000000000000000000000001000000
IV:                       00000000000000000000000000000000
Plaintext:                0000000000000000000000000000000000
Ciphertext:               fa3c84185b9abf9887dd501b3b0f52d348b552767614f3552f4f222eced0cd57382379588d53e30c6eedd9a1890a98e4fa3c84185b9abf9887dd501b3b0f52d380487a3ce942ab1cb073c68cb59f775a
Reciphers for ciphertext: 0
Decipheredtext:           0000000000000000000000000000000000
RESULT CIPHER-DECIPHER: -----OK-----


Test: 104
Crypto pad: 1
Symmetric key bit length: 256
IV bit length:            128
Plaintext bit length:     136
Symmetric key:            0000000000000000000000000000000000000000000000000000000000800000
IV:                       00000000000000000000000000000000
Plaintext:                0000000000000000000000000000000000
Ciphertext:               40a5b434f81574733d00f25511109e08f5ee70f7b1234dd64ab28d63e6671b30791f0cfaee82b62c733a032f665b531f40a5b434f81574733d00f25511109e0821d743e268a3b10f52632c09c6642b49
Reciphers for ciphertext: 0
Decipheredtext:           0000000000000000000000000000000000
RESULT CIPHER-DECIPHER: -----OK-----


Test: 105
Crypto pad: 0
Symmetric key bit length: 256
IV bit length:            128
Plaintext bit length:     136
Symmetric key:            0000000000000000000000000000000000000000000000000000000000400000
IV:                       00000000000000000000000000000000
Plaintext:                0000000000000000000000000000000000
Ciphertext:               da0d248315c527572f1673bde26a475e7f5d6279c7d1807f5b4bf711a25412855738825744f7e392a3caeee3cc34dfabda0d248315c527572f1673bde26a475e967e0f718aed72d930683431d89b302f
Reciphers for ciphertext: 0
Decipheredtext:           0000000000000000000000000000000000
RESULT CIPHER-DECIPHER: -----OK-----


Test: 106
Crypto pad: 1
Symmetric key bit length: 256
IV bit length:            128
Plaintext bit length:     136
Symmetric key:            0000000000000000000000000000000000000000000000000000000000200000
IV:                       00000000000000000000000000000000
Plaintext:                0000000000000000000000000000000000
Ciphertext:               0f8366d8efb9ab63b0299f278c55cfb41ee05d14c695893abead0803cbafee97736dad925400f9c0ab4d40d51c625cd40f8366d8efb9ab63b0299f278c55cfb4f43845916121688feb2fc7dd72595886
Reciphers for ciphertext: 0
Decipheredtext:           0000000000000000000000000000000000
RESULT CIPHER-DECIPHER: -----OK-----


Test: 107
Crypto pad: 0
Symmetric key bit length: 256
IV bit length:            128
Plaintext bit length:     136
Symmetric key:            0000000000000000000000000000000000000000000000000000000000100000
IV:                       00000000000000000000000000000000
Plaintext:                0000000000000000000000000000000000
Ciphertext:               25a089c523cd153ec094862b5923f492b0b6ba00d1d906c137a275c01e9860182ac80c519e92695e42aa7a147ba4bb7925a089c523cd153ec094862b5923f4928b9163bc761e85a73b18a9ff26ba8dc5
Reciphers for ciphertext: 0
Decipheredtext:           0000000000000000000000000000000000
RESULT CIPHER-DECIPHER: -----OK-----


Test: 108
Crypto pad: 1
Symmetric key bit length: 256
IV bit length:            128
Plaintext bit length:     136
Symmetric key:            0000000000000000000000000000000000000000000000000000000000080000
IV:                       00000000000000000000000000000000
Plaintext:                0000000000000000000000000000000000
Ciphertext:               7268a4628c6a0be6a8391abe709861768022528845d0568952c40f75c28b44dccd38e2c8e0355e968fc728d233b242347268a4628c6a0be6a8391abe709861760bf152a601e30a080f865f26f20ca7e5
Reciphers for ciphertext: 0
Decipheredtext:           0000000000000000000000000000000000
RESULT CIPHER-DECIPHER: -----OK-----


Test: 109
Crypto pad: 2
Symmetric key bit length: 256
IV bit length:            128
Plaintext bit length:     136
Symmetric key:            0000000000000000000000000000000000000000000000000000000000040000
IV:                       00000000000000000000000000000000
Plaintext:                0000000000000000000000000000000000
Ciphertext:               7c11e6478cc688fe707454df4ab5b6666fa066816bf7eeefb642caf9b08d0e7aae037ed2e297a1969f0cc28e6f733ce57c11e6478cc688fe707454df4ab5b666ffdff1095b2ce1067702547eba693b0a
Reciphers for ciphertext: 0
Decipheredtext:           0000000000000000000000000000000000
RESULT CIPHER-DECIPHER: -----OK-----


Test: 110
Crypto pad: 2
Symmetric key bit length: 256
IV bit length:            128
Plaintext bit length:     136
Symmetric key:            0000000000000000000000000000000000000000000000000000000000020000
IV:                       00000000000000000000000000000000
Plaintext:                0000000000000000000000000000000000
Ciphertext:               7601b6ebd5ce578973e949c21bfa8caadb8bb990874143d92f8bf6a733f1535bd6d1590d9346dd6777949a90113855a47601b6ebd5ce578973e949c21bfa8caa2a08356a1c3f8d918cab7c827d0c0cd5
Reciphers for ciphertext: 0
Decipheredtext:           0000000000000000000000000000000000
RESULT CIPHER-DECIPHER: -----OK-----


Test: 111
Crypto pad: 0
Symmetric key bit length: 256
IV bit length:            128
Plaintext bit length:     136
Symmetric key:            0000000000000000000000000000000000000000000000000000000000010000
IV:                       00000000000000000000000000000000
Plaintext:                0000000000000000000000000000000000
Ciphertext:               0fce9ccdf89f2eb139dbeb09b55375d5a6ec53b3bcaad50c58533c6ab2abd93521944049135a98371cd5801c416c82000fce9ccdf89f2eb139dbeb09b55375d522d245557f7c84267f664bc88852d449
Reciphers for ciphertext: 0
Decipheredtext:           0000000000000000000000000000000000
RESULT CIPHER-DECIPHER: -----OK-----


Test: 112
Crypto pad: 2
Symmetric key bit length: 256
IV bit length:            128
Plaintext bit length:     136
Symmetric key:            0000000000000000000000000000000000000000000000000000000000008000
IV:                       00000000000000000000000000000000
Plaintext:                0000000000000000000000000000000000
Ciphertext:               aaabfdd9e28a3adca1212f3d7f53a2699c5cab12f3ffe8f2e4341c09967cfa693eda79db765ebdeee644f3b10dcc02f4aaabfdd9e28a3adca1212f3d7f53a26941f92a0b595c5b4d5c4ecff172d5d9d6
Reciphers for ciphertext: 0
Decipheredtext:           0000000000000000000000000000000000
RESULT CIPHER-DECIPHER: -----OK-----


Test: 113
Crypto pad: 0
Symmetric key bit length: 256
IV bit length:            128
Plaintext bit length:     136
Symmetric key:            0000000000000000000000000000000000000000000000000000000000004000
IV:                       00000000000000000000000000000000
Plaintext:                0000000000000000000000000000000000
Ciphertext:               fc6b4304423917e41677768bd7a8d402cf90d8d27c2e5c609fc10dce5b692d9db4f354f68173d7157e68836f8235ed73fc6b4304423917e41677768bd7a8d402f69efeb0647302647608962a9043196f
Reciphers for ciphertext: 0
Decipheredtext:           0000000000000000000000000000000000
RESULT CIPHER-DECIPHER: -----OK-----


Test: 114
Crypto pad: 0
Symmetric key bit length: 256
IV bit length:            128
Plaintext bit length:     136
Symmetric key:            0000000000000000000000000000000000000000000000000000000000002000
IV:                       00000000000000000000000000000000
Plaintext:                0000000000000000000000000000000000
Ciphertext:               2aa3239d19adba9a4190e3653875c589a6a95511f58b0f718f7d13b2245f68fbaaf53db25b30464db6cfdb0a144408122aa3239d19adba9a4190e3653875c589febb6af43a66893dabaf7d6e61d36862
Reciphers for ciphertext: 0
Decipheredtext:           0000000000000000000000000000000000
RESULT CIPHER-DECIPHER: -----OK-----


Test: 115
Crypto pad: 1
Symmetric key bit length: 256
IV bit length:            128
Plaintext bit length:     136
Symmetric key:            0000000000000000000000000000000000000000000000000000000000001000
IV:                       00000000000000000000000000000000
Plaintext:                0000000000000000000000000000000000
Ciphertext:               4f4ab0db2f3d3ea1e5fcbf99651485dc3c1482758de7518772bcc44b8473ede8380f7e4cacee6196ecf7a09efec346874f4ab0db2f3d3ea1e5fcbf99651485dc55a3057451c298654c17c591dd7b5273
Reciphers for ciphertext: 0
Decipheredtext:           0000000000000000000000000000000000
RESULT CIPHER-DECIPHER: -----OK-----


Test: 116
Crypto pad: 2
Symmetric key bit length: 256
IV bit length:            128
Plaintext bit length:     136
Symmetric key:            0000000000000000000000000000000000000000000000000000000000000800
IV:                       00000000000000000000000000000000
Plaintext:                0000000000000000000000000000000000
Ciphertext:               b542cef08d13e300b282ce6a74c51c966387df47fbcea72b313a94573f43c8ef03bb8875485dfba356e9a9eeae44151ab542cef08d13e300b282ce6a74c51c9690cf5738115e9a553d6e77047b72e3f7
Reciphers for ciphertext: 0
Decipheredtext:           0000000000000000000000000000000000
RESULT CIPHER-DECIPHER: -----OK-----


Test: 117
Crypto pad: 2
Symmetric key bit length: 256
IV bit length:            128
Plaintext bit length:     136
Symmetric key:            0000000000000000000000000000000000000000000000000000000000000400
IV:                       00000000000000000000000000000000
Plaintext:                0000000000000000000000000000000000
Ciphertext:               9955e16433b0d58bfc4b35ee9f44734cc2753f7f9cb6538060d1c617cd3cf4045ce763b8303425af5625a68266e79d3b9955e16433b0d58bfc4b35ee9f44734ce5c5d241560cdb00c37666757f6e7150
Reciphers for ciphertext: 0
Decipheredtext:           0000000000000000000000000000000000
RESULT CIPHER-DECIPHER: -----OK-----


Test: 118
Crypto pad: 0
Symmetric key bit length: 256
IV bit length:            128
Plaintext bit length:     136
Symmetric key:            0000000000000000000000000000000000000000000000000000000000000200
IV:                       00000000000000000000000000000000
Plaintext:                0000000000000000000000000000000000
Ciphertext:               5027a7ddc6f99a112e45d3090c7c3465660a2c1a1feeb33db81e6112b481424aefbbb874423c114b270791f7cfce913d5027a7ddc6f99a112e45d3090c7c34651a14c3bb5952f23210889a91b5d9668f
Reciphers for ciphertext: 0
Decipheredtext:           0000000000000000000000000000000000
RESULT CIPHER-DECIPHER: -----OK-----


Test: 119
Crypto pad: 1
Symmetric key bit length: 256
IV bit length:            128
Plaintext bit length:     136
Symmetric key:            0000000000000000000000000000000000000000000000000000000000000100
IV:                       00000000000000000000000000000000
Plaintext:                0000000000000000000000000000000000
Ciphertext:               cb14ebd24fc63194495facffb5c3a07be5265b3158f54537af982004be58ef66eace533ba342bc949ff6c40ab7893f4bcb14ebd24fc63194495facffb5c3a07b8442abc4134049dffd521cbd1aa84883
Reciphers for ciphertext: 0
Decipheredtext:           0000000000000000000000000000000000
RESULT CIPHER-DECIPHER: -----OK-----


Test: 120
Crypto pad: 0
Symmetric key bit length: 256
IV bit length:            128
Plaintext bit length:     136
Symmetric key:            0000000000000000000000000000000000000000000000000000000000000080
IV:                       00000000000000000000000000000000
Plaintext:                0000000000000000000000000000000000
Ciphertext:               2bcbe64545a08f59178242452566b9978d28af68b1e03e284c3725c1b01026b65ba201031539d8609a7d15f664909db42bcbe64545a08f59178242452566b997f1e37f2ffae5fa10c5b2f36739d390b5
Reciphers for ciphertext: 0
Decipheredtext:           0000000000000000000000000000000000
RESULT CIPHER-DECIPHER: -----OK-----


Test: 121
Crypto pad: 2
Symmetric key bit length: 256
IV bit length:            128
Plaintext bit length:     136
Symmetric key:            0000000000000000000000000000000000000000000000000000000000000040
IV:                       00000000000000000000000000000000
Plaintext:                0000000000000000000000000000000000
Ciphertext:               de428ff12360a0c8fae73e9d8e6a065799e1b55b08094c9ecdc9b3cdd68261cc24418a9686a87aaff834f8fbf6d98723de428ff12360a0c8fae73e9d8e6a0657e0b009e3c6e407c50f70e7b7461f37c8
Reciphers for ciphertext: 0
Decipheredtext:           0000000000000000000000000000000000
RESULT CIPHER-DECIPHER: -----OK-----


Test: 122
Crypto pad: 0
Symmetric key bit length: 256
IV bit length:            128
Plaintext bit length:     136
Symmetric key:            0000000000000000000000000000000000000000000000000000000000000020
IV:                       00000000000000000000000000000000
Plaintext:                0000000000000000000000000000000000
Ciphertext:               6425603fcb0f088d87d3ac7078c7014c8507796d8190e991b194a5fcdd326d73d1c4e039f0d72fc4e1e45feb2c3072eb6425603fcb0f088d87d3ac7078c7014ca520d874b922807681cb5029cf8efae5
Reciphers for ciphertext: 0
Decipheredtext:           0000000000000000000000000000000000
RESULT CIPHER-DECIPHER: -----OK-----


Test: 123
Crypto pad: 2
Symmetric key bit length: 256
IV bit length:            128
Plaintext bit length:     136
Symmetric key:            0000000000000000000000000000000000000000000000000000000000000010
IV:                       00000000000000000000000000000000
Plaintext:                0000000000000000000000000000000000
Ciphertext:               a837813c9436f4c48c45b6c85a4eaf841dab4e22240a37403105ab0922fdfb3df072993601c637f3be236a39d2c4af51a837813c9436f4c48c45b6c85a4eaf844ba1b6b693d2048d69a1ad9494158471
Reciphers for ciphertext: 0
Decipheredtext:           0000000000000000000000000000000000
RESULT CIPHER-DECIPHER: -----OK-----


Test: 124
Crypto pad: 1
Symmetric key bit length: 256
IV bit length:            128
Plaintext bit length:     136
Symmetric key:            0000000000000000000000000000000000000000000000000000000000000008
IV:                       00000000000000000000000000000000
Plaintext:                0000000000000000000000000000000000
Ciphertext:               b95f9010e694ba44b812d6a7a59e027a381ef7973ca3047fe0b65e6837776afb0de490a9bd3d3b23668cf4c6de631c7cb95f9010e694ba44b812d6a7a59e027abf7d031b7dc9658aa1f2da03f7c9c63e
Reciphers for ciphertext: 0
Decipheredtext:           0000000000000000000000000000000000
RESULT CIPHER-DECIPHER: -----OK-----


Test: 125
Crypto pad: 2
Symmetric key bit length: 256
IV bit length:            128
Plaintext bit length:     136
Symmetric key:            0000000000000000000000000000000000000000000000000000000000000004
IV:                       00000000000000000000000000000000
Plaintext:                0000000000000000000000000000000000
Ciphertext:               df2746a2d9ed707dcc686bb64b77c9ddc50c8722c2d1b5f992665002c67c977b32023092b6e85e09b007eb988be054e0df2746a2d9ed707dcc686bb64b77c9ddda050f8426e7a2c64c30c3443b84ecb0
Reciphers for ciphertext: 0
Decipheredtext:           0000000000000000000000000000000000
RESULT CIPHER-DECIPHER: -----OK-----


Test: 126
Crypto pad: 2
Symmetric key bit length: 256
IV bit length:            128
Plaintext bit length:     136
Symmetric key:            0000000000000000000000000000000000000000000000000000000000000002
IV:                       00000000000000000000000000000000
Plaintext:                0000000000000000000000000000000000
Ciphertext:               40dd304c3fc8fef5d7d08fd467e018f61fce042780996516dd10e04e85fde97f4b17eae0cb7645fa3d5a534dde84f32640dd304c3fc8fef5d7d08fd467e018f6b4f5ac1d8c0d5e47ed1d1e4b02f22b17
Reciphers for ciphertext: 0
Decipheredtext:           0000000000000000000000000000000000
RESULT CIPHER-DECIPHER: -----OK-----


Test: 127
Crypto pad: 1
Symmetric key bit length: 256
IV bit length:            128
Plaintext bit length:     136
Symmetric key:            0000000000000000000000000000000000000000000000000000000000000001
IV:                       00000000000000000000000000000000
Plaintext:                0000000000000000000000000000000000
Ciphertext:               afcd38b195e0a736304e89b9ae3019d32809559bd6bd3bc359c3205be9fa391c8ac15097007b548375bca5305afdb35eafcd38b195e0a736304e89b9ae3019d3be1d606a5291dea5e1a26e5f8c70dc38
Reciphers for ciphertext: 0
Decipheredtext:           0000000000000000000000000000000000
RESULT CIPHER-DECIPHER: -----OK-----


 DATA SHA1 (hexadecimal): 9008229bd04cb19c779b5bd883b311a408a5e891

