
DiceLock 9.0.0.1

 TEST COMPONENTS:
 ----------------
 DiceLock:           DiceLockIVIndexed class
 Operation Mode:     CBC_Mode class
 Crypto pads:        0 - ANSI_X_923 class
                     1 - ISO_IEC_9797_1 class
                     2 - PKCS7 class
 Block Cipher:       Camellia192 class
 Key Modifier:       DecreaseBase0IndexModifier_6_0_0_1 class
   Index bit length: 192
 Random tests:       RandomTestSuite class
                     FrequencyTest class
                     BlockFrequencyTest class
                     CumulativeSumForwardTest class
                     LongestRunOfOnesTest class
                     RunsTest class
 Random alpha:       0.001

 VECTOR TEST: Test vector 0 - Changing symmetric key, shifting 1 bit set


##### INDIVIDUAL TESTS #####

Number tests: 128


Test: 0
Crypto pad: 0
Symmetric key bit length: 192
IV bit length:            128
Plaintext bit length:     136
Symmetric key:            000000000000000080000000000000000000000000000000
IV:                       00000000000000000000000000000000
Plaintext:                0000000000000000000000000000000000
Ciphertext:               4a85be25546958b1e91801a35c7386e2cd69edbeb3114f20c074af7aedb9568c4a85be25546958b1e91801a35c7386e2ef6edeb6936bfe9d2e415b093dc15196
Reciphers for ciphertext: 0
Decipheredtext:           0000000000000000000000000000000000
RESULT CIPHER-DECIPHER: -----OK-----


Test: 1
Crypto pad: 0
Symmetric key bit length: 192
IV bit length:            128
Plaintext bit length:     136
Symmetric key:            000000000000000040000000000000000000000000000000
IV:                       00000000000000000000000000000000
Plaintext:                0000000000000000000000000000000000
Ciphertext:               f14caacdd919872396dbcdcbef9a384cc0233ec839f349e96718b983662c0611f14caacdd919872396dbcdcbef9a384c2869e22886c41a73b6b4d5bf6b00aebc
Reciphers for ciphertext: 0
Decipheredtext:           0000000000000000000000000000000000
RESULT CIPHER-DECIPHER: -----OK-----


Test: 2
Crypto pad: 0
Symmetric key bit length: 192
IV bit length:            128
Plaintext bit length:     136
Symmetric key:            000000000000000020000000000000000000000000000000
IV:                       00000000000000000000000000000000
Plaintext:                0000000000000000000000000000000000
Ciphertext:               23b0d4fc870309dfef7afc04c46af26af4d8bde507b1d554c60891883b07958b23b0d4fc870309dfef7afc04c46af26a96c16b6f23854306583b7aa155efb8a9
Reciphers for ciphertext: 0
Decipheredtext:           0000000000000000000000000000000000
RESULT CIPHER-DECIPHER: -----OK-----


Test: 3
Crypto pad: 2
Symmetric key bit length: 192
IV bit length:            128
Plaintext bit length:     136
Symmetric key:            000000000000000010000000000000000000000000000000
IV:                       00000000000000000000000000000000
Plaintext:                0000000000000000000000000000000000
Ciphertext:               c93604723c3dbbc66aff87ab1864c76c072a037d60da3da2bd0d3e6808da491dc93604723c3dbbc66aff87ab1864c76c35002db420e759fad9b5a7ad8c030922
Reciphers for ciphertext: 0
Decipheredtext:           0000000000000000000000000000000000
RESULT CIPHER-DECIPHER: -----OK-----


Test: 4
Crypto pad: 2
Symmetric key bit length: 192
IV bit length:            128
Plaintext bit length:     136
Symmetric key:            000000000000000008000000000000000000000000000000
IV:                       00000000000000000000000000000000
Plaintext:                0000000000000000000000000000000000
Ciphertext:               6c14e822857ba0983aac42995d973092e93d8a5a2d3a18ae90aba95eaa18b6f46c14e822857ba0983aac42995d9730921e9aff307123c260113f0774bf5d0796
Reciphers for ciphertext: 0
Decipheredtext:           0000000000000000000000000000000000
RESULT CIPHER-DECIPHER: -----OK-----


Test: 5
Crypto pad: 0
Symmetric key bit length: 192
IV bit length:            128
Plaintext bit length:     136
Symmetric key:            000000000000000004000000000000000000000000000000
IV:                       00000000000000000000000000000000
Plaintext:                0000000000000000000000000000000000
Ciphertext:               700afea175dbeae688f90b8d32990560197d2bb6e68c710733ad8623cf611b95700afea175dbeae688f90b8d32990560a4545bc3610ba179e660f6037d84d10a
Reciphers for ciphertext: 0
Decipheredtext:           0000000000000000000000000000000000
RESULT CIPHER-DECIPHER: -----OK-----


Test: 6
Crypto pad: 2
Symmetric key bit length: 192
IV bit length:            128
Plaintext bit length:     136
Symmetric key:            000000000000000002000000000000000000000000000000
IV:                       00000000000000000000000000000000
Plaintext:                0000000000000000000000000000000000
Ciphertext:               54ae9efa09fc70a852212752b83af1f2aa28286dc251ff03364f7e1032b736bf54ae9efa09fc70a852212752b83af1f27946920f72ee91303c6ee9b7ea99a912
Reciphers for ciphertext: 0
Decipheredtext:           0000000000000000000000000000000000
RESULT CIPHER-DECIPHER: -----OK-----


Test: 7
Crypto pad: 1
Symmetric key bit length: 192
IV bit length:            128
Plaintext bit length:     136
Symmetric key:            000000000000000001000000000000000000000000000000
IV:                       00000000000000000000000000000000
Plaintext:                0000000000000000000000000000000000
Ciphertext:               2474ef8e660333fc9763e137ddb1aa1f517d702b51c8d4780503bb6c6d8bb9a42474ef8e660333fc9763e137ddb1aa1f4af364bd6f921eafb6e1fb65c159a786
Reciphers for ciphertext: 0
Decipheredtext:           0000000000000000000000000000000000
RESULT CIPHER-DECIPHER: -----OK-----


Test: 8
Crypto pad: 1
Symmetric key bit length: 192
IV bit length:            128
Plaintext bit length:     136
Symmetric key:            000000000000000000800000000000000000000000000000
IV:                       00000000000000000000000000000000
Plaintext:                0000000000000000000000000000000000
Ciphertext:               e52ece1281186644b6a2228a89bd2304166899729e40f18805af90baa4f44668e52ece1281186644b6a2228a89bd2304f3fe969564ef910611c52f694d8cffd7
Reciphers for ciphertext: 0
Decipheredtext:           0000000000000000000000000000000000
RESULT CIPHER-DECIPHER: -----OK-----


Test: 9
Crypto pad: 2
Symmetric key bit length: 192
IV bit length:            128
Plaintext bit length:     136
Symmetric key:            000000000000000000400000000000000000000000000000
IV:                       00000000000000000000000000000000
Plaintext:                0000000000000000000000000000000000
Ciphertext:               610a02ecec1b5ba0c6ec7ce8d619772248ae564629984cce90af235989396bd9610a02ecec1b5ba0c6ec7ce8d6197722528acef12ab5c67afc8de0eac4675bf3
Reciphers for ciphertext: 0
Decipheredtext:           0000000000000000000000000000000000
RESULT CIPHER-DECIPHER: -----OK-----


Test: 10
Crypto pad: 0
Symmetric key bit length: 192
IV bit length:            128
Plaintext bit length:     136
Symmetric key:            000000000000000000200000000000000000000000000000
IV:                       00000000000000000000000000000000
Plaintext:                0000000000000000000000000000000000
Ciphertext:               8a8ab3da5ce37e1d68b496f110e4f9415c6c28759b8ecf89a5116f6cfbfc484b8a8ab3da5ce37e1d68b496f110e4f94145052c83ae5d800d7c7009a6e224b454
Reciphers for ciphertext: 0
Decipheredtext:           0000000000000000000000000000000000
RESULT CIPHER-DECIPHER: -----OK-----


Test: 11
Crypto pad: 1
Symmetric key bit length: 192
IV bit length:            128
Plaintext bit length:     136
Symmetric key:            000000000000000000100000000000000000000000000000
IV:                       00000000000000000000000000000000
Plaintext:                0000000000000000000000000000000000
Ciphertext:               6961f3a7e6550753c55e4c03fa7869e9538d16df7b9450a66814eb10c26d36966961f3a7e6550753c55e4c03fa7869e90249c3c7a1a1fa46ab0a06294ebcaeb2
Reciphers for ciphertext: 0
Decipheredtext:           0000000000000000000000000000000000
RESULT CIPHER-DECIPHER: -----OK-----


Test: 12
Crypto pad: 2
Symmetric key bit length: 192
IV bit length:            128
Plaintext bit length:     136
Symmetric key:            000000000000000000080000000000000000000000000000
IV:                       00000000000000000000000000000000
Plaintext:                0000000000000000000000000000000000
Ciphertext:               d8f149c207fad4480ba2fc609beb4471634cc07306fde4ab0920caf375d0d048d8f149c207fad4480ba2fc609beb44711912edbf76653ce8b75f39a75a110d1c
Reciphers for ciphertext: 0
Decipheredtext:           0000000000000000000000000000000000
RESULT CIPHER-DECIPHER: -----OK-----


Test: 13
Crypto pad: 1
Symmetric key bit length: 192
IV bit length:            128
Plaintext bit length:     136
Symmetric key:            000000000000000000040000000000000000000000000000
IV:                       00000000000000000000000000000000
Plaintext:                0000000000000000000000000000000000
Ciphertext:               de9dc95336f2088935881dd57c0a4b98db1bbe436ba5976d97d9130199490aa6de9dc95336f2088935881dd57c0a4b98ca8817e81db246477cd3fde3b1577cd6
Reciphers for ciphertext: 0
Decipheredtext:           0000000000000000000000000000000000
RESULT CIPHER-DECIPHER: -----OK-----


Test: 14
Crypto pad: 1
Symmetric key bit length: 192
IV bit length:            128
Plaintext bit length:     136
Symmetric key:            000000000000000000020000000000000000000000000000
IV:                       00000000000000000000000000000000
Plaintext:                0000000000000000000000000000000000
Ciphertext:               dc4ea3b0f76439db8847fe61c1a64f7a07d0754655ed62a9e978efe7bfe7fac5dc4ea3b0f76439db8847fe61c1a64f7ae6d3405db062506e6a478bae9e8bf5fa
Reciphers for ciphertext: 0
Decipheredtext:           0000000000000000000000000000000000
RESULT CIPHER-DECIPHER: -----OK-----


Test: 15
Crypto pad: 0
Symmetric key bit length: 192
IV bit length:            128
Plaintext bit length:     136
Symmetric key:            000000000000000000010000000000000000000000000000
IV:                       00000000000000000000000000000000
Plaintext:                0000000000000000000000000000000000
Ciphertext:               ae60835a3a49d9414bb0744c9070b88bbd450378df681df7d31377f4cef04e0721d4802eb72232ad2b0b46c50c98445b6514d139d4001740aa3926aba104ca2f
Reciphers for ciphertext: 1
Decipheredtext:           0000000000000000000000000000000000
RESULT CIPHER-DECIPHER: -----OK-----


Test: 16
Crypto pad: 1
Symmetric key bit length: 192
IV bit length:            128
Plaintext bit length:     136
Symmetric key:            000000000000000000008000000000000000000000000000
IV:                       00000000000000000000000000000000
Plaintext:                0000000000000000000000000000000000
Ciphertext:               d6c32522b546bac316e5f3a07f83ffe6b98fcd0424d2dc83702f3773236edd4dd6c32522b546bac316e5f3a07f83ffe61e99f5ba3762bef2d0d56ac8a68a632b
Reciphers for ciphertext: 0
Decipheredtext:           0000000000000000000000000000000000
RESULT CIPHER-DECIPHER: -----OK-----


Test: 17
Crypto pad: 0
Symmetric key bit length: 192
IV bit length:            128
Plaintext bit length:     136
Symmetric key:            000000000000000000004000000000000000000000000000
IV:                       00000000000000000000000000000000
Plaintext:                0000000000000000000000000000000000
Ciphertext:               4b07b02c86b579a0c68d916df8a1eb76b76d5ceda78595477ae0a74ec16c962d4b07b02c86b579a0c68d916df8a1eb765982f85dcc9bd73ee6a4c8bde4d150c3
Reciphers for ciphertext: 0
Decipheredtext:           0000000000000000000000000000000000
RESULT CIPHER-DECIPHER: -----OK-----


Test: 18
Crypto pad: 2
Symmetric key bit length: 192
IV bit length:            128
Plaintext bit length:     136
Symmetric key:            000000000000000000002000000000000000000000000000
IV:                       00000000000000000000000000000000
Plaintext:                0000000000000000000000000000000000
Ciphertext:               060b15735c978df9f4f3ed503b95d6c32f0ecf42976e369d889997859839d03d060b15735c978df9f4f3ed503b95d6c39d52ebcf0bbd5083303374a3bdbbe922
Reciphers for ciphertext: 0
Decipheredtext:           0000000000000000000000000000000000
RESULT CIPHER-DECIPHER: -----OK-----


Test: 19
Crypto pad: 0
Symmetric key bit length: 192
IV bit length:            128
Plaintext bit length:     136
Symmetric key:            000000000000000000001000000000000000000000000000
IV:                       00000000000000000000000000000000
Plaintext:                0000000000000000000000000000000000
Ciphertext:               3040b3c9c560c968fe14664e3496d5d12706353c35917bf9c2b333ba089c2df43040b3c9c560c968fe14664e3496d5d14bd725bedc3744c5b5bc9bb794a8c048
Reciphers for ciphertext: 0
Decipheredtext:           0000000000000000000000000000000000
RESULT CIPHER-DECIPHER: -----OK-----


Test: 20
Crypto pad: 1
Symmetric key bit length: 192
IV bit length:            128
Plaintext bit length:     136
Symmetric key:            000000000000000000000800000000000000000000000000
IV:                       00000000000000000000000000000000
Plaintext:                0000000000000000000000000000000000
Ciphertext:               8971cfb236598bbd46e47e172b0690f789872a36148d228b6d053b7e2712e36a8971cfb236598bbd46e47e172b0690f70bde35b4102af9d2d8a891f150afc264
Reciphers for ciphertext: 0
Decipheredtext:           0000000000000000000000000000000000
RESULT CIPHER-DECIPHER: -----OK-----


Test: 21
Crypto pad: 1
Symmetric key bit length: 192
IV bit length:            128
Plaintext bit length:     136
Symmetric key:            000000000000000000000400000000000000000000000000
IV:                       00000000000000000000000000000000
Plaintext:                0000000000000000000000000000000000
Ciphertext:               8d7fab4985a0bac4caee341972d49cf43f449b07fc67a3372337f8e8639283a08d7fab4985a0bac4caee341972d49cf4e4bfd75408a1cf8edc3bf774cfb246a4
Reciphers for ciphertext: 0
Decipheredtext:           0000000000000000000000000000000000
RESULT CIPHER-DECIPHER: -----OK-----


Test: 22
Crypto pad: 2
Symmetric key bit length: 192
IV bit length:            128
Plaintext bit length:     136
Symmetric key:            000000000000000000000200000000000000000000000000
IV:                       00000000000000000000000000000000
Plaintext:                0000000000000000000000000000000000
Ciphertext:               ed29003d83cb7d7747c17a869132302109c9d62e67dc18d242b0c8f726059b4bed29003d83cb7d7747c17a86913230219edea961b8013823c4a41d892b7af247
Reciphers for ciphertext: 0
Decipheredtext:           0000000000000000000000000000000000
RESULT CIPHER-DECIPHER: -----OK-----


Test: 23
Crypto pad: 1
Symmetric key bit length: 192
IV bit length:            128
Plaintext bit length:     136
Symmetric key:            000000000000000000000100000000000000000000000000
IV:                       00000000000000000000000000000000
Plaintext:                0000000000000000000000000000000000
Ciphertext:               98ebfda32c99438f0a549b7bfaac0635199d1813ef7887ea15d33cc7b2a7ab4e98ebfda32c99438f0a549b7bfaac0635462785072add3aa30c239aef6e7eefc0
Reciphers for ciphertext: 0
Decipheredtext:           0000000000000000000000000000000000
RESULT CIPHER-DECIPHER: -----OK-----


Test: 24
Crypto pad: 0
Symmetric key bit length: 192
IV bit length:            128
Plaintext bit length:     136
Symmetric key:            000000000000000000000080000000000000000000000000
IV:                       00000000000000000000000000000000
Plaintext:                0000000000000000000000000000000000
Ciphertext:               a59ab8eaf03bcdfd7cb0a9650e59f27b63a32bfe058f7698ccdb1c8c76cafe97a59ab8eaf03bcdfd7cb0a9650e59f27b7cb976216c3c3a30ed1f38bd4c4e185a
Reciphers for ciphertext: 0
Decipheredtext:           0000000000000000000000000000000000
RESULT CIPHER-DECIPHER: -----OK-----


Test: 25
Crypto pad: 0
Symmetric key bit length: 192
IV bit length:            128
Plaintext bit length:     136
Symmetric key:            000000000000000000000040000000000000000000000000
IV:                       00000000000000000000000000000000
Plaintext:                0000000000000000000000000000000000
Ciphertext:               71422297ce93952d46ffc27530d6255de4241bd3b94a28bebab7508b70455af171422297ce93952d46ffc27530d6255d3689a2c5a58947a3dbab166833b217ad
Reciphers for ciphertext: 0
Decipheredtext:           0000000000000000000000000000000000
RESULT CIPHER-DECIPHER: -----OK-----


Test: 26
Crypto pad: 0
Symmetric key bit length: 192
IV bit length:            128
Plaintext bit length:     136
Symmetric key:            000000000000000000000020000000000000000000000000
IV:                       00000000000000000000000000000000
Plaintext:                0000000000000000000000000000000000
Ciphertext:               519e2607543c3afe49190ebca12adbbc5a408b97859a73c6d37c5497b80aee3d519e2607543c3afe49190ebca12adbbc8680d4424f120d3f4a106481da14958c
Reciphers for ciphertext: 0
Decipheredtext:           0000000000000000000000000000000000
RESULT CIPHER-DECIPHER: -----OK-----


Test: 27
Crypto pad: 2
Symmetric key bit length: 192
IV bit length:            128
Plaintext bit length:     136
Symmetric key:            000000000000000000000010000000000000000000000000
IV:                       00000000000000000000000000000000
Plaintext:                0000000000000000000000000000000000
Ciphertext:               8989c908c50e008e70ea5b897dc3544c757276c3f35360adfad061dffd0531698989c908c50e008e70ea5b897dc3544c49f5ce35e4a6ecca874610dc7cd08e99
Reciphers for ciphertext: 0
Decipheredtext:           0000000000000000000000000000000000
RESULT CIPHER-DECIPHER: -----OK-----


Test: 28
Crypto pad: 2
Symmetric key bit length: 192
IV bit length:            128
Plaintext bit length:     136
Symmetric key:            000000000000000000000008000000000000000000000000
IV:                       00000000000000000000000000000000
Plaintext:                0000000000000000000000000000000000
Ciphertext:               981c174277f29f8dd06e1d4c97d9816f1b9d30b42ae15d8290dd8b2691122b95981c174277f29f8dd06e1d4c97d9816f06e85f9a59dadedd6fcf4462acca10ac
Reciphers for ciphertext: 0
Decipheredtext:           0000000000000000000000000000000000
RESULT CIPHER-DECIPHER: -----OK-----


Test: 29
Crypto pad: 2
Symmetric key bit length: 192
IV bit length:            128
Plaintext bit length:     136
Symmetric key:            000000000000000000000004000000000000000000000000
IV:                       00000000000000000000000000000000
Plaintext:                0000000000000000000000000000000000
Ciphertext:               0279dec16a532e160aa5b4ff7682f696f1953cf4d84f7614bd70d71014e8a0180279dec16a532e160aa5b4ff7682f696172a889c59359db93ed46da0568520ab
Reciphers for ciphertext: 0
Decipheredtext:           0000000000000000000000000000000000
RESULT CIPHER-DECIPHER: -----OK-----


Test: 30
Crypto pad: 1
Symmetric key bit length: 192
IV bit length:            128
Plaintext bit length:     136
Symmetric key:            000000000000000000000002000000000000000000000000
IV:                       00000000000000000000000000000000
Plaintext:                0000000000000000000000000000000000
Ciphertext:               c3bffb31fcb0a61188de9aa606cb286c78efd9331c4eabe75bf8b6518cd30751c3bffb31fcb0a61188de9aa606cb286ccf6e9e430be92892e277621b27876c4c
Reciphers for ciphertext: 0
Decipheredtext:           0000000000000000000000000000000000
RESULT CIPHER-DECIPHER: -----OK-----


Test: 31
Crypto pad: 1
Symmetric key bit length: 192
IV bit length:            128
Plaintext bit length:     136
Symmetric key:            000000000000000000000001000000000000000000000000
IV:                       00000000000000000000000000000000
Plaintext:                0000000000000000000000000000000000
Ciphertext:               5c1c4966b387a41d52f83bbf322d25dfa5f22e40cc4c5cbeef992bc66b8542085c1c4966b387a41d52f83bbf322d25dfcc8c0f333170573b767d505609b18e7b
Reciphers for ciphertext: 0
Decipheredtext:           0000000000000000000000000000000000
RESULT CIPHER-DECIPHER: -----OK-----


Test: 32
Crypto pad: 0
Symmetric key bit length: 192
IV bit length:            128
Plaintext bit length:     136
Symmetric key:            000000000000000000000000800000000000000000000000
IV:                       00000000000000000000000000000000
Plaintext:                0000000000000000000000000000000000
Ciphertext:               6602ecc6af62ef1eb4d17e2487a64f7a136cbd42f0e2812fbe09505c21fa63086602ecc6af62ef1eb4d17e2487a64f7a6a7a951113ed75792344256c3f2bf679
Reciphers for ciphertext: 0
Decipheredtext:           0000000000000000000000000000000000
RESULT CIPHER-DECIPHER: -----OK-----


Test: 33
Crypto pad: 0
Symmetric key bit length: 192
IV bit length:            128
Plaintext bit length:     136
Symmetric key:            000000000000000000000000400000000000000000000000
IV:                       00000000000000000000000000000000
Plaintext:                0000000000000000000000000000000000
Ciphertext:               2da725366bd7774ba235183cc9b273b4a57c3efba12d32cf5840846a1cb136222da725366bd7774ba235183cc9b273b4546bc33acfa524b4e43160e41d702932
Reciphers for ciphertext: 0
Decipheredtext:           0000000000000000000000000000000000
RESULT CIPHER-DECIPHER: -----OK-----


Test: 34
Crypto pad: 1
Symmetric key bit length: 192
IV bit length:            128
Plaintext bit length:     136
Symmetric key:            000000000000000000000000200000000000000000000000
IV:                       00000000000000000000000000000000
Plaintext:                0000000000000000000000000000000000
Ciphertext:               71b29cf87c313f0b89b75251efc4ff7fbf19da63b9c64ac3a7205a8d001a686d71b29cf87c313f0b89b75251efc4ff7f26a130a6ee40c3ac3a92a0806e147239
Reciphers for ciphertext: 0
Decipheredtext:           0000000000000000000000000000000000
RESULT CIPHER-DECIPHER: -----OK-----


Test: 35
Crypto pad: 0
Symmetric key bit length: 192
IV bit length:            128
Plaintext bit length:     136
Symmetric key:            000000000000000000000000100000000000000000000000
IV:                       00000000000000000000000000000000
Plaintext:                0000000000000000000000000000000000
Ciphertext:               4d9bdbcba04c54aeaa7f48470428eca2d0c4cb8daaef3ee5965b31c4ed0ad57c4d9bdbcba04c54aeaa7f48470428eca2ba5c669002dfea28fc1feed8a20d8872
Reciphers for ciphertext: 0
Decipheredtext:           0000000000000000000000000000000000
RESULT CIPHER-DECIPHER: -----OK-----


Test: 36
Crypto pad: 2
Symmetric key bit length: 192
IV bit length:            128
Plaintext bit length:     136
Symmetric key:            000000000000000000000000080000000000000000000000
IV:                       00000000000000000000000000000000
Plaintext:                0000000000000000000000000000000000
Ciphertext:               c6bc53a3c6d6c8a6f12b97b151bfbb3ff206605ebf54fa8be1a080d93887933ac6bc53a3c6d6c8a6f12b97b151bfbb3f6adbf1b3fe52c71c1cbebf95948d59f2
Reciphers for ciphertext: 0
Decipheredtext:           0000000000000000000000000000000000
RESULT CIPHER-DECIPHER: -----OK-----


Test: 37
Crypto pad: 2
Symmetric key bit length: 192
IV bit length:            128
Plaintext bit length:     136
Symmetric key:            000000000000000000000000040000000000000000000000
IV:                       00000000000000000000000000000000
Plaintext:                0000000000000000000000000000000000
Ciphertext:               fd3e8d6732bbc2aa13f03f9ab0bcec142f9425829c160bb3bc52bf16839b7dfefd3e8d6732bbc2aa13f03f9ab0bcec149da55925cad03bff9333ed1af333b5ee
Reciphers for ciphertext: 0
Decipheredtext:           0000000000000000000000000000000000
RESULT CIPHER-DECIPHER: -----OK-----


Test: 38
Crypto pad: 0
Symmetric key bit length: 192
IV bit length:            128
Plaintext bit length:     136
Symmetric key:            000000000000000000000000020000000000000000000000
IV:                       00000000000000000000000000000000
Plaintext:                0000000000000000000000000000000000
Ciphertext:               832c8698a93262c221a6b86aceeeaa6280999a25ec072b432a99c83820fc12927d5ed8fef289ff7f8953278e0a0297a13bc18f30f6cc67f52991e73d02ef8f7e
Reciphers for ciphertext: 1
Decipheredtext:           0000000000000000000000000000000000
RESULT CIPHER-DECIPHER: -----OK-----


Test: 39
Crypto pad: 1
Symmetric key bit length: 192
IV bit length:            128
Plaintext bit length:     136
Symmetric key:            000000000000000000000000010000000000000000000000
IV:                       00000000000000000000000000000000
Plaintext:                0000000000000000000000000000000000
Ciphertext:               84a20023ef5e31771802e8a2ffba485b2fcb6fc013afe35d5a74f7d67cb46d3c84a20023ef5e31771802e8a2ffba485be72b30e490c6a6f81adc2d6816d3e2b8
Reciphers for ciphertext: 0
Decipheredtext:           0000000000000000000000000000000000
RESULT CIPHER-DECIPHER: -----OK-----


Test: 40
Crypto pad: 1
Symmetric key bit length: 192
IV bit length:            128
Plaintext bit length:     136
Symmetric key:            000000000000000000000000008000000000000000000000
IV:                       00000000000000000000000000000000
Plaintext:                0000000000000000000000000000000000
Ciphertext:               7bd6e573ae79f0fa9fe38ecf6011d75655042a64ae9e1f6d4fd404111f822c7d7bd6e573ae79f0fa9fe38ecf6011d75611bd1ab632d3ce6a5d7f31f7a3205d98
Reciphers for ciphertext: 0
Decipheredtext:           0000000000000000000000000000000000
RESULT CIPHER-DECIPHER: -----OK-----


Test: 41
Crypto pad: 0
Symmetric key bit length: 192
IV bit length:            128
Plaintext bit length:     136
Symmetric key:            000000000000000000000000004000000000000000000000
IV:                       00000000000000000000000000000000
Plaintext:                0000000000000000000000000000000000
Ciphertext:               8d754b763a7cdc075510d4b9e8c25f852a8e164d534544f1c8f78994a66a386deb58ea6b6de1282a7bb9ea1a2254a5424b2975c4f072d3f166c15ddf6197681d
Reciphers for ciphertext: 1
Decipheredtext:           0000000000000000000000000000000000
RESULT CIPHER-DECIPHER: -----OK-----


Test: 42
Crypto pad: 0
Symmetric key bit length: 192
IV bit length:            128
Plaintext bit length:     136
Symmetric key:            000000000000000000000000002000000000000000000000
IV:                       00000000000000000000000000000000
Plaintext:                0000000000000000000000000000000000
Ciphertext:               30a697e325c4d3bec8e69a2dad2ae5bb39ca82f30b4bc0cbeca7a20fa22ce4e130a697e325c4d3bec8e69a2dad2ae5bb8126897cd77b1ca1370f1d74164667e7
Reciphers for ciphertext: 0
Decipheredtext:           0000000000000000000000000000000000
RESULT CIPHER-DECIPHER: -----OK-----


Test: 43
Crypto pad: 2
Symmetric key bit length: 192
IV bit length:            128
Plaintext bit length:     136
Symmetric key:            000000000000000000000000001000000000000000000000
IV:                       00000000000000000000000000000000
Plaintext:                0000000000000000000000000000000000
Ciphertext:               3205f6feaa38500ac74be66fedf3231ec439c1d3355c6affb469c7db731911533205f6feaa38500ac74be66fedf3231eb782e187cbd7fc195350c0ea88b13ca7
Reciphers for ciphertext: 0
Decipheredtext:           0000000000000000000000000000000000
RESULT CIPHER-DECIPHER: -----OK-----


Test: 44
Crypto pad: 1
Symmetric key bit length: 192
IV bit length:            128
Plaintext bit length:     136
Symmetric key:            000000000000000000000000000800000000000000000000
IV:                       00000000000000000000000000000000
Plaintext:                0000000000000000000000000000000000
Ciphertext:               83c007676041e81b836886abed807a71d92cf5b88891f07780e6246d15b2fa1e83c007676041e81b836886abed807a71ea294ce5d0768a3a7ede826583fac53d
Reciphers for ciphertext: 0
Decipheredtext:           0000000000000000000000000000000000
RESULT CIPHER-DECIPHER: -----OK-----


Test: 45
Crypto pad: 1
Symmetric key bit length: 192
IV bit length:            128
Plaintext bit length:     136
Symmetric key:            000000000000000000000000000400000000000000000000
IV:                       00000000000000000000000000000000
Plaintext:                0000000000000000000000000000000000
Ciphertext:               24b33b3138855437cc11d3792a1fd00fdcf516c44a7a2f2f3c38a798436c74be24b33b3138855437cc11d3792a1fd00f519235cb3aa6381ae7d598a31bf1f312
Reciphers for ciphertext: 0
Decipheredtext:           0000000000000000000000000000000000
RESULT CIPHER-DECIPHER: -----OK-----


Test: 46
Crypto pad: 2
Symmetric key bit length: 192
IV bit length:            128
Plaintext bit length:     136
Symmetric key:            000000000000000000000000000200000000000000000000
IV:                       00000000000000000000000000000000
Plaintext:                0000000000000000000000000000000000
Ciphertext:               26324d7e2c055366910464699d73608ab97c8f73f38d24ff2047f95a614d136626324d7e2c055366910464699d73608a9769927b360bf1abebc7f44c02417653
Reciphers for ciphertext: 0
Decipheredtext:           0000000000000000000000000000000000
RESULT CIPHER-DECIPHER: -----OK-----


Test: 47
Crypto pad: 1
Symmetric key bit length: 192
IV bit length:            128
Plaintext bit length:     136
Symmetric key:            000000000000000000000000000100000000000000000000
IV:                       00000000000000000000000000000000
Plaintext:                0000000000000000000000000000000000
Ciphertext:               f2e9c66f762154a259f4824be2f60b6916a446662ca92251be6b56bbc512b3ccf9a94a959ae7cd2a9d5fb7274703906be98eca0e8a39f0e221a5a84d51dc38c5
Reciphers for ciphertext: 1
Decipheredtext:           0000000000000000000000000000000000
RESULT CIPHER-DECIPHER: -----OK-----


Test: 48
Crypto pad: 2
Symmetric key bit length: 192
IV bit length:            128
Plaintext bit length:     136
Symmetric key:            000000000000000000000000000080000000000000000000
IV:                       00000000000000000000000000000000
Plaintext:                0000000000000000000000000000000000
Ciphertext:               ad13d85e47efc76b67ed25791e119a5c6ebbbbef9efcce9a3e7cfae3d20c5de3ad13d85e47efc76b67ed25791e119a5c67e96ab41c6bce127e8d938bff15e80f
Reciphers for ciphertext: 0
Decipheredtext:           0000000000000000000000000000000000
RESULT CIPHER-DECIPHER: -----OK-----


Test: 49
Crypto pad: 0
Symmetric key bit length: 192
IV bit length:            128
Plaintext bit length:     136
Symmetric key:            000000000000000000000000000040000000000000000000
IV:                       00000000000000000000000000000000
Plaintext:                0000000000000000000000000000000000
Ciphertext:               5fb689176b296f2e579fc69a18fa07eb22271cd3432a34f809ee9e63cc16ed495fb689176b296f2e579fc69a18fa07eb6bc401db75cce855060c99edc47c0332
Reciphers for ciphertext: 0
Decipheredtext:           0000000000000000000000000000000000
RESULT CIPHER-DECIPHER: -----OK-----


Test: 50
Crypto pad: 0
Symmetric key bit length: 192
IV bit length:            128
Plaintext bit length:     136
Symmetric key:            000000000000000000000000000020000000000000000000
IV:                       00000000000000000000000000000000
Plaintext:                0000000000000000000000000000000000
Ciphertext:               936dfba0a052a299c195f34a66c0cedfd60c06a047e4459367b04248f4ca91d7936dfba0a052a299c195f34a66c0cedf5b2ecec75f488041efddd301a1c9b546
Reciphers for ciphertext: 0
Decipheredtext:           0000000000000000000000000000000000
RESULT CIPHER-DECIPHER: -----OK-----


Test: 51
Crypto pad: 0
Symmetric key bit length: 192
IV bit length:            128
Plaintext bit length:     136
Symmetric key:            000000000000000000000000000010000000000000000000
IV:                       00000000000000000000000000000000
Plaintext:                0000000000000000000000000000000000
Ciphertext:               486c03278bb30f26d25ae0d6348c9491cffa9dbbf1c1bba28aa4cea553b2bb1e486c03278bb30f26d25ae0d6348c94914a9df6e569c93482398097e853f0ca12
Reciphers for ciphertext: 0
Decipheredtext:           0000000000000000000000000000000000
RESULT CIPHER-DECIPHER: -----OK-----


Test: 52
Crypto pad: 1
Symmetric key bit length: 192
IV bit length:            128
Plaintext bit length:     136
Symmetric key:            000000000000000000000000000008000000000000000000
IV:                       00000000000000000000000000000000
Plaintext:                0000000000000000000000000000000000
Ciphertext:               fce14e6ce2073b5e8d1572a1ec1bd5028d4264bd2ce5a2a238d7f873860c157efce14e6ce2073b5e8d1572a1ec1bd50222bbf6d2ca217c3aa308bbf78e975ef2
Reciphers for ciphertext: 0
Decipheredtext:           0000000000000000000000000000000000
RESULT CIPHER-DECIPHER: -----OK-----


Test: 53
Crypto pad: 2
Symmetric key bit length: 192
IV bit length:            128
Plaintext bit length:     136
Symmetric key:            000000000000000000000000000004000000000000000000
IV:                       00000000000000000000000000000000
Plaintext:                0000000000000000000000000000000000
Ciphertext:               5f15b8a64edbf0e55c3b8bb67bc9b2e1b991b850f119cc00bd7671e00eb8dde55f15b8a64edbf0e55c3b8bb67bc9b2e1784be476c45a779089501bdaecc5a64a
Reciphers for ciphertext: 0
Decipheredtext:           0000000000000000000000000000000000
RESULT CIPHER-DECIPHER: -----OK-----


Test: 54
Crypto pad: 1
Symmetric key bit length: 192
IV bit length:            128
Plaintext bit length:     136
Symmetric key:            000000000000000000000000000002000000000000000000
IV:                       00000000000000000000000000000000
Plaintext:                0000000000000000000000000000000000
Ciphertext:               7bdc738a342891c7be06e87e12f71418173b97ae555ffda194724d8417c12bc07bdc738a342891c7be06e87e12f714184959eafeae2a311cc22a492770a95733
Reciphers for ciphertext: 0
Decipheredtext:           0000000000000000000000000000000000
RESULT CIPHER-DECIPHER: -----OK-----


Test: 55
Crypto pad: 1
Symmetric key bit length: 192
IV bit length:            128
Plaintext bit length:     136
Symmetric key:            000000000000000000000000000001000000000000000000
IV:                       00000000000000000000000000000000
Plaintext:                0000000000000000000000000000000000
Ciphertext:               31c6fedabbc8c8ad64c27505f02bc7cce195869a8f4ec23e3612fa1ccc4d07fd31c6fedabbc8c8ad64c27505f02bc7cc15c68cf8b73832de23833206c211e60a
Reciphers for ciphertext: 0
Decipheredtext:           0000000000000000000000000000000000
RESULT CIPHER-DECIPHER: -----OK-----


Test: 56
Crypto pad: 1
Symmetric key bit length: 192
IV bit length:            128
Plaintext bit length:     136
Symmetric key:            000000000000000000000000000000800000000000000000
IV:                       00000000000000000000000000000000
Plaintext:                0000000000000000000000000000000000
Ciphertext:               33ccd97eb8c3c06b7bcd16659e1f9837ac22842e8b0ae0541f23cd0f6a881c4533ccd97eb8c3c06b7bcd16659e1f983777d420029118fc1f381d71c2c0a357a4
Reciphers for ciphertext: 0
Decipheredtext:           0000000000000000000000000000000000
RESULT CIPHER-DECIPHER: -----OK-----


Test: 57
Crypto pad: 1
Symmetric key bit length: 192
IV bit length:            128
Plaintext bit length:     136
Symmetric key:            000000000000000000000000000000400000000000000000
IV:                       00000000000000000000000000000000
Plaintext:                0000000000000000000000000000000000
Ciphertext:               12c3089895d4a1c1d03db0071f88ab1b9ce61479395d25f113907d5b739f8c6312c3089895d4a1c1d03db0071f88ab1b59db495ea282f76827deaf34359c45f4
Reciphers for ciphertext: 0
Decipheredtext:           0000000000000000000000000000000000
RESULT CIPHER-DECIPHER: -----OK-----


Test: 58
Crypto pad: 1
Symmetric key bit length: 192
IV bit length:            128
Plaintext bit length:     136
Symmetric key:            000000000000000000000000000000200000000000000000
IV:                       00000000000000000000000000000000
Plaintext:                0000000000000000000000000000000000
Ciphertext:               8eb4796c7f7c3b0858750ebe3baa335c9d005a4ee3e1e82d88c9b881bfe010fc8eb4796c7f7c3b0858750ebe3baa335c0031256399629cd50558983f45ebfa0c
Reciphers for ciphertext: 0
Decipheredtext:           0000000000000000000000000000000000
RESULT CIPHER-DECIPHER: -----OK-----


Test: 59
Crypto pad: 1
Symmetric key bit length: 192
IV bit length:            128
Plaintext bit length:     136
Symmetric key:            000000000000000000000000000000100000000000000000
IV:                       00000000000000000000000000000000
Plaintext:                0000000000000000000000000000000000
Ciphertext:               67169af324151e92c6b7c31687b837833f92ca585199d34514df210ac322256e67169af324151e92c6b7c31687b837832b5f847d68bdabcd47c7fedc4c7dc06d
Reciphers for ciphertext: 0
Decipheredtext:           0000000000000000000000000000000000
RESULT CIPHER-DECIPHER: -----OK-----


Test: 60
Crypto pad: 2
Symmetric key bit length: 192
IV bit length:            128
Plaintext bit length:     136
Symmetric key:            000000000000000000000000000000080000000000000000
IV:                       00000000000000000000000000000000
Plaintext:                0000000000000000000000000000000000
Ciphertext:               ab0e10564d41594b55ce3d5b088d93b4b9dfd98c1380fa0355119a53e5819896ab0e10564d41594b55ce3d5b088d93b4f26d3d82c8f7919ea076216fa12a9085
Reciphers for ciphertext: 0
Decipheredtext:           0000000000000000000000000000000000
RESULT CIPHER-DECIPHER: -----OK-----


Test: 61
Crypto pad: 1
Symmetric key bit length: 192
IV bit length:            128
Plaintext bit length:     136
Symmetric key:            000000000000000000000000000000040000000000000000
IV:                       00000000000000000000000000000000
Plaintext:                0000000000000000000000000000000000
Ciphertext:               45228986b08e63728239adc9c249e4756624d11520af6401fa01b8634b5202a945228986b08e63728239adc9c249e4750d0ab0ffdaf42169c0bd25d3dea5aa6f
Reciphers for ciphertext: 0
Decipheredtext:           0000000000000000000000000000000000
RESULT CIPHER-DECIPHER: -----OK-----


Test: 62
Crypto pad: 1
Symmetric key bit length: 192
IV bit length:            128
Plaintext bit length:     136
Symmetric key:            000000000000000000000000000000020000000000000000
IV:                       00000000000000000000000000000000
Plaintext:                0000000000000000000000000000000000
Ciphertext:               ca7e48d5a4cd15984ca9ef99ec789efdb06d9440236f84798054efd817342a8bca7e48d5a4cd15984ca9ef99ec789efd77ea1c12bf082078d34cdf804010f103
Reciphers for ciphertext: 0
Decipheredtext:           0000000000000000000000000000000000
RESULT CIPHER-DECIPHER: -----OK-----


Test: 63
Crypto pad: 1
Symmetric key bit length: 192
IV bit length:            128
Plaintext bit length:     136
Symmetric key:            000000000000000000000000000000010000000000000000
IV:                       00000000000000000000000000000000
Plaintext:                0000000000000000000000000000000000
Ciphertext:               b4dd56ff85f7abbeb9e0f5ae6b0e491dbf01113b2587bbd3c734eaf309b04516b4dd56ff85f7abbeb9e0f5ae6b0e491d5650fbd81724887f18562cc38a65ae65
Reciphers for ciphertext: 0
Decipheredtext:           0000000000000000000000000000000000
RESULT CIPHER-DECIPHER: -----OK-----


Test: 64
Crypto pad: 2
Symmetric key bit length: 192
IV bit length:            128
Plaintext bit length:     136
Symmetric key:            000000000000000000000000000000008000000000000000
IV:                       00000000000000000000000000000000
Plaintext:                0000000000000000000000000000000000
Ciphertext:               044be36d2f5a3d0fea74443538f553936d73e30cd1dd36d7d40baf5ad445394b044be36d2f5a3d0fea74443538f55393c7a773a861544e648f4b5a95254bfd7f
Reciphers for ciphertext: 0
Decipheredtext:           0000000000000000000000000000000000
RESULT CIPHER-DECIPHER: -----OK-----


Test: 65
Crypto pad: 2
Symmetric key bit length: 192
IV bit length:            128
Plaintext bit length:     136
Symmetric key:            000000000000000000000000000000004000000000000000
IV:                       00000000000000000000000000000000
Plaintext:                0000000000000000000000000000000000
Ciphertext:               531ec401fb7c3bfadf64bb08e0dd9992302c5fda5c84e03a3c7d6a0134d37869531ec401fb7c3bfadf64bb08e0dd99927f0b755db396477b2fe9738f78b97e99
Reciphers for ciphertext: 0
Decipheredtext:           0000000000000000000000000000000000
RESULT CIPHER-DECIPHER: -----OK-----


Test: 66
Crypto pad: 2
Symmetric key bit length: 192
IV bit length:            128
Plaintext bit length:     136
Symmetric key:            000000000000000000000000000000002000000000000000
IV:                       00000000000000000000000000000000
Plaintext:                0000000000000000000000000000000000
Ciphertext:               ea8d6b6963ec2267050f8cf5d1d1d939f41b69e5f41bcc117efda41ca31748f8ea8d6b6963ec2267050f8cf5d1d1d939985d1d7a7fd44c07d02f6dfaf54132fd
Reciphers for ciphertext: 0
Decipheredtext:           0000000000000000000000000000000000
RESULT CIPHER-DECIPHER: -----OK-----


Test: 67
Crypto pad: 2
Symmetric key bit length: 192
IV bit length:            128
Plaintext bit length:     136
Symmetric key:            000000000000000000000000000000001000000000000000
IV:                       00000000000000000000000000000000
Plaintext:                0000000000000000000000000000000000
Ciphertext:               807a84818503f115853e79c75cac5e2d2d39c478d16ebf856e670c1c151a7edfcf5d7f27462ff7415d4e5ecbaee0797c79916af7361b637ad9150434d84db737
Reciphers for ciphertext: 1
Decipheredtext:           0000000000000000000000000000000000
RESULT CIPHER-DECIPHER: -----OK-----


Test: 68
Crypto pad: 0
Symmetric key bit length: 192
IV bit length:            128
Plaintext bit length:     136
Symmetric key:            000000000000000000000000000000000800000000000000
IV:                       00000000000000000000000000000000
Plaintext:                0000000000000000000000000000000000
Ciphertext:               df28b8322d4b8606ff3eff09d39697b05a604d30c3fcd9e9a236676bb96ccae7df28b8322d4b8606ff3eff09d39697b0eb9ec05a3b2ffbe749576b730b94928c
Reciphers for ciphertext: 0
Decipheredtext:           0000000000000000000000000000000000
RESULT CIPHER-DECIPHER: -----OK-----


Test: 69
Crypto pad: 1
Symmetric key bit length: 192
IV bit length:            128
Plaintext bit length:     136
Symmetric key:            000000000000000000000000000000000400000000000000
IV:                       00000000000000000000000000000000
Plaintext:                0000000000000000000000000000000000
Ciphertext:               956ef889aab218e21faf8e9cc2ae41f9517196482a302ec4ebb4e7cc1f9c1abe956ef889aab218e21faf8e9cc2ae41f9e4e43ef1dc1cabf1788af20298e28358
Reciphers for ciphertext: 0
Decipheredtext:           0000000000000000000000000000000000
RESULT CIPHER-DECIPHER: -----OK-----


Test: 70
Crypto pad: 1
Symmetric key bit length: 192
IV bit length:            128
Plaintext bit length:     136
Symmetric key:            000000000000000000000000000000000200000000000000
IV:                       00000000000000000000000000000000
Plaintext:                0000000000000000000000000000000000
Ciphertext:               ad0cf3c46f420e96b876dd55515b4b8079ef1c8f4d6e22a83f066f1b702da9ffad0cf3c46f420e96b876dd55515b4b801871e3653d0fb8f547cc7e907faf801e
Reciphers for ciphertext: 0
Decipheredtext:           0000000000000000000000000000000000
RESULT CIPHER-DECIPHER: -----OK-----


Test: 71
Crypto pad: 1
Symmetric key bit length: 192
IV bit length:            128
Plaintext bit length:     136
Symmetric key:            000000000000000000000000000000000100000000000000
IV:                       00000000000000000000000000000000
Plaintext:                0000000000000000000000000000000000
Ciphertext:               ec8620d3b9b456633ad174573cf82abdccb4609803b948b1bc3310adefe4aaf7ec8620d3b9b456633ad174573cf82abdc261c736a74f5b0681dd7ad6ebebda2e
Reciphers for ciphertext: 0
Decipheredtext:           0000000000000000000000000000000000
RESULT CIPHER-DECIPHER: -----OK-----


Test: 72
Crypto pad: 2
Symmetric key bit length: 192
IV bit length:            128
Plaintext bit length:     136
Symmetric key:            000000000000000000000000000000000080000000000000
IV:                       00000000000000000000000000000000
Plaintext:                0000000000000000000000000000000000
Ciphertext:               a7cc6c810c1433b8d130594a48a36f69e4380a4764e6d23f5842e240efc8d2a0a7cc6c810c1433b8d130594a48a36f69a3656c8516a67ade03f3711de50c9367
Reciphers for ciphertext: 0
Decipheredtext:           0000000000000000000000000000000000
RESULT CIPHER-DECIPHER: -----OK-----


Test: 73
Crypto pad: 0
Symmetric key bit length: 192
IV bit length:            128
Plaintext bit length:     136
Symmetric key:            000000000000000000000000000000000040000000000000
IV:                       00000000000000000000000000000000
Plaintext:                0000000000000000000000000000000000
Ciphertext:               b02c5af13d523a2a62e9f3829f9e336431bd58bd806441b9d8e5ba38e545e7f3b02c5af13d523a2a62e9f3829f9e33643e0aa9a87b4e208cd187443af79af4cf
Reciphers for ciphertext: 0
Decipheredtext:           0000000000000000000000000000000000
RESULT CIPHER-DECIPHER: -----OK-----


Test: 74
Crypto pad: 2
Symmetric key bit length: 192
IV bit length:            128
Plaintext bit length:     136
Symmetric key:            000000000000000000000000000000000020000000000000
IV:                       00000000000000000000000000000000
Plaintext:                0000000000000000000000000000000000
Ciphertext:               5ac8368ec6150f08cc2c44dba8a9d84febb58c87b9662a4472e2c63cbbc4b6065ac8368ec6150f08cc2c44dba8a9d84f04c520d43775daaedd7f58720dfdec69
Reciphers for ciphertext: 0
Decipheredtext:           0000000000000000000000000000000000
RESULT CIPHER-DECIPHER: -----OK-----


Test: 75
Crypto pad: 1
Symmetric key bit length: 192
IV bit length:            128
Plaintext bit length:     136
Symmetric key:            000000000000000000000000000000000010000000000000
IV:                       00000000000000000000000000000000
Plaintext:                0000000000000000000000000000000000
Ciphertext:               3bd51735d6087217eef17b40750d701fac71e165dc2c1215f47a7d60dec9e5863bd51735d6087217eef17b40750d701fdd982673c839b34c6307f9283faf3efc
Reciphers for ciphertext: 0
Decipheredtext:           0000000000000000000000000000000000
RESULT CIPHER-DECIPHER: -----OK-----


Test: 76
Crypto pad: 2
Symmetric key bit length: 192
IV bit length:            128
Plaintext bit length:     136
Symmetric key:            000000000000000000000000000000000008000000000000
IV:                       00000000000000000000000000000000
Plaintext:                0000000000000000000000000000000000
Ciphertext:               330cc76a5529364b08f722c6206214e79e2da111d2982b00a1fed590c46809b2330cc76a5529364b08f722c6206214e7590d3ddccf77ac7c07f16370d609b1d2
Reciphers for ciphertext: 0
Decipheredtext:           0000000000000000000000000000000000
RESULT CIPHER-DECIPHER: -----OK-----


Test: 77
Crypto pad: 0
Symmetric key bit length: 192
IV bit length:            128
Plaintext bit length:     136
Symmetric key:            000000000000000000000000000000000004000000000000
IV:                       00000000000000000000000000000000
Plaintext:                0000000000000000000000000000000000
Ciphertext:               13ca2152cb81267d8429670a8d9835925586971d9597801201d7614f556b2cc813ca2152cb81267d8429670a8d9835925458a97cfd0bb44ae2d1da8cb3a37518
Reciphers for ciphertext: 0
Decipheredtext:           0000000000000000000000000000000000
RESULT CIPHER-DECIPHER: -----OK-----


Test: 78
Crypto pad: 0
Symmetric key bit length: 192
IV bit length:            128
Plaintext bit length:     136
Symmetric key:            000000000000000000000000000000000002000000000000
IV:                       00000000000000000000000000000000
Plaintext:                0000000000000000000000000000000000
Ciphertext:               3943d67ce79cb8519eb9a5d1021988edf3910d3e94226c6c454af62a770c91a73943d67ce79cb8519eb9a5d1021988edadc92cd84d8951972390b8e061ef7382
Reciphers for ciphertext: 0
Decipheredtext:           0000000000000000000000000000000000
RESULT CIPHER-DECIPHER: -----OK-----


Test: 79
Crypto pad: 1
Symmetric key bit length: 192
IV bit length:            128
Plaintext bit length:     136
Symmetric key:            000000000000000000000000000000000001000000000000
IV:                       00000000000000000000000000000000
Plaintext:                0000000000000000000000000000000000
Ciphertext:               642858d825e8640718abe6174bd04a326a023c0df7e2fcd76eae19017da7f5d0642858d825e8640718abe6174bd04a32faf6b23a7a86b47ee5e3ce69b4d52c29
Reciphers for ciphertext: 0
Decipheredtext:           0000000000000000000000000000000000
RESULT CIPHER-DECIPHER: -----OK-----


Test: 80
Crypto pad: 2
Symmetric key bit length: 192
IV bit length:            128
Plaintext bit length:     136
Symmetric key:            000000000000000000000000000000000000800000000000
IV:                       00000000000000000000000000000000
Plaintext:                0000000000000000000000000000000000
Ciphertext:               f22616de88a4ccbf97cf2db709237ec798f5fa9ec17404ace633d9004520fff9f22616de88a4ccbf97cf2db709237ec76ad6025141a94a97a8864c15c6511fc7
Reciphers for ciphertext: 0
Decipheredtext:           0000000000000000000000000000000000
RESULT CIPHER-DECIPHER: -----OK-----


Test: 81
Crypto pad: 2
Symmetric key bit length: 192
IV bit length:            128
Plaintext bit length:     136
Symmetric key:            000000000000000000000000000000000000400000000000
IV:                       00000000000000000000000000000000
Plaintext:                0000000000000000000000000000000000
Ciphertext:               b90d7f6bf0d9fc11a01f2b33194806db85d79b86c53c3a174cf83e789a5cbdf6b90d7f6bf0d9fc11a01f2b33194806dbb45fe10f2968d476202001411b91a08b
Reciphers for ciphertext: 0
Decipheredtext:           0000000000000000000000000000000000
RESULT CIPHER-DECIPHER: -----OK-----


Test: 82
Crypto pad: 0
Symmetric key bit length: 192
IV bit length:            128
Plaintext bit length:     136
Symmetric key:            000000000000000000000000000000000000200000000000
IV:                       00000000000000000000000000000000
Plaintext:                0000000000000000000000000000000000
Ciphertext:               c161d350dc897b210d0d0ce8ce78f4b4fccdb6d41fc3d3c839ea293a19918b27c161d350dc897b210d0d0ce8ce78f4b498ea9e131ded31c9d228dc245cf041aa
Reciphers for ciphertext: 0
Decipheredtext:           0000000000000000000000000000000000
RESULT CIPHER-DECIPHER: -----OK-----


Test: 83
Crypto pad: 0
Symmetric key bit length: 192
IV bit length:            128
Plaintext bit length:     136
Symmetric key:            000000000000000000000000000000000000100000000000
IV:                       00000000000000000000000000000000
Plaintext:                0000000000000000000000000000000000
Ciphertext:               66e46482150e7cf9bcbe60af7bca689208dace0c1a68e777fd2d24b4fb39918866e46482150e7cf9bcbe60af7bca6892b327731c13ea577e3583c6517be07ac7
Reciphers for ciphertext: 0
Decipheredtext:           0000000000000000000000000000000000
RESULT CIPHER-DECIPHER: -----OK-----


Test: 84
Crypto pad: 2
Symmetric key bit length: 192
IV bit length:            128
Plaintext bit length:     136
Symmetric key:            000000000000000000000000000000000000080000000000
IV:                       00000000000000000000000000000000
Plaintext:                0000000000000000000000000000000000
Ciphertext:               b17c912e085d8854f220555eb0fa89bd7f1ee21691146c1779bf50ad8df234dbb17c912e085d8854f220555eb0fa89bd32e9476cc5182301426690c57c98ca2f
Reciphers for ciphertext: 0
Decipheredtext:           0000000000000000000000000000000000
RESULT CIPHER-DECIPHER: -----OK-----


Test: 85
Crypto pad: 0
Symmetric key bit length: 192
IV bit length:            128
Plaintext bit length:     136
Symmetric key:            000000000000000000000000000000000000040000000000
IV:                       00000000000000000000000000000000
Plaintext:                0000000000000000000000000000000000
Ciphertext:               6fd6a99633fbd3a6d238cadf37824ad2cda3e5f267a2774ceb30d65f314846f06fd6a99633fbd3a6d238cadf37824ad2e8fdecd7c84a7a5a79f120ae65b19481
Reciphers for ciphertext: 0
Decipheredtext:           0000000000000000000000000000000000
RESULT CIPHER-DECIPHER: -----OK-----


Test: 86
Crypto pad: 1
Symmetric key bit length: 192
IV bit length:            128
Plaintext bit length:     136
Symmetric key:            000000000000000000000000000000000000020000000000
IV:                       00000000000000000000000000000000
Plaintext:                0000000000000000000000000000000000
Ciphertext:               9de6d76d9a7e4aab7a58eece0e153d736298e3bbff3f277ff04a3b5d3e06ba649de6d76d9a7e4aab7a58eece0e153d73de6bcd9534fb9284a5b13d1efd8ae077
Reciphers for ciphertext: 0
Decipheredtext:           0000000000000000000000000000000000
RESULT CIPHER-DECIPHER: -----OK-----


Test: 87
Crypto pad: 0
Symmetric key bit length: 192
IV bit length:            128
Plaintext bit length:     136
Symmetric key:            000000000000000000000000000000000000010000000000
IV:                       00000000000000000000000000000000
Plaintext:                0000000000000000000000000000000000
Ciphertext:               b4716a7db10e3b8d1475c7efb929f93af9825a6a10b0c15370417d7d642ebba5b4716a7db10e3b8d1475c7efb929f93add2ba63c266013147a2c6fced1375082
Reciphers for ciphertext: 0
Decipheredtext:           0000000000000000000000000000000000
RESULT CIPHER-DECIPHER: -----OK-----


Test: 88
Crypto pad: 2
Symmetric key bit length: 192
IV bit length:            128
Plaintext bit length:     136
Symmetric key:            000000000000000000000000000000000000008000000000
IV:                       00000000000000000000000000000000
Plaintext:                0000000000000000000000000000000000
Ciphertext:               3d0f65f16ad143fb2fabdf4dfe621398c8556dae11f854da143f77d847197ae73d0f65f16ad143fb2fabdf4dfe621398a87b14efd4567bdd51464d44ea08f430
Reciphers for ciphertext: 0
Decipheredtext:           0000000000000000000000000000000000
RESULT CIPHER-DECIPHER: -----OK-----


Test: 89
Crypto pad: 0
Symmetric key bit length: 192
IV bit length:            128
Plaintext bit length:     136
Symmetric key:            000000000000000000000000000000000000004000000000
IV:                       00000000000000000000000000000000
Plaintext:                0000000000000000000000000000000000
Ciphertext:               249f1415d963de146f4141c200b81d1d031e9d314369c6ff966a5dcda1a68aa4249f1415d963de146f4141c200b81d1d38329749ea0f2d6fa6195ece0a49a37d
Reciphers for ciphertext: 0
Decipheredtext:           0000000000000000000000000000000000
RESULT CIPHER-DECIPHER: -----OK-----


Test: 90
Crypto pad: 0
Symmetric key bit length: 192
IV bit length:            128
Plaintext bit length:     136
Symmetric key:            000000000000000000000000000000000000002000000000
IV:                       00000000000000000000000000000000
Plaintext:                0000000000000000000000000000000000
Ciphertext:               454cd7040ed3851c3894f6259ce0d3fe1d5609fb419bd20f7628f9775bde56cb454cd7040ed3851c3894f6259ce0d3fe526e003e095a7891f5177269cd8e8355
Reciphers for ciphertext: 0
Decipheredtext:           0000000000000000000000000000000000
RESULT CIPHER-DECIPHER: -----OK-----


Test: 91
Crypto pad: 2
Symmetric key bit length: 192
IV bit length:            128
Plaintext bit length:     136
Symmetric key:            000000000000000000000000000000000000001000000000
IV:                       00000000000000000000000000000000
Plaintext:                0000000000000000000000000000000000
Ciphertext:               4d613ee6fa78a573ecbe989a64193e0ce600cd34568eeb11f5cac3a75702193a4d613ee6fa78a573ecbe989a64193e0c96c616a05c156af5581878bad5cdb5dc
Reciphers for ciphertext: 0
Decipheredtext:           0000000000000000000000000000000000
RESULT CIPHER-DECIPHER: -----OK-----


Test: 92
Crypto pad: 2
Symmetric key bit length: 192
IV bit length:            128
Plaintext bit length:     136
Symmetric key:            000000000000000000000000000000000000000800000000
IV:                       00000000000000000000000000000000
Plaintext:                0000000000000000000000000000000000
Ciphertext:               b39384e429291b9c22005bc9b3ff2defde75db31efab613ddee1de8beab2289eb39384e429291b9c22005bc9b3ff2defffc63f30398e6a174c0322f70f636874
Reciphers for ciphertext: 0
Decipheredtext:           0000000000000000000000000000000000
RESULT CIPHER-DECIPHER: -----OK-----


Test: 93
Crypto pad: 2
Symmetric key bit length: 192
IV bit length:            128
Plaintext bit length:     136
Symmetric key:            000000000000000000000000000000000000000400000000
IV:                       00000000000000000000000000000000
Plaintext:                0000000000000000000000000000000000
Ciphertext:               957d0b27740c952e45db97c8814f49c0566158b38e36bd65295ae394d3f41bd6957d0b27740c952e45db97c8814f49c06c4b4ffa254c1768f99c002cc010100b
Reciphers for ciphertext: 0
Decipheredtext:           0000000000000000000000000000000000
RESULT CIPHER-DECIPHER: -----OK-----


Test: 94
Crypto pad: 1
Symmetric key bit length: 192
IV bit length:            128
Plaintext bit length:     136
Symmetric key:            000000000000000000000000000000000000000200000000
IV:                       00000000000000000000000000000000
Plaintext:                0000000000000000000000000000000000
Ciphertext:               2879f58f238865d877d8c276ca9e9102b25cda800598a5a876edb22797ec64182879f58f238865d877d8c276ca9e91028b0b554f445def391203a6126b7d077f
Reciphers for ciphertext: 0
Decipheredtext:           0000000000000000000000000000000000
RESULT CIPHER-DECIPHER: -----OK-----


Test: 95
Crypto pad: 2
Symmetric key bit length: 192
IV bit length:            128
Plaintext bit length:     136
Symmetric key:            000000000000000000000000000000000000000100000000
IV:                       00000000000000000000000000000000
Plaintext:                0000000000000000000000000000000000
Ciphertext:               ea5b920037608fc9d51f39488d4666f74acc154db89c6f719754c9e051d39399ea5b920037608fc9d51f39488d4666f7aa2b0206a0120187525e2cc6e284f9ad
Reciphers for ciphertext: 0
Decipheredtext:           0000000000000000000000000000000000
RESULT CIPHER-DECIPHER: -----OK-----


Test: 96
Crypto pad: 0
Symmetric key bit length: 192
IV bit length:            128
Plaintext bit length:     136
Symmetric key:            000000000000000000000000000000000000000080000000
IV:                       00000000000000000000000000000000
Plaintext:                0000000000000000000000000000000000
Ciphertext:               7659a705abca25205078541e713088bc1f13307331c038832b7f542ba8b566f17659a705abca25205078541e713088bc1d0c123b1b8de48647e2c9a29734ae7b
Reciphers for ciphertext: 0
Decipheredtext:           0000000000000000000000000000000000
RESULT CIPHER-DECIPHER: -----OK-----


Test: 97
Crypto pad: 2
Symmetric key bit length: 192
IV bit length:            128
Plaintext bit length:     136
Symmetric key:            000000000000000000000000000000000000000040000000
IV:                       00000000000000000000000000000000
Plaintext:                0000000000000000000000000000000000
Ciphertext:               47e340bb8bf2e8e1015befb68c7b110016fff4f511321ffd1dc7b40cb8913e6847e340bb8bf2e8e1015befb68c7b1100f0aa4416dc89fe0e9585e748add897ae
Reciphers for ciphertext: 0
Decipheredtext:           0000000000000000000000000000000000
RESULT CIPHER-DECIPHER: -----OK-----


Test: 98
Crypto pad: 1
Symmetric key bit length: 192
IV bit length:            128
Plaintext bit length:     136
Symmetric key:            000000000000000000000000000000000000000020000000
IV:                       00000000000000000000000000000000
Plaintext:                0000000000000000000000000000000000
Ciphertext:               777e3e572ca33076b2cb34226cc70158200b7d6277b8cb1f04fe4fe7623746cd777e3e572ca33076b2cb34226cc70158875abf3389d0f2158ff68ad48c615d5f
Reciphers for ciphertext: 0
Decipheredtext:           0000000000000000000000000000000000
RESULT CIPHER-DECIPHER: -----OK-----


Test: 99
Crypto pad: 0
Symmetric key bit length: 192
IV bit length:            128
Plaintext bit length:     136
Symmetric key:            000000000000000000000000000000000000000010000000
IV:                       00000000000000000000000000000000
Plaintext:                0000000000000000000000000000000000
Ciphertext:               1fec7c6719c7ca2e9a981851c5cee204c7f338c709f7f37d069d0670caea55b41fec7c6719c7ca2e9a981851c5cee204775c70b7a73f9ccac456e07f6ac9d439
Reciphers for ciphertext: 0
Decipheredtext:           0000000000000000000000000000000000
RESULT CIPHER-DECIPHER: -----OK-----


Test: 100
Crypto pad: 0
Symmetric key bit length: 192
IV bit length:            128
Plaintext bit length:     136
Symmetric key:            000000000000000000000000000000000000000008000000
IV:                       00000000000000000000000000000000
Plaintext:                0000000000000000000000000000000000
Ciphertext:               9af07dabe083efda75708a36aeb74caff7be07e5e55f1cc6f3213951626e0a239af07dabe083efda75708a36aeb74cafcefb7cb736725e2a234fef68c523ceac
Reciphers for ciphertext: 0
Decipheredtext:           0000000000000000000000000000000000
RESULT CIPHER-DECIPHER: -----OK-----


Test: 101
Crypto pad: 1
Symmetric key bit length: 192
IV bit length:            128
Plaintext bit length:     136
Symmetric key:            000000000000000000000000000000000000000004000000
IV:                       00000000000000000000000000000000
Plaintext:                0000000000000000000000000000000000
Ciphertext:               5d1482f8ef9cb18911bb7f78bc3b89fce4cd9d2b5aa41d1dfd4aa1f43ffeb07a5d1482f8ef9cb18911bb7f78bc3b89fc2c5571f98cb42fcdfa9e67bbbbdae803
Reciphers for ciphertext: 0
Decipheredtext:           0000000000000000000000000000000000
RESULT CIPHER-DECIPHER: -----OK-----


Test: 102
Crypto pad: 2
Symmetric key bit length: 192
IV bit length:            128
Plaintext bit length:     136
Symmetric key:            000000000000000000000000000000000000000002000000
IV:                       00000000000000000000000000000000
Plaintext:                0000000000000000000000000000000000
Ciphertext:               5242753e01d470dd8c2b73a986ba009f61ace3d2c9ebd979db89f122467ea8555242753e01d470dd8c2b73a986ba009fa31e2705341b36bd0a95f236a90278c2
Reciphers for ciphertext: 0
Decipheredtext:           0000000000000000000000000000000000
RESULT CIPHER-DECIPHER: -----OK-----


Test: 103
Crypto pad: 2
Symmetric key bit length: 192
IV bit length:            128
Plaintext bit length:     136
Symmetric key:            000000000000000000000000000000000000000001000000
IV:                       00000000000000000000000000000000
Plaintext:                0000000000000000000000000000000000
Ciphertext:               341d0e0673b4e00cf2bb0c0b22de6b6ebdb509ab7c1b25c8217ea3b6504f445783ae5bc112b73ab7978d13dd534b770bb0a13875753bdfc130b768aecfeb8ceb
Reciphers for ciphertext: 1
Decipheredtext:           0000000000000000000000000000000000
RESULT CIPHER-DECIPHER: -----OK-----


Test: 104
Crypto pad: 0
Symmetric key bit length: 192
IV bit length:            128
Plaintext bit length:     136
Symmetric key:            000000000000000000000000000000000000000000800000
IV:                       00000000000000000000000000000000
Plaintext:                0000000000000000000000000000000000
Ciphertext:               848eb7330a82b91d36fbeff6e6ce134796fea090aff8ec1ce16323c51cbd9a03848eb7330a82b91d36fbeff6e6ce1347d56907fdfda3a02704bde1b4760379b9
Reciphers for ciphertext: 0
Decipheredtext:           0000000000000000000000000000000000
RESULT CIPHER-DECIPHER: -----OK-----


Test: 105
Crypto pad: 2
Symmetric key bit length: 192
IV bit length:            128
Plaintext bit length:     136
Symmetric key:            000000000000000000000000000000000000000000400000
IV:                       00000000000000000000000000000000
Plaintext:                0000000000000000000000000000000000
Ciphertext:               f1b14465effd3e14dd1bac6e0fa4e5bd4594dcd7a580b7d8a6f4f8a9ba039063f1b14465effd3e14dd1bac6e0fa4e5bd947f1bb8ae5d0bb6b557f31fcbb12689
Reciphers for ciphertext: 0
Decipheredtext:           0000000000000000000000000000000000
RESULT CIPHER-DECIPHER: -----OK-----


Test: 106
Crypto pad: 2
Symmetric key bit length: 192
IV bit length:            128
Plaintext bit length:     136
Symmetric key:            000000000000000000000000000000000000000000200000
IV:                       00000000000000000000000000000000
Plaintext:                0000000000000000000000000000000000
Ciphertext:               5acd25aa05afd21f43f6a51709fd0b6af2a9bf1ef11180ddbbb0d577a2f5cd705acd25aa05afd21f43f6a51709fd0b6a3b3b04fb143154b278a3cbc64d958a75
Reciphers for ciphertext: 0
Decipheredtext:           0000000000000000000000000000000000
RESULT CIPHER-DECIPHER: -----OK-----


Test: 107
Crypto pad: 0
Symmetric key bit length: 192
IV bit length:            128
Plaintext bit length:     136
Symmetric key:            000000000000000000000000000000000000000000100000
IV:                       00000000000000000000000000000000
Plaintext:                0000000000000000000000000000000000
Ciphertext:               12321aefa53f1503e3a473f729388cbd34a56e4af6f5380a05cee0d0f54dcace12321aefa53f1503e3a473f729388cbd91731f7afeaa1bf036f053a88b8061d5
Reciphers for ciphertext: 0
Decipheredtext:           0000000000000000000000000000000000
RESULT CIPHER-DECIPHER: -----OK-----


Test: 108
Crypto pad: 1
Symmetric key bit length: 192
IV bit length:            128
Plaintext bit length:     136
Symmetric key:            000000000000000000000000000000000000000000080000
IV:                       00000000000000000000000000000000
Plaintext:                0000000000000000000000000000000000
Ciphertext:               1602dba20e2acfddcc78390b473b322b1a90ce7a01e9c2fd856c0f79452646e31602dba20e2acfddcc78390b473b322b8d96beb25c4f63fce4d18226137304ea
Reciphers for ciphertext: 0
Decipheredtext:           0000000000000000000000000000000000
RESULT CIPHER-DECIPHER: -----OK-----


Test: 109
Crypto pad: 0
Symmetric key bit length: 192
IV bit length:            128
Plaintext bit length:     136
Symmetric key:            000000000000000000000000000000000000000000040000
IV:                       00000000000000000000000000000000
Plaintext:                0000000000000000000000000000000000
Ciphertext:               14c1853c3cf3cdfce3799d5c130138ec787a47c0f18c4d031354d6d1dbc6f6aa14c1853c3cf3cdfce3799d5c130138ecf1f19b8aebf1b4d55368a78e16b321dc
Reciphers for ciphertext: 0
Decipheredtext:           0000000000000000000000000000000000
RESULT CIPHER-DECIPHER: -----OK-----


Test: 110
Crypto pad: 1
Symmetric key bit length: 192
IV bit length:            128
Plaintext bit length:     136
Symmetric key:            000000000000000000000000000000000000000000020000
IV:                       00000000000000000000000000000000
Plaintext:                0000000000000000000000000000000000
Ciphertext:               dc17f9e8236350bdc285f9b2f88f670f936e1cd0215718585a56ca4eac530c50dc17f9e8236350bdc285f9b2f88f670fd526de6550fd1fefe9bc9728c49ff082
Reciphers for ciphertext: 0
Decipheredtext:           0000000000000000000000000000000000
RESULT CIPHER-DECIPHER: -----OK-----


Test: 111
Crypto pad: 1
Symmetric key bit length: 192
IV bit length:            128
Plaintext bit length:     136
Symmetric key:            000000000000000000000000000000000000000000010000
IV:                       00000000000000000000000000000000
Plaintext:                0000000000000000000000000000000000
Ciphertext:               aba03fee8133dd4ed9b8194b643e20ceb18bc6bc59124b137ed3b2672f39fc90aba03fee8133dd4ed9b8194b643e20cee5063e6d19ed8315828aec75a82175d7
Reciphers for ciphertext: 0
Decipheredtext:           0000000000000000000000000000000000
RESULT CIPHER-DECIPHER: -----OK-----


Test: 112
Crypto pad: 2
Symmetric key bit length: 192
IV bit length:            128
Plaintext bit length:     136
Symmetric key:            000000000000000000000000000000000000000000008000
IV:                       00000000000000000000000000000000
Plaintext:                0000000000000000000000000000000000
Ciphertext:               5822e80530c7cecce4f56cf1691b386ffd3f1b0f72150c8a3b41319f2f466da45822e80530c7cecce4f56cf1691b386f898e77c602232908aa40a3b2899fb67c
Reciphers for ciphertext: 0
Decipheredtext:           0000000000000000000000000000000000
RESULT CIPHER-DECIPHER: -----OK-----


Test: 113
Crypto pad: 2
Symmetric key bit length: 192
IV bit length:            128
Plaintext bit length:     136
Symmetric key:            000000000000000000000000000000000000000000004000
IV:                       00000000000000000000000000000000
Plaintext:                0000000000000000000000000000000000
Ciphertext:               0e32a10011e08777e0a54d60c945542afa3db4e1598cef9e7678301bceee0a8c25cfa6f1b9be5e14dfaf87a44b3b2e3dccb867c28258b7ccdebb707269784246
Reciphers for ciphertext: 1
Decipheredtext:           0000000000000000000000000000000000
RESULT CIPHER-DECIPHER: -----OK-----


Test: 114
Crypto pad: 2
Symmetric key bit length: 192
IV bit length:            128
Plaintext bit length:     136
Symmetric key:            000000000000000000000000000000000000000000002000
IV:                       00000000000000000000000000000000
Plaintext:                0000000000000000000000000000000000
Ciphertext:               5ed866cbc298b4dee46c1a02f958f1f5f324f4221078157bed8028bf1bb2d2d05ed866cbc298b4dee46c1a02f958f1f52857d8adaf44250b075c4bfc7a7a4dc3
Reciphers for ciphertext: 0
Decipheredtext:           0000000000000000000000000000000000
RESULT CIPHER-DECIPHER: -----OK-----


Test: 115
Crypto pad: 0
Symmetric key bit length: 192
IV bit length:            128
Plaintext bit length:     136
Symmetric key:            000000000000000000000000000000000000000000001000
IV:                       00000000000000000000000000000000
Plaintext:                0000000000000000000000000000000000
Ciphertext:               bd2b63c026eb0e58d26ed16d2ed64a3e1f093af0f5c9cc70a10eb666cea15be1bd2b63c026eb0e58d26ed16d2ed64a3e9036abb768ac28f660fe8ff911d86c83
Reciphers for ciphertext: 0
Decipheredtext:           0000000000000000000000000000000000
RESULT CIPHER-DECIPHER: -----OK-----


Test: 116
Crypto pad: 1
Symmetric key bit length: 192
IV bit length:            128
Plaintext bit length:     136
Symmetric key:            000000000000000000000000000000000000000000000800
IV:                       00000000000000000000000000000000
Plaintext:                0000000000000000000000000000000000
Ciphertext:               9ffcff9cf9e1483bc7971888246af9fe2e54663fab6d258be61466e690be78929ffcff9cf9e1483bc7971888246af9fe5f997610ed0f82ca3b084990be41c55d
Reciphers for ciphertext: 0
Decipheredtext:           0000000000000000000000000000000000
RESULT CIPHER-DECIPHER: -----OK-----


Test: 117
Crypto pad: 2
Symmetric key bit length: 192
IV bit length:            128
Plaintext bit length:     136
Symmetric key:            000000000000000000000000000000000000000000000400
IV:                       00000000000000000000000000000000
Plaintext:                0000000000000000000000000000000000
Ciphertext:               367c409aee218e02deac8751698ba1b8b33b04a18794ee7be489e9b8739761a4367c409aee218e02deac8751698ba1b8650c6700e5439f8102ab475a70d39c41
Reciphers for ciphertext: 0
Decipheredtext:           0000000000000000000000000000000000
RESULT CIPHER-DECIPHER: -----OK-----


Test: 118
Crypto pad: 1
Symmetric key bit length: 192
IV bit length:            128
Plaintext bit length:     136
Symmetric key:            000000000000000000000000000000000000000000000200
IV:                       00000000000000000000000000000000
Plaintext:                0000000000000000000000000000000000
Ciphertext:               248e3a3c0360b44c512a9ac3caaec21bd56d7a67c04b0e7a9d16497c2b83f32c248e3a3c0360b44c512a9ac3caaec21b82931fc3cac259fdfc7d4d9d7ecec9b6
Reciphers for ciphertext: 0
Decipheredtext:           0000000000000000000000000000000000
RESULT CIPHER-DECIPHER: -----OK-----


Test: 119
Crypto pad: 2
Symmetric key bit length: 192
IV bit length:            128
Plaintext bit length:     136
Symmetric key:            000000000000000000000000000000000000000000000100
IV:                       00000000000000000000000000000000
Plaintext:                0000000000000000000000000000000000
Ciphertext:               49b47c542ca396260b53a3437298561228510629103c07f7488dcc7404053c5a49b47c542ca396260b53a343729856121fc0a5a40e75fb088a9b3e278ee3b774
Reciphers for ciphertext: 0
Decipheredtext:           0000000000000000000000000000000000
RESULT CIPHER-DECIPHER: -----OK-----


Test: 120
Crypto pad: 0
Symmetric key bit length: 192
IV bit length:            128
Plaintext bit length:     136
Symmetric key:            000000000000000000000000000000000000000000000080
IV:                       00000000000000000000000000000000
Plaintext:                0000000000000000000000000000000000
Ciphertext:               ce35fdbdbe086ea8a501a4571925a95fa88058edbc3c704e57b46282f82ac1b9ce35fdbdbe086ea8a501a4571925a95fd58dd588731decc310353212b7c8889b
Reciphers for ciphertext: 0
Decipheredtext:           0000000000000000000000000000000000
RESULT CIPHER-DECIPHER: -----OK-----


Test: 121
Crypto pad: 2
Symmetric key bit length: 192
IV bit length:            128
Plaintext bit length:     136
Symmetric key:            000000000000000000000000000000000000000000000040
IV:                       00000000000000000000000000000000
Plaintext:                0000000000000000000000000000000000
Ciphertext:               873442fae891b0767220742b84a32a4e65d171eb37d6c8717b577f1e92be3bdd873442fae891b0767220742b84a32a4e8cfaffe91c54c1f2870f8f05f047f97b
Reciphers for ciphertext: 0
Decipheredtext:           0000000000000000000000000000000000
RESULT CIPHER-DECIPHER: -----OK-----


Test: 122
Crypto pad: 0
Symmetric key bit length: 192
IV bit length:            128
Plaintext bit length:     136
Symmetric key:            000000000000000000000000000000000000000000000020
IV:                       00000000000000000000000000000000
Plaintext:                0000000000000000000000000000000000
Ciphertext:               2c90e17ad13e4e84686bc5b369f0fa8f40e1bc4e22489acf9db246fb1f6d4a322c90e17ad13e4e84686bc5b369f0fa8f9f9cb037d5e7f1edb74bd4b59ad9a459
Reciphers for ciphertext: 0
Decipheredtext:           0000000000000000000000000000000000
RESULT CIPHER-DECIPHER: -----OK-----


Test: 123
Crypto pad: 1
Symmetric key bit length: 192
IV bit length:            128
Plaintext bit length:     136
Symmetric key:            000000000000000000000000000000000000000000000010
IV:                       00000000000000000000000000000000
Plaintext:                0000000000000000000000000000000000
Ciphertext:               0e7aaaa67d8593a9dfc55083b48b381af99b7998281b69a5d4b904e74b88aee00e7aaaa67d8593a9dfc55083b48b381a2e3400630147db05676b78bd784fbfc6
Reciphers for ciphertext: 0
Decipheredtext:           0000000000000000000000000000000000
RESULT CIPHER-DECIPHER: -----OK-----


Test: 124
Crypto pad: 1
Symmetric key bit length: 192
IV bit length:            128
Plaintext bit length:     136
Symmetric key:            000000000000000000000000000000000000000000000008
IV:                       00000000000000000000000000000000
Plaintext:                0000000000000000000000000000000000
Ciphertext:               1d8b58ee529ab17b10ac15d0e6e7ecb2a418f2a95976eda01c79f3c72f10093d1d8b58ee529ab17b10ac15d0e6e7ecb29a5c844d8d9205941e6916a1f1b1d31d
Reciphers for ciphertext: 0
Decipheredtext:           0000000000000000000000000000000000
RESULT CIPHER-DECIPHER: -----OK-----


Test: 125
Crypto pad: 0
Symmetric key bit length: 192
IV bit length:            128
Plaintext bit length:     136
Symmetric key:            000000000000000000000000000000000000000000000004
IV:                       00000000000000000000000000000000
Plaintext:                0000000000000000000000000000000000
Ciphertext:               1c10fac725b905ad93b6f4b2430a8d18ed5411acb69ae84937f9ed3289fc124b1c10fac725b905ad93b6f4b2430a8d18e4aea36b1b88dca89b786a62dcba4d34
Reciphers for ciphertext: 0
Decipheredtext:           0000000000000000000000000000000000
RESULT CIPHER-DECIPHER: -----OK-----


Test: 126
Crypto pad: 1
Symmetric key bit length: 192
IV bit length:            128
Plaintext bit length:     136
Symmetric key:            000000000000000000000000000000000000000000000002
IV:                       00000000000000000000000000000000
Plaintext:                0000000000000000000000000000000000
Ciphertext:               d36cf625ee94ab029cd23253c77c0e15c1e1651e9627c7fed21b3c9cfe6d6d1bd36cf625ee94ab029cd23253c77c0e154d24dfa736caa31103cc844c17738a32
Reciphers for ciphertext: 0
Decipheredtext:           0000000000000000000000000000000000
RESULT CIPHER-DECIPHER: -----OK-----


Test: 127
Crypto pad: 1
Symmetric key bit length: 192
IV bit length:            128
Plaintext bit length:     136
Symmetric key:            000000000000000000000000000000000000000000000001
IV:                       00000000000000000000000000000000
Plaintext:                0000000000000000000000000000000000
Ciphertext:               e37577f71e0e643c4d3f55219aba1394b59518516c5dcd5bde3b74e2afd16710e37577f71e0e643c4d3f55219aba139418dc8ee3c7a50b82d095c7d74fface02
Reciphers for ciphertext: 0
Decipheredtext:           0000000000000000000000000000000000
RESULT CIPHER-DECIPHER: -----OK-----


 DATA SHA1 (hexadecimal): e53e453784f236fd75bee96d0d82ffe382192be9

