
DiceLock 9.0.0.1

 TEST COMPONENTS:
 ----------------
 DiceLock:           DiceLockIVIndexed class
 Operation Mode:     CBC_Mode class
 Crypto pads:        0 - ANSI_X_923 class
                     1 - ISO_IEC_9797_1 class
                     2 - PKCS7 class
 Block Cipher:       Twofish128 class
 Key Modifier:       DecreaseBase0IndexModifier_6_0_0_1 class
   Index bit length: 128
 Random tests:       RandomTestSuite class
                     FrequencyTest class
                     BlockFrequencyTest class
                     CumulativeSumForwardTest class
                     LongestRunOfOnesTest class
                     RunsTest class
 Random alpha:       0.001

 VECTOR TEST: Test vector 5 - IV all byte value 0xXX


##### INDIVIDUAL TESTS #####

Number tests: 128


Test: 0
Crypto pad: 1
Symmetric key bit length: 128
IV bit length:            128
Plaintext bit length:     136
Symmetric key:            00000000000000000000000000000000
IV:                       00000000000000000000000000000000
Plaintext:                0000000000000000000000000000000000
Ciphertext:               9f589f5cf6122c32b6bfec2f2ae8c35adb19deb301108cd249c1657118400d369f589f5cf6122c32b6bfec2f2ae8c35ad03b8779559e40526d9b29a1bd6bb443
Reciphers for ciphertext: 0
Decipheredtext:           0000000000000000000000000000000000
RESULT CIPHER-DECIPHER: -----OK-----


Test: 1
Crypto pad: 0
Symmetric key bit length: 128
IV bit length:            128
Plaintext bit length:     136
Symmetric key:            00000000000000000000000000000000
IV:                       01010101010101010101010101010101
Plaintext:                0000000000000000000000000000000000
Ciphertext:               8dad8440a360f0e078c773ad06778ba46d79bf744a60ddc03d9b91ce1cc1f9c98dad8440a360f0e078c773ad06778ba4107432cf94581e381fa2abeee2eff5f4
Reciphers for ciphertext: 0
Decipheredtext:           0000000000000000000000000000000000
RESULT CIPHER-DECIPHER: -----OK-----


Test: 2
Crypto pad: 2
Symmetric key bit length: 128
IV bit length:            128
Plaintext bit length:     136
Symmetric key:            00000000000000000000000000000000
IV:                       02020202020202020202020202020202
Plaintext:                0000000000000000000000000000000000
Ciphertext:               5d1249a4d09b84134c163baa1bb52a18ddae9419d3851001168956a793def5075d1249a4d09b84134c163baa1bb52a183c6e7d51719800d3550b63ed89fdb5b5
Reciphers for ciphertext: 0
Decipheredtext:           0000000000000000000000000000000000
RESULT CIPHER-DECIPHER: -----OK-----


Test: 3
Crypto pad: 0
Symmetric key bit length: 128
IV bit length:            128
Plaintext bit length:     136
Symmetric key:            00000000000000000000000000000000
IV:                       03030303030303030303030303030303
Plaintext:                0000000000000000000000000000000000
Ciphertext:               a742825c1ab67602e853fb65b82e50dcc69d007100471bd74a0e896a10c1d9b9a742825c1ab67602e853fb65b82e50dc669cc6db756676bf36b1e2da3433b9f6
Reciphers for ciphertext: 0
Decipheredtext:           0000000000000000000000000000000000
RESULT CIPHER-DECIPHER: -----OK-----


Test: 4
Crypto pad: 1
Symmetric key bit length: 128
IV bit length:            128
Plaintext bit length:     136
Symmetric key:            00000000000000000000000000000000
IV:                       04040404040404040404040404040404
Plaintext:                0000000000000000000000000000000000
Ciphertext:               d70a551125302bebf71b7a6182a117df59c14e835404229b79e1d0a380742a52d70a551125302bebf71b7a6182a117df7403e36b915e974058eb094c53a954a1
Reciphers for ciphertext: 0
Decipheredtext:           0000000000000000000000000000000000
RESULT CIPHER-DECIPHER: -----OK-----


Test: 5
Crypto pad: 2
Symmetric key bit length: 128
IV bit length:            128
Plaintext bit length:     136
Symmetric key:            00000000000000000000000000000000
IV:                       05050505050505050505050505050505
Plaintext:                0000000000000000000000000000000000
Ciphertext:               882d3497714a7fb977870a570cfc9beab5a7185c34e65a8aacf994e49bd0eb84882d3497714a7fb977870a570cfc9bea1ae7909c1a2a34ca5b57b24506a75463
Reciphers for ciphertext: 0
Decipheredtext:           0000000000000000000000000000000000
RESULT CIPHER-DECIPHER: -----OK-----


Test: 6
Crypto pad: 0
Symmetric key bit length: 128
IV bit length:            128
Plaintext bit length:     136
Symmetric key:            00000000000000000000000000000000
IV:                       06060606060606060606060606060606
Plaintext:                0000000000000000000000000000000000
Ciphertext:               e8e8c8e021eebc00dae55f0f84c8a0fd3b961acce06dd0a1723957a2a1819640e8e8c8e021eebc00dae55f0f84c8a0fdccf5d79085f5040ea5089ba7c945f028
Reciphers for ciphertext: 0
Decipheredtext:           0000000000000000000000000000000000
RESULT CIPHER-DECIPHER: -----OK-----


Test: 7
Crypto pad: 2
Symmetric key bit length: 128
IV bit length:            128
Plaintext bit length:     136
Symmetric key:            00000000000000000000000000000000
IV:                       07070707070707070707070707070707
Plaintext:                0000000000000000000000000000000000
Ciphertext:               d306287ae1c7efe330f69f899c01510187417a0c78250ee681952e8ac8ac16bad306287ae1c7efe330f69f899c015101a37afe49b79243f756c2abf4f1439c35
Reciphers for ciphertext: 0
Decipheredtext:           0000000000000000000000000000000000
RESULT CIPHER-DECIPHER: -----OK-----


Test: 8
Crypto pad: 1
Symmetric key bit length: 128
IV bit length:            128
Plaintext bit length:     136
Symmetric key:            00000000000000000000000000000000
IV:                       08080808080808080808080808080808
Plaintext:                0000000000000000000000000000000000
Ciphertext:               b0f8b86618d4e34c107818ec8eb8f78c56a00be6ac88b1196ae6adef58e91d04b0f8b86618d4e34c107818ec8eb8f78c47829213fbf95ddc3f367438d97fb856
Reciphers for ciphertext: 0
Decipheredtext:           0000000000000000000000000000000000
RESULT CIPHER-DECIPHER: -----OK-----


Test: 9
Crypto pad: 0
Symmetric key bit length: 128
IV bit length:            128
Plaintext bit length:     136
Symmetric key:            00000000000000000000000000000000
IV:                       09090909090909090909090909090909
Plaintext:                0000000000000000000000000000000000
Ciphertext:               e58bfc378649269a8c74f59acf1dc46634203ec9a4770890ad62931844024875e58bfc378649269a8c74f59acf1dc46644c7571a34554568decde92cf2f73fd7
Reciphers for ciphertext: 0
Decipheredtext:           0000000000000000000000000000000000
RESULT CIPHER-DECIPHER: -----OK-----


Test: 10
Crypto pad: 0
Symmetric key bit length: 128
IV bit length:            128
Plaintext bit length:     136
Symmetric key:            00000000000000000000000000000000
IV:                       0a0a0a0a0a0a0a0a0a0a0a0a0a0a0a0a
Plaintext:                0000000000000000000000000000000000
Ciphertext:               7427dd8f3af5dae77406b9f91f864e23e6980ea6349541030ea495465cff97eb7427dd8f3af5dae77406b9f91f864e23cb6ba1714f8e318b6ca316dbd41b012c
Reciphers for ciphertext: 0
Decipheredtext:           0000000000000000000000000000000000
RESULT CIPHER-DECIPHER: -----OK-----


Test: 11
Crypto pad: 0
Symmetric key bit length: 128
IV bit length:            128
Plaintext bit length:     136
Symmetric key:            00000000000000000000000000000000
IV:                       0b0b0b0b0b0b0b0b0b0b0b0b0b0b0b0b
Plaintext:                0000000000000000000000000000000000
Ciphertext:               89cceae338a3ef519201ffeec03ff6b59b8157f66e04b7d50c7f16d37d6ce06d89cceae338a3ef519201ffeec03ff6b57ca7bd6d5e792d750df25fb4ec050cf6
Reciphers for ciphertext: 0
Decipheredtext:           0000000000000000000000000000000000
RESULT CIPHER-DECIPHER: -----OK-----


Test: 12
Crypto pad: 1
Symmetric key bit length: 128
IV bit length:            128
Plaintext bit length:     136
Symmetric key:            00000000000000000000000000000000
IV:                       0c0c0c0c0c0c0c0c0c0c0c0c0c0c0c0c
Plaintext:                0000000000000000000000000000000000
Ciphertext:               ee9d842de3d42be0af5bcc7215b39f03be856aec1fec0d7c44bd20deff64b087ee9d842de3d42be0af5bcc7215b39f03061407df8fe3f6988cdcb809adcdb726
Reciphers for ciphertext: 0
Decipheredtext:           0000000000000000000000000000000000
RESULT CIPHER-DECIPHER: -----OK-----


Test: 13
Crypto pad: 0
Symmetric key bit length: 128
IV bit length:            128
Plaintext bit length:     136
Symmetric key:            00000000000000000000000000000000
IV:                       0d0d0d0d0d0d0d0d0d0d0d0d0d0d0d0d
Plaintext:                0000000000000000000000000000000000
Ciphertext:               457e6429b9374bb5790da4ebfc47eedd91a0e15dc2a972bf4c76c50b558312ee457e6429b9374bb5790da4ebfc47eedd4b9ba62b4680c9c7bfb11bac44374455
Reciphers for ciphertext: 0
Decipheredtext:           0000000000000000000000000000000000
RESULT CIPHER-DECIPHER: -----OK-----


Test: 14
Crypto pad: 2
Symmetric key bit length: 128
IV bit length:            128
Plaintext bit length:     136
Symmetric key:            00000000000000000000000000000000
IV:                       0e0e0e0e0e0e0e0e0e0e0e0e0e0e0e0e
Plaintext:                0000000000000000000000000000000000
Ciphertext:               595e4f5dc5d77f4152b42639a88a508c42927623a43132ce0260d244bac3e9e0595e4f5dc5d77f4152b42639a88a508cb25285fe582b16362fee8e1923d3281f
Reciphers for ciphertext: 0
Decipheredtext:           0000000000000000000000000000000000
RESULT CIPHER-DECIPHER: -----OK-----


Test: 15
Crypto pad: 0
Symmetric key bit length: 128
IV bit length:            128
Plaintext bit length:     136
Symmetric key:            00000000000000000000000000000000
IV:                       0f0f0f0f0f0f0f0f0f0f0f0f0f0f0f0f
Plaintext:                0000000000000000000000000000000000
Ciphertext:               19c7a21e5dcf2d3aa791b65cd5afbc9e2649b4daa0d678f8e76f8802fe2eb45419c7a21e5dcf2d3aa791b65cd5afbc9e93ee7fb8152c7599df161a346e5a770c
Reciphers for ciphertext: 0
Decipheredtext:           0000000000000000000000000000000000
RESULT CIPHER-DECIPHER: -----OK-----


Test: 16
Crypto pad: 0
Symmetric key bit length: 128
IV bit length:            128
Plaintext bit length:     136
Symmetric key:            00000000000000000000000000000000
IV:                       10101010101010101010101010101010
Plaintext:                0000000000000000000000000000000000
Ciphertext:               771d591428af301d69fa1e227d083527b37e45fa006aa424177e438158cb78ad771d591428af301d69fa1e227d0835274026ca84bb1739833ea469cc4c013404
Reciphers for ciphertext: 0
Decipheredtext:           0000000000000000000000000000000000
RESULT CIPHER-DECIPHER: -----OK-----


Test: 17
Crypto pad: 2
Symmetric key bit length: 128
IV bit length:            128
Plaintext bit length:     136
Symmetric key:            00000000000000000000000000000000
IV:                       11111111111111111111111111111111
Plaintext:                0000000000000000000000000000000000
Ciphertext:               a340d3f734c3a859dcd1145d5d43653d62be17c35409f85dd22c2c97f5924e26a340d3f734c3a859dcd1145d5d43653d3bda726e297422d7a6ca0e0d20167526
Reciphers for ciphertext: 0
Decipheredtext:           0000000000000000000000000000000000
RESULT CIPHER-DECIPHER: -----OK-----


Test: 18
Crypto pad: 1
Symmetric key bit length: 128
IV bit length:            128
Plaintext bit length:     136
Symmetric key:            00000000000000000000000000000000
IV:                       12121212121212121212121212121212
Plaintext:                0000000000000000000000000000000000
Ciphertext:               7e163f10e74e342a203bca6d9639975dc59fbbc3a12f26c0e96e909ce26e748e7e163f10e74e342a203bca6d9639975d0930d7a10258adccf622c9583c04301d
Reciphers for ciphertext: 0
Decipheredtext:           0000000000000000000000000000000000
RESULT CIPHER-DECIPHER: -----OK-----


Test: 19
Crypto pad: 0
Symmetric key bit length: 128
IV bit length:            128
Plaintext bit length:     136
Symmetric key:            00000000000000000000000000000000
IV:                       13131313131313131313131313131313
Plaintext:                0000000000000000000000000000000000
Ciphertext:               19421132574a5c9ac43b6cb8a78ffe3483bd7e9195608cee3054ff393ead8acb19421132574a5c9ac43b6cb8a78ffe34b2cbab4e9ac2a3ddcaa9696c5ee854bb
Reciphers for ciphertext: 0
Decipheredtext:           0000000000000000000000000000000000
RESULT CIPHER-DECIPHER: -----OK-----


Test: 20
Crypto pad: 0
Symmetric key bit length: 128
IV bit length:            128
Plaintext bit length:     136
Symmetric key:            00000000000000000000000000000000
IV:                       14141414141414141414141414141414
Plaintext:                0000000000000000000000000000000000
Ciphertext:               938fd280fb17adf2badef6f2c6c6a15318915fc1bac45691aef3271389626d9b938fd280fb17adf2badef6f2c6c6a153d6b9d1ee582325ea75162e02a64ffdfa
Reciphers for ciphertext: 0
Decipheredtext:           0000000000000000000000000000000000
RESULT CIPHER-DECIPHER: -----OK-----


Test: 21
Crypto pad: 0
Symmetric key bit length: 128
IV bit length:            128
Plaintext bit length:     136
Symmetric key:            00000000000000000000000000000000
IV:                       15151515151515151515151515151515
Plaintext:                0000000000000000000000000000000000
Ciphertext:               18958eded20bdb1f0901cd2719e1f854e13d92bf46cf32ea837dc200e1b5c44318958eded20bdb1f0901cd2719e1f8547db73f1cdd626df4db61830022ed0144
Reciphers for ciphertext: 0
Decipheredtext:           0000000000000000000000000000000000
RESULT CIPHER-DECIPHER: -----OK-----


Test: 22
Crypto pad: 2
Symmetric key bit length: 128
IV bit length:            128
Plaintext bit length:     136
Symmetric key:            00000000000000000000000000000000
IV:                       16161616161616161616161616161616
Plaintext:                0000000000000000000000000000000000
Ciphertext:               88effe34c14f1917e7280b5b733260505246eb448139797b4172cfad5029bc1888effe34c14f1917e7280b5b7332605035f14f6753db90b076f1669ffe67f1b0
Reciphers for ciphertext: 0
Decipheredtext:           0000000000000000000000000000000000
RESULT CIPHER-DECIPHER: -----OK-----


Test: 23
Crypto pad: 0
Symmetric key bit length: 128
IV bit length:            128
Plaintext bit length:     136
Symmetric key:            00000000000000000000000000000000
IV:                       17171717171717171717171717171717
Plaintext:                0000000000000000000000000000000000
Ciphertext:               b33170541669fd63eaac8b514250676d19e7ecd57f2956392284875255898065b33170541669fd63eaac8b514250676d214050fb75642eff1241db46a37cf2fb
Reciphers for ciphertext: 0
Decipheredtext:           0000000000000000000000000000000000
RESULT CIPHER-DECIPHER: -----OK-----


Test: 24
Crypto pad: 1
Symmetric key bit length: 128
IV bit length:            128
Plaintext bit length:     136
Symmetric key:            00000000000000000000000000000000
IV:                       18181818181818181818181818181818
Plaintext:                0000000000000000000000000000000000
Ciphertext:               075d794bdb73caad7686c5cf066fedabc23d2198a3f60831f78fe3979770c8fe075d794bdb73caad7686c5cf066fedab4d2e6d54e620a91bb4803a5a46c394b1
Reciphers for ciphertext: 0
Decipheredtext:           0000000000000000000000000000000000
RESULT CIPHER-DECIPHER: -----OK-----


Test: 25
Crypto pad: 1
Symmetric key bit length: 128
IV bit length:            128
Plaintext bit length:     136
Symmetric key:            00000000000000000000000000000000
IV:                       19191919191919191919191919191919
Plaintext:                0000000000000000000000000000000000
Ciphertext:               dd60c859df25774cf1b2664f80cc2e9a4be04543fc215c5e5c0ea2d661d97abadd60c859df25774cf1b2664f80cc2e9a6b9fa8952ff8496806d36afff9f0c90f
Reciphers for ciphertext: 0
Decipheredtext:           0000000000000000000000000000000000
RESULT CIPHER-DECIPHER: -----OK-----


Test: 26
Crypto pad: 1
Symmetric key bit length: 128
IV bit length:            128
Plaintext bit length:     136
Symmetric key:            00000000000000000000000000000000
IV:                       1a1a1a1a1a1a1a1a1a1a1a1a1a1a1a1a
Plaintext:                0000000000000000000000000000000000
Ciphertext:               407e22419a2bb6ab6f137ddd147a74570a5cbf3a673c6acc1c2aa7a61cc81a73407e22419a2bb6ab6f137ddd147a74571e89d581b85a731b0dd0397c76d92d13
Reciphers for ciphertext: 0
Decipheredtext:           0000000000000000000000000000000000
RESULT CIPHER-DECIPHER: -----OK-----


Test: 27
Crypto pad: 2
Symmetric key bit length: 128
IV bit length:            128
Plaintext bit length:     136
Symmetric key:            00000000000000000000000000000000
IV:                       1b1b1b1b1b1b1b1b1b1b1b1b1b1b1b1b
Plaintext:                0000000000000000000000000000000000
Ciphertext:               ab3556f2f44ed9a369a5c740f0510958eb2c969e91d2f6b5944fda3b67ba03205f647740d3acc9cd5bc4c37c730c114cd2d9ec1d7d9e30f564b2376cd5e54160
Reciphers for ciphertext: 1
Decipheredtext:           0000000000000000000000000000000000
RESULT CIPHER-DECIPHER: -----OK-----


Test: 28
Crypto pad: 0
Symmetric key bit length: 128
IV bit length:            128
Plaintext bit length:     136
Symmetric key:            00000000000000000000000000000000
IV:                       1c1c1c1c1c1c1c1c1c1c1c1c1c1c1c1c
Plaintext:                0000000000000000000000000000000000
Ciphertext:               92cb42f0df3293f6ed017e21a35993172f48453439af79941bb4c5400c69650192cb42f0df3293f6ed017e21a3599317847311331c690dada3dd37f9903ba4e4
Reciphers for ciphertext: 0
Decipheredtext:           0000000000000000000000000000000000
RESULT CIPHER-DECIPHER: -----OK-----


Test: 29
Crypto pad: 0
Symmetric key bit length: 128
IV bit length:            128
Plaintext bit length:     136
Symmetric key:            00000000000000000000000000000000
IV:                       1d1d1d1d1d1d1d1d1d1d1d1d1d1d1d1d
Plaintext:                0000000000000000000000000000000000
Ciphertext:               400591675500e15eec9b86cf52fc45e2b8a35b189fb6a60791c5f212394ca4d3400591675500e15eec9b86cf52fc45e2d8bfad41a186a98da2cb46bb460d77ab
Reciphers for ciphertext: 0
Decipheredtext:           0000000000000000000000000000000000
RESULT CIPHER-DECIPHER: -----OK-----


Test: 30
Crypto pad: 2
Symmetric key bit length: 128
IV bit length:            128
Plaintext bit length:     136
Symmetric key:            00000000000000000000000000000000
IV:                       1e1e1e1e1e1e1e1e1e1e1e1e1e1e1e1e
Plaintext:                0000000000000000000000000000000000
Ciphertext:               1578e7ab1520361c43d5b74b3d8ffad0bbaf4eebb034f100e166d190e249ae931578e7ab1520361c43d5b74b3d8ffad0825fd4e17acca1159efa7fcbb7ff3b0b
Reciphers for ciphertext: 0
Decipheredtext:           0000000000000000000000000000000000
RESULT CIPHER-DECIPHER: -----OK-----


Test: 31
Crypto pad: 1
Symmetric key bit length: 128
IV bit length:            128
Plaintext bit length:     136
Symmetric key:            00000000000000000000000000000000
IV:                       1f1f1f1f1f1f1f1f1f1f1f1f1f1f1f1f
Plaintext:                0000000000000000000000000000000000
Ciphertext:               95e64155cd67cb992801f551bb6e5a287f7c064bc0af1f8b0eb82989569a52d995e64155cd67cb992801f551bb6e5a28c859f193f725cf80a7e5c08d7c43d0e1
Reciphers for ciphertext: 0
Decipheredtext:           0000000000000000000000000000000000
RESULT CIPHER-DECIPHER: -----OK-----


Test: 32
Crypto pad: 2
Symmetric key bit length: 128
IV bit length:            128
Plaintext bit length:     136
Symmetric key:            00000000000000000000000000000000
IV:                       20202020202020202020202020202020
Plaintext:                0000000000000000000000000000000000
Ciphertext:               e932348b7f24d54542d6ca211eeeee417e0dee374486691e224c4154f992d20de932348b7f24d54542d6ca211eeeee41901323e34ad4324fbc6f2d531b6e3b14
Reciphers for ciphertext: 0
Decipheredtext:           0000000000000000000000000000000000
RESULT CIPHER-DECIPHER: -----OK-----


Test: 33
Crypto pad: 1
Symmetric key bit length: 128
IV bit length:            128
Plaintext bit length:     136
Symmetric key:            00000000000000000000000000000000
IV:                       21212121212121212121212121212121
Plaintext:                0000000000000000000000000000000000
Ciphertext:               b038362c199b79971f38606b2ce1c681c5a3abefe0d4260242cea00442a63a79b038362c199b79971f38606b2ce1c681a911acd538f18a611d0b18b981a6d2a3
Reciphers for ciphertext: 0
Decipheredtext:           0000000000000000000000000000000000
RESULT CIPHER-DECIPHER: -----OK-----


Test: 34
Crypto pad: 0
Symmetric key bit length: 128
IV bit length:            128
Plaintext bit length:     136
Symmetric key:            00000000000000000000000000000000
IV:                       22222222222222222222222222222222
Plaintext:                0000000000000000000000000000000000
Ciphertext:               b29372d8968726106ff68c0417e679676565a2ded4c0abcc5b4d8924bc94e93fb29372d8968726106ff68c0417e67967203c2699c1ae27402b8d875d13619cb9
Reciphers for ciphertext: 0
Decipheredtext:           0000000000000000000000000000000000
RESULT CIPHER-DECIPHER: -----OK-----


Test: 35
Crypto pad: 0
Symmetric key bit length: 128
IV bit length:            128
Plaintext bit length:     136
Symmetric key:            00000000000000000000000000000000
IV:                       23232323232323232323232323232323
Plaintext:                0000000000000000000000000000000000
Ciphertext:               3a37ccfdbc5908ffe07ab74787feec940ed30b0a38002424358ec7d959f4f3f23a37ccfdbc5908ffe07ab74787feec94b444bdfdc59d6285f6f6d164872e321c
Reciphers for ciphertext: 0
Decipheredtext:           0000000000000000000000000000000000
RESULT CIPHER-DECIPHER: -----OK-----


Test: 36
Crypto pad: 2
Symmetric key bit length: 128
IV bit length:            128
Plaintext bit length:     136
Symmetric key:            00000000000000000000000000000000
IV:                       24242424242424242424242424242424
Plaintext:                0000000000000000000000000000000000
Ciphertext:               92014019f1c3db8190326bc12df462cff0e261ddbed7cd580f098176729201f092014019f1c3db8190326bc12df462cfe8cfe8940afcd06ad00789d687c9b0fe
Reciphers for ciphertext: 0
Decipheredtext:           0000000000000000000000000000000000
RESULT CIPHER-DECIPHER: -----OK-----


Test: 37
Crypto pad: 1
Symmetric key bit length: 128
IV bit length:            128
Plaintext bit length:     136
Symmetric key:            00000000000000000000000000000000
IV:                       25252525252525252525252525252525
Plaintext:                0000000000000000000000000000000000
Ciphertext:               0cbac1fc9cbeb0ee0c9b54022d10281e46783cee70c17b7d3d01f5e99ead3a050cbac1fc9cbeb0ee0c9b54022d10281e16a939c2c1c8464981c375f96c9325a3
Reciphers for ciphertext: 0
Decipheredtext:           0000000000000000000000000000000000
RESULT CIPHER-DECIPHER: -----OK-----


Test: 38
Crypto pad: 0
Symmetric key bit length: 128
IV bit length:            128
Plaintext bit length:     136
Symmetric key:            00000000000000000000000000000000
IV:                       26262626262626262626262626262626
Plaintext:                0000000000000000000000000000000000
Ciphertext:               276626ae6cf3de88b043e452fe121a6af08866e7d9b73aba8b84ec79afa2ef6d276626ae6cf3de88b043e452fe121a6a46e0f73ebb3fe1a875e1160200451440
Reciphers for ciphertext: 0
Decipheredtext:           0000000000000000000000000000000000
RESULT CIPHER-DECIPHER: -----OK-----


Test: 39
Crypto pad: 0
Symmetric key bit length: 128
IV bit length:            128
Plaintext bit length:     136
Symmetric key:            00000000000000000000000000000000
IV:                       27272727272727272727272727272727
Plaintext:                0000000000000000000000000000000000
Ciphertext:               e00f1c63b2e953d3764624d38a06a3a1f9fcc0dbacaf8540ca98a4a0aa1b99d0f258f7b6a637a7c4664d6e8b2c90c01dce2ee4c8b837cebb3d00473514710dc3
Reciphers for ciphertext: 1
Decipheredtext:           0000000000000000000000000000000000
RESULT CIPHER-DECIPHER: -----OK-----


Test: 40
Crypto pad: 0
Symmetric key bit length: 128
IV bit length:            128
Plaintext bit length:     136
Symmetric key:            00000000000000000000000000000000
IV:                       28282828282828282828282828282828
Plaintext:                0000000000000000000000000000000000
Ciphertext:               698f341ec04af13655caffafb08984bfbda2d50268d2886f5b53e7c85c178d34698f341ec04af13655caffafb08984bfa6106912f620d7b7717a26e768032322
Reciphers for ciphertext: 0
Decipheredtext:           0000000000000000000000000000000000
RESULT CIPHER-DECIPHER: -----OK-----


Test: 41
Crypto pad: 2
Symmetric key bit length: 128
IV bit length:            128
Plaintext bit length:     136
Symmetric key:            00000000000000000000000000000000
IV:                       29292929292929292929292929292929
Plaintext:                0000000000000000000000000000000000
Ciphertext:               db1c55301547da9cf1836f145ee10361b2639e382a8c0de13d5adb9f3f470891db1c55301547da9cf1836f145ee103614e5044cac586d89dd1b10cef298c69c6
Reciphers for ciphertext: 0
Decipheredtext:           0000000000000000000000000000000000
RESULT CIPHER-DECIPHER: -----OK-----


Test: 42
Crypto pad: 0
Symmetric key bit length: 128
IV bit length:            128
Plaintext bit length:     136
Symmetric key:            00000000000000000000000000000000
IV:                       2a2a2a2a2a2a2a2a2a2a2a2a2a2a2a2a
Plaintext:                0000000000000000000000000000000000
Ciphertext:               b0775bb88489c42d5adb5352f6d0ee0601aea2af002796dd288cfb124c4c8337b0775bb88489c42d5adb5352f6d0ee061e3dbd0ff60e7062c1d810e607a46c66
Reciphers for ciphertext: 0
Decipheredtext:           0000000000000000000000000000000000
RESULT CIPHER-DECIPHER: -----OK-----


Test: 43
Crypto pad: 1
Symmetric key bit length: 128
IV bit length:            128
Plaintext bit length:     136
Symmetric key:            00000000000000000000000000000000
IV:                       2b2b2b2b2b2b2b2b2b2b2b2b2b2b2b2b
Plaintext:                0000000000000000000000000000000000
Ciphertext:               8df046bca9bd55dca8162576b82fb93b7545f3db9ef00dc86dd681fcee5cc5618df046bca9bd55dca8162576b82fb93b3b7aec83aa96a2fddb66f2d852048279
Reciphers for ciphertext: 0
Decipheredtext:           0000000000000000000000000000000000
RESULT CIPHER-DECIPHER: -----OK-----


Test: 44
Crypto pad: 2
Symmetric key bit length: 128
IV bit length:            128
Plaintext bit length:     136
Symmetric key:            00000000000000000000000000000000
IV:                       2c2c2c2c2c2c2c2c2c2c2c2c2c2c2c2c
Plaintext:                0000000000000000000000000000000000
Ciphertext:               2f9cc111fec605a81cdea5853db9e843c0941893a440aacc1ddab0931b8245e52f9cc111fec605a81cdea5853db9e84375bf91d522e498a4a644acac54d2a8f8
Reciphers for ciphertext: 0
Decipheredtext:           0000000000000000000000000000000000
RESULT CIPHER-DECIPHER: -----OK-----


Test: 45
Crypto pad: 2
Symmetric key bit length: 128
IV bit length:            128
Plaintext bit length:     136
Symmetric key:            00000000000000000000000000000000
IV:                       2d2d2d2d2d2d2d2d2d2d2d2d2d2d2d2d
Plaintext:                0000000000000000000000000000000000
Ciphertext:               3d57747be99af5ef2244140ae0ec07b32d17b890a9949f8d2bd83ebda718f12b3d57747be99af5ef2244140ae0ec07b3b011703b67d5aef148b70e80b934667b
Reciphers for ciphertext: 0
Decipheredtext:           0000000000000000000000000000000000
RESULT CIPHER-DECIPHER: -----OK-----


Test: 46
Crypto pad: 1
Symmetric key bit length: 128
IV bit length:            128
Plaintext bit length:     136
Symmetric key:            00000000000000000000000000000000
IV:                       2e2e2e2e2e2e2e2e2e2e2e2e2e2e2e2e
Plaintext:                0000000000000000000000000000000000
Ciphertext:               5f2f415fc6a94274581592cf5f71c3bf6ea1525ebca2d94baa40a151ba4635625f2f415fc6a94274581592cf5f71c3bf372ceb3afdd0d84400a0f47dacf315bb
Reciphers for ciphertext: 0
Decipheredtext:           0000000000000000000000000000000000
RESULT CIPHER-DECIPHER: -----OK-----


Test: 47
Crypto pad: 0
Symmetric key bit length: 128
IV bit length:            128
Plaintext bit length:     136
Symmetric key:            00000000000000000000000000000000
IV:                       2f2f2f2f2f2f2f2f2f2f2f2f2f2f2f2f
Plaintext:                0000000000000000000000000000000000
Ciphertext:               665d4424f376309654a4b52dc5ce19b307271282230341eb5099a1fdae61019b665d4424f376309654a4b52dc5ce19b3c91f83d51c05f32cdbecfd9928b78bee
Reciphers for ciphertext: 0
Decipheredtext:           0000000000000000000000000000000000
RESULT CIPHER-DECIPHER: -----OK-----


Test: 48
Crypto pad: 1
Symmetric key bit length: 128
IV bit length:            128
Plaintext bit length:     136
Symmetric key:            00000000000000000000000000000000
IV:                       30303030303030303030303030303030
Plaintext:                0000000000000000000000000000000000
Ciphertext:               ff18970889b5ccf281de51c84427f48c8d8125f9b4f3385c8eead76cea0e6e7dff18970889b5ccf281de51c84427f48c8b638d644bb32f33ff5bee38e8019434
Reciphers for ciphertext: 0
Decipheredtext:           0000000000000000000000000000000000
RESULT CIPHER-DECIPHER: -----OK-----


Test: 49
Crypto pad: 2
Symmetric key bit length: 128
IV bit length:            128
Plaintext bit length:     136
Symmetric key:            00000000000000000000000000000000
IV:                       31313131313131313131313131313131
Plaintext:                0000000000000000000000000000000000
Ciphertext:               180924f576bd968d457f9cc28d88c914be2be55bdb83f1a2618839dea2825ae5180924f576bd968d457f9cc28d88c91424a5d9d044d894e921c56d1079b644b7
Reciphers for ciphertext: 0
Decipheredtext:           0000000000000000000000000000000000
RESULT CIPHER-DECIPHER: -----OK-----


Test: 50
Crypto pad: 2
Symmetric key bit length: 128
IV bit length:            128
Plaintext bit length:     136
Symmetric key:            00000000000000000000000000000000
IV:                       32323232323232323232323232323232
Plaintext:                0000000000000000000000000000000000
Ciphertext:               c3a82d16f6977293840b3259fe6a5ddd57c3736d7b59cfe3f8f95fe719dd2959c3a82d16f6977293840b3259fe6a5ddd9a13150da901a6e7b66fb33921d9bbf5
Reciphers for ciphertext: 0
Decipheredtext:           0000000000000000000000000000000000
RESULT CIPHER-DECIPHER: -----OK-----


Test: 51
Crypto pad: 2
Symmetric key bit length: 128
IV bit length:            128
Plaintext bit length:     136
Symmetric key:            00000000000000000000000000000000
IV:                       33333333333333333333333333333333
Plaintext:                0000000000000000000000000000000000
Ciphertext:               dc1e24da2a4bfc72a41aa9312848e8bc291bb2b3b6a39c09de2819eb97dad676dc1e24da2a4bfc72a41aa9312848e8bc7069d6835a3a369b4611e98be69b6276
Reciphers for ciphertext: 0
Decipheredtext:           0000000000000000000000000000000000
RESULT CIPHER-DECIPHER: -----OK-----


Test: 52
Crypto pad: 1
Symmetric key bit length: 128
IV bit length:            128
Plaintext bit length:     136
Symmetric key:            00000000000000000000000000000000
IV:                       34343434343434343434343434343434
Plaintext:                0000000000000000000000000000000000
Ciphertext:               94ab2f576965f32a697c200cba9a376233b4f0b8a4d1b45d38bbd1abd4406ba294ab2f576965f32a697c200cba9a3762fc43b23aeff4787e7ed159dfa09f3a0e
Reciphers for ciphertext: 0
Decipheredtext:           0000000000000000000000000000000000
RESULT CIPHER-DECIPHER: -----OK-----


Test: 53
Crypto pad: 1
Symmetric key bit length: 128
IV bit length:            128
Plaintext bit length:     136
Symmetric key:            00000000000000000000000000000000
IV:                       35353535353535353535353535353535
Plaintext:                0000000000000000000000000000000000
Ciphertext:               317f714dde96840e954d5d93460787fe785b46ebf7b8f916e748da3b91352d12317f714dde96840e954d5d93460787fe3c21303e291d892c1611529bc6e0159f
Reciphers for ciphertext: 0
Decipheredtext:           0000000000000000000000000000000000
RESULT CIPHER-DECIPHER: -----OK-----


Test: 54
Crypto pad: 2
Symmetric key bit length: 128
IV bit length:            128
Plaintext bit length:     136
Symmetric key:            00000000000000000000000000000000
IV:                       36363636363636363636363636363636
Plaintext:                0000000000000000000000000000000000
Ciphertext:               e00ec113210477a0cebfab63ccc28f496b74632606f68f76e21f771e1c908197e00ec113210477a0cebfab63ccc28f49195e1865a66d79a34c4144ecdc4628da
Reciphers for ciphertext: 0
Decipheredtext:           0000000000000000000000000000000000
RESULT CIPHER-DECIPHER: -----OK-----


Test: 55
Crypto pad: 0
Symmetric key bit length: 128
IV bit length:            128
Plaintext bit length:     136
Symmetric key:            00000000000000000000000000000000
IV:                       37373737373737373737373737373737
Plaintext:                0000000000000000000000000000000000
Ciphertext:               1ae8222733b8a9e3b83fc4679131fc6595256fb22f06f060fcfee124690bb8c61ae8222733b8a9e3b83fc4679131fc657520ed1cffd332c909a182ba289f226e
Reciphers for ciphertext: 0
Decipheredtext:           0000000000000000000000000000000000
RESULT CIPHER-DECIPHER: -----OK-----


Test: 56
Crypto pad: 1
Symmetric key bit length: 128
IV bit length:            128
Plaintext bit length:     136
Symmetric key:            00000000000000000000000000000000
IV:                       38383838383838383838383838383838
Plaintext:                0000000000000000000000000000000000
Ciphertext:               adad8ae25f8d288cb0d965fb12a1a674fc472f8502fe3d63737b0b9c5f4605c6adad8ae25f8d288cb0d965fb12a1a6747e05a70467b3a1a053999bc3660af8b2
Reciphers for ciphertext: 0
Decipheredtext:           0000000000000000000000000000000000
RESULT CIPHER-DECIPHER: -----OK-----


Test: 57
Crypto pad: 1
Symmetric key bit length: 128
IV bit length:            128
Plaintext bit length:     136
Symmetric key:            00000000000000000000000000000000
IV:                       39393939393939393939393939393939
Plaintext:                0000000000000000000000000000000000
Ciphertext:               27d771ef52a200e4d99c38dabd627eb7c6f3c0f7a58f40bf508432a43af21f3727d771ef52a200e4d99c38dabd627eb7a77e3e17bbaa17b13c5d6d608817d58e
Reciphers for ciphertext: 0
Decipheredtext:           0000000000000000000000000000000000
RESULT CIPHER-DECIPHER: -----OK-----


Test: 58
Crypto pad: 1
Symmetric key bit length: 128
IV bit length:            128
Plaintext bit length:     136
Symmetric key:            00000000000000000000000000000000
IV:                       3a3a3a3a3a3a3a3a3a3a3a3a3a3a3a3a
Plaintext:                0000000000000000000000000000000000
Ciphertext:               c853b60f6e079936f0677039e2d8e8421d0a7a31dfb6cf613ff16037ae96f4bdc853b60f6e079936f0677039e2d8e842c606ba76784e367fea1510155cbf5c8c
Reciphers for ciphertext: 0
Decipheredtext:           0000000000000000000000000000000000
RESULT CIPHER-DECIPHER: -----OK-----


Test: 59
Crypto pad: 0
Symmetric key bit length: 128
IV bit length:            128
Plaintext bit length:     136
Symmetric key:            00000000000000000000000000000000
IV:                       3b3b3b3b3b3b3b3b3b3b3b3b3b3b3b3b
Plaintext:                0000000000000000000000000000000000
Ciphertext:               3ac08d7f579b88c0815def327a4247f9019a2a963b5e4189f43e595570dd3c5c3ac08d7f579b88c0815def327a4247f942be19277d114ce395e351dd4418419b
Reciphers for ciphertext: 0
Decipheredtext:           0000000000000000000000000000000000
RESULT CIPHER-DECIPHER: -----OK-----


Test: 60
Crypto pad: 2
Symmetric key bit length: 128
IV bit length:            128
Plaintext bit length:     136
Symmetric key:            00000000000000000000000000000000
IV:                       3c3c3c3c3c3c3c3c3c3c3c3c3c3c3c3c
Plaintext:                0000000000000000000000000000000000
Ciphertext:               78e75bc0a1a29dba2ea12c5e3f98ce1aed7bdbd47aaec126f20e55a53cabcc8478e75bc0a1a29dba2ea12c5e3f98ce1a827c3fea1d151ef3d7840125c28bc6fb
Reciphers for ciphertext: 0
Decipheredtext:           0000000000000000000000000000000000
RESULT CIPHER-DECIPHER: -----OK-----


Test: 61
Crypto pad: 2
Symmetric key bit length: 128
IV bit length:            128
Plaintext bit length:     136
Symmetric key:            00000000000000000000000000000000
IV:                       3d3d3d3d3d3d3d3d3d3d3d3d3d3d3d3d
Plaintext:                0000000000000000000000000000000000
Ciphertext:               f907d48be963b4a16eae4337fcff149395f589ec25aa08aaeda94ed6e57168ddf907d48be963b4a16eae4337fcff14935e0302b48ca6be197a449b864d685fe3
Reciphers for ciphertext: 0
Decipheredtext:           0000000000000000000000000000000000
RESULT CIPHER-DECIPHER: -----OK-----


Test: 62
Crypto pad: 2
Symmetric key bit length: 128
IV bit length:            128
Plaintext bit length:     136
Symmetric key:            00000000000000000000000000000000
IV:                       3e3e3e3e3e3e3e3e3e3e3e3e3e3e3e3e
Plaintext:                0000000000000000000000000000000000
Ciphertext:               bf7d0c8a22195a3c702e92ba2530c0d249e4f51ea3eeb82afb655f8e77ab47c8bf7d0c8a22195a3c702e92ba2530c0d26eb66e2082511c8c54b1f31537260c8b
Reciphers for ciphertext: 0
Decipheredtext:           0000000000000000000000000000000000
RESULT CIPHER-DECIPHER: -----OK-----


Test: 63
Crypto pad: 0
Symmetric key bit length: 128
IV bit length:            128
Plaintext bit length:     136
Symmetric key:            00000000000000000000000000000000
IV:                       3f3f3f3f3f3f3f3f3f3f3f3f3f3f3f3f
Plaintext:                0000000000000000000000000000000000
Ciphertext:               43da1fbdd31ba980e1973a064fc499cbad8956f20d392b7f2acd976f098c3e5a43da1fbdd31ba980e1973a064fc499cbfdd7c59f916ce3cbb02f8fc1d5c29b98
Reciphers for ciphertext: 0
Decipheredtext:           0000000000000000000000000000000000
RESULT CIPHER-DECIPHER: -----OK-----


Test: 64
Crypto pad: 0
Symmetric key bit length: 128
IV bit length:            128
Plaintext bit length:     136
Symmetric key:            00000000000000000000000000000000
IV:                       40404040404040404040404040404040
Plaintext:                0000000000000000000000000000000000
Ciphertext:               8587828fa3f10007ab30f27dacbc6d4d423d76b8d49489473ef3d1592ab915f38587828fa3f10007ab30f27dacbc6d4d80e04c873c89cc0caf6ba81654f989dd
Reciphers for ciphertext: 0
Decipheredtext:           0000000000000000000000000000000000
RESULT CIPHER-DECIPHER: -----OK-----


Test: 65
Crypto pad: 2
Symmetric key bit length: 128
IV bit length:            128
Plaintext bit length:     136
Symmetric key:            00000000000000000000000000000000
IV:                       41414141414141414141414141414141
Plaintext:                0000000000000000000000000000000000
Ciphertext:               09e2cd1bbf9f8172fc6ba306b4a99ea37142b5c96386966e9068f6b45d799c5e09e2cd1bbf9f8172fc6ba306b4a99ea3d6caf44d3f66555fcf0c2c657fb2e856
Reciphers for ciphertext: 0
Decipheredtext:           0000000000000000000000000000000000
RESULT CIPHER-DECIPHER: -----OK-----


Test: 66
Crypto pad: 2
Symmetric key bit length: 128
IV bit length:            128
Plaintext bit length:     136
Symmetric key:            00000000000000000000000000000000
IV:                       42424242424242424242424242424242
Plaintext:                0000000000000000000000000000000000
Ciphertext:               63c0eff889fbf59b3298f0e7c1c93dde2b486e61c07e87b203494d9eb34768809ba6f5e5b29192fd12ab5ff22ede4ea76f4664af2c9d5d440b9b5338525ed669
Reciphers for ciphertext: 1
Decipheredtext:           0000000000000000000000000000000000
RESULT CIPHER-DECIPHER: -----OK-----


Test: 67
Crypto pad: 0
Symmetric key bit length: 128
IV bit length:            128
Plaintext bit length:     136
Symmetric key:            00000000000000000000000000000000
IV:                       43434343434343434343434343434343
Plaintext:                0000000000000000000000000000000000
Ciphertext:               5967e52ef72de5d99019773eddad1b6e510705317116ff67ca5da101ce8cfed95967e52ef72de5d99019773eddad1b6e9de8fd65690cf77ec067c2a79ad168eb
Reciphers for ciphertext: 0
Decipheredtext:           0000000000000000000000000000000000
RESULT CIPHER-DECIPHER: -----OK-----


Test: 68
Crypto pad: 1
Symmetric key bit length: 128
IV bit length:            128
Plaintext bit length:     136
Symmetric key:            00000000000000000000000000000000
IV:                       44444444444444444444444444444444
Plaintext:                0000000000000000000000000000000000
Ciphertext:               0a89c510b0a0fe2631153652e46a6cd6dc2a94407191f9fea8455e99fec80e510a89c510b0a0fe2631153652e46a6cd66a2caa7a63dae05b8078b8482155c992
Reciphers for ciphertext: 0
Decipheredtext:           0000000000000000000000000000000000
RESULT CIPHER-DECIPHER: -----OK-----


Test: 69
Crypto pad: 1
Symmetric key bit length: 128
IV bit length:            128
Plaintext bit length:     136
Symmetric key:            00000000000000000000000000000000
IV:                       45454545454545454545454545454545
Plaintext:                0000000000000000000000000000000000
Ciphertext:               39da9c7d536bb27dceeb671b0df10a76fb7ec1b03e6913da4ff1e54982b2399139da9c7d536bb27dceeb671b0df10a7678104cac300f8d7b76203d1953f8bbd2
Reciphers for ciphertext: 0
Decipheredtext:           0000000000000000000000000000000000
RESULT CIPHER-DECIPHER: -----OK-----


Test: 70
Crypto pad: 0
Symmetric key bit length: 128
IV bit length:            128
Plaintext bit length:     136
Symmetric key:            00000000000000000000000000000000
IV:                       46464646464646464646464646464646
Plaintext:                0000000000000000000000000000000000
Ciphertext:               8a945aecb7d5d1992f50235deacdc7fd0865a5f2c0ae56db569aec0c6970c2b78a945aecb7d5d1992f50235deacdc7fd4e6f8d7bb871503d72525c32ccbc0bde
Reciphers for ciphertext: 0
Decipheredtext:           0000000000000000000000000000000000
RESULT CIPHER-DECIPHER: -----OK-----


Test: 71
Crypto pad: 0
Symmetric key bit length: 128
IV bit length:            128
Plaintext bit length:     136
Symmetric key:            00000000000000000000000000000000
IV:                       47474747474747474747474747474747
Plaintext:                0000000000000000000000000000000000
Ciphertext:               1e6c145376b44db7b1d6946ee07c2f30bd588657c2385515c8eb580f27bad6c21e6c145376b44db7b1d6946ee07c2f30104bf9fa0b8b7d41c7807111b3b5e71f
Reciphers for ciphertext: 0
Decipheredtext:           0000000000000000000000000000000000
RESULT CIPHER-DECIPHER: -----OK-----


Test: 72
Crypto pad: 1
Symmetric key bit length: 128
IV bit length:            128
Plaintext bit length:     136
Symmetric key:            00000000000000000000000000000000
IV:                       48484848484848484848484848484848
Plaintext:                0000000000000000000000000000000000
Ciphertext:               06473f50d79f81c5b2cf96c438d5dbeb77b459fb49547fdcb20ccba42dc94daa06473f50d79f81c5b2cf96c438d5dbeb64425faa791623bac239562d4ac61da8
Reciphers for ciphertext: 0
Decipheredtext:           0000000000000000000000000000000000
RESULT CIPHER-DECIPHER: -----OK-----


Test: 73
Crypto pad: 2
Symmetric key bit length: 128
IV bit length:            128
Plaintext bit length:     136
Symmetric key:            00000000000000000000000000000000
IV:                       49494949494949494949494949494949
Plaintext:                0000000000000000000000000000000000
Ciphertext:               66067e4b5b502b1d0cfbf0a75399401079b22fb098ed17b38663252ded9a032766067e4b5b502b1d0cfbf0a7539940104a0e3dfa74e1459c49c903cecab2bb93
Reciphers for ciphertext: 0
Decipheredtext:           0000000000000000000000000000000000
RESULT CIPHER-DECIPHER: -----OK-----


Test: 74
Crypto pad: 0
Symmetric key bit length: 128
IV bit length:            128
Plaintext bit length:     136
Symmetric key:            00000000000000000000000000000000
IV:                       4a4a4a4a4a4a4a4a4a4a4a4a4a4a4a4a
Plaintext:                0000000000000000000000000000000000
Ciphertext:               8d33902d01bd5ae8f3c5a07daabc093e698816de298c59ef3412a23191f727e08d33902d01bd5ae8f3c5a07daabc093e9af004ee1a33514e63ef41f896fab208
Reciphers for ciphertext: 0
Decipheredtext:           0000000000000000000000000000000000
RESULT CIPHER-DECIPHER: -----OK-----


Test: 75
Crypto pad: 1
Symmetric key bit length: 128
IV bit length:            128
Plaintext bit length:     136
Symmetric key:            00000000000000000000000000000000
IV:                       4b4b4b4b4b4b4b4b4b4b4b4b4b4b4b4b
Plaintext:                0000000000000000000000000000000000
Ciphertext:               a23014f49498ea421c53e5170776c5b2a6ae9cb7d87ccd35c6b5dcf8e0fd90cca23014f49498ea421c53e5170776c5b2429f516fdbba701d2e3617e4a9f71044
Reciphers for ciphertext: 0
Decipheredtext:           0000000000000000000000000000000000
RESULT CIPHER-DECIPHER: -----OK-----


Test: 76
Crypto pad: 1
Symmetric key bit length: 128
IV bit length:            128
Plaintext bit length:     136
Symmetric key:            00000000000000000000000000000000
IV:                       4c4c4c4c4c4c4c4c4c4c4c4c4c4c4c4c
Plaintext:                0000000000000000000000000000000000
Ciphertext:               fa20c22c662212da83865cdb191788d5938d12693ddb04785943ea34fbf0a5f0fa20c22c662212da83865cdb191788d54f1f8fbfc5f98e15935f392232fbddb0
Reciphers for ciphertext: 0
Decipheredtext:           0000000000000000000000000000000000
RESULT CIPHER-DECIPHER: -----OK-----


Test: 77
Crypto pad: 2
Symmetric key bit length: 128
IV bit length:            128
Plaintext bit length:     136
Symmetric key:            00000000000000000000000000000000
IV:                       4d4d4d4d4d4d4d4d4d4d4d4d4d4d4d4d
Plaintext:                0000000000000000000000000000000000
Ciphertext:               717dc0f88ba1849c056351d79893c3f90c72aeebda9e40d07690ffe96f269161717dc0f88ba1849c056351d79893c3f90f6cde8355afd69f15a216b77d9ec26b
Reciphers for ciphertext: 0
Decipheredtext:           0000000000000000000000000000000000
RESULT CIPHER-DECIPHER: -----OK-----


Test: 78
Crypto pad: 1
Symmetric key bit length: 128
IV bit length:            128
Plaintext bit length:     136
Symmetric key:            00000000000000000000000000000000
IV:                       4e4e4e4e4e4e4e4e4e4e4e4e4e4e4e4e
Plaintext:                0000000000000000000000000000000000
Ciphertext:               ce2f5d7e6e92202f782dc0f55258a7cc05f97ca4b347621f8bee45b79af9174cce2f5d7e6e92202f782dc0f55258a7cc0c182ebc869c23d4ea119a43b92af9f5
Reciphers for ciphertext: 0
Decipheredtext:           0000000000000000000000000000000000
RESULT CIPHER-DECIPHER: -----OK-----


Test: 79
Crypto pad: 1
Symmetric key bit length: 128
IV bit length:            128
Plaintext bit length:     136
Symmetric key:            00000000000000000000000000000000
IV:                       4f4f4f4f4f4f4f4f4f4f4f4f4f4f4f4f
Plaintext:                0000000000000000000000000000000000
Ciphertext:               8549d239aefc688660d5e4fbced60a3497356da13d990a9c5203ac407d73853f8549d239aefc688660d5e4fbced60a3467d10031edfaa591cbd0d3a35d4f035d
Reciphers for ciphertext: 0
Decipheredtext:           0000000000000000000000000000000000
RESULT CIPHER-DECIPHER: -----OK-----


Test: 80
Crypto pad: 1
Symmetric key bit length: 128
IV bit length:            128
Plaintext bit length:     136
Symmetric key:            00000000000000000000000000000000
IV:                       50505050505050505050505050505050
Plaintext:                0000000000000000000000000000000000
Ciphertext:               05f3970ab5c7d9aa2c7e560e7019cc2ae295eb905847d06fc6d16e7a32398bba05f3970ab5c7d9aa2c7e560e7019cc2a4e8182c3310c035f0040fa1e2a11afcc
Reciphers for ciphertext: 0
Decipheredtext:           0000000000000000000000000000000000
RESULT CIPHER-DECIPHER: -----OK-----


Test: 81
Crypto pad: 1
Symmetric key bit length: 128
IV bit length:            128
Plaintext bit length:     136
Symmetric key:            00000000000000000000000000000000
IV:                       51515151515151515151515151515151
Plaintext:                0000000000000000000000000000000000
Ciphertext:               09f6bf388f40771f582b52ca0d14ecf96e2f36aed3a8757d169d34f1550d6bea09f6bf388f40771f582b52ca0d14ecf9eeed59ea455ed66f2cae1a5c95693592
Reciphers for ciphertext: 0
Decipheredtext:           0000000000000000000000000000000000
RESULT CIPHER-DECIPHER: -----OK-----


Test: 82
Crypto pad: 0
Symmetric key bit length: 128
IV bit length:            128
Plaintext bit length:     136
Symmetric key:            00000000000000000000000000000000
IV:                       52525252525252525252525252525252
Plaintext:                0000000000000000000000000000000000
Ciphertext:               edbc55f1cc2aabd9167a82b5516bc18f527763bd02e490adee89a7ae294de9ecedbc55f1cc2aabd9167a82b5516bc18f5a335afca809ca10c07401c757b38170
Reciphers for ciphertext: 0
Decipheredtext:           0000000000000000000000000000000000
RESULT CIPHER-DECIPHER: -----OK-----


Test: 83
Crypto pad: 1
Symmetric key bit length: 128
IV bit length:            128
Plaintext bit length:     136
Symmetric key:            00000000000000000000000000000000
IV:                       53535353535353535353535353535353
Plaintext:                0000000000000000000000000000000000
Ciphertext:               272118a330f49131f0e905a9e0eebde207505f1a652b12ee0edb136a61b0d7e3272118a330f49131f0e905a9e0eebde2a7f352e8a5c8dbf0f7dd9511aa765ad4
Reciphers for ciphertext: 0
Decipheredtext:           0000000000000000000000000000000000
RESULT CIPHER-DECIPHER: -----OK-----


Test: 84
Crypto pad: 0
Symmetric key bit length: 128
IV bit length:            128
Plaintext bit length:     136
Symmetric key:            00000000000000000000000000000000
IV:                       54545454545454545454545454545454
Plaintext:                0000000000000000000000000000000000
Ciphertext:               8456e1d4f2e9c54621f5f2119ba818ba7fef2b140b0654f5b0d4f8e28564e57f8456e1d4f2e9c54621f5f2119ba818bac586e8e3da8c16bc8aa453fa1d8fb0da
Reciphers for ciphertext: 0
Decipheredtext:           0000000000000000000000000000000000
RESULT CIPHER-DECIPHER: -----OK-----


Test: 85
Crypto pad: 0
Symmetric key bit length: 128
IV bit length:            128
Plaintext bit length:     136
Symmetric key:            00000000000000000000000000000000
IV:                       55555555555555555555555555555555
Plaintext:                0000000000000000000000000000000000
Ciphertext:               64ec4faeefe11cd82c5c51703e9df92532c5fce046da0c86097e255ef1dadbfa64ec4faeefe11cd82c5c51703e9df92564c0dfe708bee1a549f0f91f7376a828
Reciphers for ciphertext: 0
Decipheredtext:           0000000000000000000000000000000000
RESULT CIPHER-DECIPHER: -----OK-----


Test: 86
Crypto pad: 2
Symmetric key bit length: 128
IV bit length:            128
Plaintext bit length:     136
Symmetric key:            00000000000000000000000000000000
IV:                       56565656565656565656565656565656
Plaintext:                0000000000000000000000000000000000
Ciphertext:               8cd290d18841e93dbc008964e559e5abb210aebe0384a356e2429675a6f7f26a8cd290d18841e93dbc008964e559e5abf7ed6120841edc636b49c7e6c3a4cf7e
Reciphers for ciphertext: 0
Decipheredtext:           0000000000000000000000000000000000
RESULT CIPHER-DECIPHER: -----OK-----


Test: 87
Crypto pad: 1
Symmetric key bit length: 128
IV bit length:            128
Plaintext bit length:     136
Symmetric key:            00000000000000000000000000000000
IV:                       57575757575757575757575757575757
Plaintext:                0000000000000000000000000000000000
Ciphertext:               ecf67d8b131caee37c500a23e9834177fea4b7053bca91de67868ea5018725c8ecf67d8b131caee37c500a23e98341770326e98cbe2f868dd06dda9c329b236c
Reciphers for ciphertext: 0
Decipheredtext:           0000000000000000000000000000000000
RESULT CIPHER-DECIPHER: -----OK-----


Test: 88
Crypto pad: 2
Symmetric key bit length: 128
IV bit length:            128
Plaintext bit length:     136
Symmetric key:            00000000000000000000000000000000
IV:                       58585858585858585858585858585858
Plaintext:                0000000000000000000000000000000000
Ciphertext:               deeff8e2465d1ada46ec874f1c8f2f6352905e74a30498b72c5b16352ded8854deeff8e2465d1ada46ec874f1c8f2f63ba7dcdab5df48027ffc35db9bb8eb15a
Reciphers for ciphertext: 0
Decipheredtext:           0000000000000000000000000000000000
RESULT CIPHER-DECIPHER: -----OK-----


Test: 89
Crypto pad: 0
Symmetric key bit length: 128
IV bit length:            128
Plaintext bit length:     136
Symmetric key:            00000000000000000000000000000000
IV:                       59595959595959595959595959595959
Plaintext:                0000000000000000000000000000000000
Ciphertext:               e9f34ecd6c1c63f8f35d09ac1fe0b3f819255e442a3c5628a34fb3648ab85e14e9f34ecd6c1c63f8f35d09ac1fe0b3f8bf60874681b19d1af0fa53b9a7915036
Reciphers for ciphertext: 0
Decipheredtext:           0000000000000000000000000000000000
RESULT CIPHER-DECIPHER: -----OK-----


Test: 90
Crypto pad: 1
Symmetric key bit length: 128
IV bit length:            128
Plaintext bit length:     136
Symmetric key:            00000000000000000000000000000000
IV:                       5a5a5a5a5a5a5a5a5a5a5a5a5a5a5a5a
Plaintext:                0000000000000000000000000000000000
Ciphertext:               16335d60a311e196efc63d2d8e922bc7513a4f1588e59090fad3902772d2fe4516335d60a311e196efc63d2d8e922bc7cfc8500c99c48f2c5c4f46711c863665
Reciphers for ciphertext: 0
Decipheredtext:           0000000000000000000000000000000000
RESULT CIPHER-DECIPHER: -----OK-----


Test: 91
Crypto pad: 2
Symmetric key bit length: 128
IV bit length:            128
Plaintext bit length:     136
Symmetric key:            00000000000000000000000000000000
IV:                       5b5b5b5b5b5b5b5b5b5b5b5b5b5b5b5b
Plaintext:                0000000000000000000000000000000000
Ciphertext:               363f8c372c7744b7199594db00df2a8b844d5600d6c6c0f0acdac89d9be370b1363f8c372c7744b7199594db00df2a8b05ac8c572bf71a3c2e50e50a9f2a31d2
Reciphers for ciphertext: 0
Decipheredtext:           0000000000000000000000000000000000
RESULT CIPHER-DECIPHER: -----OK-----


Test: 92
Crypto pad: 1
Symmetric key bit length: 128
IV bit length:            128
Plaintext bit length:     136
Symmetric key:            00000000000000000000000000000000
IV:                       5c5c5c5c5c5c5c5c5c5c5c5c5c5c5c5c
Plaintext:                0000000000000000000000000000000000
Ciphertext:               35096b5c1874f788a8ab2c97f46309ae5dce68f10dc534cc8842245b7d9a2b3635096b5c1874f788a8ab2c97f46309aed63f5b91974d9c2fd35dbebeab5bc7d0
Reciphers for ciphertext: 0
Decipheredtext:           0000000000000000000000000000000000
RESULT CIPHER-DECIPHER: -----OK-----


Test: 93
Crypto pad: 0
Symmetric key bit length: 128
IV bit length:            128
Plaintext bit length:     136
Symmetric key:            00000000000000000000000000000000
IV:                       5d5d5d5d5d5d5d5d5d5d5d5d5d5d5d5d
Plaintext:                0000000000000000000000000000000000
Ciphertext:               f0e3cdb2b8d8927806134ba2029a21c190e301fd1f63dcdd666c8ce87ad3bf7ff0e3cdb2b8d8927806134ba2029a21c1cd8a09561693bc18aa4bb605e539584e
Reciphers for ciphertext: 0
Decipheredtext:           0000000000000000000000000000000000
RESULT CIPHER-DECIPHER: -----OK-----


Test: 94
Crypto pad: 0
Symmetric key bit length: 128
IV bit length:            128
Plaintext bit length:     136
Symmetric key:            00000000000000000000000000000000
IV:                       5e5e5e5e5e5e5e5e5e5e5e5e5e5e5e5e
Plaintext:                0000000000000000000000000000000000
Ciphertext:               f258daeba86853eedb8f4e0d4418559da3d8c1fca684cb389d2cc25286cdd403f258daeba86853eedb8f4e0d4418559d7f89cb917b80d634c5b8d38a43d4c0ae
Reciphers for ciphertext: 0
Decipheredtext:           0000000000000000000000000000000000
RESULT CIPHER-DECIPHER: -----OK-----


Test: 95
Crypto pad: 2
Symmetric key bit length: 128
IV bit length:            128
Plaintext bit length:     136
Symmetric key:            00000000000000000000000000000000
IV:                       5f5f5f5f5f5f5f5f5f5f5f5f5f5f5f5f
Plaintext:                0000000000000000000000000000000000
Ciphertext:               2bb0c79c6fcb72f0340bc5a62798f9ef1da761902a9513ec709d42299dd0438f2bb0c79c6fcb72f0340bc5a62798f9ef2b729d5a77ae99ac264aa8bf09b5e42c
Reciphers for ciphertext: 0
Decipheredtext:           0000000000000000000000000000000000
RESULT CIPHER-DECIPHER: -----OK-----


Test: 96
Crypto pad: 1
Symmetric key bit length: 128
IV bit length:            128
Plaintext bit length:     136
Symmetric key:            00000000000000000000000000000000
IV:                       60606060606060606060606060606060
Plaintext:                0000000000000000000000000000000000
Ciphertext:               da8f3c32b61acb0b9d8e0bb5c937f27f19da82fb16025d5358c5264e1f67b310da8f3c32b61acb0b9d8e0bb5c937f27f2fe5c696d188e315f7ec117883e05b4b
Reciphers for ciphertext: 0
Decipheredtext:           0000000000000000000000000000000000
RESULT CIPHER-DECIPHER: -----OK-----


Test: 97
Crypto pad: 0
Symmetric key bit length: 128
IV bit length:            128
Plaintext bit length:     136
Symmetric key:            00000000000000000000000000000000
IV:                       61616161616161616161616161616161
Plaintext:                0000000000000000000000000000000000
Ciphertext:               1baba653729e6a4d3af7439dafe83a88c52d40ce70800fcaeb3159fc925d095c1baba653729e6a4d3af7439dafe83a88d730671584168236269ffad33b043613
Reciphers for ciphertext: 0
Decipheredtext:           0000000000000000000000000000000000
RESULT CIPHER-DECIPHER: -----OK-----


Test: 98
Crypto pad: 0
Symmetric key bit length: 128
IV bit length:            128
Plaintext bit length:     136
Symmetric key:            00000000000000000000000000000000
IV:                       62626262626262626262626262626262
Plaintext:                0000000000000000000000000000000000
Ciphertext:               2f587917c89e6b7cfd0bc7491947bc2f0c836561eaeb6ed80b8455948fc78cb0126693e1c4f879b163f27e09f397330bf1aa5b58cd2f67e062238836747869fa
Reciphers for ciphertext: 1
Decipheredtext:           0000000000000000000000000000000000
RESULT CIPHER-DECIPHER: -----OK-----


Test: 99
Crypto pad: 2
Symmetric key bit length: 128
IV bit length:            128
Plaintext bit length:     136
Symmetric key:            00000000000000000000000000000000
IV:                       63636363636363636363636363636363
Plaintext:                0000000000000000000000000000000000
Ciphertext:               26d5370a569ea9e56c1f900a1090dcb2437a03d5bceeb154f38aa12e427ae22c26d5370a569ea9e56c1f900a1090dcb2ad6a15081221dd88d198782eaa60393a
Reciphers for ciphertext: 0
Decipheredtext:           0000000000000000000000000000000000
RESULT CIPHER-DECIPHER: -----OK-----


Test: 100
Crypto pad: 2
Symmetric key bit length: 128
IV bit length:            128
Plaintext bit length:     136
Symmetric key:            00000000000000000000000000000000
IV:                       64646464646464646464646464646464
Plaintext:                0000000000000000000000000000000000
Ciphertext:               e3b58509abbfc0a539b6fde4311dc0ee6b2b0321d7e053b657be549eab10ce93e3b58509abbfc0a539b6fde4311dc0ee0ae6ef459df2f086859280a8aeea5ae1
Reciphers for ciphertext: 0
Decipheredtext:           0000000000000000000000000000000000
RESULT CIPHER-DECIPHER: -----OK-----


Test: 101
Crypto pad: 1
Symmetric key bit length: 128
IV bit length:            128
Plaintext bit length:     136
Symmetric key:            00000000000000000000000000000000
IV:                       65656565656565656565656565656565
Plaintext:                0000000000000000000000000000000000
Ciphertext:               5987c4747653c600b4475a8e5c16c55f62fe8aa858574dcb2e329276752e754c5987c4747653c600b4475a8e5c16c55f0ba60b0feee1f9dc305c48db24b1f721
Reciphers for ciphertext: 0
Decipheredtext:           0000000000000000000000000000000000
RESULT CIPHER-DECIPHER: -----OK-----


Test: 102
Crypto pad: 2
Symmetric key bit length: 128
IV bit length:            128
Plaintext bit length:     136
Symmetric key:            00000000000000000000000000000000
IV:                       66666666666666666666666666666666
Plaintext:                0000000000000000000000000000000000
Ciphertext:               9b2b8ee610b2ba855844097a9b9aa0cb4e71c3b69c58f29a6ff04f1c619e79149b2b8ee610b2ba855844097a9b9aa0cb2ed2787e6bf8683637670c34a1f44adf
Reciphers for ciphertext: 0
Decipheredtext:           0000000000000000000000000000000000
RESULT CIPHER-DECIPHER: -----OK-----


Test: 103
Crypto pad: 0
Symmetric key bit length: 128
IV bit length:            128
Plaintext bit length:     136
Symmetric key:            00000000000000000000000000000000
IV:                       67676767676767676767676767676767
Plaintext:                0000000000000000000000000000000000
Ciphertext:               129c7afdac27b9d7ef2ec41a1e8f266869475ae4bd6f6b616e96b7903606d780129c7afdac27b9d7ef2ec41a1e8f2668eb181040b2805ca0e323aa7dd096b0fc
Reciphers for ciphertext: 0
Decipheredtext:           0000000000000000000000000000000000
RESULT CIPHER-DECIPHER: -----OK-----


Test: 104
Crypto pad: 1
Symmetric key bit length: 128
IV bit length:            128
Plaintext bit length:     136
Symmetric key:            00000000000000000000000000000000
IV:                       68686868686868686868686868686868
Plaintext:                0000000000000000000000000000000000
Ciphertext:               95c11b62762f224fa3ae155dcb9acdc1b6be0f48819a4af84929ab19185644bb95c11b62762f224fa3ae155dcb9acdc11dd389a470e8cabaaffb24deb7c086c8
Reciphers for ciphertext: 0
Decipheredtext:           0000000000000000000000000000000000
RESULT CIPHER-DECIPHER: -----OK-----


Test: 105
Crypto pad: 0
Symmetric key bit length: 128
IV bit length:            128
Plaintext bit length:     136
Symmetric key:            00000000000000000000000000000000
IV:                       69696969696969696969696969696969
Plaintext:                0000000000000000000000000000000000
Ciphertext:               463fdf3b1657f5783809ddc2e7ef39c34da0f64298808a35c6ed3720e9b53db3463fdf3b1657f5783809ddc2e7ef39c3740ce503abc10cd825635b7efc98b836
Reciphers for ciphertext: 0
Decipheredtext:           0000000000000000000000000000000000
RESULT CIPHER-DECIPHER: -----OK-----


Test: 106
Crypto pad: 0
Symmetric key bit length: 128
IV bit length:            128
Plaintext bit length:     136
Symmetric key:            00000000000000000000000000000000
IV:                       6a6a6a6a6a6a6a6a6a6a6a6a6a6a6a6a
Plaintext:                0000000000000000000000000000000000
Ciphertext:               683410ebda8d75a09f43ff73ca0627a40ee1244306e0ae0e7427b9932919963a683410ebda8d75a09f43ff73ca0627a4501fb9bb33ec88bfb300d5f876155d38
Reciphers for ciphertext: 0
Decipheredtext:           0000000000000000000000000000000000
RESULT CIPHER-DECIPHER: -----OK-----


Test: 107
Crypto pad: 0
Symmetric key bit length: 128
IV bit length:            128
Plaintext bit length:     136
Symmetric key:            00000000000000000000000000000000
IV:                       6b6b6b6b6b6b6b6b6b6b6b6b6b6b6b6b
Plaintext:                0000000000000000000000000000000000
Ciphertext:               3ad7c22fe3fee3661aabb9e0f71ae4b40c690df5f13cf4d3015e52237bf70b8f3ad7c22fe3fee3661aabb9e0f71ae4b41e3dee3829f2921d3db59c2e348d7a38
Reciphers for ciphertext: 0
Decipheredtext:           0000000000000000000000000000000000
RESULT CIPHER-DECIPHER: -----OK-----


Test: 108
Crypto pad: 2
Symmetric key bit length: 128
IV bit length:            128
Plaintext bit length:     136
Symmetric key:            00000000000000000000000000000000
IV:                       6c6c6c6c6c6c6c6c6c6c6c6c6c6c6c6c
Plaintext:                0000000000000000000000000000000000
Ciphertext:               2121ae4b72f250fc6be8cb83a06968570f992d2019e7fd411aa0e999cc912e142121ae4b72f250fc6be8cb83a0696857aa09b85b6ccfd60d96f2e9deb74075a5
Reciphers for ciphertext: 0
Decipheredtext:           0000000000000000000000000000000000
RESULT CIPHER-DECIPHER: -----OK-----


Test: 109
Crypto pad: 2
Symmetric key bit length: 128
IV bit length:            128
Plaintext bit length:     136
Symmetric key:            00000000000000000000000000000000
IV:                       6d6d6d6d6d6d6d6d6d6d6d6d6d6d6d6d
Plaintext:                0000000000000000000000000000000000
Ciphertext:               8f3092634f5d615025421906783d668cad7149e5328bc97da1b1e23f2e70cfe38f3092634f5d615025421906783d668c90c3381696fbb4a81849da99108c1c48
Reciphers for ciphertext: 0
Decipheredtext:           0000000000000000000000000000000000
RESULT CIPHER-DECIPHER: -----OK-----


Test: 110
Crypto pad: 2
Symmetric key bit length: 128
IV bit length:            128
Plaintext bit length:     136
Symmetric key:            00000000000000000000000000000000
IV:                       6e6e6e6e6e6e6e6e6e6e6e6e6e6e6e6e
Plaintext:                0000000000000000000000000000000000
Ciphertext:               28c3e0066bc3dffb15324f99c45c030321055091b35bdcb1e01c6a97739d9ac328c3e0066bc3dffb15324f99c45c0303317cb090a6952a8070206888a70cece2
Reciphers for ciphertext: 0
Decipheredtext:           0000000000000000000000000000000000
RESULT CIPHER-DECIPHER: -----OK-----


Test: 111
Crypto pad: 2
Symmetric key bit length: 128
IV bit length:            128
Plaintext bit length:     136
Symmetric key:            00000000000000000000000000000000
IV:                       6f6f6f6f6f6f6f6f6f6f6f6f6f6f6f6f
Plaintext:                0000000000000000000000000000000000
Ciphertext:               5962f547a552018160795e54930ac50455328290b8dbc8e3de256f26de5087e25962f547a552018160795e54930ac50495b3750443794fe0be81b3cc3fbb3e10
Reciphers for ciphertext: 0
Decipheredtext:           0000000000000000000000000000000000
RESULT CIPHER-DECIPHER: -----OK-----


Test: 112
Crypto pad: 1
Symmetric key bit length: 128
IV bit length:            128
Plaintext bit length:     136
Symmetric key:            00000000000000000000000000000000
IV:                       70707070707070707070707070707070
Plaintext:                0000000000000000000000000000000000
Ciphertext:               851292606248d05acd377d62e5a1f91d1432e4480d598f2fa1c063238c0b6635851292606248d05acd377d62e5a1f91d81b659626566bc26c90ad6771a7cd2de
Reciphers for ciphertext: 0
Decipheredtext:           0000000000000000000000000000000000
RESULT CIPHER-DECIPHER: -----OK-----


Test: 113
Crypto pad: 0
Symmetric key bit length: 128
IV bit length:            128
Plaintext bit length:     136
Symmetric key:            00000000000000000000000000000000
IV:                       71717171717171717171717171717171
Plaintext:                0000000000000000000000000000000000
Ciphertext:               e64abac4e23f244ba5792398ae37dd5ae7b103f7d41dc00f6ce689fcad7e42ade64abac4e23f244ba5792398ae37dd5a8f66927eaa88440ac746d93fa61f612c
Reciphers for ciphertext: 0
Decipheredtext:           0000000000000000000000000000000000
RESULT CIPHER-DECIPHER: -----OK-----


Test: 114
Crypto pad: 0
Symmetric key bit length: 128
IV bit length:            128
Plaintext bit length:     136
Symmetric key:            00000000000000000000000000000000
IV:                       72727272727272727272727272727272
Plaintext:                0000000000000000000000000000000000
Ciphertext:               409af9a31c95612f5acd7f89e410bd86b5c47f80ccc0a2c94d8ff2ac07f95dd1409af9a31c95612f5acd7f89e410bd862262a722291dc1258111ebad8e61cd66
Reciphers for ciphertext: 0
Decipheredtext:           0000000000000000000000000000000000
RESULT CIPHER-DECIPHER: -----OK-----


Test: 115
Crypto pad: 1
Symmetric key bit length: 128
IV bit length:            128
Plaintext bit length:     136
Symmetric key:            00000000000000000000000000000000
IV:                       73737373737373737373737373737373
Plaintext:                0000000000000000000000000000000000
Ciphertext:               9174647ff401e9511ef37c8045cdd2ebb0e3cd7de19df7831369f5cc2bf6fe2b9174647ff401e9511ef37c8045cdd2eb19ed0f4f8b00e83f8edc7f8807cac4a8
Reciphers for ciphertext: 0
Decipheredtext:           0000000000000000000000000000000000
RESULT CIPHER-DECIPHER: -----OK-----


Test: 116
Crypto pad: 2
Symmetric key bit length: 128
IV bit length:            128
Plaintext bit length:     136
Symmetric key:            00000000000000000000000000000000
IV:                       74747474747474747474747474747474
Plaintext:                0000000000000000000000000000000000
Ciphertext:               bafc683568fe4cc70778742fbd4cdd263f3a6005ee6b4fc1af974d70a145fb48bafc683568fe4cc70778742fbd4cdd26a1d9a23597ec67b63609a1246ec139de
Reciphers for ciphertext: 0
Decipheredtext:           0000000000000000000000000000000000
RESULT CIPHER-DECIPHER: -----OK-----


Test: 117
Crypto pad: 0
Symmetric key bit length: 128
IV bit length:            128
Plaintext bit length:     136
Symmetric key:            00000000000000000000000000000000
IV:                       75757575757575757575757575757575
Plaintext:                0000000000000000000000000000000000
Ciphertext:               ca76fea1fbd3276b9017d18da97314ef46f400d3fb574f8a37490f1df6e1d74eca76fea1fbd3276b9017d18da97314efc28e708b6d981e93d001f6f1a7604d19
Reciphers for ciphertext: 0
Decipheredtext:           0000000000000000000000000000000000
RESULT CIPHER-DECIPHER: -----OK-----


Test: 118
Crypto pad: 1
Symmetric key bit length: 128
IV bit length:            128
Plaintext bit length:     136
Symmetric key:            00000000000000000000000000000000
IV:                       76767676767676767676767676767676
Plaintext:                0000000000000000000000000000000000
Ciphertext:               926adb7d2fb51af3ec70b86239c8cce4c6f49ed6220285b1ead38028dedd63c9926adb7d2fb51af3ec70b86239c8cce4214ef625d31122e84506d88e19eac8c8
Reciphers for ciphertext: 0
Decipheredtext:           0000000000000000000000000000000000
RESULT CIPHER-DECIPHER: -----OK-----


Test: 119
Crypto pad: 2
Symmetric key bit length: 128
IV bit length:            128
Plaintext bit length:     136
Symmetric key:            00000000000000000000000000000000
IV:                       77777777777777777777777777777777
Plaintext:                0000000000000000000000000000000000
Ciphertext:               72c82264bdb1cce65ad924afa93aa6f664b37cc5dcc2cad915c6ccd28e58057072c82264bdb1cce65ad924afa93aa6f6093b0c8c8971dd83b1c492be99220dea
Reciphers for ciphertext: 0
Decipheredtext:           0000000000000000000000000000000000
RESULT CIPHER-DECIPHER: -----OK-----


Test: 120
Crypto pad: 1
Symmetric key bit length: 128
IV bit length:            128
Plaintext bit length:     136
Symmetric key:            00000000000000000000000000000000
IV:                       78787878787878787878787878787878
Plaintext:                0000000000000000000000000000000000
Ciphertext:               72379b6247ca257fad467f5e24996d955026a2c9550dffd05a321dc31b8148a472379b6247ca257fad467f5e24996d956ab7cd8abdfa03d5dc7fb29bc97c1d66
Reciphers for ciphertext: 0
Decipheredtext:           0000000000000000000000000000000000
RESULT CIPHER-DECIPHER: -----OK-----


Test: 121
Crypto pad: 1
Symmetric key bit length: 128
IV bit length:            128
Plaintext bit length:     136
Symmetric key:            00000000000000000000000000000000
IV:                       79797979797979797979797979797979
Plaintext:                0000000000000000000000000000000000
Ciphertext:               17f19c9512d56ba6ec116676667571e1cee3db8f9aba3025a0fa826593eb663417f19c9512d56ba6ec116676667571e1cbd5e41a67bcf94f0e1d441d1f0fb715
Reciphers for ciphertext: 0
Decipheredtext:           0000000000000000000000000000000000
RESULT CIPHER-DECIPHER: -----OK-----


Test: 122
Crypto pad: 1
Symmetric key bit length: 128
IV bit length:            128
Plaintext bit length:     136
Symmetric key:            00000000000000000000000000000000
IV:                       7a7a7a7a7a7a7a7a7a7a7a7a7a7a7a7a
Plaintext:                0000000000000000000000000000000000
Ciphertext:               53cb218f84c1e241ecbf0246660449ac31457f019272fb01536ebc53fa66b56753cb218f84c1e241ecbf0246660449ac2b187c2b8e772c8e3dda9b0c75ef21b7
Reciphers for ciphertext: 0
Decipheredtext:           0000000000000000000000000000000000
RESULT CIPHER-DECIPHER: -----OK-----


Test: 123
Crypto pad: 2
Symmetric key bit length: 128
IV bit length:            128
Plaintext bit length:     136
Symmetric key:            00000000000000000000000000000000
IV:                       7b7b7b7b7b7b7b7b7b7b7b7b7b7b7b7b
Plaintext:                0000000000000000000000000000000000
Ciphertext:               f23db4a2313d9bb9d3fa2aba3804c8d780c474baa2673347ad0bc0842b81849af23db4a2313d9bb9d3fa2aba3804c8d7eb2c8fccdc3f5ff3f480676815287b8e
Reciphers for ciphertext: 0
Decipheredtext:           0000000000000000000000000000000000
RESULT CIPHER-DECIPHER: -----OK-----


Test: 124
Crypto pad: 2
Symmetric key bit length: 128
IV bit length:            128
Plaintext bit length:     136
Symmetric key:            00000000000000000000000000000000
IV:                       7c7c7c7c7c7c7c7c7c7c7c7c7c7c7c7c
Plaintext:                0000000000000000000000000000000000
Ciphertext:               35dc399fc373193ea5bd53c10ce3cc7a350f83eed7cddc8f26fb9113c2d9a43435dc399fc373193ea5bd53c10ce3cc7a9cd3391ef69492b195c99c9b77b6f8b1
Reciphers for ciphertext: 0
Decipheredtext:           0000000000000000000000000000000000
RESULT CIPHER-DECIPHER: -----OK-----


Test: 125
Crypto pad: 0
Symmetric key bit length: 128
IV bit length:            128
Plaintext bit length:     136
Symmetric key:            00000000000000000000000000000000
IV:                       7d7d7d7d7d7d7d7d7d7d7d7d7d7d7d7d
Plaintext:                0000000000000000000000000000000000
Ciphertext:               3b7e1ec44eeca6a3e7960176379fecd62bd9115de5f540f833d514f708def6a83b7e1ec44eeca6a3e7960176379fecd656fc71411c9ba26fad0aab1e6ceb5f59
Reciphers for ciphertext: 0
Decipheredtext:           0000000000000000000000000000000000
RESULT CIPHER-DECIPHER: -----OK-----


Test: 126
Crypto pad: 2
Symmetric key bit length: 128
IV bit length:            128
Plaintext bit length:     136
Symmetric key:            00000000000000000000000000000000
IV:                       7e7e7e7e7e7e7e7e7e7e7e7e7e7e7e7e
Plaintext:                0000000000000000000000000000000000
Ciphertext:               0f4f479586b2e2535704fb9adc921500d183511671e96b37d1165c27a6d5f2bb0f4f479586b2e2535704fb9adc921500612aba41a0c760b29b93a6e05b5bf386
Reciphers for ciphertext: 0
Decipheredtext:           0000000000000000000000000000000000
RESULT CIPHER-DECIPHER: -----OK-----


Test: 127
Crypto pad: 2
Symmetric key bit length: 128
IV bit length:            128
Plaintext bit length:     136
Symmetric key:            00000000000000000000000000000000
IV:                       7f7f7f7f7f7f7f7f7f7f7f7f7f7f7f7f
Plaintext:                0000000000000000000000000000000000
Ciphertext:               de7a494a0438e32b0dc9e84240ecd5d0d6e89606420aa62b678032cf7c299539de7a494a0438e32b0dc9e84240ecd5d00b834fb742e331e1df4d01cdb0a03553
Reciphers for ciphertext: 0
Decipheredtext:           0000000000000000000000000000000000
RESULT CIPHER-DECIPHER: -----OK-----


 DATA SHA1 (hexadecimal): 817b88164a47de4f9217f7bfb8d2ba94305ad5e7

