
DiceLock 9.0.0.1

 TEST COMPONENTS:
 ----------------
 DiceLock:           DiceLockIVIndexed class
 Operation Mode:     CBC_Mode class
 Crypto pads:        0 - ANSI_X_923 class
                     1 - ISO_IEC_9797_1 class
                     2 - PKCS7 class
 Block Cipher:       Serpent256 class
 Key Modifier:       DecreaseBase0IndexModifier_6_0_0_1 class
   Index bit length: 256
 Random tests:       RandomTestSuite class
                     FrequencyTest class
                     BlockFrequencyTest class
                     CumulativeSumForwardTest class
                     LongestRunOfOnesTest class
                     RunsTest class
 Random alpha:       0.001

 VECTOR TEST: Test vector 0 - Changing symmetric key, shifting 1 bit set


##### INDIVIDUAL TESTS #####

Number tests: 128


Test: 0
Crypto pad: 1
Symmetric key bit length: 256
IV bit length:            128
Plaintext bit length:     128
Symmetric key:            0000000000000000000000000000000080000000000000000000000000000000
IV:                       00000000000000000000000000000000
Plaintext:                00000000000000000000000000000000
Ciphertext:               34c79f703a62b02e6790efbbbeb07241a2d5f8e6dc7d43a91a299d9332485a402a8a2ca458c8a99accc3a977211d42ae34c79f703a62b02e6790efbbbeb07241d031b5ccdee2dd89f5a7f4face649329
Reciphers for ciphertext: 0
Decipheredtext:           00000000000000000000000000000000
RESULT CIPHER-DECIPHER: -----OK-----


Test: 1
Crypto pad: 1
Symmetric key bit length: 256
IV bit length:            128
Plaintext bit length:     128
Symmetric key:            0000000000000000000000000000000040000000000000000000000000000000
IV:                       00000000000000000000000000000000
Plaintext:                00000000000000000000000000000000
Ciphertext:               bfc96d59ae31369b0618fd78fc295826b60352f0bbe4c53d9b8e56de70879ca31e9f8836553ec6fda7e003d0279dc89ebfc96d59ae31369b0618fd78fc295826a03408aa7da890b8e4cad87aa1d7d342
Reciphers for ciphertext: 0
Decipheredtext:           00000000000000000000000000000000
RESULT CIPHER-DECIPHER: -----OK-----


Test: 2
Crypto pad: 0
Symmetric key bit length: 256
IV bit length:            128
Plaintext bit length:     128
Symmetric key:            0000000000000000000000000000000020000000000000000000000000000000
IV:                       00000000000000000000000000000000
Plaintext:                00000000000000000000000000000000
Ciphertext:               f811a6558ce7a67bd3280ee4e3259be80dd8eedfff759f476e685b499c442547433088fdafba45f6b93362ba1a02fa3ef811a6558ce7a67bd3280ee4e3259be84e53ff51dd0c69db04c020578cd11fde
Reciphers for ciphertext: 0
Decipheredtext:           00000000000000000000000000000000
RESULT CIPHER-DECIPHER: -----OK-----


Test: 3
Crypto pad: 2
Symmetric key bit length: 256
IV bit length:            128
Plaintext bit length:     128
Symmetric key:            0000000000000000000000000000000010000000000000000000000000000000
IV:                       00000000000000000000000000000000
Plaintext:                00000000000000000000000000000000
Ciphertext:               8c8205692ab866bcf965dd61d595bf8e228ca6c73adfca0c13e6382d29dfdb1c0d020a08bab1a8147d7fe08c713f23d38c8205692ab866bcf965dd61d595bf8e190b2924168f05d49a8404eea911a467
Reciphers for ciphertext: 0
Decipheredtext:           00000000000000000000000000000000
RESULT CIPHER-DECIPHER: -----OK-----


Test: 4
Crypto pad: 2
Symmetric key bit length: 256
IV bit length:            128
Plaintext bit length:     128
Symmetric key:            0000000000000000000000000000000008000000000000000000000000000000
IV:                       00000000000000000000000000000000
Plaintext:                00000000000000000000000000000000
Ciphertext:               098a85e6ca58293bd2298c07f86a8f8cc2585a4f1b73f76b3c767b44b9a8668a7fdcc5562b6e30bd413fa70e5b58501c098a85e6ca58293bd2298c07f86a8f8cc6b4027d59a47209e1b6388050bd85a7
Reciphers for ciphertext: 0
Decipheredtext:           00000000000000000000000000000000
RESULT CIPHER-DECIPHER: -----OK-----


Test: 5
Crypto pad: 0
Symmetric key bit length: 256
IV bit length:            128
Plaintext bit length:     128
Symmetric key:            0000000000000000000000000000000004000000000000000000000000000000
IV:                       00000000000000000000000000000000
Plaintext:                00000000000000000000000000000000
Ciphertext:               2801da2be78057706abafaab8226fa39a53d7efe3abb962d79c1ca1db25d419c65a1923980a799df18953df7788419ca2801da2be78057706abafaab8226fa39b6c4c26f8852a42f8f07958be84a6a45
Reciphers for ciphertext: 0
Decipheredtext:           00000000000000000000000000000000
RESULT CIPHER-DECIPHER: -----OK-----


Test: 6
Crypto pad: 1
Symmetric key bit length: 256
IV bit length:            128
Plaintext bit length:     128
Symmetric key:            0000000000000000000000000000000002000000000000000000000000000000
IV:                       00000000000000000000000000000000
Plaintext:                00000000000000000000000000000000
Ciphertext:               500796a8bccee9141ab21282d6c912a8844a898f47705b141bfbce59de22517a1ff51c27a77fbc9ece7672f40e5bfff6500796a8bccee9141ab21282d6c912a82672e5ca38ececa87e07e68f6c8e5630
Reciphers for ciphertext: 0
Decipheredtext:           00000000000000000000000000000000
RESULT CIPHER-DECIPHER: -----OK-----


Test: 7
Crypto pad: 2
Symmetric key bit length: 256
IV bit length:            128
Plaintext bit length:     128
Symmetric key:            0000000000000000000000000000000001000000000000000000000000000000
IV:                       00000000000000000000000000000000
Plaintext:                00000000000000000000000000000000
Ciphertext:               80cbe789099bdf0140da3ac157d7bf4788e23d9296ed57e6122ef959ce6c97e38557e93cf1d925742fa1f0b0396bd31680cbe789099bdf0140da3ac157d7bf4766a7edf73b02f60557b771f991d8a38a
Reciphers for ciphertext: 0
Decipheredtext:           00000000000000000000000000000000
RESULT CIPHER-DECIPHER: -----OK-----


Test: 8
Crypto pad: 1
Symmetric key bit length: 256
IV bit length:            128
Plaintext bit length:     128
Symmetric key:            0000000000000000000000000000000000800000000000000000000000000000
IV:                       00000000000000000000000000000000
Plaintext:                00000000000000000000000000000000
Ciphertext:               8ce81e5dea464efaf01b3da5a6da5aa9990190d7f8b3cddf74a6aafad9239b60391662fabee5c90e9936f649426c923f8ce81e5dea464efaf01b3da5a6da5aa9a239ca670bc72139be92406b73eaa169
Reciphers for ciphertext: 0
Decipheredtext:           00000000000000000000000000000000
RESULT CIPHER-DECIPHER: -----OK-----


Test: 9
Crypto pad: 0
Symmetric key bit length: 256
IV bit length:            128
Plaintext bit length:     128
Symmetric key:            0000000000000000000000000000000000400000000000000000000000000000
IV:                       00000000000000000000000000000000
Plaintext:                00000000000000000000000000000000
Ciphertext:               4aec37a4ef16b38bcdba0b01051803d1d496b3b3609100530351a1896ca340f9b0034a40037bc771928ab6f4086c61134aec37a4ef16b38bcdba0b01051803d11272338d6719a92b2359a98a7a11cca0
Reciphers for ciphertext: 0
Decipheredtext:           00000000000000000000000000000000
RESULT CIPHER-DECIPHER: -----OK-----


Test: 10
Crypto pad: 1
Symmetric key bit length: 256
IV bit length:            128
Plaintext bit length:     128
Symmetric key:            0000000000000000000000000000000000200000000000000000000000000000
IV:                       00000000000000000000000000000000
Plaintext:                00000000000000000000000000000000
Ciphertext:               e6a2f6431269aa02c93793af80436a7b354550b8da257fb59019858071ac45aa4a6ea150a2909bd5f57dc625ba07ad93e6a2f6431269aa02c93793af80436a7b7f194bf097506f967b560dbf939bd10c
Reciphers for ciphertext: 0
Decipheredtext:           00000000000000000000000000000000
RESULT CIPHER-DECIPHER: -----OK-----


Test: 11
Crypto pad: 2
Symmetric key bit length: 256
IV bit length:            128
Plaintext bit length:     128
Symmetric key:            0000000000000000000000000000000000100000000000000000000000000000
IV:                       00000000000000000000000000000000
Plaintext:                00000000000000000000000000000000
Ciphertext:               4aa9046b1fb69a6abcb8f3351d75efbd139672392358511a3ac278faeae1e2c510a0adf86e4d4c95b03675625d208c174aa9046b1fb69a6abcb8f3351d75efbd133767635344a6dfff923479ad8eb024
Reciphers for ciphertext: 0
Decipheredtext:           00000000000000000000000000000000
RESULT CIPHER-DECIPHER: -----OK-----


Test: 12
Crypto pad: 1
Symmetric key bit length: 256
IV bit length:            128
Plaintext bit length:     128
Symmetric key:            0000000000000000000000000000000000080000000000000000000000000000
IV:                       00000000000000000000000000000000
Plaintext:                00000000000000000000000000000000
Ciphertext:               66b8c45fe8c254088d62d307edb9cf51f6901cf0a911cf301b305369bed36494d563e1709d669194a81f48dd2c6bad4b66b8c45fe8c254088d62d307edb9cf510ca86fdae1fdba189c085b155a2fee21
Reciphers for ciphertext: 0
Decipheredtext:           00000000000000000000000000000000
RESULT CIPHER-DECIPHER: -----OK-----


Test: 13
Crypto pad: 0
Symmetric key bit length: 256
IV bit length:            128
Plaintext bit length:     128
Symmetric key:            0000000000000000000000000000000000040000000000000000000000000000
IV:                       00000000000000000000000000000000
Plaintext:                00000000000000000000000000000000
Ciphertext:               fddcfb5c4da597b9d887e03b8337da0cd51380ef225ed67f2b8229bdca4bb11f6217c30aed5ef02e5ae67d50f0aac654fddcfb5c4da597b9d887e03b8337da0cbe4f802e20888521ee40aa164a17db42
Reciphers for ciphertext: 0
Decipheredtext:           00000000000000000000000000000000
RESULT CIPHER-DECIPHER: -----OK-----


Test: 14
Crypto pad: 1
Symmetric key bit length: 256
IV bit length:            128
Plaintext bit length:     128
Symmetric key:            0000000000000000000000000000000000020000000000000000000000000000
IV:                       00000000000000000000000000000000
Plaintext:                00000000000000000000000000000000
Ciphertext:               69042f478d87f8b6e0d149216f2e8d9350d2bed9e616a2ce274c667a7b8f3569fc0a6c260b5ab6a0d125b778492762f969042f478d87f8b6e0d149216f2e8d930c7fc9b5c57c080dfcec11de14f4ea5d
Reciphers for ciphertext: 0
Decipheredtext:           00000000000000000000000000000000
RESULT CIPHER-DECIPHER: -----OK-----


Test: 15
Crypto pad: 2
Symmetric key bit length: 256
IV bit length:            128
Plaintext bit length:     128
Symmetric key:            0000000000000000000000000000000000010000000000000000000000000000
IV:                       00000000000000000000000000000000
Plaintext:                00000000000000000000000000000000
Ciphertext:               ad8f00cdace047f3225a235fc2b05738b7ddc66cf32db821b90020ff923de88e9b39781640f55fe51eda8d36255f2ddbad8f00cdace047f3225a235fc2b0573896faea77435ea53960fde866967c31ce
Reciphers for ciphertext: 0
Decipheredtext:           00000000000000000000000000000000
RESULT CIPHER-DECIPHER: -----OK-----


Test: 16
Crypto pad: 0
Symmetric key bit length: 256
IV bit length:            128
Plaintext bit length:     128
Symmetric key:            0000000000000000000000000000000000008000000000000000000000000000
IV:                       00000000000000000000000000000000
Plaintext:                00000000000000000000000000000000
Ciphertext:               6a624c0f16aaa6cd4995e01988deaa3b104003c7ac3119be69d2a9ce87f46d18b1e4c17579b541ecb897317e4da305aa6a624c0f16aaa6cd4995e01988deaa3ba6a61ed98eac313cc489a9febb15fdbd
Reciphers for ciphertext: 0
Decipheredtext:           00000000000000000000000000000000
RESULT CIPHER-DECIPHER: -----OK-----


Test: 17
Crypto pad: 1
Symmetric key bit length: 256
IV bit length:            128
Plaintext bit length:     128
Symmetric key:            0000000000000000000000000000000000004000000000000000000000000000
IV:                       00000000000000000000000000000000
Plaintext:                00000000000000000000000000000000
Ciphertext:               7a3cd401880ace9b40a922ee5bd453e508513f27826a7b8464e0647ee484e50fc3509244734c5154e8f123eb39f915427d8f824eaa7dd1657a0f59a2f27b5e0fe9d914dcd1fdca5fa91e2cc065093482
Reciphers for ciphertext: 1
Decipheredtext:           00000000000000000000000000000000
RESULT CIPHER-DECIPHER: -----OK-----


Test: 18
Crypto pad: 2
Symmetric key bit length: 256
IV bit length:            128
Plaintext bit length:     128
Symmetric key:            0000000000000000000000000000000000002000000000000000000000000000
IV:                       00000000000000000000000000000000
Plaintext:                00000000000000000000000000000000
Ciphertext:               7015d246b39a995c11b409485e100b516e18921a60689a0c9afbe29990a97bd22859a437d20baba54c5db8c1410792607015d246b39a995c11b409485e100b513eb2a26c7173e0b521e22eac77b993a8
Reciphers for ciphertext: 0
Decipheredtext:           00000000000000000000000000000000
RESULT CIPHER-DECIPHER: -----OK-----


Test: 19
Crypto pad: 1
Symmetric key bit length: 256
IV bit length:            128
Plaintext bit length:     128
Symmetric key:            0000000000000000000000000000000000001000000000000000000000000000
IV:                       00000000000000000000000000000000
Plaintext:                00000000000000000000000000000000
Ciphertext:               cad1a2944343525c2b9da630937cf40f81af482d222dc67de75dd6f1f1ebf97e8a8d1423d646071104c6e13617cc4438cad1a2944343525c2b9da630937cf40f268249ae74e3076011ec7642cfae64d9
Reciphers for ciphertext: 0
Decipheredtext:           00000000000000000000000000000000
RESULT CIPHER-DECIPHER: -----OK-----


Test: 20
Crypto pad: 1
Symmetric key bit length: 256
IV bit length:            128
Plaintext bit length:     128
Symmetric key:            0000000000000000000000000000000000000800000000000000000000000000
IV:                       00000000000000000000000000000000
Plaintext:                00000000000000000000000000000000
Ciphertext:               c7f24334553fe63c4ab2f3ffbf0183ab5b8d677609c91e3006ebf10f00fe6de1f4e3afed59982c96e8f5963bdea47241c7f24334553fe63c4ab2f3ffbf0183abe6e190f4ba4725428d8c09a4be93c80c
Reciphers for ciphertext: 0
Decipheredtext:           00000000000000000000000000000000
RESULT CIPHER-DECIPHER: -----OK-----


Test: 21
Crypto pad: 2
Symmetric key bit length: 256
IV bit length:            128
Plaintext bit length:     128
Symmetric key:            0000000000000000000000000000000000000400000000000000000000000000
IV:                       00000000000000000000000000000000
Plaintext:                00000000000000000000000000000000
Ciphertext:               bf2da14eea8055f51636984e51f4a349f75cc57b61797724913b2e10076b1503e38c7ed5ec18305fae83c4092f1d4a77bf2da14eea8055f51636984e51f4a349fd9596fe1818bde4a47633958fcc8eb6
Reciphers for ciphertext: 0
Decipheredtext:           00000000000000000000000000000000
RESULT CIPHER-DECIPHER: -----OK-----


Test: 22
Crypto pad: 2
Symmetric key bit length: 256
IV bit length:            128
Plaintext bit length:     128
Symmetric key:            0000000000000000000000000000000000000200000000000000000000000000
IV:                       00000000000000000000000000000000
Plaintext:                00000000000000000000000000000000
Ciphertext:               c424de5973035fad65d99e27a2ae07c0544efca656bbd31ccbb749fe2782fb2d86f7fd4d0561aae1310f8ee0a57fc6b0c424de5973035fad65d99e27a2ae07c01cfa25299f4deb5fa4bf00541b559509
Reciphers for ciphertext: 0
Decipheredtext:           00000000000000000000000000000000
RESULT CIPHER-DECIPHER: -----OK-----


Test: 23
Crypto pad: 2
Symmetric key bit length: 256
IV bit length:            128
Plaintext bit length:     128
Symmetric key:            0000000000000000000000000000000000000100000000000000000000000000
IV:                       00000000000000000000000000000000
Plaintext:                00000000000000000000000000000000
Ciphertext:               3ed7b674bcedb60523386119e2cb5fbe20602a2652018e3b971f612a32d5feff5b057c18e4bf3a4f5826f0a630660cb13ed7b674bcedb60523386119e2cb5fbe0f532c87f27528c33c382e39b3505b2f
Reciphers for ciphertext: 0
Decipheredtext:           00000000000000000000000000000000
RESULT CIPHER-DECIPHER: -----OK-----


Test: 24
Crypto pad: 1
Symmetric key bit length: 256
IV bit length:            128
Plaintext bit length:     128
Symmetric key:            0000000000000000000000000000000000000080000000000000000000000000
IV:                       00000000000000000000000000000000
Plaintext:                00000000000000000000000000000000
Ciphertext:               f0bed60941174023ae4d07e7deb23d5f32848ed0da131d0b52de241e2634fa5bcb89b5a3fb9c9e0f8908e01b2529d2f9f0bed60941174023ae4d07e7deb23d5fbdc657362e48b87088d700c1ae3e3bc5
Reciphers for ciphertext: 0
Decipheredtext:           00000000000000000000000000000000
RESULT CIPHER-DECIPHER: -----OK-----


Test: 25
Crypto pad: 0
Symmetric key bit length: 256
IV bit length:            128
Plaintext bit length:     128
Symmetric key:            0000000000000000000000000000000000000040000000000000000000000000
IV:                       00000000000000000000000000000000
Plaintext:                00000000000000000000000000000000
Ciphertext:               159a9d7e5a210dad034ea2e50cbc30e5598ae6f758fdb81262a5e873141981dbf7381341951d23a48b3012ed64d98351159a9d7e5a210dad034ea2e50cbc30e5a7cd319744193b7424c14082a120be06
Reciphers for ciphertext: 0
Decipheredtext:           00000000000000000000000000000000
RESULT CIPHER-DECIPHER: -----OK-----


Test: 26
Crypto pad: 2
Symmetric key bit length: 256
IV bit length:            128
Plaintext bit length:     128
Symmetric key:            0000000000000000000000000000000000000020000000000000000000000000
IV:                       00000000000000000000000000000000
Plaintext:                00000000000000000000000000000000
Ciphertext:               695724e11b4cea84603f935571a1f5ffdaaf73890b31f262fe0283d67294813330ba10e619b9767859d4c005effb1196695724e11b4cea84603f935571a1f5ffbe8f11920278102e18e6bd7ccf2fc672
Reciphers for ciphertext: 0
Decipheredtext:           00000000000000000000000000000000
RESULT CIPHER-DECIPHER: -----OK-----


Test: 27
Crypto pad: 1
Symmetric key bit length: 256
IV bit length:            128
Plaintext bit length:     128
Symmetric key:            0000000000000000000000000000000000000010000000000000000000000000
IV:                       00000000000000000000000000000000
Plaintext:                00000000000000000000000000000000
Ciphertext:               788ac03153fad14a7a3f8322543dca644042c767b87e9548c2570dfd68bf5dda4765819eb2edac26c2e7f6cc16f743ca788ac03153fad14a7a3f8322543dca64132796f391e4abcaa695c317d4657fab
Reciphers for ciphertext: 0
Decipheredtext:           00000000000000000000000000000000
RESULT CIPHER-DECIPHER: -----OK-----


Test: 28
Crypto pad: 2
Symmetric key bit length: 256
IV bit length:            128
Plaintext bit length:     128
Symmetric key:            0000000000000000000000000000000000000008000000000000000000000000
IV:                       00000000000000000000000000000000
Plaintext:                00000000000000000000000000000000
Ciphertext:               1964e04df808496e530e6ab5f2182ce40e07ba51e7aeca41a4b7e49f97c288e362c9cb01b3ee71aed3f07e20b9819d911964e04df808496e530e6ab5f2182ce4d0342cf8d335cbf93cd01cda7bcaba3d
Reciphers for ciphertext: 0
Decipheredtext:           00000000000000000000000000000000
RESULT CIPHER-DECIPHER: -----OK-----


Test: 29
Crypto pad: 0
Symmetric key bit length: 256
IV bit length:            128
Plaintext bit length:     128
Symmetric key:            0000000000000000000000000000000000000004000000000000000000000000
IV:                       00000000000000000000000000000000
Plaintext:                00000000000000000000000000000000
Ciphertext:               18a056a20724416b3ebe7f88743d829715abc4cec96543d90832702db281964e20c8318a40739d14c266c0afa9aabafe18a056a20724416b3ebe7f88743d82970a2034ecd071e704deb1e1b09c697a7a
Reciphers for ciphertext: 0
Decipheredtext:           00000000000000000000000000000000
RESULT CIPHER-DECIPHER: -----OK-----


Test: 30
Crypto pad: 2
Symmetric key bit length: 256
IV bit length:            128
Plaintext bit length:     128
Symmetric key:            0000000000000000000000000000000000000002000000000000000000000000
IV:                       00000000000000000000000000000000
Plaintext:                00000000000000000000000000000000
Ciphertext:               dd28593d13343349ab120f2667441d8a423091c9a31e71ed786e1affb86f0bf85d1430e7cbebefc06026ec4cd58edc91dd28593d13343349ab120f2667441d8a05000e14a0e7d25c0e09574e60b7b07e
Reciphers for ciphertext: 0
Decipheredtext:           00000000000000000000000000000000
RESULT CIPHER-DECIPHER: -----OK-----


Test: 31
Crypto pad: 1
Symmetric key bit length: 256
IV bit length:            128
Plaintext bit length:     128
Symmetric key:            0000000000000000000000000000000000000001000000000000000000000000
IV:                       00000000000000000000000000000000
Plaintext:                00000000000000000000000000000000
Ciphertext:               a0bf14c7d0e3336d4cd5b2b1b47f5e73bc50be7bdf8f03a5aef54e6727d42784408f6949ad1fa2b96939b1cf8263f63aa0bf14c7d0e3336d4cd5b2b1b47f5e73b05aaa721b56645ae63e9f6abc10a321
Reciphers for ciphertext: 0
Decipheredtext:           00000000000000000000000000000000
RESULT CIPHER-DECIPHER: -----OK-----


Test: 32
Crypto pad: 0
Symmetric key bit length: 256
IV bit length:            128
Plaintext bit length:     128
Symmetric key:            0000000000000000000000000000000000000000800000000000000000000000
IV:                       00000000000000000000000000000000
Plaintext:                00000000000000000000000000000000
Ciphertext:               d467c69d25a1a02481a2e3508d014badb9f8d3d0fe722982cfc7794c9d43c05a3f2987e1a919c1b930b3a5397e0f469bd467c69d25a1a02481a2e3508d014bad374e8114c85b70b0c0b8be394b303d4d
Reciphers for ciphertext: 0
Decipheredtext:           00000000000000000000000000000000
RESULT CIPHER-DECIPHER: -----OK-----


Test: 33
Crypto pad: 0
Symmetric key bit length: 256
IV bit length:            128
Plaintext bit length:     128
Symmetric key:            0000000000000000000000000000000000000000400000000000000000000000
IV:                       00000000000000000000000000000000
Plaintext:                00000000000000000000000000000000
Ciphertext:               3115ecf100476954f6c185250aa099c8d9f4589d79bc0e9bb3c9ce9fca53d82831b7bbfc76c79b719d50b4536e113bd23115ecf100476954f6c185250aa099c887e404f8c9841ef9eb74034591fd0a82
Reciphers for ciphertext: 0
Decipheredtext:           00000000000000000000000000000000
RESULT CIPHER-DECIPHER: -----OK-----


Test: 34
Crypto pad: 2
Symmetric key bit length: 256
IV bit length:            128
Plaintext bit length:     128
Symmetric key:            0000000000000000000000000000000000000000200000000000000000000000
IV:                       00000000000000000000000000000000
Plaintext:                00000000000000000000000000000000
Ciphertext:               6d1be89c5f75270a366e6dcfcf3de5ba08cee59e414e1d9162c93c762542ffb084a06e4436859b6a89787aea70c2ef436d1be89c5f75270a366e6dcfcf3de5ba2627e4d8b6cb54fb8fd98a95c7e9b206
Reciphers for ciphertext: 0
Decipheredtext:           00000000000000000000000000000000
RESULT CIPHER-DECIPHER: -----OK-----


Test: 35
Crypto pad: 1
Symmetric key bit length: 256
IV bit length:            128
Plaintext bit length:     128
Symmetric key:            0000000000000000000000000000000000000000100000000000000000000000
IV:                       00000000000000000000000000000000
Plaintext:                00000000000000000000000000000000
Ciphertext:               4d1686baa1be780736c35914731c186ea72e3fba249463f2d7fdeeafe2d64d732499aef53b30c78b59943c239dfedaac4d1686baa1be780736c35914731c186ee11e0b8bf7dde40afafd510f8aa7ce05
Reciphers for ciphertext: 0
Decipheredtext:           00000000000000000000000000000000
RESULT CIPHER-DECIPHER: -----OK-----


Test: 36
Crypto pad: 1
Symmetric key bit length: 256
IV bit length:            128
Plaintext bit length:     128
Symmetric key:            0000000000000000000000000000000000000000080000000000000000000000
IV:                       00000000000000000000000000000000
Plaintext:                00000000000000000000000000000000
Ciphertext:               3c5db56a9a87347b5a804560dd2dfd975eb0ffab3a97ac59e8aa93be04b5d7bd48a8175a77cc57f35883771d28738ab33c5db56a9a87347b5a804560dd2dfd977e67c617984e7ac2619b8d535b47e388
Reciphers for ciphertext: 0
Decipheredtext:           00000000000000000000000000000000
RESULT CIPHER-DECIPHER: -----OK-----


Test: 37
Crypto pad: 0
Symmetric key bit length: 256
IV bit length:            128
Plaintext bit length:     128
Symmetric key:            0000000000000000000000000000000000000000040000000000000000000000
IV:                       00000000000000000000000000000000
Plaintext:                00000000000000000000000000000000
Ciphertext:               24813b7d9043df69980def2dc0617d5488faa07f33371c3e2b14c9fa43c328be6a7f502a0e78ade085dac454d580b96b24813b7d9043df69980def2dc0617d5475d2199751e9dae6aba85c43789a0e95
Reciphers for ciphertext: 0
Decipheredtext:           00000000000000000000000000000000
RESULT CIPHER-DECIPHER: -----OK-----


Test: 38
Crypto pad: 2
Symmetric key bit length: 256
IV bit length:            128
Plaintext bit length:     128
Symmetric key:            0000000000000000000000000000000000000000020000000000000000000000
IV:                       00000000000000000000000000000000
Plaintext:                00000000000000000000000000000000
Ciphertext:               5751c2eb5dd14d8823c714fc4475459e5b597af04ee5665701463083c9dafa5c176af2045c126430ec7395090c96f2815751c2eb5dd14d8823c714fc4475459e6ec099aa3253d3a3271da21bca0c210e
Reciphers for ciphertext: 0
Decipheredtext:           00000000000000000000000000000000
RESULT CIPHER-DECIPHER: -----OK-----


Test: 39
Crypto pad: 2
Symmetric key bit length: 256
IV bit length:            128
Plaintext bit length:     128
Symmetric key:            0000000000000000000000000000000000000000010000000000000000000000
IV:                       00000000000000000000000000000000
Plaintext:                00000000000000000000000000000000
Ciphertext:               5b750ced85b4169116cf4e93c37e76e0b9e803b7fc5a3874feba043bb2fa62b7d8c687847a5b65e0f78a8efb1a6e8fed5b750ced85b4169116cf4e93c37e76e0309fd948e03d94a86a2333066c8c4210
Reciphers for ciphertext: 0
Decipheredtext:           00000000000000000000000000000000
RESULT CIPHER-DECIPHER: -----OK-----


Test: 40
Crypto pad: 1
Symmetric key bit length: 256
IV bit length:            128
Plaintext bit length:     128
Symmetric key:            0000000000000000000000000000000000000000008000000000000000000000
IV:                       00000000000000000000000000000000
Plaintext:                00000000000000000000000000000000
Ciphertext:               4ebaddc62d252e4028bbddf02807b3b47066947cd7cec878723a25327ac775895cd6d41433fea4f441a60aef511219b14ebaddc62d252e4028bbddf02807b3b4e68961e2e06470a7327754b4f40bc1ce
Reciphers for ciphertext: 0
Decipheredtext:           00000000000000000000000000000000
RESULT CIPHER-DECIPHER: -----OK-----


Test: 41
Crypto pad: 0
Symmetric key bit length: 256
IV bit length:            128
Plaintext bit length:     128
Symmetric key:            0000000000000000000000000000000000000000004000000000000000000000
IV:                       00000000000000000000000000000000
Plaintext:                00000000000000000000000000000000
Ciphertext:               216204523a32b2dcfc612be2d974b0dd9f67227c9499e943bb77a27c361b68232af7d9bf021ae9fbc69746f789840cfa216204523a32b2dcfc612be2d974b0dd64e082acf09abdc751250b3f5502cd83
Reciphers for ciphertext: 0
Decipheredtext:           00000000000000000000000000000000
RESULT CIPHER-DECIPHER: -----OK-----


Test: 42
Crypto pad: 0
Symmetric key bit length: 256
IV bit length:            128
Plaintext bit length:     128
Symmetric key:            0000000000000000000000000000000000000000002000000000000000000000
IV:                       00000000000000000000000000000000
Plaintext:                00000000000000000000000000000000
Ciphertext:               fe995e0532b897921552c7cefebbab916b344a39290e2c4e534993429a74047c74a937f0c77194872f3cb310d36dc89ffe995e0532b897921552c7cefebbab91461a53a224ac1a483b4f73fce7e12cc1
Reciphers for ciphertext: 0
Decipheredtext:           00000000000000000000000000000000
RESULT CIPHER-DECIPHER: -----OK-----


Test: 43
Crypto pad: 2
Symmetric key bit length: 256
IV bit length:            128
Plaintext bit length:     128
Symmetric key:            0000000000000000000000000000000000000000001000000000000000000000
IV:                       00000000000000000000000000000000
Plaintext:                00000000000000000000000000000000
Ciphertext:               354c096b0477ecb122c25c61f85e4125c26ec7dc189e61eaa00e2c41db207b39a43e391c5c7dde858e210ad4ea5a27ac354c096b0477ecb122c25c61f85e4125c7ebb31719454d049fd145968688f838
Reciphers for ciphertext: 0
Decipheredtext:           00000000000000000000000000000000
RESULT CIPHER-DECIPHER: -----OK-----


Test: 44
Crypto pad: 2
Symmetric key bit length: 256
IV bit length:            128
Plaintext bit length:     128
Symmetric key:            0000000000000000000000000000000000000000000800000000000000000000
IV:                       00000000000000000000000000000000
Plaintext:                00000000000000000000000000000000
Ciphertext:               81b0c7e94e8426f4f227fa23ee5618c14a9a6c961ecbdedc45585ce8913b872ccde26c3c3b2dae060d66b40b433fe76e81b0c7e94e8426f4f227fa23ee5618c1217c0b5a0a6f2d9d5e00110d34e260be
Reciphers for ciphertext: 0
Decipheredtext:           00000000000000000000000000000000
RESULT CIPHER-DECIPHER: -----OK-----


Test: 45
Crypto pad: 0
Symmetric key bit length: 256
IV bit length:            128
Plaintext bit length:     128
Symmetric key:            0000000000000000000000000000000000000000000400000000000000000000
IV:                       00000000000000000000000000000000
Plaintext:                00000000000000000000000000000000
Ciphertext:               85c91b3e8e1dd2dac0cd310f69286f5eb5b46944c3ddf5f86519763788dd4ec083e08a39e33bde79d8625fd3af0be2d985c91b3e8e1dd2dac0cd310f69286f5e382a1d980715028f9beed3ac3e2c8b23
Reciphers for ciphertext: 0
Decipheredtext:           00000000000000000000000000000000
RESULT CIPHER-DECIPHER: -----OK-----


Test: 46
Crypto pad: 0
Symmetric key bit length: 256
IV bit length:            128
Plaintext bit length:     128
Symmetric key:            0000000000000000000000000000000000000000000200000000000000000000
IV:                       00000000000000000000000000000000
Plaintext:                00000000000000000000000000000000
Ciphertext:               db3c6cce550a8c72f67f59ab1b272d711164f573a5cbf1092c86b8d417877ad7bf6d90bf5d4fda474431db1c30fa9d6bdb3c6cce550a8c72f67f59ab1b272d7157eb25d920765d5fedb0c235d3f6faef
Reciphers for ciphertext: 0
Decipheredtext:           00000000000000000000000000000000
RESULT CIPHER-DECIPHER: -----OK-----


Test: 47
Crypto pad: 0
Symmetric key bit length: 256
IV bit length:            128
Plaintext bit length:     128
Symmetric key:            0000000000000000000000000000000000000000000100000000000000000000
IV:                       00000000000000000000000000000000
Plaintext:                00000000000000000000000000000000
Ciphertext:               4fae77cd8c5fbf1a7ab49785947c564a192f4c59ca5850a8002a79c0f9d75f3fd25f3948548f8a3a74d445bceb2c02e44fae77cd8c5fbf1a7ab49785947c564a2c26584427068cb3d852e34edee7e131
Reciphers for ciphertext: 0
Decipheredtext:           00000000000000000000000000000000
RESULT CIPHER-DECIPHER: -----OK-----


Test: 48
Crypto pad: 1
Symmetric key bit length: 256
IV bit length:            128
Plaintext bit length:     128
Symmetric key:            0000000000000000000000000000000000000000000080000000000000000000
IV:                       00000000000000000000000000000000
Plaintext:                00000000000000000000000000000000
Ciphertext:               986d08049ce14579b756c250ad68d56e05df42087b4da5f452e96b0aa6ff05bc811824eb8975710740c949e6a4cc3e92986d08049ce14579b756c250ad68d56ed2b4615cb9a32e04463a48f0630026c5
Reciphers for ciphertext: 0
Decipheredtext:           00000000000000000000000000000000
RESULT CIPHER-DECIPHER: -----OK-----


Test: 49
Crypto pad: 0
Symmetric key bit length: 256
IV bit length:            128
Plaintext bit length:     128
Symmetric key:            0000000000000000000000000000000000000000000040000000000000000000
IV:                       00000000000000000000000000000000
Plaintext:                00000000000000000000000000000000
Ciphertext:               a9bb29db295e7364e65f687c418f39f2a8d10c83247b24a4f399b0870f38b255763eee6de24969204edafde30283df59a9bb29db295e7364e65f687c418f39f20d3f699dd3eee05f13516cfb02648700
Reciphers for ciphertext: 0
Decipheredtext:           00000000000000000000000000000000
RESULT CIPHER-DECIPHER: -----OK-----


Test: 50
Crypto pad: 0
Symmetric key bit length: 256
IV bit length:            128
Plaintext bit length:     128
Symmetric key:            0000000000000000000000000000000000000000000020000000000000000000
IV:                       00000000000000000000000000000000
Plaintext:                00000000000000000000000000000000
Ciphertext:               d425810268f0bec64400911d990bd2373c5349ce5b72f13655d7a6afffcb1c0d9d2ec9c340928d638a286cc03929f2c5d425810268f0bec64400911d990bd23748c64636a47ee5c5e0a458eb9a820ff0
Reciphers for ciphertext: 0
Decipheredtext:           00000000000000000000000000000000
RESULT CIPHER-DECIPHER: -----OK-----


Test: 51
Crypto pad: 1
Symmetric key bit length: 256
IV bit length:            128
Plaintext bit length:     128
Symmetric key:            0000000000000000000000000000000000000000000010000000000000000000
IV:                       00000000000000000000000000000000
Plaintext:                00000000000000000000000000000000
Ciphertext:               621910144f7cd3432b0663ed1813723567b730022bf3f415d82bdf8252722b04e1b6f477b58b8e9a9cd82f0b70ce7cfa621910144f7cd3432b0663ed181372356d161a24462ecd3b6bf6d1f3e86a4b32
Reciphers for ciphertext: 0
Decipheredtext:           00000000000000000000000000000000
RESULT CIPHER-DECIPHER: -----OK-----


Test: 52
Crypto pad: 1
Symmetric key bit length: 256
IV bit length:            128
Plaintext bit length:     128
Symmetric key:            0000000000000000000000000000000000000000000008000000000000000000
IV:                       00000000000000000000000000000000
Plaintext:                00000000000000000000000000000000
Ciphertext:               a45cafd42aa19e21a7cc83d4a504a074c35eab17fecaf55aedf65191183215355c0108840383415b197efabfbcae6a9ea45cafd42aa19e21a7cc83d4a504a0747a8eda52830d9738d3811c76f5fd375a
Reciphers for ciphertext: 0
Decipheredtext:           00000000000000000000000000000000
RESULT CIPHER-DECIPHER: -----OK-----


Test: 53
Crypto pad: 0
Symmetric key bit length: 256
IV bit length:            128
Plaintext bit length:     128
Symmetric key:            0000000000000000000000000000000000000000000004000000000000000000
IV:                       00000000000000000000000000000000
Plaintext:                00000000000000000000000000000000
Ciphertext:               6cb51ae713730353acd21906a8a8cebbc10df3ff72e6890a9e5431ab2bb40e76f233b11539561a84212c5aa60e717f336cb51ae713730353acd21906a8a8cebb63ab1b2b514b88b8040b7629e4d9d09d
Reciphers for ciphertext: 0
Decipheredtext:           00000000000000000000000000000000
RESULT CIPHER-DECIPHER: -----OK-----


Test: 54
Crypto pad: 1
Symmetric key bit length: 256
IV bit length:            128
Plaintext bit length:     128
Symmetric key:            0000000000000000000000000000000000000000000002000000000000000000
IV:                       00000000000000000000000000000000
Plaintext:                00000000000000000000000000000000
Ciphertext:               b12b97ba267a9ccdd65cef0f4c436e64f1aba43cf2b40ce9bffe04671c4f9e0703a26d3c9618897972025682a839a75db12b97ba267a9ccdd65cef0f4c436e6430d11d39bf1d277d225a4fbed42d123b
Reciphers for ciphertext: 0
Decipheredtext:           00000000000000000000000000000000
RESULT CIPHER-DECIPHER: -----OK-----


Test: 55
Crypto pad: 2
Symmetric key bit length: 256
IV bit length:            128
Plaintext bit length:     128
Symmetric key:            0000000000000000000000000000000000000000000001000000000000000000
IV:                       00000000000000000000000000000000
Plaintext:                00000000000000000000000000000000
Ciphertext:               2711d87a5b1d5011e616975ef6d32a8ff4cc72f682ce45cc4ef2ec92049181decc9007649769a84ddf0ee9b4d996a6cf2711d87a5b1d5011e616975ef6d32a8f7bf4f8a4ac2f646c3971c02dd25644cc
Reciphers for ciphertext: 0
Decipheredtext:           00000000000000000000000000000000
RESULT CIPHER-DECIPHER: -----OK-----


Test: 56
Crypto pad: 1
Symmetric key bit length: 256
IV bit length:            128
Plaintext bit length:     128
Symmetric key:            0000000000000000000000000000000000000000000000800000000000000000
IV:                       00000000000000000000000000000000
Plaintext:                00000000000000000000000000000000
Ciphertext:               2911f90a41b56f53e0cafffc3923c0bcebe33192d3242a1fdfd053abeec8845ecd8d55eb3605068d50a9aeae69ecd4992911f90a41b56f53e0cafffc3923c0bc5abe215e7975ab3e75235b0921a5740b
Reciphers for ciphertext: 0
Decipheredtext:           00000000000000000000000000000000
RESULT CIPHER-DECIPHER: -----OK-----


Test: 57
Crypto pad: 0
Symmetric key bit length: 256
IV bit length:            128
Plaintext bit length:     128
Symmetric key:            0000000000000000000000000000000000000000000000400000000000000000
IV:                       00000000000000000000000000000000
Plaintext:                00000000000000000000000000000000
Ciphertext:               beb86799fcc846a7121209dcb2026adddd6dcea37486368f88e1dfe19d65978057c1980cb2c71880bfd9ff38868e7a2abeb86799fcc846a7121209dcb2026addf559121c7e1d1d9e5371f20846a49803
Reciphers for ciphertext: 0
Decipheredtext:           00000000000000000000000000000000
RESULT CIPHER-DECIPHER: -----OK-----


Test: 58
Crypto pad: 1
Symmetric key bit length: 256
IV bit length:            128
Plaintext bit length:     128
Symmetric key:            0000000000000000000000000000000000000000000000200000000000000000
IV:                       00000000000000000000000000000000
Plaintext:                00000000000000000000000000000000
Ciphertext:               b9b5317d691bbef913c925e226fdb94bed957465c34ad704b66f505196837696fef8e94750b4e9c1610e1c1761706c3db9b5317d691bbef913c925e226fdb94b36e0c733362c0ea5e49932c58b5d76e9
Reciphers for ciphertext: 0
Decipheredtext:           00000000000000000000000000000000
RESULT CIPHER-DECIPHER: -----OK-----


Test: 59
Crypto pad: 2
Symmetric key bit length: 256
IV bit length:            128
Plaintext bit length:     128
Symmetric key:            0000000000000000000000000000000000000000000000100000000000000000
IV:                       00000000000000000000000000000000
Plaintext:                00000000000000000000000000000000
Ciphertext:               cc333ef43909a98cd6a0da7043ac3b2a7ca0cbad75cc27957fd74f4108f88b45df7d1d054af2293d73a16f1823c5ec75cc333ef43909a98cd6a0da7043ac3b2ad3b32ca2dd9f629ea259b9aea70e17b5
Reciphers for ciphertext: 0
Decipheredtext:           00000000000000000000000000000000
RESULT CIPHER-DECIPHER: -----OK-----


Test: 60
Crypto pad: 0
Symmetric key bit length: 256
IV bit length:            128
Plaintext bit length:     128
Symmetric key:            0000000000000000000000000000000000000000000000080000000000000000
IV:                       00000000000000000000000000000000
Plaintext:                00000000000000000000000000000000
Ciphertext:               0291cc086e364c94fdb5250e07f176856f0083411f83b31bc25fc0db07e4c45bfe03d06ef5cce098e3461bbde4276df00291cc086e364c94fdb5250e07f17685a28a538126698500f9e8d1381260f763
Reciphers for ciphertext: 0
Decipheredtext:           00000000000000000000000000000000
RESULT CIPHER-DECIPHER: -----OK-----


Test: 61
Crypto pad: 0
Symmetric key bit length: 256
IV bit length:            128
Plaintext bit length:     128
Symmetric key:            0000000000000000000000000000000000000000000000040000000000000000
IV:                       00000000000000000000000000000000
Plaintext:                00000000000000000000000000000000
Ciphertext:               d98abd571faebeaece0d65d17ac320e6653ff4acfabefb51388fc206c6879699af0e334885da6937619d8dec9d373898d98abd571faebeaece0d65d17ac320e6afd90c38e3a98af3dbc55db8411af88a
Reciphers for ciphertext: 0
Decipheredtext:           00000000000000000000000000000000
RESULT CIPHER-DECIPHER: -----OK-----


Test: 62
Crypto pad: 1
Symmetric key bit length: 256
IV bit length:            128
Plaintext bit length:     128
Symmetric key:            0000000000000000000000000000000000000000000000020000000000000000
IV:                       00000000000000000000000000000000
Plaintext:                00000000000000000000000000000000
Ciphertext:               dd6bb22de6b4caea4e56cb09d2ec61775038b73dd55407d58e9ff2d1d914bcba70a887ede30fb05f09caf3b4ee563e6edd6bb22de6b4caea4e56cb09d2ec6177985967bb0a5cf0b5c6041acb7f1f73cd
Reciphers for ciphertext: 0
Decipheredtext:           00000000000000000000000000000000
RESULT CIPHER-DECIPHER: -----OK-----


Test: 63
Crypto pad: 2
Symmetric key bit length: 256
IV bit length:            128
Plaintext bit length:     128
Symmetric key:            0000000000000000000000000000000000000000000000010000000000000000
IV:                       00000000000000000000000000000000
Plaintext:                00000000000000000000000000000000
Ciphertext:               b6bb4f3f2ae83fe4a07ba5f10c3fd26705d28caa365633dbdd938da6b3cce5d8e3140a5fbfb737757b0f3996e314374cb6bb4f3f2ae83fe4a07ba5f10c3fd26795a9a814337d48abf6f333451025ed65
Reciphers for ciphertext: 0
Decipheredtext:           00000000000000000000000000000000
RESULT CIPHER-DECIPHER: -----OK-----


Test: 64
Crypto pad: 1
Symmetric key bit length: 256
IV bit length:            128
Plaintext bit length:     128
Symmetric key:            0000000000000000000000000000000000000000000000008000000000000000
IV:                       00000000000000000000000000000000
Plaintext:                00000000000000000000000000000000
Ciphertext:               8c590b173aa66854937f5e05e22c73d933efd7f74e780bdbc3fbe708f91a00b88829a7aaa643fb3d23ff88db49158db88c590b173aa66854937f5e05e22c73d9aff2d39f17e54bbd2bfd30fa89a7f4f1
Reciphers for ciphertext: 0
Decipheredtext:           00000000000000000000000000000000
RESULT CIPHER-DECIPHER: -----OK-----


Test: 65
Crypto pad: 0
Symmetric key bit length: 256
IV bit length:            128
Plaintext bit length:     128
Symmetric key:            0000000000000000000000000000000000000000000000004000000000000000
IV:                       00000000000000000000000000000000
Plaintext:                00000000000000000000000000000000
Ciphertext:               bdb4f7428f37c024df2af13a6296f3e92ec1e39ded753d63e21725e1c890723fbfefaa5f8664543b8e0fc18a4b947c18bdb4f7428f37c024df2af13a6296f3e9fcbece7949425ac94b5b6e89845cc531
Reciphers for ciphertext: 0
Decipheredtext:           00000000000000000000000000000000
RESULT CIPHER-DECIPHER: -----OK-----


Test: 66
Crypto pad: 2
Symmetric key bit length: 256
IV bit length:            128
Plaintext bit length:     128
Symmetric key:            0000000000000000000000000000000000000000000000002000000000000000
IV:                       00000000000000000000000000000000
Plaintext:                00000000000000000000000000000000
Ciphertext:               51d5c74df6f71c146c835ae145aed598a179f0e518137e2099992dd9ce5bf8f5e7a010c150017189cdf402f8b2e7299851d5c74df6f71c146c835ae145aed598b9621b8622cc327193aa22d5f291a34e
Reciphers for ciphertext: 0
Decipheredtext:           00000000000000000000000000000000
RESULT CIPHER-DECIPHER: -----OK-----


Test: 67
Crypto pad: 2
Symmetric key bit length: 256
IV bit length:            128
Plaintext bit length:     128
Symmetric key:            0000000000000000000000000000000000000000000000001000000000000000
IV:                       00000000000000000000000000000000
Plaintext:                00000000000000000000000000000000
Ciphertext:               b8b86c7a65adb388d047bdd756edfbeee4a7b91ad7ad81d5da3d9a74c150351ab11d413f1b28f2d48ef15d2ab67f2185b8b86c7a65adb388d047bdd756edfbee9803cc6e55681e35278459e4e45682f6
Reciphers for ciphertext: 0
Decipheredtext:           00000000000000000000000000000000
RESULT CIPHER-DECIPHER: -----OK-----


Test: 68
Crypto pad: 0
Symmetric key bit length: 256
IV bit length:            128
Plaintext bit length:     128
Symmetric key:            0000000000000000000000000000000000000000000000000800000000000000
IV:                       00000000000000000000000000000000
Plaintext:                00000000000000000000000000000000
Ciphertext:               084e0d8cfcfb7ad95019336fc94293a95d10603c82bec66760d9429cb7f2b211da9002ab9dafe5b0a5fcc9c14611e18b084e0d8cfcfb7ad95019336fc94293a98337c6c47e8af0ea4dcd3d076459a0db
Reciphers for ciphertext: 0
Decipheredtext:           00000000000000000000000000000000
RESULT CIPHER-DECIPHER: -----OK-----


Test: 69
Crypto pad: 2
Symmetric key bit length: 256
IV bit length:            128
Plaintext bit length:     128
Symmetric key:            0000000000000000000000000000000000000000000000000400000000000000
IV:                       00000000000000000000000000000000
Plaintext:                00000000000000000000000000000000
Ciphertext:               516ea8aae87eee2b4f22a1c09852c325f0b3d8e7d66e628ad72c76c4026b0faab09a7dafbb4e40b4d3c1b9dc57eec55b516ea8aae87eee2b4f22a1c09852c325836a8ab16796595954086b2f20e8177a
Reciphers for ciphertext: 0
Decipheredtext:           00000000000000000000000000000000
RESULT CIPHER-DECIPHER: -----OK-----


Test: 70
Crypto pad: 0
Symmetric key bit length: 256
IV bit length:            128
Plaintext bit length:     128
Symmetric key:            0000000000000000000000000000000000000000000000000200000000000000
IV:                       00000000000000000000000000000000
Plaintext:                00000000000000000000000000000000
Ciphertext:               8030de81cd83227b63b2841fd72f606614f318c196e91e89a4a0cb73389a5735c4e651a5de341c85d10ab8764c9bf25d8030de81cd83227b63b2841fd72f6066c6dbae4149e023b99ffe4d799f86a568
Reciphers for ciphertext: 0
Decipheredtext:           00000000000000000000000000000000
RESULT CIPHER-DECIPHER: -----OK-----


Test: 71
Crypto pad: 0
Symmetric key bit length: 256
IV bit length:            128
Plaintext bit length:     128
Symmetric key:            0000000000000000000000000000000000000000000000000100000000000000
IV:                       00000000000000000000000000000000
Plaintext:                00000000000000000000000000000000
Ciphertext:               c09fd5e5c061b14dfa78d90f67458ed4f7a46cf479afe3d16cdfb87cfe89343c3601004f2213b071a997a3afe73d7a39c09fd5e5c061b14dfa78d90f67458ed4709f74c56bebd01b5cba97a97ba36078
Reciphers for ciphertext: 0
Decipheredtext:           00000000000000000000000000000000
RESULT CIPHER-DECIPHER: -----OK-----


Test: 72
Crypto pad: 2
Symmetric key bit length: 256
IV bit length:            128
Plaintext bit length:     128
Symmetric key:            0000000000000000000000000000000000000000000000000080000000000000
IV:                       00000000000000000000000000000000
Plaintext:                00000000000000000000000000000000
Ciphertext:               4cc791c47060fb666a86f60b6289e0ecacaafe1df06558d1fddd375e2bd5558122e7da747469f4cfee48d567b26b7e674cc791c47060fb666a86f60b6289e0ecb920496ba1207dd77162efd805f5d233
Reciphers for ciphertext: 0
Decipheredtext:           00000000000000000000000000000000
RESULT CIPHER-DECIPHER: -----OK-----


Test: 73
Crypto pad: 1
Symmetric key bit length: 256
IV bit length:            128
Plaintext bit length:     128
Symmetric key:            0000000000000000000000000000000000000000000000000040000000000000
IV:                       00000000000000000000000000000000
Plaintext:                00000000000000000000000000000000
Ciphertext:               fec1a2f79535ffa094ecd4720030cd368863ceede294792f1d1c681f181a5df9a0155a1ba7d8722cd1844113843bbd17fec1a2f79535ffa094ecd4720030cd364394667cb03735fabf86ac7f6100b200
Reciphers for ciphertext: 0
Decipheredtext:           00000000000000000000000000000000
RESULT CIPHER-DECIPHER: -----OK-----


Test: 74
Crypto pad: 0
Symmetric key bit length: 256
IV bit length:            128
Plaintext bit length:     128
Symmetric key:            0000000000000000000000000000000000000000000000000020000000000000
IV:                       00000000000000000000000000000000
Plaintext:                00000000000000000000000000000000
Ciphertext:               28d2784e2364f10096b516833dcb39f925fd22676370cec1acd25a4c212e57f8a1e5bcd3b0db3aaaab16c4cc1518aa2428d2784e2364f10096b516833dcb39f9edfd1767e03f2c1a687ebaf90fafce32
Reciphers for ciphertext: 0
Decipheredtext:           00000000000000000000000000000000
RESULT CIPHER-DECIPHER: -----OK-----


Test: 75
Crypto pad: 2
Symmetric key bit length: 256
IV bit length:            128
Plaintext bit length:     128
Symmetric key:            0000000000000000000000000000000000000000000000000010000000000000
IV:                       00000000000000000000000000000000
Plaintext:                00000000000000000000000000000000
Ciphertext:               04d2f725d569186682e209608e25c6172abfb647aacb146fd46320cd7c422fb76c4614b2ce99c1318e78582e9eda7a2f04d2f725d569186682e209608e25c6170e7444f75b00c9e8d97b32bc16f11348
Reciphers for ciphertext: 0
Decipheredtext:           00000000000000000000000000000000
RESULT CIPHER-DECIPHER: -----OK-----


Test: 76
Crypto pad: 1
Symmetric key bit length: 256
IV bit length:            128
Plaintext bit length:     128
Symmetric key:            0000000000000000000000000000000000000000000000000008000000000000
IV:                       00000000000000000000000000000000
Plaintext:                00000000000000000000000000000000
Ciphertext:               087395ef3b31e6a948e5e2a35e2ca345b847e43f6b021536ff22954012de8e2711193d98b090cc553f014f8d1b4b34fd087395ef3b31e6a948e5e2a35e2ca345950718e2518c8027c3c6cc931823ae59
Reciphers for ciphertext: 0
Decipheredtext:           00000000000000000000000000000000
RESULT CIPHER-DECIPHER: -----OK-----


Test: 77
Crypto pad: 0
Symmetric key bit length: 256
IV bit length:            128
Plaintext bit length:     128
Symmetric key:            0000000000000000000000000000000000000000000000000004000000000000
IV:                       00000000000000000000000000000000
Plaintext:                00000000000000000000000000000000
Ciphertext:               6351fd25f8a06beceb244026c65c10c2c11b49c78f1bba003765b23119111d6b79296800d3a6e0146297e5156287a9fe6351fd25f8a06beceb244026c65c10c2078709f035165734f082aed845f09f02
Reciphers for ciphertext: 0
Decipheredtext:           00000000000000000000000000000000
RESULT CIPHER-DECIPHER: -----OK-----


Test: 78
Crypto pad: 2
Symmetric key bit length: 256
IV bit length:            128
Plaintext bit length:     128
Symmetric key:            0000000000000000000000000000000000000000000000000002000000000000
IV:                       00000000000000000000000000000000
Plaintext:                00000000000000000000000000000000
Ciphertext:               3c61acc4a77da654cda7839816d2f385426542757fa8b0c3f2cb634dfdad5eba57fdd0786345e65de3723927d9352d443c61acc4a77da654cda7839816d2f385871b0c02039c7ff020ef9f9d02425b05
Reciphers for ciphertext: 0
Decipheredtext:           00000000000000000000000000000000
RESULT CIPHER-DECIPHER: -----OK-----


Test: 79
Crypto pad: 1
Symmetric key bit length: 256
IV bit length:            128
Plaintext bit length:     128
Symmetric key:            0000000000000000000000000000000000000000000000000001000000000000
IV:                       00000000000000000000000000000000
Plaintext:                00000000000000000000000000000000
Ciphertext:               c660a12d18c94d0f5c81a22ed9c7ffb56b9e9114a3da32750822fd7c4134a761b5bccdb8972754120d3a4d716837de31c660a12d18c94d0f5c81a22ed9c7ffb546bedd6371cde8ca79343e0c6760b25e
Reciphers for ciphertext: 0
Decipheredtext:           00000000000000000000000000000000
RESULT CIPHER-DECIPHER: -----OK-----


Test: 80
Crypto pad: 2
Symmetric key bit length: 256
IV bit length:            128
Plaintext bit length:     128
Symmetric key:            0000000000000000000000000000000000000000000000000000800000000000
IV:                       00000000000000000000000000000000
Plaintext:                00000000000000000000000000000000
Ciphertext:               1f01ebc6151c8f3ea70c423f4e2c64c9f4a183c0ffd6a2410dfa41795fcda622eb21ef020d5efc80954b46715ce07bdd1f01ebc6151c8f3ea70c423f4e2c64c9729e71f7ab3f1d57977eb707ef6f16f7
Reciphers for ciphertext: 0
Decipheredtext:           00000000000000000000000000000000
RESULT CIPHER-DECIPHER: -----OK-----


Test: 81
Crypto pad: 1
Symmetric key bit length: 256
IV bit length:            128
Plaintext bit length:     128
Symmetric key:            0000000000000000000000000000000000000000000000000000400000000000
IV:                       00000000000000000000000000000000
Plaintext:                00000000000000000000000000000000
Ciphertext:               5e1231b72071ce574dfbbe66f5eed01b667f7f9f8fd341354b4cf35c280366776f78c8d2b442c7b505ae049dbedf40755e1231b72071ce574dfbbe66f5eed01b1a9c0e948e8db1aba183bd05737ca3e2
Reciphers for ciphertext: 0
Decipheredtext:           00000000000000000000000000000000
RESULT CIPHER-DECIPHER: -----OK-----


Test: 82
Crypto pad: 2
Symmetric key bit length: 256
IV bit length:            128
Plaintext bit length:     128
Symmetric key:            0000000000000000000000000000000000000000000000000000200000000000
IV:                       00000000000000000000000000000000
Plaintext:                00000000000000000000000000000000
Ciphertext:               da025263d62d201cad37b53dae0507cb0bd2c0b357ffd5f0debbe3ac30c2510123ae2742e354de4bc931dbba8734fc99da025263d62d201cad37b53dae0507cb32e610fd3e0295ef979cb81800541cb9
Reciphers for ciphertext: 0
Decipheredtext:           00000000000000000000000000000000
RESULT CIPHER-DECIPHER: -----OK-----


Test: 83
Crypto pad: 2
Symmetric key bit length: 256
IV bit length:            128
Plaintext bit length:     128
Symmetric key:            0000000000000000000000000000000000000000000000000000100000000000
IV:                       00000000000000000000000000000000
Plaintext:                00000000000000000000000000000000
Ciphertext:               1600c5e3a94b0b44a8be99c5da558fd85f37aefb36acb26993a60fc7173a4fb66fbd858c5f1b1c0e48551ca12e2742451600c5e3a94b0b44a8be99c5da558fd8b27c2e1dd9516e69d36fa3bce17d0edb
Reciphers for ciphertext: 0
Decipheredtext:           00000000000000000000000000000000
RESULT CIPHER-DECIPHER: -----OK-----


Test: 84
Crypto pad: 0
Symmetric key bit length: 256
IV bit length:            128
Plaintext bit length:     128
Symmetric key:            0000000000000000000000000000000000000000000000000000080000000000
IV:                       00000000000000000000000000000000
Plaintext:                00000000000000000000000000000000
Ciphertext:               dfef4c129ba77381194046afc87e22ffa05916b5b3d58b648bc22d545bc1d199b47d13a8cd4b48d4cffbae54e7fd3e47dfef4c129ba77381194046afc87e22ff955f74aad210bc4c4c956ac4d5b88d48
Reciphers for ciphertext: 0
Decipheredtext:           00000000000000000000000000000000
RESULT CIPHER-DECIPHER: -----OK-----


Test: 85
Crypto pad: 2
Symmetric key bit length: 256
IV bit length:            128
Plaintext bit length:     128
Symmetric key:            0000000000000000000000000000000000000000000000000000040000000000
IV:                       00000000000000000000000000000000
Plaintext:                00000000000000000000000000000000
Ciphertext:               5a39e491cca9abe1f1436008f4a455ccaad9e1815dfb0cbabb6e3f1e4b4be33d219aba398d9850cdae0465ea074b22465a39e491cca9abe1f1436008f4a455cc6848566e0d3c82e741c586a263ea8fcf
Reciphers for ciphertext: 0
Decipheredtext:           00000000000000000000000000000000
RESULT CIPHER-DECIPHER: -----OK-----


Test: 86
Crypto pad: 0
Symmetric key bit length: 256
IV bit length:            128
Plaintext bit length:     128
Symmetric key:            0000000000000000000000000000000000000000000000000000020000000000
IV:                       00000000000000000000000000000000
Plaintext:                00000000000000000000000000000000
Ciphertext:               57a5d924b055186029a2656898ad2b8d0af3c4c11a76036bb868730ba6933ea760da5a45fac066178d11ec99925959f957a5d924b055186029a2656898ad2b8dfada582fd60eb97fc8c2196dfb5ee1ab
Reciphers for ciphertext: 0
Decipheredtext:           00000000000000000000000000000000
RESULT CIPHER-DECIPHER: -----OK-----


Test: 87
Crypto pad: 1
Symmetric key bit length: 256
IV bit length:            128
Plaintext bit length:     128
Symmetric key:            0000000000000000000000000000000000000000000000000000010000000000
IV:                       00000000000000000000000000000000
Plaintext:                00000000000000000000000000000000
Ciphertext:               7f40abfec353e7f7e9347802016fea0e994ec1ed4e74fa3f1d851afba81e4d5a9f8b0b9ea978fbdec9d9a59352004aabf7f0d88f13ee760300aced0f001b3e34a15c9d1c80114612d4338920ffdeea8c
Reciphers for ciphertext: 1
Decipheredtext:           00000000000000000000000000000000
RESULT CIPHER-DECIPHER: -----OK-----


Test: 88
Crypto pad: 2
Symmetric key bit length: 256
IV bit length:            128
Plaintext bit length:     128
Symmetric key:            0000000000000000000000000000000000000000000000000000008000000000
IV:                       00000000000000000000000000000000
Plaintext:                00000000000000000000000000000000
Ciphertext:               924b4d0d4a88e669910cd9b890f25d766957f29125322d09c7ce613b04a13a58a322883500790bf373e274cb1eec4c64924b4d0d4a88e669910cd9b890f25d76f38db93d4e8f8cad86b7c058d9007bf8
Reciphers for ciphertext: 0
Decipheredtext:           00000000000000000000000000000000
RESULT CIPHER-DECIPHER: -----OK-----


Test: 89
Crypto pad: 0
Symmetric key bit length: 256
IV bit length:            128
Plaintext bit length:     128
Symmetric key:            0000000000000000000000000000000000000000000000000000004000000000
IV:                       00000000000000000000000000000000
Plaintext:                00000000000000000000000000000000
Ciphertext:               8168c47238ef6f1994bfcef5b9baeef9980f1785565981aea7ebdc8465c38de088790389bebbc794dbdd2cd0ed6bcaee8168c47238ef6f1994bfcef5b9baeef9481cbb464847efa2b4c7541eb05c3e73
Reciphers for ciphertext: 0
Decipheredtext:           00000000000000000000000000000000
RESULT CIPHER-DECIPHER: -----OK-----


Test: 90
Crypto pad: 2
Symmetric key bit length: 256
IV bit length:            128
Plaintext bit length:     128
Symmetric key:            0000000000000000000000000000000000000000000000000000002000000000
IV:                       00000000000000000000000000000000
Plaintext:                00000000000000000000000000000000
Ciphertext:               b6a59008e7267eb5f5492e2283198b3178443583904cf8ca10b733020979db0cd55bdccb071fd9db3a16e14ce252f303b6a59008e7267eb5f5492e2283198b318d01b235dd781a7f92877d81171ef739
Reciphers for ciphertext: 0
Decipheredtext:           00000000000000000000000000000000
RESULT CIPHER-DECIPHER: -----OK-----


Test: 91
Crypto pad: 2
Symmetric key bit length: 256
IV bit length:            128
Plaintext bit length:     128
Symmetric key:            0000000000000000000000000000000000000000000000000000001000000000
IV:                       00000000000000000000000000000000
Plaintext:                00000000000000000000000000000000
Ciphertext:               c706d911f2f7ac8372984c60980adfd850b17a1c36c65df8f930c7b0427330e86e6cbe9ff305091497a2063bd15ce773c706d911f2f7ac8372984c60980adfd872d00aa8f93ffb01eb2550bf954946b1
Reciphers for ciphertext: 0
Decipheredtext:           00000000000000000000000000000000
RESULT CIPHER-DECIPHER: -----OK-----


Test: 92
Crypto pad: 1
Symmetric key bit length: 256
IV bit length:            128
Plaintext bit length:     128
Symmetric key:            0000000000000000000000000000000000000000000000000000000800000000
IV:                       00000000000000000000000000000000
Plaintext:                00000000000000000000000000000000
Ciphertext:               0bde9a2a1364784d2d2da743f77c6992f8051f8cbab1f2966c6243b44623dc0f5d73642cce8cb306f93f975f3955db460bde9a2a1364784d2d2da743f77c699275738e3df2b06588f9a2823bba41882b
Reciphers for ciphertext: 0
Decipheredtext:           00000000000000000000000000000000
RESULT CIPHER-DECIPHER: -----OK-----


Test: 93
Crypto pad: 0
Symmetric key bit length: 256
IV bit length:            128
Plaintext bit length:     128
Symmetric key:            0000000000000000000000000000000000000000000000000000000400000000
IV:                       00000000000000000000000000000000
Plaintext:                00000000000000000000000000000000
Ciphertext:               b3bd8ce8da0d939fb59caacd8b0c452c5d71728afa017ee30562e3872c2740cdbb48b50ab6bc5f477a3449a6ee2305f2b3bd8ce8da0d939fb59caacd8b0c452cac9aa8afe4eb6d70378ae635a634ed57
Reciphers for ciphertext: 0
Decipheredtext:           00000000000000000000000000000000
RESULT CIPHER-DECIPHER: -----OK-----


Test: 94
Crypto pad: 1
Symmetric key bit length: 256
IV bit length:            128
Plaintext bit length:     128
Symmetric key:            0000000000000000000000000000000000000000000000000000000200000000
IV:                       00000000000000000000000000000000
Plaintext:                00000000000000000000000000000000
Ciphertext:               4327b8cb4a6015ff9df50a4a5ca08442e41969cdff77b1d5a1d19c6682aa3d1781e06f9e6577bda6e5d27b394abd38f64327b8cb4a6015ff9df50a4a5ca08442df65f6eefcd95d050af8190d8dcabdf0
Reciphers for ciphertext: 0
Decipheredtext:           00000000000000000000000000000000
RESULT CIPHER-DECIPHER: -----OK-----


Test: 95
Crypto pad: 1
Symmetric key bit length: 256
IV bit length:            128
Plaintext bit length:     128
Symmetric key:            0000000000000000000000000000000000000000000000000000000100000000
IV:                       00000000000000000000000000000000
Plaintext:                00000000000000000000000000000000
Ciphertext:               89f64377bf1e8a46c8247044e8056a98cf6db436246d4eea643d938a265cc20921ec6f27c543c65c59bc3cb233c875d889f64377bf1e8a46c8247044e8056a986c5fe01c9286947bd06b7636f298fe35
Reciphers for ciphertext: 0
Decipheredtext:           00000000000000000000000000000000
RESULT CIPHER-DECIPHER: -----OK-----


Test: 96
Crypto pad: 2
Symmetric key bit length: 256
IV bit length:            128
Plaintext bit length:     128
Symmetric key:            0000000000000000000000000000000000000000000000000000000080000000
IV:                       00000000000000000000000000000000
Plaintext:                00000000000000000000000000000000
Ciphertext:               31028ff4ed7a98d2d4f72615445d7e4ac6ea9cb059f55fbab30a1aab3287011e62f05b701cd0125c48c55a31958fc59b31028ff4ed7a98d2d4f72615445d7e4a83c6cca62528dbd27f6757f5b9a8c877
Reciphers for ciphertext: 0
Decipheredtext:           00000000000000000000000000000000
RESULT CIPHER-DECIPHER: -----OK-----


Test: 97
Crypto pad: 0
Symmetric key bit length: 256
IV bit length:            128
Plaintext bit length:     128
Symmetric key:            0000000000000000000000000000000000000000000000000000000040000000
IV:                       00000000000000000000000000000000
Plaintext:                00000000000000000000000000000000
Ciphertext:               f5e331d2036713649c8c15705a87d9f55ae4a907389b418076af7a355be03b68e2b2c0e75aa18ce5bda21b9fc85ed7eaf5e331d2036713649c8c15705a87d9f52343edbbe36e5a2b61ae31287cb7e90d
Reciphers for ciphertext: 0
Decipheredtext:           00000000000000000000000000000000
RESULT CIPHER-DECIPHER: -----OK-----


Test: 98
Crypto pad: 2
Symmetric key bit length: 256
IV bit length:            128
Plaintext bit length:     128
Symmetric key:            0000000000000000000000000000000000000000000000000000000020000000
IV:                       00000000000000000000000000000000
Plaintext:                00000000000000000000000000000000
Ciphertext:               d1dca9bb950823af5a4be2fbc52ec83bddcd89cfbcff2287ec9c58ef03e82faee7298f22740923c787eae552062a0859d1dca9bb950823af5a4be2fbc52ec83b623e01a72b0ef8e91f47f72666639459
Reciphers for ciphertext: 0
Decipheredtext:           00000000000000000000000000000000
RESULT CIPHER-DECIPHER: -----OK-----


Test: 99
Crypto pad: 0
Symmetric key bit length: 256
IV bit length:            128
Plaintext bit length:     128
Symmetric key:            0000000000000000000000000000000000000000000000000000000010000000
IV:                       00000000000000000000000000000000
Plaintext:                00000000000000000000000000000000
Ciphertext:               0951a1ddbf1f268d786c7233af62f0ef07232a8835529ea89d9b7cdca40bc29e6ff92230e6bbe275445f4597799c3dcc0951a1ddbf1f268d786c7233af62f0ef0672b80cff813c8e665b70dac2581b64
Reciphers for ciphertext: 0
Decipheredtext:           00000000000000000000000000000000
RESULT CIPHER-DECIPHER: -----OK-----


Test: 100
Crypto pad: 1
Symmetric key bit length: 256
IV bit length:            128
Plaintext bit length:     128
Symmetric key:            0000000000000000000000000000000000000000000000000000000008000000
IV:                       00000000000000000000000000000000
Plaintext:                00000000000000000000000000000000
Ciphertext:               aa23686541d98309973f3d68e242a3e29f7255926565f071fef7ee0500aa36b38055b2d61476cb5f5c7a56824256f4b1aa23686541d98309973f3d68e242a3e21d97d216dbde9f7f72915796fa3bd0e4
Reciphers for ciphertext: 0
Decipheredtext:           00000000000000000000000000000000
RESULT CIPHER-DECIPHER: -----OK-----


Test: 101
Crypto pad: 0
Symmetric key bit length: 256
IV bit length:            128
Plaintext bit length:     128
Symmetric key:            0000000000000000000000000000000000000000000000000000000004000000
IV:                       00000000000000000000000000000000
Plaintext:                00000000000000000000000000000000
Ciphertext:               ad69fca1d17ae46f423a945fa36660e115e560b9a6af18475625e2fe21218f9825594c9ea59c056a24505c0bb41056b9ad69fca1d17ae46f423a945fa36660e155be3ced2efbedcff4422138f1cc3faf
Reciphers for ciphertext: 0
Decipheredtext:           00000000000000000000000000000000
RESULT CIPHER-DECIPHER: -----OK-----


Test: 102
Crypto pad: 1
Symmetric key bit length: 256
IV bit length:            128
Plaintext bit length:     128
Symmetric key:            0000000000000000000000000000000000000000000000000000000002000000
IV:                       00000000000000000000000000000000
Plaintext:                00000000000000000000000000000000
Ciphertext:               98272fdd4978e941b4f68f571b899fd8ff754b50f57713e474f5215ebd9848b5af4c3d4e59d05744247376d0edce12e798272fdd4978e941b4f68f571b899fd80aa164091a63c631e0179fd62ef2c563
Reciphers for ciphertext: 0
Decipheredtext:           00000000000000000000000000000000
RESULT CIPHER-DECIPHER: -----OK-----


Test: 103
Crypto pad: 2
Symmetric key bit length: 256
IV bit length:            128
Plaintext bit length:     128
Symmetric key:            0000000000000000000000000000000000000000000000000000000001000000
IV:                       00000000000000000000000000000000
Plaintext:                00000000000000000000000000000000
Ciphertext:               99ef0bc36af1d56cf7d0a63ff3d110aa663281999ff0dec6d5634e726fb91649f863d91092d9efa9091f9bcb769980f7121952d98be02632491241b44304804aa63d1f267399fd36bb976c06d3249cc7
Reciphers for ciphertext: 1
Decipheredtext:           00000000000000000000000000000000
RESULT CIPHER-DECIPHER: -----OK-----


Test: 104
Crypto pad: 2
Symmetric key bit length: 256
IV bit length:            128
Plaintext bit length:     128
Symmetric key:            0000000000000000000000000000000000000000000000000000000000800000
IV:                       00000000000000000000000000000000
Plaintext:                00000000000000000000000000000000
Ciphertext:               b16dea3eb57e5967a8b218f08842502baf531558493a00ffbeceb8e5ce460db9ff0ba718527928533ca40b09113c9422b16dea3eb57e5967a8b218f08842502b6fdba2dffea4890ebb7e3cdf2fb150cc
Reciphers for ciphertext: 0
Decipheredtext:           00000000000000000000000000000000
RESULT CIPHER-DECIPHER: -----OK-----


Test: 105
Crypto pad: 1
Symmetric key bit length: 256
IV bit length:            128
Plaintext bit length:     128
Symmetric key:            0000000000000000000000000000000000000000000000000000000000400000
IV:                       00000000000000000000000000000000
Plaintext:                00000000000000000000000000000000
Ciphertext:               5d9bd9d06cdf97480ba073a57480fab3d087f0c4e973236772a03fdec51983132fafc63b13e69f9547d250ccfce2991b5d9bd9d06cdf97480ba073a57480fab3812e27191512985e2c39dac8ceab8883
Reciphers for ciphertext: 0
Decipheredtext:           00000000000000000000000000000000
RESULT CIPHER-DECIPHER: -----OK-----


Test: 106
Crypto pad: 2
Symmetric key bit length: 256
IV bit length:            128
Plaintext bit length:     128
Symmetric key:            0000000000000000000000000000000000000000000000000000000000200000
IV:                       00000000000000000000000000000000
Plaintext:                00000000000000000000000000000000
Ciphertext:               c9a296f7f58e208252dffec1d46fb538de4ff8bb1b10d81fa17c7048febeaf0ca16e4ae3998b3a1b5eba47fbeee1044ec9a296f7f58e208252dffec1d46fb53819acaf23b72a89d106e8fd6543e45ce9
Reciphers for ciphertext: 0
Decipheredtext:           00000000000000000000000000000000
RESULT CIPHER-DECIPHER: -----OK-----


Test: 107
Crypto pad: 0
Symmetric key bit length: 256
IV bit length:            128
Plaintext bit length:     128
Symmetric key:            0000000000000000000000000000000000000000000000000000000000100000
IV:                       00000000000000000000000000000000
Plaintext:                00000000000000000000000000000000
Ciphertext:               d831b2b44cd0782c94a9533c4221e4bf8fa3121aa11fcaae4395161856d8c5e519d8cdb1e71dde0e1303de288593fe94d831b2b44cd0782c94a9533c4221e4bf8bedb63e13a624a05fa1c10456cccda8
Reciphers for ciphertext: 0
Decipheredtext:           00000000000000000000000000000000
RESULT CIPHER-DECIPHER: -----OK-----


Test: 108
Crypto pad: 1
Symmetric key bit length: 256
IV bit length:            128
Plaintext bit length:     128
Symmetric key:            0000000000000000000000000000000000000000000000000000000000080000
IV:                       00000000000000000000000000000000
Plaintext:                00000000000000000000000000000000
Ciphertext:               b93146526d778bae13e579c4962110ef4049777b2cebcd28184918988e51313f1aaf562e94f6d8879d1a9c591c0a8c3cb93146526d778bae13e579c4962110efc5d35f434a75f08aa625423a94dea048
Reciphers for ciphertext: 0
Decipheredtext:           00000000000000000000000000000000
RESULT CIPHER-DECIPHER: -----OK-----


Test: 109
Crypto pad: 2
Symmetric key bit length: 256
IV bit length:            128
Plaintext bit length:     128
Symmetric key:            0000000000000000000000000000000000000000000000000000000000040000
IV:                       00000000000000000000000000000000
Plaintext:                00000000000000000000000000000000
Ciphertext:               2e483ad91c6aba09440d32dff6f838ac933e86349f8e6534f8ef7430fc1f80638b263bd02df0a021cf4a65d3ac7a6a212e483ad91c6aba09440d32dff6f838aca4763949cd361437833b2b624f1a888b
Reciphers for ciphertext: 0
Decipheredtext:           00000000000000000000000000000000
RESULT CIPHER-DECIPHER: -----OK-----


Test: 110
Crypto pad: 2
Symmetric key bit length: 256
IV bit length:            128
Plaintext bit length:     128
Symmetric key:            0000000000000000000000000000000000000000000000000000000000020000
IV:                       00000000000000000000000000000000
Plaintext:                00000000000000000000000000000000
Ciphertext:               f650a662bee544675d15eeb6d16c5dfb033cca55d9fe9da16bdc473ae5b9deed2ef822bae4c7961cda47e45383398142f650a662bee544675d15eeb6d16c5dfb016d3de69f70e1e2203b35dd332b437a
Reciphers for ciphertext: 0
Decipheredtext:           00000000000000000000000000000000
RESULT CIPHER-DECIPHER: -----OK-----


Test: 111
Crypto pad: 1
Symmetric key bit length: 256
IV bit length:            128
Plaintext bit length:     128
Symmetric key:            0000000000000000000000000000000000000000000000000000000000010000
IV:                       00000000000000000000000000000000
Plaintext:                00000000000000000000000000000000
Ciphertext:               4a0d75387c3fabe4e4b8d059e526a6230f1a88b6c368fca36cc5807ec9e3dd2414b77d59cce5c1947f430d0aadd018aa4a0d75387c3fabe4e4b8d059e526a6234d0f9f65c9c26dce5808f9e469951240
Reciphers for ciphertext: 0
Decipheredtext:           00000000000000000000000000000000
RESULT CIPHER-DECIPHER: -----OK-----


Test: 112
Crypto pad: 2
Symmetric key bit length: 256
IV bit length:            128
Plaintext bit length:     128
Symmetric key:            0000000000000000000000000000000000000000000000000000000000008000
IV:                       00000000000000000000000000000000
Plaintext:                00000000000000000000000000000000
Ciphertext:               eaac3bade1e4886d2376b945ae19ca2c9553e4f1ba1c0b414a343644643c77590a3230690a4c097d2056a863f1f6af84eaac3bade1e4886d2376b945ae19ca2cd295691a1a6637b1d52584d68a513303
Reciphers for ciphertext: 0
Decipheredtext:           00000000000000000000000000000000
RESULT CIPHER-DECIPHER: -----OK-----


Test: 113
Crypto pad: 1
Symmetric key bit length: 256
IV bit length:            128
Plaintext bit length:     128
Symmetric key:            0000000000000000000000000000000000000000000000000000000000004000
IV:                       00000000000000000000000000000000
Plaintext:                00000000000000000000000000000000
Ciphertext:               86392882c55672c087a978a66a162d054d1ccf428f844d13defacc3545fcae53bcee9b05d9e528843d732b31fa930aca86392882c55672c087a978a66a162d0505bf0e3135b7a74c1be15f13a1906ddf
Reciphers for ciphertext: 0
Decipheredtext:           00000000000000000000000000000000
RESULT CIPHER-DECIPHER: -----OK-----


Test: 114
Crypto pad: 1
Symmetric key bit length: 256
IV bit length:            128
Plaintext bit length:     128
Symmetric key:            0000000000000000000000000000000000000000000000000000000000002000
IV:                       00000000000000000000000000000000
Plaintext:                00000000000000000000000000000000
Ciphertext:               1ba2f2b6ee41fa58119bc0c6dd7909d3cf03e9dfe13891dee2ae42d473556e963d23f885d7fbc4efa738655f0d8889f61ba2f2b6ee41fa58119bc0c6dd7909d3800f423a5def85f7c61eab176e8c3551
Reciphers for ciphertext: 0
Decipheredtext:           00000000000000000000000000000000
RESULT CIPHER-DECIPHER: -----OK-----


Test: 115
Crypto pad: 0
Symmetric key bit length: 256
IV bit length:            128
Plaintext bit length:     128
Symmetric key:            0000000000000000000000000000000000000000000000000000000000001000
IV:                       00000000000000000000000000000000
Plaintext:                00000000000000000000000000000000
Ciphertext:               68d5648946c464cbcfaf9b2abb0567c30413219c1558cdf5e76e3146e7b0c98b3afd538a89ed01f369bcdc6bb1d2ba0768d5648946c464cbcfaf9b2abb0567c373d0c65565331fb0c553709503734bb3
Reciphers for ciphertext: 0
Decipheredtext:           00000000000000000000000000000000
RESULT CIPHER-DECIPHER: -----OK-----


Test: 116
Crypto pad: 1
Symmetric key bit length: 256
IV bit length:            128
Plaintext bit length:     128
Symmetric key:            0000000000000000000000000000000000000000000000000000000000000800
IV:                       00000000000000000000000000000000
Plaintext:                00000000000000000000000000000000
Ciphertext:               a909bc4a2061b560596840e1605490979178fb5b5618c66ab24c4fcf52622b797a41078312f76a318946b3fba1800b71a909bc4a2061b560596840e16054909738c7a8d59a6981b952787db2babfd9b6
Reciphers for ciphertext: 0
Decipheredtext:           00000000000000000000000000000000
RESULT CIPHER-DECIPHER: -----OK-----


Test: 117
Crypto pad: 2
Symmetric key bit length: 256
IV bit length:            128
Plaintext bit length:     128
Symmetric key:            0000000000000000000000000000000000000000000000000000000000000400
IV:                       00000000000000000000000000000000
Plaintext:                00000000000000000000000000000000
Ciphertext:               231665465c569176adaa126a76b893b895a5ded2cb2d2f97b3b977f961435eb7c3120d17c33aba9a9d6970b60116414a231665465c569176adaa126a76b893b83f4649b948b633ae7a370a7ebd8d4cf7
Reciphers for ciphertext: 0
Decipheredtext:           00000000000000000000000000000000
RESULT CIPHER-DECIPHER: -----OK-----


Test: 118
Crypto pad: 1
Symmetric key bit length: 256
IV bit length:            128
Plaintext bit length:     128
Symmetric key:            0000000000000000000000000000000000000000000000000000000000000200
IV:                       00000000000000000000000000000000
Plaintext:                00000000000000000000000000000000
Ciphertext:               a9814e3b420304fb5df34a79d4db7879aad66c37f55255cdd4b739992006ff7ba00517a43b215de8ad74d4a7a3193664a9814e3b420304fb5df34a79d4db78793e3f7c536732a30c48770c24cec4bbae
Reciphers for ciphertext: 0
Decipheredtext:           00000000000000000000000000000000
RESULT CIPHER-DECIPHER: -----OK-----


Test: 119
Crypto pad: 1
Symmetric key bit length: 256
IV bit length:            128
Plaintext bit length:     128
Symmetric key:            0000000000000000000000000000000000000000000000000000000000000100
IV:                       00000000000000000000000000000000
Plaintext:                00000000000000000000000000000000
Ciphertext:               6d9fb653caedbf0091aa5a143707994feb2e2ec4a93455bf367a1459140905fb03998179f3f8832a9767bf0e47acff686d9fb653caedbf0091aa5a143707994f15264f259e5edb4afc0e57380cb8320a
Reciphers for ciphertext: 0
Decipheredtext:           00000000000000000000000000000000
RESULT CIPHER-DECIPHER: -----OK-----


Test: 120
Crypto pad: 1
Symmetric key bit length: 256
IV bit length:            128
Plaintext bit length:     128
Symmetric key:            0000000000000000000000000000000000000000000000000000000000000080
IV:                       00000000000000000000000000000000
Plaintext:                00000000000000000000000000000000
Ciphertext:               c0165682bd8ee32b0e3c468812aa23a284a6c7f98b5626481af457a125b028cb36b0d3110390ad3b2a07c1be7c5a244ac0165682bd8ee32b0e3c468812aa23a244d349e9a3e9fb8dfa2fd2e336882456
Reciphers for ciphertext: 0
Decipheredtext:           00000000000000000000000000000000
RESULT CIPHER-DECIPHER: -----OK-----


Test: 121
Crypto pad: 1
Symmetric key bit length: 256
IV bit length:            128
Plaintext bit length:     128
Symmetric key:            0000000000000000000000000000000000000000000000000000000000000040
IV:                       00000000000000000000000000000000
Plaintext:                00000000000000000000000000000000
Ciphertext:               5991506d96f9f27ddf74015705d4e1ea6f8aadedd963815007dfe813d855367445f5333eb7bcb9050b299caf7adf0a085991506d96f9f27ddf74015705d4e1ead38842267c191e961d8dda038fc6957c
Reciphers for ciphertext: 0
Decipheredtext:           00000000000000000000000000000000
RESULT CIPHER-DECIPHER: -----OK-----


Test: 122
Crypto pad: 1
Symmetric key bit length: 256
IV bit length:            128
Plaintext bit length:     128
Symmetric key:            0000000000000000000000000000000000000000000000000000000000000020
IV:                       00000000000000000000000000000000
Plaintext:                00000000000000000000000000000000
Ciphertext:               99443cb4450fa3c81d921e478476f36592210c0cd4eba180d80b21563bd29b99de0e40952db8c079d4d1e9910f66cbce99443cb4450fa3c81d921e478476f365cc35cfd058a1b69af71e235c8f8440cc
Reciphers for ciphertext: 0
Decipheredtext:           00000000000000000000000000000000
RESULT CIPHER-DECIPHER: -----OK-----


Test: 123
Crypto pad: 0
Symmetric key bit length: 256
IV bit length:            128
Plaintext bit length:     128
Symmetric key:            0000000000000000000000000000000000000000000000000000000000000010
IV:                       00000000000000000000000000000000
Plaintext:                00000000000000000000000000000000
Ciphertext:               a9e429527f98ef1c9cb832bcd036e00ec4f759dd7b0f4e30fb3b19b3aacd74ad95c51e9041c42eeca65cdbaeb8b1a870a9e429527f98ef1c9cb832bcd036e00e9e62c20104f83913bc0d595a0e8d2630
Reciphers for ciphertext: 0
Decipheredtext:           00000000000000000000000000000000
RESULT CIPHER-DECIPHER: -----OK-----


Test: 124
Crypto pad: 0
Symmetric key bit length: 256
IV bit length:            128
Plaintext bit length:     128
Symmetric key:            0000000000000000000000000000000000000000000000000000000000000008
IV:                       00000000000000000000000000000000
Plaintext:                00000000000000000000000000000000
Ciphertext:               42d6c9e94a4de059d85e2039cc23bc9711005d654ee0996f97df6ec3ab149890ff9682f4ea7bae1d5a22830d3b6ede81b7c9b6bd6b749af86c8ed5ee57659dec9e7fdba26616ea9c7868a381bfc97bfa
Reciphers for ciphertext: 1
Decipheredtext:           00000000000000000000000000000000
RESULT CIPHER-DECIPHER: -----OK-----


Test: 125
Crypto pad: 1
Symmetric key bit length: 256
IV bit length:            128
Plaintext bit length:     128
Symmetric key:            0000000000000000000000000000000000000000000000000000000000000004
IV:                       00000000000000000000000000000000
Plaintext:                00000000000000000000000000000000
Ciphertext:               8dcb599c6eecc7e896d73c71bf1423ad1b9c343097b355a69edbefda722b44193655fed07153712daadafb5be1ea93de8dcb599c6eecc7e896d73c71bf1423ad7042d145e1fcc2515817596b0279825c
Reciphers for ciphertext: 0
Decipheredtext:           00000000000000000000000000000000
RESULT CIPHER-DECIPHER: -----OK-----


Test: 126
Crypto pad: 1
Symmetric key bit length: 256
IV bit length:            128
Plaintext bit length:     128
Symmetric key:            0000000000000000000000000000000000000000000000000000000000000002
IV:                       00000000000000000000000000000000
Plaintext:                00000000000000000000000000000000
Ciphertext:               f0fc3a5418ec55a5bbac2f2d4a94d833b013045daffd817e37a8db2b2f5a7860df5d9fc62e7bd10e97382daaf2c30301f0fc3a5418ec55a5bbac2f2d4a94d833ffad51f88520c5a8101951256208667a
Reciphers for ciphertext: 0
Decipheredtext:           00000000000000000000000000000000
RESULT CIPHER-DECIPHER: -----OK-----


Test: 127
Crypto pad: 2
Symmetric key bit length: 256
IV bit length:            128
Plaintext bit length:     128
Symmetric key:            0000000000000000000000000000000000000000000000000000000000000001
IV:                       00000000000000000000000000000000
Plaintext:                00000000000000000000000000000000
Ciphertext:               2fc5e1a6366cfad169343760445d88e0319026432da37942869cf886d36c74fd343ae69e5bc475c95b96ddb017e2f4242fc5e1a6366cfad169343760445d88e0d0ef02803e50b4e24d1cdcb6114cfe9e
Reciphers for ciphertext: 0
Decipheredtext:           00000000000000000000000000000000
RESULT CIPHER-DECIPHER: -----OK-----


 DATA SHA1 (hexadecimal): ba231cddd13ce9365af41b6a9ce0979ad8d0fe74

