
DiceLock 9.0.0.1

 TEST COMPONENTS:
 ----------------
 DiceLock:           DiceLockIVIndexed class
 Operation Mode:     CBC_Mode class
 Crypto pads:        0 - ANSI_X_923 class
                     1 - ISO_IEC_9797_1 class
                     2 - PKCS7 class
 Block Cipher:       Camellia128 class
 Key Modifier:       DecreaseBase0IndexModifier_6_0_0_1 class
   Index bit length: 128
 Random tests:       RandomTestSuite class
                     FrequencyTest class
                     BlockFrequencyTest class
                     CumulativeSumForwardTest class
                     LongestRunOfOnesTest class
                     RunsTest class
 Random alpha:       0.001

 VECTOR TEST: Test vector 3 - Changing symmetric key, IV and plaintext, shifting 1 bit set


##### INDIVIDUAL TESTS #####

Number tests: 128


Test: 0
Crypto pad: 2
Symmetric key bit length: 128
IV bit length:            128
Plaintext bit length:     136
Symmetric key:            80000000000000000000000000000000
IV:                       80000000000000000000000000000000
Plaintext:                0080000000000000000000000000000000
Ciphertext:               afee5c7c5fe97718ed6bf376739259fad2ce0a554e1a58c01f83ae62b99d815591479950add51f9a1163a372b366a0acecbc1266ea16660419f2a950e6db0fea
Reciphers for ciphertext: 0
Decipheredtext:           0080000000000000000000000000000000
RESULT CIPHER-DECIPHER: -----OK-----


Test: 1
Crypto pad: 1
Symmetric key bit length: 128
IV bit length:            128
Plaintext bit length:     136
Symmetric key:            40000000000000000000000000000000
IV:                       40000000000000000000000000000000
Plaintext:                0040000000000000000000000000000000
Ciphertext:               d68bf1b5816408668b98280027b8ddeb7354a5df1ecdc44c7e2d814d6855630cd4f6f52a4f2fe6fc991c31666544f63f7623ac1e86548cc40a9a6065f20c5c6a
Reciphers for ciphertext: 0
Decipheredtext:           0040000000000000000000000000000000
RESULT CIPHER-DECIPHER: -----OK-----


Test: 2
Crypto pad: 2
Symmetric key bit length: 128
IV bit length:            128
Plaintext bit length:     136
Symmetric key:            20000000000000000000000000000000
IV:                       20000000000000000000000000000000
Plaintext:                0020000000000000000000000000000000
Ciphertext:               284a15678607010b81e6895ce889ab208609f7b396a3bb671c7c053beee53346cb215a2959f9a6225434f2997f434517f175eb7c2511674bf3082f44913ed7ca
Reciphers for ciphertext: 0
Decipheredtext:           0020000000000000000000000000000000
RESULT CIPHER-DECIPHER: -----OK-----


Test: 3
Crypto pad: 0
Symmetric key bit length: 128
IV bit length:            128
Plaintext bit length:     136
Symmetric key:            10000000000000000000000000000000
IV:                       10000000000000000000000000000000
Plaintext:                0010000000000000000000000000000000
Ciphertext:               2ec5164436b1735e33fa66385ccd3facef244ebdaf81566336b92009b7b4b057f01ee7922fe01869ccf93f87dffe45a88c07ab7d42de420486910f0bf8fd7e11
Reciphers for ciphertext: 0
Decipheredtext:           0010000000000000000000000000000000
RESULT CIPHER-DECIPHER: -----OK-----


Test: 4
Crypto pad: 1
Symmetric key bit length: 128
IV bit length:            128
Plaintext bit length:     136
Symmetric key:            08000000000000000000000000000000
IV:                       08000000000000000000000000000000
Plaintext:                0008000000000000000000000000000000
Ciphertext:               34c08b3e1dd5ae6cc2140c02334784565ede1e4684938402167cfeedc8a025281f904c0a5ca83d3141bd3cd4e1ac68a513683b4adc544b4c22143a41809d4a94
Reciphers for ciphertext: 0
Decipheredtext:           0008000000000000000000000000000000
RESULT CIPHER-DECIPHER: -----OK-----


Test: 5
Crypto pad: 2
Symmetric key bit length: 128
IV bit length:            128
Plaintext bit length:     136
Symmetric key:            04000000000000000000000000000000
IV:                       04000000000000000000000000000000
Plaintext:                0004000000000000000000000000000000
Ciphertext:               49237a3ee0ef7ddb8490f929e07d002a557aa53d64e586fcebef42c178db05777e7a6e23acac17ad3b378a05696a982456fa5bbe0b3c4fa73df351d746e80420
Reciphers for ciphertext: 0
Decipheredtext:           0004000000000000000000000000000000
RESULT CIPHER-DECIPHER: -----OK-----


Test: 6
Crypto pad: 2
Symmetric key bit length: 128
IV bit length:            128
Plaintext bit length:     136
Symmetric key:            02000000000000000000000000000000
IV:                       02000000000000000000000000000000
Plaintext:                0002000000000000000000000000000000
Ciphertext:               406a9f4289a6ed42990bb76406604008cce42360f0a3930385e86062b0548be6fb79ad714cc52ba3bdd306795c2945fdc27b2e7cd13cf38a2e80bc8e4fbfb50b
Reciphers for ciphertext: 0
Decipheredtext:           0002000000000000000000000000000000
RESULT CIPHER-DECIPHER: -----OK-----


Test: 7
Crypto pad: 1
Symmetric key bit length: 128
IV bit length:            128
Plaintext bit length:     136
Symmetric key:            01000000000000000000000000000000
IV:                       01000000000000000000000000000000
Plaintext:                0001000000000000000000000000000000
Ciphertext:               b90f5c47706000d69be4f3c0bee2b1aeb9fc14e342319058fd1612a6365f88ada4c693c768f7a813fbe93bf7d62a2d8fe6732a040b4eed210ec71dfe2c717600
Reciphers for ciphertext: 0
Decipheredtext:           0001000000000000000000000000000000
RESULT CIPHER-DECIPHER: -----OK-----


Test: 8
Crypto pad: 2
Symmetric key bit length: 128
IV bit length:            128
Plaintext bit length:     136
Symmetric key:            00800000000000000000000000000000
IV:                       00800000000000000000000000000000
Plaintext:                0000800000000000000000000000000000
Ciphertext:               1ce44ca38028ad301231b198826245f2c3301d35ce3cd90b47d2ddb3beb82ca879187dfa3fec2e5de6c207431fbb4aed7a7218225c65ce61a705422afcbb4867
Reciphers for ciphertext: 0
Decipheredtext:           0000800000000000000000000000000000
RESULT CIPHER-DECIPHER: -----OK-----


Test: 9
Crypto pad: 1
Symmetric key bit length: 128
IV bit length:            128
Plaintext bit length:     136
Symmetric key:            00400000000000000000000000000000
IV:                       00400000000000000000000000000000
Plaintext:                0000400000000000000000000000000000
Ciphertext:               7f9ce4f84199e3a833d6bba2b53af897f163fb65a336a1b58abe66b965d1461702c999bb50746601975cdcc659e60dd177b846d79b505c2a3e41f510ec755f75
Reciphers for ciphertext: 0
Decipheredtext:           0000400000000000000000000000000000
RESULT CIPHER-DECIPHER: -----OK-----


Test: 10
Crypto pad: 0
Symmetric key bit length: 128
IV bit length:            128
Plaintext bit length:     136
Symmetric key:            00200000000000000000000000000000
IV:                       00200000000000000000000000000000
Plaintext:                0000200000000000000000000000000000
Ciphertext:               9c0dada5663da448851ba2648e5326c679b46d9509130c5d1141cb63920b056bcf695dc3aaebc18ed8d2d98fc3dfeed22e8520b1f87197c3a1fc3ec3caec5d41
Reciphers for ciphertext: 0
Decipheredtext:           0000200000000000000000000000000000
RESULT CIPHER-DECIPHER: -----OK-----


Test: 11
Crypto pad: 1
Symmetric key bit length: 128
IV bit length:            128
Plaintext bit length:     136
Symmetric key:            00100000000000000000000000000000
IV:                       00100000000000000000000000000000
Plaintext:                0000100000000000000000000000000000
Ciphertext:               19888e5b70b847daa600518099c542cb32109f6a2e33b6c0ca8110df4f8ace7b655e5a9b9854472d6c5161df74a9abc721a49802ae7c1f55b017e609b1f16d28
Reciphers for ciphertext: 0
Decipheredtext:           0000100000000000000000000000000000
RESULT CIPHER-DECIPHER: -----OK-----


Test: 12
Crypto pad: 1
Symmetric key bit length: 128
IV bit length:            128
Plaintext bit length:     136
Symmetric key:            00080000000000000000000000000000
IV:                       00080000000000000000000000000000
Plaintext:                0000080000000000000000000000000000
Ciphertext:               90d10df1ce705aa3629f7ce1e92149991f4ad4c2a99a456e91563bf08a1d156970b5b313e81878617b06dcb1e808a4e9fc6af8205f79a56b74f36def0e639aab
Reciphers for ciphertext: 0
Decipheredtext:           0000080000000000000000000000000000
RESULT CIPHER-DECIPHER: -----OK-----


Test: 13
Crypto pad: 1
Symmetric key bit length: 128
IV bit length:            128
Plaintext bit length:     136
Symmetric key:            00040000000000000000000000000000
IV:                       00040000000000000000000000000000
Plaintext:                0000040000000000000000000000000000
Ciphertext:               d9a5b43e6bd79af8ba4ddbda885b81198ed3b95de205dc06dc6a74b1d6d244e4bb16b67054cf7f691139c4f324ffdfb5a60b93bb7ad9eb24a1d94ae94825932c
Reciphers for ciphertext: 0
Decipheredtext:           0000040000000000000000000000000000
RESULT CIPHER-DECIPHER: -----OK-----


Test: 14
Crypto pad: 0
Symmetric key bit length: 128
IV bit length:            128
Plaintext bit length:     136
Symmetric key:            00020000000000000000000000000000
IV:                       00020000000000000000000000000000
Plaintext:                0000020000000000000000000000000000
Ciphertext:               7e77f261f356cf337e0da846a403b0d89582973d5c9bde8f6ed3f016b0075af4a8ed0b00fbfdcf5e84590414898bc996397c6084afac6b9ad594a07b333f35d4
Reciphers for ciphertext: 0
Decipheredtext:           0000020000000000000000000000000000
RESULT CIPHER-DECIPHER: -----OK-----


Test: 15
Crypto pad: 2
Symmetric key bit length: 128
IV bit length:            128
Plaintext bit length:     136
Symmetric key:            00010000000000000000000000000000
IV:                       00010000000000000000000000000000
Plaintext:                0000010000000000000000000000000000
Ciphertext:               9a3abfc8132a3cb251932332ee17684a7a4814c664758a4b46765d20bda8bcc6623376d332f357c8a7f0d048efccc2121623ad9e4201aba662cbdfec2fb6e3d8
Reciphers for ciphertext: 0
Decipheredtext:           0000010000000000000000000000000000
RESULT CIPHER-DECIPHER: -----OK-----


Test: 16
Crypto pad: 1
Symmetric key bit length: 128
IV bit length:            128
Plaintext bit length:     136
Symmetric key:            00008000000000000000000000000000
IV:                       00008000000000000000000000000000
Plaintext:                0000008000000000000000000000000000
Ciphertext:               0c93bcf69d760b4fce3d6ffbd751d66d23c13cf2062ce1f9c8d56b031c97d99fc4bd809d2f64642279207ff01169dbf40bde9aa7e5d61c5b7fb8eb2fae8ee3d9
Reciphers for ciphertext: 0
Decipheredtext:           0000008000000000000000000000000000
RESULT CIPHER-DECIPHER: -----OK-----


Test: 17
Crypto pad: 1
Symmetric key bit length: 128
IV bit length:            128
Plaintext bit length:     136
Symmetric key:            00004000000000000000000000000000
IV:                       00004000000000000000000000000000
Plaintext:                0000004000000000000000000000000000
Ciphertext:               d7dc78da7195bfd8a92ca1ce593f1ea3702322bcab5d25edc10235186a54ffa550cf69ab3f021374280efab572be1f8f856565f49f807c8c374ec1dcad0b9b9c
Reciphers for ciphertext: 0
Decipheredtext:           0000004000000000000000000000000000
RESULT CIPHER-DECIPHER: -----OK-----


Test: 18
Crypto pad: 2
Symmetric key bit length: 128
IV bit length:            128
Plaintext bit length:     136
Symmetric key:            00002000000000000000000000000000
IV:                       00002000000000000000000000000000
Plaintext:                0000002000000000000000000000000000
Ciphertext:               e22aba562bf11622c96d3b5db21a6fc0aef6ac60cd7b03d400cbdd35f367a96c03d583462fb277b7a7fbcf201b5def52e3a070403c57af940cfcc5f66361e4ba
Reciphers for ciphertext: 0
Decipheredtext:           0000002000000000000000000000000000
RESULT CIPHER-DECIPHER: -----OK-----


Test: 19
Crypto pad: 0
Symmetric key bit length: 128
IV bit length:            128
Plaintext bit length:     136
Symmetric key:            00001000000000000000000000000000
IV:                       00001000000000000000000000000000
Plaintext:                0000001000000000000000000000000000
Ciphertext:               fb4fc54d6dc331406c63a6c14fd40c9ed685a4d9ca3f15c74960d5898aebbd49c733b1e7feb3fab53b3c4c9af465139a7d868f6e12e33c1775772ae5d12ba671
Reciphers for ciphertext: 0
Decipheredtext:           0000001000000000000000000000000000
RESULT CIPHER-DECIPHER: -----OK-----


Test: 20
Crypto pad: 2
Symmetric key bit length: 128
IV bit length:            128
Plaintext bit length:     136
Symmetric key:            00000800000000000000000000000000
IV:                       00000800000000000000000000000000
Plaintext:                0000000800000000000000000000000000
Ciphertext:               c2c2679880fd5a5779c1f1d995e5bc898fe0f4e8ef03e8c67b4852775eee4f389953f5c76c8fd61eab496b471ecfd580bdaf11ce0363ee0edbb91da444511301
Reciphers for ciphertext: 0
Decipheredtext:           0000000800000000000000000000000000
RESULT CIPHER-DECIPHER: -----OK-----


Test: 21
Crypto pad: 2
Symmetric key bit length: 128
IV bit length:            128
Plaintext bit length:     136
Symmetric key:            00000400000000000000000000000000
IV:                       00000400000000000000000000000000
Plaintext:                0000000400000000000000000000000000
Ciphertext:               5beab771917a495206cbb8bf271edf253dbd145d94a0171592f9da03d04da654c39bf14f77a8f4831e9f4da3eabcbc2eb6d688390266888452342bc64c6c28c8
Reciphers for ciphertext: 0
Decipheredtext:           0000000400000000000000000000000000
RESULT CIPHER-DECIPHER: -----OK-----


Test: 22
Crypto pad: 0
Symmetric key bit length: 128
IV bit length:            128
Plaintext bit length:     136
Symmetric key:            00000200000000000000000000000000
IV:                       00000200000000000000000000000000
Plaintext:                0000000200000000000000000000000000
Ciphertext:               b6cb8a40a7caa3cc13acf2921d1c42d0f6f411cc49214060d844f7940619ebec30d0ea82161140820b03528115f6638462eb95a5d0b1fbf33e75a33dc923b989
Reciphers for ciphertext: 0
Decipheredtext:           0000000200000000000000000000000000
RESULT CIPHER-DECIPHER: -----OK-----


Test: 23
Crypto pad: 2
Symmetric key bit length: 128
IV bit length:            128
Plaintext bit length:     136
Symmetric key:            00000100000000000000000000000000
IV:                       00000100000000000000000000000000
Plaintext:                0000000100000000000000000000000000
Ciphertext:               109bede0c85ee26af6fc9653af87680aed9a291fc9e76a3ebc2bd86f093d32fed8f0cd6c29a091d8de78cf07404d8f3f18dacbbcdfde2ac5f3713e9662b26454
Reciphers for ciphertext: 0
Decipheredtext:           0000000100000000000000000000000000
RESULT CIPHER-DECIPHER: -----OK-----


Test: 24
Crypto pad: 1
Symmetric key bit length: 128
IV bit length:            128
Plaintext bit length:     136
Symmetric key:            00000080000000000000000000000000
IV:                       00000080000000000000000000000000
Plaintext:                0000000080000000000000000000000000
Ciphertext:               87d138f74832e6950b98c00d1f31cdbb18ff6c78a0d9e966098a25c8b9c3571c208efb117220db3f625232cc536207b986b88ee758e8f1b978813e9b0a750f92
Reciphers for ciphertext: 0
Decipheredtext:           0000000080000000000000000000000000
RESULT CIPHER-DECIPHER: -----OK-----


Test: 25
Crypto pad: 2
Symmetric key bit length: 128
IV bit length:            128
Plaintext bit length:     136
Symmetric key:            00000040000000000000000000000000
IV:                       00000040000000000000000000000000
Plaintext:                0000000040000000000000000000000000
Ciphertext:               04c26cd0cc40fe23961afc29efbdbdaa78b4c8874fb88e3feb68413ccbae3aec09619512761961b1faec658015e80df6c148e8b323a3031e0897512fd80a5230
Reciphers for ciphertext: 0
Decipheredtext:           0000000040000000000000000000000000
RESULT CIPHER-DECIPHER: -----OK-----


Test: 26
Crypto pad: 0
Symmetric key bit length: 128
IV bit length:            128
Plaintext bit length:     136
Symmetric key:            00000020000000000000000000000000
IV:                       00000020000000000000000000000000
Plaintext:                0000000020000000000000000000000000
Ciphertext:               a7649be002d67c33418bced43f19f518035ce4d29f65add96b6ef3e95548b7355855f23d98d77bc07715b74b6c53f212a980977504007fd25c810801bd6baf77
Reciphers for ciphertext: 0
Decipheredtext:           0000000020000000000000000000000000
RESULT CIPHER-DECIPHER: -----OK-----


Test: 27
Crypto pad: 0
Symmetric key bit length: 128
IV bit length:            128
Plaintext bit length:     136
Symmetric key:            00000010000000000000000000000000
IV:                       00000010000000000000000000000000
Plaintext:                0000000010000000000000000000000000
Ciphertext:               6cf87185efc329215427d3f3c569fcef5ab58f4b73be7907fd2ea73af151b694cae4e2a80daf8eab6af4ca358bd865b84a71ee03c166e56733515c722b9a8fdb
Reciphers for ciphertext: 0
Decipheredtext:           0000000010000000000000000000000000
RESULT CIPHER-DECIPHER: -----OK-----


Test: 28
Crypto pad: 1
Symmetric key bit length: 128
IV bit length:            128
Plaintext bit length:     136
Symmetric key:            00000008000000000000000000000000
IV:                       00000008000000000000000000000000
Plaintext:                0000000008000000000000000000000000
Ciphertext:               279bacaa553b247290964238aff8eac33da975ec48af3abc2ca6c96b24fd58d48d963e94478983b00f40bcf7fe8cab78144dc7e77c237ca825a4b1d37891b609
Reciphers for ciphertext: 0
Decipheredtext:           0000000008000000000000000000000000
RESULT CIPHER-DECIPHER: -----OK-----


Test: 29
Crypto pad: 1
Symmetric key bit length: 128
IV bit length:            128
Plaintext bit length:     136
Symmetric key:            00000004000000000000000000000000
IV:                       00000004000000000000000000000000
Plaintext:                0000000004000000000000000000000000
Ciphertext:               eba46cc73b1d0c7922a73cadf8de29482ca8604f7469a8439a39d884b8bb4983cd77ea418fd6dd5f2b125f19168bf9e1eecc050fe396b3479fc8a11d72afa3aa
Reciphers for ciphertext: 0
Decipheredtext:           0000000004000000000000000000000000
RESULT CIPHER-DECIPHER: -----OK-----


Test: 30
Crypto pad: 1
Symmetric key bit length: 128
IV bit length:            128
Plaintext bit length:     136
Symmetric key:            00000002000000000000000000000000
IV:                       00000002000000000000000000000000
Plaintext:                0000000002000000000000000000000000
Ciphertext:               b4e123738cd359492177a3d697ba62f50ab807cfb65ce45d877d8d78396c391b16a67d044393a6f520094a40070c3e852a0bc3946c76577a6112e40054625420
Reciphers for ciphertext: 0
Decipheredtext:           0000000002000000000000000000000000
RESULT CIPHER-DECIPHER: -----OK-----


Test: 31
Crypto pad: 2
Symmetric key bit length: 128
IV bit length:            128
Plaintext bit length:     136
Symmetric key:            00000001000000000000000000000000
IV:                       00000001000000000000000000000000
Plaintext:                0000000001000000000000000000000000
Ciphertext:               ce690f07b8b704f4246f2f84955a137a9890f3bfec736d459bd4a1a0db1a4691bd16dee16dc4fcb480aef357bf427df8548ed5c46933d51790e23d357d09fcbf
Reciphers for ciphertext: 0
Decipheredtext:           0000000001000000000000000000000000
RESULT CIPHER-DECIPHER: -----OK-----


Test: 32
Crypto pad: 2
Symmetric key bit length: 128
IV bit length:            128
Plaintext bit length:     136
Symmetric key:            00000000800000000000000000000000
IV:                       00000000800000000000000000000000
Plaintext:                0000000000800000000000000000000000
Ciphertext:               c7f18653f02de19c0bd946e7957a8699358a297048ed5e74df8a7b7c04218dde6e7e02e372373f43a353c16d724b4b4f35e5642183680a15e89517091eae206e
Reciphers for ciphertext: 0
Decipheredtext:           0000000000800000000000000000000000
RESULT CIPHER-DECIPHER: -----OK-----


Test: 33
Crypto pad: 2
Symmetric key bit length: 128
IV bit length:            128
Plaintext bit length:     136
Symmetric key:            00000000400000000000000000000000
IV:                       00000000400000000000000000000000
Plaintext:                0000000000400000000000000000000000
Ciphertext:               43a319d12297ed6e0f5a0f0cc84ad6b4176b026735f0a392bb7c278685d858f29adcb25d1ec99822fa23ac59d64caf0d518e0a36c6f8bb4a0034c5a3feececab
Reciphers for ciphertext: 0
Decipheredtext:           0000000000400000000000000000000000
RESULT CIPHER-DECIPHER: -----OK-----


Test: 34
Crypto pad: 0
Symmetric key bit length: 128
IV bit length:            128
Plaintext bit length:     136
Symmetric key:            00000000200000000000000000000000
IV:                       00000000200000000000000000000000
Plaintext:                0000000000200000000000000000000000
Ciphertext:               95120db0fc055903a37293f22db460501472a59126a878c6fe0bab11bf586e7684f8d583144c5b83cb0dc661863129e414dc3415fe78bafba1e07c7480f4eb08
Reciphers for ciphertext: 0
Decipheredtext:           0000000000200000000000000000000000
RESULT CIPHER-DECIPHER: -----OK-----


Test: 35
Crypto pad: 2
Symmetric key bit length: 128
IV bit length:            128
Plaintext bit length:     136
Symmetric key:            00000000100000000000000000000000
IV:                       00000000100000000000000000000000
Plaintext:                0000000000100000000000000000000000
Ciphertext:               ea8ab8a11e9017ed938ad5f5b55b313f97c6eb49088c70b3ae81f9a899ac0a7d1be1635d16cda4157cee4b4b197fb5115e6f48d8a31bc68e2c595867cf8a1cd5
Reciphers for ciphertext: 0
Decipheredtext:           0000000000100000000000000000000000
RESULT CIPHER-DECIPHER: -----OK-----


Test: 36
Crypto pad: 2
Symmetric key bit length: 128
IV bit length:            128
Plaintext bit length:     136
Symmetric key:            00000000080000000000000000000000
IV:                       00000000080000000000000000000000
Plaintext:                0000000000080000000000000000000000
Ciphertext:               229b2434b2b0c1b58d799a4e4ca6204048ae47253042ccb05056d9bbba51261dbd740f01d8c36721517f222f96a37908b9e054d65a2575121815c1396b16bdd0
Reciphers for ciphertext: 0
Decipheredtext:           0000000000080000000000000000000000
RESULT CIPHER-DECIPHER: -----OK-----


Test: 37
Crypto pad: 2
Symmetric key bit length: 128
IV bit length:            128
Plaintext bit length:     136
Symmetric key:            00000000040000000000000000000000
IV:                       00000000040000000000000000000000
Plaintext:                0000000000040000000000000000000000
Ciphertext:               1a42983937ad6c5190a07da89cad9e2be6b7591c79026499b473ac3a4cd57fe158031f1e8c178a323684baa64822fa7f96e9b966e364fb1bf80a177e09377469
Reciphers for ciphertext: 0
Decipheredtext:           0000000000040000000000000000000000
RESULT CIPHER-DECIPHER: -----OK-----


Test: 38
Crypto pad: 0
Symmetric key bit length: 128
IV bit length:            128
Plaintext bit length:     136
Symmetric key:            00000000020000000000000000000000
IV:                       00000000020000000000000000000000
Plaintext:                0000000000020000000000000000000000
Ciphertext:               7793191839c557a0488214706affec7cfefd8638de29693bfb97c2abfea265c1fc90d3520caa381b293a17511d790eed65454325ec9bb25acf22c5b2b745dde6
Reciphers for ciphertext: 0
Decipheredtext:           0000000000020000000000000000000000
RESULT CIPHER-DECIPHER: -----OK-----


Test: 39
Crypto pad: 2
Symmetric key bit length: 128
IV bit length:            128
Plaintext bit length:     136
Symmetric key:            00000000010000000000000000000000
IV:                       00000000010000000000000000000000
Plaintext:                0000000000010000000000000000000000
Ciphertext:               020a23d20ea5d474c3da40cac9c78300cbe5d438a6c787b45d5c5e9c138d5a9a2c83307cb86133a8a0e78dcf6793277b2c18007537367cc552414428ec02bbbb
Reciphers for ciphertext: 0
Decipheredtext:           0000000000010000000000000000000000
RESULT CIPHER-DECIPHER: -----OK-----


Test: 40
Crypto pad: 1
Symmetric key bit length: 128
IV bit length:            128
Plaintext bit length:     136
Symmetric key:            00000000008000000000000000000000
IV:                       00000000008000000000000000000000
Plaintext:                0000000000008000000000000000000000
Ciphertext:               95310fde4d60e868610fc12453c062a0881c96f4c3916f664712eaf18a01ff09810faa794e5a2a9db7d3b668d1bba85c08bd21ebfc2716f4343d1a5e452d5961
Reciphers for ciphertext: 0
Decipheredtext:           0000000000008000000000000000000000
RESULT CIPHER-DECIPHER: -----OK-----


Test: 41
Crypto pad: 2
Symmetric key bit length: 128
IV bit length:            128
Plaintext bit length:     136
Symmetric key:            00000000004000000000000000000000
IV:                       00000000004000000000000000000000
Plaintext:                0000000000004000000000000000000000
Ciphertext:               ba92f9e66be14a0e0afc97630e46825464cc3c7582fc8f4c99cb09a49c199fd2f80266620328c2ae3507a9bd5fd3b4ea4e8d577108882123e7902e8553ad10cb
Reciphers for ciphertext: 2
Decipheredtext:           0000000000004000000000000000000000
RESULT CIPHER-DECIPHER: -----OK-----


Test: 42
Crypto pad: 0
Symmetric key bit length: 128
IV bit length:            128
Plaintext bit length:     136
Symmetric key:            00000000002000000000000000000000
IV:                       00000000002000000000000000000000
Plaintext:                0000000000002000000000000000000000
Ciphertext:               959855ab4d2d9b3abc21e3f6b9b846403e29d31716f40ee7f11194a5955689358988b49386297c5e4eb00248d57baefc0dde6eec444e50bb56925ad5d67fe77b
Reciphers for ciphertext: 0
Decipheredtext:           0000000000002000000000000000000000
RESULT CIPHER-DECIPHER: -----OK-----


Test: 43
Crypto pad: 0
Symmetric key bit length: 128
IV bit length:            128
Plaintext bit length:     136
Symmetric key:            00000000001000000000000000000000
IV:                       00000000001000000000000000000000
Plaintext:                0000000000001000000000000000000000
Ciphertext:               11ec401c185e720b0797c9c46b9b0ea54958c05307890da826de1a8d2e9906f7e08e439292ec1f7e848d4abc84366c237351e1ea2b9ff0b7cd758bb457b9d078
Reciphers for ciphertext: 0
Decipheredtext:           0000000000001000000000000000000000
RESULT CIPHER-DECIPHER: -----OK-----


Test: 44
Crypto pad: 0
Symmetric key bit length: 128
IV bit length:            128
Plaintext bit length:     136
Symmetric key:            00000000000800000000000000000000
IV:                       00000000000800000000000000000000
Plaintext:                0000000000000800000000000000000000
Ciphertext:               ae8312c3fa1d662d9f1831074d8c2110278e4d96037a61ff53ede970dd3e2f3e5ba9313e70fa77e97b37346957bdae44c0849e6f9cd5e8a4a1d425b40374f8ff
Reciphers for ciphertext: 0
Decipheredtext:           0000000000000800000000000000000000
RESULT CIPHER-DECIPHER: -----OK-----


Test: 45
Crypto pad: 0
Symmetric key bit length: 128
IV bit length:            128
Plaintext bit length:     136
Symmetric key:            00000000000400000000000000000000
IV:                       00000000000400000000000000000000
Plaintext:                0000000000000400000000000000000000
Ciphertext:               14868df282aaa0efe8875cb783721cba5443b270ca390c0f35ec4c6e9c3fe0334833bf2a22617cf390cc0b9d20f67b926be16d4e7cf6ef3859f04220dd3813d9
Reciphers for ciphertext: 0
Decipheredtext:           0000000000000400000000000000000000
RESULT CIPHER-DECIPHER: -----OK-----


Test: 46
Crypto pad: 2
Symmetric key bit length: 128
IV bit length:            128
Plaintext bit length:     136
Symmetric key:            00000000000200000000000000000000
IV:                       00000000000200000000000000000000
Plaintext:                0000000000000200000000000000000000
Ciphertext:               87d797b586e8b40e22637f99ff2457a3a9e974f3901e455869ce2b85c1d299851fb3ad14a0a8978e46ca4896f12ee604b5e65d9e8c293ee8adb422e36506e86e
Reciphers for ciphertext: 0
Decipheredtext:           0000000000000200000000000000000000
RESULT CIPHER-DECIPHER: -----OK-----


Test: 47
Crypto pad: 2
Symmetric key bit length: 128
IV bit length:            128
Plaintext bit length:     136
Symmetric key:            00000000000100000000000000000000
IV:                       00000000000100000000000000000000
Plaintext:                0000000000000100000000000000000000
Ciphertext:               093496d0c375566e4b8e577c6f3c6ced56e3f413ff9968510eb35f28fdd086fd2f813995254315ebad86664c3a6a63b11e1738441fa595408dffab72480e12c9
Reciphers for ciphertext: 0
Decipheredtext:           0000000000000100000000000000000000
RESULT CIPHER-DECIPHER: -----OK-----


Test: 48
Crypto pad: 0
Symmetric key bit length: 128
IV bit length:            128
Plaintext bit length:     136
Symmetric key:            00000000000080000000000000000000
IV:                       00000000000080000000000000000000
Plaintext:                0000000000000080000000000000000000
Ciphertext:               b673f0d5726f1fc2b488133ff28e00518abaa1d4e573e9a92ee4944c9341e3dd60fe22212906022e7a0b16506db1f8b065837af3603776c4c4edebca02dfe6f9
Reciphers for ciphertext: 0
Decipheredtext:           0000000000000080000000000000000000
RESULT CIPHER-DECIPHER: -----OK-----


Test: 49
Crypto pad: 2
Symmetric key bit length: 128
IV bit length:            128
Plaintext bit length:     136
Symmetric key:            00000000000040000000000000000000
IV:                       00000000000040000000000000000000
Plaintext:                0000000000000040000000000000000000
Ciphertext:               213cb84206328780c625c17d260c9962917864817be03de9ff840736e4a147eae39dcb8a0c349df9c40a3db54f7479eb4f0060116d3f9f379cb6dffecc4217f2
Reciphers for ciphertext: 0
Decipheredtext:           0000000000000040000000000000000000
RESULT CIPHER-DECIPHER: -----OK-----


Test: 50
Crypto pad: 1
Symmetric key bit length: 128
IV bit length:            128
Plaintext bit length:     136
Symmetric key:            00000000000020000000000000000000
IV:                       00000000000020000000000000000000
Plaintext:                0000000000000020000000000000000000
Ciphertext:               442332960cf44f0b92cfa9c365030a08910ea67eead046a350a81cd5932061109397ddcb515881e7e54e8c99218297950b30aea5bf8d257c50c6242229458402
Reciphers for ciphertext: 0
Decipheredtext:           0000000000000020000000000000000000
RESULT CIPHER-DECIPHER: -----OK-----


Test: 51
Crypto pad: 0
Symmetric key bit length: 128
IV bit length:            128
Plaintext bit length:     136
Symmetric key:            00000000000010000000000000000000
IV:                       00000000000010000000000000000000
Plaintext:                0000000000000010000000000000000000
Ciphertext:               719f415ba7583a26dd020dbe88cd2cd785fb31d136df9723058aa43bb36e053e135be281cfdcb9c626e0e5114cf9138f64c83b1b27662a204d1ec61cadafc2db
Reciphers for ciphertext: 0
Decipheredtext:           0000000000000010000000000000000000
RESULT CIPHER-DECIPHER: -----OK-----


Test: 52
Crypto pad: 0
Symmetric key bit length: 128
IV bit length:            128
Plaintext bit length:     136
Symmetric key:            00000000000008000000000000000000
IV:                       00000000000008000000000000000000
Plaintext:                0000000000000008000000000000000000
Ciphertext:               1591e9e975b3d50592532891a5ea16341a24021ea865efb1fcbc6f2ae57a8f42791ac50fe0882000c8adbd6c118d889e79ddc3eef6afda36a9494236793d5923
Reciphers for ciphertext: 0
Decipheredtext:           0000000000000008000000000000000000
RESULT CIPHER-DECIPHER: -----OK-----


Test: 53
Crypto pad: 2
Symmetric key bit length: 128
IV bit length:            128
Plaintext bit length:     136
Symmetric key:            00000000000004000000000000000000
IV:                       00000000000004000000000000000000
Plaintext:                0000000000000004000000000000000000
Ciphertext:               48b6f7fa3090de74b1d1bd2f74a2b4d3d8417999a31f24d13be2fc25833ebf795573ffe9242f37351c5387afd6c48940fad77450aeb3a2b473197f2b5c910d2a
Reciphers for ciphertext: 0
Decipheredtext:           0000000000000004000000000000000000
RESULT CIPHER-DECIPHER: -----OK-----


Test: 54
Crypto pad: 2
Symmetric key bit length: 128
IV bit length:            128
Plaintext bit length:     136
Symmetric key:            00000000000002000000000000000000
IV:                       00000000000002000000000000000000
Plaintext:                0000000000000002000000000000000000
Ciphertext:               7becff5f426e02d8a6bbe6d01454aa2252cc573eb2f6f4c4434042d8fb16315a3deccfca86425de6f8dffce3fa12a9aceeeb569fe2030d4db588b956f6870d3d
Reciphers for ciphertext: 0
Decipheredtext:           0000000000000002000000000000000000
RESULT CIPHER-DECIPHER: -----OK-----


Test: 55
Crypto pad: 2
Symmetric key bit length: 128
IV bit length:            128
Plaintext bit length:     136
Symmetric key:            00000000000001000000000000000000
IV:                       00000000000001000000000000000000
Plaintext:                0000000000000001000000000000000000
Ciphertext:               d5f8e743e10ded7495eddd84ecc157c484e219945da42a3552bde4cf75edbd1f9e0fca726c1af9594277cb5524f3f449528344400f55c7c5bdc2c1989ffebb60
Reciphers for ciphertext: 0
Decipheredtext:           0000000000000001000000000000000000
RESULT CIPHER-DECIPHER: -----OK-----


Test: 56
Crypto pad: 0
Symmetric key bit length: 128
IV bit length:            128
Plaintext bit length:     136
Symmetric key:            00000000000000800000000000000000
IV:                       00000000000000800000000000000000
Plaintext:                0000000000000000800000000000000000
Ciphertext:               718d590e43acc4705d5cedc9494c1741bda083be94428d8634bc1d6aa2325c608a1c9542517dd707fc27307064513e8e7e580f05667e6839c7bfca3c55f078ad
Reciphers for ciphertext: 0
Decipheredtext:           0000000000000000800000000000000000
RESULT CIPHER-DECIPHER: -----OK-----


Test: 57
Crypto pad: 0
Symmetric key bit length: 128
IV bit length:            128
Plaintext bit length:     136
Symmetric key:            00000000000000400000000000000000
IV:                       00000000000000400000000000000000
Plaintext:                0000000000000000400000000000000000
Ciphertext:               7bb16a651847c39e0ad1d92b939ff14ed2ecb8a634553f7bda0e579ba17bcf1b6923a9cd8c9e87686eb6ffe3b1440dc596ec4d3153043b416fa7bbc5be904e83
Reciphers for ciphertext: 0
Decipheredtext:           0000000000000000400000000000000000
RESULT CIPHER-DECIPHER: -----OK-----


Test: 58
Crypto pad: 1
Symmetric key bit length: 128
IV bit length:            128
Plaintext bit length:     136
Symmetric key:            00000000000000200000000000000000
IV:                       00000000000000200000000000000000
Plaintext:                0000000000000000200000000000000000
Ciphertext:               fe0519ba154a2307924eedef23c437c853c750ab5f2f86ea67f68e821db5f05b0aff12e5a0e4eae091eef8c28654132e98103143557e9a79371164cde7442d1b
Reciphers for ciphertext: 0
Decipheredtext:           0000000000000000200000000000000000
RESULT CIPHER-DECIPHER: -----OK-----


Test: 59
Crypto pad: 0
Symmetric key bit length: 128
IV bit length:            128
Plaintext bit length:     136
Symmetric key:            00000000000000100000000000000000
IV:                       00000000000000100000000000000000
Plaintext:                0000000000000000100000000000000000
Ciphertext:               c7cf45e5fac6cbb194bb139c216b9f579505fce682c51a16393a3f80f2e4f6daf61e716b4ad7e681289491ae6d7d9150bd60a63db4105e59f8b85c9a5ab5e20a
Reciphers for ciphertext: 0
Decipheredtext:           0000000000000000100000000000000000
RESULT CIPHER-DECIPHER: -----OK-----


Test: 60
Crypto pad: 1
Symmetric key bit length: 128
IV bit length:            128
Plaintext bit length:     136
Symmetric key:            00000000000000080000000000000000
IV:                       00000000000000080000000000000000
Plaintext:                0000000000000000080000000000000000
Ciphertext:               82573d05f3f83237de8366a541d608bee59be7ca74f7e3fa7b100b70ff24ce58fc1a6f37ee7abb114faae3ff42be60095af3052092650023c3d29cabdc483c78
Reciphers for ciphertext: 0
Decipheredtext:           0000000000000000080000000000000000
RESULT CIPHER-DECIPHER: -----OK-----


Test: 61
Crypto pad: 2
Symmetric key bit length: 128
IV bit length:            128
Plaintext bit length:     136
Symmetric key:            00000000000000040000000000000000
IV:                       00000000000000040000000000000000
Plaintext:                0000000000000000040000000000000000
Ciphertext:               0de31192b6e2c08071cdaadb23d8e5c4297ff2efda29a9058fa67d3e0bcb9987fa821aecf050f539d57e5d2cf0d2eed080bdddd9c7f1f022a65d8d6825ae2c2c
Reciphers for ciphertext: 0
Decipheredtext:           0000000000000000040000000000000000
RESULT CIPHER-DECIPHER: -----OK-----


Test: 62
Crypto pad: 2
Symmetric key bit length: 128
IV bit length:            128
Plaintext bit length:     136
Symmetric key:            00000000000000020000000000000000
IV:                       00000000000000020000000000000000
Plaintext:                0000000000000000020000000000000000
Ciphertext:               923120b5b652277d1158a56558aa74c259e7753e93f2f8230c0b96f246df9f3027ff17781b730b5547e44f0d123c15c6e43e75fb2cdc290f808cfc9b0bf1d60b
Reciphers for ciphertext: 0
Decipheredtext:           0000000000000000020000000000000000
RESULT CIPHER-DECIPHER: -----OK-----


Test: 63
Crypto pad: 2
Symmetric key bit length: 128
IV bit length:            128
Plaintext bit length:     136
Symmetric key:            00000000000000010000000000000000
IV:                       00000000000000010000000000000000
Plaintext:                0000000000000000010000000000000000
Ciphertext:               9f30e58e43fe08f30def1423240b0ea403d83f3ae9aa233774caeaebfbea32667647b49d586710e52b37b1286c283ad69d08a3d79e1c625490134a9ebea81009
Reciphers for ciphertext: 0
Decipheredtext:           0000000000000000010000000000000000
RESULT CIPHER-DECIPHER: -----OK-----


Test: 64
Crypto pad: 0
Symmetric key bit length: 128
IV bit length:            128
Plaintext bit length:     136
Symmetric key:            00000000000000008000000000000000
IV:                       00000000000000008000000000000000
Plaintext:                0000000000000000008000000000000000
Ciphertext:               8b0189e639eb1c82c058caec833d356be92233944df449f6d71c60094aa2b53fb131b15a4244062b7ecae60060a55a59eea1f074691bdf1de99791a0edcb04e4
Reciphers for ciphertext: 0
Decipheredtext:           0000000000000000008000000000000000
RESULT CIPHER-DECIPHER: -----OK-----


Test: 65
Crypto pad: 1
Symmetric key bit length: 128
IV bit length:            128
Plaintext bit length:     136
Symmetric key:            00000000000000004000000000000000
IV:                       00000000000000004000000000000000
Plaintext:                0000000000000000004000000000000000
Ciphertext:               f7515264ab6bc024a18be858a516870a1513d07ec174c8f13a96736ac50fa9ed08e38324fbc4ef2877f71925d3193ea862db19c9945d531f5fdc3134f8fd772d
Reciphers for ciphertext: 0
Decipheredtext:           0000000000000000004000000000000000
RESULT CIPHER-DECIPHER: -----OK-----


Test: 66
Crypto pad: 1
Symmetric key bit length: 128
IV bit length:            128
Plaintext bit length:     136
Symmetric key:            00000000000000002000000000000000
IV:                       00000000000000002000000000000000
Plaintext:                0000000000000000002000000000000000
Ciphertext:               7c4d78d7ccb864f034649e961d657056be92a3af98999a5e9b98c788c094f190dcca5fae3a048b5bcd444e5100697bb767c28362aacffbc79bb5f3568883aad2
Reciphers for ciphertext: 0
Decipheredtext:           0000000000000000002000000000000000
RESULT CIPHER-DECIPHER: -----OK-----


Test: 67
Crypto pad: 1
Symmetric key bit length: 128
IV bit length:            128
Plaintext bit length:     136
Symmetric key:            00000000000000001000000000000000
IV:                       00000000000000001000000000000000
Plaintext:                0000000000000000001000000000000000
Ciphertext:               5fe318ddab6417ea092e9530d27d2e228f282b58051b98cb01624b8f212abd68a20e3fcba06a9ee68490ad59d0ab390d688971569b2479c947c535b72798f615
Reciphers for ciphertext: 0
Decipheredtext:           0000000000000000001000000000000000
RESULT CIPHER-DECIPHER: -----OK-----


Test: 68
Crypto pad: 0
Symmetric key bit length: 128
IV bit length:            128
Plaintext bit length:     136
Symmetric key:            00000000000000000800000000000000
IV:                       00000000000000000800000000000000
Plaintext:                0000000000000000000800000000000000
Ciphertext:               c5c1e262c481d3b7b821b76281b80fee1b3a3820d649e955f1fdf78eda75a5bd64d70cb34e93fa3223f9cf0eb0092b43c76558c0b3bc71bd5cdf7cf0fb9ec2e3
Reciphers for ciphertext: 0
Decipheredtext:           0000000000000000000800000000000000
RESULT CIPHER-DECIPHER: -----OK-----


Test: 69
Crypto pad: 0
Symmetric key bit length: 128
IV bit length:            128
Plaintext bit length:     136
Symmetric key:            00000000000000000400000000000000
IV:                       00000000000000000400000000000000
Plaintext:                0000000000000000000400000000000000
Ciphertext:               6db9870d82ca7111e5c5e53f1e032a58324cbf8ea10cbd342f01bd31fe56efed785277eb1d8a5fa317bd05ba7968d60a049b4d6ac238d7c68f6bd1b478d65953
Reciphers for ciphertext: 0
Decipheredtext:           0000000000000000000400000000000000
RESULT CIPHER-DECIPHER: -----OK-----


Test: 70
Crypto pad: 2
Symmetric key bit length: 128
IV bit length:            128
Plaintext bit length:     136
Symmetric key:            00000000000000000200000000000000
IV:                       00000000000000000200000000000000
Plaintext:                0000000000000000000200000000000000
Ciphertext:               b9969816ea813da8e43ceb9a5ac812c552e050ee3619d8f75f06174cbab9fdf6596f65dd1fa3967c6752cfc04c9e0febc7071c858b467a72a2223393aaa7701b
Reciphers for ciphertext: 0
Decipheredtext:           0000000000000000000200000000000000
RESULT CIPHER-DECIPHER: -----OK-----


Test: 71
Crypto pad: 2
Symmetric key bit length: 128
IV bit length:            128
Plaintext bit length:     136
Symmetric key:            00000000000000000100000000000000
IV:                       00000000000000000100000000000000
Plaintext:                0000000000000000000100000000000000
Ciphertext:               c03392473feef9519268133c30531ab966ab2d7178dd4a0618d8f810d33d6cb00328f3422a6ee57cecb2ad4de25672086b391eaefc4ae912b291e8cba3b23359
Reciphers for ciphertext: 0
Decipheredtext:           0000000000000000000100000000000000
RESULT CIPHER-DECIPHER: -----OK-----


Test: 72
Crypto pad: 0
Symmetric key bit length: 128
IV bit length:            128
Plaintext bit length:     136
Symmetric key:            00000000000000000080000000000000
IV:                       00000000000000000080000000000000
Plaintext:                0000000000000000000080000000000000
Ciphertext:               2248bd92909b8c183efed8488106751c8954f875c7f325eff22341e4638bff9cd0fa65a96794350b9a01128f77549920499118b862bcb29df4f55e6511c010a9
Reciphers for ciphertext: 0
Decipheredtext:           0000000000000000000080000000000000
RESULT CIPHER-DECIPHER: -----OK-----


Test: 73
Crypto pad: 2
Symmetric key bit length: 128
IV bit length:            128
Plaintext bit length:     136
Symmetric key:            00000000000000000040000000000000
IV:                       00000000000000000040000000000000
Plaintext:                0000000000000000000040000000000000
Ciphertext:               fa84428e16795e4a52998242a61867c3949fc4932821ce0dcd0af1e10e442e36b2be9f985a4f3d9d93c7ba58db09ff9e218ce4d98d2eb20a1f9f8a5820c86dbf
Reciphers for ciphertext: 0
Decipheredtext:           0000000000000000000040000000000000
RESULT CIPHER-DECIPHER: -----OK-----


Test: 74
Crypto pad: 1
Symmetric key bit length: 128
IV bit length:            128
Plaintext bit length:     136
Symmetric key:            00000000000000000020000000000000
IV:                       00000000000000000020000000000000
Plaintext:                0000000000000000000020000000000000
Ciphertext:               61f092d7c75cf61c9e5e97c48a0fc93194cfe078eced8490a9647d631e936ab690fe10ae558d2d98135b5660c43e1593c9728b564ad44c0c3e1e8777f1516b34
Reciphers for ciphertext: 0
Decipheredtext:           0000000000000000000020000000000000
RESULT CIPHER-DECIPHER: -----OK-----


Test: 75
Crypto pad: 2
Symmetric key bit length: 128
IV bit length:            128
Plaintext bit length:     136
Symmetric key:            00000000000000000010000000000000
IV:                       00000000000000000010000000000000
Plaintext:                0000000000000000000010000000000000
Ciphertext:               562d1ed721cdb76c97abe04f2b98803f94a8f5d35fb34ad7f31258476fd0fb11043f37c5ab177a686ea0012dbd920788598ee63cbf09031366df54897e31af47
Reciphers for ciphertext: 0
Decipheredtext:           0000000000000000000010000000000000
RESULT CIPHER-DECIPHER: -----OK-----


Test: 76
Crypto pad: 0
Symmetric key bit length: 128
IV bit length:            128
Plaintext bit length:     136
Symmetric key:            00000000000000000008000000000000
IV:                       00000000000000000008000000000000
Plaintext:                0000000000000000000008000000000000
Ciphertext:               c578677a6da6bcc74ce44a3907ff7349a2090751fec2f24238444d38c783c4f7abf608878c2b74d4d4b8eb24b5e62193f0222305667931bc60414a0693e82cbd
Reciphers for ciphertext: 0
Decipheredtext:           0000000000000000000008000000000000
RESULT CIPHER-DECIPHER: -----OK-----


Test: 77
Crypto pad: 0
Symmetric key bit length: 128
IV bit length:            128
Plaintext bit length:     136
Symmetric key:            00000000000000000004000000000000
IV:                       00000000000000000004000000000000
Plaintext:                0000000000000000000004000000000000
Ciphertext:               0a371547b15905e339e4da304737601f80d42bc47e4d0bd00d3ea7bfb7b577365288d69c552887d4f0d7cf14b77d8abead450a1bb90e76afccfd5f95d512dbbf
Reciphers for ciphertext: 0
Decipheredtext:           0000000000000000000004000000000000
RESULT CIPHER-DECIPHER: -----OK-----


Test: 78
Crypto pad: 2
Symmetric key bit length: 128
IV bit length:            128
Plaintext bit length:     136
Symmetric key:            00000000000000000002000000000000
IV:                       00000000000000000002000000000000
Plaintext:                0000000000000000000002000000000000
Ciphertext:               2d940e1f38b2c6de7dca4a5864b5881505db42984c2e9f6badcd9b7c115d910409e0a3eff3be907a6614ac4d104b97e2f3c6b18619d74d3c8a05533d51f40546
Reciphers for ciphertext: 0
Decipheredtext:           0000000000000000000002000000000000
RESULT CIPHER-DECIPHER: -----OK-----


Test: 79
Crypto pad: 0
Symmetric key bit length: 128
IV bit length:            128
Plaintext bit length:     136
Symmetric key:            00000000000000000001000000000000
IV:                       00000000000000000001000000000000
Plaintext:                0000000000000000000001000000000000
Ciphertext:               95f76e06498446160bc3cb51f9810fe997b1234858f67c6123239c74f891c4d1d6f91a92537357b61812a57728516cbcf3a639e2ddb3011c048376cecbddcc6b
Reciphers for ciphertext: 0
Decipheredtext:           0000000000000000000001000000000000
RESULT CIPHER-DECIPHER: -----OK-----


Test: 80
Crypto pad: 1
Symmetric key bit length: 128
IV bit length:            128
Plaintext bit length:     136
Symmetric key:            00000000000000000000800000000000
IV:                       00000000000000000000800000000000
Plaintext:                0000000000000000000000800000000000
Ciphertext:               2ae7827c77cb69e9b9b94a4b4524f5739e5d2768fd1653341a7c4be5b7f0b6ea498b7a58295bea132fca0f008a0ed3f5056abab7fffbbf19a734e4ca0d752ca6
Reciphers for ciphertext: 0
Decipheredtext:           0000000000000000000000800000000000
RESULT CIPHER-DECIPHER: -----OK-----


Test: 81
Crypto pad: 2
Symmetric key bit length: 128
IV bit length:            128
Plaintext bit length:     136
Symmetric key:            00000000000000000000400000000000
IV:                       00000000000000000000400000000000
Plaintext:                0000000000000000000000400000000000
Ciphertext:               a0b94693481b5f6cbf1e98154dc85b4520e521e89d463f55a9354d51039a45d9c68c043387ea1889f4094fa5f20f26266ee5fd32e29c8a4c40b48d97c32a0c97
Reciphers for ciphertext: 0
Decipheredtext:           0000000000000000000000400000000000
RESULT CIPHER-DECIPHER: -----OK-----


Test: 82
Crypto pad: 0
Symmetric key bit length: 128
IV bit length:            128
Plaintext bit length:     136
Symmetric key:            00000000000000000000200000000000
IV:                       00000000000000000000200000000000
Plaintext:                0000000000000000000000200000000000
Ciphertext:               ac5ff3d60830be34444ab9bd4db28cf7cd1131905b9ba69f29419a12f3e2e3a661c2a08f1ea1e365643477d3a04989a9ef407f1f549b5ec1fb727efae5b881a1
Reciphers for ciphertext: 0
Decipheredtext:           0000000000000000000000200000000000
RESULT CIPHER-DECIPHER: -----OK-----


Test: 83
Crypto pad: 0
Symmetric key bit length: 128
IV bit length:            128
Plaintext bit length:     136
Symmetric key:            00000000000000000000100000000000
IV:                       00000000000000000000100000000000
Plaintext:                0000000000000000000000100000000000
Ciphertext:               19fad42508efa19ade0231d5558899a77f23406b2010d51e33060cfbbe2efb87fedfb1c655ff10648e776e532a7477a9c91ae61e3557ee98615f4ce53dba2e59
Reciphers for ciphertext: 0
Decipheredtext:           0000000000000000000000100000000000
RESULT CIPHER-DECIPHER: -----OK-----


Test: 84
Crypto pad: 2
Symmetric key bit length: 128
IV bit length:            128
Plaintext bit length:     136
Symmetric key:            00000000000000000000080000000000
IV:                       00000000000000000000080000000000
Plaintext:                0000000000000000000000080000000000
Ciphertext:               873f954660ef45b04453261bff80511bc9f6dd4b1892ef71d5a1beedfabab4668c85bab6ef179946e713cde3088555e56361cdaba80423e303f560f059648a0b
Reciphers for ciphertext: 0
Decipheredtext:           0000000000000000000000080000000000
RESULT CIPHER-DECIPHER: -----OK-----


Test: 85
Crypto pad: 2
Symmetric key bit length: 128
IV bit length:            128
Plaintext bit length:     136
Symmetric key:            00000000000000000000040000000000
IV:                       00000000000000000000040000000000
Plaintext:                0000000000000000000000040000000000
Ciphertext:               5d12d1ebb6ee8a4f393369fbe2a07e9e47ca490f7e6e845a5a68b48eabdf29698d9961228ad5b667fb494d173679d991d233dd9cea0c1f97aa40126254e6b931
Reciphers for ciphertext: 0
Decipheredtext:           0000000000000000000000040000000000
RESULT CIPHER-DECIPHER: -----OK-----


Test: 86
Crypto pad: 1
Symmetric key bit length: 128
IV bit length:            128
Plaintext bit length:     136
Symmetric key:            00000000000000000000020000000000
IV:                       00000000000000000000020000000000
Plaintext:                0000000000000000000000020000000000
Ciphertext:               ce3b3c9eb4b3db3475f04174aba353ec92917b24889f8b131636aff805c25c45ad29aef77aa20c1b62491fceb4610f2a6a9b329bc463d7596551d46e5ce930b0
Reciphers for ciphertext: 0
Decipheredtext:           0000000000000000000000020000000000
RESULT CIPHER-DECIPHER: -----OK-----


Test: 87
Crypto pad: 1
Symmetric key bit length: 128
IV bit length:            128
Plaintext bit length:     136
Symmetric key:            00000000000000000000010000000000
IV:                       00000000000000000000010000000000
Plaintext:                0000000000000000000000010000000000
Ciphertext:               d717c2909658166e354a38d9e67e996a51fcb06de0c7114c0556b8c78576ecc9ae56b179edce98a37253ea57a183013c1a3d65053228daa006e9f535dcf8fe28
Reciphers for ciphertext: 0
Decipheredtext:           0000000000000000000000010000000000
RESULT CIPHER-DECIPHER: -----OK-----


Test: 88
Crypto pad: 0
Symmetric key bit length: 128
IV bit length:            128
Plaintext bit length:     136
Symmetric key:            00000000000000000000008000000000
IV:                       00000000000000000000008000000000
Plaintext:                0000000000000000000000008000000000
Ciphertext:               e22864d01fd11ca8cd97c9871178540dfc3ae2e037a1241fe08447fd22a0c03419e35d1d7c09d2177ee940f0d93ca4e983ee2eb8b8c5b229b7223487a726e5ac
Reciphers for ciphertext: 0
Decipheredtext:           0000000000000000000000008000000000
RESULT CIPHER-DECIPHER: -----OK-----


Test: 89
Crypto pad: 2
Symmetric key bit length: 128
IV bit length:            128
Plaintext bit length:     136
Symmetric key:            00000000000000000000004000000000
IV:                       00000000000000000000004000000000
Plaintext:                0000000000000000000000004000000000
Ciphertext:               8a1bfd4882d7988995231371205307134357a3841ba5b48cfd947292f2e8701d570c2085ac8063fa97852b47a84cce33fb3c07ad8eb96be14841b980ff3ded33
Reciphers for ciphertext: 0
Decipheredtext:           0000000000000000000000004000000000
RESULT CIPHER-DECIPHER: -----OK-----


Test: 90
Crypto pad: 2
Symmetric key bit length: 128
IV bit length:            128
Plaintext bit length:     136
Symmetric key:            00000000000000000000002000000000
IV:                       00000000000000000000002000000000
Plaintext:                0000000000000000000000002000000000
Ciphertext:               143d73a53601f4f53ff9f5c3e31ad9d683a5785057fba86b5b67c908181ca83a3816999279fc5f94e875988b5ca9b1e2fee62ae34994771d728cb8897ed0c13b
Reciphers for ciphertext: 0
Decipheredtext:           0000000000000000000000002000000000
RESULT CIPHER-DECIPHER: -----OK-----


Test: 91
Crypto pad: 0
Symmetric key bit length: 128
IV bit length:            128
Plaintext bit length:     136
Symmetric key:            00000000000000000000001000000000
IV:                       00000000000000000000001000000000
Plaintext:                0000000000000000000000001000000000
Ciphertext:               98f3f50e40f7651e69eb96b4df87e6a89886634f51c806bacba8e579de65817552baeb76c1519d75fe48560f65ae84b51a4e4aa2674bf8b91209df5217dff28f
Reciphers for ciphertext: 0
Decipheredtext:           0000000000000000000000001000000000
RESULT CIPHER-DECIPHER: -----OK-----


Test: 92
Crypto pad: 2
Symmetric key bit length: 128
IV bit length:            128
Plaintext bit length:     136
Symmetric key:            00000000000000000000000800000000
IV:                       00000000000000000000000800000000
Plaintext:                0000000000000000000000000800000000
Ciphertext:               ce89252f42810591d32c42a92db2eb9f69c063b4be693fea075c15036d792c9455402b5e9c0a8b1305a53ae971cd9126fdf7a1356646d041f330c49d6d9fa901
Reciphers for ciphertext: 0
Decipheredtext:           0000000000000000000000000800000000
RESULT CIPHER-DECIPHER: -----OK-----


Test: 93
Crypto pad: 1
Symmetric key bit length: 128
IV bit length:            128
Plaintext bit length:     136
Symmetric key:            00000000000000000000000400000000
IV:                       00000000000000000000000400000000
Plaintext:                0000000000000000000000000400000000
Ciphertext:               957154aeb3834ab47a249d2a9c7bf0f7f32cd7a82110bbc812ad90a7a775cb913ae2eb01c9e144b167ecab4db330287bc7c7549b79d201aaebb3b8604b00d7b7
Reciphers for ciphertext: 0
Decipheredtext:           0000000000000000000000000400000000
RESULT CIPHER-DECIPHER: -----OK-----


Test: 94
Crypto pad: 1
Symmetric key bit length: 128
IV bit length:            128
Plaintext bit length:     136
Symmetric key:            00000000000000000000000200000000
IV:                       00000000000000000000000200000000
Plaintext:                0000000000000000000000000200000000
Ciphertext:               46669966cc4adafd9f1c0cba270954aced67864760ed9b1ecb01c35d87f6af8daaee68288856333532d1bcd4a6522e3bfc0e8b07eafa508ec57abc01a179159c
Reciphers for ciphertext: 0
Decipheredtext:           0000000000000000000000000200000000
RESULT CIPHER-DECIPHER: -----OK-----


Test: 95
Crypto pad: 2
Symmetric key bit length: 128
IV bit length:            128
Plaintext bit length:     136
Symmetric key:            00000000000000000000000100000000
IV:                       00000000000000000000000100000000
Plaintext:                0000000000000000000000000100000000
Ciphertext:               6f94553cad3c60938574fbbb1b49caf391d4529b1321f643cb2eb938672f7c9faea6f973ac9f3c5de138dddf88d53f350fb3efe88efa0368d374bfb05f2da4cb
Reciphers for ciphertext: 0
Decipheredtext:           0000000000000000000000000100000000
RESULT CIPHER-DECIPHER: -----OK-----


Test: 96
Crypto pad: 0
Symmetric key bit length: 128
IV bit length:            128
Plaintext bit length:     136
Symmetric key:            00000000000000000000000080000000
IV:                       00000000000000000000000080000000
Plaintext:                0000000000000000000000000080000000
Ciphertext:               ec4437bbd05ebe5ed8056250b72e57b92d65e0f8632ec0119333b83f03e213b09c0170f844bcf7401a77ac7d6cff7c11bdf498ba9b17ec9c299b0950ddfbe56f
Reciphers for ciphertext: 0
Decipheredtext:           0000000000000000000000000080000000
RESULT CIPHER-DECIPHER: -----OK-----


Test: 97
Crypto pad: 0
Symmetric key bit length: 128
IV bit length:            128
Plaintext bit length:     136
Symmetric key:            00000000000000000000000040000000
IV:                       00000000000000000000000040000000
Plaintext:                0000000000000000000000000040000000
Ciphertext:               d366f0883ffef85acfb53b23dff0816b8f708ead816f062e65373ac6f8c80e99a0e71d6f56abd7937fa4e65cd8feccd72e6d7e06c457f7c504bf76fe6d9a0151
Reciphers for ciphertext: 0
Decipheredtext:           0000000000000000000000000040000000
RESULT CIPHER-DECIPHER: -----OK-----


Test: 98
Crypto pad: 0
Symmetric key bit length: 128
IV bit length:            128
Plaintext bit length:     136
Symmetric key:            00000000000000000000000020000000
IV:                       00000000000000000000000020000000
Plaintext:                0000000000000000000000000020000000
Ciphertext:               f0f7a2648c66832d12b644481153334d0b52cfca1ecf03707ac35aa241cc0f14a66312548498b92832ef3b02d0babc8ea426d1d81749021e5b48dff173d88e41
Reciphers for ciphertext: 0
Decipheredtext:           0000000000000000000000000020000000
RESULT CIPHER-DECIPHER: -----OK-----


Test: 99
Crypto pad: 1
Symmetric key bit length: 128
IV bit length:            128
Plaintext bit length:     136
Symmetric key:            00000000000000000000000010000000
IV:                       00000000000000000000000010000000
Plaintext:                0000000000000000000000000010000000
Ciphertext:               8ad81751e3755eff0285f721af69ac8c89a00b035c4d18ca71b6b0a9f31db2e000765c1ca1ab8cc48d4f867a07ba37b853e68ce1f4cfe0b1ca1b4078f6e66ea3
Reciphers for ciphertext: 0
Decipheredtext:           0000000000000000000000000010000000
RESULT CIPHER-DECIPHER: -----OK-----


Test: 100
Crypto pad: 0
Symmetric key bit length: 128
IV bit length:            128
Plaintext bit length:     136
Symmetric key:            00000000000000000000000008000000
IV:                       00000000000000000000000008000000
Plaintext:                0000000000000000000000000008000000
Ciphertext:               744700aef967de21f16bf238fa7aa3393d0d8a17eb356daa2f7ebe54c6d9acb2355ed457957263c687f6a2cedc7db426913eb1c853efbd1ba3e82d4426c2794f
Reciphers for ciphertext: 0
Decipheredtext:           0000000000000000000000000008000000
RESULT CIPHER-DECIPHER: -----OK-----


Test: 101
Crypto pad: 1
Symmetric key bit length: 128
IV bit length:            128
Plaintext bit length:     136
Symmetric key:            00000000000000000000000004000000
IV:                       00000000000000000000000004000000
Plaintext:                0000000000000000000000000004000000
Ciphertext:               5a169a62da21a24a26f0a469f5dfe088b7b2483c84b9b5e3ef8d527bbba5e4446501d888bfeb622c0cd8033d4b54d312d5b02a7b84c3ea065d85ac9a5d86e1c0
Reciphers for ciphertext: 0
Decipheredtext:           0000000000000000000000000004000000
RESULT CIPHER-DECIPHER: -----OK-----


Test: 102
Crypto pad: 2
Symmetric key bit length: 128
IV bit length:            128
Plaintext bit length:     136
Symmetric key:            00000000000000000000000002000000
IV:                       00000000000000000000000002000000
Plaintext:                0000000000000000000000000002000000
Ciphertext:               91c21147491801cd66d12be3a7fb1ddd259b4b276a61b5eda5d1c674bec2c6a6795b27232ed03e0d03a321cd86010d995250a2a97345415c15e7f38cde185500
Reciphers for ciphertext: 0
Decipheredtext:           0000000000000000000000000002000000
RESULT CIPHER-DECIPHER: -----OK-----


Test: 103
Crypto pad: 2
Symmetric key bit length: 128
IV bit length:            128
Plaintext bit length:     136
Symmetric key:            00000000000000000000000001000000
IV:                       00000000000000000000000001000000
Plaintext:                0000000000000000000000000001000000
Ciphertext:               2fe19df250af15c742448e58b5663652af2bd8e38c9e92fbb5997158328be7e393c05b16d065051eb4295fe6f7c6e7e2204b9744fa204dfee1c51790643ecc69
Reciphers for ciphertext: 0
Decipheredtext:           0000000000000000000000000001000000
RESULT CIPHER-DECIPHER: -----OK-----


Test: 104
Crypto pad: 0
Symmetric key bit length: 128
IV bit length:            128
Plaintext bit length:     136
Symmetric key:            00000000000000000000000000800000
IV:                       00000000000000000000000000800000
Plaintext:                0000000000000000000000000000800000
Ciphertext:               065328752462d0476a56f2d1c1286974f7bc1d0f94dfdd7e43e1641bf60e7784728774cd5d11a72cf9338aad15dc6f2f7c87aad82fdb1e1aab241f476608f6b1
Reciphers for ciphertext: 0
Decipheredtext:           0000000000000000000000000000800000
RESULT CIPHER-DECIPHER: -----OK-----


Test: 105
Crypto pad: 1
Symmetric key bit length: 128
IV bit length:            128
Plaintext bit length:     136
Symmetric key:            00000000000000000000000000400000
IV:                       00000000000000000000000000400000
Plaintext:                0000000000000000000000000000400000
Ciphertext:               b28f27c62144721d9104cb463a260df849c8c0c2efbfb57fc2cb30d78a8dcba0a6a7abd8e765e8484d788312634a3545b59e68b2e1de441b92d6134e688762c2
Reciphers for ciphertext: 0
Decipheredtext:           0000000000000000000000000000400000
RESULT CIPHER-DECIPHER: -----OK-----


Test: 106
Crypto pad: 2
Symmetric key bit length: 128
IV bit length:            128
Plaintext bit length:     136
Symmetric key:            00000000000000000000000000200000
IV:                       00000000000000000000000000200000
Plaintext:                0000000000000000000000000000200000
Ciphertext:               14f1ca37256f9b7fcb1b75b34e75a6853c4f784cfdc0701dab97df1214cb343363aa0f3992b9034ed43ebbdf04b90cfe3b7a4c77253b9b0f0ae1108b74583087
Reciphers for ciphertext: 0
Decipheredtext:           0000000000000000000000000000200000
RESULT CIPHER-DECIPHER: -----OK-----


Test: 107
Crypto pad: 0
Symmetric key bit length: 128
IV bit length:            128
Plaintext bit length:     136
Symmetric key:            00000000000000000000000000100000
IV:                       00000000000000000000000000100000
Plaintext:                0000000000000000000000000000100000
Ciphertext:               de5b51bc98857a52833c07efbfa873faba487c51b30f37db3df92554dcc37966a358b16fc4eab47132f8a0f011a59c36b8e3e5f836b1d0fd29ad367cb301760f
Reciphers for ciphertext: 0
Decipheredtext:           0000000000000000000000000000100000
RESULT CIPHER-DECIPHER: -----OK-----


Test: 108
Crypto pad: 0
Symmetric key bit length: 128
IV bit length:            128
Plaintext bit length:     136
Symmetric key:            00000000000000000000000000080000
IV:                       00000000000000000000000000080000
Plaintext:                0000000000000000000000000000080000
Ciphertext:               21a284f503d6e39a992060413783069ef0cbcaec29756169afe941f3ba41429fdcaef7cacde12a2526e1f6d5cc4455eb17a6d89e211ca0de4515f9c4a6d0321f
Reciphers for ciphertext: 0
Decipheredtext:           0000000000000000000000000000080000
RESULT CIPHER-DECIPHER: -----OK-----


Test: 109
Crypto pad: 1
Symmetric key bit length: 128
IV bit length:            128
Plaintext bit length:     136
Symmetric key:            00000000000000000000000000040000
IV:                       00000000000000000000000000040000
Plaintext:                0000000000000000000000000000040000
Ciphertext:               2f752cc736c8a0bfb00934838a0a322e57029349e22938cb49e7a3ce9a370e5e6e2c97cc33f9013ab60bb533df4ec85d95259faafcc34075188985b8f703ab6b
Reciphers for ciphertext: 0
Decipheredtext:           0000000000000000000000000000040000
RESULT CIPHER-DECIPHER: -----OK-----


Test: 110
Crypto pad: 2
Symmetric key bit length: 128
IV bit length:            128
Plaintext bit length:     136
Symmetric key:            00000000000000000000000000020000
IV:                       00000000000000000000000000020000
Plaintext:                0000000000000000000000000000020000
Ciphertext:               9edc3e54c743dbb9523a587aa89de6ba23f8630acd69a73f464616f5687c7a2810292b40a14e8657faf01104957ccfebf0a73e9358383b60ca5575931abb484c
Reciphers for ciphertext: 0
Decipheredtext:           0000000000000000000000000000020000
RESULT CIPHER-DECIPHER: -----OK-----


Test: 111
Crypto pad: 0
Symmetric key bit length: 128
IV bit length:            128
Plaintext bit length:     136
Symmetric key:            00000000000000000000000000010000
IV:                       00000000000000000000000000010000
Plaintext:                0000000000000000000000000000010000
Ciphertext:               dfbea711952133a68804f2ebfffb901059fd23b3736d4d0132301c93f4fa859600aff5df78c08912ac3770ec36b2601b8024bcdb07b8a1dae5eb7cd7f42e8ed4
Reciphers for ciphertext: 0
Decipheredtext:           0000000000000000000000000000010000
RESULT CIPHER-DECIPHER: -----OK-----


Test: 112
Crypto pad: 0
Symmetric key bit length: 128
IV bit length:            128
Plaintext bit length:     136
Symmetric key:            00000000000000000000000000008000
IV:                       00000000000000000000000000008000
Plaintext:                0000000000000000000000000000008000
Ciphertext:               7639800b95a884f85b92deb21fee8e4d6c078b3654c17b062aae2490603bdae44d3e4d3ce8f74e302ea37adbebb3a3a36e978ba05cade650f499ad2cee340af9
Reciphers for ciphertext: 0
Decipheredtext:           0000000000000000000000000000008000
RESULT CIPHER-DECIPHER: -----OK-----


Test: 113
Crypto pad: 0
Symmetric key bit length: 128
IV bit length:            128
Plaintext bit length:     136
Symmetric key:            00000000000000000000000000004000
IV:                       00000000000000000000000000004000
Plaintext:                0000000000000000000000000000004000
Ciphertext:               c6d2dba11df07625ccfedf5eefad91caaabf9b084863f89b2fd507307e90de02ca51ade1abd686084bbd235d82eb2cc741a04a994bc891b5176b2f8fd628477b
Reciphers for ciphertext: 0
Decipheredtext:           0000000000000000000000000000004000
RESULT CIPHER-DECIPHER: -----OK-----


Test: 114
Crypto pad: 0
Symmetric key bit length: 128
IV bit length:            128
Plaintext bit length:     136
Symmetric key:            00000000000000000000000000002000
IV:                       00000000000000000000000000002000
Plaintext:                0000000000000000000000000000002000
Ciphertext:               7c9fb8938d44fd14d4a2b78d2210ea83828079f8a0f71d732d6766f49654af4f87cad83801c5020211d5f65211f07c0230cc3072a379803a2c357bab3ce445fb
Reciphers for ciphertext: 0
Decipheredtext:           0000000000000000000000000000002000
RESULT CIPHER-DECIPHER: -----OK-----


Test: 115
Crypto pad: 1
Symmetric key bit length: 128
IV bit length:            128
Plaintext bit length:     136
Symmetric key:            00000000000000000000000000001000
IV:                       00000000000000000000000000001000
Plaintext:                0000000000000000000000000000001000
Ciphertext:               913fcd4ff66f813916fa8fb051170a6c9056e2f241cd99495beec7f7dec5f675ae50c84b619a6aa5a3eba2cbd82a6e3d11b06ffbd828dc1bfbe5f522712ce34a
Reciphers for ciphertext: 0
Decipheredtext:           0000000000000000000000000000001000
RESULT CIPHER-DECIPHER: -----OK-----


Test: 116
Crypto pad: 0
Symmetric key bit length: 128
IV bit length:            128
Plaintext bit length:     136
Symmetric key:            00000000000000000000000000000800
IV:                       00000000000000000000000000000800
Plaintext:                0000000000000000000000000000000800
Ciphertext:               492a1c7ad832928abb2b8064b6e7e69e17842884e571706250c5bf9134e60318b77edee05e23e7f6a1cdecd5e85b5412f0e4f438d84a5256b43960e4e6ebc8a6
Reciphers for ciphertext: 0
Decipheredtext:           0000000000000000000000000000000800
RESULT CIPHER-DECIPHER: -----OK-----


Test: 117
Crypto pad: 2
Symmetric key bit length: 128
IV bit length:            128
Plaintext bit length:     136
Symmetric key:            00000000000000000000000000000400
IV:                       00000000000000000000000000000400
Plaintext:                0000000000000000000000000000000400
Ciphertext:               a112d04891ae844a6fd41611800050bd10c9d77e9e13baf8f6a2326c063de407a920874a4779fd8adb8f6ef764583f5da8c14cad57eec8031a2d1eff97d3d0c2
Reciphers for ciphertext: 0
Decipheredtext:           0000000000000000000000000000000400
RESULT CIPHER-DECIPHER: -----OK-----


Test: 118
Crypto pad: 1
Symmetric key bit length: 128
IV bit length:            128
Plaintext bit length:     136
Symmetric key:            00000000000000000000000000000200
IV:                       00000000000000000000000000000200
Plaintext:                0000000000000000000000000000000200
Ciphertext:               0be4642d79143ea9bed76e80f0cdc868708c0244bda415fc1e2072609651abdccdd21be3d33327ccb16fd7ae4b62ac33fe44076163dae60ea373a52b9f977475
Reciphers for ciphertext: 0
Decipheredtext:           0000000000000000000000000000000200
RESULT CIPHER-DECIPHER: -----OK-----


Test: 119
Crypto pad: 2
Symmetric key bit length: 128
IV bit length:            128
Plaintext bit length:     136
Symmetric key:            00000000000000000000000000000100
IV:                       00000000000000000000000000000100
Plaintext:                0000000000000000000000000000000100
Ciphertext:               9cce2931e6ce2e77e54c7dc2373131de2efab6b859941cbec751f367f6c394c8fcbbb6f108863d0482f0dace4329bf6ea52d0ac64a927afaaa4e09bad1a7b703
Reciphers for ciphertext: 0
Decipheredtext:           0000000000000000000000000000000100
RESULT CIPHER-DECIPHER: -----OK-----


Test: 120
Crypto pad: 1
Symmetric key bit length: 128
IV bit length:            128
Plaintext bit length:     136
Symmetric key:            00000000000000000000000000000080
IV:                       00000000000000000000000000000080
Plaintext:                0000000000000000000000000000000080
Ciphertext:               163bc21902706c4b30ce6f6fd4a275d1f8ee6137712fa5031e33547e7ec02dbc163bc21902706c4b30ce6f6fd4a275d1e411a4a1bdafbb9b0d0f1e7400c98ea4
Reciphers for ciphertext: 0
Decipheredtext:           0000000000000000000000000000000080
RESULT CIPHER-DECIPHER: -----OK-----


Test: 121
Crypto pad: 2
Symmetric key bit length: 128
IV bit length:            128
Plaintext bit length:     136
Symmetric key:            00000000000000000000000000000040
IV:                       00000000000000000000000000000040
Plaintext:                0000000000000000000000000000000040
Ciphertext:               bb1a42f62180088a627bd0b5c8b057d51a17f18aa68c5ca067ffa9adc61f573fc34622546ed2314cd5e809c01f828dc4ead1d82303c62d18dbd3881b4b0e388c
Reciphers for ciphertext: 1
Decipheredtext:           0000000000000000000000000000000040
RESULT CIPHER-DECIPHER: -----OK-----


Test: 122
Crypto pad: 2
Symmetric key bit length: 128
IV bit length:            128
Plaintext bit length:     136
Symmetric key:            00000000000000000000000000000020
IV:                       00000000000000000000000000000020
Plaintext:                0000000000000000000000000000000020
Ciphertext:               daf2a24ecb7ffec21fa22e7ebee146f6fcd8ee2d2996d37d4c0ce8d459267e10daf2a24ecb7ffec21fa22e7ebee146f6e76912c248d69e412c38442edb4cef7f
Reciphers for ciphertext: 0
Decipheredtext:           0000000000000000000000000000000020
RESULT CIPHER-DECIPHER: -----OK-----


Test: 123
Crypto pad: 0
Symmetric key bit length: 128
IV bit length:            128
Plaintext bit length:     136
Symmetric key:            00000000000000000000000000000010
IV:                       00000000000000000000000000000010
Plaintext:                0000000000000000000000000000000010
Ciphertext:               cc1f4a644c6137d08f5796031ee08ddc6a0dcff0e765b9a14d1e8c76c907bc1acc1f4a644c6137d08f5796031ee08ddc1d40fc8c7b87afa8b23a6f7905eea090
Reciphers for ciphertext: 0
Decipheredtext:           0000000000000000000000000000000010
RESULT CIPHER-DECIPHER: -----OK-----


Test: 124
Crypto pad: 2
Symmetric key bit length: 128
IV bit length:            128
Plaintext bit length:     136
Symmetric key:            00000000000000000000000000000008
IV:                       00000000000000000000000000000008
Plaintext:                0000000000000000000000000000000008
Ciphertext:               74ea038c72c6659119fc02fd4dcf3edf5e90c4ba9df648de94fb568c5c9f496174ea038c72c6659119fc02fd4dcf3edfbfb5a920b9072357eee470bebf11efea
Reciphers for ciphertext: 0
Decipheredtext:           0000000000000000000000000000000008
RESULT CIPHER-DECIPHER: -----OK-----


Test: 125
Crypto pad: 1
Symmetric key bit length: 128
IV bit length:            128
Plaintext bit length:     136
Symmetric key:            00000000000000000000000000000004
IV:                       00000000000000000000000000000004
Plaintext:                0000000000000000000000000000000004
Ciphertext:               29a4ab13d8d75b5a1ccb3439b13830a98e98b3fb6273abd3e669d4c7addc662b29a4ab13d8d75b5a1ccb3439b13830a90e0ed5321ba55549b072112a006cdd57
Reciphers for ciphertext: 0
Decipheredtext:           0000000000000000000000000000000004
RESULT CIPHER-DECIPHER: -----OK-----


Test: 126
Crypto pad: 1
Symmetric key bit length: 128
IV bit length:            128
Plaintext bit length:     136
Symmetric key:            00000000000000000000000000000002
IV:                       00000000000000000000000000000002
Plaintext:                0000000000000000000000000000000002
Ciphertext:               ec493ce72ae69b4030fc6430dcb5ca54388446ed94a42e742751065b44d99e02ec493ce72ae69b4030fc6430dcb5ca547f74269351ceb8164f42155a9bc6bb9b
Reciphers for ciphertext: 0
Decipheredtext:           0000000000000000000000000000000002
RESULT CIPHER-DECIPHER: -----OK-----


Test: 127
Crypto pad: 2
Symmetric key bit length: 128
IV bit length:            128
Plaintext bit length:     136
Symmetric key:            00000000000000000000000000000001
IV:                       00000000000000000000000000000001
Plaintext:                0000000000000000000000000000000001
Ciphertext:               b89ada41790360778037a210af3d9958ee8bded65e0c2a97b431ecff2176b3fcb89ada41790360778037a210af3d9958fbe096e3c74de3c00ea31e16bc105c6b
Reciphers for ciphertext: 0
Decipheredtext:           0000000000000000000000000000000001
RESULT CIPHER-DECIPHER: -----OK-----


 DATA SHA1 (hexadecimal): 3d8c494e35657be62a54b760e6521b6e5caa853a

