
DiceLock 9.0.0.1

 TEST COMPONENTS:
 ----------------
 DiceLock:           DiceLockIVIndexed class
 Operation Mode:     CBC_Mode class
 Crypto pads:        0 - ANSI_X_923 class
                     1 - ISO_IEC_9797_1 class
                     2 - PKCS7 class
 Block Cipher:       Twofish192 class
 Key Modifier:       IncreaseBase0IndexModifier_6_0_0_1 class
   Index bit length: 192
 Random tests:       RandomTestSuite class
                     FrequencyTest class
                     BlockFrequencyTest class
                     CumulativeSumForwardTest class
                     LongestRunOfOnesTest class
                     RunsTest class
 Random alpha:       0.001

 VECTOR TEST: Test vector 2 - Changing plaintext, shifting 1 bit set


##### INDIVIDUAL TESTS #####

Number tests: 128


Test: 0
Crypto pad: 1
Symmetric key bit length: 192
IV bit length:            128
Plaintext bit length:     128
Symmetric key:            000000000000000000000000000000000000000000000000
IV:                       00000000000000000000000000000000
Plaintext:                80000000000000000000000000000000
Ciphertext:               efa71f788965bd4453f860178fc19101222ef4f97b1bb1a87d9cacf771529d3362ef193edb7d399aca50ec1cbe5398d8fcbd4c874cf35738bbddfeaddc3673a0
Reciphers for ciphertext: 0
Decipheredtext:           80000000000000000000000000000000
RESULT CIPHER-DECIPHER: -----OK-----


Test: 1
Crypto pad: 0
Symmetric key bit length: 192
IV bit length:            128
Plaintext bit length:     128
Symmetric key:            000000000000000000000000000000000000000000000000
IV:                       00000000000000000000000000000000
Plaintext:                40000000000000000000000000000000
Ciphertext:               efa71f788965bd4453f860178fc19101b74d061061452c969424d5c9decb4883e7a58d547688ba8b69da949e38aa6fadad43ab05db23b1d31e205a68f1380151
Reciphers for ciphertext: 0
Decipheredtext:           40000000000000000000000000000000
RESULT CIPHER-DECIPHER: -----OK-----


Test: 2
Crypto pad: 0
Symmetric key bit length: 192
IV bit length:            128
Plaintext bit length:     128
Symmetric key:            000000000000000000000000000000000000000000000000
IV:                       00000000000000000000000000000000
Plaintext:                20000000000000000000000000000000
Ciphertext:               efa71f788965bd4453f860178fc19101b74d061061452c969424d5c9decb488371579f70a8edb2ba5c00c513e2d7deeb0e23e134b42fd7bafbaf5149028f5de8
Reciphers for ciphertext: 0
Decipheredtext:           20000000000000000000000000000000
RESULT CIPHER-DECIPHER: -----OK-----


Test: 3
Crypto pad: 1
Symmetric key bit length: 192
IV bit length:            128
Plaintext bit length:     128
Symmetric key:            000000000000000000000000000000000000000000000000
IV:                       00000000000000000000000000000000
Plaintext:                10000000000000000000000000000000
Ciphertext:               efa71f788965bd4453f860178fc19101222ef4f97b1bb1a87d9cacf771529d33c6171ef892f8224dc5fae230af629f522bd687b1727b55f58eccbf4b9676c50c
Reciphers for ciphertext: 0
Decipheredtext:           10000000000000000000000000000000
RESULT CIPHER-DECIPHER: -----OK-----


Test: 4
Crypto pad: 1
Symmetric key bit length: 192
IV bit length:            128
Plaintext bit length:     128
Symmetric key:            000000000000000000000000000000000000000000000000
IV:                       00000000000000000000000000000000
Plaintext:                08000000000000000000000000000000
Ciphertext:               efa71f788965bd4453f860178fc19101222ef4f97b1bb1a87d9cacf771529d33c6a61053c48d7ecd7ddd12db0f316ad7077d1bb79c10915c1fa37d940d5849f9
Reciphers for ciphertext: 0
Decipheredtext:           08000000000000000000000000000000
RESULT CIPHER-DECIPHER: -----OK-----


Test: 5
Crypto pad: 2
Symmetric key bit length: 192
IV bit length:            128
Plaintext bit length:     128
Symmetric key:            000000000000000000000000000000000000000000000000
IV:                       00000000000000000000000000000000
Plaintext:                04000000000000000000000000000000
Ciphertext:               efa71f788965bd4453f860178fc19101c845cd3e6842f847b4833a9020b4d20aea5833714f1324dab7f53cacc63f784f5ebec6e6165b4a6eaaff6ff6c2fac077
Reciphers for ciphertext: 0
Decipheredtext:           04000000000000000000000000000000
RESULT CIPHER-DECIPHER: -----OK-----


Test: 6
Crypto pad: 2
Symmetric key bit length: 192
IV bit length:            128
Plaintext bit length:     128
Symmetric key:            000000000000000000000000000000000000000000000000
IV:                       00000000000000000000000000000000
Plaintext:                02000000000000000000000000000000
Ciphertext:               efa71f788965bd4453f860178fc19101c845cd3e6842f847b4833a9020b4d20a450bcb0c7351cb1cdac5d02e80d13c64d4f9e9aba5069d457ccec1a3418255b9
Reciphers for ciphertext: 0
Decipheredtext:           02000000000000000000000000000000
RESULT CIPHER-DECIPHER: -----OK-----


Test: 7
Crypto pad: 0
Symmetric key bit length: 192
IV bit length:            128
Plaintext bit length:     128
Symmetric key:            000000000000000000000000000000000000000000000000
IV:                       00000000000000000000000000000000
Plaintext:                01000000000000000000000000000000
Ciphertext:               efa71f788965bd4453f860178fc19101b74d061061452c969424d5c9decb4883c267d3634f84215fb7b4635afa385e5293da9aac7e4f6a031b1907518cc86839
Reciphers for ciphertext: 0
Decipheredtext:           01000000000000000000000000000000
RESULT CIPHER-DECIPHER: -----OK-----


Test: 8
Crypto pad: 1
Symmetric key bit length: 192
IV bit length:            128
Plaintext bit length:     128
Symmetric key:            000000000000000000000000000000000000000000000000
IV:                       00000000000000000000000000000000
Plaintext:                00800000000000000000000000000000
Ciphertext:               efa71f788965bd4453f860178fc19101222ef4f97b1bb1a87d9cacf771529d336db5b1b156da1c36b9ab5ab59b063c29f5a8662899c79c791f3216a936849638
Reciphers for ciphertext: 0
Decipheredtext:           00800000000000000000000000000000
RESULT CIPHER-DECIPHER: -----OK-----


Test: 9
Crypto pad: 1
Symmetric key bit length: 192
IV bit length:            128
Plaintext bit length:     128
Symmetric key:            000000000000000000000000000000000000000000000000
IV:                       00000000000000000000000000000000
Plaintext:                00400000000000000000000000000000
Ciphertext:               efa71f788965bd4453f860178fc19101222ef4f97b1bb1a87d9cacf771529d33edf2d9b19ff75561e8fa6f411c4a0431781037f863ef78e59670371d9e6fdd48
Reciphers for ciphertext: 0
Decipheredtext:           00400000000000000000000000000000
RESULT CIPHER-DECIPHER: -----OK-----


Test: 10
Crypto pad: 1
Symmetric key bit length: 192
IV bit length:            128
Plaintext bit length:     128
Symmetric key:            000000000000000000000000000000000000000000000000
IV:                       00000000000000000000000000000000
Plaintext:                00200000000000000000000000000000
Ciphertext:               efa71f788965bd4453f860178fc19101222ef4f97b1bb1a87d9cacf771529d33a11ae84e6d2c56ded2b9497fec7504a74ae885a644149ad433fb5da49ee0d7be
Reciphers for ciphertext: 0
Decipheredtext:           00200000000000000000000000000000
RESULT CIPHER-DECIPHER: -----OK-----


Test: 11
Crypto pad: 0
Symmetric key bit length: 192
IV bit length:            128
Plaintext bit length:     128
Symmetric key:            000000000000000000000000000000000000000000000000
IV:                       00000000000000000000000000000000
Plaintext:                00100000000000000000000000000000
Ciphertext:               efa71f788965bd4453f860178fc19101b74d061061452c969424d5c9decb4883b3a1a1e271bf94da3a5ecff1d4293a56a3f39ccf650eb5b36d8002b9856733f6
Reciphers for ciphertext: 0
Decipheredtext:           00100000000000000000000000000000
RESULT CIPHER-DECIPHER: -----OK-----


Test: 12
Crypto pad: 2
Symmetric key bit length: 192
IV bit length:            128
Plaintext bit length:     128
Symmetric key:            000000000000000000000000000000000000000000000000
IV:                       00000000000000000000000000000000
Plaintext:                00080000000000000000000000000000
Ciphertext:               efa71f788965bd4453f860178fc19101c845cd3e6842f847b4833a9020b4d20a5577374adcf2f58eeeffc432c42aeb76e95ec3dbee890c16864c7773741b42a4
Reciphers for ciphertext: 0
Decipheredtext:           00080000000000000000000000000000
RESULT CIPHER-DECIPHER: -----OK-----


Test: 13
Crypto pad: 2
Symmetric key bit length: 192
IV bit length:            128
Plaintext bit length:     128
Symmetric key:            000000000000000000000000000000000000000000000000
IV:                       00000000000000000000000000000000
Plaintext:                00040000000000000000000000000000
Ciphertext:               efa71f788965bd4453f860178fc19101c845cd3e6842f847b4833a9020b4d20acd9d355c3574343bc7fbe645ce7ea721f742fb864b8440ff1d16d5088408cfae
Reciphers for ciphertext: 0
Decipheredtext:           00040000000000000000000000000000
RESULT CIPHER-DECIPHER: -----OK-----


Test: 14
Crypto pad: 0
Symmetric key bit length: 192
IV bit length:            128
Plaintext bit length:     128
Symmetric key:            000000000000000000000000000000000000000000000000
IV:                       00000000000000000000000000000000
Plaintext:                00020000000000000000000000000000
Ciphertext:               efa71f788965bd4453f860178fc19101b74d061061452c969424d5c9decb488376eb4c046f052ae4ed41060bf60067fb9437679c2ef1590e9c4d94c15ff80e22
Reciphers for ciphertext: 0
Decipheredtext:           00020000000000000000000000000000
RESULT CIPHER-DECIPHER: -----OK-----


Test: 15
Crypto pad: 1
Symmetric key bit length: 192
IV bit length:            128
Plaintext bit length:     128
Symmetric key:            000000000000000000000000000000000000000000000000
IV:                       00000000000000000000000000000000
Plaintext:                00010000000000000000000000000000
Ciphertext:               efa71f788965bd4453f860178fc19101222ef4f97b1bb1a87d9cacf771529d331273a4bc420bcc9e29619567b1e61762dfa3733839c701ddf3be624599b5b971
Reciphers for ciphertext: 0
Decipheredtext:           00010000000000000000000000000000
RESULT CIPHER-DECIPHER: -----OK-----


Test: 16
Crypto pad: 1
Symmetric key bit length: 192
IV bit length:            128
Plaintext bit length:     128
Symmetric key:            000000000000000000000000000000000000000000000000
IV:                       00000000000000000000000000000000
Plaintext:                00008000000000000000000000000000
Ciphertext:               efa71f788965bd4453f860178fc19101222ef4f97b1bb1a87d9cacf771529d331f80e1ce3f12c96f2e647bacb6da78d81555291d52977c65c3f1981f246e49af
Reciphers for ciphertext: 0
Decipheredtext:           00008000000000000000000000000000
RESULT CIPHER-DECIPHER: -----OK-----


Test: 17
Crypto pad: 0
Symmetric key bit length: 192
IV bit length:            128
Plaintext bit length:     128
Symmetric key:            000000000000000000000000000000000000000000000000
IV:                       00000000000000000000000000000000
Plaintext:                00004000000000000000000000000000
Ciphertext:               efa71f788965bd4453f860178fc19101b74d061061452c969424d5c9decb488312d34a7875e716b37a7e250d37affdea0644815301044a4d37a68f655d26388e
Reciphers for ciphertext: 0
Decipheredtext:           00004000000000000000000000000000
RESULT CIPHER-DECIPHER: -----OK-----


Test: 18
Crypto pad: 2
Symmetric key bit length: 192
IV bit length:            128
Plaintext bit length:     128
Symmetric key:            000000000000000000000000000000000000000000000000
IV:                       00000000000000000000000000000000
Plaintext:                00002000000000000000000000000000
Ciphertext:               efa71f788965bd4453f860178fc19101c845cd3e6842f847b4833a9020b4d20a5a54d764eeffc4b64143a58b071514b4da9e3a777c972b55b0f45bd6b1e6987f
Reciphers for ciphertext: 0
Decipheredtext:           00002000000000000000000000000000
RESULT CIPHER-DECIPHER: -----OK-----


Test: 19
Crypto pad: 1
Symmetric key bit length: 192
IV bit length:            128
Plaintext bit length:     128
Symmetric key:            000000000000000000000000000000000000000000000000
IV:                       00000000000000000000000000000000
Plaintext:                00001000000000000000000000000000
Ciphertext:               efa71f788965bd4453f860178fc19101222ef4f97b1bb1a87d9cacf771529d33f4f1567bdc5b1f938d5a214419090fe00ea5a3f73f91ee06c83bfdd6d7c3829b
Reciphers for ciphertext: 0
Decipheredtext:           00001000000000000000000000000000
RESULT CIPHER-DECIPHER: -----OK-----


Test: 20
Crypto pad: 0
Symmetric key bit length: 192
IV bit length:            128
Plaintext bit length:     128
Symmetric key:            000000000000000000000000000000000000000000000000
IV:                       00000000000000000000000000000000
Plaintext:                00000800000000000000000000000000
Ciphertext:               efa71f788965bd4453f860178fc19101b74d061061452c969424d5c9decb48836cb91b935a0fbf49636cdf64a12955b7b2dfdf7c822042144665b6cf75037e93
Reciphers for ciphertext: 0
Decipheredtext:           00000800000000000000000000000000
RESULT CIPHER-DECIPHER: -----OK-----


Test: 21
Crypto pad: 1
Symmetric key bit length: 192
IV bit length:            128
Plaintext bit length:     128
Symmetric key:            000000000000000000000000000000000000000000000000
IV:                       00000000000000000000000000000000
Plaintext:                00000400000000000000000000000000
Ciphertext:               efa71f788965bd4453f860178fc19101222ef4f97b1bb1a87d9cacf771529d33c082154a07af64ff6eca811b0e3302e698ca7dd194ece35c53bfa74201d6125a
Reciphers for ciphertext: 0
Decipheredtext:           00000400000000000000000000000000
RESULT CIPHER-DECIPHER: -----OK-----


Test: 22
Crypto pad: 0
Symmetric key bit length: 192
IV bit length:            128
Plaintext bit length:     128
Symmetric key:            000000000000000000000000000000000000000000000000
IV:                       00000000000000000000000000000000
Plaintext:                00000200000000000000000000000000
Ciphertext:               efa71f788965bd4453f860178fc19101b74d061061452c969424d5c9decb488349a746cc225c1b6009a93649cdd9edcdb1e760674c6057b0ac1fa9c049c60d68
Reciphers for ciphertext: 0
Decipheredtext:           00000200000000000000000000000000
RESULT CIPHER-DECIPHER: -----OK-----


Test: 23
Crypto pad: 2
Symmetric key bit length: 192
IV bit length:            128
Plaintext bit length:     128
Symmetric key:            000000000000000000000000000000000000000000000000
IV:                       00000000000000000000000000000000
Plaintext:                00000100000000000000000000000000
Ciphertext:               efa71f788965bd4453f860178fc19101c845cd3e6842f847b4833a9020b4d20a1cad0512e3cc51210b411ee452df62e40c49f00feead5d37910b0be3ccc21efe
Reciphers for ciphertext: 0
Decipheredtext:           00000100000000000000000000000000
RESULT CIPHER-DECIPHER: -----OK-----


Test: 24
Crypto pad: 0
Symmetric key bit length: 192
IV bit length:            128
Plaintext bit length:     128
Symmetric key:            000000000000000000000000000000000000000000000000
IV:                       00000000000000000000000000000000
Plaintext:                00000080000000000000000000000000
Ciphertext:               efa71f788965bd4453f860178fc19101b74d061061452c969424d5c9decb48834fe9a0cf34bbcfff906d8450197cc9d14473e35afcee6c37fea660ecfbe1f662
Reciphers for ciphertext: 0
Decipheredtext:           00000080000000000000000000000000
RESULT CIPHER-DECIPHER: -----OK-----


Test: 25
Crypto pad: 1
Symmetric key bit length: 192
IV bit length:            128
Plaintext bit length:     128
Symmetric key:            000000000000000000000000000000000000000000000000
IV:                       00000000000000000000000000000000
Plaintext:                00000040000000000000000000000000
Ciphertext:               efa71f788965bd4453f860178fc19101222ef4f97b1bb1a87d9cacf771529d3338db8ef6c8993f17bb4d1614b9de15d4cfad05bb271249b14192a7c24cf6801c
Reciphers for ciphertext: 0
Decipheredtext:           00000040000000000000000000000000
RESULT CIPHER-DECIPHER: -----OK-----


Test: 26
Crypto pad: 2
Symmetric key bit length: 192
IV bit length:            128
Plaintext bit length:     128
Symmetric key:            000000000000000000000000000000000000000000000000
IV:                       00000000000000000000000000000000
Plaintext:                00000020000000000000000000000000
Ciphertext:               efa71f788965bd4453f860178fc19101c845cd3e6842f847b4833a9020b4d20a08db3f476f551d19d9643a9e139e05530e64ac7bffebab7104028b052223543d
Reciphers for ciphertext: 0
Decipheredtext:           00000020000000000000000000000000
RESULT CIPHER-DECIPHER: -----OK-----


Test: 27
Crypto pad: 0
Symmetric key bit length: 192
IV bit length:            128
Plaintext bit length:     128
Symmetric key:            000000000000000000000000000000000000000000000000
IV:                       00000000000000000000000000000000
Plaintext:                00000010000000000000000000000000
Ciphertext:               efa71f788965bd4453f860178fc19101b74d061061452c969424d5c9decb4883f0f518f73795ab51bfb6e0aa99a0dac7adf9770f89cfd3d0924742310f61edf0
Reciphers for ciphertext: 0
Decipheredtext:           00000010000000000000000000000000
RESULT CIPHER-DECIPHER: -----OK-----


Test: 28
Crypto pad: 0
Symmetric key bit length: 192
IV bit length:            128
Plaintext bit length:     128
Symmetric key:            000000000000000000000000000000000000000000000000
IV:                       00000000000000000000000000000000
Plaintext:                00000008000000000000000000000000
Ciphertext:               efa71f788965bd4453f860178fc19101b74d061061452c969424d5c9decb488391544d597f679e7dfe6d16d47580985146b01625ae1fa2ba4366bb5f0b922ff2
Reciphers for ciphertext: 0
Decipheredtext:           00000008000000000000000000000000
RESULT CIPHER-DECIPHER: -----OK-----


Test: 29
Crypto pad: 1
Symmetric key bit length: 192
IV bit length:            128
Plaintext bit length:     128
Symmetric key:            000000000000000000000000000000000000000000000000
IV:                       00000000000000000000000000000000
Plaintext:                00000004000000000000000000000000
Ciphertext:               efa71f788965bd4453f860178fc19101222ef4f97b1bb1a87d9cacf771529d33b1f92601b6d8c6b81176a46ee7341d286cbcdb4df08e6f56773759eb2e2ce679
Reciphers for ciphertext: 0
Decipheredtext:           00000004000000000000000000000000
RESULT CIPHER-DECIPHER: -----OK-----


Test: 30
Crypto pad: 0
Symmetric key bit length: 192
IV bit length:            128
Plaintext bit length:     128
Symmetric key:            000000000000000000000000000000000000000000000000
IV:                       00000000000000000000000000000000
Plaintext:                00000002000000000000000000000000
Ciphertext:               efa71f788965bd4453f860178fc19101b74d061061452c969424d5c9decb4883796c3a8cbc6450e51fa6f8765acd0f109eabc20be22c3d871d39f5fa56b270ab
Reciphers for ciphertext: 0
Decipheredtext:           00000002000000000000000000000000
RESULT CIPHER-DECIPHER: -----OK-----


Test: 31
Crypto pad: 1
Symmetric key bit length: 192
IV bit length:            128
Plaintext bit length:     128
Symmetric key:            000000000000000000000000000000000000000000000000
IV:                       00000000000000000000000000000000
Plaintext:                00000001000000000000000000000000
Ciphertext:               efa71f788965bd4453f860178fc19101222ef4f97b1bb1a87d9cacf771529d335f7bfe71bd2e81599dda3411bc1ca5796bc85f4b889b1a0182f1c2b686a16bef
Reciphers for ciphertext: 0
Decipheredtext:           00000001000000000000000000000000
RESULT CIPHER-DECIPHER: -----OK-----


Test: 32
Crypto pad: 1
Symmetric key bit length: 192
IV bit length:            128
Plaintext bit length:     128
Symmetric key:            000000000000000000000000000000000000000000000000
IV:                       00000000000000000000000000000000
Plaintext:                00000000800000000000000000000000
Ciphertext:               efa71f788965bd4453f860178fc19101222ef4f97b1bb1a87d9cacf771529d332df7d576ec6296101cab16012092c12c7bd02e71c1b1d92294d48a61d9c0d55b
Reciphers for ciphertext: 0
Decipheredtext:           00000000800000000000000000000000
RESULT CIPHER-DECIPHER: -----OK-----


Test: 33
Crypto pad: 2
Symmetric key bit length: 192
IV bit length:            128
Plaintext bit length:     128
Symmetric key:            000000000000000000000000000000000000000000000000
IV:                       00000000000000000000000000000000
Plaintext:                00000000400000000000000000000000
Ciphertext:               efa71f788965bd4453f860178fc19101c845cd3e6842f847b4833a9020b4d20a20769de071fbe22ae49e7b3f5d64641853695c66cd5bf711fa2d737491ba572b
Reciphers for ciphertext: 0
Decipheredtext:           00000000400000000000000000000000
RESULT CIPHER-DECIPHER: -----OK-----


Test: 34
Crypto pad: 0
Symmetric key bit length: 192
IV bit length:            128
Plaintext bit length:     128
Symmetric key:            000000000000000000000000000000000000000000000000
IV:                       00000000000000000000000000000000
Plaintext:                00000000200000000000000000000000
Ciphertext:               efa71f788965bd4453f860178fc19101b74d061061452c969424d5c9decb4883b6f5c012e4ba15dc86536f328b137fc0ff880957f2c28c4114ebe9243cf6c8fc
Reciphers for ciphertext: 0
Decipheredtext:           00000000200000000000000000000000
RESULT CIPHER-DECIPHER: -----OK-----


Test: 35
Crypto pad: 1
Symmetric key bit length: 192
IV bit length:            128
Plaintext bit length:     128
Symmetric key:            000000000000000000000000000000000000000000000000
IV:                       00000000000000000000000000000000
Plaintext:                00000000100000000000000000000000
Ciphertext:               efa71f788965bd4453f860178fc19101222ef4f97b1bb1a87d9cacf771529d331c3031dd05eaa4c278b55ef0e7e4c1f908b1f7c5b379c677270f7d97cfaad111
Reciphers for ciphertext: 0
Decipheredtext:           00000000100000000000000000000000
RESULT CIPHER-DECIPHER: -----OK-----


Test: 36
Crypto pad: 2
Symmetric key bit length: 192
IV bit length:            128
Plaintext bit length:     128
Symmetric key:            000000000000000000000000000000000000000000000000
IV:                       00000000000000000000000000000000
Plaintext:                00000000080000000000000000000000
Ciphertext:               efa71f788965bd4453f860178fc19101c845cd3e6842f847b4833a9020b4d20a3d72a53bd537d04ac59e0af36d105ed98cc2ddccd5f51f18059bed35a3751b58
Reciphers for ciphertext: 0
Decipheredtext:           00000000080000000000000000000000
RESULT CIPHER-DECIPHER: -----OK-----


Test: 37
Crypto pad: 1
Symmetric key bit length: 192
IV bit length:            128
Plaintext bit length:     128
Symmetric key:            000000000000000000000000000000000000000000000000
IV:                       00000000000000000000000000000000
Plaintext:                00000000040000000000000000000000
Ciphertext:               efa71f788965bd4453f860178fc19101222ef4f97b1bb1a87d9cacf771529d33a6ffe499a2050c38f4e89dbf12b274305878525df4f84be1fb08f7acd3295c16
Reciphers for ciphertext: 0
Decipheredtext:           00000000040000000000000000000000
RESULT CIPHER-DECIPHER: -----OK-----


Test: 38
Crypto pad: 0
Symmetric key bit length: 192
IV bit length:            128
Plaintext bit length:     128
Symmetric key:            000000000000000000000000000000000000000000000000
IV:                       00000000000000000000000000000000
Plaintext:                00000000020000000000000000000000
Ciphertext:               efa71f788965bd4453f860178fc19101b74d061061452c969424d5c9decb4883bfbb2a537b2c1339d6230f35a256f289395ae7ad5ae2ce4e9471a0e2a6bbf8fb
Reciphers for ciphertext: 0
Decipheredtext:           00000000020000000000000000000000
RESULT CIPHER-DECIPHER: -----OK-----


Test: 39
Crypto pad: 2
Symmetric key bit length: 192
IV bit length:            128
Plaintext bit length:     128
Symmetric key:            000000000000000000000000000000000000000000000000
IV:                       00000000000000000000000000000000
Plaintext:                00000000010000000000000000000000
Ciphertext:               efa71f788965bd4453f860178fc19101c845cd3e6842f847b4833a9020b4d20a70e79718c97ddb187411436ac072b148059b83a921a35fcf1d0b50d186e35873
Reciphers for ciphertext: 0
Decipheredtext:           00000000010000000000000000000000
RESULT CIPHER-DECIPHER: -----OK-----


Test: 40
Crypto pad: 1
Symmetric key bit length: 192
IV bit length:            128
Plaintext bit length:     128
Symmetric key:            000000000000000000000000000000000000000000000000
IV:                       00000000000000000000000000000000
Plaintext:                00000000008000000000000000000000
Ciphertext:               efa71f788965bd4453f860178fc19101222ef4f97b1bb1a87d9cacf771529d3313bb56699085842b81dbe8faa8b26269dd44c2d33c8a5e4197504bd1249e76ae
Reciphers for ciphertext: 0
Decipheredtext:           00000000008000000000000000000000
RESULT CIPHER-DECIPHER: -----OK-----


Test: 41
Crypto pad: 1
Symmetric key bit length: 192
IV bit length:            128
Plaintext bit length:     128
Symmetric key:            000000000000000000000000000000000000000000000000
IV:                       00000000000000000000000000000000
Plaintext:                00000000004000000000000000000000
Ciphertext:               efa71f788965bd4453f860178fc19101222ef4f97b1bb1a87d9cacf771529d333e4db71b9c737c7f8aef632a5adef61d20ad5c6f6ffa12a1348a074ad939dd48
Reciphers for ciphertext: 0
Decipheredtext:           00000000004000000000000000000000
RESULT CIPHER-DECIPHER: -----OK-----


Test: 42
Crypto pad: 0
Symmetric key bit length: 192
IV bit length:            128
Plaintext bit length:     128
Symmetric key:            000000000000000000000000000000000000000000000000
IV:                       00000000000000000000000000000000
Plaintext:                00000000002000000000000000000000
Ciphertext:               efa71f788965bd4453f860178fc19101b74d061061452c969424d5c9decb4883d7a254b7341c7677c72f9de729a3bb7846ea471214463870db2559d84160e014
Reciphers for ciphertext: 0
Decipheredtext:           00000000002000000000000000000000
RESULT CIPHER-DECIPHER: -----OK-----


Test: 43
Crypto pad: 0
Symmetric key bit length: 192
IV bit length:            128
Plaintext bit length:     128
Symmetric key:            000000000000000000000000000000000000000000000000
IV:                       00000000000000000000000000000000
Plaintext:                00000000001000000000000000000000
Ciphertext:               efa71f788965bd4453f860178fc19101b74d061061452c969424d5c9decb4883527d14e58b74224622df7f3fd65932f525b1c6e53d3303117ed27c96ceb26408
Reciphers for ciphertext: 0
Decipheredtext:           00000000001000000000000000000000
RESULT CIPHER-DECIPHER: -----OK-----


Test: 44
Crypto pad: 0
Symmetric key bit length: 192
IV bit length:            128
Plaintext bit length:     128
Symmetric key:            000000000000000000000000000000000000000000000000
IV:                       00000000000000000000000000000000
Plaintext:                00000000000800000000000000000000
Ciphertext:               efa71f788965bd4453f860178fc19101b74d061061452c969424d5c9decb4883708703993ad1dde5c7f8714686f3af32f8e4a3587b4061877b9bbd3b83e02921
Reciphers for ciphertext: 0
Decipheredtext:           00000000000800000000000000000000
RESULT CIPHER-DECIPHER: -----OK-----


Test: 45
Crypto pad: 0
Symmetric key bit length: 192
IV bit length:            128
Plaintext bit length:     128
Symmetric key:            000000000000000000000000000000000000000000000000
IV:                       00000000000000000000000000000000
Plaintext:                00000000000400000000000000000000
Ciphertext:               efa71f788965bd4453f860178fc19101b74d061061452c969424d5c9decb4883c57d3ecb71a7da4708de6f338bc13e0964c9f54d3e006094b9192ffef2e6f6f8
Reciphers for ciphertext: 0
Decipheredtext:           00000000000400000000000000000000
RESULT CIPHER-DECIPHER: -----OK-----


Test: 46
Crypto pad: 0
Symmetric key bit length: 192
IV bit length:            128
Plaintext bit length:     128
Symmetric key:            000000000000000000000000000000000000000000000000
IV:                       00000000000000000000000000000000
Plaintext:                00000000000200000000000000000000
Ciphertext:               efa71f788965bd4453f860178fc19101b74d061061452c969424d5c9decb4883b31ff60be0fdc17001caf87fc7fc0b2d0f3003463961731c25e9d659eed4aa35
Reciphers for ciphertext: 0
Decipheredtext:           00000000000200000000000000000000
RESULT CIPHER-DECIPHER: -----OK-----


Test: 47
Crypto pad: 0
Symmetric key bit length: 192
IV bit length:            128
Plaintext bit length:     128
Symmetric key:            000000000000000000000000000000000000000000000000
IV:                       00000000000000000000000000000000
Plaintext:                00000000000100000000000000000000
Ciphertext:               efa71f788965bd4453f860178fc19101b74d061061452c969424d5c9decb488301877ac646a283472da74182fdc1e2b56f08775874a469db9145f22ac1ba9108
Reciphers for ciphertext: 0
Decipheredtext:           00000000000100000000000000000000
RESULT CIPHER-DECIPHER: -----OK-----


Test: 48
Crypto pad: 2
Symmetric key bit length: 192
IV bit length:            128
Plaintext bit length:     128
Symmetric key:            000000000000000000000000000000000000000000000000
IV:                       00000000000000000000000000000000
Plaintext:                00000000000080000000000000000000
Ciphertext:               efa71f788965bd4453f860178fc19101c845cd3e6842f847b4833a9020b4d20a3c678bada3fb1b872c018dc035ae16e82d1af3ead66f4858149acb9252939cc8
Reciphers for ciphertext: 0
Decipheredtext:           00000000000080000000000000000000
RESULT CIPHER-DECIPHER: -----OK-----


Test: 49
Crypto pad: 1
Symmetric key bit length: 192
IV bit length:            128
Plaintext bit length:     128
Symmetric key:            000000000000000000000000000000000000000000000000
IV:                       00000000000000000000000000000000
Plaintext:                00000000000040000000000000000000
Ciphertext:               efa71f788965bd4453f860178fc19101222ef4f97b1bb1a87d9cacf771529d33a2cb209da6aa40e043e6fb9dd2476100879a6ada9a8774068cf4f215ed017ec2
Reciphers for ciphertext: 0
Decipheredtext:           00000000000040000000000000000000
RESULT CIPHER-DECIPHER: -----OK-----


Test: 50
Crypto pad: 2
Symmetric key bit length: 192
IV bit length:            128
Plaintext bit length:     128
Symmetric key:            000000000000000000000000000000000000000000000000
IV:                       00000000000000000000000000000000
Plaintext:                00000000000020000000000000000000
Ciphertext:               efa71f788965bd4453f860178fc19101c845cd3e6842f847b4833a9020b4d20a4f9402ff56d04c8fb37dbe1a3109d2de133d90de9032c35b477a0545ccb81a3d
Reciphers for ciphertext: 0
Decipheredtext:           00000000000020000000000000000000
RESULT CIPHER-DECIPHER: -----OK-----


Test: 51
Crypto pad: 2
Symmetric key bit length: 192
IV bit length:            128
Plaintext bit length:     128
Symmetric key:            000000000000000000000000000000000000000000000000
IV:                       00000000000000000000000000000000
Plaintext:                00000000000010000000000000000000
Ciphertext:               efa71f788965bd4453f860178fc19101c845cd3e6842f847b4833a9020b4d20a342daad90f0f1699048d5cd16fda2ec7e5160eff4498c52d920a95d4c0cc52c5
Reciphers for ciphertext: 0
Decipheredtext:           00000000000010000000000000000000
RESULT CIPHER-DECIPHER: -----OK-----


Test: 52
Crypto pad: 0
Symmetric key bit length: 192
IV bit length:            128
Plaintext bit length:     128
Symmetric key:            000000000000000000000000000000000000000000000000
IV:                       00000000000000000000000000000000
Plaintext:                00000000000008000000000000000000
Ciphertext:               efa71f788965bd4453f860178fc19101b74d061061452c969424d5c9decb4883e68cc86ca4d952bc3890aec0a7aaa4b5fc035ed53b788acd2024f4393ee19347
Reciphers for ciphertext: 0
Decipheredtext:           00000000000008000000000000000000
RESULT CIPHER-DECIPHER: -----OK-----


Test: 53
Crypto pad: 0
Symmetric key bit length: 192
IV bit length:            128
Plaintext bit length:     128
Symmetric key:            000000000000000000000000000000000000000000000000
IV:                       00000000000000000000000000000000
Plaintext:                00000000000004000000000000000000
Ciphertext:               efa71f788965bd4453f860178fc19101b74d061061452c969424d5c9decb488302a88364bf94a677124f670a566e3f0da9a2c8d517e9e2acdab500f97a1885fa
Reciphers for ciphertext: 0
Decipheredtext:           00000000000004000000000000000000
RESULT CIPHER-DECIPHER: -----OK-----


Test: 54
Crypto pad: 2
Symmetric key bit length: 192
IV bit length:            128
Plaintext bit length:     128
Symmetric key:            000000000000000000000000000000000000000000000000
IV:                       00000000000000000000000000000000
Plaintext:                00000000000002000000000000000000
Ciphertext:               efa71f788965bd4453f860178fc19101c845cd3e6842f847b4833a9020b4d20ac961ef325e2a32a4359cc63be1ee2c770c016f50445b9e97a0f248c3a85f8661
Reciphers for ciphertext: 0
Decipheredtext:           00000000000002000000000000000000
RESULT CIPHER-DECIPHER: -----OK-----


Test: 55
Crypto pad: 0
Symmetric key bit length: 192
IV bit length:            128
Plaintext bit length:     128
Symmetric key:            000000000000000000000000000000000000000000000000
IV:                       00000000000000000000000000000000
Plaintext:                00000000000001000000000000000000
Ciphertext:               efa71f788965bd4453f860178fc19101b74d061061452c969424d5c9decb488303bf43c9083e4d9919d12fe5c0315e677ddcc7b3823eca627a19b346b61a968d
Reciphers for ciphertext: 0
Decipheredtext:           00000000000001000000000000000000
RESULT CIPHER-DECIPHER: -----OK-----


Test: 56
Crypto pad: 0
Symmetric key bit length: 192
IV bit length:            128
Plaintext bit length:     128
Symmetric key:            000000000000000000000000000000000000000000000000
IV:                       00000000000000000000000000000000
Plaintext:                00000000000000800000000000000000
Ciphertext:               efa71f788965bd4453f860178fc19101b74d061061452c969424d5c9decb4883b27063442470be07dcc2256ec71a4f1a434d3918a1b5630c8a1ba80ce43cdce2
Reciphers for ciphertext: 0
Decipheredtext:           00000000000000800000000000000000
RESULT CIPHER-DECIPHER: -----OK-----


Test: 57
Crypto pad: 2
Symmetric key bit length: 192
IV bit length:            128
Plaintext bit length:     128
Symmetric key:            000000000000000000000000000000000000000000000000
IV:                       00000000000000000000000000000000
Plaintext:                00000000000000400000000000000000
Ciphertext:               efa71f788965bd4453f860178fc19101c845cd3e6842f847b4833a9020b4d20a222cc5a29084a4bdb05d4c2fd95648dfcf93ef47f32a4267f8498994c91cce95
Reciphers for ciphertext: 0
Decipheredtext:           00000000000000400000000000000000
RESULT CIPHER-DECIPHER: -----OK-----


Test: 58
Crypto pad: 1
Symmetric key bit length: 192
IV bit length:            128
Plaintext bit length:     128
Symmetric key:            000000000000000000000000000000000000000000000000
IV:                       00000000000000000000000000000000
Plaintext:                00000000000000200000000000000000
Ciphertext:               efa71f788965bd4453f860178fc19101222ef4f97b1bb1a87d9cacf771529d33e08686bfaa936e1890aeec834e3b474abcfd874f5bb72f7e455ba870a87f1061
Reciphers for ciphertext: 0
Decipheredtext:           00000000000000200000000000000000
RESULT CIPHER-DECIPHER: -----OK-----


Test: 59
Crypto pad: 1
Symmetric key bit length: 192
IV bit length:            128
Plaintext bit length:     128
Symmetric key:            000000000000000000000000000000000000000000000000
IV:                       00000000000000000000000000000000
Plaintext:                00000000000000100000000000000000
Ciphertext:               efa71f788965bd4453f860178fc19101222ef4f97b1bb1a87d9cacf771529d3310dc4ffcac5f5a1fb668277e8e75beab9aff8663f7ab47c77df4620e1f0c3b36
Reciphers for ciphertext: 0
Decipheredtext:           00000000000000100000000000000000
RESULT CIPHER-DECIPHER: -----OK-----


Test: 60
Crypto pad: 2
Symmetric key bit length: 192
IV bit length:            128
Plaintext bit length:     128
Symmetric key:            000000000000000000000000000000000000000000000000
IV:                       00000000000000000000000000000000
Plaintext:                00000000000000080000000000000000
Ciphertext:               efa71f788965bd4453f860178fc19101c845cd3e6842f847b4833a9020b4d20a03a9199978f9d652a4c528ff86c39ce909c1bd3e63f279e607437515b986072c
Reciphers for ciphertext: 0
Decipheredtext:           00000000000000080000000000000000
RESULT CIPHER-DECIPHER: -----OK-----


Test: 61
Crypto pad: 0
Symmetric key bit length: 192
IV bit length:            128
Plaintext bit length:     128
Symmetric key:            000000000000000000000000000000000000000000000000
IV:                       00000000000000000000000000000000
Plaintext:                00000000000000040000000000000000
Ciphertext:               efa71f788965bd4453f860178fc19101b74d061061452c969424d5c9decb4883ddf718a1beb37cc1b0905520db7c16116acd16e3301ef535de26f7891abe6e37
Reciphers for ciphertext: 0
Decipheredtext:           00000000000000040000000000000000
RESULT CIPHER-DECIPHER: -----OK-----


Test: 62
Crypto pad: 2
Symmetric key bit length: 192
IV bit length:            128
Plaintext bit length:     128
Symmetric key:            000000000000000000000000000000000000000000000000
IV:                       00000000000000000000000000000000
Plaintext:                00000000000000020000000000000000
Ciphertext:               efa71f788965bd4453f860178fc19101c845cd3e6842f847b4833a9020b4d20a2072191c277ee40fd557ff5f67a2a546c6fe26fdc02218cf1b36dc2a785fe4a0
Reciphers for ciphertext: 0
Decipheredtext:           00000000000000020000000000000000
RESULT CIPHER-DECIPHER: -----OK-----


Test: 63
Crypto pad: 2
Symmetric key bit length: 192
IV bit length:            128
Plaintext bit length:     128
Symmetric key:            000000000000000000000000000000000000000000000000
IV:                       00000000000000000000000000000000
Plaintext:                00000000000000010000000000000000
Ciphertext:               efa71f788965bd4453f860178fc19101c845cd3e6842f847b4833a9020b4d20a96b3608c06112f619b156105eb082bbe2ebc8887b3269c8ae3197d8c473ac9b1
Reciphers for ciphertext: 0
Decipheredtext:           00000000000000010000000000000000
RESULT CIPHER-DECIPHER: -----OK-----


Test: 64
Crypto pad: 2
Symmetric key bit length: 192
IV bit length:            128
Plaintext bit length:     128
Symmetric key:            000000000000000000000000000000000000000000000000
IV:                       00000000000000000000000000000000
Plaintext:                00000000000000008000000000000000
Ciphertext:               efa71f788965bd4453f860178fc19101c845cd3e6842f847b4833a9020b4d20ab5d919dfd9828c4ff4427e72abfc77b2633d9aaf4e76e4bafb1e35c05deaeb65
Reciphers for ciphertext: 0
Decipheredtext:           00000000000000008000000000000000
RESULT CIPHER-DECIPHER: -----OK-----


Test: 65
Crypto pad: 0
Symmetric key bit length: 192
IV bit length:            128
Plaintext bit length:     128
Symmetric key:            000000000000000000000000000000000000000000000000
IV:                       00000000000000000000000000000000
Plaintext:                00000000000000004000000000000000
Ciphertext:               efa71f788965bd4453f860178fc19101b74d061061452c969424d5c9decb48839570e7a96d4674c800af8dcd01deff64ab3358842ee5060535b9e4b6704d7b7d
Reciphers for ciphertext: 0
Decipheredtext:           00000000000000004000000000000000
RESULT CIPHER-DECIPHER: -----OK-----


Test: 66
Crypto pad: 0
Symmetric key bit length: 192
IV bit length:            128
Plaintext bit length:     128
Symmetric key:            000000000000000000000000000000000000000000000000
IV:                       00000000000000000000000000000000
Plaintext:                00000000000000002000000000000000
Ciphertext:               efa71f788965bd4453f860178fc19101b74d061061452c969424d5c9decb488359723db66edb29a9c81175668903777fc2a23df98afe72788d3abe0bd72a7211
Reciphers for ciphertext: 0
Decipheredtext:           00000000000000002000000000000000
RESULT CIPHER-DECIPHER: -----OK-----


Test: 67
Crypto pad: 2
Symmetric key bit length: 192
IV bit length:            128
Plaintext bit length:     128
Symmetric key:            000000000000000000000000000000000000000000000000
IV:                       00000000000000000000000000000000
Plaintext:                00000000000000001000000000000000
Ciphertext:               efa71f788965bd4453f860178fc19101c845cd3e6842f847b4833a9020b4d20a1779bdfac6db722bcaf4d3a8d9d2e7253870fa162f82a3356f49119c58a217ff
Reciphers for ciphertext: 0
Decipheredtext:           00000000000000001000000000000000
RESULT CIPHER-DECIPHER: -----OK-----


Test: 68
Crypto pad: 2
Symmetric key bit length: 192
IV bit length:            128
Plaintext bit length:     128
Symmetric key:            000000000000000000000000000000000000000000000000
IV:                       00000000000000000000000000000000
Plaintext:                00000000000000000800000000000000
Ciphertext:               efa71f788965bd4453f860178fc19101c845cd3e6842f847b4833a9020b4d20a5107b50a150998c6ea01c14697fc0e537455454939a70f9b2342a0a0beea58b8
Reciphers for ciphertext: 0
Decipheredtext:           00000000000000000800000000000000
RESULT CIPHER-DECIPHER: -----OK-----


Test: 69
Crypto pad: 0
Symmetric key bit length: 192
IV bit length:            128
Plaintext bit length:     128
Symmetric key:            000000000000000000000000000000000000000000000000
IV:                       00000000000000000000000000000000
Plaintext:                00000000000000000400000000000000
Ciphertext:               efa71f788965bd4453f860178fc19101b74d061061452c969424d5c9decb488336a6caa08bd5d2b332e9323f7c2e76ca688b6d51f0c1a3e731fb5e5daa41da74
Reciphers for ciphertext: 0
Decipheredtext:           00000000000000000400000000000000
RESULT CIPHER-DECIPHER: -----OK-----


Test: 70
Crypto pad: 0
Symmetric key bit length: 192
IV bit length:            128
Plaintext bit length:     128
Symmetric key:            000000000000000000000000000000000000000000000000
IV:                       00000000000000000000000000000000
Plaintext:                00000000000000000200000000000000
Ciphertext:               efa71f788965bd4453f860178fc19101b74d061061452c969424d5c9decb4883d1cf37451667edb8d2e9934d39a27a925d3ed6a83bc34d88255c950c0dfb62d6
Reciphers for ciphertext: 0
Decipheredtext:           00000000000000000200000000000000
RESULT CIPHER-DECIPHER: -----OK-----


Test: 71
Crypto pad: 2
Symmetric key bit length: 192
IV bit length:            128
Plaintext bit length:     128
Symmetric key:            000000000000000000000000000000000000000000000000
IV:                       00000000000000000000000000000000
Plaintext:                00000000000000000100000000000000
Ciphertext:               efa71f788965bd4453f860178fc19101c845cd3e6842f847b4833a9020b4d20a4e96227b0a018755fbe8ad5bf0e421b012b2455dc18437e3eb66dd5c749fa6b7
Reciphers for ciphertext: 0
Decipheredtext:           00000000000000000100000000000000
RESULT CIPHER-DECIPHER: -----OK-----


Test: 72
Crypto pad: 0
Symmetric key bit length: 192
IV bit length:            128
Plaintext bit length:     128
Symmetric key:            000000000000000000000000000000000000000000000000
IV:                       00000000000000000000000000000000
Plaintext:                00000000000000000080000000000000
Ciphertext:               efa71f788965bd4453f860178fc19101b74d061061452c969424d5c9decb48833221b3d3a24745b483bbf99509b330a0d07675fa7f9289a47b172f411836f2e0
Reciphers for ciphertext: 0
Decipheredtext:           00000000000000000080000000000000
RESULT CIPHER-DECIPHER: -----OK-----


Test: 73
Crypto pad: 1
Symmetric key bit length: 192
IV bit length:            128
Plaintext bit length:     128
Symmetric key:            000000000000000000000000000000000000000000000000
IV:                       00000000000000000000000000000000
Plaintext:                00000000000000000040000000000000
Ciphertext:               efa71f788965bd4453f860178fc19101222ef4f97b1bb1a87d9cacf771529d3398a4ab39b84d21d36a5ddc2660bd68c5d34ad3e70e5e8827fcc1b32d8f67f13c
Reciphers for ciphertext: 0
Decipheredtext:           00000000000000000040000000000000
RESULT CIPHER-DECIPHER: -----OK-----


Test: 74
Crypto pad: 2
Symmetric key bit length: 192
IV bit length:            128
Plaintext bit length:     128
Symmetric key:            000000000000000000000000000000000000000000000000
IV:                       00000000000000000000000000000000
Plaintext:                00000000000000000020000000000000
Ciphertext:               efa71f788965bd4453f860178fc19101c845cd3e6842f847b4833a9020b4d20ae5c351e1783465edba5ce0592bc77e8eb1fb00ed57dba90fef233ade805ad8a4
Reciphers for ciphertext: 0
Decipheredtext:           00000000000000000020000000000000
RESULT CIPHER-DECIPHER: -----OK-----


Test: 75
Crypto pad: 2
Symmetric key bit length: 192
IV bit length:            128
Plaintext bit length:     128
Symmetric key:            000000000000000000000000000000000000000000000000
IV:                       00000000000000000000000000000000
Plaintext:                00000000000000000010000000000000
Ciphertext:               efa71f788965bd4453f860178fc19101c845cd3e6842f847b4833a9020b4d20a35489488ee33d0344c1bdb6263d28286ba88e4a8ba58a2e3f97445fed8393563
Reciphers for ciphertext: 0
Decipheredtext:           00000000000000000010000000000000
RESULT CIPHER-DECIPHER: -----OK-----


Test: 76
Crypto pad: 1
Symmetric key bit length: 192
IV bit length:            128
Plaintext bit length:     128
Symmetric key:            000000000000000000000000000000000000000000000000
IV:                       00000000000000000000000000000000
Plaintext:                00000000000000000008000000000000
Ciphertext:               efa71f788965bd4453f860178fc19101222ef4f97b1bb1a87d9cacf771529d3397ea899f53c60536dafeb18123fd6c5bb1e3cb9ae310fb72cde9378cdcf5fa2d
Reciphers for ciphertext: 0
Decipheredtext:           00000000000000000008000000000000
RESULT CIPHER-DECIPHER: -----OK-----


Test: 77
Crypto pad: 2
Symmetric key bit length: 192
IV bit length:            128
Plaintext bit length:     128
Symmetric key:            000000000000000000000000000000000000000000000000
IV:                       00000000000000000000000000000000
Plaintext:                00000000000000000004000000000000
Ciphertext:               efa71f788965bd4453f860178fc19101c845cd3e6842f847b4833a9020b4d20a8511b11c7d2d8fbf63702a7e3aaca08a7209930f1dba95d535efc5a995de1540
Reciphers for ciphertext: 0
Decipheredtext:           00000000000000000004000000000000
RESULT CIPHER-DECIPHER: -----OK-----


Test: 78
Crypto pad: 2
Symmetric key bit length: 192
IV bit length:            128
Plaintext bit length:     128
Symmetric key:            000000000000000000000000000000000000000000000000
IV:                       00000000000000000000000000000000
Plaintext:                00000000000000000002000000000000
Ciphertext:               efa71f788965bd4453f860178fc19101c845cd3e6842f847b4833a9020b4d20afe0c90596e4f47fd8a9927d83f4dca527a2aaf26f2aedd5d708eb815058da7c9
Reciphers for ciphertext: 0
Decipheredtext:           00000000000000000002000000000000
RESULT CIPHER-DECIPHER: -----OK-----


Test: 79
Crypto pad: 2
Symmetric key bit length: 192
IV bit length:            128
Plaintext bit length:     128
Symmetric key:            000000000000000000000000000000000000000000000000
IV:                       00000000000000000000000000000000
Plaintext:                00000000000000000001000000000000
Ciphertext:               efa71f788965bd4453f860178fc19101c845cd3e6842f847b4833a9020b4d20a186fe000683cc19f621bc6c2da300b7124e853372e34d048f9d5e965fc16b461
Reciphers for ciphertext: 0
Decipheredtext:           00000000000000000001000000000000
RESULT CIPHER-DECIPHER: -----OK-----


Test: 80
Crypto pad: 2
Symmetric key bit length: 192
IV bit length:            128
Plaintext bit length:     128
Symmetric key:            000000000000000000000000000000000000000000000000
IV:                       00000000000000000000000000000000
Plaintext:                00000000000000000000800000000000
Ciphertext:               efa71f788965bd4453f860178fc19101c845cd3e6842f847b4833a9020b4d20a8291f94edf578e8a70cd0cf8f3fb3558c274690989d5a2a0ea0f136d99da9413
Reciphers for ciphertext: 0
Decipheredtext:           00000000000000000000800000000000
RESULT CIPHER-DECIPHER: -----OK-----


Test: 81
Crypto pad: 1
Symmetric key bit length: 192
IV bit length:            128
Plaintext bit length:     128
Symmetric key:            000000000000000000000000000000000000000000000000
IV:                       00000000000000000000000000000000
Plaintext:                00000000000000000000400000000000
Ciphertext:               efa71f788965bd4453f860178fc19101222ef4f97b1bb1a87d9cacf771529d332891c81846949c917e757ebae20d34eed9003950fae37129a73ec28aef7adbe4
Reciphers for ciphertext: 0
Decipheredtext:           00000000000000000000400000000000
RESULT CIPHER-DECIPHER: -----OK-----


Test: 82
Crypto pad: 2
Symmetric key bit length: 192
IV bit length:            128
Plaintext bit length:     128
Symmetric key:            000000000000000000000000000000000000000000000000
IV:                       00000000000000000000000000000000
Plaintext:                00000000000000000000200000000000
Ciphertext:               efa71f788965bd4453f860178fc19101c845cd3e6842f847b4833a9020b4d20a762d85a32daf0c9f3cfb3388e808fec265815a5d60a912e84ba29e10a0473df9
Reciphers for ciphertext: 0
Decipheredtext:           00000000000000000000200000000000
RESULT CIPHER-DECIPHER: -----OK-----


Test: 83
Crypto pad: 2
Symmetric key bit length: 192
IV bit length:            128
Plaintext bit length:     128
Symmetric key:            000000000000000000000000000000000000000000000000
IV:                       00000000000000000000000000000000
Plaintext:                00000000000000000000100000000000
Ciphertext:               efa71f788965bd4453f860178fc19101c845cd3e6842f847b4833a9020b4d20acc6807d209b728c559c32336fd8fb71ddbe792eca841f0900cf506edd6356880
Reciphers for ciphertext: 0
Decipheredtext:           00000000000000000000100000000000
RESULT CIPHER-DECIPHER: -----OK-----


Test: 84
Crypto pad: 2
Symmetric key bit length: 192
IV bit length:            128
Plaintext bit length:     128
Symmetric key:            000000000000000000000000000000000000000000000000
IV:                       00000000000000000000000000000000
Plaintext:                00000000000000000000080000000000
Ciphertext:               efa71f788965bd4453f860178fc19101c845cd3e6842f847b4833a9020b4d20afcd07057ef4820154075a0ddcbfc0bbdebb0abcc2fb94196f3a0979ae8312c8b
Reciphers for ciphertext: 0
Decipheredtext:           00000000000000000000080000000000
RESULT CIPHER-DECIPHER: -----OK-----


Test: 85
Crypto pad: 2
Symmetric key bit length: 192
IV bit length:            128
Plaintext bit length:     128
Symmetric key:            000000000000000000000000000000000000000000000000
IV:                       00000000000000000000000000000000
Plaintext:                00000000000000000000040000000000
Ciphertext:               efa71f788965bd4453f860178fc19101c845cd3e6842f847b4833a9020b4d20afdbfe2c3ffc82792d338388a1fc6d22e0b9c0b541deefe3874554adf8f7ab7c1
Reciphers for ciphertext: 0
Decipheredtext:           00000000000000000000040000000000
RESULT CIPHER-DECIPHER: -----OK-----


Test: 86
Crypto pad: 2
Symmetric key bit length: 192
IV bit length:            128
Plaintext bit length:     128
Symmetric key:            000000000000000000000000000000000000000000000000
IV:                       00000000000000000000000000000000
Plaintext:                00000000000000000000020000000000
Ciphertext:               efa71f788965bd4453f860178fc19101c845cd3e6842f847b4833a9020b4d20a04d5f7cd68fc2352bddbc82cfe35da80a0f9e4e4a06bda14ba66403907b8b864
Reciphers for ciphertext: 0
Decipheredtext:           00000000000000000000020000000000
RESULT CIPHER-DECIPHER: -----OK-----


Test: 87
Crypto pad: 1
Symmetric key bit length: 192
IV bit length:            128
Plaintext bit length:     128
Symmetric key:            000000000000000000000000000000000000000000000000
IV:                       00000000000000000000000000000000
Plaintext:                00000000000000000000010000000000
Ciphertext:               efa71f788965bd4453f860178fc19101222ef4f97b1bb1a87d9cacf771529d33b1784a7bf395fb525471ee3dc8972feda2c8931258c8b3797d0ac1e41c1de117
Reciphers for ciphertext: 0
Decipheredtext:           00000000000000000000010000000000
RESULT CIPHER-DECIPHER: -----OK-----


Test: 88
Crypto pad: 1
Symmetric key bit length: 192
IV bit length:            128
Plaintext bit length:     128
Symmetric key:            000000000000000000000000000000000000000000000000
IV:                       00000000000000000000000000000000
Plaintext:                00000000000000000000008000000000
Ciphertext:               efa71f788965bd4453f860178fc19101222ef4f97b1bb1a87d9cacf771529d33cb5d8a62d16220123ef0005876e35b19831d50b64bd74ed236fa0cf42d759524
Reciphers for ciphertext: 0
Decipheredtext:           00000000000000000000008000000000
RESULT CIPHER-DECIPHER: -----OK-----


Test: 89
Crypto pad: 0
Symmetric key bit length: 192
IV bit length:            128
Plaintext bit length:     128
Symmetric key:            000000000000000000000000000000000000000000000000
IV:                       00000000000000000000000000000000
Plaintext:                00000000000000000000004000000000
Ciphertext:               efa71f788965bd4453f860178fc19101b74d061061452c969424d5c9decb4883311292ede1f30e9f22f1eef8fd19bd80bca7d5dc7f62760d066bf765d37db3f6
Reciphers for ciphertext: 0
Decipheredtext:           00000000000000000000004000000000
RESULT CIPHER-DECIPHER: -----OK-----


Test: 90
Crypto pad: 1
Symmetric key bit length: 192
IV bit length:            128
Plaintext bit length:     128
Symmetric key:            000000000000000000000000000000000000000000000000
IV:                       00000000000000000000000000000000
Plaintext:                00000000000000000000002000000000
Ciphertext:               efa71f788965bd4453f860178fc19101222ef4f97b1bb1a87d9cacf771529d33382bc583ec9b6e16e3df2188cf0bf1e8032cc8e77727952edb9f681911e00879
Reciphers for ciphertext: 0
Decipheredtext:           00000000000000000000002000000000
RESULT CIPHER-DECIPHER: -----OK-----


Test: 91
Crypto pad: 0
Symmetric key bit length: 192
IV bit length:            128
Plaintext bit length:     128
Symmetric key:            000000000000000000000000000000000000000000000000
IV:                       00000000000000000000000000000000
Plaintext:                00000000000000000000001000000000
Ciphertext:               efa71f788965bd4453f860178fc19101b74d061061452c969424d5c9decb4883632c9ad674bd1b8a15827a789bd133a7404cc62fdc072437013fe75223f2bdde
Reciphers for ciphertext: 0
Decipheredtext:           00000000000000000000001000000000
RESULT CIPHER-DECIPHER: -----OK-----


Test: 92
Crypto pad: 0
Symmetric key bit length: 192
IV bit length:            128
Plaintext bit length:     128
Symmetric key:            000000000000000000000000000000000000000000000000
IV:                       00000000000000000000000000000000
Plaintext:                00000000000000000000000800000000
Ciphertext:               efa71f788965bd4453f860178fc19101b74d061061452c969424d5c9decb48830ee175df45b889ced6974e9c2b8f8a78bf50e261fde891205577e40940a99c9b
Reciphers for ciphertext: 0
Decipheredtext:           00000000000000000000000800000000
RESULT CIPHER-DECIPHER: -----OK-----


Test: 93
Crypto pad: 0
Symmetric key bit length: 192
IV bit length:            128
Plaintext bit length:     128
Symmetric key:            000000000000000000000000000000000000000000000000
IV:                       00000000000000000000000000000000
Plaintext:                00000000000000000000000400000000
Ciphertext:               efa71f788965bd4453f860178fc19101b74d061061452c969424d5c9decb48836131a1a18f00cfda5b4af4fbe548744516dbc079d3d83677b1a96220c125cc71
Reciphers for ciphertext: 0
Decipheredtext:           00000000000000000000000400000000
RESULT CIPHER-DECIPHER: -----OK-----


Test: 94
Crypto pad: 1
Symmetric key bit length: 192
IV bit length:            128
Plaintext bit length:     128
Symmetric key:            000000000000000000000000000000000000000000000000
IV:                       00000000000000000000000000000000
Plaintext:                00000000000000000000000200000000
Ciphertext:               efa71f788965bd4453f860178fc19101222ef4f97b1bb1a87d9cacf771529d330c8746747460a540e2304b55c12ea6723b8c8d26ffe3308a68ddb2663ee3d854
Reciphers for ciphertext: 0
Decipheredtext:           00000000000000000000000200000000
RESULT CIPHER-DECIPHER: -----OK-----


Test: 95
Crypto pad: 1
Symmetric key bit length: 192
IV bit length:            128
Plaintext bit length:     128
Symmetric key:            000000000000000000000000000000000000000000000000
IV:                       00000000000000000000000000000000
Plaintext:                00000000000000000000000100000000
Ciphertext:               efa71f788965bd4453f860178fc19101222ef4f97b1bb1a87d9cacf771529d33dd6d4d2aa3eb702c597e4e2de59bf4c90cbcfac3922f61d4e1bf262fec40317b
Reciphers for ciphertext: 0
Decipheredtext:           00000000000000000000000100000000
RESULT CIPHER-DECIPHER: -----OK-----


Test: 96
Crypto pad: 2
Symmetric key bit length: 192
IV bit length:            128
Plaintext bit length:     128
Symmetric key:            000000000000000000000000000000000000000000000000
IV:                       00000000000000000000000000000000
Plaintext:                00000000000000000000000080000000
Ciphertext:               efa71f788965bd4453f860178fc19101c845cd3e6842f847b4833a9020b4d20a774edf219459a4744aa1ccde7d969a6028493226ff658403ef1a1a00fc08ee17
Reciphers for ciphertext: 0
Decipheredtext:           00000000000000000000000080000000
RESULT CIPHER-DECIPHER: -----OK-----


Test: 97
Crypto pad: 0
Symmetric key bit length: 192
IV bit length:            128
Plaintext bit length:     128
Symmetric key:            000000000000000000000000000000000000000000000000
IV:                       00000000000000000000000000000000
Plaintext:                00000000000000000000000040000000
Ciphertext:               efa71f788965bd4453f860178fc19101b74d061061452c969424d5c9decb48831d7b340c4ce68ac97369fff0ff9980c85846a1f7655bbb081bdd24079e44b540
Reciphers for ciphertext: 0
Decipheredtext:           00000000000000000000000040000000
RESULT CIPHER-DECIPHER: -----OK-----


Test: 98
Crypto pad: 1
Symmetric key bit length: 192
IV bit length:            128
Plaintext bit length:     128
Symmetric key:            000000000000000000000000000000000000000000000000
IV:                       00000000000000000000000000000000
Plaintext:                00000000000000000000000020000000
Ciphertext:               efa71f788965bd4453f860178fc19101222ef4f97b1bb1a87d9cacf771529d33d18104617258ab02aae02eccf552a891251bfff18a26701e1c80d95e9f0a55b8
Reciphers for ciphertext: 0
Decipheredtext:           00000000000000000000000020000000
RESULT CIPHER-DECIPHER: -----OK-----


Test: 99
Crypto pad: 0
Symmetric key bit length: 192
IV bit length:            128
Plaintext bit length:     128
Symmetric key:            000000000000000000000000000000000000000000000000
IV:                       00000000000000000000000000000000
Plaintext:                00000000000000000000000010000000
Ciphertext:               efa71f788965bd4453f860178fc19101b74d061061452c969424d5c9decb48838dc66f1d7648eb62f1dcbeb3cd2379851255338a2576aa3a8adc28f2b702e872
Reciphers for ciphertext: 0
Decipheredtext:           00000000000000000000000010000000
RESULT CIPHER-DECIPHER: -----OK-----


Test: 100
Crypto pad: 0
Symmetric key bit length: 192
IV bit length:            128
Plaintext bit length:     128
Symmetric key:            000000000000000000000000000000000000000000000000
IV:                       00000000000000000000000000000000
Plaintext:                00000000000000000000000008000000
Ciphertext:               efa71f788965bd4453f860178fc19101b74d061061452c969424d5c9decb4883abf090054abe052ece0b07be6b6cc6dbcc8c1b2dd8a84f37655399863e23bc40
Reciphers for ciphertext: 0
Decipheredtext:           00000000000000000000000008000000
RESULT CIPHER-DECIPHER: -----OK-----


Test: 101
Crypto pad: 2
Symmetric key bit length: 192
IV bit length:            128
Plaintext bit length:     128
Symmetric key:            000000000000000000000000000000000000000000000000
IV:                       00000000000000000000000000000000
Plaintext:                00000000000000000000000004000000
Ciphertext:               efa71f788965bd4453f860178fc19101c845cd3e6842f847b4833a9020b4d20a89239aafe9ba86e5ec794397e0180111f77ba035eba38646e7311d41f94a8092
Reciphers for ciphertext: 0
Decipheredtext:           00000000000000000000000004000000
RESULT CIPHER-DECIPHER: -----OK-----


Test: 102
Crypto pad: 2
Symmetric key bit length: 192
IV bit length:            128
Plaintext bit length:     128
Symmetric key:            000000000000000000000000000000000000000000000000
IV:                       00000000000000000000000000000000
Plaintext:                00000000000000000000000002000000
Ciphertext:               efa71f788965bd4453f860178fc19101c845cd3e6842f847b4833a9020b4d20a6e1cdc049333211b4d7533e21504d200a35f2b6688c1ba1675171aaa61b064a4
Reciphers for ciphertext: 0
Decipheredtext:           00000000000000000000000002000000
RESULT CIPHER-DECIPHER: -----OK-----


Test: 103
Crypto pad: 0
Symmetric key bit length: 192
IV bit length:            128
Plaintext bit length:     128
Symmetric key:            000000000000000000000000000000000000000000000000
IV:                       00000000000000000000000000000000
Plaintext:                00000000000000000000000001000000
Ciphertext:               efa71f788965bd4453f860178fc19101b74d061061452c969424d5c9decb4883efe662af24d9997fae45cad4f92f3091af3bb0a78508a5cf2794fc20dfd4636e
Reciphers for ciphertext: 0
Decipheredtext:           00000000000000000000000001000000
RESULT CIPHER-DECIPHER: -----OK-----


Test: 104
Crypto pad: 2
Symmetric key bit length: 192
IV bit length:            128
Plaintext bit length:     128
Symmetric key:            000000000000000000000000000000000000000000000000
IV:                       00000000000000000000000000000000
Plaintext:                00000000000000000000000000800000
Ciphertext:               efa71f788965bd4453f860178fc19101c845cd3e6842f847b4833a9020b4d20a16f53f3a6cc3b4f86dda1b8792244901dc61baf6e61b8020fd31a158b6b1746c
Reciphers for ciphertext: 0
Decipheredtext:           00000000000000000000000000800000
RESULT CIPHER-DECIPHER: -----OK-----


Test: 105
Crypto pad: 2
Symmetric key bit length: 192
IV bit length:            128
Plaintext bit length:     128
Symmetric key:            000000000000000000000000000000000000000000000000
IV:                       00000000000000000000000000000000
Plaintext:                00000000000000000000000000400000
Ciphertext:               efa71f788965bd4453f860178fc19101c845cd3e6842f847b4833a9020b4d20a047cbacdc5ea84771a61fe1204813d465b6761486f39bef1526e5514c9da03d7
Reciphers for ciphertext: 0
Decipheredtext:           00000000000000000000000000400000
RESULT CIPHER-DECIPHER: -----OK-----


Test: 106
Crypto pad: 1
Symmetric key bit length: 192
IV bit length:            128
Plaintext bit length:     128
Symmetric key:            000000000000000000000000000000000000000000000000
IV:                       00000000000000000000000000000000
Plaintext:                00000000000000000000000000200000
Ciphertext:               efa71f788965bd4453f860178fc19101222ef4f97b1bb1a87d9cacf771529d33b442ff3318822ea7f60e2a8a082a043ac238aebb2e7eb80ca1e58a0854a6cb2a
Reciphers for ciphertext: 0
Decipheredtext:           00000000000000000000000000200000
RESULT CIPHER-DECIPHER: -----OK-----


Test: 107
Crypto pad: 0
Symmetric key bit length: 192
IV bit length:            128
Plaintext bit length:     128
Symmetric key:            000000000000000000000000000000000000000000000000
IV:                       00000000000000000000000000000000
Plaintext:                00000000000000000000000000100000
Ciphertext:               efa71f788965bd4453f860178fc19101b74d061061452c969424d5c9decb4883971d07aeedbca5b7bdcd033f708c97dbf7ca74e2e3109bbbc18d9bc8b4c4ef1b
Reciphers for ciphertext: 0
Decipheredtext:           00000000000000000000000000100000
RESULT CIPHER-DECIPHER: -----OK-----


Test: 108
Crypto pad: 0
Symmetric key bit length: 192
IV bit length:            128
Plaintext bit length:     128
Symmetric key:            000000000000000000000000000000000000000000000000
IV:                       00000000000000000000000000000000
Plaintext:                00000000000000000000000000080000
Ciphertext:               efa71f788965bd4453f860178fc19101b74d061061452c969424d5c9decb4883d307263273e250c0b9e08ff23003b0d1ecc90171264ca71acfc4e6cabb3e8da4
Reciphers for ciphertext: 0
Decipheredtext:           00000000000000000000000000080000
RESULT CIPHER-DECIPHER: -----OK-----


Test: 109
Crypto pad: 1
Symmetric key bit length: 192
IV bit length:            128
Plaintext bit length:     128
Symmetric key:            000000000000000000000000000000000000000000000000
IV:                       00000000000000000000000000000000
Plaintext:                00000000000000000000000000040000
Ciphertext:               efa71f788965bd4453f860178fc19101222ef4f97b1bb1a87d9cacf771529d3375f7005ca9c6ee5a1f9a4897fa67c661c5dbbb7a08e967ec9c6cd16f1cedab75
Reciphers for ciphertext: 0
Decipheredtext:           00000000000000000000000000040000
RESULT CIPHER-DECIPHER: -----OK-----


Test: 110
Crypto pad: 2
Symmetric key bit length: 192
IV bit length:            128
Plaintext bit length:     128
Symmetric key:            000000000000000000000000000000000000000000000000
IV:                       00000000000000000000000000000000
Plaintext:                00000000000000000000000000020000
Ciphertext:               efa71f788965bd4453f860178fc19101c845cd3e6842f847b4833a9020b4d20a9b421c68873d49f07e3b9025ad6097871d9a86a1d2fc7f659ac7bb358bbee93e
Reciphers for ciphertext: 0
Decipheredtext:           00000000000000000000000000020000
RESULT CIPHER-DECIPHER: -----OK-----


Test: 111
Crypto pad: 0
Symmetric key bit length: 192
IV bit length:            128
Plaintext bit length:     128
Symmetric key:            000000000000000000000000000000000000000000000000
IV:                       00000000000000000000000000000000
Plaintext:                00000000000000000000000000010000
Ciphertext:               efa71f788965bd4453f860178fc19101b74d061061452c969424d5c9decb48835b182593b47dc674d8b1942cb97224b2cbd5c0c21f4667019a0f90d6f0e1d19b
Reciphers for ciphertext: 0
Decipheredtext:           00000000000000000000000000010000
RESULT CIPHER-DECIPHER: -----OK-----


Test: 112
Crypto pad: 0
Symmetric key bit length: 192
IV bit length:            128
Plaintext bit length:     128
Symmetric key:            000000000000000000000000000000000000000000000000
IV:                       00000000000000000000000000000000
Plaintext:                00000000000000000000000000008000
Ciphertext:               efa71f788965bd4453f860178fc19101b74d061061452c969424d5c9decb4883a896871a3157ccd1f5a788e253a6b0fdd57198b599c5f95929dc93365c9ebcf1
Reciphers for ciphertext: 0
Decipheredtext:           00000000000000000000000000008000
RESULT CIPHER-DECIPHER: -----OK-----


Test: 113
Crypto pad: 1
Symmetric key bit length: 192
IV bit length:            128
Plaintext bit length:     128
Symmetric key:            000000000000000000000000000000000000000000000000
IV:                       00000000000000000000000000000000
Plaintext:                00000000000000000000000000004000
Ciphertext:               efa71f788965bd4453f860178fc19101222ef4f97b1bb1a87d9cacf771529d33789a3d2b2a70181efcce5529f200dc448cf40b2ebf2c70185ef603c21cf80283
Reciphers for ciphertext: 0
Decipheredtext:           00000000000000000000000000004000
RESULT CIPHER-DECIPHER: -----OK-----


Test: 114
Crypto pad: 0
Symmetric key bit length: 192
IV bit length:            128
Plaintext bit length:     128
Symmetric key:            000000000000000000000000000000000000000000000000
IV:                       00000000000000000000000000000000
Plaintext:                00000000000000000000000000002000
Ciphertext:               efa71f788965bd4453f860178fc19101b74d061061452c969424d5c9decb48837f9462d23db6e99ad0a54ea84dbd94e2eb15d6cf0ae963d65b291be32775cd83
Reciphers for ciphertext: 0
Decipheredtext:           00000000000000000000000000002000
RESULT CIPHER-DECIPHER: -----OK-----


Test: 115
Crypto pad: 1
Symmetric key bit length: 192
IV bit length:            128
Plaintext bit length:     128
Symmetric key:            000000000000000000000000000000000000000000000000
IV:                       00000000000000000000000000000000
Plaintext:                00000000000000000000000000001000
Ciphertext:               efa71f788965bd4453f860178fc19101222ef4f97b1bb1a87d9cacf771529d3323eafe1f7cce96b6bfe2484e1dfc4ab9fb99248801090eadfa6d46c0d8d042ba
Reciphers for ciphertext: 0
Decipheredtext:           00000000000000000000000000001000
RESULT CIPHER-DECIPHER: -----OK-----


Test: 116
Crypto pad: 0
Symmetric key bit length: 192
IV bit length:            128
Plaintext bit length:     128
Symmetric key:            000000000000000000000000000000000000000000000000
IV:                       00000000000000000000000000000000
Plaintext:                00000000000000000000000000000800
Ciphertext:               efa71f788965bd4453f860178fc19101b74d061061452c969424d5c9decb4883a76c323805f9c252c8b86c83294b998754979a549f3e44ed28817a671e580ec8
Reciphers for ciphertext: 0
Decipheredtext:           00000000000000000000000000000800
RESULT CIPHER-DECIPHER: -----OK-----


Test: 117
Crypto pad: 0
Symmetric key bit length: 192
IV bit length:            128
Plaintext bit length:     128
Symmetric key:            000000000000000000000000000000000000000000000000
IV:                       00000000000000000000000000000000
Plaintext:                00000000000000000000000000000400
Ciphertext:               efa71f788965bd4453f860178fc19101b74d061061452c969424d5c9decb4883d8ca1075b7a3f2cf2dac0980b1b66cc1d5978ec7b1993315141ba915db3a537e
Reciphers for ciphertext: 0
Decipheredtext:           00000000000000000000000000000400
RESULT CIPHER-DECIPHER: -----OK-----


Test: 118
Crypto pad: 2
Symmetric key bit length: 192
IV bit length:            128
Plaintext bit length:     128
Symmetric key:            000000000000000000000000000000000000000000000000
IV:                       00000000000000000000000000000000
Plaintext:                00000000000000000000000000000200
Ciphertext:               efa71f788965bd4453f860178fc19101c845cd3e6842f847b4833a9020b4d20a8206d89f2a07ba6403647fb85a2f4d7d6bcdfb4b9d9abcf888a4fae7d7a6e6c0
Reciphers for ciphertext: 0
Decipheredtext:           00000000000000000000000000000200
RESULT CIPHER-DECIPHER: -----OK-----


Test: 119
Crypto pad: 1
Symmetric key bit length: 192
IV bit length:            128
Plaintext bit length:     128
Symmetric key:            000000000000000000000000000000000000000000000000
IV:                       00000000000000000000000000000000
Plaintext:                00000000000000000000000000000100
Ciphertext:               efa71f788965bd4453f860178fc19101222ef4f97b1bb1a87d9cacf771529d333de7573cd46d85488364472b038869f95e341c6de04539614855f83cc76b15a3
Reciphers for ciphertext: 0
Decipheredtext:           00000000000000000000000000000100
RESULT CIPHER-DECIPHER: -----OK-----


Test: 120
Crypto pad: 2
Symmetric key bit length: 192
IV bit length:            128
Plaintext bit length:     128
Symmetric key:            000000000000000000000000000000000000000000000000
IV:                       00000000000000000000000000000000
Plaintext:                00000000000000000000000000000080
Ciphertext:               efa71f788965bd4453f860178fc19101c845cd3e6842f847b4833a9020b4d20a31c62401d6e9e4995c0913747bfe7c7eb02e076f06d9ab864e9ef6938311a8ca
Reciphers for ciphertext: 0
Decipheredtext:           00000000000000000000000000000080
RESULT CIPHER-DECIPHER: -----OK-----


Test: 121
Crypto pad: 0
Symmetric key bit length: 192
IV bit length:            128
Plaintext bit length:     128
Symmetric key:            000000000000000000000000000000000000000000000000
IV:                       00000000000000000000000000000000
Plaintext:                00000000000000000000000000000040
Ciphertext:               efa71f788965bd4453f860178fc19101b74d061061452c969424d5c9decb4883c464728025916b4e8d56e4a9f98c1a25927f8bc1be5805bd3680fc8999fd946f
Reciphers for ciphertext: 0
Decipheredtext:           00000000000000000000000000000040
RESULT CIPHER-DECIPHER: -----OK-----


Test: 122
Crypto pad: 2
Symmetric key bit length: 192
IV bit length:            128
Plaintext bit length:     128
Symmetric key:            000000000000000000000000000000000000000000000000
IV:                       00000000000000000000000000000000
Plaintext:                00000000000000000000000000000020
Ciphertext:               efa71f788965bd4453f860178fc19101c845cd3e6842f847b4833a9020b4d20a0d4643ee09abd6d6062187789ae9a77d1bc2117bbb443be8501ac880122049a2
Reciphers for ciphertext: 0
Decipheredtext:           00000000000000000000000000000020
RESULT CIPHER-DECIPHER: -----OK-----


Test: 123
Crypto pad: 0
Symmetric key bit length: 192
IV bit length:            128
Plaintext bit length:     128
Symmetric key:            000000000000000000000000000000000000000000000000
IV:                       00000000000000000000000000000000
Plaintext:                00000000000000000000000000000010
Ciphertext:               efa71f788965bd4453f860178fc19101b74d061061452c969424d5c9decb48830c06eac3043abe6554c2da42f21e7b0566f8c7452ca6def30b94557ffb2d7a4c
Reciphers for ciphertext: 0
Decipheredtext:           00000000000000000000000000000010
RESULT CIPHER-DECIPHER: -----OK-----


Test: 124
Crypto pad: 2
Symmetric key bit length: 192
IV bit length:            128
Plaintext bit length:     128
Symmetric key:            000000000000000000000000000000000000000000000000
IV:                       00000000000000000000000000000000
Plaintext:                00000000000000000000000000000008
Ciphertext:               efa71f788965bd4453f860178fc19101c845cd3e6842f847b4833a9020b4d20ae26c6b2cbe2130729a5bf96e7cd29912143ed40386dd8bd2158602aa0f87d7fb
Reciphers for ciphertext: 0
Decipheredtext:           00000000000000000000000000000008
RESULT CIPHER-DECIPHER: -----OK-----


Test: 125
Crypto pad: 1
Symmetric key bit length: 192
IV bit length:            128
Plaintext bit length:     128
Symmetric key:            000000000000000000000000000000000000000000000000
IV:                       00000000000000000000000000000000
Plaintext:                00000000000000000000000000000004
Ciphertext:               efa71f788965bd4453f860178fc19101222ef4f97b1bb1a87d9cacf771529d334de2b8fff3588a5d4e62cadb720e5bcc672aad32ab837ea11f2289ca7f43dd16
Reciphers for ciphertext: 0
Decipheredtext:           00000000000000000000000000000004
RESULT CIPHER-DECIPHER: -----OK-----


Test: 126
Crypto pad: 1
Symmetric key bit length: 192
IV bit length:            128
Plaintext bit length:     128
Symmetric key:            000000000000000000000000000000000000000000000000
IV:                       00000000000000000000000000000000
Plaintext:                00000000000000000000000000000002
Ciphertext:               efa71f788965bd4453f860178fc19101222ef4f97b1bb1a87d9cacf771529d33b96dd46c6a286bff721693a98491f5298f487032d5f360300b870f4bf2a5355a
Reciphers for ciphertext: 0
Decipheredtext:           00000000000000000000000000000002
RESULT CIPHER-DECIPHER: -----OK-----


Test: 127
Crypto pad: 0
Symmetric key bit length: 192
IV bit length:            128
Plaintext bit length:     128
Symmetric key:            000000000000000000000000000000000000000000000000
IV:                       00000000000000000000000000000000
Plaintext:                00000000000000000000000000000001
Ciphertext:               efa71f788965bd4453f860178fc19101b74d061061452c969424d5c9decb488364f1dbd3c79ee69ac9e0ed5f554f4ab6702bb588d17b230c0c278bc3aebc7863
Reciphers for ciphertext: 0
Decipheredtext:           00000000000000000000000000000001
RESULT CIPHER-DECIPHER: -----OK-----


 DATA SHA1 (hexadecimal): a3ec63dc72f029607f2cbd0ab746dea05a69ef89

