
DiceLock 9.0.0.1

 TEST COMPONENTS:
 ----------------
 DiceLock:           DiceLockIVIndexed class
 Operation Mode:     CBC_Mode class
 Crypto pads:        0 - ANSI_X_923 class
                     1 - ISO_IEC_9797_1 class
                     2 - PKCS7 class
 Block Cipher:       Camellia256 class
 Key Modifier:       IncreaseBase0IndexModifier_6_0_0_1 class
   Index bit length: 256
 Random tests:       RandomTestSuite class
                     FrequencyTest class
                     BlockFrequencyTest class
                     CumulativeSumForwardTest class
                     LongestRunOfOnesTest class
                     RunsTest class
 Random alpha:       0.001

 VECTOR TEST: Test vector 3 - Changing symmetric key, IV and plaintext, shifting 1 bit set


##### INDIVIDUAL TESTS #####

Number tests: 128


Test: 0
Crypto pad: 1
Symmetric key bit length: 256
IV bit length:            128
Plaintext bit length:     128
Symmetric key:            0000000000000000000000000000000080000000000000000000000000000000
IV:                       80000000000000000000000000000000
Plaintext:                80000000000000000000000000000000
Ciphertext:               d544b8aa9e7870608e1960bd19c8cc8dde928819964f5f8a285e55d1f574c73904be04b9768103a2835701ba135a488845b61539fe311adc0335f83cdc8be099fef3ab14f33220427d494bd083be46ce
Reciphers for ciphertext: 1
Decipheredtext:           80000000000000000000000000000000
RESULT CIPHER-DECIPHER: -----OK-----


Test: 1
Crypto pad: 2
Symmetric key bit length: 256
IV bit length:            128
Plaintext bit length:     128
Symmetric key:            0000000000000000000000000000000040000000000000000000000000000000
IV:                       40000000000000000000000000000000
Plaintext:                40000000000000000000000000000000
Ciphertext:               09c86ff73934bd585c136987f0336bae1da848a7c808d67424cfefe7f8a5cecc663277b22243f1410788b2e8769f8157182a96cc3bf10035b9db292d1399f9932ddba1fd38ee71666b85f52229d0adf6
Reciphers for ciphertext: 0
Decipheredtext:           40000000000000000000000000000000
RESULT CIPHER-DECIPHER: -----OK-----


Test: 2
Crypto pad: 2
Symmetric key bit length: 256
IV bit length:            128
Plaintext bit length:     128
Symmetric key:            0000000000000000000000000000000020000000000000000000000000000000
IV:                       20000000000000000000000000000000
Plaintext:                20000000000000000000000000000000
Ciphertext:               9a45a9c93d2be7cf569d4953c3dc865312e8d12704e949e72d4b91ce8e6a9cb64024f36c9da9f7c04bfb76ad0b8364da91e0e6991989d1fc4cbd754e4e7d059059559a5eede5793c846dc4d020b91da6
Reciphers for ciphertext: 0
Decipheredtext:           20000000000000000000000000000000
RESULT CIPHER-DECIPHER: -----OK-----


Test: 3
Crypto pad: 0
Symmetric key bit length: 256
IV bit length:            128
Plaintext bit length:     128
Symmetric key:            0000000000000000000000000000000010000000000000000000000000000000
IV:                       10000000000000000000000000000000
Plaintext:                10000000000000000000000000000000
Ciphertext:               966640b15b3cdc38544da330434e5e09366f5cda1337fcf66f0bd5c9ba3231e36a560158ada76f977ad24ea12ec0a46ef3efc4e6f207e370c8cae39408c4bf1b8e07cf6c857bdcb233828f2390e33749
Reciphers for ciphertext: 0
Decipheredtext:           10000000000000000000000000000000
RESULT CIPHER-DECIPHER: -----OK-----


Test: 4
Crypto pad: 2
Symmetric key bit length: 256
IV bit length:            128
Plaintext bit length:     128
Symmetric key:            0000000000000000000000000000000008000000000000000000000000000000
IV:                       08000000000000000000000000000000
Plaintext:                08000000000000000000000000000000
Ciphertext:               d3fc051c01e5d83fda2823d59cad3045f8f418c3b239e952f785438840ffed99a0f28deed51e1f37f472f7d6d636b00aaa767ab2ec6fa2fa183daf9c0f3bae5ea735db9b6145635d0fd8587f38cfd8c5
Reciphers for ciphertext: 0
Decipheredtext:           08000000000000000000000000000000
RESULT CIPHER-DECIPHER: -----OK-----


Test: 5
Crypto pad: 0
Symmetric key bit length: 256
IV bit length:            128
Plaintext bit length:     128
Symmetric key:            0000000000000000000000000000000004000000000000000000000000000000
IV:                       04000000000000000000000000000000
Plaintext:                04000000000000000000000000000000
Ciphertext:               fb04e8e09f74cf9ffe739dd86c725eba0b1b34c0254a1b57fb4c53bd686541aecdc9c11a577c9334f39898187f66d03ad1ff11f4d1aeeaae01a115081af886effa3ddc9c8237cff1e3f609354664af40
Reciphers for ciphertext: 0
Decipheredtext:           04000000000000000000000000000000
RESULT CIPHER-DECIPHER: -----OK-----


Test: 6
Crypto pad: 1
Symmetric key bit length: 256
IV bit length:            128
Plaintext bit length:     128
Symmetric key:            0000000000000000000000000000000002000000000000000000000000000000
IV:                       02000000000000000000000000000000
Plaintext:                02000000000000000000000000000000
Ciphertext:               0188abfca0775405df5f8379ec3a351b06dc8c1e7092157b712b9804cb714c94f490860b7706b09881a143f64216cba95390139711090b56b28338fea98fcc8221207bbd1a27d1bd8529f49b55f7b549
Reciphers for ciphertext: 0
Decipheredtext:           02000000000000000000000000000000
RESULT CIPHER-DECIPHER: -----OK-----


Test: 7
Crypto pad: 1
Symmetric key bit length: 256
IV bit length:            128
Plaintext bit length:     128
Symmetric key:            0000000000000000000000000000000001000000000000000000000000000000
IV:                       01000000000000000000000000000000
Plaintext:                01000000000000000000000000000000
Ciphertext:               02a90741fe6062bb83fe6b5cb1ae797b3828041b9e702946be80a3e651d9a001b2c3ab1ecc17aa00eed90a2923c5de3c13e693ccf6ebf0e6061b92b7ed0b95b689e13c16d78bf15d710d2d9d618b5f0c
Reciphers for ciphertext: 0
Decipheredtext:           01000000000000000000000000000000
RESULT CIPHER-DECIPHER: -----OK-----


Test: 8
Crypto pad: 2
Symmetric key bit length: 256
IV bit length:            128
Plaintext bit length:     128
Symmetric key:            0000000000000000000000000000000000800000000000000000000000000000
IV:                       00800000000000000000000000000000
Plaintext:                00800000000000000000000000000000
Ciphertext:               7d9fdc2dec27076cfaf3bd00ceab1c11e886a62ca0d95af9362d009a9cbb6221883cb3f98c6d74ea2f17c4d4d4bcacf8588fb2f95861d3c427669c68d04adb257a8e28159bbac3ab5ee9860cd60b6942
Reciphers for ciphertext: 0
Decipheredtext:           00800000000000000000000000000000
RESULT CIPHER-DECIPHER: -----OK-----


Test: 9
Crypto pad: 1
Symmetric key bit length: 256
IV bit length:            128
Plaintext bit length:     128
Symmetric key:            0000000000000000000000000000000000400000000000000000000000000000
IV:                       00400000000000000000000000000000
Plaintext:                00400000000000000000000000000000
Ciphertext:               e09c47d5c6ece5f59f6ee016ceb4dfdff2ae899508bbe15a5e4854e04de1dd100f8ff507baa8d913184f9059a1700730f472ecdf8debc416313aaf7c8aafb43efe60bd53c46d4fa2e8ff32e58c448930
Reciphers for ciphertext: 0
Decipheredtext:           00400000000000000000000000000000
RESULT CIPHER-DECIPHER: -----OK-----


Test: 10
Crypto pad: 1
Symmetric key bit length: 256
IV bit length:            128
Plaintext bit length:     128
Symmetric key:            0000000000000000000000000000000000200000000000000000000000000000
IV:                       00200000000000000000000000000000
Plaintext:                00200000000000000000000000000000
Ciphertext:               df3d64924d31e4af505a06169d1d63f05f17b983b9a828e6b32bfa90c33a613bd0a6491c31e4f92b5ee5510f914b6824eaa654be38e857941a921c70ac7fc7ce5d30c9f6090f7bf6baf16507b4a130e9
Reciphers for ciphertext: 0
Decipheredtext:           00200000000000000000000000000000
RESULT CIPHER-DECIPHER: -----OK-----


Test: 11
Crypto pad: 0
Symmetric key bit length: 256
IV bit length:            128
Plaintext bit length:     128
Symmetric key:            0000000000000000000000000000000000100000000000000000000000000000
IV:                       00100000000000000000000000000000
Plaintext:                00100000000000000000000000000000
Ciphertext:               7d119eccaa2154c8a2c935c41f04886325b79b7103f1d3cec74d66f6a90b20e8068951a0b884554fd6f5c6d489bf688ff2a4e47ae80cdf506b9513c510ea0954905d51f7919088c4553304e99a88c7d3
Reciphers for ciphertext: 0
Decipheredtext:           00100000000000000000000000000000
RESULT CIPHER-DECIPHER: -----OK-----


Test: 12
Crypto pad: 2
Symmetric key bit length: 256
IV bit length:            128
Plaintext bit length:     128
Symmetric key:            0000000000000000000000000000000000080000000000000000000000000000
IV:                       00080000000000000000000000000000
Plaintext:                00080000000000000000000000000000
Ciphertext:               d19356f4b8754de3ee243288bf2bc2494209bfbe116e47a838756f05283f9587b13d71a69a5a8a9e209c6683171e5f3af08ec7ed8fbb99f175a990c3e4decb6b78c413fdb78ec8fa98ad7b5816e65f25
Reciphers for ciphertext: 0
Decipheredtext:           00080000000000000000000000000000
RESULT CIPHER-DECIPHER: -----OK-----


Test: 13
Crypto pad: 2
Symmetric key bit length: 256
IV bit length:            128
Plaintext bit length:     128
Symmetric key:            0000000000000000000000000000000000040000000000000000000000000000
IV:                       00040000000000000000000000000000
Plaintext:                00040000000000000000000000000000
Ciphertext:               b279481ea1462ea386f573b1765f3d86a823946db11bced24acd494ce5fa39b6b7bf59a9c0e572f2d85b58f6c3afdc8e5c767bc584ca3653ede27cd8b209a0adc6580fcd704fe60f1ce7da32b7843ac1
Reciphers for ciphertext: 0
Decipheredtext:           00040000000000000000000000000000
RESULT CIPHER-DECIPHER: -----OK-----


Test: 14
Crypto pad: 1
Symmetric key bit length: 256
IV bit length:            128
Plaintext bit length:     128
Symmetric key:            0000000000000000000000000000000000020000000000000000000000000000
IV:                       00020000000000000000000000000000
Plaintext:                00020000000000000000000000000000
Ciphertext:               c7d7dfdddaeffccd9e408774015273af910d4de63d08820dbf45ac3f8f9dc5c83385eb4f5958f1721cdbd235f9a90dabaff9a8ba92a40b2bf42fdb4089b1f9ccdd4c9c54603f26f52cd954a5bbd942ca
Reciphers for ciphertext: 0
Decipheredtext:           00020000000000000000000000000000
RESULT CIPHER-DECIPHER: -----OK-----


Test: 15
Crypto pad: 2
Symmetric key bit length: 256
IV bit length:            128
Plaintext bit length:     128
Symmetric key:            0000000000000000000000000000000000010000000000000000000000000000
IV:                       00010000000000000000000000000000
Plaintext:                00010000000000000000000000000000
Ciphertext:               e906e6147f4d323c18f255b96a48b6911b711e474a10091b9193acf757b81c694a62daca321e13914ce9607635002535bfc1e9198bbe22266712eb1ecb17d748fbd9a30918032ba6c964c7b396b7ce1a
Reciphers for ciphertext: 0
Decipheredtext:           00010000000000000000000000000000
RESULT CIPHER-DECIPHER: -----OK-----


Test: 16
Crypto pad: 2
Symmetric key bit length: 256
IV bit length:            128
Plaintext bit length:     128
Symmetric key:            0000000000000000000000000000000000008000000000000000000000000000
IV:                       00008000000000000000000000000000
Plaintext:                00008000000000000000000000000000
Ciphertext:               5c4733a2b94239ddc2e609a4f528599e92df6195d299647d94ddc775040e4e0c0bad609543f123065c210d46664dd8f6235184136a29208bd041e60bcb9f746470b51862c2ae2108f2eda42b1fb77269
Reciphers for ciphertext: 0
Decipheredtext:           00008000000000000000000000000000
RESULT CIPHER-DECIPHER: -----OK-----


Test: 17
Crypto pad: 0
Symmetric key bit length: 256
IV bit length:            128
Plaintext bit length:     128
Symmetric key:            0000000000000000000000000000000000004000000000000000000000000000
IV:                       00004000000000000000000000000000
Plaintext:                00004000000000000000000000000000
Ciphertext:               249412d4f36ac2481c3592d0d81eb935dc08f052fc7256607d1e52c583e10b18c08f3777b7784ce6d708321de6d2955583dc48f9177c5c94cbc22e83a2b7682983098b884c1efd7131da5f9e021e3fee
Reciphers for ciphertext: 0
Decipheredtext:           00004000000000000000000000000000
RESULT CIPHER-DECIPHER: -----OK-----


Test: 18
Crypto pad: 2
Symmetric key bit length: 256
IV bit length:            128
Plaintext bit length:     128
Symmetric key:            0000000000000000000000000000000000002000000000000000000000000000
IV:                       00002000000000000000000000000000
Plaintext:                00002000000000000000000000000000
Ciphertext:               b11ce4fe226203482d22ed7dc8ac4d0e811a0ffc194cda4cef7c548f72a4d620dcdd01326b5442422afa1473ec90b18672cd31acb7a1a459e4d27c1f26039fa7cc217820500092764998fb1000308267
Reciphers for ciphertext: 0
Decipheredtext:           00002000000000000000000000000000
RESULT CIPHER-DECIPHER: -----OK-----


Test: 19
Crypto pad: 0
Symmetric key bit length: 256
IV bit length:            128
Plaintext bit length:     128
Symmetric key:            0000000000000000000000000000000000001000000000000000000000000000
IV:                       00001000000000000000000000000000
Plaintext:                00001000000000000000000000000000
Ciphertext:               0296e4de71bcadb25fc5319aa96de087d9b6c91dd65b32fd8d21ff8a3ed0477f8e222ab3295fee4d5a62f007862508cd139ac4734c3136fd9982fcc7a569b9d3d67d2e5d54afa7a122d86683b5a6effe
Reciphers for ciphertext: 0
Decipheredtext:           00001000000000000000000000000000
RESULT CIPHER-DECIPHER: -----OK-----


Test: 20
Crypto pad: 0
Symmetric key bit length: 256
IV bit length:            128
Plaintext bit length:     128
Symmetric key:            0000000000000000000000000000000000000800000000000000000000000000
IV:                       00000800000000000000000000000000
Plaintext:                00000800000000000000000000000000
Ciphertext:               af0996c5147a0c10aeaed1655be4c3ac9e54aa550751476ed7e5d3ee22bc3655f53c2e1a077f7151b681ce931bdbe7a212ffa3ef4346f4c57a03a36f9938b2518caa6c5e46f0bfc2f4e75e1d870f3647
Reciphers for ciphertext: 0
Decipheredtext:           00000800000000000000000000000000
RESULT CIPHER-DECIPHER: -----OK-----


Test: 21
Crypto pad: 0
Symmetric key bit length: 256
IV bit length:            128
Plaintext bit length:     128
Symmetric key:            0000000000000000000000000000000000000400000000000000000000000000
IV:                       00000400000000000000000000000000
Plaintext:                00000400000000000000000000000000
Ciphertext:               d78961d498e1f6cba2cd6806fe7eba0c4810d74ad661c7a77e064b1b349893db566a75fb1e38c5480ee1979de8a7597543ddb100ce22e5553cf4dcf814bf3cac60c78f308fbe694f610a7fae8590b9f6
Reciphers for ciphertext: 0
Decipheredtext:           00000400000000000000000000000000
RESULT CIPHER-DECIPHER: -----OK-----


Test: 22
Crypto pad: 2
Symmetric key bit length: 256
IV bit length:            128
Plaintext bit length:     128
Symmetric key:            0000000000000000000000000000000000000200000000000000000000000000
IV:                       00000200000000000000000000000000
Plaintext:                00000200000000000000000000000000
Ciphertext:               d7552bbdcefc504b6960d9de9a7687847a5e9f850a3b8bd0a2966c6a7efc86b9bfa658b1ed7fbc9ea5dc2dc2f9cee66babdadf4c948bb61c0a917885ade4c7c541a2bda783ed50d940d7ebd6dce5ceb9
Reciphers for ciphertext: 0
Decipheredtext:           00000200000000000000000000000000
RESULT CIPHER-DECIPHER: -----OK-----


Test: 23
Crypto pad: 2
Symmetric key bit length: 256
IV bit length:            128
Plaintext bit length:     128
Symmetric key:            0000000000000000000000000000000000000100000000000000000000000000
IV:                       00000100000000000000000000000000
Plaintext:                00000100000000000000000000000000
Ciphertext:               b1047448ec47911f011d89ddf13c0ef1f0cefe86f4afdbb7006b6db738d86b9820f6906cca37ccf550c6bc1fc2395e75197391e089de173b522ddd8cbeec311801228b298ea743d14260e7103acfae94
Reciphers for ciphertext: 0
Decipheredtext:           00000100000000000000000000000000
RESULT CIPHER-DECIPHER: -----OK-----


Test: 24
Crypto pad: 1
Symmetric key bit length: 256
IV bit length:            128
Plaintext bit length:     128
Symmetric key:            0000000000000000000000000000000000000080000000000000000000000000
IV:                       00000080000000000000000000000000
Plaintext:                00000080000000000000000000000000
Ciphertext:               1334e43e4493539eb6a0b0c69fc2abe6b14fa5d04d877d6d3da0ec782d9f6eeb87e412600d5a7ae0eb6ffb80ae616f9643fbe8bf2728c55c9368d01e40c1cf967e00ea240599e77bf33f6d0a2d5bc636
Reciphers for ciphertext: 0
Decipheredtext:           00000080000000000000000000000000
RESULT CIPHER-DECIPHER: -----OK-----


Test: 25
Crypto pad: 0
Symmetric key bit length: 256
IV bit length:            128
Plaintext bit length:     128
Symmetric key:            0000000000000000000000000000000000000040000000000000000000000000
IV:                       00000040000000000000000000000000
Plaintext:                00000040000000000000000000000000
Ciphertext:               8c9b5e77b192a3b8e1dabbf74e5f852cbac90fa42b2c18513e8faffc5b6f215bd387261d14b6b6ff4446a0eb9e9a6d270f5de5f67ec84f2cb253a0bc48991c71a5f87b225de77a058896fe2e82fe4ac2
Reciphers for ciphertext: 0
Decipheredtext:           00000040000000000000000000000000
RESULT CIPHER-DECIPHER: -----OK-----


Test: 26
Crypto pad: 2
Symmetric key bit length: 256
IV bit length:            128
Plaintext bit length:     128
Symmetric key:            0000000000000000000000000000000000000020000000000000000000000000
IV:                       00000020000000000000000000000000
Plaintext:                00000020000000000000000000000000
Ciphertext:               ac6d52a1a1a10b82b179b6a766fe21e9bb8c2490a316eb1fb9a44db8da7b8915c66ec0e524b55e7fa51dafabe198b1ac52ba4666b972eae3d2e960d7372d3c484a484903661f7c3a7a3f5c949e01da1c
Reciphers for ciphertext: 0
Decipheredtext:           00000020000000000000000000000000
RESULT CIPHER-DECIPHER: -----OK-----


Test: 27
Crypto pad: 1
Symmetric key bit length: 256
IV bit length:            128
Plaintext bit length:     128
Symmetric key:            0000000000000000000000000000000000000010000000000000000000000000
IV:                       00000010000000000000000000000000
Plaintext:                00000010000000000000000000000000
Ciphertext:               a6741a46c06e1a11a2dd0daad2142b7e8d73a46f8410cf49c5792639f72bb4856a5c7e12e64b7a06559e118a2193b4190735ae765bc079a93b451d873fa9370202cf5edad984ccb4d8699310e00424b3
Reciphers for ciphertext: 0
Decipheredtext:           00000010000000000000000000000000
RESULT CIPHER-DECIPHER: -----OK-----


Test: 28
Crypto pad: 2
Symmetric key bit length: 256
IV bit length:            128
Plaintext bit length:     128
Symmetric key:            0000000000000000000000000000000000000008000000000000000000000000
IV:                       00000008000000000000000000000000
Plaintext:                00000008000000000000000000000000
Ciphertext:               3cad058c75e799fd93c3d2abfd9a67005a532b8bd0102fd2612e9332220b1361736b15cdc944ba40f7b3d17d8fad00a589d988508a4569e2232f72412ae50b6534b24343f535edd27c08c7585f224bf4
Reciphers for ciphertext: 0
Decipheredtext:           00000008000000000000000000000000
RESULT CIPHER-DECIPHER: -----OK-----


Test: 29
Crypto pad: 2
Symmetric key bit length: 256
IV bit length:            128
Plaintext bit length:     128
Symmetric key:            0000000000000000000000000000000000000004000000000000000000000000
IV:                       00000004000000000000000000000000
Plaintext:                00000004000000000000000000000000
Ciphertext:               503b438bf87732d2fe7e92a2de587d1fa991ce8fe4ea7e1e15db10af23a70fc212e3e3250f0bb2465ab6bff709d87ff8bcf0ee2403bc9344030c0ff065b6fd88634fd2ff2ada5089ed0e04d8a3755719
Reciphers for ciphertext: 0
Decipheredtext:           00000004000000000000000000000000
RESULT CIPHER-DECIPHER: -----OK-----


Test: 30
Crypto pad: 2
Symmetric key bit length: 256
IV bit length:            128
Plaintext bit length:     128
Symmetric key:            0000000000000000000000000000000000000002000000000000000000000000
IV:                       00000002000000000000000000000000
Plaintext:                00000002000000000000000000000000
Ciphertext:               8f314dc0ac704bca0b92218ff827b7e11959e18e43726606a81ab9d96c3fa927e60f290dcb65ed9964eb608624a8966e25d76d36f3376d6fd835ba012c7dd2e5055f8cc137d18181b91b0eb0e39ea024
Reciphers for ciphertext: 0
Decipheredtext:           00000002000000000000000000000000
RESULT CIPHER-DECIPHER: -----OK-----


Test: 31
Crypto pad: 2
Symmetric key bit length: 256
IV bit length:            128
Plaintext bit length:     128
Symmetric key:            0000000000000000000000000000000000000001000000000000000000000000
IV:                       00000001000000000000000000000000
Plaintext:                00000001000000000000000000000000
Ciphertext:               0dd8614cc6713b40ff23065920eb7c63d0655f0bd6bffda0f3452c25eb572fdef786afa5cd7d2eeceea8431ca66e30a4ef364a31e8551732d4b2098281d4e2c98442bb6165046a9f6e6452e5b1958c6e
Reciphers for ciphertext: 0
Decipheredtext:           00000001000000000000000000000000
RESULT CIPHER-DECIPHER: -----OK-----


Test: 32
Crypto pad: 2
Symmetric key bit length: 256
IV bit length:            128
Plaintext bit length:     128
Symmetric key:            0000000000000000000000000000000000000000800000000000000000000000
IV:                       00000000800000000000000000000000
Plaintext:                00000000800000000000000000000000
Ciphertext:               d363c8b4fb6a4b7ade30691de29a5861aea5c2b5d4da1f30d3ef62600643dd3835f78edb9ed94aa77a6860550047978064b1f927c0a7315ea60bc5f2a0dccfe2855c132bdcc1c5a24b56b2f7c7d7369a
Reciphers for ciphertext: 0
Decipheredtext:           00000000800000000000000000000000
RESULT CIPHER-DECIPHER: -----OK-----


Test: 33
Crypto pad: 0
Symmetric key bit length: 256
IV bit length:            128
Plaintext bit length:     128
Symmetric key:            0000000000000000000000000000000000000000400000000000000000000000
IV:                       00000000400000000000000000000000
Plaintext:                00000000400000000000000000000000
Ciphertext:               d4deda2ad206c9ad85eeaae619737b104044683e117bd7b51f45886f20c06c650201a98c025a791a867737529ca92963ca99e0edfa0e121f27659346bcdcc4432c351a7e4119340876dc1117c3aa7960
Reciphers for ciphertext: 0
Decipheredtext:           00000000400000000000000000000000
RESULT CIPHER-DECIPHER: -----OK-----


Test: 34
Crypto pad: 1
Symmetric key bit length: 256
IV bit length:            128
Plaintext bit length:     128
Symmetric key:            0000000000000000000000000000000000000000200000000000000000000000
IV:                       00000000200000000000000000000000
Plaintext:                00000000200000000000000000000000
Ciphertext:               a90962b159c493c9010a2a015010222dcd017ce814deae7b6af53d9a7e7e5f7f3d3f8cffbd1360c816c0f56c3d9d43a71816d9d23d1069bc6dec195f60994c050ec412d84a896ab56ebe8c69770e486b
Reciphers for ciphertext: 0
Decipheredtext:           00000000200000000000000000000000
RESULT CIPHER-DECIPHER: -----OK-----


Test: 35
Crypto pad: 2
Symmetric key bit length: 256
IV bit length:            128
Plaintext bit length:     128
Symmetric key:            0000000000000000000000000000000000000000100000000000000000000000
IV:                       00000000100000000000000000000000
Plaintext:                00000000100000000000000000000000
Ciphertext:               9c6ab563da0eb5c6bd768d0c34450fa41bb3b50929e005b623301fe628eeb602521377b28c3fc4c3189eed585c47846c9819575f6890e093091378aed0612051feee062b785901661cc786c0904d84bb
Reciphers for ciphertext: 0
Decipheredtext:           00000000100000000000000000000000
RESULT CIPHER-DECIPHER: -----OK-----


Test: 36
Crypto pad: 0
Symmetric key bit length: 256
IV bit length:            128
Plaintext bit length:     128
Symmetric key:            0000000000000000000000000000000000000000080000000000000000000000
IV:                       00000000080000000000000000000000
Plaintext:                00000000080000000000000000000000
Ciphertext:               9d14b572a24dff48ee5b8fbd7034d337578ba978a101525db16cb06284bb26c6d8a9a22fa1f7117038a2d72d5999555a41903de72a486b823842fba2840e265c592cd55e264d86c76be0667a4638acca
Reciphers for ciphertext: 0
Decipheredtext:           00000000080000000000000000000000
RESULT CIPHER-DECIPHER: -----OK-----


Test: 37
Crypto pad: 2
Symmetric key bit length: 256
IV bit length:            128
Plaintext bit length:     128
Symmetric key:            0000000000000000000000000000000000000000040000000000000000000000
IV:                       00000000040000000000000000000000
Plaintext:                00000000040000000000000000000000
Ciphertext:               6d26becb60d6dc197bbcae351ce119c30ba996d9ed0bb31e61ddb3cfa5efb9c070c2f6aab767523c6479e47de46488c330651d416912a01edec4290d34b4a6055d6d24b93c7021b9bb0850463d36a7c1
Reciphers for ciphertext: 0
Decipheredtext:           00000000040000000000000000000000
RESULT CIPHER-DECIPHER: -----OK-----


Test: 38
Crypto pad: 2
Symmetric key bit length: 256
IV bit length:            128
Plaintext bit length:     128
Symmetric key:            0000000000000000000000000000000000000000020000000000000000000000
IV:                       00000000020000000000000000000000
Plaintext:                00000000020000000000000000000000
Ciphertext:               9c7ca1fe4fae07f0808cf93084521f5662e4401675076887b7a37203c8032212014fbcd99e2e421de83d5cc3569736050949ad8ab2e85995686d6d495aba1028c377b05d0f11ac668ba2a9f4fa84b77f
Reciphers for ciphertext: 0
Decipheredtext:           00000000020000000000000000000000
RESULT CIPHER-DECIPHER: -----OK-----


Test: 39
Crypto pad: 2
Symmetric key bit length: 256
IV bit length:            128
Plaintext bit length:     128
Symmetric key:            0000000000000000000000000000000000000000010000000000000000000000
IV:                       00000000010000000000000000000000
Plaintext:                00000000010000000000000000000000
Ciphertext:               c7cdb3e415c946edc1dfa0804e881b4b56fd5e8161a666fa0129c4e887368291b79cdf42e41977e45dcfa34597f0a6cd3789c2d08e122be204662fe9a0fdf77af78470479f8918d9113a5dbed82128ae
Reciphers for ciphertext: 0
Decipheredtext:           00000000010000000000000000000000
RESULT CIPHER-DECIPHER: -----OK-----


Test: 40
Crypto pad: 0
Symmetric key bit length: 256
IV bit length:            128
Plaintext bit length:     128
Symmetric key:            0000000000000000000000000000000000000000008000000000000000000000
IV:                       00000000008000000000000000000000
Plaintext:                00000000008000000000000000000000
Ciphertext:               f4d26998857cbb0b8b4b8385dc296de6bf941d7558b83e51fa7cdb432f7b6fcc1cf064415dce286f638f34f74d42dce6a0c66ee031ff045123475e6f5fa64f57b0bfb65c64f415fe74df9b8bf91267da
Reciphers for ciphertext: 0
Decipheredtext:           00000000008000000000000000000000
RESULT CIPHER-DECIPHER: -----OK-----


Test: 41
Crypto pad: 2
Symmetric key bit length: 256
IV bit length:            128
Plaintext bit length:     128
Symmetric key:            0000000000000000000000000000000000000000004000000000000000000000
IV:                       00000000004000000000000000000000
Plaintext:                00000000004000000000000000000000
Ciphertext:               05bbccb2c60a12c6dd4b1b39313a98c6a3521f27ed974d9782e331251527fa8f102dddb482ca53527c1eb2c022173caf1baccdd314af39124709013c94cad1ac53e6cfe14860ae776f9c8ce7dcc1b89f
Reciphers for ciphertext: 0
Decipheredtext:           00000000004000000000000000000000
RESULT CIPHER-DECIPHER: -----OK-----


Test: 42
Crypto pad: 1
Symmetric key bit length: 256
IV bit length:            128
Plaintext bit length:     128
Symmetric key:            0000000000000000000000000000000000000000002000000000000000000000
IV:                       00000000002000000000000000000000
Plaintext:                00000000002000000000000000000000
Ciphertext:               caddd84cde7f02d977f5b57fea75e19f81024e97405a82f7e35df707f9c4141ca81213217209056e35f2385a8368b7bb2fb5df5527a8e06aed03d683edf14e9a7e4520584fcca33e3e8dd7dabf105619
Reciphers for ciphertext: 0
Decipheredtext:           00000000002000000000000000000000
RESULT CIPHER-DECIPHER: -----OK-----


Test: 43
Crypto pad: 2
Symmetric key bit length: 256
IV bit length:            128
Plaintext bit length:     128
Symmetric key:            0000000000000000000000000000000000000000001000000000000000000000
IV:                       00000000001000000000000000000000
Plaintext:                00000000001000000000000000000000
Ciphertext:               e2f778dfb791ab9dfda41633de023537d635ad95cc10895f08a8410d9f986771b023bdece0ae8dfae1dcb0e22bddfde0ff2c61ad63cda6207605c18c888b383d3746ba354eb5bf76e566ca5c187014db
Reciphers for ciphertext: 0
Decipheredtext:           00000000001000000000000000000000
RESULT CIPHER-DECIPHER: -----OK-----


Test: 44
Crypto pad: 1
Symmetric key bit length: 256
IV bit length:            128
Plaintext bit length:     128
Symmetric key:            0000000000000000000000000000000000000000000800000000000000000000
IV:                       00000000000800000000000000000000
Plaintext:                00000000000800000000000000000000
Ciphertext:               7a22feccb087c6826b1212ec3f9fab267e26b51aecb3baf623ce464e38c19379e520eb603c384e44c7cd1dcabe730e0f71ce4a5b48671ab9a6561b7109fb834544e25bd8c938c43706f6b60e5b069cbc
Reciphers for ciphertext: 0
Decipheredtext:           00000000000800000000000000000000
RESULT CIPHER-DECIPHER: -----OK-----


Test: 45
Crypto pad: 1
Symmetric key bit length: 256
IV bit length:            128
Plaintext bit length:     128
Symmetric key:            0000000000000000000000000000000000000000000400000000000000000000
IV:                       00000000000400000000000000000000
Plaintext:                00000000000400000000000000000000
Ciphertext:               12a54dcddc00484ad418437828b252e4cc3e547a81ca569bf6b1af6a455e6e4490cea0d0e934f22ecf4af9622e77007b37299c12377e9cb8df5fe730dffcb5ca7ceffec260eebf60c71dc5e5dcd4aa84
Reciphers for ciphertext: 0
Decipheredtext:           00000000000400000000000000000000
RESULT CIPHER-DECIPHER: -----OK-----


Test: 46
Crypto pad: 1
Symmetric key bit length: 256
IV bit length:            128
Plaintext bit length:     128
Symmetric key:            0000000000000000000000000000000000000000000200000000000000000000
IV:                       00000000000200000000000000000000
Plaintext:                00000000000200000000000000000000
Ciphertext:               fcc65520851a9341c26e8f73de22ae0c187addb498eaca8495196287192d546a926b4e6263605edb564820ee58b112afc5454350a7cb0ec5ca3932a3948f48bcaac072a9fd845004dc1f397b33f97631
Reciphers for ciphertext: 0
Decipheredtext:           00000000000200000000000000000000
RESULT CIPHER-DECIPHER: -----OK-----


Test: 47
Crypto pad: 1
Symmetric key bit length: 256
IV bit length:            128
Plaintext bit length:     128
Symmetric key:            0000000000000000000000000000000000000000000100000000000000000000
IV:                       00000000000100000000000000000000
Plaintext:                00000000000100000000000000000000
Ciphertext:               c463b7ac230b0a5e00477a3f59a55c844fe24f843924c959a97416b676b32a409ccde4c99ab5e55e2be59097a890c5518ab40d09ffbd0c82e9091fc80d2a63c968fd7b416950608d62bb4fb69d7f3c79
Reciphers for ciphertext: 0
Decipheredtext:           00000000000100000000000000000000
RESULT CIPHER-DECIPHER: -----OK-----


Test: 48
Crypto pad: 0
Symmetric key bit length: 256
IV bit length:            128
Plaintext bit length:     128
Symmetric key:            0000000000000000000000000000000000000000000080000000000000000000
IV:                       00000000000080000000000000000000
Plaintext:                00000000000080000000000000000000
Ciphertext:               abbf2990c677411633e2d8f4d3b231dc532deb994348eac3e9a5ad73b4fbd4e3827a1585cf0a322ce31e65c581e71d859cb3fe43eae3dc7ac4f97e609fde9f10e67636fae8938f8a6c2c8ab2df80838d
Reciphers for ciphertext: 0
Decipheredtext:           00000000000080000000000000000000
RESULT CIPHER-DECIPHER: -----OK-----


Test: 49
Crypto pad: 0
Symmetric key bit length: 256
IV bit length:            128
Plaintext bit length:     128
Symmetric key:            0000000000000000000000000000000000000000000040000000000000000000
IV:                       00000000000040000000000000000000
Plaintext:                00000000000040000000000000000000
Ciphertext:               db01720a75a4823947a8b555f08e8c5639b4dbe656eb9f8ed2102142800af63eb2d13651096301f76719b6c0279bde7551369dc689b25c3ac593b578baea046e115e49f374bc034dc2f4d539235805bc
Reciphers for ciphertext: 0
Decipheredtext:           00000000000040000000000000000000
RESULT CIPHER-DECIPHER: -----OK-----


Test: 50
Crypto pad: 0
Symmetric key bit length: 256
IV bit length:            128
Plaintext bit length:     128
Symmetric key:            0000000000000000000000000000000000000000000020000000000000000000
IV:                       00000000000020000000000000000000
Plaintext:                00000000000020000000000000000000
Ciphertext:               9f78995c9ca90e263e31857226c17c69e19cf7f5a04454b6f6de0cde77d43a75483b8a76488b0d4e3b1589fa1e08303613d9d885a24ae8b859f239890df438c980f4985218dd30a28dabaa8a15a9aac3
Reciphers for ciphertext: 0
Decipheredtext:           00000000000020000000000000000000
RESULT CIPHER-DECIPHER: -----OK-----


Test: 51
Crypto pad: 2
Symmetric key bit length: 256
IV bit length:            128
Plaintext bit length:     128
Symmetric key:            0000000000000000000000000000000000000000000010000000000000000000
IV:                       00000000000010000000000000000000
Plaintext:                00000000000010000000000000000000
Ciphertext:               50326c34efd6fb9d8fd85609e1bd14700119fe4e2915176036df7683987912f9faf4b128c8c2f48194a3503b0aae4211ceacae376290d5c62d2dae422ca6e5c086b84fc034ecc2bbb9e94fc402f117c6
Reciphers for ciphertext: 0
Decipheredtext:           00000000000010000000000000000000
RESULT CIPHER-DECIPHER: -----OK-----


Test: 52
Crypto pad: 0
Symmetric key bit length: 256
IV bit length:            128
Plaintext bit length:     128
Symmetric key:            0000000000000000000000000000000000000000000008000000000000000000
IV:                       00000000000008000000000000000000
Plaintext:                00000000000008000000000000000000
Ciphertext:               473fbfdba0462b0ddaa007814cf0f59cdb87e127c312a6fb30a680622b01a39695b000ea67c97927b6bc80a1a3f983c46ae17d621f97b62f4571ab165ce0a11f80023ab69666b792e1084071ada612a7
Reciphers for ciphertext: 0
Decipheredtext:           00000000000008000000000000000000
RESULT CIPHER-DECIPHER: -----OK-----


Test: 53
Crypto pad: 0
Symmetric key bit length: 256
IV bit length:            128
Plaintext bit length:     128
Symmetric key:            0000000000000000000000000000000000000000000004000000000000000000
IV:                       00000000000004000000000000000000
Plaintext:                00000000000004000000000000000000
Ciphertext:               de68fa0f6bf4982d8bb9b612c5288535bfe11203b8f70d355f104149139fafdc6a1267243c0f2e00b84ea4723ad5e30cc91318f8fd17e9bc656e639a0d648b3a3b9b9f995140962586a13adeb9086bad
Reciphers for ciphertext: 0
Decipheredtext:           00000000000004000000000000000000
RESULT CIPHER-DECIPHER: -----OK-----


Test: 54
Crypto pad: 0
Symmetric key bit length: 256
IV bit length:            128
Plaintext bit length:     128
Symmetric key:            0000000000000000000000000000000000000000000002000000000000000000
IV:                       00000000000002000000000000000000
Plaintext:                00000000000002000000000000000000
Ciphertext:               26703258d89815a7f41776ba9566619a8327fcc21552b4214f17c5bdbb029069b8e390d066865aa83569f2be020e28f4bff1bc1c935e40fb0c20ded5985f1910b7b5c93321277b8fbb59a22be2a31034
Reciphers for ciphertext: 0
Decipheredtext:           00000000000002000000000000000000
RESULT CIPHER-DECIPHER: -----OK-----


Test: 55
Crypto pad: 0
Symmetric key bit length: 256
IV bit length:            128
Plaintext bit length:     128
Symmetric key:            0000000000000000000000000000000000000000000001000000000000000000
IV:                       00000000000001000000000000000000
Plaintext:                00000000000001000000000000000000
Ciphertext:               92580310522262f7830213f5d780f4f85fb423636b67471abb5abf9a058840a9e12512cb82c537a876d8838d0186580e96f0b387f487bbdd5227b595a506f96301735668b62ff0502dcbd21d9dfc016c
Reciphers for ciphertext: 0
Decipheredtext:           00000000000001000000000000000000
RESULT CIPHER-DECIPHER: -----OK-----


Test: 56
Crypto pad: 0
Symmetric key bit length: 256
IV bit length:            128
Plaintext bit length:     128
Symmetric key:            0000000000000000000000000000000000000000000000800000000000000000
IV:                       00000000000000800000000000000000
Plaintext:                00000000000000800000000000000000
Ciphertext:               6e16a82792d1c944f2a75ed90bffa3fa6224837cd54f44bb684c014a40560f37a877499542d32e3944817cce6339586662265b7efb73a77205ecbbfd166b3eaebb47bc59b1aabe3d088d36a028917fbc
Reciphers for ciphertext: 0
Decipheredtext:           00000000000000800000000000000000
RESULT CIPHER-DECIPHER: -----OK-----


Test: 57
Crypto pad: 0
Symmetric key bit length: 256
IV bit length:            128
Plaintext bit length:     128
Symmetric key:            0000000000000000000000000000000000000000000000400000000000000000
IV:                       00000000000000400000000000000000
Plaintext:                00000000000000400000000000000000
Ciphertext:               d662fd501a7a91097d92b56274a0b63d8c60e87c551d9685462883f1f5cc70de1337eb793ce751ba9cec86cb3d971ec3016e8f3087757e8f576b19a58d356fb6d8db58d88bdb404dbbdb0fc79414a725
Reciphers for ciphertext: 0
Decipheredtext:           00000000000000400000000000000000
RESULT CIPHER-DECIPHER: -----OK-----


Test: 58
Crypto pad: 0
Symmetric key bit length: 256
IV bit length:            128
Plaintext bit length:     128
Symmetric key:            0000000000000000000000000000000000000000000000200000000000000000
IV:                       00000000000000200000000000000000
Plaintext:                00000000000000200000000000000000
Ciphertext:               2804f05d10281489b74dad0e42627a5d16a01f87add358c9864ae24256734865fb36a9f78ad85b445a45aad3ef4608e3456faf632ea07797cec23dc6553988f978ccd85a47020f031f1d3218c1cf6719
Reciphers for ciphertext: 0
Decipheredtext:           00000000000000200000000000000000
RESULT CIPHER-DECIPHER: -----OK-----


Test: 59
Crypto pad: 1
Symmetric key bit length: 256
IV bit length:            128
Plaintext bit length:     128
Symmetric key:            0000000000000000000000000000000000000000000000100000000000000000
IV:                       00000000000000100000000000000000
Plaintext:                00000000000000100000000000000000
Ciphertext:               91909c773e29bd2344920beeb12c60cdcce650807bfc3f4d3edfac378cc6034634ab818c935542dadae8f5b938512db1147694e2231fa00d6b62d3e51cc8201d2512867ebb4468386832c06ddb3ae2e7
Reciphers for ciphertext: 0
Decipheredtext:           00000000000000100000000000000000
RESULT CIPHER-DECIPHER: -----OK-----


Test: 60
Crypto pad: 1
Symmetric key bit length: 256
IV bit length:            128
Plaintext bit length:     128
Symmetric key:            0000000000000000000000000000000000000000000000080000000000000000
IV:                       00000000000000080000000000000000
Plaintext:                00000000000000080000000000000000
Ciphertext:               e129a2d82534cef6b00ccfe126cf3250c9828e81dc2ef912bd7d08779064ca68fdcffd90c63db52b8053ef9b6e7c58772299d31f3d747838c65fe7c6c0c5921475632610865b8af184124368236713af
Reciphers for ciphertext: 0
Decipheredtext:           00000000000000080000000000000000
RESULT CIPHER-DECIPHER: -----OK-----


Test: 61
Crypto pad: 1
Symmetric key bit length: 256
IV bit length:            128
Plaintext bit length:     128
Symmetric key:            0000000000000000000000000000000000000000000000040000000000000000
IV:                       00000000000000040000000000000000
Plaintext:                00000000000000040000000000000000
Ciphertext:               641f87ec6a6272ae050c8a437b3e5e6777318408a007db9eea026c13f092d9d2f2faa7d94b8aaba14af295baa7d47a86c5a669612a23e4f7551d79650071e040d516146bf25ab2259167868e7abc9248
Reciphers for ciphertext: 0
Decipheredtext:           00000000000000040000000000000000
RESULT CIPHER-DECIPHER: -----OK-----


Test: 62
Crypto pad: 1
Symmetric key bit length: 256
IV bit length:            128
Plaintext bit length:     128
Symmetric key:            0000000000000000000000000000000000000000000000020000000000000000
IV:                       00000000000000020000000000000000
Plaintext:                00000000000000020000000000000000
Ciphertext:               3a682c53236a5da937b724e34feb3d0f2fe2c7e78e5f7e8569a8335ed1918f0225145496f66b4c23f20878b70eb0043cf0a32d722edfd2ba628c781dacd5fc505ebee1f0e1038576b2233390387cfcd3
Reciphers for ciphertext: 0
Decipheredtext:           00000000000000020000000000000000
RESULT CIPHER-DECIPHER: -----OK-----


Test: 63
Crypto pad: 2
Symmetric key bit length: 256
IV bit length:            128
Plaintext bit length:     128
Symmetric key:            0000000000000000000000000000000000000000000000010000000000000000
IV:                       00000000000000010000000000000000
Plaintext:                00000000000000010000000000000000
Ciphertext:               6d6a753bcaa19752a9bef0dd900738b127d33cff3a3a911b009da4a472c2b855092fe685fda4a06c05ed9126d816d174422c8e2a0dff095e40654cb2b7176a9b03c0c023705c96b4007ac8c717658795
Reciphers for ciphertext: 0
Decipheredtext:           00000000000000010000000000000000
RESULT CIPHER-DECIPHER: -----OK-----


Test: 64
Crypto pad: 1
Symmetric key bit length: 256
IV bit length:            128
Plaintext bit length:     128
Symmetric key:            0000000000000000000000000000000000000000000000008000000000000000
IV:                       00000000000000008000000000000000
Plaintext:                00000000000000008000000000000000
Ciphertext:               451865f189e7d93c8a6381bea57600524e2774d015529d3e6033c838122cdd5b2c2eed3626dbd1550d2ec65610df281499def168961d4ab9e63157e60f76399c3c7af466c226dbb76da74bc03d9141c6
Reciphers for ciphertext: 0
Decipheredtext:           00000000000000008000000000000000
RESULT CIPHER-DECIPHER: -----OK-----


Test: 65
Crypto pad: 2
Symmetric key bit length: 256
IV bit length:            128
Plaintext bit length:     128
Symmetric key:            0000000000000000000000000000000000000000000000004000000000000000
IV:                       00000000000000004000000000000000
Plaintext:                00000000000000004000000000000000
Ciphertext:               b48603cd5afa47a7c902e1a8cab13d6669ea3d8834a221fc5f2d2951c612ed8baa32c805e9c9e9b0a02fe20a616a445149c92acc622a00bcff7dfdcabf33cb4c9a3208e567c46899bb149de892d08163
Reciphers for ciphertext: 0
Decipheredtext:           00000000000000004000000000000000
RESULT CIPHER-DECIPHER: -----OK-----


Test: 66
Crypto pad: 0
Symmetric key bit length: 256
IV bit length:            128
Plaintext bit length:     128
Symmetric key:            0000000000000000000000000000000000000000000000002000000000000000
IV:                       00000000000000002000000000000000
Plaintext:                00000000000000002000000000000000
Ciphertext:               3c7da321ff910da8ca9a21a58e07d924fc642f27762ae2eb9ff478c2e77abfadc4e545f5d3329212e8ab4f9bb6f24cea517117a096b2ee66d4bef2d1ee570ce72bf82f9384673ac26b5e6e68992fefe9
Reciphers for ciphertext: 0
Decipheredtext:           00000000000000002000000000000000
RESULT CIPHER-DECIPHER: -----OK-----


Test: 67
Crypto pad: 0
Symmetric key bit length: 256
IV bit length:            128
Plaintext bit length:     128
Symmetric key:            0000000000000000000000000000000000000000000000001000000000000000
IV:                       00000000000000001000000000000000
Plaintext:                00000000000000001000000000000000
Ciphertext:               f9e1ebabd1ae3eaf55fc608694bd45305a50c2284679853a796c3fe931f00fc72117d03436c1218f09a0daf203fb25f99daecc0e82559bc2cdb8a01ab30ba6054f0d35abeaa7da75c80b079f7b9d1b89
Reciphers for ciphertext: 0
Decipheredtext:           00000000000000001000000000000000
RESULT CIPHER-DECIPHER: -----OK-----


Test: 68
Crypto pad: 0
Symmetric key bit length: 256
IV bit length:            128
Plaintext bit length:     128
Symmetric key:            0000000000000000000000000000000000000000000000000800000000000000
IV:                       00000000000000000800000000000000
Plaintext:                00000000000000000800000000000000
Ciphertext:               e175442aab65b8525c6068e2144bcbb96d82f5683a5766b5a674de8fd41e58053f253395682380e6abdc8d27671a1ba650b2882928dab54488413aba5743535e0abdbf3402d9e43622a200aaf44ff31d
Reciphers for ciphertext: 0
Decipheredtext:           00000000000000000800000000000000
RESULT CIPHER-DECIPHER: -----OK-----


Test: 69
Crypto pad: 0
Symmetric key bit length: 256
IV bit length:            128
Plaintext bit length:     128
Symmetric key:            0000000000000000000000000000000000000000000000000400000000000000
IV:                       00000000000000000400000000000000
Plaintext:                00000000000000000400000000000000
Ciphertext:               62fa1920387b9ffae7585b9b2a6aa143e002516f66a7e871540f39e39eae5ee71e1fac04b111834ce57077d6e355fd34e6725f73ed920f473e1442abec7db722a5e70203f56e0cd0ea7fbf087e7cf357
Reciphers for ciphertext: 0
Decipheredtext:           00000000000000000400000000000000
RESULT CIPHER-DECIPHER: -----OK-----


Test: 70
Crypto pad: 1
Symmetric key bit length: 256
IV bit length:            128
Plaintext bit length:     128
Symmetric key:            0000000000000000000000000000000000000000000000000200000000000000
IV:                       00000000000000000200000000000000
Plaintext:                00000000000000000200000000000000
Ciphertext:               fe67ba94ea03acfd61f50d844b6ec459aa74dc0b68225a2b523e0a4879ee2e33c89207bade0a765e0533b29a2cd0b1dbcb4f06002c5864e40c80f97157452575b887efca5e583396ca8c80f59f34831b
Reciphers for ciphertext: 0
Decipheredtext:           00000000000000000200000000000000
RESULT CIPHER-DECIPHER: -----OK-----


Test: 71
Crypto pad: 1
Symmetric key bit length: 256
IV bit length:            128
Plaintext bit length:     128
Symmetric key:            0000000000000000000000000000000000000000000000000100000000000000
IV:                       00000000000000000100000000000000
Plaintext:                00000000000000000100000000000000
Ciphertext:               ffc98f509877eb760e69302c7755608738bc144fea3a4f3c2a0fef2d9d0f3e0d41e59227cf109fbc9355b8fa06b7aa458df72d7c8ae547f2aa3e9afaad1d62f0ee268268191e8c9b183d7df7bfc76a2f
Reciphers for ciphertext: 0
Decipheredtext:           00000000000000000100000000000000
RESULT CIPHER-DECIPHER: -----OK-----


Test: 72
Crypto pad: 2
Symmetric key bit length: 256
IV bit length:            128
Plaintext bit length:     128
Symmetric key:            0000000000000000000000000000000000000000000000000080000000000000
IV:                       00000000000000000080000000000000
Plaintext:                00000000000000000080000000000000
Ciphertext:               544de73bfe8d67ae8408ded855d1ad0749d86ca5823929607e67fd33a02928ea43fe714f8dbfc180ead579addabc29030da429e486f5ed9460b7c54460b0a6993c25908dba5b918a1a8c9d54d67d797d
Reciphers for ciphertext: 0
Decipheredtext:           00000000000000000080000000000000
RESULT CIPHER-DECIPHER: -----OK-----


Test: 73
Crypto pad: 0
Symmetric key bit length: 256
IV bit length:            128
Plaintext bit length:     128
Symmetric key:            0000000000000000000000000000000000000000000000000040000000000000
IV:                       00000000000000000040000000000000
Plaintext:                00000000000000000040000000000000
Ciphertext:               31437bcddfc22c5661a593b4ed2547aaf9f02b319373b2d71e31c2d9533bb9f7d22c64e70c8104c4b2832620ff81423624832db462328d93306c6714e100adab4103e1b997875fcbbc2bbc8da5543fa1
Reciphers for ciphertext: 0
Decipheredtext:           00000000000000000040000000000000
RESULT CIPHER-DECIPHER: -----OK-----


Test: 74
Crypto pad: 2
Symmetric key bit length: 256
IV bit length:            128
Plaintext bit length:     128
Symmetric key:            0000000000000000000000000000000000000000000000000020000000000000
IV:                       00000000000000000020000000000000
Plaintext:                00000000000000000020000000000000
Ciphertext:               895b437d31ece522f5825f5d0b0080e09399c1281abe7f17f535b1339faa8fec43e98a4b6fc57f7025f25f6502a0c1b93170d82fec3d2a58c7d2f28bac4c78099934903de6cad1d7be95c0f8344cf7e5
Reciphers for ciphertext: 0
Decipheredtext:           00000000000000000020000000000000
RESULT CIPHER-DECIPHER: -----OK-----


Test: 75
Crypto pad: 2
Symmetric key bit length: 256
IV bit length:            128
Plaintext bit length:     128
Symmetric key:            0000000000000000000000000000000000000000000000000010000000000000
IV:                       00000000000000000010000000000000
Plaintext:                00000000000000000010000000000000
Ciphertext:               f228d144e6dedd5f87e25e035e7de5c40dcbb3c02a8947aa10bc5a7bff02ee3fcc6da893651f1d3ef92564d52f3878a3638a46425aea9c808ac752ee69f5682274c1343e1206f4fd89e326b451dd291b
Reciphers for ciphertext: 0
Decipheredtext:           00000000000000000010000000000000
RESULT CIPHER-DECIPHER: -----OK-----


Test: 76
Crypto pad: 0
Symmetric key bit length: 256
IV bit length:            128
Plaintext bit length:     128
Symmetric key:            0000000000000000000000000000000000000000000000000008000000000000
IV:                       00000000000000000008000000000000
Plaintext:                00000000000000000008000000000000
Ciphertext:               2c0a96443a53d541a6eb1c50e737cb7d9d26ed2221e65150f7154c0385c8f9a901495a991e4939d4b1a621773e5c12caf98954d90c5e3db2eec8a86078d70763bafa731a1610029c37e9b9c8c2d38b66
Reciphers for ciphertext: 0
Decipheredtext:           00000000000000000008000000000000
RESULT CIPHER-DECIPHER: -----OK-----


Test: 77
Crypto pad: 2
Symmetric key bit length: 256
IV bit length:            128
Plaintext bit length:     128
Symmetric key:            0000000000000000000000000000000000000000000000000004000000000000
IV:                       00000000000000000004000000000000
Plaintext:                00000000000000000004000000000000
Ciphertext:               5e68fde462702a2e72ff776806f315f53de26d9b0a40695a10c714796e6d33286575e4f88b339b95f876e18783f4fbf28d5868451617fb145b8f7f91712a7aa0be25272f0a9a8c616205dd7ce646f17a
Reciphers for ciphertext: 0
Decipheredtext:           00000000000000000004000000000000
RESULT CIPHER-DECIPHER: -----OK-----


Test: 78
Crypto pad: 2
Symmetric key bit length: 256
IV bit length:            128
Plaintext bit length:     128
Symmetric key:            0000000000000000000000000000000000000000000000000002000000000000
IV:                       00000000000000000002000000000000
Plaintext:                00000000000000000002000000000000
Ciphertext:               69d8fd2ab746b1bb5aa5adb79d03f2240c20ec99f7105c3c94b74226cbff3fc726ef922d893f9d5451bf167d1b30f1912292ba337a4f465e0dfb85daac266ae6ded248bf41f0f524367db45dbdd5c5cd
Reciphers for ciphertext: 0
Decipheredtext:           00000000000000000002000000000000
RESULT CIPHER-DECIPHER: -----OK-----


Test: 79
Crypto pad: 2
Symmetric key bit length: 256
IV bit length:            128
Plaintext bit length:     128
Symmetric key:            0000000000000000000000000000000000000000000000000001000000000000
IV:                       00000000000000000001000000000000
Plaintext:                00000000000000000001000000000000
Ciphertext:               0b750a867d4b39a05091ffaaccd2fa71bca69a7d8003c03972af6aef16bc920b81a480a108b7b29751376d73b38c1d1bf2560d5063a2f928d699005012a0c839d992aa027ea09d3baaed1bd8eb504da3
Reciphers for ciphertext: 0
Decipheredtext:           00000000000000000001000000000000
RESULT CIPHER-DECIPHER: -----OK-----


Test: 80
Crypto pad: 0
Symmetric key bit length: 256
IV bit length:            128
Plaintext bit length:     128
Symmetric key:            0000000000000000000000000000000000000000000000000000800000000000
IV:                       00000000000000000000800000000000
Plaintext:                00000000000000000000800000000000
Ciphertext:               4cd2d22e170b4fd65ff8af3261b7f11231893bca76e4359dffba9f13ce1b1502f003c7ec4cc0a80ea346789bc8927b3d44968aeabb2852075f83fb942e05099da55371f541df6eb16138877762e5ab03
Reciphers for ciphertext: 0
Decipheredtext:           00000000000000000000800000000000
RESULT CIPHER-DECIPHER: -----OK-----


Test: 81
Crypto pad: 2
Symmetric key bit length: 256
IV bit length:            128
Plaintext bit length:     128
Symmetric key:            0000000000000000000000000000000000000000000000000000400000000000
IV:                       00000000000000000000400000000000
Plaintext:                00000000000000000000400000000000
Ciphertext:               13c6277d24b06349f5f48880d125772dfce44312ebbeb783697a694a91822d6e1974b0988dab5bd9c12f9f2e435ad013eb339742ab40b5627a7cb60d4f54dd2ed84154c98b33f3ec680deef566279374
Reciphers for ciphertext: 0
Decipheredtext:           00000000000000000000400000000000
RESULT CIPHER-DECIPHER: -----OK-----


Test: 82
Crypto pad: 2
Symmetric key bit length: 256
IV bit length:            128
Plaintext bit length:     128
Symmetric key:            0000000000000000000000000000000000000000000000000000200000000000
IV:                       00000000000000000000200000000000
Plaintext:                00000000000000000000200000000000
Ciphertext:               b900e4090ad838776e7f404a0f003c06bc32ce70f2f4ecb20ea809b4b2e06e509834af246185f913475e0fff0fcea7909aaa6fc3bbde523e9fcd9d5c0255f912937e5a20e5b20e16f323ac8a2c45d0f1
Reciphers for ciphertext: 0
Decipheredtext:           00000000000000000000200000000000
RESULT CIPHER-DECIPHER: -----OK-----


Test: 83
Crypto pad: 2
Symmetric key bit length: 256
IV bit length:            128
Plaintext bit length:     128
Symmetric key:            0000000000000000000000000000000000000000000000000000100000000000
IV:                       00000000000000000000100000000000
Plaintext:                00000000000000000000100000000000
Ciphertext:               143035701cfa7b575fab97e5399023b69b3efc48364f273f96ef6951ac7d948252a4c30913c86bb797babc52457e386de6e25cbaff57f4c6056706fd13e6a2e3323a0ef8885902ea4e77f00d5b86a1ce
Reciphers for ciphertext: 0
Decipheredtext:           00000000000000000000100000000000
RESULT CIPHER-DECIPHER: -----OK-----


Test: 84
Crypto pad: 0
Symmetric key bit length: 256
IV bit length:            128
Plaintext bit length:     128
Symmetric key:            0000000000000000000000000000000000000000000000000000080000000000
IV:                       00000000000000000000080000000000
Plaintext:                00000000000000000000080000000000
Ciphertext:               539fd29a66d756c507ff6b1d7025b04b8affb5b561ef99879abb1c34467435c439ed2a2b3d3a092076149594361887888a9628166922e8ec6fc28f5e847b9c71adcc0c6d643e0448fd8e1e9fc6a397a7
Reciphers for ciphertext: 0
Decipheredtext:           00000000000000000000080000000000
RESULT CIPHER-DECIPHER: -----OK-----


Test: 85
Crypto pad: 2
Symmetric key bit length: 256
IV bit length:            128
Plaintext bit length:     128
Symmetric key:            0000000000000000000000000000000000000000000000000000040000000000
IV:                       00000000000000000000040000000000
Plaintext:                00000000000000000000040000000000
Ciphertext:               26998d98a7b84d5dcac8648c24cd5b7bbd3856a7610da94658fcb75f5d5a545b0f8f56aef95c5d7961e545aceda3d8b797cf8ff5d1337da8602f8ab6c0224af7409230f6f7b29ca77b3a817f24896457
Reciphers for ciphertext: 0
Decipheredtext:           00000000000000000000040000000000
RESULT CIPHER-DECIPHER: -----OK-----


Test: 86
Crypto pad: 0
Symmetric key bit length: 256
IV bit length:            128
Plaintext bit length:     128
Symmetric key:            0000000000000000000000000000000000000000000000000000020000000000
IV:                       00000000000000000000020000000000
Plaintext:                00000000000000000000020000000000
Ciphertext:               3e174b150083c9b722b359d5b8bf0dd26b883ac9f509d86c340207bd00fd7d5b0e819513389da50435724c2a851669ddddbbe09a93364599e9233969adbeba6347a1fa7fab69fcc2c76a708177477441
Reciphers for ciphertext: 0
Decipheredtext:           00000000000000000000020000000000
RESULT CIPHER-DECIPHER: -----OK-----


Test: 87
Crypto pad: 2
Symmetric key bit length: 256
IV bit length:            128
Plaintext bit length:     128
Symmetric key:            0000000000000000000000000000000000000000000000000000010000000000
IV:                       00000000000000000000010000000000
Plaintext:                00000000000000000000010000000000
Ciphertext:               d9790fc2ecc15b8b0f1addba02dfd7b5c0629a90a68039e4e9ba37166fb21f4dce0e908c48f92d19933770409b268b34e772954b9da3da8a005582c4e9e5b6fa8cfe7a6ca242fe7d22872b959cfaebb5
Reciphers for ciphertext: 0
Decipheredtext:           00000000000000000000010000000000
RESULT CIPHER-DECIPHER: -----OK-----


Test: 88
Crypto pad: 0
Symmetric key bit length: 256
IV bit length:            128
Plaintext bit length:     128
Symmetric key:            0000000000000000000000000000000000000000000000000000008000000000
IV:                       00000000000000000000008000000000
Plaintext:                00000000000000000000008000000000
Ciphertext:               4728f96e4a82c642411913c35c925ead0bcc18dd681dc763ade3d075c53db0dcb2293c15aaed348ee0242fc83fbba46e1b920b5d2a17e61a60d6384cfba907b902f69bea78f8e4c85e22cd3024e7c503
Reciphers for ciphertext: 1
Decipheredtext:           00000000000000000000008000000000
RESULT CIPHER-DECIPHER: -----OK-----


Test: 89
Crypto pad: 2
Symmetric key bit length: 256
IV bit length:            128
Plaintext bit length:     128
Symmetric key:            0000000000000000000000000000000000000000000000000000004000000000
IV:                       00000000000000000000004000000000
Plaintext:                00000000000000000000004000000000
Ciphertext:               bb64f34a85fb40beeed0a4d3e0cbbb6b759a4cf536cb0bd28fd4af917eed83619b7f7d52d4aa7fbe3f6546f247a36acb6ff09f69aed61f091f92503547a19b6816ccca405c00d4d533f21f88d78d337d
Reciphers for ciphertext: 0
Decipheredtext:           00000000000000000000004000000000
RESULT CIPHER-DECIPHER: -----OK-----


Test: 90
Crypto pad: 2
Symmetric key bit length: 256
IV bit length:            128
Plaintext bit length:     128
Symmetric key:            0000000000000000000000000000000000000000000000000000002000000000
IV:                       00000000000000000000002000000000
Plaintext:                00000000000000000000002000000000
Ciphertext:               857b825078aa46c90cd3dcaa9165abf3cd963158d3fc138057d871637744e5337bf4e6b0120b81ec48140190e7f2c4921141e6bb725e09640dd6971f4ef1a886b9e0f12f4e0d3d071ce7981d72c3830c
Reciphers for ciphertext: 0
Decipheredtext:           00000000000000000000002000000000
RESULT CIPHER-DECIPHER: -----OK-----


Test: 91
Crypto pad: 2
Symmetric key bit length: 256
IV bit length:            128
Plaintext bit length:     128
Symmetric key:            0000000000000000000000000000000000000000000000000000001000000000
IV:                       00000000000000000000001000000000
Plaintext:                00000000000000000000001000000000
Ciphertext:               dbc8baf2b01f6924b28b00fb24e5e05fdf1087450d64120294ad327463018de8127be156e9a4f41249163f64f63209a99c0e8061ba0361b730d24675ef128705ff9d506a48d8982c384396023dd2acae
Reciphers for ciphertext: 0
Decipheredtext:           00000000000000000000001000000000
RESULT CIPHER-DECIPHER: -----OK-----


Test: 92
Crypto pad: 1
Symmetric key bit length: 256
IV bit length:            128
Plaintext bit length:     128
Symmetric key:            0000000000000000000000000000000000000000000000000000000800000000
IV:                       00000000000000000000000800000000
Plaintext:                00000000000000000000000800000000
Ciphertext:               67d0403bf18166c9d4370f4c6d941d6d9efc843f50e6001ca7d398681316827df4282c6bf49150e8ce60957766cd2a0c7d0137240d0d3d086198e83bc0cf22d0924c3c658fa6f85fa099b00205f9c761
Reciphers for ciphertext: 0
Decipheredtext:           00000000000000000000000800000000
RESULT CIPHER-DECIPHER: -----OK-----


Test: 93
Crypto pad: 0
Symmetric key bit length: 256
IV bit length:            128
Plaintext bit length:     128
Symmetric key:            0000000000000000000000000000000000000000000000000000000400000000
IV:                       00000000000000000000000400000000
Plaintext:                00000000000000000000000400000000
Ciphertext:               79c89f74fe02997599fea205333ae341432a3c29c39f70c40af481e4d20cef61eaabb223fcb3daa94a34dfca33c50a5cbc4460ff55ebfaa1171b0ce249830281e7bfaccd3c2c4f23a3b91c74102a3357
Reciphers for ciphertext: 0
Decipheredtext:           00000000000000000000000400000000
RESULT CIPHER-DECIPHER: -----OK-----


Test: 94
Crypto pad: 1
Symmetric key bit length: 256
IV bit length:            128
Plaintext bit length:     128
Symmetric key:            0000000000000000000000000000000000000000000000000000000200000000
IV:                       00000000000000000000000200000000
Plaintext:                00000000000000000000000200000000
Ciphertext:               7aa0372a82b6bd00c68a8115c6bc39acfe0b309bfe2e07871606f5dc2ed0d561b1cfafea84fa41d244b6d961e6bc58d1cdbe93adcf1867b952fb82c42df60cfdbac2104080ee695b273ab6712611583a
Reciphers for ciphertext: 0
Decipheredtext:           00000000000000000000000200000000
RESULT CIPHER-DECIPHER: -----OK-----


Test: 95
Crypto pad: 0
Symmetric key bit length: 256
IV bit length:            128
Plaintext bit length:     128
Symmetric key:            0000000000000000000000000000000000000000000000000000000100000000
IV:                       00000000000000000000000100000000
Plaintext:                00000000000000000000000100000000
Ciphertext:               0ab669b6b9a04b10d15a971946927e3ff10dcd5903fb01f058daab092bff5542816850cd7da4f809b112477c39a69318007aa375e4402b8a5657c01259af3d492590a9e9ca3e85f3db515a42039731f6
Reciphers for ciphertext: 0
Decipheredtext:           00000000000000000000000100000000
RESULT CIPHER-DECIPHER: -----OK-----


Test: 96
Crypto pad: 0
Symmetric key bit length: 256
IV bit length:            128
Plaintext bit length:     128
Symmetric key:            0000000000000000000000000000000000000000000000000000000080000000
IV:                       00000000000000000000000080000000
Plaintext:                00000000000000000000000080000000
Ciphertext:               30d61579b54dc6dab8318ff3ea06c0c99362720f9bf203e6f2ed230d435feecf980f3736ce4891af2f0fbeaf5aa0b084f5c2b13998e5687c773017c14eb01fe43fdad0a404d1659ed586d14d33f3c574
Reciphers for ciphertext: 0
Decipheredtext:           00000000000000000000000080000000
RESULT CIPHER-DECIPHER: -----OK-----


Test: 97
Crypto pad: 2
Symmetric key bit length: 256
IV bit length:            128
Plaintext bit length:     128
Symmetric key:            0000000000000000000000000000000000000000000000000000000040000000
IV:                       00000000000000000000000040000000
Plaintext:                00000000000000000000000040000000
Ciphertext:               3294b61dd2a99025d890fae0d76d43dfd779e203c3b41dee867d9ceb635770126b882e531917d4f40e0027604697de940ae71bfdd72fbc4576305e4b0807e17cce8812277901d935d3ffff3150c4982c
Reciphers for ciphertext: 0
Decipheredtext:           00000000000000000000000040000000
RESULT CIPHER-DECIPHER: -----OK-----


Test: 98
Crypto pad: 2
Symmetric key bit length: 256
IV bit length:            128
Plaintext bit length:     128
Symmetric key:            0000000000000000000000000000000000000000000000000000000020000000
IV:                       00000000000000000000000020000000
Plaintext:                00000000000000000000000020000000
Ciphertext:               bcbf863114c1767da4a68a373e3016393fb72f0d0265023ce7bbaa7fa358c0c4060ebbec1c9cffa2eef3c34f3023076935fb1ce6cb7449df115d3ac6ba656439553f4a3a2cc7e11e70785ab101ef3b90
Reciphers for ciphertext: 0
Decipheredtext:           00000000000000000000000020000000
RESULT CIPHER-DECIPHER: -----OK-----


Test: 99
Crypto pad: 2
Symmetric key bit length: 256
IV bit length:            128
Plaintext bit length:     128
Symmetric key:            0000000000000000000000000000000000000000000000000000000010000000
IV:                       00000000000000000000000010000000
Plaintext:                00000000000000000000000010000000
Ciphertext:               81b61e30ffee7aedfe366066dd46bb0fbf167794431ffade843fb469750caa1bb0eb1b14e2cedd67c2b0285303837db36d64cec5d9d74bd40fbc0be69c70b7779973af0c6bef174aa7257f3d972b1ca3
Reciphers for ciphertext: 0
Decipheredtext:           00000000000000000000000010000000
RESULT CIPHER-DECIPHER: -----OK-----


Test: 100
Crypto pad: 2
Symmetric key bit length: 256
IV bit length:            128
Plaintext bit length:     128
Symmetric key:            0000000000000000000000000000000000000000000000000000000008000000
IV:                       00000000000000000000000008000000
Plaintext:                00000000000000000000000008000000
Ciphertext:               350a35aa4c39e428e7e56f5b027361cfdb250e31556fe46714eab92c174c685d230a63495070b2f86967afc74f4db7a17257851acd3e3e3ae50048973c3a2ae846a51bbc0fbc0b62c96071a5d12e1a27
Reciphers for ciphertext: 0
Decipheredtext:           00000000000000000000000008000000
RESULT CIPHER-DECIPHER: -----OK-----


Test: 101
Crypto pad: 0
Symmetric key bit length: 256
IV bit length:            128
Plaintext bit length:     128
Symmetric key:            0000000000000000000000000000000000000000000000000000000004000000
IV:                       00000000000000000000000004000000
Plaintext:                00000000000000000000000004000000
Ciphertext:               ba3c74ef100614143d33497745588bc88bc2ca606cd03abb29063dfd731d054ff6604d0327407e6c1aa524af3707f93150852661d5bd7960412b29a86f5496198ab203275d7763fdb5f6ef5c7b33f10a
Reciphers for ciphertext: 0
Decipheredtext:           00000000000000000000000004000000
RESULT CIPHER-DECIPHER: -----OK-----


Test: 102
Crypto pad: 1
Symmetric key bit length: 256
IV bit length:            128
Plaintext bit length:     128
Symmetric key:            0000000000000000000000000000000000000000000000000000000002000000
IV:                       00000000000000000000000002000000
Plaintext:                00000000000000000000000002000000
Ciphertext:               c6901dac9847a66b6ba1281ad144790db696bf6c596124f745a425e1646cab9ff4f77724d71bda378365857f3a07c84fcdf3561d971d40521cd46bae98f5867a9c856611ca2cdcb5e258947950dd81e1
Reciphers for ciphertext: 0
Decipheredtext:           00000000000000000000000002000000
RESULT CIPHER-DECIPHER: -----OK-----


Test: 103
Crypto pad: 1
Symmetric key bit length: 256
IV bit length:            128
Plaintext bit length:     128
Symmetric key:            0000000000000000000000000000000000000000000000000000000001000000
IV:                       00000000000000000000000001000000
Plaintext:                00000000000000000000000001000000
Ciphertext:               d88abbf1d55cf20a7e25f94c3425ca3890b74a5acdcdece4a1a8564a7718cc50ed47c6451b57083cc67dcf6035b95307fa3c84185b9abf9887dd501b3b0f52d3c565280f15a21b06e413e1e21466d2ea
Reciphers for ciphertext: 0
Decipheredtext:           00000000000000000000000001000000
RESULT CIPHER-DECIPHER: -----OK-----


Test: 104
Crypto pad: 0
Symmetric key bit length: 256
IV bit length:            128
Plaintext bit length:     128
Symmetric key:            0000000000000000000000000000000000000000000000000000000000800000
IV:                       00000000000000000000000000800000
Plaintext:                00000000000000000000000000800000
Ciphertext:               94821fc851068313798ae6c27e7d07bf6a993b7f79bf12fe2ac6921bbfe23b8247fb904fb9437437752c1198162b010540a5b434f81574733d00f25511109e089a7ecc657f3bb867f8f44ffa06a87f9c
Reciphers for ciphertext: 0
Decipheredtext:           00000000000000000000000000800000
RESULT CIPHER-DECIPHER: -----OK-----


Test: 105
Crypto pad: 1
Symmetric key bit length: 256
IV bit length:            128
Plaintext bit length:     128
Symmetric key:            0000000000000000000000000000000000000000000000000000000000400000
IV:                       00000000000000000000000000400000
Plaintext:                00000000000000000000000000400000
Ciphertext:               53b8088b9ec428396ed4a7e7f13fb1f2c9c31f858a435748e2ea03d1383faf07e09a02a06af0c9beb600d0421b1b03a4da0d248315c527572f1673bde26a475ed72c1f23cd35bf1a7e1fb4658c221015
Reciphers for ciphertext: 0
Decipheredtext:           00000000000000000000000000400000
RESULT CIPHER-DECIPHER: -----OK-----


Test: 106
Crypto pad: 1
Symmetric key bit length: 256
IV bit length:            128
Plaintext bit length:     128
Symmetric key:            0000000000000000000000000000000000000000000000000000000000200000
IV:                       00000000000000000000000000200000
Plaintext:                00000000000000000000000000200000
Ciphertext:               09dbbd8324d87b6602bc5c3b42083ded07d9fe2da77bab0f92397acd76291b3f54424fa2ce271e2083eb0d8009dbfbfd0f8366d8efb9ab63b0299f278c55cfb4434c26edaf74dcd8d60239413407d638
Reciphers for ciphertext: 0
Decipheredtext:           00000000000000000000000000200000
RESULT CIPHER-DECIPHER: -----OK-----


Test: 107
Crypto pad: 2
Symmetric key bit length: 256
IV bit length:            128
Plaintext bit length:     128
Symmetric key:            0000000000000000000000000000000000000000000000000000000000100000
IV:                       00000000000000000000000000100000
Plaintext:                00000000000000000000000000100000
Ciphertext:               78801fbe386eae071bd61e3ab6a9d065cf49c291b032e0e5244690b9faeb0be4ec541faf843e2cb1c648e7baa4c0f1cd25a089c523cd153ec094862b5923f4926e49bea289b8445480f7e903150d235d
Reciphers for ciphertext: 0
Decipheredtext:           00000000000000000000000000100000
RESULT CIPHER-DECIPHER: -----OK-----


Test: 108
Crypto pad: 2
Symmetric key bit length: 256
IV bit length:            128
Plaintext bit length:     128
Symmetric key:            0000000000000000000000000000000000000000000000000000000000080000
IV:                       00000000000000000000000000080000
Plaintext:                00000000000000000000000000080000
Ciphertext:               7ce1471474aed463110806f86f40f456aef97625c60e160b5644d9869bf7860613032cc0e1ef0ef64b04ccca83758c487268a4628c6a0be6a8391abe70986176af71d24a46aecf907363c9d754dab8af
Reciphers for ciphertext: 0
Decipheredtext:           00000000000000000000000000080000
RESULT CIPHER-DECIPHER: -----OK-----


Test: 109
Crypto pad: 1
Symmetric key bit length: 256
IV bit length:            128
Plaintext bit length:     128
Symmetric key:            0000000000000000000000000000000000000000000000000000000000040000
IV:                       00000000000000000000000000040000
Plaintext:                00000000000000000000000000040000
Ciphertext:               0a0c897ad37a8aa6fe17800e95764c3ff26cdd303a43eb882e74b904cd3449a3be209f1c9176b3140885d118c3046f837c11e6478cc688fe707454df4ab5b6667dfef0b7292b6596eeb8ff8539df1f07
Reciphers for ciphertext: 0
Decipheredtext:           00000000000000000000000000040000
RESULT CIPHER-DECIPHER: -----OK-----


Test: 110
Crypto pad: 1
Symmetric key bit length: 256
IV bit length:            128
Plaintext bit length:     128
Symmetric key:            0000000000000000000000000000000000000000000000000000000000020000
IV:                       00000000000000000000000000020000
Plaintext:                00000000000000000000000000020000
Ciphertext:               17bb58651bd94964ad1b2bd181918be4db8261e89765a312477df4a0297ee058e848b57505da1bd2d7153a641385a4207601b6ebd5ce578973e949c21bfa8caa8f4b094fb824a7d0598b94227bd94824
Reciphers for ciphertext: 0
Decipheredtext:           00000000000000000000000000020000
RESULT CIPHER-DECIPHER: -----OK-----


Test: 111
Crypto pad: 1
Symmetric key bit length: 256
IV bit length:            128
Plaintext bit length:     128
Symmetric key:            0000000000000000000000000000000000000000000000000000000000010000
IV:                       00000000000000000000000000010000
Plaintext:                00000000000000000000000000010000
Ciphertext:               00365de5319de91f3f83b372ff17f3d8b05f76397d9325442972759467e33c12cd9a38659bd06393bbeb509774569f060fce9ccdf89f2eb139dbeb09b55375d5d8c4b21f3ec125d8e092fb81ef61879e
Reciphers for ciphertext: 0
Decipheredtext:           00000000000000000000000000010000
RESULT CIPHER-DECIPHER: -----OK-----


Test: 112
Crypto pad: 1
Symmetric key bit length: 256
IV bit length:            128
Plaintext bit length:     128
Symmetric key:            0000000000000000000000000000000000000000000000000000000000008000
IV:                       00000000000000000000000000008000
Plaintext:                00000000000000000000000000008000
Ciphertext:               a6f57722718634890a2f122db3b54affbe8014ad2cf8cde8f257f7b846cbeb133b9e3ee0157a767e02ec1dabfd651d29aaabfdd9e28a3adca1212f3d7f53a269fa286c52b4c6ebb8f9117396379cbede
Reciphers for ciphertext: 0
Decipheredtext:           00000000000000000000000000008000
RESULT CIPHER-DECIPHER: -----OK-----


Test: 113
Crypto pad: 1
Symmetric key bit length: 256
IV bit length:            128
Plaintext bit length:     128
Symmetric key:            0000000000000000000000000000000000000000000000000000000000004000
IV:                       00000000000000000000000000004000
Plaintext:                00000000000000000000000000004000
Ciphertext:               5c2c212adc2364a9de75398b832954f35e688db3c213cb143f55b3abed4d7f0399387a2f53b59ae5a56b90ab7c8ff4a6fc6b4304423917e41677768bd7a8d4022ddcfb2dd9d98df888e3938d6fe47f66
Reciphers for ciphertext: 0
Decipheredtext:           00000000000000000000000000004000
RESULT CIPHER-DECIPHER: -----OK-----


Test: 114
Crypto pad: 2
Symmetric key bit length: 256
IV bit length:            128
Plaintext bit length:     128
Symmetric key:            0000000000000000000000000000000000000000000000000000000000002000
IV:                       00000000000000000000000000002000
Plaintext:                00000000000000000000000000002000
Ciphertext:               786a6c5ed7382ec9e36de2ceb584a4d339a58e5afa94b5c55a498cd3df70f3f04d25cf068b74a8e56718e7ba0f510fad2aa3239d19adba9a4190e3653875c5890f3b0516fec631fea2b9e1ef5ebe9267
Reciphers for ciphertext: 0
Decipheredtext:           00000000000000000000000000002000
RESULT CIPHER-DECIPHER: -----OK-----


Test: 115
Crypto pad: 2
Symmetric key bit length: 256
IV bit length:            128
Plaintext bit length:     128
Symmetric key:            0000000000000000000000000000000000000000000000000000000000001000
IV:                       00000000000000000000000000001000
Plaintext:                00000000000000000000000000001000
Ciphertext:               207a62fdc30217ec0539323a653ebeef606d6c5b70d5ff386c07a559719854be6bf45870ccb83d0eb963df2f934b7af94f4ab0db2f3d3ea1e5fcbf99651485dc276f24b82056ccc83c2371e43336f184
Reciphers for ciphertext: 0
Decipheredtext:           00000000000000000000000000001000
RESULT CIPHER-DECIPHER: -----OK-----


Test: 116
Crypto pad: 1
Symmetric key bit length: 256
IV bit length:            128
Plaintext bit length:     128
Symmetric key:            0000000000000000000000000000000000000000000000000000000000000800
IV:                       00000000000000000000000000000800
Plaintext:                00000000000000000000000000000800
Ciphertext:               ff4814c6120d701c9ca960ace571a3b56df472d8e0399affbfb1d5bfcba9047404fe8276f77c041ce597742bba29b7b2b542cef08d13e300b282ce6a74c51c96cddacbc00b4ca08856579d6851e3bb82
Reciphers for ciphertext: 0
Decipheredtext:           00000000000000000000000000000800
RESULT CIPHER-DECIPHER: -----OK-----


Test: 117
Crypto pad: 1
Symmetric key bit length: 256
IV bit length:            128
Plaintext bit length:     128
Symmetric key:            0000000000000000000000000000000000000000000000000000000000000400
IV:                       00000000000000000000000000000400
Plaintext:                00000000000000000000000000000400
Ciphertext:               706c6626b50bd91f64d91ac11d2dea19a929b019fb40b983a714b5a23efd8cb22c5df3bcc107c43f14a3f298370056689955e16433b0d58bfc4b35ee9f44734c68d20b3eb5807f470fa0ea0e59a179fc
Reciphers for ciphertext: 0
Decipheredtext:           00000000000000000000000000000400
RESULT CIPHER-DECIPHER: -----OK-----


Test: 118
Crypto pad: 2
Symmetric key bit length: 256
IV bit length:            128
Plaintext bit length:     128
Symmetric key:            0000000000000000000000000000000000000000000000000000000000000200
IV:                       00000000000000000000000000000200
Plaintext:                00000000000000000000000000000200
Ciphertext:               70601ab282c3fd68bf5fe34134e6cea81792171c3a4628802b54ff582fb9d863f17d902b8a927e9b689626875bfcd8995027a7ddc6f99a112e45d3090c7c3465c6389a9ed9a7c186c7181a7c69a95241
Reciphers for ciphertext: 0
Decipheredtext:           00000000000000000000000000000200
RESULT CIPHER-DECIPHER: -----OK-----


Test: 119
Crypto pad: 1
Symmetric key bit length: 256
IV bit length:            128
Plaintext bit length:     128
Symmetric key:            0000000000000000000000000000000000000000000000000000000000000100
IV:                       00000000000000000000000000000100
Plaintext:                00000000000000000000000000000100
Ciphertext:               638cec9a628128213e08407648b45d9843dc6138d4e6d413ee01fca4c8dfc50f0d9ce089a1fc2f168605c20b18f38001cb14ebd24fc63194495facffb5c3a07b59d8a25d3abb95f3e0033b1853e4642d
Reciphers for ciphertext: 0
Decipheredtext:           00000000000000000000000000000100
RESULT CIPHER-DECIPHER: -----OK-----


Test: 120
Crypto pad: 0
Symmetric key bit length: 256
IV bit length:            128
Plaintext bit length:     128
Symmetric key:            0000000000000000000000000000000000000000000000000000000000000080
IV:                       00000000000000000000000000000080
Plaintext:                00000000000000000000000000000080
Ciphertext:               08d34e1ff98c6a49a9462a4857a25e9c2e62a626efc7b7c9a8aaa0a3cdd920974dc71f7bfe1ef36dcbb415b7cecd8ba62bcbe64545a08f59178242452566b997a33dae9ce7ac561082399cd11f162257
Reciphers for ciphertext: 0
Decipheredtext:           00000000000000000000000000000080
RESULT CIPHER-DECIPHER: -----OK-----


Test: 121
Crypto pad: 1
Symmetric key bit length: 256
IV bit length:            128
Plaintext bit length:     128
Symmetric key:            0000000000000000000000000000000000000000000000000000000000000040
IV:                       00000000000000000000000000000040
Plaintext:                00000000000000000000000000000040
Ciphertext:               9ab47e517cf2946ce99994bd23c570bf132a32052d24c050f7b40a94d972b4ca07c606b5a6908987d5e98a1518fe7303de428ff12360a0c8fae73e9d8e6a0657428dd4a06bd067cd8d39fe4e98d3b9d7
Reciphers for ciphertext: 0
Decipheredtext:           00000000000000000000000000000040
RESULT CIPHER-DECIPHER: -----OK-----


Test: 122
Crypto pad: 0
Symmetric key bit length: 256
IV bit length:            128
Plaintext bit length:     128
Symmetric key:            0000000000000000000000000000000000000000000000000000000000000020
IV:                       00000000000000000000000000000020
Plaintext:                00000000000000000000000000000020
Ciphertext:               029ca64189a2f7e74a035656016b0016aba644f9a641a1d9ed4d4f28aea1228bb5c4a8c402218d3838ec82f3db5c5ca16425603fcb0f088d87d3ac7078c7014ce03e692259aa867ded60916fd70eddd6
Reciphers for ciphertext: 0
Decipheredtext:           00000000000000000000000000000020
RESULT CIPHER-DECIPHER: -----OK-----


Test: 123
Crypto pad: 0
Symmetric key bit length: 256
IV bit length:            128
Plaintext bit length:     128
Symmetric key:            0000000000000000000000000000000000000000000000000000000000000010
IV:                       00000000000000000000000000000010
Plaintext:                00000000000000000000000000000010
Ciphertext:               4616e74c2b770e356b9d70fc1fe1934ebe83b6791135b590462eadd9fc86d89ec8fcda7c4ffdfa12385d91df12b34af9a837813c9436f4c48c45b6c85a4eaf8448d621069dd28c2e1077b891894baad5
Reciphers for ciphertext: 0
Decipheredtext:           00000000000000000000000000000010
RESULT CIPHER-DECIPHER: -----OK-----


Test: 124
Crypto pad: 2
Symmetric key bit length: 256
IV bit length:            128
Plaintext bit length:     128
Symmetric key:            0000000000000000000000000000000000000000000000000000000000000008
IV:                       00000000000000000000000000000008
Plaintext:                00000000000000000000000000000008
Ciphertext:               aca986b589ec02ae6b6d1e2c30abad81d3020f11d7986caffb9c53499db5093e10121b689b0bbb111b71e1bf469c05c8b95f9010e694ba44b812d6a7a59e027ad6129d630b8b44deda9183b8b6bb292c
Reciphers for ciphertext: 0
Decipheredtext:           00000000000000000000000000000008
RESULT CIPHER-DECIPHER: -----OK-----


Test: 125
Crypto pad: 1
Symmetric key bit length: 256
IV bit length:            128
Plaintext bit length:     128
Symmetric key:            0000000000000000000000000000000000000000000000000000000000000004
IV:                       00000000000000000000000000000004
Plaintext:                00000000000000000000000000000004
Ciphertext:               9061e9b495a10c17265eacd5134e75e13c2d1a3926a5e845452b25632d606efae33424551d5f61781cfd9e55bc504c90df2746a2d9ed707dcc686bb64b77c9ddbb81c91d8acf99530d1f0e02a0426d58
Reciphers for ciphertext: 0
Decipheredtext:           00000000000000000000000000000004
RESULT CIPHER-DECIPHER: -----OK-----


Test: 126
Crypto pad: 1
Symmetric key bit length: 256
IV bit length:            128
Plaintext bit length:     128
Symmetric key:            0000000000000000000000000000000000000000000000000000000000000002
IV:                       00000000000000000000000000000002
Plaintext:                00000000000000000000000000000002
Ciphertext:               5515335025ab46daae00636227b2c4186415cc6c94cf417f2841aad19be64c4e9ce096f3d8e6a70276f3134acd32c6d940dd304c3fc8fef5d7d08fd467e018f6428c57b5676271fb2bf80d2a8030582a
Reciphers for ciphertext: 0
Decipheredtext:           00000000000000000000000000000002
RESULT CIPHER-DECIPHER: -----OK-----


Test: 127
Crypto pad: 1
Symmetric key bit length: 256
IV bit length:            128
Plaintext bit length:     128
Symmetric key:            0000000000000000000000000000000000000000000000000000000000000001
IV:                       00000000000000000000000000000001
Plaintext:                00000000000000000000000000000001
Ciphertext:               eef46513b6de7b4e7aef371758e11f3be1ab9d4e971e3325055ac8c004a52e73faab10530dec14372ec17b5678651717afcd38b195e0a736304e89b9ae3019d3c5cdcca9e6fadf30339e4aeee0e31989
Reciphers for ciphertext: 0
Decipheredtext:           00000000000000000000000000000001
RESULT CIPHER-DECIPHER: -----OK-----


 DATA SHA1 (hexadecimal): 53b166fabae499a8e1eb1faa4816c9e0deba9373

