
DiceLock 9.0.0.1

 TEST COMPONENTS:
 ----------------
 DiceLock:           DiceLockIVDigested class
 Operation Mode:     CFB_Mode class
 Block Cipher:       AES128 class
 Hash algorithms:     0 - Sha1 class
                      1 - Sha224 class
                      2 - Sha256 class
                      3 - Sha384 class
                      4 - Sha512 class
                      5 - Sha512_224 class
                      6 - Sha512_256 class
                      7 - Ripemd128 class
                      8 - Ripemd160 class
                      9 - Ripemd256 class
                     10 - Ripemd320 class
                     11 - MD2 class
                     12 - MD4 class
                     13 - MD5 class
 Key Modifier:       IncreaseKeyModifier_6_0_0_1 class
 Random tests:       RandomTestSuite class
                     FrequencyTest class
                     BlockFrequencyTest class
                     CumulativeSumForwardTest class
                     LongestRunOfOnesTest class
                     RunsTest class
 Random alpha:       0.001

 VECTOR TEST: Test vector 4 - Symmetric key all byte value 0xXX


##### INDIVIDUAL TESTS #####

Number tests: 128


Test: 0
Hash algorithm: 2
Symmetric key bit length: 128
IV bit length:            128
Plaintext bit length:     128
Symmetric key:            00000000000000000000000000000000
IV:                       00000000000000000000000000000000
Plaintext:                00000000000000000000000000000000
Ciphertext:               66e94bd4ef8a2c3b884cfa59ca342b2e51ae432b18fbb1ee1fd2322c1f58f90656be6da8c93329c70746ffbe1b5061ed
Reciphers for ciphertext: 0
Decipheredtext:           00000000000000000000000000000000
RESULT CIPHER-DECIPHER: -----OK-----


Test: 1
Hash algorithm: 10
Symmetric key bit length: 128
IV bit length:            128
Plaintext bit length:     128
Symmetric key:            01010101010101010101010101010101
IV:                       00000000000000000000000000000000
Plaintext:                00000000000000000000000000000000
Ciphertext:               b6aeaffa752dc08b51639731761aed0077dd7347e35cab00bf0acc5ff7b362c36a0909fa82f9ee8e95b46a5e79f27a9a6882df977e354c92
Reciphers for ciphertext: 0
Decipheredtext:           00000000000000000000000000000000
RESULT CIPHER-DECIPHER: -----OK-----


Test: 2
Hash algorithm: 5
Symmetric key bit length: 128
IV bit length:            128
Plaintext bit length:     128
Symmetric key:            02020202020202020202020202020202
IV:                       00000000000000000000000000000000
Plaintext:                00000000000000000000000000000000
Ciphertext:               cb64cf3f422ae84bb90e3ab4dba7bd8692ba89bbffd5e80daf468cb726bdd522f877c4faf15c5d0cf7ffc306
Reciphers for ciphertext: 0
Decipheredtext:           00000000000000000000000000000000
RESULT CIPHER-DECIPHER: -----OK-----


Test: 3
Hash algorithm: 11
Symmetric key bit length: 128
IV bit length:            128
Plaintext bit length:     128
Symmetric key:            03030303030303030303030303030303
IV:                       00000000000000000000000000000000
Plaintext:                00000000000000000000000000000000
Ciphertext:               e5b5077f9346462c62a075c0c708ee96db87f9138ad366eca8ef7b4cefe7c910
Reciphers for ciphertext: 0
Decipheredtext:           00000000000000000000000000000000
RESULT CIPHER-DECIPHER: -----OK-----


Test: 4
Hash algorithm: 4
Symmetric key bit length: 128
IV bit length:            128
Plaintext bit length:     128
Symmetric key:            04040404040404040404040404040404
IV:                       00000000000000000000000000000000
Plaintext:                00000000000000000000000000000000
Ciphertext:               51c838aece71ae24f15444c44a3f11d35aa48266f6ae49d08ff5f9c9ba31d3518b7593a8f2f5ff053b4382bdc094b9cc6e111ad50ef0f3962f24fd5a50469007fe02501e448744b95369b58a6f3beb38
Reciphers for ciphertext: 0
Decipheredtext:           00000000000000000000000000000000
RESULT CIPHER-DECIPHER: -----OK-----


Test: 5
Hash algorithm: 9
Symmetric key bit length: 128
IV bit length:            128
Plaintext bit length:     128
Symmetric key:            05050505050505050505050505050505
IV:                       00000000000000000000000000000000
Plaintext:                00000000000000000000000000000000
Ciphertext:               462d3e166345c169700e456955d3e43480dccf543c06ecd4c240453ecf580a88efdfe88c17dd2046b9ac1e167ed9d5e4
Reciphers for ciphertext: 0
Decipheredtext:           00000000000000000000000000000000
RESULT CIPHER-DECIPHER: -----OK-----


Test: 6
Hash algorithm: 1
Symmetric key bit length: 128
IV bit length:            128
Plaintext bit length:     128
Symmetric key:            06060606060606060606060606060606
IV:                       00000000000000000000000000000000
Plaintext:                00000000000000000000000000000000
Ciphertext:               73097351e6fe5467fc4c18ab5868f043828cce6878e531f1beca344b018af2e2fa46c2e2c5f84d3ade508f82
Reciphers for ciphertext: 0
Decipheredtext:           00000000000000000000000000000000
RESULT CIPHER-DECIPHER: -----OK-----


Test: 7
Hash algorithm: 7
Symmetric key bit length: 128
IV bit length:            128
Plaintext bit length:     128
Symmetric key:            07070707070707070707070707070707
IV:                       00000000000000000000000000000000
Plaintext:                00000000000000000000000000000000
Ciphertext:               4c83b1490bd1a72c53479846884591af3840822077909aa36a4b6967ac021d6c
Reciphers for ciphertext: 0
Decipheredtext:           00000000000000000000000000000000
RESULT CIPHER-DECIPHER: -----OK-----


Test: 8
Hash algorithm: 7
Symmetric key bit length: 128
IV bit length:            128
Plaintext bit length:     128
Symmetric key:            08080808080808080808080808080808
IV:                       00000000000000000000000000000000
Plaintext:                00000000000000000000000000000000
Ciphertext:               814008523cd539dbbd8db07e3b7ebd5af5833b3b409404548481415f1f393199
Reciphers for ciphertext: 0
Decipheredtext:           00000000000000000000000000000000
RESULT CIPHER-DECIPHER: -----OK-----


Test: 9
Hash algorithm: 10
Symmetric key bit length: 128
IV bit length:            128
Plaintext bit length:     128
Symmetric key:            09090909090909090909090909090909
IV:                       00000000000000000000000000000000
Plaintext:                00000000000000000000000000000000
Ciphertext:               84f9c20e614f8607bc13efeb594bdf5a458a1eb3f73eed8c527ab485d8e25099db24943ce848773248e2e51c21c2fc482817fb6aa10548c6
Reciphers for ciphertext: 0
Decipheredtext:           00000000000000000000000000000000
RESULT CIPHER-DECIPHER: -----OK-----


Test: 10
Hash algorithm: 9
Symmetric key bit length: 128
IV bit length:            128
Plaintext bit length:     128
Symmetric key:            0a0a0a0a0a0a0a0a0a0a0a0a0a0a0a0a
IV:                       00000000000000000000000000000000
Plaintext:                00000000000000000000000000000000
Ciphertext:               0a0065d5602c5cc697a8995b1f318911ccf194973f6f717b25e6990c85ba67ad5f8dcb165b35c0f75eef89501f274ca2
Reciphers for ciphertext: 0
Decipheredtext:           00000000000000000000000000000000
RESULT CIPHER-DECIPHER: -----OK-----


Test: 11
Hash algorithm: 8
Symmetric key bit length: 128
IV bit length:            128
Plaintext bit length:     128
Symmetric key:            0b0b0b0b0b0b0b0b0b0b0b0b0b0b0b0b
IV:                       00000000000000000000000000000000
Plaintext:                00000000000000000000000000000000
Ciphertext:               ae3ddc5e5c5a2a004dd8d3ebc5c50f8a5c4bd0d7142061f099a7bf276d13869fbc7d6244
Reciphers for ciphertext: 0
Decipheredtext:           00000000000000000000000000000000
RESULT CIPHER-DECIPHER: -----OK-----


Test: 12
Hash algorithm: 5
Symmetric key bit length: 128
IV bit length:            128
Plaintext bit length:     128
Symmetric key:            0c0c0c0c0c0c0c0c0c0c0c0c0c0c0c0c
IV:                       00000000000000000000000000000000
Plaintext:                00000000000000000000000000000000
Ciphertext:               0630970da28a7dcbc9cd202b7be781745feed1891f757d8ddf85962886fde9d0dd3d8cbf30dc0b2ae75b1a69
Reciphers for ciphertext: 0
Decipheredtext:           00000000000000000000000000000000
RESULT CIPHER-DECIPHER: -----OK-----


Test: 13
Hash algorithm: 5
Symmetric key bit length: 128
IV bit length:            128
Plaintext bit length:     128
Symmetric key:            0d0d0d0d0d0d0d0d0d0d0d0d0d0d0d0d
IV:                       00000000000000000000000000000000
Plaintext:                00000000000000000000000000000000
Ciphertext:               ddf21819e380f3bb7d815db724d678de842c5e9d5e7ff3fd6bc9ebb4d9cc107ad7de3a86abe256f7aee5f0a5
Reciphers for ciphertext: 0
Decipheredtext:           00000000000000000000000000000000
RESULT CIPHER-DECIPHER: -----OK-----


Test: 14
Hash algorithm: 7
Symmetric key bit length: 128
IV bit length:            128
Plaintext bit length:     128
Symmetric key:            0e0e0e0e0e0e0e0e0e0e0e0e0e0e0e0e
IV:                       00000000000000000000000000000000
Plaintext:                00000000000000000000000000000000
Ciphertext:               7c1a736e471dd904ec126fe1737d44a108d940073b5ce48bd51e9ec0573ac862
Reciphers for ciphertext: 0
Decipheredtext:           00000000000000000000000000000000
RESULT CIPHER-DECIPHER: -----OK-----


Test: 15
Hash algorithm: 2
Symmetric key bit length: 128
IV bit length:            128
Plaintext bit length:     128
Symmetric key:            0f0f0f0f0f0f0f0f0f0f0f0f0f0f0f0f
IV:                       00000000000000000000000000000000
Plaintext:                00000000000000000000000000000000
Ciphertext:               4f142dbc34541a74ee61a32471aa9c8978532543c32587a179ff6b51a4c64ea18370322a1db58bb8f9741554f4df7607
Reciphers for ciphertext: 0
Decipheredtext:           00000000000000000000000000000000
RESULT CIPHER-DECIPHER: -----OK-----


Test: 16
Hash algorithm: 2
Symmetric key bit length: 128
IV bit length:            128
Plaintext bit length:     128
Symmetric key:            10101010101010101010101010101010
IV:                       00000000000000000000000000000000
Plaintext:                00000000000000000000000000000000
Ciphertext:               1e9f9ea8200f057179ca2c657452d8a829d89657d77e98a4ee54e410a13e0a805037b9ee13441523a48cfd5814bed58a
Reciphers for ciphertext: 0
Decipheredtext:           00000000000000000000000000000000
RESULT CIPHER-DECIPHER: -----OK-----


Test: 17
Hash algorithm: 2
Symmetric key bit length: 128
IV bit length:            128
Plaintext bit length:     128
Symmetric key:            11111111111111111111111111111111
IV:                       00000000000000000000000000000000
Plaintext:                00000000000000000000000000000000
Ciphertext:               e0d541314e00102d6dfca8bc007b6c8ad79249ceb9718df8fa6260c9d517bea2017b7f7987f1cb16adf1d717333d112c
Reciphers for ciphertext: 0
Decipheredtext:           00000000000000000000000000000000
RESULT CIPHER-DECIPHER: -----OK-----


Test: 18
Hash algorithm: 6
Symmetric key bit length: 128
IV bit length:            128
Plaintext bit length:     128
Symmetric key:            12121212121212121212121212121212
IV:                       00000000000000000000000000000000
Plaintext:                00000000000000000000000000000000
Ciphertext:               4f95958f377d5f4cbe0e43bb25d80513ab8903ef873a4b81492adcb4f33ec046ba217da01adf543aa9b550b6620165e0
Reciphers for ciphertext: 0
Decipheredtext:           00000000000000000000000000000000
RESULT CIPHER-DECIPHER: -----OK-----


Test: 19
Hash algorithm: 6
Symmetric key bit length: 128
IV bit length:            128
Plaintext bit length:     128
Symmetric key:            13131313131313131313131313131313
IV:                       00000000000000000000000000000000
Plaintext:                00000000000000000000000000000000
Ciphertext:               f1f6cfbb063d05b1b5c7d01aa525726515ea59dbb67a117c42e34f1573c3b7308084826b4089047e8a642662560908a0
Reciphers for ciphertext: 0
Decipheredtext:           00000000000000000000000000000000
RESULT CIPHER-DECIPHER: -----OK-----


Test: 20
Hash algorithm: 7
Symmetric key bit length: 128
IV bit length:            128
Plaintext bit length:     128
Symmetric key:            14141414141414141414141414141414
IV:                       00000000000000000000000000000000
Plaintext:                00000000000000000000000000000000
Ciphertext:               434f13f9f4219050889b21f2bb751b49378c20908860addfb197d0d39f32978a
Reciphers for ciphertext: 0
Decipheredtext:           00000000000000000000000000000000
RESULT CIPHER-DECIPHER: -----OK-----


Test: 21
Hash algorithm: 5
Symmetric key bit length: 128
IV bit length:            128
Plaintext bit length:     128
Symmetric key:            15151515151515151515151515151515
IV:                       00000000000000000000000000000000
Plaintext:                00000000000000000000000000000000
Ciphertext:               8f773b3ea625f7eaca82f248e1474719d6a97dba1bdaf7acdcca444b1c5d2fbdd0d5d50a3a33ac8660e15d5c
Reciphers for ciphertext: 0
Decipheredtext:           00000000000000000000000000000000
RESULT CIPHER-DECIPHER: -----OK-----


Test: 22
Hash algorithm: 7
Symmetric key bit length: 128
IV bit length:            128
Plaintext bit length:     128
Symmetric key:            16161616161616161616161616161616
IV:                       00000000000000000000000000000000
Plaintext:                00000000000000000000000000000000
Ciphertext:               66df04bd11a9f7bf0d83030fc46b27a9121c37d46de8ca30348ff22ee02cab6a
Reciphers for ciphertext: 0
Decipheredtext:           00000000000000000000000000000000
RESULT CIPHER-DECIPHER: -----OK-----


Test: 23
Hash algorithm: 0
Symmetric key bit length: 128
IV bit length:            128
Plaintext bit length:     128
Symmetric key:            17171717171717171717171717171717
IV:                       00000000000000000000000000000000
Plaintext:                00000000000000000000000000000000
Ciphertext:               bb99d2e3ac23a9563b14ae39f8cb2ff35ab0209ffd20150aff5f63c9599539fec05e2be0
Reciphers for ciphertext: 0
Decipheredtext:           00000000000000000000000000000000
RESULT CIPHER-DECIPHER: -----OK-----


Test: 24
Hash algorithm: 3
Symmetric key bit length: 128
IV bit length:            128
Plaintext bit length:     128
Symmetric key:            18181818181818181818181818181818
IV:                       00000000000000000000000000000000
Plaintext:                00000000000000000000000000000000
Ciphertext:               8b26cda21fafff30b0dfbe17296f95bf2566a83fbeb6c3ee7800f95c7759d4d5020f83124082509962c328505ad0df4160ddccd7260f07c7a070795c3e1ee0b4
Reciphers for ciphertext: 0
Decipheredtext:           00000000000000000000000000000000
RESULT CIPHER-DECIPHER: -----OK-----


Test: 25
Hash algorithm: 7
Symmetric key bit length: 128
IV bit length:            128
Plaintext bit length:     128
Symmetric key:            19191919191919191919191919191919
IV:                       00000000000000000000000000000000
Plaintext:                00000000000000000000000000000000
Ciphertext:               bd2d317ad851b986e22351b17d0b886ec9ee0213a4108409db2fa090594c04ad
Reciphers for ciphertext: 0
Decipheredtext:           00000000000000000000000000000000
RESULT CIPHER-DECIPHER: -----OK-----


Test: 26
Hash algorithm: 8
Symmetric key bit length: 128
IV bit length:            128
Plaintext bit length:     128
Symmetric key:            1a1a1a1a1a1a1a1a1a1a1a1a1a1a1a1a
IV:                       00000000000000000000000000000000
Plaintext:                00000000000000000000000000000000
Ciphertext:               135ba6b2f1e9ef27658e36772c2149d8e12daa3bb993a4d7b1f15abb84f7c0cd99f668c5
Reciphers for ciphertext: 0
Decipheredtext:           00000000000000000000000000000000
RESULT CIPHER-DECIPHER: -----OK-----


Test: 27
Hash algorithm: 8
Symmetric key bit length: 128
IV bit length:            128
Plaintext bit length:     128
Symmetric key:            1b1b1b1b1b1b1b1b1b1b1b1b1b1b1b1b
IV:                       00000000000000000000000000000000
Plaintext:                00000000000000000000000000000000
Ciphertext:               4424db94faf9212afda788195f4c76a5b652d71db2836ada29d8e4d5f79affb03cc7094e
Reciphers for ciphertext: 0
Decipheredtext:           00000000000000000000000000000000
RESULT CIPHER-DECIPHER: -----OK-----


Test: 28
Hash algorithm: 11
Symmetric key bit length: 128
IV bit length:            128
Plaintext bit length:     128
Symmetric key:            1c1c1c1c1c1c1c1c1c1c1c1c1c1c1c1c
IV:                       00000000000000000000000000000000
Plaintext:                00000000000000000000000000000000
Ciphertext:               4d8f440e417c872beb273db993752f6073bdba6258e9a7eb21683335bb9a08e6
Reciphers for ciphertext: 0
Decipheredtext:           00000000000000000000000000000000
RESULT CIPHER-DECIPHER: -----OK-----


Test: 29
Hash algorithm: 12
Symmetric key bit length: 128
IV bit length:            128
Plaintext bit length:     128
Symmetric key:            1d1d1d1d1d1d1d1d1d1d1d1d1d1d1d1d
IV:                       00000000000000000000000000000000
Plaintext:                00000000000000000000000000000000
Ciphertext:               75ee18525ea3ca07ba20893aef8f41683d92270c75aea07e886e4484739a5707
Reciphers for ciphertext: 0
Decipheredtext:           00000000000000000000000000000000
RESULT CIPHER-DECIPHER: -----OK-----


Test: 30
Hash algorithm: 6
Symmetric key bit length: 128
IV bit length:            128
Plaintext bit length:     128
Symmetric key:            1e1e1e1e1e1e1e1e1e1e1e1e1e1e1e1e
IV:                       00000000000000000000000000000000
Plaintext:                00000000000000000000000000000000
Ciphertext:               d0b5a6e9c401549a21bbd6dad0cec50034a9308974464057d69f49d50628005522b1b65a74ef998cc5c0b5e10466d418
Reciphers for ciphertext: 0
Decipheredtext:           00000000000000000000000000000000
RESULT CIPHER-DECIPHER: -----OK-----


Test: 31
Hash algorithm: 2
Symmetric key bit length: 128
IV bit length:            128
Plaintext bit length:     128
Symmetric key:            1f1f1f1f1f1f1f1f1f1f1f1f1f1f1f1f
IV:                       00000000000000000000000000000000
Plaintext:                00000000000000000000000000000000
Ciphertext:               a70072fadd36536c62563f57ba9661c690477a052a47ceb9f5c8f7226ffab3eebe80626e8565cb20e01c253a8585b32c
Reciphers for ciphertext: 0
Decipheredtext:           00000000000000000000000000000000
RESULT CIPHER-DECIPHER: -----OK-----


Test: 32
Hash algorithm: 2
Symmetric key bit length: 128
IV bit length:            128
Plaintext bit length:     128
Symmetric key:            20202020202020202020202020202020
IV:                       00000000000000000000000000000000
Plaintext:                00000000000000000000000000000000
Ciphertext:               a0bc0d9bc60af485807fa67274306a4897fb0564317b695017e16e07a15cb86094c4864d995fed76cb72d06b51636577
Reciphers for ciphertext: 0
Decipheredtext:           00000000000000000000000000000000
RESULT CIPHER-DECIPHER: -----OK-----


Test: 33
Hash algorithm: 2
Symmetric key bit length: 128
IV bit length:            128
Plaintext bit length:     128
Symmetric key:            21212121212121212121212121212121
IV:                       00000000000000000000000000000000
Plaintext:                00000000000000000000000000000000
Ciphertext:               95c93031c7af2c1843d37b84567fd1a3a28e38ce30deb1cdd44db3f18313038befba7b0eb4cb1dc8a7fe0361426f0b9b
Reciphers for ciphertext: 0
Decipheredtext:           00000000000000000000000000000000
RESULT CIPHER-DECIPHER: -----OK-----


Test: 34
Hash algorithm: 12
Symmetric key bit length: 128
IV bit length:            128
Plaintext bit length:     128
Symmetric key:            22222222222222222222222222222222
IV:                       00000000000000000000000000000000
Plaintext:                00000000000000000000000000000000
Ciphertext:               35a611c675ab604ac328dc75152182c07dda2e985ea60a33f16611cb893494af
Reciphers for ciphertext: 0
Decipheredtext:           00000000000000000000000000000000
RESULT CIPHER-DECIPHER: -----OK-----


Test: 35
Hash algorithm: 13
Symmetric key bit length: 128
IV bit length:            128
Plaintext bit length:     128
Symmetric key:            23232323232323232323232323232323
IV:                       00000000000000000000000000000000
Plaintext:                00000000000000000000000000000000
Ciphertext:               0804910342e21a7d76e1d62adfbe593142e38235a6a9e3c20f33a304fcf64194
Reciphers for ciphertext: 0
Decipheredtext:           00000000000000000000000000000000
RESULT CIPHER-DECIPHER: -----OK-----


Test: 36
Hash algorithm: 8
Symmetric key bit length: 128
IV bit length:            128
Plaintext bit length:     128
Symmetric key:            24242424242424242424242424242424
IV:                       00000000000000000000000000000000
Plaintext:                00000000000000000000000000000000
Ciphertext:               31ff62fecd6dbcbe6d91b865d8431af8c3896e778517f74eb9eed4a9709593ed88c343ea
Reciphers for ciphertext: 0
Decipheredtext:           00000000000000000000000000000000
RESULT CIPHER-DECIPHER: -----OK-----


Test: 37
Hash algorithm: 4
Symmetric key bit length: 128
IV bit length:            128
Plaintext bit length:     128
Symmetric key:            25252525252525252525252525252525
IV:                       00000000000000000000000000000000
Plaintext:                00000000000000000000000000000000
Ciphertext:               7e19ae49f13367ebd89eb2ad6350770c75751481c9ec801fa63f0fa0935eb58ef64faa186813400dfa8bd66f1dc200db052d6c2e89a5b21a7d99cb5f50ee19d7762eb331ce72f74c98c6844bfd6cd5c1
Reciphers for ciphertext: 0
Decipheredtext:           00000000000000000000000000000000
RESULT CIPHER-DECIPHER: -----OK-----


Test: 38
Hash algorithm: 3
Symmetric key bit length: 128
IV bit length:            128
Plaintext bit length:     128
Symmetric key:            26262626262626262626262626262626
IV:                       00000000000000000000000000000000
Plaintext:                00000000000000000000000000000000
Ciphertext:               a8313c4df29cbffd6bd1a225fab91e33067159d053858323a30ee56ea48f5f594742dc6108f555a61dc0912ad7414752f157f3d1e8dd38ac1efbe24faf85de2e
Reciphers for ciphertext: 0
Decipheredtext:           00000000000000000000000000000000
RESULT CIPHER-DECIPHER: -----OK-----


Test: 39
Hash algorithm: 3
Symmetric key bit length: 128
IV bit length:            128
Plaintext bit length:     128
Symmetric key:            27272727272727272727272727272727
IV:                       00000000000000000000000000000000
Plaintext:                00000000000000000000000000000000
Ciphertext:               dc1b3b8abb6eb2f3b3b214e38e3e5fe5725b5e171a778e2d7b6d53a8d0081e8fb8070bb13a49070c6f0976a109834bfbbce5a8b024313fc890a04b6d194bc3c1
Reciphers for ciphertext: 0
Decipheredtext:           00000000000000000000000000000000
RESULT CIPHER-DECIPHER: -----OK-----


Test: 40
Hash algorithm: 8
Symmetric key bit length: 128
IV bit length:            128
Plaintext bit length:     128
Symmetric key:            28282828282828282828282828282828
IV:                       00000000000000000000000000000000
Plaintext:                00000000000000000000000000000000
Ciphertext:               43f03cbbe0ab3d3fdd7303de0eb31ffbb1863032a8d176cf090c6f12a66596eee9735274
Reciphers for ciphertext: 0
Decipheredtext:           00000000000000000000000000000000
RESULT CIPHER-DECIPHER: -----OK-----


Test: 41
Hash algorithm: 5
Symmetric key bit length: 128
IV bit length:            128
Plaintext bit length:     128
Symmetric key:            29292929292929292929292929292929
IV:                       00000000000000000000000000000000
Plaintext:                00000000000000000000000000000000
Ciphertext:               65f7383486d1882e7bf8d284c0087df33c297eb03b2e88686db064873d1215571c8d97e07486a0a7e2805649
Reciphers for ciphertext: 0
Decipheredtext:           00000000000000000000000000000000
RESULT CIPHER-DECIPHER: -----OK-----


Test: 42
Hash algorithm: 6
Symmetric key bit length: 128
IV bit length:            128
Plaintext bit length:     128
Symmetric key:            2a2a2a2a2a2a2a2a2a2a2a2a2a2a2a2a
IV:                       00000000000000000000000000000000
Plaintext:                00000000000000000000000000000000
Ciphertext:               0f9aa26d2d58fd7c063b32e804de3505eb86340d9d1fe9b1f11fade7d238f0509f38aca83ea00799ea1c13845f860a9c
Reciphers for ciphertext: 0
Decipheredtext:           00000000000000000000000000000000
RESULT CIPHER-DECIPHER: -----OK-----


Test: 43
Hash algorithm: 0
Symmetric key bit length: 128
IV bit length:            128
Plaintext bit length:     128
Symmetric key:            2b2b2b2b2b2b2b2b2b2b2b2b2b2b2b2b
IV:                       00000000000000000000000000000000
Plaintext:                00000000000000000000000000000000
Ciphertext:               f27dc739ec30a643210b8a17aba290d313543545bd331a1fe54047e70afc86defa57fd5a
Reciphers for ciphertext: 0
Decipheredtext:           00000000000000000000000000000000
RESULT CIPHER-DECIPHER: -----OK-----


Test: 44
Hash algorithm: 0
Symmetric key bit length: 128
IV bit length:            128
Plaintext bit length:     128
Symmetric key:            2c2c2c2c2c2c2c2c2c2c2c2c2c2c2c2c
IV:                       00000000000000000000000000000000
Plaintext:                00000000000000000000000000000000
Ciphertext:               188167a006c2c229cf1cd7d5d3350246f9a895dc57c17e750b571a25726b144ba00fbd81
Reciphers for ciphertext: 0
Decipheredtext:           00000000000000000000000000000000
RESULT CIPHER-DECIPHER: -----OK-----


Test: 45
Hash algorithm: 9
Symmetric key bit length: 128
IV bit length:            128
Plaintext bit length:     128
Symmetric key:            2d2d2d2d2d2d2d2d2d2d2d2d2d2d2d2d
IV:                       00000000000000000000000000000000
Plaintext:                00000000000000000000000000000000
Ciphertext:               b5cd25955afaf7a3d8db725ec04e878a733cd4d705b9da1e6a9572095ac56936ba221636e78856cc9319673075b2a863
Reciphers for ciphertext: 0
Decipheredtext:           00000000000000000000000000000000
RESULT CIPHER-DECIPHER: -----OK-----


Test: 46
Hash algorithm: 9
Symmetric key bit length: 128
IV bit length:            128
Plaintext bit length:     128
Symmetric key:            2e2e2e2e2e2e2e2e2e2e2e2e2e2e2e2e
IV:                       00000000000000000000000000000000
Plaintext:                00000000000000000000000000000000
Ciphertext:               c1af85211551660e54d4806c5779153e075e74634a124bb3e69a803bcdf2fb82c7a2255b9514e7abe5e3d48303e9a7f1
Reciphers for ciphertext: 0
Decipheredtext:           00000000000000000000000000000000
RESULT CIPHER-DECIPHER: -----OK-----


Test: 47
Hash algorithm: 5
Symmetric key bit length: 128
IV bit length:            128
Plaintext bit length:     128
Symmetric key:            2f2f2f2f2f2f2f2f2f2f2f2f2f2f2f2f
IV:                       00000000000000000000000000000000
Plaintext:                00000000000000000000000000000000
Ciphertext:               0cb3c03394868f5559a216aa379bed20556d86b729798f134feaa0a9ca818584ad3d9f800d149c5f645ceb60
Reciphers for ciphertext: 0
Decipheredtext:           00000000000000000000000000000000
RESULT CIPHER-DECIPHER: -----OK-----


Test: 48
Hash algorithm: 6
Symmetric key bit length: 128
IV bit length:            128
Plaintext bit length:     128
Symmetric key:            30303030303030303030303030303030
IV:                       00000000000000000000000000000000
Plaintext:                00000000000000000000000000000000
Ciphertext:               14ccded8373d555098acebb3a5d29d7df0d048b8877a419d6f8874bc73345828168119c0e289ad3916b40509fbd9096f
Reciphers for ciphertext: 0
Decipheredtext:           00000000000000000000000000000000
RESULT CIPHER-DECIPHER: -----OK-----


Test: 49
Hash algorithm: 9
Symmetric key bit length: 128
IV bit length:            128
Plaintext bit length:     128
Symmetric key:            31313131313131313131313131313131
IV:                       00000000000000000000000000000000
Plaintext:                00000000000000000000000000000000
Ciphertext:               10dfc1b5f66cfd6a1dc46d66907beeb1d62e30f7a92fd0d7af8a6d310af0000d458b561cadcd3c2511ec6adb163c12e1
Reciphers for ciphertext: 0
Decipheredtext:           00000000000000000000000000000000
RESULT CIPHER-DECIPHER: -----OK-----


Test: 50
Hash algorithm: 0
Symmetric key bit length: 128
IV bit length:            128
Plaintext bit length:     128
Symmetric key:            32323232323232323232323232323232
IV:                       00000000000000000000000000000000
Plaintext:                00000000000000000000000000000000
Ciphertext:               7c85d49b0b824f4de832bb5cc0ab34e69dac26e75a81f3112c7976ac61f522eb92c543c7
Reciphers for ciphertext: 0
Decipheredtext:           00000000000000000000000000000000
RESULT CIPHER-DECIPHER: -----OK-----


Test: 51
Hash algorithm: 6
Symmetric key bit length: 128
IV bit length:            128
Plaintext bit length:     128
Symmetric key:            33333333333333333333333333333333
IV:                       00000000000000000000000000000000
Plaintext:                00000000000000000000000000000000
Ciphertext:               7a117f450c8d99b2a66d5067f25217019e0de925bcca8d7f5149cf6824b4d254bf1dc3431652180bf2ea490a77fbf362
Reciphers for ciphertext: 0
Decipheredtext:           00000000000000000000000000000000
RESULT CIPHER-DECIPHER: -----OK-----


Test: 52
Hash algorithm: 5
Symmetric key bit length: 128
IV bit length:            128
Plaintext bit length:     128
Symmetric key:            34343434343434343434343434343434
IV:                       00000000000000000000000000000000
Plaintext:                00000000000000000000000000000000
Ciphertext:               d59a4bc46c981dc1a6448757134029f78c440d40d1671d87b00c3154ee5a4153fdc45c66aff88e51958c9379
Reciphers for ciphertext: 0
Decipheredtext:           00000000000000000000000000000000
RESULT CIPHER-DECIPHER: -----OK-----


Test: 53
Hash algorithm: 2
Symmetric key bit length: 128
IV bit length:            128
Plaintext bit length:     128
Symmetric key:            35353535353535353535353535353535
IV:                       00000000000000000000000000000000
Plaintext:                00000000000000000000000000000000
Ciphertext:               e5b81f266a0332f974ea01a316eaf209d2ff17d99d72af2ce374c9d6c3862021f926f08f8fb0a75d1288e2c9ed295e95
Reciphers for ciphertext: 0
Decipheredtext:           00000000000000000000000000000000
RESULT CIPHER-DECIPHER: -----OK-----


Test: 54
Hash algorithm: 4
Symmetric key bit length: 128
IV bit length:            128
Plaintext bit length:     128
Symmetric key:            36363636363636363636363636363636
IV:                       00000000000000000000000000000000
Plaintext:                00000000000000000000000000000000
Ciphertext:               830ebebb4f98eb10112302e71dbb80eb8862047377470ce46f82bfeaedb5426901eee9ebab3faa8ac6c788db2d6c2e469f1231b6498a8b316be2845baebc7512bf50bdbe52be15b4407902b75565b9b3
Reciphers for ciphertext: 0
Decipheredtext:           00000000000000000000000000000000
RESULT CIPHER-DECIPHER: -----OK-----


Test: 55
Hash algorithm: 5
Symmetric key bit length: 128
IV bit length:            128
Plaintext bit length:     128
Symmetric key:            37373737373737373737373737373737
IV:                       00000000000000000000000000000000
Plaintext:                00000000000000000000000000000000
Ciphertext:               5216172cf27cb83f25715e373713fb620bc851a84f83b8793339e834ca0993c644ca47d24c997df4eed16736
Reciphers for ciphertext: 0
Decipheredtext:           00000000000000000000000000000000
RESULT CIPHER-DECIPHER: -----OK-----


Test: 56
Hash algorithm: 6
Symmetric key bit length: 128
IV bit length:            128
Plaintext bit length:     128
Symmetric key:            38383838383838383838383838383838
IV:                       00000000000000000000000000000000
Plaintext:                00000000000000000000000000000000
Ciphertext:               8f93776ee9598bc875383890b6abdb106b8fe10e591e9f05821ca79f604d1e451a4cc0103317caff2ab029f556b0d4f3
Reciphers for ciphertext: 0
Decipheredtext:           00000000000000000000000000000000
RESULT CIPHER-DECIPHER: -----OK-----


Test: 57
Hash algorithm: 11
Symmetric key bit length: 128
IV bit length:            128
Plaintext bit length:     128
Symmetric key:            39393939393939393939393939393939
IV:                       00000000000000000000000000000000
Plaintext:                00000000000000000000000000000000
Ciphertext:               d5c9bd02b1aed86f986fbb07323ff170ebfb436ea83bf8af5220b58b1ad0d6f6
Reciphers for ciphertext: 0
Decipheredtext:           00000000000000000000000000000000
RESULT CIPHER-DECIPHER: -----OK-----


Test: 58
Hash algorithm: 0
Symmetric key bit length: 128
IV bit length:            128
Plaintext bit length:     128
Symmetric key:            3a3a3a3a3a3a3a3a3a3a3a3a3a3a3a3a
IV:                       00000000000000000000000000000000
Plaintext:                00000000000000000000000000000000
Ciphertext:               7f566a70e8524eabcbf70e23f62b12359e7f980cb951f2f70fbcc3d35775043889285067
Reciphers for ciphertext: 0
Decipheredtext:           00000000000000000000000000000000
RESULT CIPHER-DECIPHER: -----OK-----


Test: 59
Hash algorithm: 6
Symmetric key bit length: 128
IV bit length:            128
Plaintext bit length:     128
Symmetric key:            3b3b3b3b3b3b3b3b3b3b3b3b3b3b3b3b
IV:                       00000000000000000000000000000000
Plaintext:                00000000000000000000000000000000
Ciphertext:               5e41cb7ddda1165b5c3d457c8a0fa676ba5d5d1d6de60296ab19da735ce96323cddf20a1ade939ace95e230723ced8e1
Reciphers for ciphertext: 0
Decipheredtext:           00000000000000000000000000000000
RESULT CIPHER-DECIPHER: -----OK-----


Test: 60
Hash algorithm: 1
Symmetric key bit length: 128
IV bit length:            128
Plaintext bit length:     128
Symmetric key:            3c3c3c3c3c3c3c3c3c3c3c3c3c3c3c3c
IV:                       00000000000000000000000000000000
Plaintext:                00000000000000000000000000000000
Ciphertext:               f148ea00117c5b3b3c5adf5da15d0fa900cd57398f673ead7edcf3bdf8bf0d08164d46ee3e14480248a45240
Reciphers for ciphertext: 0
Decipheredtext:           00000000000000000000000000000000
RESULT CIPHER-DECIPHER: -----OK-----


Test: 61
Hash algorithm: 10
Symmetric key bit length: 128
IV bit length:            128
Plaintext bit length:     128
Symmetric key:            3d3d3d3d3d3d3d3d3d3d3d3d3d3d3d3d
IV:                       00000000000000000000000000000000
Plaintext:                00000000000000000000000000000000
Ciphertext:               75fc398e3fe2b70844c44a508cfdad7ab48fe533a993dc83aaad113e0d5422b9a82e2e0ed44f2c84d5b444588b44665a215fae000f1b9695
Reciphers for ciphertext: 0
Decipheredtext:           00000000000000000000000000000000
RESULT CIPHER-DECIPHER: -----OK-----


Test: 62
Hash algorithm: 1
Symmetric key bit length: 128
IV bit length:            128
Plaintext bit length:     128
Symmetric key:            3e3e3e3e3e3e3e3e3e3e3e3e3e3e3e3e
IV:                       00000000000000000000000000000000
Plaintext:                00000000000000000000000000000000
Ciphertext:               6c6879bab645486fdf45f890142cc2489dedc483285e2df99dc3d4704dcec0e923ea394fc0e928ff4e5b93b9
Reciphers for ciphertext: 0
Decipheredtext:           00000000000000000000000000000000
RESULT CIPHER-DECIPHER: -----OK-----


Test: 63
Hash algorithm: 3
Symmetric key bit length: 128
IV bit length:            128
Plaintext bit length:     128
Symmetric key:            3f3f3f3f3f3f3f3f3f3f3f3f3f3f3f3f
IV:                       00000000000000000000000000000000
Plaintext:                00000000000000000000000000000000
Ciphertext:               7bb646df8349e9bb042969cd5ccc8bead5f623422250d565ccf62e8602faca8058908bce84b536ee014d72fe6928c7ed12344b75fb0e930a267578b21734e9ba
Reciphers for ciphertext: 0
Decipheredtext:           00000000000000000000000000000000
RESULT CIPHER-DECIPHER: -----OK-----


Test: 64
Hash algorithm: 2
Symmetric key bit length: 128
IV bit length:            128
Plaintext bit length:     128
Symmetric key:            40404040404040404040404040404040
IV:                       00000000000000000000000000000000
Plaintext:                00000000000000000000000000000000
Ciphertext:               adf75087f6438f0d854260884bfae5449ab05878013212d812dca8fd9e96376c8cbae4eaf2f83db9096f904c7f415468
Reciphers for ciphertext: 0
Decipheredtext:           00000000000000000000000000000000
RESULT CIPHER-DECIPHER: -----OK-----


Test: 65
Hash algorithm: 6
Symmetric key bit length: 128
IV bit length:            128
Plaintext bit length:     128
Symmetric key:            41414141414141414141414141414141
IV:                       00000000000000000000000000000000
Plaintext:                00000000000000000000000000000000
Ciphertext:               81d6cdc3bd16fb8d72b9bb88818b5be965ca5ba30d51ef40859d2487576d9ebc226b692a9ebb1bfadcabf9b5e5662949
Reciphers for ciphertext: 0
Decipheredtext:           00000000000000000000000000000000
RESULT CIPHER-DECIPHER: -----OK-----


Test: 66
Hash algorithm: 12
Symmetric key bit length: 128
IV bit length:            128
Plaintext bit length:     128
Symmetric key:            42424242424242424242424242424242
IV:                       00000000000000000000000000000000
Plaintext:                00000000000000000000000000000000
Ciphertext:               73446bba4a5a60c9410cf3d8805b910a3b3854e461570ab073423e661c4e8765
Reciphers for ciphertext: 0
Decipheredtext:           00000000000000000000000000000000
RESULT CIPHER-DECIPHER: -----OK-----


Test: 67
Hash algorithm: 12
Symmetric key bit length: 128
IV bit length:            128
Plaintext bit length:     128
Symmetric key:            43434343434343434343434343434343
IV:                       00000000000000000000000000000000
Plaintext:                00000000000000000000000000000000
Ciphertext:               8df1d55ab5e9ac56a5db83127db6d0dac58dea049ee4c62f97954eace1a3c6b5
Reciphers for ciphertext: 0
Decipheredtext:           00000000000000000000000000000000
RESULT CIPHER-DECIPHER: -----OK-----


Test: 68
Hash algorithm: 0
Symmetric key bit length: 128
IV bit length:            128
Plaintext bit length:     128
Symmetric key:            44444444444444444444444444444444
IV:                       00000000000000000000000000000000
Plaintext:                00000000000000000000000000000000
Ciphertext:               a37c22a23ac6fc3b71f047040daf20104255d0de6bc54067b5bb8af4acf1361d40f767a8
Reciphers for ciphertext: 0
Decipheredtext:           00000000000000000000000000000000
RESULT CIPHER-DECIPHER: -----OK-----


Test: 69
Hash algorithm: 13
Symmetric key bit length: 128
IV bit length:            128
Plaintext bit length:     128
Symmetric key:            45454545454545454545454545454545
IV:                       00000000000000000000000000000000
Plaintext:                00000000000000000000000000000000
Ciphertext:               59b20224ff9184949ab1a09a8e1b4e13135511121bda7d2be363d5b4ad5356b6
Reciphers for ciphertext: 0
Decipheredtext:           00000000000000000000000000000000
RESULT CIPHER-DECIPHER: -----OK-----


Test: 70
Hash algorithm: 11
Symmetric key bit length: 128
IV bit length:            128
Plaintext bit length:     128
Symmetric key:            46464646464646464646464646464646
IV:                       00000000000000000000000000000000
Plaintext:                00000000000000000000000000000000
Ciphertext:               f841638f16f1bd7df1f0f704e1840a94c6739de30f649dbd3bbff988c96b2d12
Reciphers for ciphertext: 0
Decipheredtext:           00000000000000000000000000000000
RESULT CIPHER-DECIPHER: -----OK-----


Test: 71
Hash algorithm: 1
Symmetric key bit length: 128
IV bit length:            128
Plaintext bit length:     128
Symmetric key:            47474747474747474747474747474747
IV:                       00000000000000000000000000000000
Plaintext:                00000000000000000000000000000000
Ciphertext:               173775e92f93281b47ae05d318766842e6b2c8d0b1884d8d0528293341946ae3f127f196f5184e600affe02f
Reciphers for ciphertext: 0
Decipheredtext:           00000000000000000000000000000000
RESULT CIPHER-DECIPHER: -----OK-----


Test: 72
Hash algorithm: 2
Symmetric key bit length: 128
IV bit length:            128
Plaintext bit length:     128
Symmetric key:            48484848484848484848484848484848
IV:                       00000000000000000000000000000000
Plaintext:                00000000000000000000000000000000
Ciphertext:               4a331bc76b3bd5eea9ece5cd313f96e27d7413389c4a483b3e722db8e45344ca626d68796ea4037785d8cdbfa7c84b71
Reciphers for ciphertext: 0
Decipheredtext:           00000000000000000000000000000000
RESULT CIPHER-DECIPHER: -----OK-----


Test: 73
Hash algorithm: 0
Symmetric key bit length: 128
IV bit length:            128
Plaintext bit length:     128
Symmetric key:            49494949494949494949494949494949
IV:                       00000000000000000000000000000000
Plaintext:                00000000000000000000000000000000
Ciphertext:               5da5d636f681a1ed9fc868c706441698bc8c244aa7821db15b83a537a71a009543afc3eb
Reciphers for ciphertext: 0
Decipheredtext:           00000000000000000000000000000000
RESULT CIPHER-DECIPHER: -----OK-----


Test: 74
Hash algorithm: 6
Symmetric key bit length: 128
IV bit length:            128
Plaintext bit length:     128
Symmetric key:            4a4a4a4a4a4a4a4a4a4a4a4a4a4a4a4a
IV:                       00000000000000000000000000000000
Plaintext:                00000000000000000000000000000000
Ciphertext:               09055896efbac975652660ae151ee355ed19cef65ffdddb89202ffa1c3f8260034afa1ef94710de9872c52acb538f724
Reciphers for ciphertext: 0
Decipheredtext:           00000000000000000000000000000000
RESULT CIPHER-DECIPHER: -----OK-----


Test: 75
Hash algorithm: 2
Symmetric key bit length: 128
IV bit length:            128
Plaintext bit length:     128
Symmetric key:            4b4b4b4b4b4b4b4b4b4b4b4b4b4b4b4b
IV:                       00000000000000000000000000000000
Plaintext:                00000000000000000000000000000000
Ciphertext:               263bbbbfe9edf7ee0ea7005399e028c0117cb3401e9c6a3b9939c8264c8cfae898c7b05353f637af23fbabfed24a5492
Reciphers for ciphertext: 0
Decipheredtext:           00000000000000000000000000000000
RESULT CIPHER-DECIPHER: -----OK-----


Test: 76
Hash algorithm: 4
Symmetric key bit length: 128
IV bit length:            128
Plaintext bit length:     128
Symmetric key:            4c4c4c4c4c4c4c4c4c4c4c4c4c4c4c4c
IV:                       00000000000000000000000000000000
Plaintext:                00000000000000000000000000000000
Ciphertext:               19a73502eed92ac50a3c72bd7bec97c312cb8fcad606cd31749dcfb08be25541fa126a0d0c6e28618a860270edacb31ae16835a0f6a7116a92bf733790323cf932440c1eeb7b31a135f7d9c9a41b7948
Reciphers for ciphertext: 0
Decipheredtext:           00000000000000000000000000000000
RESULT CIPHER-DECIPHER: -----OK-----


Test: 77
Hash algorithm: 9
Symmetric key bit length: 128
IV bit length:            128
Plaintext bit length:     128
Symmetric key:            4d4d4d4d4d4d4d4d4d4d4d4d4d4d4d4d
IV:                       00000000000000000000000000000000
Plaintext:                00000000000000000000000000000000
Ciphertext:               98a4923851747e259c406e9214026dba5e55637a0e3753982e0e6ec58e8983069c5fc8f5329ba6af4cc10f5f99749143
Reciphers for ciphertext: 0
Decipheredtext:           00000000000000000000000000000000
RESULT CIPHER-DECIPHER: -----OK-----


Test: 78
Hash algorithm: 4
Symmetric key bit length: 128
IV bit length:            128
Plaintext bit length:     128
Symmetric key:            4e4e4e4e4e4e4e4e4e4e4e4e4e4e4e4e
IV:                       00000000000000000000000000000000
Plaintext:                00000000000000000000000000000000
Ciphertext:               464d17cc789580eb5f3e287183b95aaf4d21ad04404a671f219f957c73b7982d7fbfc383d3d7d2efb83784d77c93cdd7123983f627a904a0a135d658c80a8fb96a40775e0b3065a45667ff1f565aabbb
Reciphers for ciphertext: 0
Decipheredtext:           00000000000000000000000000000000
RESULT CIPHER-DECIPHER: -----OK-----


Test: 79
Hash algorithm: 11
Symmetric key bit length: 128
IV bit length:            128
Plaintext bit length:     128
Symmetric key:            4f4f4f4f4f4f4f4f4f4f4f4f4f4f4f4f
IV:                       00000000000000000000000000000000
Plaintext:                00000000000000000000000000000000
Ciphertext:               6f6ff7818daca79d5fe418c525e7c434515d09ed9439875d95ab16490d08e3b2
Reciphers for ciphertext: 0
Decipheredtext:           00000000000000000000000000000000
RESULT CIPHER-DECIPHER: -----OK-----


Test: 80
Hash algorithm: 9
Symmetric key bit length: 128
IV bit length:            128
Plaintext bit length:     128
Symmetric key:            50505050505050505050505050505050
IV:                       00000000000000000000000000000000
Plaintext:                00000000000000000000000000000000
Ciphertext:               038c0ca0a14eea7e34494b5a94bccc4dc57dfde2fe0dc7c386074b0d0e3722f15230620057ba66eb5a9c544cea82f978
Reciphers for ciphertext: 0
Decipheredtext:           00000000000000000000000000000000
RESULT CIPHER-DECIPHER: -----OK-----


Test: 81
Hash algorithm: 1
Symmetric key bit length: 128
IV bit length:            128
Plaintext bit length:     128
Symmetric key:            51515151515151515151515151515151
IV:                       00000000000000000000000000000000
Plaintext:                00000000000000000000000000000000
Ciphertext:               e15a3e0d3a49e321d40b7eed7bfcbb2110df8334a45286b7968d520d221eb980c5fe9471c030cdd9d63183a4
Reciphers for ciphertext: 0
Decipheredtext:           00000000000000000000000000000000
RESULT CIPHER-DECIPHER: -----OK-----


Test: 82
Hash algorithm: 0
Symmetric key bit length: 128
IV bit length:            128
Plaintext bit length:     128
Symmetric key:            52525252525252525252525252525252
IV:                       00000000000000000000000000000000
Plaintext:                00000000000000000000000000000000
Ciphertext:               855b89e5d076809a511841d67337778964727b9981753cc695538c26d2696184084f62aa
Reciphers for ciphertext: 0
Decipheredtext:           00000000000000000000000000000000
RESULT CIPHER-DECIPHER: -----OK-----


Test: 83
Hash algorithm: 11
Symmetric key bit length: 128
IV bit length:            128
Plaintext bit length:     128
Symmetric key:            53535353535353535353535353535353
IV:                       00000000000000000000000000000000
Plaintext:                00000000000000000000000000000000
Ciphertext:               20f04aadb11d10b3f0274081866780161ec2b4c1a88830733a684e0dae88a790
Reciphers for ciphertext: 0
Decipheredtext:           00000000000000000000000000000000
RESULT CIPHER-DECIPHER: -----OK-----


Test: 84
Hash algorithm: 5
Symmetric key bit length: 128
IV bit length:            128
Plaintext bit length:     128
Symmetric key:            54545454545454545454545454545454
IV:                       00000000000000000000000000000000
Plaintext:                00000000000000000000000000000000
Ciphertext:               a4191611ac175747848b3bdd2720ad59fdc7509511e8570192c38ddeda3ac5fdd29f10990fe4a0e6e488bc5d
Reciphers for ciphertext: 0
Decipheredtext:           00000000000000000000000000000000
RESULT CIPHER-DECIPHER: -----OK-----


Test: 85
Hash algorithm: 4
Symmetric key bit length: 128
IV bit length:            128
Plaintext bit length:     128
Symmetric key:            55555555555555555555555555555555
IV:                       00000000000000000000000000000000
Plaintext:                00000000000000000000000000000000
Ciphertext:               4848ce31ee337d98fd7b03089bcac5bd432474f9d6ec9a6c83dabe056bc4073fa83ad427f07448b8074d9215ae708cd526e07fbb2a84f2be90f44a84fc0b48b8155786a92131eea0a22b116354a6f237
Reciphers for ciphertext: 0
Decipheredtext:           00000000000000000000000000000000
RESULT CIPHER-DECIPHER: -----OK-----


Test: 86
Hash algorithm: 9
Symmetric key bit length: 128
IV bit length:            128
Plaintext bit length:     128
Symmetric key:            56565656565656565656565656565656
IV:                       00000000000000000000000000000000
Plaintext:                00000000000000000000000000000000
Ciphertext:               e7dab9789567743999097488617e4472212b483aca2459842b4774dffbf5aacee2a5b4295d87de75cc5258afc8b09e30
Reciphers for ciphertext: 0
Decipheredtext:           00000000000000000000000000000000
RESULT CIPHER-DECIPHER: -----OK-----


Test: 87
Hash algorithm: 10
Symmetric key bit length: 128
IV bit length:            128
Plaintext bit length:     128
Symmetric key:            57575757575757575757575757575757
IV:                       00000000000000000000000000000000
Plaintext:                00000000000000000000000000000000
Ciphertext:               457652323120ea9d157f17cc74f509fa84058e8fa7518116fb164ca2f55c863911c9304ec5b505f6af7f2d5140ba383b4322278a80fc4b4c
Reciphers for ciphertext: 0
Decipheredtext:           00000000000000000000000000000000
RESULT CIPHER-DECIPHER: -----OK-----


Test: 88
Hash algorithm: 13
Symmetric key bit length: 128
IV bit length:            128
Plaintext bit length:     128
Symmetric key:            58585858585858585858585858585858
IV:                       00000000000000000000000000000000
Plaintext:                00000000000000000000000000000000
Ciphertext:               1d891b4be52d4bda938d30ae151b39c9576e087d0166b265ea5f45803653216c
Reciphers for ciphertext: 0
Decipheredtext:           00000000000000000000000000000000
RESULT CIPHER-DECIPHER: -----OK-----


Test: 89
Hash algorithm: 10
Symmetric key bit length: 128
IV bit length:            128
Plaintext bit length:     128
Symmetric key:            59595959595959595959595959595959
IV:                       00000000000000000000000000000000
Plaintext:                00000000000000000000000000000000
Ciphertext:               e8aaf6899e8300aa2840c19c5540f1ca29d92a3408f26b21c6299af2d4e97e09c41b0f60f077bb5eaa905754966d0fa87310f0ec4ccbc4f2
Reciphers for ciphertext: 0
Decipheredtext:           00000000000000000000000000000000
RESULT CIPHER-DECIPHER: -----OK-----


Test: 90
Hash algorithm: 0
Symmetric key bit length: 128
IV bit length:            128
Plaintext bit length:     128
Symmetric key:            5a5a5a5a5a5a5a5a5a5a5a5a5a5a5a5a
IV:                       00000000000000000000000000000000
Plaintext:                00000000000000000000000000000000
Ciphertext:               7ec4e2ba09e1d6a30f470dfa7a4547399fed10c658e26affcb0cc00adb1b51349d13c511
Reciphers for ciphertext: 0
Decipheredtext:           00000000000000000000000000000000
RESULT CIPHER-DECIPHER: -----OK-----


Test: 91
Hash algorithm: 4
Symmetric key bit length: 128
IV bit length:            128
Plaintext bit length:     128
Symmetric key:            5b5b5b5b5b5b5b5b5b5b5b5b5b5b5b5b
IV:                       00000000000000000000000000000000
Plaintext:                00000000000000000000000000000000
Ciphertext:               4ddbbbed1ba79085ab9fc9779c6a7b0046b7012523787771d53e747a6c64b9826c48b04bf0ef95347870f2a9c1a8b2c21348b7e37e8ba3fb6bf20e3ffded1cebb421ab21ef4d031184e7e52f6cc7b8f2
Reciphers for ciphertext: 0
Decipheredtext:           00000000000000000000000000000000
RESULT CIPHER-DECIPHER: -----OK-----


Test: 92
Hash algorithm: 5
Symmetric key bit length: 128
IV bit length:            128
Plaintext bit length:     128
Symmetric key:            5c5c5c5c5c5c5c5c5c5c5c5c5c5c5c5c
IV:                       00000000000000000000000000000000
Plaintext:                00000000000000000000000000000000
Ciphertext:               399644e2a3a5119b18ed2b5bc77c81e8604802661e5a11dd0ea59d583a66e94c07b47ad47d2d37a74ea0a686
Reciphers for ciphertext: 0
Decipheredtext:           00000000000000000000000000000000
RESULT CIPHER-DECIPHER: -----OK-----


Test: 93
Hash algorithm: 13
Symmetric key bit length: 128
IV bit length:            128
Plaintext bit length:     128
Symmetric key:            5d5d5d5d5d5d5d5d5d5d5d5d5d5d5d5d
IV:                       00000000000000000000000000000000
Plaintext:                00000000000000000000000000000000
Ciphertext:               605b14a48ba562c7a6ad537c6f380b5e2abc07926fee9b78df7f26524c7013fb
Reciphers for ciphertext: 0
Decipheredtext:           00000000000000000000000000000000
RESULT CIPHER-DECIPHER: -----OK-----


Test: 94
Hash algorithm: 12
Symmetric key bit length: 128
IV bit length:            128
Plaintext bit length:     128
Symmetric key:            5e5e5e5e5e5e5e5e5e5e5e5e5e5e5e5e
IV:                       00000000000000000000000000000000
Plaintext:                00000000000000000000000000000000
Ciphertext:               6753874644ee07b0eea2268686e5d9622f2fb8186fe36dc9dceceb381af0cf0d
Reciphers for ciphertext: 0
Decipheredtext:           00000000000000000000000000000000
RESULT CIPHER-DECIPHER: -----OK-----


Test: 95
Hash algorithm: 3
Symmetric key bit length: 128
IV bit length:            128
Plaintext bit length:     128
Symmetric key:            5f5f5f5f5f5f5f5f5f5f5f5f5f5f5f5f
IV:                       00000000000000000000000000000000
Plaintext:                00000000000000000000000000000000
Ciphertext:               0e1f1b3ebc43840cd8c0fb7a7389c950a05f7ea31d5ab8d2101fbc312dbf883a54640f5f40732ee188b99e66cf05250ea8e1cc08100b7d7f2376b6bdbafc7664
Reciphers for ciphertext: 0
Decipheredtext:           00000000000000000000000000000000
RESULT CIPHER-DECIPHER: -----OK-----


Test: 96
Hash algorithm: 12
Symmetric key bit length: 128
IV bit length:            128
Plaintext bit length:     128
Symmetric key:            60606060606060606060606060606060
IV:                       00000000000000000000000000000000
Plaintext:                00000000000000000000000000000000
Ciphertext:               b091be24d93cc5dc67e506397b7d431cf8ed817af231afa555abcb87e7685573
Reciphers for ciphertext: 0
Decipheredtext:           00000000000000000000000000000000
RESULT CIPHER-DECIPHER: -----OK-----


Test: 97
Hash algorithm: 8
Symmetric key bit length: 128
IV bit length:            128
Plaintext bit length:     128
Symmetric key:            61616161616161616161616161616161
IV:                       00000000000000000000000000000000
Plaintext:                00000000000000000000000000000000
Ciphertext:               dc3a2c49aa385b0c6742d9c32b1812152e4c20c0e24210fcb33db50f83ce9b00d9ca33a8
Reciphers for ciphertext: 0
Decipheredtext:           00000000000000000000000000000000
RESULT CIPHER-DECIPHER: -----OK-----


Test: 98
Hash algorithm: 9
Symmetric key bit length: 128
IV bit length:            128
Plaintext bit length:     128
Symmetric key:            62626262626262626262626262626262
IV:                       00000000000000000000000000000000
Plaintext:                00000000000000000000000000000000
Ciphertext:               6f7aeb9d529035039d01775e7f6df188a98b1adf0dd318be2f4f7709e5e61f346f505e941e5fffe3f7caebae2e8b6ca8
Reciphers for ciphertext: 0
Decipheredtext:           00000000000000000000000000000000
RESULT CIPHER-DECIPHER: -----OK-----


Test: 99
Hash algorithm: 4
Symmetric key bit length: 128
IV bit length:            128
Plaintext bit length:     128
Symmetric key:            63636363636363636363636363636363
IV:                       00000000000000000000000000000000
Plaintext:                00000000000000000000000000000000
Ciphertext:               6f02169561ce5ab1142ac0fa5992fd01646eac5d5911bd456a8b7df7a99c3f83eebd7769e8c9270a9b04e5f453ac350c6c54345eff47c7e78e8b9bf307baeebdcd9aa2c23b406b9a48fe568db1fbf8e0
Reciphers for ciphertext: 0
Decipheredtext:           00000000000000000000000000000000
RESULT CIPHER-DECIPHER: -----OK-----


Test: 100
Hash algorithm: 11
Symmetric key bit length: 128
IV bit length:            128
Plaintext bit length:     128
Symmetric key:            64646464646464646464646464646464
IV:                       00000000000000000000000000000000
Plaintext:                00000000000000000000000000000000
Ciphertext:               9ecfbb2c2ca5e9b3a52535115cbb33a6a0fd45403530c9736f6a3b9d74541420
Reciphers for ciphertext: 0
Decipheredtext:           00000000000000000000000000000000
RESULT CIPHER-DECIPHER: -----OK-----


Test: 101
Hash algorithm: 1
Symmetric key bit length: 128
IV bit length:            128
Plaintext bit length:     128
Symmetric key:            65656565656565656565656565656565
IV:                       00000000000000000000000000000000
Plaintext:                00000000000000000000000000000000
Ciphertext:               2c360ca14d58134b43e77c0d39dc9d84ddb3b198d34376dd016150ed603e9f2585939e943c18b5a13dda4bbc
Reciphers for ciphertext: 0
Decipheredtext:           00000000000000000000000000000000
RESULT CIPHER-DECIPHER: -----OK-----


Test: 102
Hash algorithm: 7
Symmetric key bit length: 128
IV bit length:            128
Plaintext bit length:     128
Symmetric key:            66666666666666666666666666666666
IV:                       00000000000000000000000000000000
Plaintext:                00000000000000000000000000000000
Ciphertext:               510ed0ce24393e71d8de5ff5d43dd5c625cde3a7587803fee1d2aed4f07a5905
Reciphers for ciphertext: 0
Decipheredtext:           00000000000000000000000000000000
RESULT CIPHER-DECIPHER: -----OK-----


Test: 103
Hash algorithm: 9
Symmetric key bit length: 128
IV bit length:            128
Plaintext bit length:     128
Symmetric key:            67676767676767676767676767676767
IV:                       00000000000000000000000000000000
Plaintext:                00000000000000000000000000000000
Ciphertext:               62d6ebbfe0dfc3c30742d6721aea03e3a4271afdbf9cee7eb50cd6258061ed5f45c1271573af36ac1244d9e743107690
Reciphers for ciphertext: 0
Decipheredtext:           00000000000000000000000000000000
RESULT CIPHER-DECIPHER: -----OK-----


Test: 104
Hash algorithm: 6
Symmetric key bit length: 128
IV bit length:            128
Plaintext bit length:     128
Symmetric key:            68686868686868686868686868686868
IV:                       00000000000000000000000000000000
Plaintext:                00000000000000000000000000000000
Ciphertext:               f23c2da2387bbe4d9acfdab421c672101620bbc2883caa806deb45bbf720b7456e5a171b9edacb96737b4ee84122c042
Reciphers for ciphertext: 0
Decipheredtext:           00000000000000000000000000000000
RESULT CIPHER-DECIPHER: -----OK-----


Test: 105
Hash algorithm: 6
Symmetric key bit length: 128
IV bit length:            128
Plaintext bit length:     128
Symmetric key:            69696969696969696969696969696969
IV:                       00000000000000000000000000000000
Plaintext:                00000000000000000000000000000000
Ciphertext:               a00a81b354539c13b68da7b2b6fec4aa441617d3e41488de41a938bd601801ff5a55d2466a837f9f9837609613d3ad6e
Reciphers for ciphertext: 0
Decipheredtext:           00000000000000000000000000000000
RESULT CIPHER-DECIPHER: -----OK-----


Test: 106
Hash algorithm: 9
Symmetric key bit length: 128
IV bit length:            128
Plaintext bit length:     128
Symmetric key:            6a6a6a6a6a6a6a6a6a6a6a6a6a6a6a6a
IV:                       00000000000000000000000000000000
Plaintext:                00000000000000000000000000000000
Ciphertext:               43fcdf9aaa007572cece957c533732b5850d2ed8f54358cf7c80952bc9bcdc09d04c1f1303f207611d7a966fa000cf1b
Reciphers for ciphertext: 0
Decipheredtext:           00000000000000000000000000000000
RESULT CIPHER-DECIPHER: -----OK-----


Test: 107
Hash algorithm: 8
Symmetric key bit length: 128
IV bit length:            128
Plaintext bit length:     128
Symmetric key:            6b6b6b6b6b6b6b6b6b6b6b6b6b6b6b6b
IV:                       00000000000000000000000000000000
Plaintext:                00000000000000000000000000000000
Ciphertext:               9523a25e5b782a55e16bc7a7c0591b7f6755aed7130261a53514ab6b688f926ac7f77d1c
Reciphers for ciphertext: 0
Decipheredtext:           00000000000000000000000000000000
RESULT CIPHER-DECIPHER: -----OK-----


Test: 108
Hash algorithm: 3
Symmetric key bit length: 128
IV bit length:            128
Plaintext bit length:     128
Symmetric key:            6c6c6c6c6c6c6c6c6c6c6c6c6c6c6c6c
IV:                       00000000000000000000000000000000
Plaintext:                00000000000000000000000000000000
Ciphertext:               e188b7d2b0b71360d086ced485ed1b514fc8d24f11ae2fbe1859899fdbdb5a3ba6856334464b7f878c3ca5994685ca8c9bd95d0cccd753bd88034dcbb94b8d5e
Reciphers for ciphertext: 0
Decipheredtext:           00000000000000000000000000000000
RESULT CIPHER-DECIPHER: -----OK-----


Test: 109
Hash algorithm: 11
Symmetric key bit length: 128
IV bit length:            128
Plaintext bit length:     128
Symmetric key:            6d6d6d6d6d6d6d6d6d6d6d6d6d6d6d6d
IV:                       00000000000000000000000000000000
Plaintext:                00000000000000000000000000000000
Ciphertext:               46d8be5b503b4601419613c4ceff5f2078ea403749ae66c18bd91d48e61078a6
Reciphers for ciphertext: 0
Decipheredtext:           00000000000000000000000000000000
RESULT CIPHER-DECIPHER: -----OK-----


Test: 110
Hash algorithm: 9
Symmetric key bit length: 128
IV bit length:            128
Plaintext bit length:     128
Symmetric key:            6e6e6e6e6e6e6e6e6e6e6e6e6e6e6e6e
IV:                       00000000000000000000000000000000
Plaintext:                00000000000000000000000000000000
Ciphertext:               f30ed0cc0b9b870ee776031ea1ddc93535ff218e54d8aab3553803493b562789bcc57231907da2632aeecb14bec49d80
Reciphers for ciphertext: 0
Decipheredtext:           00000000000000000000000000000000
RESULT CIPHER-DECIPHER: -----OK-----


Test: 111
Hash algorithm: 12
Symmetric key bit length: 128
IV bit length:            128
Plaintext bit length:     128
Symmetric key:            6f6f6f6f6f6f6f6f6f6f6f6f6f6f6f6f
IV:                       00000000000000000000000000000000
Plaintext:                00000000000000000000000000000000
Ciphertext:               4cf0a91eac8c7e58df52462e78a35294048c964087811421ed1c8b90e4b644fb
Reciphers for ciphertext: 0
Decipheredtext:           00000000000000000000000000000000
RESULT CIPHER-DECIPHER: -----OK-----


Test: 112
Hash algorithm: 5
Symmetric key bit length: 128
IV bit length:            128
Plaintext bit length:     128
Symmetric key:            70707070707070707070707070707070
IV:                       00000000000000000000000000000000
Plaintext:                00000000000000000000000000000000
Ciphertext:               5fdb377ae59bb9bca28abe7b5bb5888c060571fe5864b9fab4c20878a6afe028b7a2a5af1172393fa5e5fea9
Reciphers for ciphertext: 0
Decipheredtext:           00000000000000000000000000000000
RESULT CIPHER-DECIPHER: -----OK-----


Test: 113
Hash algorithm: 10
Symmetric key bit length: 128
IV bit length:            128
Plaintext bit length:     128
Symmetric key:            71717171717171717171717171717171
IV:                       00000000000000000000000000000000
Plaintext:                00000000000000000000000000000000
Ciphertext:               50f8b2df6b485e67512e105e519ef3f4918b6e62fd3935ecbf474b30d0377c373d34bb19a35310ff0a04df8dfff5f608249f44b1fe4e9080
Reciphers for ciphertext: 0
Decipheredtext:           00000000000000000000000000000000
RESULT CIPHER-DECIPHER: -----OK-----


Test: 114
Hash algorithm: 6
Symmetric key bit length: 128
IV bit length:            128
Plaintext bit length:     128
Symmetric key:            72727272727272727272727272727272
IV:                       00000000000000000000000000000000
Plaintext:                00000000000000000000000000000000
Ciphertext:               04cb445a0a648341008c9ac7573b98cde0d7d23aba23978cf7a805c881dd5d98983f592db2d5fbf6da9894e9a073050d
Reciphers for ciphertext: 0
Decipheredtext:           00000000000000000000000000000000
RESULT CIPHER-DECIPHER: -----OK-----


Test: 115
Hash algorithm: 9
Symmetric key bit length: 128
IV bit length:            128
Plaintext bit length:     128
Symmetric key:            73737373737373737373737373737373
IV:                       00000000000000000000000000000000
Plaintext:                00000000000000000000000000000000
Ciphertext:               5fd67bcbcdd612fb02ffb4b35d61d0fb99278a8992953f46b0b1b4e4c7ea3e47553513fd370606b809583caad5d6c44f
Reciphers for ciphertext: 0
Decipheredtext:           00000000000000000000000000000000
RESULT CIPHER-DECIPHER: -----OK-----


Test: 116
Hash algorithm: 13
Symmetric key bit length: 128
IV bit length:            128
Plaintext bit length:     128
Symmetric key:            74747474747474747474747474747474
IV:                       00000000000000000000000000000000
Plaintext:                00000000000000000000000000000000
Ciphertext:               4e708be1fb42df23e7a21a2600680afe049798d71f09269c9e706f082320125b
Reciphers for ciphertext: 0
Decipheredtext:           00000000000000000000000000000000
RESULT CIPHER-DECIPHER: -----OK-----


Test: 117
Hash algorithm: 2
Symmetric key bit length: 128
IV bit length:            128
Plaintext bit length:     128
Symmetric key:            75757575757575757575757575757575
IV:                       00000000000000000000000000000000
Plaintext:                00000000000000000000000000000000
Ciphertext:               f4e957bab4915052bce7b19ed0302725c3ae5f4543e0cd872b7979eb055cf50d2023f592be08f1be4609f7e84a97702c
Reciphers for ciphertext: 0
Decipheredtext:           00000000000000000000000000000000
RESULT CIPHER-DECIPHER: -----OK-----


Test: 118
Hash algorithm: 2
Symmetric key bit length: 128
IV bit length:            128
Plaintext bit length:     128
Symmetric key:            76767676767676767676767676767676
IV:                       00000000000000000000000000000000
Plaintext:                00000000000000000000000000000000
Ciphertext:               de32747972dc7a96b006c94a516f401fe9757c8685ade7432798013f840392376185c2859390eb24c21ab2533e093579
Reciphers for ciphertext: 0
Decipheredtext:           00000000000000000000000000000000
RESULT CIPHER-DECIPHER: -----OK-----


Test: 119
Hash algorithm: 9
Symmetric key bit length: 128
IV bit length:            128
Plaintext bit length:     128
Symmetric key:            77777777777777777777777777777777
IV:                       00000000000000000000000000000000
Plaintext:                00000000000000000000000000000000
Ciphertext:               ed753beb98bcb4cbc7009f6dbebd8d5c2b84caa9c7ff9976754e9f3a243663e032980c03f928dd0e20e66dd3c94cc527
Reciphers for ciphertext: 0
Decipheredtext:           00000000000000000000000000000000
RESULT CIPHER-DECIPHER: -----OK-----


Test: 120
Hash algorithm: 6
Symmetric key bit length: 128
IV bit length:            128
Plaintext bit length:     128
Symmetric key:            78787878787878787878787878787878
IV:                       00000000000000000000000000000000
Plaintext:                00000000000000000000000000000000
Ciphertext:               a9fc2e1235e1f170860a0f723b0ed55e4de0b87285a6e5bd712e907dede8100bc53465cb608ce2967d8370a065742934
Reciphers for ciphertext: 0
Decipheredtext:           00000000000000000000000000000000
RESULT CIPHER-DECIPHER: -----OK-----


Test: 121
Hash algorithm: 4
Symmetric key bit length: 128
IV bit length:            128
Plaintext bit length:     128
Symmetric key:            79797979797979797979797979797979
IV:                       00000000000000000000000000000000
Plaintext:                00000000000000000000000000000000
Ciphertext:               1c247058b20c7fa74859a64235891e171748ca908ad3985336f81b4fc587dc95ad7fed7e6c5157e20b36e07997d2ab5f53cc5ee02d3ba3e5d4bd5675aad21d9269c9df92b006032c83d7c69a39e4b865
Reciphers for ciphertext: 0
Decipheredtext:           00000000000000000000000000000000
RESULT CIPHER-DECIPHER: -----OK-----


Test: 122
Hash algorithm: 0
Symmetric key bit length: 128
IV bit length:            128
Plaintext bit length:     128
Symmetric key:            7a7a7a7a7a7a7a7a7a7a7a7a7a7a7a7a
IV:                       00000000000000000000000000000000
Plaintext:                00000000000000000000000000000000
Ciphertext:               6c27a6559319a471329b071be43f8beb8d0e5429c21a182df6d0caeb45619de640383af7
Reciphers for ciphertext: 0
Decipheredtext:           00000000000000000000000000000000
RESULT CIPHER-DECIPHER: -----OK-----


Test: 123
Hash algorithm: 7
Symmetric key bit length: 128
IV bit length:            128
Plaintext bit length:     128
Symmetric key:            7b7b7b7b7b7b7b7b7b7b7b7b7b7b7b7b
IV:                       00000000000000000000000000000000
Plaintext:                00000000000000000000000000000000
Ciphertext:               387a9b3e8457448aca99f5571142901b4cb9a857f8167905f395047635051cd8
Reciphers for ciphertext: 0
Decipheredtext:           00000000000000000000000000000000
RESULT CIPHER-DECIPHER: -----OK-----


Test: 124
Hash algorithm: 8
Symmetric key bit length: 128
IV bit length:            128
Plaintext bit length:     128
Symmetric key:            7c7c7c7c7c7c7c7c7c7c7c7c7c7c7c7c
IV:                       00000000000000000000000000000000
Plaintext:                00000000000000000000000000000000
Ciphertext:               a5ce2fd5c5c562e47c72f2e89ba22e7057b8235c8dbf2914a80d9e243374a7651b0bd84b
Reciphers for ciphertext: 0
Decipheredtext:           00000000000000000000000000000000
RESULT CIPHER-DECIPHER: -----OK-----


Test: 125
Hash algorithm: 1
Symmetric key bit length: 128
IV bit length:            128
Plaintext bit length:     128
Symmetric key:            7d7d7d7d7d7d7d7d7d7d7d7d7d7d7d7d
IV:                       00000000000000000000000000000000
Plaintext:                00000000000000000000000000000000
Ciphertext:               73f39d1265369c315889e96553cc69c48276202bfb2df9a71a0fc5850a2e6b65d69e71f30af0de0576dd04cb
Reciphers for ciphertext: 0
Decipheredtext:           00000000000000000000000000000000
RESULT CIPHER-DECIPHER: -----OK-----


Test: 126
Hash algorithm: 8
Symmetric key bit length: 128
IV bit length:            128
Plaintext bit length:     128
Symmetric key:            7e7e7e7e7e7e7e7e7e7e7e7e7e7e7e7e
IV:                       00000000000000000000000000000000
Plaintext:                00000000000000000000000000000000
Ciphertext:               9081af09efb201c0f34b35b3c14cd61c62f7a380a7c84a302734597f699a5f09cf457b5c
Reciphers for ciphertext: 0
Decipheredtext:           00000000000000000000000000000000
RESULT CIPHER-DECIPHER: -----OK-----


Test: 127
Hash algorithm: 4
Symmetric key bit length: 128
IV bit length:            128
Plaintext bit length:     128
Symmetric key:            7f7f7f7f7f7f7f7f7f7f7f7f7f7f7f7f
IV:                       00000000000000000000000000000000
Plaintext:                00000000000000000000000000000000
Ciphertext:               01a6e5c303ed2d8f8fa6f670b7ca306c0aca5f0b3b32ca7bf1074b7d47c4f2ee493c31034dc867719374fc9f76b320a55bfdbd265a5b0fea03758d65ab39b020c92ee5bdc6c62b83ce4a1192f852d5b4
Reciphers for ciphertext: 0
Decipheredtext:           00000000000000000000000000000000
RESULT CIPHER-DECIPHER: -----OK-----


 DATA SHA1 (hexadecimal): 76e61284836e79a17e5d723e21ada65bfb3c858d

