
DiceLock 9.0.0.1

 TEST COMPONENTS:
 ----------------
 DiceLock:           DiceLockIVDigested class
 Operation Mode:     CFB_Mode class
 Block Cipher:       Camellia256 class
 Hash algorithms:     0 - Sha1 class
                      1 - Sha224 class
                      2 - Sha256 class
                      3 - Sha384 class
                      4 - Sha512 class
                      5 - Sha512_224 class
                      6 - Sha512_256 class
                      7 - Ripemd128 class
                      8 - Ripemd160 class
                      9 - Ripemd256 class
                     10 - Ripemd320 class
                     11 - MD2 class
                     12 - MD4 class
                     13 - MD5 class
 Key Modifier:       DecreaseKeyModifier_6_0_0_1 class
 Random tests:       RandomTestSuite class
                     FrequencyTest class
                     BlockFrequencyTest class
                     CumulativeSumForwardTest class
                     LongestRunOfOnesTest class
                     RunsTest class
 Random alpha:       0.001

 VECTOR TEST: Test vector 6 - Plaintext all byte value 0xXX


##### INDIVIDUAL TESTS #####

Number tests: 128


Test: 0
Hash algorithm: 13
Symmetric key bit length: 256
IV bit length:            128
Plaintext bit length:     128
Symmetric key:            0000000000000000000000000000000000000000000000000000000000000000
IV:                       00000000000000000000000000000000
Plaintext:                00000000000000000000000000000000
Ciphertext:               396154111adefc500cf6e5c99038bc1773864727fe9505ef752490e7b370a4b2
Reciphers for ciphertext: 0
Decipheredtext:           00000000000000000000000000000000
RESULT CIPHER-DECIPHER: -----OK-----


Test: 1
Hash algorithm: 0
Symmetric key bit length: 256
IV bit length:            128
Plaintext bit length:     128
Symmetric key:            0000000000000000000000000000000000000000000000000000000000000000
IV:                       00000000000000000000000000000000
Plaintext:                01010101010101010101010101010101
Ciphertext:               386055101bdffd510df7e4c89139bd160d3d5a8682a5e31e17156b28f7b2e307766bcc71
Reciphers for ciphertext: 0
Decipheredtext:           01010101010101010101010101010101
RESULT CIPHER-DECIPHER: -----OK-----


Test: 2
Hash algorithm: 5
Symmetric key bit length: 256
IV bit length:            128
Plaintext bit length:     128
Symmetric key:            0000000000000000000000000000000000000000000000000000000000000000
IV:                       00000000000000000000000000000000
Plaintext:                02020202020202020202020202020202
Ciphertext:               3b63561318dcfe520ef4e7cb923abe155da2511fa3185ee0ac0ccd379fcc0543531e717691c1923a61a1e5e6
Reciphers for ciphertext: 0
Decipheredtext:           02020202020202020202020202020202
RESULT CIPHER-DECIPHER: -----OK-----


Test: 3
Hash algorithm: 3
Symmetric key bit length: 256
IV bit length:            128
Plaintext bit length:     128
Symmetric key:            0000000000000000000000000000000000000000000000000000000000000000
IV:                       00000000000000000000000000000000
Plaintext:                03030303030303030303030303030303
Ciphertext:               3a62571219ddff530ff5e6ca933bbf148157dce18bbd38f779b2844b23f33f876f8f141090de7ef337b187ca392474b5c423673b441955df825092ec2bfe7a88
Reciphers for ciphertext: 0
Decipheredtext:           03030303030303030303030303030303
RESULT CIPHER-DECIPHER: -----OK-----


Test: 4
Hash algorithm: 13
Symmetric key bit length: 256
IV bit length:            128
Plaintext bit length:     128
Symmetric key:            0000000000000000000000000000000000000000000000000000000000000000
IV:                       00000000000000000000000000000000
Plaintext:                04040404040404040404040404040404
Ciphertext:               3d6550151edaf85408f2e1cd943cb8138d6feaab99e2e057ebbb7b85fe833e27
Reciphers for ciphertext: 0
Decipheredtext:           04040404040404040404040404040404
RESULT CIPHER-DECIPHER: -----OK-----


Test: 5
Hash algorithm: 11
Symmetric key bit length: 256
IV bit length:            128
Plaintext bit length:     128
Symmetric key:            0000000000000000000000000000000000000000000000000000000000000000
IV:                       00000000000000000000000000000000
Plaintext:                05050505050505050505050505050505
Ciphertext:               3c6451141fdbf95509f3e0cc953db91245ca3540b19c8a9a66c2674e420e635c
Reciphers for ciphertext: 0
Decipheredtext:           05050505050505050505050505050505
RESULT CIPHER-DECIPHER: -----OK-----


Test: 6
Hash algorithm: 0
Symmetric key bit length: 256
IV bit length:            128
Plaintext bit length:     128
Symmetric key:            0000000000000000000000000000000000000000000000000000000000000000
IV:                       00000000000000000000000000000000
Plaintext:                06060606060606060606060606060606
Ciphertext:               3f6752171cd8fa560af0e3cf963eba11f0449ca6bbc323e6934fbd428388b962c698c310
Reciphers for ciphertext: 0
Decipheredtext:           06060606060606060606060606060606
RESULT CIPHER-DECIPHER: -----OK-----


Test: 7
Hash algorithm: 12
Symmetric key bit length: 256
IV bit length:            128
Plaintext bit length:     128
Symmetric key:            0000000000000000000000000000000000000000000000000000000000000000
IV:                       00000000000000000000000000000000
Plaintext:                07070707070707070707070707070707
Ciphertext:               3e6653161dd9fb570bf1e2ce973fbb103e399daf58ec1d751f0cc19e0a0859d4
Reciphers for ciphertext: 0
Decipheredtext:           07070707070707070707070707070707
RESULT CIPHER-DECIPHER: -----OK-----


Test: 8
Hash algorithm: 5
Symmetric key bit length: 256
IV bit length:            128
Plaintext bit length:     128
Symmetric key:            0000000000000000000000000000000000000000000000000000000000000000
IV:                       00000000000000000000000000000000
Plaintext:                08080808080808080808080808080808
Ciphertext:               31695c1912d6f45804feedc19830b41f7f0222fe83f7bf4e0c7a1065cea917033c7cd20d8158dbc73e447de7
Reciphers for ciphertext: 0
Decipheredtext:           08080808080808080808080808080808
RESULT CIPHER-DECIPHER: -----OK-----


Test: 9
Hash algorithm: 3
Symmetric key bit length: 256
IV bit length:            128
Plaintext bit length:     128
Symmetric key:            0000000000000000000000000000000000000000000000000000000000000000
IV:                       00000000000000000000000000000000
Plaintext:                09090909090909090909090909090909
Ciphertext:               30685d1813d7f55905ffecc09931b51ee97154df49ed168156fa0fd8d2e2b6ceecc042e51f06c7db73efbe0ae09af0a5b71023b974e689c4565e631268ba89ce
Reciphers for ciphertext: 0
Decipheredtext:           09090909090909090909090909090909
RESULT CIPHER-DECIPHER: -----OK-----


Test: 10
Hash algorithm: 1
Symmetric key bit length: 256
IV bit length:            128
Plaintext bit length:     128
Symmetric key:            0000000000000000000000000000000000000000000000000000000000000000
IV:                       00000000000000000000000000000000
Plaintext:                0a0a0a0a0a0a0a0a0a0a0a0a0a0a0a0a
Ciphertext:               336b5e1b10d4f65a06fcefc39a32b61d8206b728ce88b3935d704b271887b08acfe3b0acd380ff18a0842e54
Reciphers for ciphertext: 0
Decipheredtext:           0a0a0a0a0a0a0a0a0a0a0a0a0a0a0a0a
RESULT CIPHER-DECIPHER: -----OK-----


Test: 11
Hash algorithm: 1
Symmetric key bit length: 256
IV bit length:            128
Plaintext bit length:     128
Symmetric key:            0000000000000000000000000000000000000000000000000000000000000000
IV:                       00000000000000000000000000000000
Plaintext:                0b0b0b0b0b0b0b0b0b0b0b0b0b0b0b0b
Ciphertext:               326a5f1a11d5f75b07fdeec29b33b71cbbc0a43b002e756aaff70bffd90b4caeed1916f07a3f58682b98d8e9
Reciphers for ciphertext: 0
Decipheredtext:           0b0b0b0b0b0b0b0b0b0b0b0b0b0b0b0b
RESULT CIPHER-DECIPHER: -----OK-----


Test: 12
Hash algorithm: 11
Symmetric key bit length: 256
IV bit length:            128
Plaintext bit length:     128
Symmetric key:            0000000000000000000000000000000000000000000000000000000000000000
IV:                       00000000000000000000000000000000
Plaintext:                0c0c0c0c0c0c0c0c0c0c0c0c0c0c0c0c
Ciphertext:               356d581d16d2f05c00fae9c59c34b01b5f9cb9e2488a8f8a000745c3dab4e0fd
Reciphers for ciphertext: 0
Decipheredtext:           0c0c0c0c0c0c0c0c0c0c0c0c0c0c0c0c
RESULT CIPHER-DECIPHER: -----OK-----


Test: 13
Hash algorithm: 3
Symmetric key bit length: 256
IV bit length:            128
Plaintext bit length:     128
Symmetric key:            0000000000000000000000000000000000000000000000000000000000000000
IV:                       00000000000000000000000000000000
Plaintext:                0d0d0d0d0d0d0d0d0d0d0d0d0d0d0d0d
Ciphertext:               346c591c17d3f15d01fbe8c49d35b11ac55ef587664090364087c26a66ff4f5a03d343c51e1aafa035fbaf2362292e8fb830db7809f46f96cf033f56eeaac44c
Reciphers for ciphertext: 0
Decipheredtext:           0d0d0d0d0d0d0d0d0d0d0d0d0d0d0d0d
RESULT CIPHER-DECIPHER: -----OK-----


Test: 14
Hash algorithm: 3
Symmetric key bit length: 256
IV bit length:            128
Plaintext bit length:     128
Symmetric key:            0000000000000000000000000000000000000000000000000000000000000000
IV:                       00000000000000000000000000000000
Plaintext:                0e0e0e0e0e0e0e0e0e0e0e0e0e0e0e0e
Ciphertext:               376f5a1f14d0f25e02f8ebc79e36b2197882009200ec0b12f81a6f25d45dce53f8804bd42c7cd7de64db3c9af7a8c3ad2a7a3da04a44a28a93b3331d42180b25
Reciphers for ciphertext: 0
Decipheredtext:           0e0e0e0e0e0e0e0e0e0e0e0e0e0e0e0e
RESULT CIPHER-DECIPHER: -----OK-----


Test: 15
Hash algorithm: 7
Symmetric key bit length: 256
IV bit length:            128
Plaintext bit length:     128
Symmetric key:            0000000000000000000000000000000000000000000000000000000000000000
IV:                       00000000000000000000000000000000
Plaintext:                0f0f0f0f0f0f0f0f0f0f0f0f0f0f0f0f
Ciphertext:               366e5b1e15d1f35f03f9eac69f37b318e305cb2d73dfa5873cf1e6b8974a8640
Reciphers for ciphertext: 0
Decipheredtext:           0f0f0f0f0f0f0f0f0f0f0f0f0f0f0f0f
RESULT CIPHER-DECIPHER: -----OK-----


Test: 16
Hash algorithm: 3
Symmetric key bit length: 256
IV bit length:            128
Plaintext bit length:     128
Symmetric key:            0000000000000000000000000000000000000000000000000000000000000000
IV:                       00000000000000000000000000000000
Plaintext:                10101010101010101010101010101010
Ciphertext:               297144010aceec401ce6f5d98028ac07bee8584f61b1c36242f102a9cc3958e1b5d9dfdf8622439e75cbe6f4a5f7f2986a2df6e153c4b68e714b369c88c76152
Reciphers for ciphertext: 0
Decipheredtext:           10101010101010101010101010101010
RESULT CIPHER-DECIPHER: -----OK-----


Test: 17
Hash algorithm: 10
Symmetric key bit length: 256
IV bit length:            128
Plaintext bit length:     128
Symmetric key:            0000000000000000000000000000000000000000000000000000000000000000
IV:                       00000000000000000000000000000000
Plaintext:                11111111111111111111111111111111
Ciphertext:               287045000bcfed411de7f4d88129ad0619c04b72f146c154ebdb9c8939b7464ce9071bb0e61b4a8b55ecba65a4a0afffec4d1ca1cd99f79b
Reciphers for ciphertext: 0
Decipheredtext:           11111111111111111111111111111111
RESULT CIPHER-DECIPHER: -----OK-----


Test: 18
Hash algorithm: 4
Symmetric key bit length: 256
IV bit length:            128
Plaintext bit length:     128
Symmetric key:            0000000000000000000000000000000000000000000000000000000000000000
IV:                       00000000000000000000000000000000
Plaintext:                12121212121212121212121212121212
Ciphertext:               2b73460308ccee421ee4f7db822aae0551e4025c545c9882d3c74238f0b3a7a33530d840d46b251a8806ac687a1053c2423bb9b3db6eb3a7db2caade5d26ff03f3f55487dcc67dca26192438a2c94c78
Reciphers for ciphertext: 0
Decipheredtext:           12121212121212121212121212121212
RESULT CIPHER-DECIPHER: -----OK-----


Test: 19
Hash algorithm: 2
Symmetric key bit length: 256
IV bit length:            128
Plaintext bit length:     128
Symmetric key:            0000000000000000000000000000000000000000000000000000000000000000
IV:                       00000000000000000000000000000000
Plaintext:                13131313131313131313131313131313
Ciphertext:               2a72470209cdef431fe5f6da832baf04a82fb982bac40cd59a8de3c2f07f860b78d7c4777651323af1282808e84fcfac
Reciphers for ciphertext: 0
Decipheredtext:           13131313131313131313131313131313
RESULT CIPHER-DECIPHER: -----OK-----


Test: 20
Hash algorithm: 9
Symmetric key bit length: 256
IV bit length:            128
Plaintext bit length:     128
Symmetric key:            0000000000000000000000000000000000000000000000000000000000000000
IV:                       00000000000000000000000000000000
Plaintext:                14141414141414141414141414141414
Ciphertext:               2d7540050ecae84418e2f1dd842ca803fce1029b595ba6f5b4fcca0b380c846165ca63a99ceafefaf284754ddc7e9cf2
Reciphers for ciphertext: 0
Decipheredtext:           14141414141414141414141414141414
RESULT CIPHER-DECIPHER: -----OK-----


Test: 21
Hash algorithm: 0
Symmetric key bit length: 256
IV bit length:            128
Plaintext bit length:     128
Symmetric key:            0000000000000000000000000000000000000000000000000000000000000000
IV:                       00000000000000000000000000000000
Plaintext:                15151515151515151515151515151515
Ciphertext:               2c7441040fcbe94519e3f0dc852da90257b0044e1a8a94900b3ed19d6c4aa6ecbcefb75e
Reciphers for ciphertext: 0
Decipheredtext:           15151515151515151515151515151515
RESULT CIPHER-DECIPHER: -----OK-----


Test: 22
Hash algorithm: 10
Symmetric key bit length: 256
IV bit length:            128
Plaintext bit length:     128
Symmetric key:            0000000000000000000000000000000000000000000000000000000000000000
IV:                       00000000000000000000000000000000
Plaintext:                16161616161616161616161616161616
Ciphertext:               2f7742070cc8ea461ae0f3df862eaa01d6d402790f00798bdf68edaa4ade0cc743535f2ecf8abad1bdcf14a3efd8748db65fbd71749cbf96
Reciphers for ciphertext: 0
Decipheredtext:           16161616161616161616161616161616
RESULT CIPHER-DECIPHER: -----OK-----


Test: 23
Hash algorithm: 5
Symmetric key bit length: 256
IV bit length:            128
Plaintext bit length:     128
Symmetric key:            0000000000000000000000000000000000000000000000000000000000000000
IV:                       00000000000000000000000000000000
Plaintext:                17171717171717171717171717171717
Ciphertext:               2e7643060dc9eb471be1f2de872fab00771e5d730f6854c6f2428091540b06dd69fc5468848febae9a9b6822
Reciphers for ciphertext: 0
Decipheredtext:           17171717171717171717171717171717
RESULT CIPHER-DECIPHER: -----OK-----


Test: 24
Hash algorithm: 9
Symmetric key bit length: 256
IV bit length:            128
Plaintext bit length:     128
Symmetric key:            0000000000000000000000000000000000000000000000000000000000000000
IV:                       00000000000000000000000000000000
Plaintext:                18181818181818181818181818181818
Ciphertext:               21794c0902c6e44814eefdd18820a40ff7a3ef1541dcb435e020a6b3724d95d0771963bc2603f32f60d252f895bb1f7b
Reciphers for ciphertext: 0
Decipheredtext:           18181818181818181818181818181818
RESULT CIPHER-DECIPHER: -----OK-----


Test: 25
Hash algorithm: 3
Symmetric key bit length: 256
IV bit length:            128
Plaintext bit length:     128
Symmetric key:            0000000000000000000000000000000000000000000000000000000000000000
IV:                       00000000000000000000000000000000
Plaintext:                19191919191919191919191919191919
Ciphertext:               20784d0803c7e54915effcd08921a50e15efb96a8cf9d569226aa56ad8b5f115f73705d982252f574e0add4bd65a2cfd6eec0eae6034c706308b4aa4848d8e0a
Reciphers for ciphertext: 0
Decipheredtext:           19191919191919191919191919191919
RESULT CIPHER-DECIPHER: -----OK-----


Test: 26
Hash algorithm: 7
Symmetric key bit length: 256
IV bit length:            128
Plaintext bit length:     128
Symmetric key:            0000000000000000000000000000000000000000000000000000000000000000
IV:                       00000000000000000000000000000000
Plaintext:                1a1a1a1a1a1a1a1a1a1a1a1a1a1a1a1a
Ciphertext:               237b4e0b00c4e64a16ecffd38a22a60d81a047443b5a4762a30fec06f5582309
Reciphers for ciphertext: 0
Decipheredtext:           1a1a1a1a1a1a1a1a1a1a1a1a1a1a1a1a
RESULT CIPHER-DECIPHER: -----OK-----


Test: 27
Hash algorithm: 10
Symmetric key bit length: 256
IV bit length:            128
Plaintext bit length:     128
Symmetric key:            0000000000000000000000000000000000000000000000000000000000000000
IV:                       00000000000000000000000000000000
Plaintext:                1b1b1b1b1b1b1b1b1b1b1b1b1b1b1b1b
Ciphertext:               227a4f0a01c5e74b17edfed28b23a70ce84dd433e7a413246dcd902e6be9eb56413e9bc941badb1f8a8211280a71cb5a7f2784575f5206a3
Reciphers for ciphertext: 0
Decipheredtext:           1b1b1b1b1b1b1b1b1b1b1b1b1b1b1b1b
RESULT CIPHER-DECIPHER: -----OK-----


Test: 28
Hash algorithm: 13
Symmetric key bit length: 256
IV bit length:            128
Plaintext bit length:     128
Symmetric key:            0000000000000000000000000000000000000000000000000000000000000000
IV:                       00000000000000000000000000000000
Plaintext:                1c1c1c1c1c1c1c1c1c1c1c1c1c1c1c1c
Ciphertext:               257d480d06c2e04c10eaf9d58c24a00b6060e75169c75c05e0f4a985bccc7248
Reciphers for ciphertext: 0
Decipheredtext:           1c1c1c1c1c1c1c1c1c1c1c1c1c1c1c1c
RESULT CIPHER-DECIPHER: -----OK-----


Test: 29
Hash algorithm: 12
Symmetric key bit length: 256
IV bit length:            128
Plaintext bit length:     128
Symmetric key:            0000000000000000000000000000000000000000000000000000000000000000
IV:                       00000000000000000000000000000000
Plaintext:                1d1d1d1d1d1d1d1d1d1d1d1d1d1d1d1d
Ciphertext:               247c490c07c3e14d11ebf8d48d25a10a283df4a2dfbae2d8759122e85dceca45
Reciphers for ciphertext: 0
Decipheredtext:           1d1d1d1d1d1d1d1d1d1d1d1d1d1d1d1d
RESULT CIPHER-DECIPHER: -----OK-----


Test: 30
Hash algorithm: 13
Symmetric key bit length: 256
IV bit length:            128
Plaintext bit length:     128
Symmetric key:            0000000000000000000000000000000000000000000000000000000000000000
IV:                       00000000000000000000000000000000
Plaintext:                1e1e1e1e1e1e1e1e1e1e1e1e1e1e1e1e
Ciphertext:               277f4a0f04c0e24e12e8fbd78e26a2095ac9cd95acc7786bf8214c61cd7735e7
Reciphers for ciphertext: 0
Decipheredtext:           1e1e1e1e1e1e1e1e1e1e1e1e1e1e1e1e
RESULT CIPHER-DECIPHER: -----OK-----


Test: 31
Hash algorithm: 5
Symmetric key bit length: 256
IV bit length:            128
Plaintext bit length:     128
Symmetric key:            0000000000000000000000000000000000000000000000000000000000000000
IV:                       00000000000000000000000000000000
Plaintext:                1f1f1f1f1f1f1f1f1f1f1f1f1f1f1f1f
Ciphertext:               267e4b0e05c1e34f13e9fad68f27a30802904db35375fa6c1a2cc2a611949ed4035c0c90f05282b8003d8ab4
Reciphers for ciphertext: 0
Decipheredtext:           1f1f1f1f1f1f1f1f1f1f1f1f1f1f1f1f
RESULT CIPHER-DECIPHER: -----OK-----


Test: 32
Hash algorithm: 13
Symmetric key bit length: 256
IV bit length:            128
Plaintext bit length:     128
Symmetric key:            0000000000000000000000000000000000000000000000000000000000000000
IV:                       00000000000000000000000000000000
Plaintext:                20202020202020202020202020202020
Ciphertext:               194174313afedc702cd6c5e9b0189c37902669fc9f74add5111dad905ded838f
Reciphers for ciphertext: 0
Decipheredtext:           20202020202020202020202020202020
RESULT CIPHER-DECIPHER: -----OK-----


Test: 33
Hash algorithm: 8
Symmetric key bit length: 256
IV bit length:            128
Plaintext bit length:     128
Symmetric key:            0000000000000000000000000000000000000000000000000000000000000000
IV:                       00000000000000000000000000000000
Plaintext:                21212121212121212121212121212121
Ciphertext:               184075303bffdd712dd7c4e8b1199d3684afea0270dd20502f38ac9fca46163d94bc2e40
Reciphers for ciphertext: 0
Decipheredtext:           21212121212121212121212121212121
RESULT CIPHER-DECIPHER: -----OK-----


Test: 34
Hash algorithm: 11
Symmetric key bit length: 256
IV bit length:            128
Plaintext bit length:     128
Symmetric key:            0000000000000000000000000000000000000000000000000000000000000000
IV:                       00000000000000000000000000000000
Plaintext:                22222222222222222222222222222222
Ciphertext:               1b43763338fcde722ed4c7ebb21a9e35f1d18f929fbba9837b9a948a0c25f4f3
Reciphers for ciphertext: 0
Decipheredtext:           22222222222222222222222222222222
RESULT CIPHER-DECIPHER: -----OK-----


Test: 35
Hash algorithm: 4
Symmetric key bit length: 256
IV bit length:            128
Plaintext bit length:     128
Symmetric key:            0000000000000000000000000000000000000000000000000000000000000000
IV:                       00000000000000000000000000000000
Plaintext:                23232323232323232323232323232323
Ciphertext:               1a42773239fddf732fd5c6eab31b9f341181d9289ccca4ec2d1f39100174fc7706ad795f7fcce687fab219bb3fb4e9931e9dbb291bee3aef17b944125b57bd9a8d49c8185e9682795a8f473eee170b52
Reciphers for ciphertext: 0
Decipheredtext:           23232323232323232323232323232323
RESULT CIPHER-DECIPHER: -----OK-----


Test: 36
Hash algorithm: 7
Symmetric key bit length: 256
IV bit length:            128
Plaintext bit length:     128
Symmetric key:            0000000000000000000000000000000000000000000000000000000000000000
IV:                       00000000000000000000000000000000
Plaintext:                24242424242424242424242424242424
Ciphertext:               1d4570353efad87428d2c1edb41c983347d898e0e6b1ce1be12f13eeceabff7e
Reciphers for ciphertext: 0
Decipheredtext:           24242424242424242424242424242424
RESULT CIPHER-DECIPHER: -----OK-----


Test: 37
Hash algorithm: 11
Symmetric key bit length: 256
IV bit length:            128
Plaintext bit length:     128
Symmetric key:            0000000000000000000000000000000000000000000000000000000000000000
IV:                       00000000000000000000000000000000
Plaintext:                25252525252525252525252525252525
Ciphertext:               1c4471343ffbd97529d3c0ecb51d99329b7a325f6d797a13e065c86fc902854e
Reciphers for ciphertext: 0
Decipheredtext:           25252525252525252525252525252525
RESULT CIPHER-DECIPHER: -----OK-----


Test: 38
Hash algorithm: 11
Symmetric key bit length: 256
IV bit length:            128
Plaintext bit length:     128
Symmetric key:            0000000000000000000000000000000000000000000000000000000000000000
IV:                       00000000000000000000000000000000
Plaintext:                26262626262626262626262626262626
Ciphertext:               1f4772373cf8da762ad0c3efb61e9a317afef988a3381b51f4c00429c51f80da
Reciphers for ciphertext: 0
Decipheredtext:           26262626262626262626262626262626
RESULT CIPHER-DECIPHER: -----OK-----


Test: 39
Hash algorithm: 1
Symmetric key bit length: 256
IV bit length:            128
Plaintext bit length:     128
Symmetric key:            0000000000000000000000000000000000000000000000000000000000000000
IV:                       00000000000000000000000000000000
Plaintext:                27272727272727272727272727272727
Ciphertext:               1e4673363df9db772bd1c2eeb71f9b305b951fc796255de2524f26dfc416f9f373f6b72e37420601a0d154b3
Reciphers for ciphertext: 0
Decipheredtext:           27272727272727272727272727272727
RESULT CIPHER-DECIPHER: -----OK-----


Test: 40
Hash algorithm: 5
Symmetric key bit length: 256
IV bit length:            128
Plaintext bit length:     128
Symmetric key:            0000000000000000000000000000000000000000000000000000000000000000
IV:                       00000000000000000000000000000000
Plaintext:                28282828282828282828282828282828
Ciphertext:               11497c3932f6d47824decde1b810943fc6269144fb6fc7015297f3bfddae677a7005cc0c838755f2ab4f11f0
Reciphers for ciphertext: 0
Decipheredtext:           28282828282828282828282828282828
RESULT CIPHER-DECIPHER: -----OK-----


Test: 41
Hash algorithm: 12
Symmetric key bit length: 256
IV bit length:            128
Plaintext bit length:     128
Symmetric key:            0000000000000000000000000000000000000000000000000000000000000000
IV:                       00000000000000000000000000000000
Plaintext:                29292929292929292929292929292929
Ciphertext:               10487d3833f7d57925dfcce0b911953e93c0f3459a3296aa8932d8e3271a64eb
Reciphers for ciphertext: 0
Decipheredtext:           29292929292929292929292929292929
RESULT CIPHER-DECIPHER: -----OK-----


Test: 42
Hash algorithm: 3
Symmetric key bit length: 256
IV bit length:            128
Plaintext bit length:     128
Symmetric key:            0000000000000000000000000000000000000000000000000000000000000000
IV:                       00000000000000000000000000000000
Plaintext:                2a2a2a2a2a2a2a2a2a2a2a2a2a2a2a2a
Ciphertext:               134b7e3b30f4d67a26dccfe3ba12963dabf11fe471c34ea3f1ccf599b5b19052988d7125eab2b4bb173f4637792e7224f712a91c30f73812a1376e7081da30a9
Reciphers for ciphertext: 0
Decipheredtext:           2a2a2a2a2a2a2a2a2a2a2a2a2a2a2a2a
RESULT CIPHER-DECIPHER: -----OK-----


Test: 43
Hash algorithm: 5
Symmetric key bit length: 256
IV bit length:            128
Plaintext bit length:     128
Symmetric key:            0000000000000000000000000000000000000000000000000000000000000000
IV:                       00000000000000000000000000000000
Plaintext:                2b2b2b2b2b2b2b2b2b2b2b2b2b2b2b2b
Ciphertext:               124a7f3a31f5d77b27ddcee2bb13973c661389548d53302f4ecf9affec7c7a1f3259fe0e65118ac37df19dab
Reciphers for ciphertext: 0
Decipheredtext:           2b2b2b2b2b2b2b2b2b2b2b2b2b2b2b2b
RESULT CIPHER-DECIPHER: -----OK-----


Test: 44
Hash algorithm: 7
Symmetric key bit length: 256
IV bit length:            128
Plaintext bit length:     128
Symmetric key:            0000000000000000000000000000000000000000000000000000000000000000
IV:                       00000000000000000000000000000000
Plaintext:                2c2c2c2c2c2c2c2c2c2c2c2c2c2c2c2c
Ciphertext:               154d783d36f2d07c20dac9e5bc14903bf65849908c0d6a390e37a03cce6c2e7b
Reciphers for ciphertext: 0
Decipheredtext:           2c2c2c2c2c2c2c2c2c2c2c2c2c2c2c2c
RESULT CIPHER-DECIPHER: -----OK-----


Test: 45
Hash algorithm: 11
Symmetric key bit length: 256
IV bit length:            128
Plaintext bit length:     128
Symmetric key:            0000000000000000000000000000000000000000000000000000000000000000
IV:                       00000000000000000000000000000000
Plaintext:                2d2d2d2d2d2d2d2d2d2d2d2d2d2d2d2d
Ciphertext:               144c793c37f3d17d21dbc8e4bd15913a3be95f6d1a1a2c343ba05bd3567cfd8a
Reciphers for ciphertext: 0
Decipheredtext:           2d2d2d2d2d2d2d2d2d2d2d2d2d2d2d2d
RESULT CIPHER-DECIPHER: -----OK-----


Test: 46
Hash algorithm: 9
Symmetric key bit length: 256
IV bit length:            128
Plaintext bit length:     128
Symmetric key:            0000000000000000000000000000000000000000000000000000000000000000
IV:                       00000000000000000000000000000000
Plaintext:                2e2e2e2e2e2e2e2e2e2e2e2e2e2e2e2e
Ciphertext:               174f7a3f34f0d27e22d8cbe7be16923913c820a5c9691a155dd4410c7f9053b437e593a0f76ad905064a7e3ee673a6aa
Reciphers for ciphertext: 0
Decipheredtext:           2e2e2e2e2e2e2e2e2e2e2e2e2e2e2e2e
RESULT CIPHER-DECIPHER: -----OK-----


Test: 47
Hash algorithm: 1
Symmetric key bit length: 256
IV bit length:            128
Plaintext bit length:     128
Symmetric key:            0000000000000000000000000000000000000000000000000000000000000000
IV:                       00000000000000000000000000000000
Plaintext:                2f2f2f2f2f2f2f2f2f2f2f2f2f2f2f2f
Ciphertext:               164e7b3e35f1d37f23d9cae6bf179338ffa0f560024eed416a4242b02f064393a0c642508a4a681ab1551015
Reciphers for ciphertext: 0
Decipheredtext:           2f2f2f2f2f2f2f2f2f2f2f2f2f2f2f2f
RESULT CIPHER-DECIPHER: -----OK-----


Test: 48
Hash algorithm: 8
Symmetric key bit length: 256
IV bit length:            128
Plaintext bit length:     128
Symmetric key:            0000000000000000000000000000000000000000000000000000000000000000
IV:                       00000000000000000000000000000000
Plaintext:                30303030303030303030303030303030
Ciphertext:               095164212aeecc603cc6d5f9a0088c27c3cf9b61f1e3e66d85d3c58523bc369cd198526c
Reciphers for ciphertext: 0
Decipheredtext:           30303030303030303030303030303030
RESULT CIPHER-DECIPHER: -----OK-----


Test: 49
Hash algorithm: 9
Symmetric key bit length: 256
IV bit length:            128
Plaintext bit length:     128
Symmetric key:            0000000000000000000000000000000000000000000000000000000000000000
IV:                       00000000000000000000000000000000
Plaintext:                31313131313131313131313131313131
Ciphertext:               085065202befcd613dc7d4f8a1098d26c43f26e237d6ad7151c2f5c75999569a16639a6aa12875abac0dd8eca53b52d9
Reciphers for ciphertext: 0
Decipheredtext:           31313131313131313131313131313131
RESULT CIPHER-DECIPHER: -----OK-----


Test: 50
Hash algorithm: 9
Symmetric key bit length: 256
IV bit length:            128
Plaintext bit length:     128
Symmetric key:            0000000000000000000000000000000000000000000000000000000000000000
IV:                       00000000000000000000000000000000
Plaintext:                32323232323232323232323232323232
Ciphertext:               0b53662328ecce623ec4d7fba20a8e252d67549d531a8c2d33aec3afcdeadf57af2ad89e40b963079f9513d3f23f3c13
Reciphers for ciphertext: 0
Decipheredtext:           32323232323232323232323232323232
RESULT CIPHER-DECIPHER: -----OK-----


Test: 51
Hash algorithm: 12
Symmetric key bit length: 256
IV bit length:            128
Plaintext bit length:     128
Symmetric key:            0000000000000000000000000000000000000000000000000000000000000000
IV:                       00000000000000000000000000000000
Plaintext:                33333333333333333333333333333333
Ciphertext:               0a52672229edcf633fc5d6faa30b8f24f51387ad87274d0ff24d811edbab7db5
Reciphers for ciphertext: 0
Decipheredtext:           33333333333333333333333333333333
RESULT CIPHER-DECIPHER: -----OK-----


Test: 52
Hash algorithm: 13
Symmetric key bit length: 256
IV bit length:            128
Plaintext bit length:     128
Symmetric key:            0000000000000000000000000000000000000000000000000000000000000000
IV:                       00000000000000000000000000000000
Plaintext:                34343434343434343434343434343434
Ciphertext:               0d5560252eeac86438c2d1fda40c8823a2f429b0adeb52e26e957761d4ae5f52
Reciphers for ciphertext: 0
Decipheredtext:           34343434343434343434343434343434
RESULT CIPHER-DECIPHER: -----OK-----


Test: 53
Hash algorithm: 5
Symmetric key bit length: 256
IV bit length:            128
Plaintext bit length:     128
Symmetric key:            0000000000000000000000000000000000000000000000000000000000000000
IV:                       00000000000000000000000000000000
Plaintext:                35353535353535353535353535353535
Ciphertext:               0c5461242febc96539c3d0fca50d892209506ac49597835659c72422f259d3880dfaf957880772fa31a23236
Reciphers for ciphertext: 0
Decipheredtext:           35353535353535353535353535353535
RESULT CIPHER-DECIPHER: -----OK-----


Test: 54
Hash algorithm: 5
Symmetric key bit length: 256
IV bit length:            128
Plaintext bit length:     128
Symmetric key:            0000000000000000000000000000000000000000000000000000000000000000
IV:                       00000000000000000000000000000000
Plaintext:                36363636363636363636363636363636
Ciphertext:               0f5762272ce8ca663ac0d3ffa60e8a217a68c33c915499c41484de9cb8e25e1fb5cf04904ec2adeb0ecf3503
Reciphers for ciphertext: 0
Decipheredtext:           36363636363636363636363636363636
RESULT CIPHER-DECIPHER: -----OK-----


Test: 55
Hash algorithm: 10
Symmetric key bit length: 256
IV bit length:            128
Plaintext bit length:     128
Symmetric key:            0000000000000000000000000000000000000000000000000000000000000000
IV:                       00000000000000000000000000000000
Plaintext:                37373737373737373737373737373737
Ciphertext:               0e5663262de9cb673bc1d2fea70f8b2017e5d12968a96b4d3d86b9a162bcbd0320eb703dcbe331274283b72744ca05e06516e099b71e98f6
Reciphers for ciphertext: 0
Decipheredtext:           37373737373737373737373737373737
RESULT CIPHER-DECIPHER: -----OK-----


Test: 56
Hash algorithm: 0
Symmetric key bit length: 256
IV bit length:            128
Plaintext bit length:     128
Symmetric key:            0000000000000000000000000000000000000000000000000000000000000000
IV:                       00000000000000000000000000000000
Plaintext:                38383838383838383838383838383838
Ciphertext:               01596c2922e6c46834ceddf1a800842fe0681091cbf09e7c7188e03156cb5724a4fb021e
Reciphers for ciphertext: 0
Decipheredtext:           38383838383838383838383838383838
RESULT CIPHER-DECIPHER: -----OK-----


Test: 57
Hash algorithm: 11
Symmetric key bit length: 256
IV bit length:            128
Plaintext bit length:     128
Symmetric key:            0000000000000000000000000000000000000000000000000000000000000000
IV:                       00000000000000000000000000000000
Plaintext:                39393939393939393939393939393939
Ciphertext:               00586d2823e7c56935cfdcf0a901852ece1103b48e01276d431cb368c18c65e2
Reciphers for ciphertext: 0
Decipheredtext:           39393939393939393939393939393939
RESULT CIPHER-DECIPHER: -----OK-----


Test: 58
Hash algorithm: 11
Symmetric key bit length: 256
IV bit length:            128
Plaintext bit length:     128
Symmetric key:            0000000000000000000000000000000000000000000000000000000000000000
IV:                       00000000000000000000000000000000
Plaintext:                3a3a3a3a3a3a3a3a3a3a3a3a3a3a3a3a
Ciphertext:               035b6e2b20e4c66a36ccdff3aa02862d0a5e89519868ccb953a54775699976f1
Reciphers for ciphertext: 0
Decipheredtext:           3a3a3a3a3a3a3a3a3a3a3a3a3a3a3a3a
RESULT CIPHER-DECIPHER: -----OK-----


Test: 59
Hash algorithm: 6
Symmetric key bit length: 256
IV bit length:            128
Plaintext bit length:     128
Symmetric key:            0000000000000000000000000000000000000000000000000000000000000000
IV:                       00000000000000000000000000000000
Plaintext:                3b3b3b3b3b3b3b3b3b3b3b3b3b3b3b3b
Ciphertext:               025a6f2a21e5c76b37cddef2ab03872ced7f7ef9b15992f4131b0a8fea3fc5f55a564128d8bb9ccb520a71f8d7932858
Reciphers for ciphertext: 0
Decipheredtext:           3b3b3b3b3b3b3b3b3b3b3b3b3b3b3b3b
RESULT CIPHER-DECIPHER: -----OK-----


Test: 60
Hash algorithm: 0
Symmetric key bit length: 256
IV bit length:            128
Plaintext bit length:     128
Symmetric key:            0000000000000000000000000000000000000000000000000000000000000000
IV:                       00000000000000000000000000000000
Plaintext:                3c3c3c3c3c3c3c3c3c3c3c3c3c3c3c3c
Ciphertext:               055d682d26e2c06c30cad9f5ac04802bf5032319bb23c458dda4f35cf7954731da0e3eea
Reciphers for ciphertext: 0
Decipheredtext:           3c3c3c3c3c3c3c3c3c3c3c3c3c3c3c3c
RESULT CIPHER-DECIPHER: -----OK-----


Test: 61
Hash algorithm: 10
Symmetric key bit length: 256
IV bit length:            128
Plaintext bit length:     128
Symmetric key:            0000000000000000000000000000000000000000000000000000000000000000
IV:                       00000000000000000000000000000000
Plaintext:                3d3d3d3d3d3d3d3d3d3d3d3d3d3d3d3d
Ciphertext:               045c692c27e3c16d31cbd8f4ad05812a796031bb96f6dee1c2887dc262de0619f7b169ab429c5bee407630c7d69c7b98d72495079198f95b
Reciphers for ciphertext: 0
Decipheredtext:           3d3d3d3d3d3d3d3d3d3d3d3d3d3d3d3d
RESULT CIPHER-DECIPHER: -----OK-----


Test: 62
Hash algorithm: 4
Symmetric key bit length: 256
IV bit length:            128
Plaintext bit length:     128
Symmetric key:            0000000000000000000000000000000000000000000000000000000000000000
IV:                       00000000000000000000000000000000
Plaintext:                3e3e3e3e3e3e3e3e3e3e3e3e3e3e3e3e
Ciphertext:               075f6a2f24e0c26e32c8dbf7ae06822918afe5e9af28c8b0ab85f739ebb7a30ebd25c57c756509af267caa542d69488b1b0eb3e0063e78162f45bda26cef7ebd0a66f201ed63a9484460ca1b2d810368
Reciphers for ciphertext: 0
Decipheredtext:           3e3e3e3e3e3e3e3e3e3e3e3e3e3e3e3e
RESULT CIPHER-DECIPHER: -----OK-----


Test: 63
Hash algorithm: 4
Symmetric key bit length: 256
IV bit length:            128
Plaintext bit length:     128
Symmetric key:            0000000000000000000000000000000000000000000000000000000000000000
IV:                       00000000000000000000000000000000
Plaintext:                3f3f3f3f3f3f3f3f3f3f3f3f3f3f3f3f
Ciphertext:               065e6b2e25e1c36f33c9daf6af078328eaab356ddf78896386148e2d631c9bcdc0351b2fe686f0800d721778c211fa09eca1490dab983aac0fa4a296a61cd8e781f30b5042298076f15c2d5ec58ccb24
Reciphers for ciphertext: 0
Decipheredtext:           3f3f3f3f3f3f3f3f3f3f3f3f3f3f3f3f
RESULT CIPHER-DECIPHER: -----OK-----


Test: 64
Hash algorithm: 11
Symmetric key bit length: 256
IV bit length:            128
Plaintext bit length:     128
Symmetric key:            0000000000000000000000000000000000000000000000000000000000000000
IV:                       00000000000000000000000000000000
Plaintext:                40404040404040404040404040404040
Ciphertext:               792114515a9ebc104cb6a589d078fc578cb40e5e7b7cf36d4b8a08ee9deb7046
Reciphers for ciphertext: 0
Decipheredtext:           40404040404040404040404040404040
RESULT CIPHER-DECIPHER: -----OK-----


Test: 65
Hash algorithm: 8
Symmetric key bit length: 256
IV bit length:            128
Plaintext bit length:     128
Symmetric key:            0000000000000000000000000000000000000000000000000000000000000000
IV:                       00000000000000000000000000000000
Plaintext:                41414141414141414141414141414141
Ciphertext:               782015505b9fbd114db7a488d179fd56983b47f426bf8009297b3e3cd42feeec1d3e8fc9
Reciphers for ciphertext: 0
Decipheredtext:           41414141414141414141414141414141
RESULT CIPHER-DECIPHER: -----OK-----


Test: 66
Hash algorithm: 9
Symmetric key bit length: 256
IV bit length:            128
Plaintext bit length:     128
Symmetric key:            0000000000000000000000000000000000000000000000000000000000000000
IV:                       00000000000000000000000000000000
Plaintext:                42424242424242424242424242424242
Ciphertext:               7b231653589cbe124eb4a78bd27afe5525a6edbbaf2165f39949f61b35455250437b18694fd5d3c1c1b8830abc3e0444
Reciphers for ciphertext: 0
Decipheredtext:           42424242424242424242424242424242
RESULT CIPHER-DECIPHER: -----OK-----


Test: 67
Hash algorithm: 10
Symmetric key bit length: 256
IV bit length:            128
Plaintext bit length:     128
Symmetric key:            0000000000000000000000000000000000000000000000000000000000000000
IV:                       00000000000000000000000000000000
Plaintext:                43434343434343434343434343434343
Ciphertext:               7a221752599dbf134fb5a68ad37bff549a8adc2a2454431a1926eda0bdbaae1aae753035d2626029188ec9c737789840d5abe3f1a86c0041
Reciphers for ciphertext: 0
Decipheredtext:           43434343434343434343434343434343
RESULT CIPHER-DECIPHER: -----OK-----


Test: 68
Hash algorithm: 5
Symmetric key bit length: 256
IV bit length:            128
Plaintext bit length:     128
Symmetric key:            0000000000000000000000000000000000000000000000000000000000000000
IV:                       00000000000000000000000000000000
Plaintext:                44444444444444444444444444444444
Ciphertext:               7d2510555e9ab81448b2a18dd47cf853427bd97844a10f19dc342d131760d7fac96fc0e2821ed03d911f68f9
Reciphers for ciphertext: 0
Decipheredtext:           44444444444444444444444444444444
RESULT CIPHER-DECIPHER: -----OK-----


Test: 69
Hash algorithm: 0
Symmetric key bit length: 256
IV bit length:            128
Plaintext bit length:     128
Symmetric key:            0000000000000000000000000000000000000000000000000000000000000000
IV:                       00000000000000000000000000000000
Plaintext:                45454545454545454545454545454545
Ciphertext:               7c2411545f9bb91549b3a08cd57df952145845f60d89d76437565a0367aeb93fe770691c
Reciphers for ciphertext: 0
Decipheredtext:           45454545454545454545454545454545
RESULT CIPHER-DECIPHER: -----OK-----


Test: 70
Hash algorithm: 0
Symmetric key bit length: 256
IV bit length:            128
Plaintext bit length:     128
Symmetric key:            0000000000000000000000000000000000000000000000000000000000000000
IV:                       00000000000000000000000000000000
Plaintext:                46464646464646464646464646464646
Ciphertext:               7f2712575c98ba164ab0a38fd67efa511f1e0138e2415e67ce9a0b74fcb1de9a73b2ccb7
Reciphers for ciphertext: 0
Decipheredtext:           46464646464646464646464646464646
RESULT CIPHER-DECIPHER: -----OK-----


Test: 71
Hash algorithm: 8
Symmetric key bit length: 256
IV bit length:            128
Plaintext bit length:     128
Symmetric key:            0000000000000000000000000000000000000000000000000000000000000000
IV:                       00000000000000000000000000000000
Plaintext:                47474747474747474747474747474747
Ciphertext:               7e2613565d99bb174bb1a28ed77ffb5094f1f14d5c67fab0202bb1dead16d7cd33383cce
Reciphers for ciphertext: 0
Decipheredtext:           47474747474747474747474747474747
RESULT CIPHER-DECIPHER: -----OK-----


Test: 72
Hash algorithm: 0
Symmetric key bit length: 256
IV bit length:            128
Plaintext bit length:     128
Symmetric key:            0000000000000000000000000000000000000000000000000000000000000000
IV:                       00000000000000000000000000000000
Plaintext:                48484848484848484848484848484848
Ciphertext:               71291c595296b41844bead81d870f45f401e7118b63d2fe206990f056ef5aeb9c6ba852d
Reciphers for ciphertext: 0
Decipheredtext:           48484848484848484848484848484848
RESULT CIPHER-DECIPHER: -----OK-----


Test: 73
Hash algorithm: 0
Symmetric key bit length: 256
IV bit length:            128
Plaintext bit length:     128
Symmetric key:            0000000000000000000000000000000000000000000000000000000000000000
IV:                       00000000000000000000000000000000
Plaintext:                49494949494949494949494949494949
Ciphertext:               70281d585397b51945bfac80d971f55eff37de3469e4cd4351747af40d4ac65704fc0d9c
Reciphers for ciphertext: 0
Decipheredtext:           49494949494949494949494949494949
RESULT CIPHER-DECIPHER: -----OK-----


Test: 74
Hash algorithm: 7
Symmetric key bit length: 256
IV bit length:            128
Plaintext bit length:     128
Symmetric key:            0000000000000000000000000000000000000000000000000000000000000000
IV:                       00000000000000000000000000000000
Plaintext:                4a4a4a4a4a4a4a4a4a4a4a4a4a4a4a4a
Ciphertext:               732b1e5b5094b61a46bcaf83da72f65db6eff9271674b0d4661ec045b7efdd2d
Reciphers for ciphertext: 0
Decipheredtext:           4a4a4a4a4a4a4a4a4a4a4a4a4a4a4a4a
RESULT CIPHER-DECIPHER: -----OK-----


Test: 75
Hash algorithm: 11
Symmetric key bit length: 256
IV bit length:            128
Plaintext bit length:     128
Symmetric key:            0000000000000000000000000000000000000000000000000000000000000000
IV:                       00000000000000000000000000000000
Plaintext:                4b4b4b4b4b4b4b4b4b4b4b4b4b4b4b4b
Ciphertext:               722a1f5a5195b71b47bdae82db73f75c5dc2ad8a950ebacb6bb2c896bc46d786
Reciphers for ciphertext: 0
Decipheredtext:           4b4b4b4b4b4b4b4b4b4b4b4b4b4b4b4b
RESULT CIPHER-DECIPHER: -----OK-----


Test: 76
Hash algorithm: 5
Symmetric key bit length: 256
IV bit length:            128
Plaintext bit length:     128
Symmetric key:            0000000000000000000000000000000000000000000000000000000000000000
IV:                       00000000000000000000000000000000
Plaintext:                4c4c4c4c4c4c4c4c4c4c4c4c4c4c4c4c
Ciphertext:               752d185d5692b01c40baa985dc74f05b7cfb6f4b6cb53632fb2aef93b885844fa070741a27795e11923287a9
Reciphers for ciphertext: 0
Decipheredtext:           4c4c4c4c4c4c4c4c4c4c4c4c4c4c4c4c
RESULT CIPHER-DECIPHER: -----OK-----


Test: 77
Hash algorithm: 9
Symmetric key bit length: 256
IV bit length:            128
Plaintext bit length:     128
Symmetric key:            0000000000000000000000000000000000000000000000000000000000000000
IV:                       00000000000000000000000000000000
Plaintext:                4d4d4d4d4d4d4d4d4d4d4d4d4d4d4d4d
Ciphertext:               742c195c5793b11d41bba884dd75f15a4fccc87b4fecd2a90ff974a55514526ce7ef21590f0c80a75906c86876552f1b
Reciphers for ciphertext: 0
Decipheredtext:           4d4d4d4d4d4d4d4d4d4d4d4d4d4d4d4d
RESULT CIPHER-DECIPHER: -----OK-----


Test: 78
Hash algorithm: 4
Symmetric key bit length: 256
IV bit length:            128
Plaintext bit length:     128
Symmetric key:            0000000000000000000000000000000000000000000000000000000000000000
IV:                       00000000000000000000000000000000
Plaintext:                4e4e4e4e4e4e4e4e4e4e4e4e4e4e4e4e
Ciphertext:               772f1a5f5490b21e42b8ab87de76f259f66a8ea5be68466a80de52d4984814a03006542417ec995b017678b4d6f33690942ef61135d8847fe4d6772233813b52449ea0550342a422aa49095a0df34bae
Reciphers for ciphertext: 0
Decipheredtext:           4e4e4e4e4e4e4e4e4e4e4e4e4e4e4e4e
RESULT CIPHER-DECIPHER: -----OK-----


Test: 79
Hash algorithm: 7
Symmetric key bit length: 256
IV bit length:            128
Plaintext bit length:     128
Symmetric key:            0000000000000000000000000000000000000000000000000000000000000000
IV:                       00000000000000000000000000000000
Plaintext:                4f4f4f4f4f4f4f4f4f4f4f4f4f4f4f4f
Ciphertext:               762e1b5e5591b31f43b9aa86df77f358f38aecf9a8ecea7b21105c99bb4a9e1f
Reciphers for ciphertext: 0
Decipheredtext:           4f4f4f4f4f4f4f4f4f4f4f4f4f4f4f4f
RESULT CIPHER-DECIPHER: -----OK-----


Test: 80
Hash algorithm: 5
Symmetric key bit length: 256
IV bit length:            128
Plaintext bit length:     128
Symmetric key:            0000000000000000000000000000000000000000000000000000000000000000
IV:                       00000000000000000000000000000000
Plaintext:                50505050505050505050505050505050
Ciphertext:               693104414a8eac005ca6b599c068ec475bfca8c50a894efd7fb118ceb94278d210cedbe6e25f90278d58db6b
Reciphers for ciphertext: 0
Decipheredtext:           50505050505050505050505050505050
RESULT CIPHER-DECIPHER: -----OK-----


Test: 81
Hash algorithm: 0
Symmetric key bit length: 256
IV bit length:            128
Plaintext bit length:     128
Symmetric key:            0000000000000000000000000000000000000000000000000000000000000000
IV:                       00000000000000000000000000000000
Plaintext:                51515151515151515151515151515151
Ciphertext:               683005404b8fad015da7b498c169ed463a015f66e698dcdf436d803ce8ca95bcaf885bb0
Reciphers for ciphertext: 0
Decipheredtext:           51515151515151515151515151515151
RESULT CIPHER-DECIPHER: -----OK-----


Test: 82
Hash algorithm: 8
Symmetric key bit length: 256
IV bit length:            128
Plaintext bit length:     128
Symmetric key:            0000000000000000000000000000000000000000000000000000000000000000
IV:                       00000000000000000000000000000000
Plaintext:                52525252525252525252525252525252
Ciphertext:               6b330643488cae025ea4b79bc26aee450397a4520a8775ed6a7c3c72ff1a5687e0a4815b
Reciphers for ciphertext: 0
Decipheredtext:           52525252525252525252525252525252
RESULT CIPHER-DECIPHER: -----OK-----


Test: 83
Hash algorithm: 4
Symmetric key bit length: 256
IV bit length:            128
Plaintext bit length:     128
Symmetric key:            0000000000000000000000000000000000000000000000000000000000000000
IV:                       00000000000000000000000000000000
Plaintext:                53535353535353535353535353535353
Ciphertext:               6a320742498daf035fa5b69ac36bef448ae279b2eeae9b0061f72dd88ac558a49236a4f9d4f5edac5276b8aa33f367f95508f15ab79abb3502ef06ab4abb7013bf1848334260c5d189d67915c269db9c
Reciphers for ciphertext: 0
Decipheredtext:           53535353535353535353535353535353
RESULT CIPHER-DECIPHER: -----OK-----


Test: 84
Hash algorithm: 1
Symmetric key bit length: 256
IV bit length:            128
Plaintext bit length:     128
Symmetric key:            0000000000000000000000000000000000000000000000000000000000000000
IV:                       00000000000000000000000000000000
Plaintext:                54545454545454545454545454545454
Ciphertext:               6d3500454e8aa80458a2b19dc46ce8432ef14c236a9ec185b57b6382957031fe19b4f464048b66a2be8fe4bd
Reciphers for ciphertext: 0
Decipheredtext:           54545454545454545454545454545454
RESULT CIPHER-DECIPHER: -----OK-----


Test: 85
Hash algorithm: 0
Symmetric key bit length: 256
IV bit length:            128
Plaintext bit length:     128
Symmetric key:            0000000000000000000000000000000000000000000000000000000000000000
IV:                       00000000000000000000000000000000
Plaintext:                55555555555555555555555555555555
Ciphertext:               6c3401444f8ba90559a3b09cc56de94229614a36475666dc7856fabed9319f6e32607585
Reciphers for ciphertext: 0
Decipheredtext:           55555555555555555555555555555555
RESULT CIPHER-DECIPHER: -----OK-----


Test: 86
Hash algorithm: 0
Symmetric key bit length: 256
IV bit length:            128
Plaintext bit length:     128
Symmetric key:            0000000000000000000000000000000000000000000000000000000000000000
IV:                       00000000000000000000000000000000
Plaintext:                56565656565656565656565656565656
Ciphertext:               6f3702474c88aa065aa0b39fc66eea4138c0074db619f889bd07d4d06d156a765731562c
Reciphers for ciphertext: 0
Decipheredtext:           56565656565656565656565656565656
RESULT CIPHER-DECIPHER: -----OK-----


Test: 87
Hash algorithm: 9
Symmetric key bit length: 256
IV bit length:            128
Plaintext bit length:     128
Symmetric key:            0000000000000000000000000000000000000000000000000000000000000000
IV:                       00000000000000000000000000000000
Plaintext:                57575757575757575757575757575757
Ciphertext:               6e3603464d89ab075ba1b29ec76feb40f61f3252300077eeea1ae170801b3d321b88d1397d67edce26db746982ec9c99
Reciphers for ciphertext: 0
Decipheredtext:           57575757575757575757575757575757
RESULT CIPHER-DECIPHER: -----OK-----


Test: 88
Hash algorithm: 13
Symmetric key bit length: 256
IV bit length:            128
Plaintext bit length:     128
Symmetric key:            0000000000000000000000000000000000000000000000000000000000000000
IV:                       00000000000000000000000000000000
Plaintext:                58585858585858585858585858585858
Ciphertext:               61390c494286a40854aebd91c860e44fb1100ac6f5bc47dc97134782052277e5
Reciphers for ciphertext: 0
Decipheredtext:           58585858585858585858585858585858
RESULT CIPHER-DECIPHER: -----OK-----


Test: 89
Hash algorithm: 8
Symmetric key bit length: 256
IV bit length:            128
Plaintext bit length:     128
Symmetric key:            0000000000000000000000000000000000000000000000000000000000000000
IV:                       00000000000000000000000000000000
Plaintext:                59595959595959595959595959595959
Ciphertext:               60380d484387a50955afbc90c961e54e098edcd9e1e6baaffbd50ed74808d0442b362270
Reciphers for ciphertext: 0
Decipheredtext:           59595959595959595959595959595959
RESULT CIPHER-DECIPHER: -----OK-----


Test: 90
Hash algorithm: 9
Symmetric key bit length: 256
IV bit length:            128
Plaintext bit length:     128
Symmetric key:            0000000000000000000000000000000000000000000000000000000000000000
IV:                       00000000000000000000000000000000
Plaintext:                5a5a5a5a5a5a5a5a5a5a5a5a5a5a5a5a
Ciphertext:               633b0e4b4084a60a56acbf93ca62e64dbc5e1d5455877a9187991757f130223e693ad9536abee4eaaa1e24e866b62abe
Reciphers for ciphertext: 0
Decipheredtext:           5a5a5a5a5a5a5a5a5a5a5a5a5a5a5a5a
RESULT CIPHER-DECIPHER: -----OK-----


Test: 91
Hash algorithm: 12
Symmetric key bit length: 256
IV bit length:            128
Plaintext bit length:     128
Symmetric key:            0000000000000000000000000000000000000000000000000000000000000000
IV:                       00000000000000000000000000000000
Plaintext:                5b5b5b5b5b5b5b5b5b5b5b5b5b5b5b5b
Ciphertext:               623a0f4a4185a70b57adbe92cb63e74cbb9d6d1cc931c99bd464bfeb6e205ff9
Reciphers for ciphertext: 0
Decipheredtext:           5b5b5b5b5b5b5b5b5b5b5b5b5b5b5b5b
RESULT CIPHER-DECIPHER: -----OK-----


Test: 92
Hash algorithm: 7
Symmetric key bit length: 256
IV bit length:            128
Plaintext bit length:     128
Symmetric key:            0000000000000000000000000000000000000000000000000000000000000000
IV:                       00000000000000000000000000000000
Plaintext:                5c5c5c5c5c5c5c5c5c5c5c5c5c5c5c5c
Ciphertext:               653d084d4682a00c50aab995cc64e04b50e054a434dddb8bd14242febb2ec869
Reciphers for ciphertext: 0
Decipheredtext:           5c5c5c5c5c5c5c5c5c5c5c5c5c5c5c5c
RESULT CIPHER-DECIPHER: -----OK-----


Test: 93
Hash algorithm: 11
Symmetric key bit length: 256
IV bit length:            128
Plaintext bit length:     128
Symmetric key:            0000000000000000000000000000000000000000000000000000000000000000
IV:                       00000000000000000000000000000000
Plaintext:                5d5d5d5d5d5d5d5d5d5d5d5d5d5d5d5d
Ciphertext:               643c094c4783a10d51abb894cd65e14ae07eacaf1ec5f264400e974861a8c384
Reciphers for ciphertext: 0
Decipheredtext:           5d5d5d5d5d5d5d5d5d5d5d5d5d5d5d5d
RESULT CIPHER-DECIPHER: -----OK-----


Test: 94
Hash algorithm: 5
Symmetric key bit length: 256
IV bit length:            128
Plaintext bit length:     128
Symmetric key:            0000000000000000000000000000000000000000000000000000000000000000
IV:                       00000000000000000000000000000000
Plaintext:                5e5e5e5e5e5e5e5e5e5e5e5e5e5e5e5e
Ciphertext:               673f0a4f4480a20e52a8bb97ce66e249054a4415ab5e75e17be4b51b6cc597011dbf7f493159b3e92ae02859
Reciphers for ciphertext: 0
Decipheredtext:           5e5e5e5e5e5e5e5e5e5e5e5e5e5e5e5e
RESULT CIPHER-DECIPHER: -----OK-----


Test: 95
Hash algorithm: 3
Symmetric key bit length: 256
IV bit length:            128
Plaintext bit length:     128
Symmetric key:            0000000000000000000000000000000000000000000000000000000000000000
IV:                       00000000000000000000000000000000
Plaintext:                5f5f5f5f5f5f5f5f5f5f5f5f5f5f5f5f
Ciphertext:               663e0b4e4581a30f53a9ba96cf67e348fc15c574a458b45bdc7af0a202613de9b907f187ed68c83b779e8edd008788ba43f4b55a73eb2aff138b72edc10c6885
Reciphers for ciphertext: 0
Decipheredtext:           5f5f5f5f5f5f5f5f5f5f5f5f5f5f5f5f
RESULT CIPHER-DECIPHER: -----OK-----


Test: 96
Hash algorithm: 9
Symmetric key bit length: 256
IV bit length:            128
Plaintext bit length:     128
Symmetric key:            0000000000000000000000000000000000000000000000000000000000000000
IV:                       00000000000000000000000000000000
Plaintext:                60606060606060606060606060606060
Ciphertext:               590134717abe9c306c9685a9f058dc773dca142b12b108797dceae73f2e1e6359baf23475a066e1d5cf3314017e3c6a7
Reciphers for ciphertext: 0
Decipheredtext:           60606060606060606060606060606060
RESULT CIPHER-DECIPHER: -----OK-----


Test: 97
Hash algorithm: 9
Symmetric key bit length: 256
IV bit length:            128
Plaintext bit length:     128
Symmetric key:            0000000000000000000000000000000000000000000000000000000000000000
IV:                       00000000000000000000000000000000
Plaintext:                61616161616161616161616161616161
Ciphertext:               580035707bbf9d316d9784a8f159dd763966fa5c06d2efcd9bf4dca9b895727f8c6ff47e3267f629a396c3538412a12d
Reciphers for ciphertext: 0
Decipheredtext:           61616161616161616161616161616161
RESULT CIPHER-DECIPHER: -----OK-----


Test: 98
Hash algorithm: 12
Symmetric key bit length: 256
IV bit length:            128
Plaintext bit length:     128
Symmetric key:            0000000000000000000000000000000000000000000000000000000000000000
IV:                       00000000000000000000000000000000
Plaintext:                62626262626262626262626262626262
Ciphertext:               5b03367378bc9e326e9487abf25ade750121b4965783aad24ff6df55d67c1ef2
Reciphers for ciphertext: 0
Decipheredtext:           62626262626262626262626262626262
RESULT CIPHER-DECIPHER: -----OK-----


Test: 99
Hash algorithm: 10
Symmetric key bit length: 256
IV bit length:            128
Plaintext bit length:     128
Symmetric key:            0000000000000000000000000000000000000000000000000000000000000000
IV:                       00000000000000000000000000000000
Plaintext:                63636363636363636363636363636363
Ciphertext:               5a02377279bd9f336f9586aaf35bdf74303c470e719f2b888df81ea6958673c1453077fb8ee0774e331d8ba3b73579d4010cbebe4b7986a1
Reciphers for ciphertext: 0
Decipheredtext:           63636363636363636363636363636363
RESULT CIPHER-DECIPHER: -----OK-----


Test: 100
Hash algorithm: 5
Symmetric key bit length: 256
IV bit length:            128
Plaintext bit length:     128
Symmetric key:            0000000000000000000000000000000000000000000000000000000000000000
IV:                       00000000000000000000000000000000
Plaintext:                64646464646464646464646464646464
Ciphertext:               5d0530757eba9834689281adf45cd873e2630be49a5ddc2b764686fe78b17ceaeace830f05ae3e22fd1a90ab
Reciphers for ciphertext: 0
Decipheredtext:           64646464646464646464646464646464
RESULT CIPHER-DECIPHER: -----OK-----


Test: 101
Hash algorithm: 3
Symmetric key bit length: 256
IV bit length:            128
Plaintext bit length:     128
Symmetric key:            0000000000000000000000000000000000000000000000000000000000000000
IV:                       00000000000000000000000000000000
Plaintext:                65656565656565656565656565656565
Ciphertext:               5c0431747fbb9935699380acf55dd9721bda5b049e2295b03ee7ce2c14ae12849db69fbe62e09750d29e2b123f4ccf9b2715efa9dc16edaeb9959d541a2574a7
Reciphers for ciphertext: 0
Decipheredtext:           65656565656565656565656565656565
RESULT CIPHER-DECIPHER: -----OK-----


Test: 102
Hash algorithm: 5
Symmetric key bit length: 256
IV bit length:            128
Plaintext bit length:     128
Symmetric key:            0000000000000000000000000000000000000000000000000000000000000000
IV:                       00000000000000000000000000000000
Plaintext:                66666666666666666666666666666666
Ciphertext:               5f0732777cb89a366a9083aff65eda712cf6f9d601fcc8b1c19d5bd09b5a3424b5077b2b12191e6910420877
Reciphers for ciphertext: 0
Decipheredtext:           66666666666666666666666666666666
RESULT CIPHER-DECIPHER: -----OK-----


Test: 103
Hash algorithm: 7
Symmetric key bit length: 256
IV bit length:            128
Plaintext bit length:     128
Symmetric key:            0000000000000000000000000000000000000000000000000000000000000000
IV:                       00000000000000000000000000000000
Plaintext:                67676767676767676767676767676767
Ciphertext:               5e0633767db99b376b9182aef75fdb708367840d57cf85e7756a2dc76e067091
Reciphers for ciphertext: 0
Decipheredtext:           67676767676767676767676767676767
RESULT CIPHER-DECIPHER: -----OK-----


Test: 104
Hash algorithm: 8
Symmetric key bit length: 256
IV bit length:            128
Plaintext bit length:     128
Symmetric key:            0000000000000000000000000000000000000000000000000000000000000000
IV:                       00000000000000000000000000000000
Plaintext:                68686868686868686868686868686868
Ciphertext:               51093c7972b69438649e8da1f850d47f67e4746ca99e3249f553caebd3d63d6bd5a27d52
Reciphers for ciphertext: 0
Decipheredtext:           68686868686868686868686868686868
RESULT CIPHER-DECIPHER: -----OK-----


Test: 105
Hash algorithm: 5
Symmetric key bit length: 256
IV bit length:            128
Plaintext bit length:     128
Symmetric key:            0000000000000000000000000000000000000000000000000000000000000000
IV:                       00000000000000000000000000000000
Plaintext:                69696969696969696969696969696969
Ciphertext:               50083d7873b79539659f8ca0f951d57e4b3bcb9e045a5a139dd43b527aba1a657fa079ad41f791df7b32011f
Reciphers for ciphertext: 0
Decipheredtext:           69696969696969696969696969696969
RESULT CIPHER-DECIPHER: -----OK-----


Test: 106
Hash algorithm: 5
Symmetric key bit length: 256
IV bit length:            128
Plaintext bit length:     128
Symmetric key:            0000000000000000000000000000000000000000000000000000000000000000
IV:                       00000000000000000000000000000000
Plaintext:                6a6a6a6a6a6a6a6a6a6a6a6a6a6a6a6a
Ciphertext:               530b3e7b70b4963a669c8fa3fa52d67d6e5eff43468130911d3bb71a3483849db53da590ef56524d8793f803
Reciphers for ciphertext: 0
Decipheredtext:           6a6a6a6a6a6a6a6a6a6a6a6a6a6a6a6a
RESULT CIPHER-DECIPHER: -----OK-----


Test: 107
Hash algorithm: 12
Symmetric key bit length: 256
IV bit length:            128
Plaintext bit length:     128
Symmetric key:            0000000000000000000000000000000000000000000000000000000000000000
IV:                       00000000000000000000000000000000
Plaintext:                6b6b6b6b6b6b6b6b6b6b6b6b6b6b6b6b
Ciphertext:               520a3f7a71b5973b679d8ea2fb53d77ca1037c3176f5330c08f29bd350ef7ddb
Reciphers for ciphertext: 0
Decipheredtext:           6b6b6b6b6b6b6b6b6b6b6b6b6b6b6b6b
RESULT CIPHER-DECIPHER: -----OK-----


Test: 108
Hash algorithm: 7
Symmetric key bit length: 256
IV bit length:            128
Plaintext bit length:     128
Symmetric key:            0000000000000000000000000000000000000000000000000000000000000000
IV:                       00000000000000000000000000000000
Plaintext:                6c6c6c6c6c6c6c6c6c6c6c6c6c6c6c6c
Ciphertext:               550d387d76b2903c609a89a5fc54d07b4ec56683f56cda845d212c6c6179475f
Reciphers for ciphertext: 0
Decipheredtext:           6c6c6c6c6c6c6c6c6c6c6c6c6c6c6c6c
RESULT CIPHER-DECIPHER: -----OK-----


Test: 109
Hash algorithm: 9
Symmetric key bit length: 256
IV bit length:            128
Plaintext bit length:     128
Symmetric key:            0000000000000000000000000000000000000000000000000000000000000000
IV:                       00000000000000000000000000000000
Plaintext:                6d6d6d6d6d6d6d6d6d6d6d6d6d6d6d6d
Ciphertext:               540c397c77b3913d619b88a4fd55d17aaf594831ad97b7794daaa6e372631a5a8e3f2ca030a33600728aac678947768f
Reciphers for ciphertext: 0
Decipheredtext:           6d6d6d6d6d6d6d6d6d6d6d6d6d6d6d6d
RESULT CIPHER-DECIPHER: -----OK-----


Test: 110
Hash algorithm: 11
Symmetric key bit length: 256
IV bit length:            128
Plaintext bit length:     128
Symmetric key:            0000000000000000000000000000000000000000000000000000000000000000
IV:                       00000000000000000000000000000000
Plaintext:                6e6e6e6e6e6e6e6e6e6e6e6e6e6e6e6e
Ciphertext:               570f3a7f74b0923e62988ba7fe56d279bd94a690e908786c044b353565df91ee
Reciphers for ciphertext: 0
Decipheredtext:           6e6e6e6e6e6e6e6e6e6e6e6e6e6e6e6e
RESULT CIPHER-DECIPHER: -----OK-----


Test: 111
Hash algorithm: 0
Symmetric key bit length: 256
IV bit length:            128
Plaintext bit length:     128
Symmetric key:            0000000000000000000000000000000000000000000000000000000000000000
IV:                       00000000000000000000000000000000
Plaintext:                6f6f6f6f6f6f6f6f6f6f6f6f6f6f6f6f
Ciphertext:               560e3b7e75b1933f63998aa6ff57d37804f1cffd4c6dfc154077695eb185b0594dcc44a9
Reciphers for ciphertext: 0
Decipheredtext:           6f6f6f6f6f6f6f6f6f6f6f6f6f6f6f6f
RESULT CIPHER-DECIPHER: -----OK-----


Test: 112
Hash algorithm: 12
Symmetric key bit length: 256
IV bit length:            128
Plaintext bit length:     128
Symmetric key:            0000000000000000000000000000000000000000000000000000000000000000
IV:                       00000000000000000000000000000000
Plaintext:                70707070707070707070707070707070
Ciphertext:               491124616aae8c207c8695b9e048cc677549506213fd308246db20301b771096
Reciphers for ciphertext: 0
Decipheredtext:           70707070707070707070707070707070
RESULT CIPHER-DECIPHER: -----OK-----


Test: 113
Hash algorithm: 2
Symmetric key bit length: 256
IV bit length:            128
Plaintext bit length:     128
Symmetric key:            0000000000000000000000000000000000000000000000000000000000000000
IV:                       00000000000000000000000000000000
Plaintext:                71717171717171717171717171717171
Ciphertext:               481025606baf8d217d8794b8e149cd66791ad466a31164062d183fe9ed160591464f65970418feb75d12851d68b44cfd
Reciphers for ciphertext: 0
Decipheredtext:           71717171717171717171717171717171
RESULT CIPHER-DECIPHER: -----OK-----


Test: 114
Hash algorithm: 4
Symmetric key bit length: 256
IV bit length:            128
Plaintext bit length:     128
Symmetric key:            0000000000000000000000000000000000000000000000000000000000000000
IV:                       00000000000000000000000000000000
Plaintext:                72727272727272727272727272727272
Ciphertext:               4b13266368ac8e227e8497bbe24ace65a83cd630801077645b608f44a2537ef3d24bc8a6abb0f83448a414f4390d11d836e53857f62dae4081015253dd92123e1a199941bdde767bbb92cfca560cd436
Reciphers for ciphertext: 0
Decipheredtext:           72727272727272727272727272727272
RESULT CIPHER-DECIPHER: -----OK-----


Test: 115
Hash algorithm: 7
Symmetric key bit length: 256
IV bit length:            128
Plaintext bit length:     128
Symmetric key:            0000000000000000000000000000000000000000000000000000000000000000
IV:                       00000000000000000000000000000000
Plaintext:                73737373737373737373737373737373
Ciphertext:               4a12276269ad8f237f8596bae34bcf645884e02be2f04f6134cd2efcd1f377ef
Reciphers for ciphertext: 0
Decipheredtext:           73737373737373737373737373737373
RESULT CIPHER-DECIPHER: -----OK-----


Test: 116
Hash algorithm: 2
Symmetric key bit length: 256
IV bit length:            128
Plaintext bit length:     128
Symmetric key:            0000000000000000000000000000000000000000000000000000000000000000
IV:                       00000000000000000000000000000000
Plaintext:                74747474747474747474747474747474
Ciphertext:               4d1520656eaa8824788291bde44cc863f8af5aa5aad8b06dc7facd28a53a20b43d7e32dfc638cd544086a32d17f16826
Reciphers for ciphertext: 0
Decipheredtext:           74747474747474747474747474747474
RESULT CIPHER-DECIPHER: -----OK-----


Test: 117
Hash algorithm: 3
Symmetric key bit length: 256
IV bit length:            128
Plaintext bit length:     128
Symmetric key:            0000000000000000000000000000000000000000000000000000000000000000
IV:                       00000000000000000000000000000000
Plaintext:                75757575757575757575757575757575
Ciphertext:               4c1421646fab8925798390bce54dc9622e8faf82781be6d2855f61d32176be4682774535fcd5fdbefee96612efc9db3c2d3c588ccdc2e7315c4a3f292a7f235e
Reciphers for ciphertext: 0
Decipheredtext:           75757575757575757575757575757575
RESULT CIPHER-DECIPHER: -----OK-----


Test: 118
Hash algorithm: 1
Symmetric key bit length: 256
IV bit length:            128
Plaintext bit length:     128
Symmetric key:            0000000000000000000000000000000000000000000000000000000000000000
IV:                       00000000000000000000000000000000
Plaintext:                76767676767676767676767676767676
Ciphertext:               4f1722676ca88a267a8093bfe64eca61047737dc7b0128ea969e814a6c222c1de6d44c755f4f05ff404ce23d
Reciphers for ciphertext: 0
Decipheredtext:           76767676767676767676767676767676
RESULT CIPHER-DECIPHER: -----OK-----


Test: 119
Hash algorithm: 0
Symmetric key bit length: 256
IV bit length:            128
Plaintext bit length:     128
Symmetric key:            0000000000000000000000000000000000000000000000000000000000000000
IV:                       00000000000000000000000000000000
Plaintext:                77777777777777777777777777777777
Ciphertext:               4e1623666da98b277b8192bee74fcb604a521b7fd32a84601ce4920cecda90df9e5a131e
Reciphers for ciphertext: 0
Decipheredtext:           77777777777777777777777777777777
RESULT CIPHER-DECIPHER: -----OK-----


Test: 120
Hash algorithm: 12
Symmetric key bit length: 256
IV bit length:            128
Plaintext bit length:     128
Symmetric key:            0000000000000000000000000000000000000000000000000000000000000000
IV:                       00000000000000000000000000000000
Plaintext:                78787878787878787878787878787878
Ciphertext:               41192c6962a68428748e9db1e840c46f87c4a82d944d451a9339ba3a0388af3c
Reciphers for ciphertext: 0
Decipheredtext:           78787878787878787878787878787878
RESULT CIPHER-DECIPHER: -----OK-----


Test: 121
Hash algorithm: 0
Symmetric key bit length: 256
IV bit length:            128
Plaintext bit length:     128
Symmetric key:            0000000000000000000000000000000000000000000000000000000000000000
IV:                       00000000000000000000000000000000
Plaintext:                79797979797979797979797979797979
Ciphertext:               40182d6863a78529758f9cb0e941c56e9698e7cada0e454e9f8031b36a5daccbd21305ee
Reciphers for ciphertext: 0
Decipheredtext:           79797979797979797979797979797979
RESULT CIPHER-DECIPHER: -----OK-----


Test: 122
Hash algorithm: 3
Symmetric key bit length: 256
IV bit length:            128
Plaintext bit length:     128
Symmetric key:            0000000000000000000000000000000000000000000000000000000000000000
IV:                       00000000000000000000000000000000
Plaintext:                7a7a7a7a7a7a7a7a7a7a7a7a7a7a7a7a
Ciphertext:               431b2e6b60a4862a768c9fb3ea42c66d81c0053ab41d2a350411ff33c2c2ed00d53d74c018a74d1a9bde550a479f52e31404c260c06bb5f2d0d7d9187deda5c2
Reciphers for ciphertext: 0
Decipheredtext:           7a7a7a7a7a7a7a7a7a7a7a7a7a7a7a7a
RESULT CIPHER-DECIPHER: -----OK-----


Test: 123
Hash algorithm: 5
Symmetric key bit length: 256
IV bit length:            128
Plaintext bit length:     128
Symmetric key:            0000000000000000000000000000000000000000000000000000000000000000
IV:                       00000000000000000000000000000000
Plaintext:                7b7b7b7b7b7b7b7b7b7b7b7b7b7b7b7b
Ciphertext:               421a2f6a61a5872b778d9eb2eb43c76cf66c30bf5b22d848bd5f658deb8e122e56a10aba5932d0d75f164bde
Reciphers for ciphertext: 0
Decipheredtext:           7b7b7b7b7b7b7b7b7b7b7b7b7b7b7b7b
RESULT CIPHER-DECIPHER: -----OK-----


Test: 124
Hash algorithm: 2
Symmetric key bit length: 256
IV bit length:            128
Plaintext bit length:     128
Symmetric key:            0000000000000000000000000000000000000000000000000000000000000000
IV:                       00000000000000000000000000000000
Plaintext:                7c7c7c7c7c7c7c7c7c7c7c7c7c7c7c7c
Ciphertext:               451d286d66a2802c708a99b5ec44c06b4dee425caa004e271ff9e0d0ab3e5d5c76f4cbd5b43e4c292c2c31767e7bd879
Reciphers for ciphertext: 0
Decipheredtext:           7c7c7c7c7c7c7c7c7c7c7c7c7c7c7c7c
RESULT CIPHER-DECIPHER: -----OK-----


Test: 125
Hash algorithm: 9
Symmetric key bit length: 256
IV bit length:            128
Plaintext bit length:     128
Symmetric key:            0000000000000000000000000000000000000000000000000000000000000000
IV:                       00000000000000000000000000000000
Plaintext:                7d7d7d7d7d7d7d7d7d7d7d7d7d7d7d7d
Ciphertext:               441c296c67a3812d718b98b4ed45c16a39538a21c4f70eed872ce7c8909ccebf1cc52a6c3bcfdeef434347a00d938d8d
Reciphers for ciphertext: 0
Decipheredtext:           7d7d7d7d7d7d7d7d7d7d7d7d7d7d7d7d
RESULT CIPHER-DECIPHER: -----OK-----


Test: 126
Hash algorithm: 3
Symmetric key bit length: 256
IV bit length:            128
Plaintext bit length:     128
Symmetric key:            0000000000000000000000000000000000000000000000000000000000000000
IV:                       00000000000000000000000000000000
Plaintext:                7e7e7e7e7e7e7e7e7e7e7e7e7e7e7e7e
Ciphertext:               471f2a6f64a0822e72889bb7ee46c269d0b9b0ccc19b5329c8f09707e290c17a5ab1f803211d7b54a9ec9455dfca0f0053b876bad2aa95001da493ff5a134d3b
Reciphers for ciphertext: 0
Decipheredtext:           7e7e7e7e7e7e7e7e7e7e7e7e7e7e7e7e
RESULT CIPHER-DECIPHER: -----OK-----


Test: 127
Hash algorithm: 11
Symmetric key bit length: 256
IV bit length:            128
Plaintext bit length:     128
Symmetric key:            0000000000000000000000000000000000000000000000000000000000000000
IV:                       00000000000000000000000000000000
Plaintext:                7f7f7f7f7f7f7f7f7f7f7f7f7f7f7f7f
Ciphertext:               461e2b6e65a1832f73899ab6ef47c368f254e54f11ca9d055f718619cdfd5adb
Reciphers for ciphertext: 0
Decipheredtext:           7f7f7f7f7f7f7f7f7f7f7f7f7f7f7f7f
RESULT CIPHER-DECIPHER: -----OK-----


 DATA SHA1 (hexadecimal): 8e1c0b2caa4966c16d10a8605d858ad906f30900

