
DiceLock 9.0.0.1

 TEST COMPONENTS:
 ----------------
 DiceLock:           DiceLockIVDigested class
 Operation Mode:     OFB_Mode class
 Block Cipher:       Twofish192 class
 Hash algorithms:     0 - Sha1 class
                      1 - Sha224 class
                      2 - Sha256 class
                      3 - Sha384 class
                      4 - Sha512 class
                      5 - Sha512_224 class
                      6 - Sha512_256 class
                      7 - Ripemd128 class
                      8 - Ripemd160 class
                      9 - Ripemd256 class
                     10 - Ripemd320 class
                     11 - MD2 class
                     12 - MD4 class
                     13 - MD5 class
 Key Modifier:       IncreaseKeyModifier_6_0_0_1 class
 Random tests:       RandomTestSuite class
                     FrequencyTest class
                     BlockFrequencyTest class
                     CumulativeSumForwardTest class
                     LongestRunOfOnesTest class
                     RunsTest class
 Random alpha:       0.001

 VECTOR TEST: Test vector 5 - IV all byte value 0xXX


##### INDIVIDUAL TESTS #####

Number tests: 128


Test: 0
Hash algorithm: 4
Symmetric key bit length: 192
IV bit length:            128
Plaintext bit length:     128
Symmetric key:            000000000000000000000000000000000000000000000000
IV:                       00000000000000000000000000000000
Plaintext:                00000000000000000000000000000000
Ciphertext:               efa71f788965bd4453f860178fc19101e4cba5b0b1ba5ab02d59dd1a7fcf53837546e760a2313f319889032d462312c5559e408e951a8ef0cc31b4536b367ac59556196c938c06707b09f6d8ddc155d3
Reciphers for ciphertext: 0
Decipheredtext:           00000000000000000000000000000000
RESULT CIPHER-DECIPHER: -----OK-----


Test: 1
Hash algorithm: 3
Symmetric key bit length: 192
IV bit length:            128
Plaintext bit length:     128
Symmetric key:            000000000000000000000000000000000000000000000000
IV:                       01010101010101010101010101010101
Plaintext:                00000000000000000000000000000000
Ciphertext:               e51ce147470250f744444516afd1896a4b5c84dae61b6c298c9b025df1e7c8008e0be78967bca9fd49b55cc17c2cc216afb72c381017f0e0254a1e530018a2fe
Reciphers for ciphertext: 0
Decipheredtext:           00000000000000000000000000000000
RESULT CIPHER-DECIPHER: -----OK-----


Test: 2
Hash algorithm: 12
Symmetric key bit length: 192
IV bit length:            128
Plaintext bit length:     128
Symmetric key:            000000000000000000000000000000000000000000000000
IV:                       02020202020202020202020202020202
Plaintext:                00000000000000000000000000000000
Ciphertext:               361026cad56d8c6a7228062663dcf8d07e6c1994fe60e6134066cb98ffc9eebf
Reciphers for ciphertext: 0
Decipheredtext:           00000000000000000000000000000000
RESULT CIPHER-DECIPHER: -----OK-----


Test: 3
Hash algorithm: 8
Symmetric key bit length: 192
IV bit length:            128
Plaintext bit length:     128
Symmetric key:            000000000000000000000000000000000000000000000000
IV:                       03030303030303030303030303030303
Plaintext:                00000000000000000000000000000000
Ciphertext:               544b76b09ba993dc3758d50c9074a602a63d7a39d3d3d82ce327b9c038a22f178bfbcd1d
Reciphers for ciphertext: 0
Decipheredtext:           00000000000000000000000000000000
RESULT CIPHER-DECIPHER: -----OK-----


Test: 4
Hash algorithm: 8
Symmetric key bit length: 192
IV bit length:            128
Plaintext bit length:     128
Symmetric key:            000000000000000000000000000000000000000000000000
IV:                       04040404040404040404040404040404
Plaintext:                00000000000000000000000000000000
Ciphertext:               482c7e10a91dc8cd48ddc288ae50d360ba5a7299e167833d9ca2ae4406865a750d457fc9
Reciphers for ciphertext: 0
Decipheredtext:           00000000000000000000000000000000
RESULT CIPHER-DECIPHER: -----OK-----


Test: 5
Hash algorithm: 1
Symmetric key bit length: 192
IV bit length:            128
Plaintext bit length:     128
Symmetric key:            000000000000000000000000000000000000000000000000
IV:                       05050505050505050505050505050505
Plaintext:                00000000000000000000000000000000
Ciphertext:               4e2427f29306fa1c81c0b00c5f9afa01bfa19acb0d1d9f8ac3469cec0678f8a0d15ecba36ce45ab04da26183
Reciphers for ciphertext: 0
Decipheredtext:           00000000000000000000000000000000
RESULT CIPHER-DECIPHER: -----OK-----


Test: 6
Hash algorithm: 6
Symmetric key bit length: 192
IV bit length:            128
Plaintext bit length:     128
Symmetric key:            000000000000000000000000000000000000000000000000
IV:                       06060606060606060606060606060606
Plaintext:                00000000000000000000000000000000
Ciphertext:               aaf779cd73523392e8f7547bc79c05e24eebefadc315275f1fd3cb74117ac0b7166ccc275d1489c0f17bd6ce789c0c9b
Reciphers for ciphertext: 0
Decipheredtext:           00000000000000000000000000000000
RESULT CIPHER-DECIPHER: -----OK-----


Test: 7
Hash algorithm: 4
Symmetric key bit length: 192
IV bit length:            128
Plaintext bit length:     128
Symmetric key:            000000000000000000000000000000000000000000000000
IV:                       07070707070707070707070707070707
Plaintext:                00000000000000000000000000000000
Ciphertext:               a30f64eae6b5b6f6536763d2e99007f6a863de22de6a51022dc6dedf199ec5746797d4ede6f50fe2f60adc29650ea07bf26030f69b1be2b654744bcca474ba8e05be0e52ad59fc6a5f13a788bebeb046
Reciphers for ciphertext: 0
Decipheredtext:           00000000000000000000000000000000
RESULT CIPHER-DECIPHER: -----OK-----


Test: 8
Hash algorithm: 8
Symmetric key bit length: 192
IV bit length:            128
Plaintext bit length:     128
Symmetric key:            000000000000000000000000000000000000000000000000
IV:                       08080808080808080808080808080808
Plaintext:                00000000000000000000000000000000
Ciphertext:               bbd94bc7acba36091fa19e3bf3464f6f49af474ee4c07df9cbdef2f75b90c67a448aecde
Reciphers for ciphertext: 0
Decipheredtext:           00000000000000000000000000000000
RESULT CIPHER-DECIPHER: -----OK-----


Test: 9
Hash algorithm: 5
Symmetric key bit length: 192
IV bit length:            128
Plaintext bit length:     128
Symmetric key:            000000000000000000000000000000000000000000000000
IV:                       09090909090909090909090909090909
Plaintext:                00000000000000000000000000000000
Ciphertext:               76f297ecf7ba621dd4567be0bdc835662f2cd1684a45625bc21ecde340d25dc23ea27fa726bf1b2f10d93c2c
Reciphers for ciphertext: 0
Decipheredtext:           00000000000000000000000000000000
RESULT CIPHER-DECIPHER: -----OK-----


Test: 10
Hash algorithm: 5
Symmetric key bit length: 192
IV bit length:            128
Plaintext bit length:     128
Symmetric key:            000000000000000000000000000000000000000000000000
IV:                       0a0a0a0a0a0a0a0a0a0a0a0a0a0a0a0a
Plaintext:                00000000000000000000000000000000
Ciphertext:               c570446423bb9a80bd7202b63a1480429cae02e09e449ac6ab3ab4b5c70ee8e634aa1a78f3aeaeec447112c1
Reciphers for ciphertext: 0
Decipheredtext:           00000000000000000000000000000000
RESULT CIPHER-DECIPHER: -----OK-----


Test: 11
Hash algorithm: 0
Symmetric key bit length: 192
IV bit length:            128
Plaintext bit length:     128
Symmetric key:            000000000000000000000000000000000000000000000000
IV:                       0b0b0b0b0b0b0b0b0b0b0b0b0b0b0b0b
Plaintext:                00000000000000000000000000000000
Ciphertext:               9deb88ea37fff7c2ffa85b73fcb870a37cc27a9666fc4b9e3be396835de666aeaacbaea0
Reciphers for ciphertext: 0
Decipheredtext:           00000000000000000000000000000000
RESULT CIPHER-DECIPHER: -----OK-----


Test: 12
Hash algorithm: 10
Symmetric key bit length: 192
IV bit length:            128
Plaintext bit length:     128
Symmetric key:            000000000000000000000000000000000000000000000000
IV:                       0c0c0c0c0c0c0c0c0c0c0c0c0c0c0c0c
Plaintext:                00000000000000000000000000000000
Ciphertext:               92b669de3708628efb39faa8eb6caebe53c5b563a17909051550a1c66ac5217dc19d161ed74a21ee2561c5f02726cdec9624e5df648b021f
Reciphers for ciphertext: 0
Decipheredtext:           00000000000000000000000000000000
RESULT CIPHER-DECIPHER: -----OK-----


Test: 13
Hash algorithm: 10
Symmetric key bit length: 192
IV bit length:            128
Plaintext bit length:     128
Symmetric key:            000000000000000000000000000000000000000000000000
IV:                       0d0d0d0d0d0d0d0d0d0d0d0d0d0d0d0d
Plaintext:                00000000000000000000000000000000
Ciphertext:               439a6e7093db34b5142f686e9733a4f182e9b2cd05aa5f3efa463300169a2b32d769e965d6e2351f71b65854f7ce9290caebbd37d9fd3206
Reciphers for ciphertext: 0
Decipheredtext:           00000000000000000000000000000000
RESULT CIPHER-DECIPHER: -----OK-----


Test: 14
Hash algorithm: 12
Symmetric key bit length: 192
IV bit length:            128
Plaintext bit length:     128
Symmetric key:            000000000000000000000000000000000000000000000000
IV:                       0e0e0e0e0e0e0e0e0e0e0e0e0e0e0e0e
Plaintext:                00000000000000000000000000000000
Ciphertext:               1a534fb29661b351d1c8e979cb2a69ed522f70ecbd6cd928e38624c7573f7f82
Reciphers for ciphertext: 0
Decipheredtext:           00000000000000000000000000000000
RESULT CIPHER-DECIPHER: -----OK-----


Test: 15
Hash algorithm: 5
Symmetric key bit length: 192
IV bit length:            128
Plaintext bit length:     128
Symmetric key:            000000000000000000000000000000000000000000000000
IV:                       0f0f0f0f0f0f0f0f0f0f0f0f0f0f0f0f
Plaintext:                00000000000000000000000000000000
Ciphertext:               fdcb7c2a56b997fa4a5c9d9d1f17ceb5a4153aaeeb4697bc5c142b9ee20da6115b97c05b1baa738dea4449e9
Reciphers for ciphertext: 0
Decipheredtext:           00000000000000000000000000000000
RESULT CIPHER-DECIPHER: -----OK-----


Test: 16
Hash algorithm: 3
Symmetric key bit length: 192
IV bit length:            128
Plaintext bit length:     128
Symmetric key:            000000000000000000000000000000000000000000000000
IV:                       10101010101010101010101010101010
Plaintext:                00000000000000000000000000000000
Ciphertext:               f0091810c23d0d7d36d6b96c345fb2835e497d8d632431a3fe09fe276a69f3e95196b5a5a35d9bc2f96817a557311a9637741a770824525d935f21f85c0b9c45
Reciphers for ciphertext: 0
Decipheredtext:           00000000000000000000000000000000
RESULT CIPHER-DECIPHER: -----OK-----


Test: 17
Hash algorithm: 0
Symmetric key bit length: 192
IV bit length:            128
Plaintext bit length:     128
Symmetric key:            000000000000000000000000000000000000000000000000
IV:                       11111111111111111111111111111111
Plaintext:                00000000000000000000000000000000
Ciphertext:               b3a0a866e37c1f2e4b8c885945146eba52895a1ab27fa3728fc745a9e44a78b7cdb6543b
Reciphers for ciphertext: 0
Decipheredtext:           00000000000000000000000000000000
RESULT CIPHER-DECIPHER: -----OK-----


Test: 18
Hash algorithm: 12
Symmetric key bit length: 192
IV bit length:            128
Plaintext bit length:     128
Symmetric key:            000000000000000000000000000000000000000000000000
IV:                       12121212121212121212121212121212
Plaintext:                00000000000000000000000000000000
Ciphertext:               3efd394c233530ecbdbe48ecacb8fb3e7681061208385a958ff0855230aded51
Reciphers for ciphertext: 0
Decipheredtext:           00000000000000000000000000000000
RESULT CIPHER-DECIPHER: -----OK-----


Test: 19
Hash algorithm: 2
Symmetric key bit length: 192
IV bit length:            128
Plaintext bit length:     128
Symmetric key:            000000000000000000000000000000000000000000000000
IV:                       13131313131313131313131313131313
Plaintext:                00000000000000000000000000000000
Ciphertext:               403bd5fd2e1eefe89f86dcd6692fd76d777cdd02d96f723d081814a3bc4305457a1db24c20a4d93b23c7d7788f062437
Reciphers for ciphertext: 0
Decipheredtext:           00000000000000000000000000000000
RESULT CIPHER-DECIPHER: -----OK-----


Test: 20
Hash algorithm: 5
Symmetric key bit length: 192
IV bit length:            128
Plaintext bit length:     128
Symmetric key:            000000000000000000000000000000000000000000000000
IV:                       14141414141414141414141414141414
Plaintext:                00000000000000000000000000000000
Ciphertext:               68cb314eb6b9f3c82988c4cf64f5a45f311577ca0b46f38e3fc072cc99efccfbddc95aca68a7fc34bf63ec26
Reciphers for ciphertext: 0
Decipheredtext:           00000000000000000000000000000000
RESULT CIPHER-DECIPHER: -----OK-----


Test: 21
Hash algorithm: 5
Symmetric key bit length: 192
IV bit length:            128
Plaintext bit length:     128
Symmetric key:            000000000000000000000000000000000000000000000000
IV:                       15151515151515151515151515151515
Plaintext:                00000000000000000000000000000000
Ciphertext:               8b3b0254e108237b3b812d2275b91152d2e544d05cf7233d2dc99b2188a379f63866d46b6b3280a27bcdc714
Reciphers for ciphertext: 0
Decipheredtext:           00000000000000000000000000000000
RESULT CIPHER-DECIPHER: -----OK-----


Test: 22
Hash algorithm: 0
Symmetric key bit length: 192
IV bit length:            128
Plaintext bit length:     128
Symmetric key:            000000000000000000000000000000000000000000000000
IV:                       16161616161616161616161616161616
Plaintext:                00000000000000000000000000000000
Ciphertext:               715ee18aa88363575de07de10ade3ee3907713f6f980df0b99abb011ab8028ee6965a434
Reciphers for ciphertext: 0
Decipheredtext:           00000000000000000000000000000000
RESULT CIPHER-DECIPHER: -----OK-----


Test: 23
Hash algorithm: 10
Symmetric key bit length: 192
IV bit length:            128
Plaintext bit length:     128
Symmetric key:            000000000000000000000000000000000000000000000000
IV:                       17171717171717171717171717171717
Plaintext:                00000000000000000000000000000000
Ciphertext:               6c9b66757a341cf6bb07499c7445ad59ade8bac8ec45777d556e12f2f5ec229ab77d362d34000e5a2b786597a3d7964e1192431f3542874e
Reciphers for ciphertext: 0
Decipheredtext:           00000000000000000000000000000000
RESULT CIPHER-DECIPHER: -----OK-----


Test: 24
Hash algorithm: 0
Symmetric key bit length: 192
IV bit length:            128
Plaintext bit length:     128
Symmetric key:            000000000000000000000000000000000000000000000000
IV:                       18181818181818181818181818181818
Plaintext:                00000000000000000000000000000000
Ciphertext:               44c684783b7ed91700f1a0b7423d3622a5ef76046a7d654bc4ba6d47e363202fa79d9da9
Reciphers for ciphertext: 0
Decipheredtext:           00000000000000000000000000000000
RESULT CIPHER-DECIPHER: -----OK-----


Test: 25
Hash algorithm: 0
Symmetric key bit length: 192
IV bit length:            128
Plaintext bit length:     128
Symmetric key:            000000000000000000000000000000000000000000000000
IV:                       19191919191919191919191919191919
Plaintext:                00000000000000000000000000000000
Ciphertext:               caa8597f1d60e0e9d9c3fac5a6cbabd72b81ab034c635cb51d8837350795bddac56024f9
Reciphers for ciphertext: 0
Decipheredtext:           00000000000000000000000000000000
RESULT CIPHER-DECIPHER: -----OK-----


Test: 26
Hash algorithm: 13
Symmetric key bit length: 192
IV bit length:            128
Plaintext bit length:     128
Symmetric key:            000000000000000000000000000000000000000000000000
IV:                       1a1a1a1a1a1a1a1a1a1a1a1a1a1a1a1a
Plaintext:                00000000000000000000000000000000
Ciphertext:               6bb206fc5b70e86de30b75d4586cd4c4215515cabf3b11d29ad900fa7b24cc61
Reciphers for ciphertext: 0
Decipheredtext:           00000000000000000000000000000000
RESULT CIPHER-DECIPHER: -----OK-----


Test: 27
Hash algorithm: 6
Symmetric key bit length: 192
IV bit length:            128
Plaintext bit length:     128
Symmetric key:            000000000000000000000000000000000000000000000000
IV:                       1b1b1b1b1b1b1b1b1b1b1b1b1b1b1b1b
Plaintext:                00000000000000000000000000000000
Ciphertext:               e915b1f450afa19faae99be1b010ae9c0d092794e0e8b5525dcd04ee66f66bc91518e706f9e6665e6c6a6a1e95e8967f
Reciphers for ciphertext: 0
Decipheredtext:           00000000000000000000000000000000
RESULT CIPHER-DECIPHER: -----OK-----


Test: 28
Hash algorithm: 2
Symmetric key bit length: 192
IV bit length:            128
Plaintext bit length:     128
Symmetric key:            000000000000000000000000000000000000000000000000
IV:                       1c1c1c1c1c1c1c1c1c1c1c1c1c1c1c1c
Plaintext:                00000000000000000000000000000000
Ciphertext:               9b826c17bb40afec1531a042ff7d8f52acc564e84c31323982af68372a115d7afed698a21f0c7347d1c9948f3bba8ae0
Reciphers for ciphertext: 0
Decipheredtext:           00000000000000000000000000000000
RESULT CIPHER-DECIPHER: -----OK-----


Test: 29
Hash algorithm: 12
Symmetric key bit length: 192
IV bit length:            128
Plaintext bit length:     128
Symmetric key:            000000000000000000000000000000000000000000000000
IV:                       1d1d1d1d1d1d1d1d1d1d1d1d1d1d1d1d
Plaintext:                00000000000000000000000000000000
Ciphertext:               20cc732ba4449c9f90e75a9716006ff968b04c758f49f6e6a2a997298a157996
Reciphers for ciphertext: 0
Decipheredtext:           00000000000000000000000000000000
RESULT CIPHER-DECIPHER: -----OK-----


Test: 30
Hash algorithm: 10
Symmetric key bit length: 192
IV bit length:            128
Plaintext bit length:     128
Symmetric key:            000000000000000000000000000000000000000000000000
IV:                       1e1e1e1e1e1e1e1e1e1e1e1e1e1e1e1e
Plaintext:                00000000000000000000000000000000
Ciphertext:               d081ecb6f6054e1f437b39c8b24ff22d11f2300b60742594ad1262a633e67dee2299c16a3d402df6177cf51a51cf5664ca54b9ce655b1400
Reciphers for ciphertext: 0
Decipheredtext:           00000000000000000000000000000000
RESULT CIPHER-DECIPHER: -----OK-----


Test: 31
Hash algorithm: 11
Symmetric key bit length: 192
IV bit length:            128
Plaintext bit length:     128
Symmetric key:            000000000000000000000000000000000000000000000000
IV:                       1f1f1f1f1f1f1f1f1f1f1f1f1f1f1f1f
Plaintext:                00000000000000000000000000000000
Ciphertext:               3604c8061a7b9f442f0925914f3e90850836366a03eebf84e5462b1d67d1b703
Reciphers for ciphertext: 0
Decipheredtext:           00000000000000000000000000000000
RESULT CIPHER-DECIPHER: -----OK-----


Test: 32
Hash algorithm: 10
Symmetric key bit length: 192
IV bit length:            128
Plaintext bit length:     128
Symmetric key:            000000000000000000000000000000000000000000000000
IV:                       20202020202020202020202020202020
Plaintext:                00000000000000000000000000000000
Ciphertext:               3459d7a56f9f2a6cd6631dea0384f690f52a0b18f9ee41e7380a4684822d7953848f28a62c413b7045b20d8d47f1efc8271824b9f18a612c
Reciphers for ciphertext: 0
Decipheredtext:           00000000000000000000000000000000
RESULT CIPHER-DECIPHER: -----OK-----


Test: 33
Hash algorithm: 6
Symmetric key bit length: 192
IV bit length:            128
Plaintext bit length:     128
Symmetric key:            000000000000000000000000000000000000000000000000
IV:                       21212121212121212121212121212121
Plaintext:                00000000000000000000000000000000
Ciphertext:               f1bda579f90bbe9cff0e399e717e141815a13319494caa51082aa691a798d14deec058ef92f2c996dcbcbc9273350193
Reciphers for ciphertext: 0
Decipheredtext:           00000000000000000000000000000000
RESULT CIPHER-DECIPHER: -----OK-----


Test: 34
Hash algorithm: 10
Symmetric key bit length: 192
IV bit length:            128
Plaintext bit length:     128
Symmetric key:            000000000000000000000000000000000000000000000000
IV:                       22222222222222222222222222222222
Plaintext:                00000000000000000000000000000000
Ciphertext:               a6dc7dada13eb00e7697454c20a7114767afa110374fdb8598fe1e22a10e9e8455582e028c5ebb2ba35e5d34ecce3a86427be9b7cc066b70
Reciphers for ciphertext: 0
Decipheredtext:           00000000000000000000000000000000
RESULT CIPHER-DECIPHER: -----OK-----


Test: 35
Hash algorithm: 5
Symmetric key bit length: 192
IV bit length:            128
Plaintext bit length:     128
Symmetric key:            000000000000000000000000000000000000000000000000
IV:                       23232323232323232323232323232323
Plaintext:                00000000000000000000000000000000
Ciphertext:               f63099756ecb83ea2c9cfa486a25b9bfafeedff1d33483ac3ad44c4b973fd11b17d51f4452217cc94d70ad4f
Reciphers for ciphertext: 0
Decipheredtext:           00000000000000000000000000000000
RESULT CIPHER-DECIPHER: -----OK-----


Test: 36
Hash algorithm: 1
Symmetric key bit length: 192
IV bit length:            128
Plaintext bit length:     128
Symmetric key:            000000000000000000000000000000000000000000000000
IV:                       24242424242424242424242424242424
Plaintext:                00000000000000000000000000000000
Ciphertext:               2f98b4275b15f8c340f8c09eeee4e829de1d091ec50e9d55027eec7eb706ea88ceb68f98fcdb6af117eb0f2f
Reciphers for ciphertext: 0
Decipheredtext:           00000000000000000000000000000000
RESULT CIPHER-DECIPHER: -----OK-----


Test: 37
Hash algorithm: 8
Symmetric key bit length: 192
IV bit length:            128
Plaintext bit length:     128
Symmetric key:            000000000000000000000000000000000000000000000000
IV:                       25252525252525252525252525252525
Plaintext:                00000000000000000000000000000000
Ciphertext:               f989277bf5116c7a43cba62f77fe4ee00bff2bf2bd6b278a97b4cae3df28c7f56e499f13
Reciphers for ciphertext: 0
Decipheredtext:           00000000000000000000000000000000
RESULT CIPHER-DECIPHER: -----OK-----


Test: 38
Hash algorithm: 12
Symmetric key bit length: 192
IV bit length:            128
Plaintext bit length:     128
Symmetric key:            000000000000000000000000000000000000000000000000
IV:                       26262626262626262626262626262626
Plaintext:                00000000000000000000000000000000
Ciphertext:               6cde6e477b6931e83a0d63fe4dd988c124a2511950645b910843ae40d1cc9eae
Reciphers for ciphertext: 0
Decipheredtext:           00000000000000000000000000000000
RESULT CIPHER-DECIPHER: -----OK-----


Test: 39
Hash algorithm: 9
Symmetric key bit length: 192
IV bit length:            128
Plaintext bit length:     128
Symmetric key:            000000000000000000000000000000000000000000000000
IV:                       27272727272727272727272727272727
Plaintext:                00000000000000000000000000000000
Ciphertext:               b6cc2bc6f5aa7ae9323296f28d90b841703dda84aae95754807c96a5171b56fd6c97f71da9f28719167d6120a88b4dcb
Reciphers for ciphertext: 0
Decipheredtext:           00000000000000000000000000000000
RESULT CIPHER-DECIPHER: -----OK-----


Test: 40
Hash algorithm: 0
Symmetric key bit length: 192
IV bit length:            128
Plaintext bit length:     128
Symmetric key:            000000000000000000000000000000000000000000000000
IV:                       28282828282828282828282828282828
Plaintext:                00000000000000000000000000000000
Ciphertext:               76c9abe5fe8969640f484484af5ce88f97e05999af8ad538cb0389740e02fe82177a1f2f
Reciphers for ciphertext: 0
Decipheredtext:           00000000000000000000000000000000
RESULT CIPHER-DECIPHER: -----OK-----


Test: 41
Hash algorithm: 11
Symmetric key bit length: 192
IV bit length:            128
Plaintext bit length:     128
Symmetric key:            000000000000000000000000000000000000000000000000
IV:                       29292929292929292929292929292929
Plaintext:                00000000000000000000000000000000
Ciphertext:               243500c97abcc082b69f6fa852f5c2651a07fea56329e0427cd061247a1ae5e3
Reciphers for ciphertext: 0
Decipheredtext:           00000000000000000000000000000000
RESULT CIPHER-DECIPHER: -----OK-----


Test: 42
Hash algorithm: 5
Symmetric key bit length: 192
IV bit length:            128
Plaintext bit length:     128
Symmetric key:            000000000000000000000000000000000000000000000000
IV:                       2a2a2a2a2a2a2a2a2a2a2a2a2a2a2a2a
Plaintext:                00000000000000000000000000000000
Ciphertext:               caaf20a171fd529f279ce55675253a9d93716625cc0252d931d45355883f52394e68a327f6b58b27c6e9c0f2
Reciphers for ciphertext: 0
Decipheredtext:           00000000000000000000000000000000
RESULT CIPHER-DECIPHER: -----OK-----


Test: 43
Hash algorithm: 12
Symmetric key bit length: 192
IV bit length:            128
Plaintext bit length:     128
Symmetric key:            000000000000000000000000000000000000000000000000
IV:                       2b2b2b2b2b2b2b2b2b2b2b2b2b2b2b2b
Plaintext:                00000000000000000000000000000000
Ciphertext:               96de81d19aaa98a38b0a017dc8643434dea2be8fb1a7f2dab944ccc35471225b
Reciphers for ciphertext: 0
Decipheredtext:           00000000000000000000000000000000
RESULT CIPHER-DECIPHER: -----OK-----


Test: 44
Hash algorithm: 8
Symmetric key bit length: 192
IV bit length:            128
Plaintext bit length:     128
Symmetric key:            000000000000000000000000000000000000000000000000
IV:                       2c2c2c2c2c2c2c2c2c2c2c2c2c2c2c2c
Plaintext:                00000000000000000000000000000000
Ciphertext:               1f2638baeae6a99bed9fe3437bd76345ed503433a29ce26b39e08f8fd301ea50bdd8bd78
Reciphers for ciphertext: 0
Decipheredtext:           00000000000000000000000000000000
RESULT CIPHER-DECIPHER: -----OK-----


Test: 45
Hash algorithm: 5
Symmetric key bit length: 192
IV bit length:            128
Plaintext bit length:     128
Symmetric key:            000000000000000000000000000000000000000000000000
IV:                       2d2d2d2d2d2d2d2d2d2d2d2d2d2d2d2d
Plaintext:                00000000000000000000000000000000
Ciphertext:               4644398ebf0a99faa4cb533e62bf4fc51f9a7f0a02f599bcb283e53d9fa5276101f1e069eeb2213ece329d63
Reciphers for ciphertext: 0
Decipheredtext:           00000000000000000000000000000000
RESULT CIPHER-DECIPHER: -----OK-----


Test: 46
Hash algorithm: 1
Symmetric key bit length: 192
IV bit length:            128
Plaintext bit length:     128
Symmetric key:            000000000000000000000000000000000000000000000000
IV:                       2e2e2e2e2e2e2e2e2e2e2e2e2e2e2e2e
Plaintext:                00000000000000000000000000000000
Ciphertext:               d53e852b2b742e846bd63a9ff694223324bb3812b56f4b122950167faf762092eef256bfcb9a1931458259d9
Reciphers for ciphertext: 0
Decipheredtext:           00000000000000000000000000000000
RESULT CIPHER-DECIPHER: -----OK-----


Test: 47
Hash algorithm: 6
Symmetric key bit length: 192
IV bit length:            128
Plaintext bit length:     128
Symmetric key:            000000000000000000000000000000000000000000000000
IV:                       2f2f2f2f2f2f2f2f2f2f2f2f2f2f2f2f
Plaintext:                00000000000000000000000000000000
Ciphertext:               6a7facd36aeaf76f8ddc251422d0eb958e633ab3daade3a27af8ba1bf4362ec0c6a238878ef310cbc1da32870471024f
Reciphers for ciphertext: 0
Decipheredtext:           00000000000000000000000000000000
RESULT CIPHER-DECIPHER: -----OK-----


Test: 48
Hash algorithm: 11
Symmetric key bit length: 192
IV bit length:            128
Plaintext bit length:     128
Symmetric key:            000000000000000000000000000000000000000000000000
IV:                       30303030303030303030303030303030
Plaintext:                00000000000000000000000000000000
Ciphertext:               ee1c0da72d224e830f336a0c5f1e6593d02ef3cb34b76e43c57c648077f14215
Reciphers for ciphertext: 0
Decipheredtext:           00000000000000000000000000000000
RESULT CIPHER-DECIPHER: -----OK-----


Test: 49
Hash algorithm: 8
Symmetric key bit length: 192
IV bit length:            128
Plaintext bit length:     128
Symmetric key:            000000000000000000000000000000000000000000000000
IV:                       31313131313131313131313131313131
Plaintext:                00000000000000000000000000000000
Ciphertext:               da9cfa62d67119a212af516a991c10ae28eaf6eb9e0b5252c6d03da631ca99bbe5b9731b
Reciphers for ciphertext: 0
Decipheredtext:           00000000000000000000000000000000
RESULT CIPHER-DECIPHER: -----OK-----


Test: 50
Hash algorithm: 1
Symmetric key bit length: 192
IV bit length:            128
Plaintext bit length:     128
Symmetric key:            000000000000000000000000000000000000000000000000
IV:                       32323232323232323232323232323232
Plaintext:                00000000000000000000000000000000
Ciphertext:               32ba269f27356f30f6d863cc4218f7e5c33f9ba6b92e0aa6b45e4f2c1bfaf54434ef7b9c436ec0ec18b9fca8
Reciphers for ciphertext: 0
Decipheredtext:           00000000000000000000000000000000
RESULT CIPHER-DECIPHER: -----OK-----


Test: 51
Hash algorithm: 8
Symmetric key bit length: 192
IV bit length:            128
Plaintext bit length:     128
Symmetric key:            000000000000000000000000000000000000000000000000
IV:                       33333333333333333333333333333333
Plaintext:                00000000000000000000000000000000
Ciphertext:               9d0bfe10f18b54200481495f9cda6a4d6f7df299b9f11fd0d0fe2593340ce358b8223de7
Reciphers for ciphertext: 0
Decipheredtext:           00000000000000000000000000000000
RESULT CIPHER-DECIPHER: -----OK-----


Test: 52
Hash algorithm: 4
Symmetric key bit length: 192
IV bit length:            128
Plaintext bit length:     128
Symmetric key:            000000000000000000000000000000000000000000000000
IV:                       34343434343434343434343434343434
Plaintext:                00000000000000000000000000000000
Ciphertext:               ea8aff795ace6953fa10b3154b3bc74de1e645b162118ea784b10e18bb3505cf0326470ad27af83ce93e53dfca67091990f69dcb64318b6f74d89e47f03996228042326b1cee5d0280031c659857639c
Reciphers for ciphertext: 0
Decipheredtext:           00000000000000000000000000000000
RESULT CIPHER-DECIPHER: -----OK-----


Test: 53
Hash algorithm: 13
Symmetric key bit length: 192
IV bit length:            128
Plaintext bit length:     128
Symmetric key:            000000000000000000000000000000000000000000000000
IV:                       35353535353535353535353535353535
Plaintext:                00000000000000000000000000000000
Ciphertext:               123592e876489d013d187714a0c6f2a258d281de920364be44ca023a838eea07
Reciphers for ciphertext: 0
Decipheredtext:           00000000000000000000000000000000
RESULT CIPHER-DECIPHER: -----OK-----


Test: 54
Hash algorithm: 2
Symmetric key bit length: 192
IV bit length:            128
Plaintext bit length:     128
Symmetric key:            000000000000000000000000000000000000000000000000
IV:                       36363636363636363636363636363636
Plaintext:                00000000000000000000000000000000
Ciphertext:               83496d64029b4866e3e128b497e74821b40e659bf5ead5b3747fe0c1428b9a09f848ca78dc926134d824be7a91ded8be
Reciphers for ciphertext: 0
Decipheredtext:           00000000000000000000000000000000
RESULT CIPHER-DECIPHER: -----OK-----


Test: 55
Hash algorithm: 10
Symmetric key bit length: 192
IV bit length:            128
Plaintext bit length:     128
Symmetric key:            000000000000000000000000000000000000000000000000
IV:                       37373737373737373737373737373737
Plaintext:                00000000000000000000000000000000
Ciphertext:               7dd6d201e7113622b229b43d1169a6fdbca50ebc71605da95c40ef5390c0293e2fe700866d0712c395b5ad4040f34eef9538e7e89ad62732
Reciphers for ciphertext: 0
Decipheredtext:           00000000000000000000000000000000
RESULT CIPHER-DECIPHER: -----OK-----


Test: 56
Hash algorithm: 3
Symmetric key bit length: 192
IV bit length:            128
Plaintext bit length:     128
Symmetric key:            000000000000000000000000000000000000000000000000
IV:                       38383838383838383838383838383838
Plaintext:                00000000000000000000000000000000
Ciphertext:               496fba6470223dd45a0b26a369d734b9e72fdff9d13b010a92d461e837e175d392c7b53a83b93ced4976b85c1aa5ead28d25fc32512a9a45180128e5b8b82494
Reciphers for ciphertext: 0
Decipheredtext:           00000000000000000000000000000000
RESULT CIPHER-DECIPHER: -----OK-----


Test: 57
Hash algorithm: 6
Symmetric key bit length: 192
IV bit length:            128
Plaintext bit length:     128
Symmetric key:            000000000000000000000000000000000000000000000000
IV:                       39393939393939393939393939393939
Plaintext:                00000000000000000000000000000000
Ciphertext:               4130298503a968d22d786f714ad36e74a52cbfe5b3ee7c1fda5cf07e9c35ab21bb7f51f55c14bffe92fe89c27f829ff8
Reciphers for ciphertext: 0
Decipheredtext:           00000000000000000000000000000000
RESULT CIPHER-DECIPHER: -----OK-----


Test: 58
Hash algorithm: 5
Symmetric key bit length: 192
IV bit length:            128
Plaintext bit length:     128
Symmetric key:            000000000000000000000000000000000000000000000000
IV:                       3a3a3a3a3a3a3a3a3a3a3a3a3a3a3a3a
Plaintext:                00000000000000000000000000000000
Ciphertext:               ebffce8ef1ff76b97049d9d7b66cdba5b221880a4c0076ff66016fd44b76b3011ce6983b7fcf38a2381ad2d0
Reciphers for ciphertext: 1
Decipheredtext:           00000000000000000000000000000000
RESULT CIPHER-DECIPHER: -----OK-----


Test: 59
Hash algorithm: 1
Symmetric key bit length: 192
IV bit length:            128
Plaintext bit length:     128
Symmetric key:            000000000000000000000000000000000000000000000000
IV:                       3b3b3b3b3b3b3b3b3b3b3b3b3b3b3b3b
Plaintext:                00000000000000000000000000000000
Ciphertext:               179cbd59881658872f0e3b45fa687ac6e6190060160d3d116d8817a5a38a78672f020f1e45ee66fc8f986359
Reciphers for ciphertext: 0
Decipheredtext:           00000000000000000000000000000000
RESULT CIPHER-DECIPHER: -----OK-----


Test: 60
Hash algorithm: 12
Symmetric key bit length: 192
IV bit length:            128
Plaintext bit length:     128
Symmetric key:            000000000000000000000000000000000000000000000000
IV:                       3c3c3c3c3c3c3c3c3c3c3c3c3c3c3c3c
Plaintext:                00000000000000000000000000000000
Ciphertext:               5e2d7387fe24d40c30e84e9d22f2f44016514cd9d529be7502a68323bee7e22f
Reciphers for ciphertext: 0
Decipheredtext:           00000000000000000000000000000000
RESULT CIPHER-DECIPHER: -----OK-----


Test: 61
Hash algorithm: 1
Symmetric key bit length: 192
IV bit length:            128
Plaintext bit length:     128
Symmetric key:            000000000000000000000000000000000000000000000000
IV:                       3d3d3d3d3d3d3d3d3d3d3d3d3d3d3d3d
Plaintext:                00000000000000000000000000000000
Ciphertext:               0413347ce765b276185e2484d20c065cf5968945797ed7e05ad808648bee04fd247775c349831645193513c7
Reciphers for ciphertext: 0
Decipheredtext:           00000000000000000000000000000000
RESULT CIPHER-DECIPHER: -----OK-----


Test: 62
Hash algorithm: 5
Symmetric key bit length: 192
IV bit length:            128
Plaintext bit length:     128
Symmetric key:            000000000000000000000000000000000000000000000000
IV:                       3e3e3e3e3e3e3e3e3e3e3e3e3e3e3e3e
Plaintext:                00000000000000000000000000000000
Ciphertext:               76aa24551c1c060868b94a6dfbc3a8bc2f7462d1a1e3064e7ef1fc6e06d9c018f8b2eb20e6484bc74346df80
Reciphers for ciphertext: 0
Decipheredtext:           00000000000000000000000000000000
RESULT CIPHER-DECIPHER: -----OK-----


Test: 63
Hash algorithm: 9
Symmetric key bit length: 192
IV bit length:            128
Plaintext bit length:     128
Symmetric key:            000000000000000000000000000000000000000000000000
IV:                       3f3f3f3f3f3f3f3f3f3f3f3f3f3f3f3f
Plaintext:                00000000000000000000000000000000
Ciphertext:               bd981b36beb8448b39841d4b09903dcd7b69ea74e1fb69368bca1d1c931bd371f03c4de785ea79507c42cd44dda320c4
Reciphers for ciphertext: 0
Decipheredtext:           00000000000000000000000000000000
RESULT CIPHER-DECIPHER: -----OK-----


Test: 64
Hash algorithm: 2
Symmetric key bit length: 192
IV bit length:            128
Plaintext bit length:     128
Symmetric key:            000000000000000000000000000000000000000000000000
IV:                       40404040404040404040404040404040
Plaintext:                00000000000000000000000000000000
Ciphertext:               f1c42cf16a89821bf20379172c4e8514c683240e9df81fce659db162f922573c93f9548aada69182b0da693b77e1e196
Reciphers for ciphertext: 0
Decipheredtext:           00000000000000000000000000000000
RESULT CIPHER-DECIPHER: -----OK-----


Test: 65
Hash algorithm: 7
Symmetric key bit length: 192
IV bit length:            128
Plaintext bit length:     128
Symmetric key:            000000000000000000000000000000000000000000000000
IV:                       41414141414141414141414141414141
Plaintext:                00000000000000000000000000000000
Ciphertext:               57231bef5d5463e2d73316a9011fef0623e0288621155e6dee3fe788255863c5
Reciphers for ciphertext: 1
Decipheredtext:           00000000000000000000000000000000
RESULT CIPHER-DECIPHER: -----OK-----


Test: 66
Hash algorithm: 4
Symmetric key bit length: 192
IV bit length:            128
Plaintext bit length:     128
Symmetric key:            000000000000000000000000000000000000000000000000
IV:                       42424242424242424242424242424242
Plaintext:                00000000000000000000000000000000
Ciphertext:               29fea71a75efbb9da2068c6580a1717f22921dd24d305c69dca7316870afb3fd862da7af1e0a88a18edcec0386d74d1ad9012effaca2826d995532be1f6bc1a6f573227914506da0fb873b03ed689957
Reciphers for ciphertext: 0
Decipheredtext:           00000000000000000000000000000000
RESULT CIPHER-DECIPHER: -----OK-----


Test: 67
Hash algorithm: 8
Symmetric key bit length: 192
IV bit length:            128
Plaintext bit length:     128
Symmetric key:            000000000000000000000000000000000000000000000000
IV:                       43434343434343434343434343434343
Plaintext:                00000000000000000000000000000000
Ciphertext:               cfdc1b9c1f95dfb935b5c1fd72940dea3daa171557ef9449e1caad31da4284ff3679303f
Reciphers for ciphertext: 0
Decipheredtext:           00000000000000000000000000000000
RESULT CIPHER-DECIPHER: -----OK-----


Test: 68
Hash algorithm: 5
Symmetric key bit length: 192
IV bit length:            128
Plaintext bit length:     128
Symmetric key:            000000000000000000000000000000000000000000000000
IV:                       44444444444444444444444444444444
Plaintext:                00000000000000000000000000000000
Ciphertext:               1db060c582731df3a0167203b2dbb551446e26413f8c1db5b65ec4004fc1ddf55a790709729b3801123fab81
Reciphers for ciphertext: 0
Decipheredtext:           00000000000000000000000000000000
RESULT CIPHER-DECIPHER: -----OK-----


Test: 69
Hash algorithm: 1
Symmetric key bit length: 192
IV bit length:            128
Plaintext bit length:     128
Symmetric key:            000000000000000000000000000000000000000000000000
IV:                       45454545454545454545454545454545
Plaintext:                00000000000000000000000000000000
Ciphertext:               cdaea3261d35d4a312481a886f00d6763c2b1e1f832eb13550ce366836e2d4d782f26ef3b1978eba22785e6a
Reciphers for ciphertext: 0
Decipheredtext:           00000000000000000000000000000000
RESULT CIPHER-DECIPHER: -----OK-----


Test: 70
Hash algorithm: 7
Symmetric key bit length: 192
IV bit length:            128
Plaintext bit length:     128
Symmetric key:            000000000000000000000000000000000000000000000000
IV:                       46464646464646464646464646464646
Plaintext:                00000000000000000000000000000000
Ciphertext:               9e747fd509c21b11b22e75fdd52333c8eab74cbc7583269e8b2284dcf164bf0b
Reciphers for ciphertext: 0
Decipheredtext:           00000000000000000000000000000000
RESULT CIPHER-DECIPHER: -----OK-----


Test: 71
Hash algorithm: 1
Symmetric key bit length: 192
IV bit length:            128
Plaintext bit length:     128
Symmetric key:            000000000000000000000000000000000000000000000000
IV:                       47474747474747474747474747474747
Plaintext:                00000000000000000000000000000000
Ciphertext:               ee92c4324d80acb2fab8a725dd95d0191f17790bd39bc924b83e8bc58477d2b84648098efd87bdf63000dbf5
Reciphers for ciphertext: 0
Decipheredtext:           00000000000000000000000000000000
RESULT CIPHER-DECIPHER: -----OK-----


Test: 72
Hash algorithm: 9
Symmetric key bit length: 192
IV bit length:            128
Plaintext bit length:     128
Symmetric key:            000000000000000000000000000000000000000000000000
IV:                       48484848484848484848484848484848
Plaintext:                00000000000000000000000000000000
Ciphertext:               8577647a5e77946fef9a53a7fcdfa704438695380134b9d25dd453f0665449b81afa4a025348a284ca2a980b13bb0513
Reciphers for ciphertext: 0
Decipheredtext:           00000000000000000000000000000000
RESULT CIPHER-DECIPHER: -----OK-----


Test: 73
Hash algorithm: 11
Symmetric key bit length: 192
IV bit length:            128
Plaintext bit length:     128
Symmetric key:            000000000000000000000000000000000000000000000000
IV:                       49494949494949494949494949494949
Plaintext:                00000000000000000000000000000000
Ciphertext:               015eda61073d5c6ebd75a66dcee06d343f6c240d1ea87cae773aa8e1e60f4ab2
Reciphers for ciphertext: 0
Decipheredtext:           00000000000000000000000000000000
RESULT CIPHER-DECIPHER: -----OK-----


Test: 74
Hash algorithm: 7
Symmetric key bit length: 192
IV bit length:            128
Plaintext bit length:     128
Symmetric key:            000000000000000000000000000000000000000000000000
IV:                       4a4a4a4a4a4a4a4a4a4a4a4a4a4a4a4a
Plaintext:                00000000000000000000000000000000
Ciphertext:               8a3bd3ad40037b338d11c34d55cb5d95fef8e0c43c4246bcb41d326c718cd156
Reciphers for ciphertext: 0
Decipheredtext:           00000000000000000000000000000000
RESULT CIPHER-DECIPHER: -----OK-----


Test: 75
Hash algorithm: 6
Symmetric key bit length: 192
IV bit length:            128
Plaintext bit length:     128
Symmetric key:            000000000000000000000000000000000000000000000000
IV:                       4b4b4b4b4b4b4b4b4b4b4b4b4b4b4b4b
Plaintext:                00000000000000000000000000000000
Ciphertext:               e91b9562d7726f76884c7dd40763404f0d07030267357bbb7f68e2dbd185851a8d1447f286f0b6075e782cfb7987b320
Reciphers for ciphertext: 0
Decipheredtext:           00000000000000000000000000000000
RESULT CIPHER-DECIPHER: -----OK-----


Test: 76
Hash algorithm: 7
Symmetric key bit length: 192
IV bit length:            128
Plaintext bit length:     128
Symmetric key:            000000000000000000000000000000000000000000000000
IV:                       4c4c4c4c4c4c4c4c4c4c4c4c4c4c4c4c
Plaintext:                00000000000000000000000000000000
Ciphertext:               1f6e970de29a4a7f0f167ec72df14a7d6bada4649edb77f0361a8fe609b6c6be
Reciphers for ciphertext: 1
Decipheredtext:           00000000000000000000000000000000
RESULT CIPHER-DECIPHER: -----OK-----


Test: 77
Hash algorithm: 1
Symmetric key bit length: 192
IV bit length:            128
Plaintext bit length:     128
Symmetric key:            000000000000000000000000000000000000000000000000
IV:                       4d4d4d4d4d4d4d4d4d4d4d4d4d4d4d4d
Plaintext:                00000000000000000000000000000000
Ciphertext:               ce57225d4fc3a0d77d1ad1a4bd27ac973fd29f64d1d8c5413f9cfd44e4c5ae36b66b364be1bf8f5a66276fc0
Reciphers for ciphertext: 0
Decipheredtext:           00000000000000000000000000000000
RESULT CIPHER-DECIPHER: -----OK-----


Test: 78
Hash algorithm: 9
Symmetric key bit length: 192
IV bit length:            128
Plaintext bit length:     128
Symmetric key:            000000000000000000000000000000000000000000000000
IV:                       4e4e4e4e4e4e4e4e4e4e4e4e4e4e4e4e
Plaintext:                00000000000000000000000000000000
Ciphertext:               009817b60f48227afa1ca4b46243e389c669e6f4500b0fc74852a4e3f8c80d3501515e8a257c655a001f07d3ac3d47bf
Reciphers for ciphertext: 0
Decipheredtext:           00000000000000000000000000000000
RESULT CIPHER-DECIPHER: -----OK-----


Test: 79
Hash algorithm: 11
Symmetric key bit length: 192
IV bit length:            128
Plaintext bit length:     128
Symmetric key:            000000000000000000000000000000000000000000000000
IV:                       4f4f4f4f4f4f4f4f4f4f4f4f4f4f4f4f
Plaintext:                00000000000000000000000000000000
Ciphertext:               392c4765557bbd5e3f696c7f356bc8c6071eb9094cee9d9ef52662f31d84ef40
Reciphers for ciphertext: 0
Decipheredtext:           00000000000000000000000000000000
RESULT CIPHER-DECIPHER: -----OK-----


Test: 80
Hash algorithm: 8
Symmetric key bit length: 192
IV bit length:            128
Plaintext bit length:     128
Symmetric key:            000000000000000000000000000000000000000000000000
IV:                       50505050505050505050505050505050
Plaintext:                00000000000000000000000000000000
Ciphertext:               7debd9f39ae636254e81da945d6cad0b8f9dd57ad29c7dd59afeb658f5ba241e59d159b2
Reciphers for ciphertext: 0
Decipheredtext:           00000000000000000000000000000000
RESULT CIPHER-DECIPHER: -----OK-----


Test: 81
Hash algorithm: 13
Symmetric key bit length: 192
IV bit length:            128
Plaintext bit length:     128
Symmetric key:            000000000000000000000000000000000000000000000000
IV:                       51515151515151515151515151515151
Plaintext:                00000000000000000000000000000000
Ciphertext:               b29f3f076887dc70877230fc938c5417f8782c318ccc25cffea045d2b0c44cb2
Reciphers for ciphertext: 0
Decipheredtext:           00000000000000000000000000000000
RESULT CIPHER-DECIPHER: -----OK-----


Test: 82
Hash algorithm: 10
Symmetric key bit length: 192
IV bit length:            128
Plaintext bit length:     128
Symmetric key:            000000000000000000000000000000000000000000000000
IV:                       52525252525252525252525252525252
Plaintext:                00000000000000000000000000000000
Ciphertext:               43e07a912c84bd475f06c19dfc5430e18293a62cbaf5d6ccb16f9af37dfdbf22d2f376eb270914d82915aedf76706ad406bfeb1d8e64875a
Reciphers for ciphertext: 0
Decipheredtext:           00000000000000000000000000000000
RESULT CIPHER-DECIPHER: -----OK-----


Test: 83
Hash algorithm: 4
Symmetric key bit length: 192
IV bit length:            128
Plaintext bit length:     128
Symmetric key:            000000000000000000000000000000000000000000000000
IV:                       53535353535353535353535353535353
Plaintext:                00000000000000000000000000000000
Ciphertext:               81ee7f813b834b068501e046a0bf7a778a82c549035cacf2fba05d4b50b1b8f5a6ac2aada08c63be60901a6c57c69e445730670064f855d6cf127519033fcb88208b95d47a896454c6b0b839f337eb52
Reciphers for ciphertext: 0
Decipheredtext:           00000000000000000000000000000000
RESULT CIPHER-DECIPHER: -----OK-----


Test: 84
Hash algorithm: 10
Symmetric key bit length: 192
IV bit length:            128
Plaintext bit length:     128
Symmetric key:            000000000000000000000000000000000000000000000000
IV:                       54545454545454545454545454545454
Plaintext:                00000000000000000000000000000000
Ciphertext:               94fff1edf574dd46a3629e6637628189558c2d506305b6cd4d0bc508b6cb0e4ad3f97c12468a822c0e6948d4d77c105715ec317432804a00
Reciphers for ciphertext: 0
Decipheredtext:           00000000000000000000000000000000
RESULT CIPHER-DECIPHER: -----OK-----


Test: 85
Hash algorithm: 10
Symmetric key bit length: 192
IV bit length:            128
Plaintext bit length:     128
Symmetric key:            000000000000000000000000000000000000000000000000
IV:                       55555555555555555555555555555555
Plaintext:                00000000000000000000000000000000
Ciphertext:               7343c135b44855c277295dc78145c31ab2301d8822393e49994006a900ec4cd9740df83246faff9c482654bdb2ddf9e0b9f0885514f7b31c
Reciphers for ciphertext: 0
Decipheredtext:           00000000000000000000000000000000
RESULT CIPHER-DECIPHER: -----OK-----


Test: 86
Hash algorithm: 8
Symmetric key bit length: 192
IV bit length:            128
Plaintext bit length:     128
Symmetric key:            000000000000000000000000000000000000000000000000
IV:                       56565656565656565656565656565656
Plaintext:                00000000000000000000000000000000
Ciphertext:               823945836f0a35f573cebad1df8d3f5e704f490a27707e05a7b1d61d775bb64b6be2c8df
Reciphers for ciphertext: 0
Decipheredtext:           00000000000000000000000000000000
RESULT CIPHER-DECIPHER: -----OK-----


Test: 87
Hash algorithm: 4
Symmetric key bit length: 192
IV bit length:            128
Plaintext bit length:     128
Symmetric key:            000000000000000000000000000000000000000000000000
IV:                       57575757575757575757575757575757
Plaintext:                00000000000000000000000000000000
Ciphertext:               93f9d7900ed20051481668acd4adfcd698956d58360de7a536b7d5a124a33e5405b99d669317416bce6154ca8a09059e970abc9bbd86ab8fdadc502d2d318a83747dd6f3c3062b29739ca9a224339603
Reciphers for ciphertext: 0
Decipheredtext:           00000000000000000000000000000000
RESULT CIPHER-DECIPHER: -----OK-----


Test: 88
Hash algorithm: 3
Symmetric key bit length: 192
IV bit length:            128
Plaintext bit length:     128
Symmetric key:            000000000000000000000000000000000000000000000000
IV:                       58585858585858585858585858585858
Plaintext:                00000000000000000000000000000000
Ciphertext:               72539f26d82e6d22750ef0481133d7fbdc13fabb793751fcbdd1b7034f059691a30f90db642d4bed76cf0d3809baa53fa75735aea67d05fa45654593debeca94
Reciphers for ciphertext: 0
Decipheredtext:           00000000000000000000000000000000
RESULT CIPHER-DECIPHER: -----OK-----


Test: 89
Hash algorithm: 1
Symmetric key bit length: 192
IV bit length:            128
Plaintext bit length:     128
Symmetric key:            000000000000000000000000000000000000000000000000
IV:                       59595959595959595959595959595959
Plaintext:                00000000000000000000000000000000
Ciphertext:               162698b0c0a9bc88f4ab6b47fd83c2a9e7a325895eb2d91eb62d47a7a461c0086130cddea4f4dfe7fc9995c8
Reciphers for ciphertext: 0
Decipheredtext:           00000000000000000000000000000000
RESULT CIPHER-DECIPHER: -----OK-----


Test: 90
Hash algorithm: 11
Symmetric key bit length: 192
IV bit length:            128
Plaintext bit length:     128
Symmetric key:            000000000000000000000000000000000000000000000000
IV:                       5a5a5a5a5a5a5a5a5a5a5a5a5a5a5a5a
Plaintext:                00000000000000000000000000000000
Ciphertext:               e8f4aa6324350b3c7c2bd9d322795a0ed6c6540f3da02bfcb664d75f0a967d88
Reciphers for ciphertext: 0
Decipheredtext:           00000000000000000000000000000000
RESULT CIPHER-DECIPHER: -----OK-----


Test: 91
Hash algorithm: 11
Symmetric key bit length: 192
IV bit length:            128
Plaintext bit length:     128
Symmetric key:            000000000000000000000000000000000000000000000000
IV:                       5b5b5b5b5b5b5b5b5b5b5b5b5b5b5b5b
Plaintext:                00000000000000000000000000000000
Ciphertext:               4046473da6e0c40d79cd5e97bac8642f7e74b951bf75e4cdb382501b922743a9
Reciphers for ciphertext: 0
Decipheredtext:           00000000000000000000000000000000
RESULT CIPHER-DECIPHER: -----OK-----


Test: 92
Hash algorithm: 7
Symmetric key bit length: 192
IV bit length:            128
Plaintext bit length:     128
Symmetric key:            000000000000000000000000000000000000000000000000
IV:                       5c5c5c5c5c5c5c5c5c5c5c5c5c5c5c5c
Plaintext:                00000000000000000000000000000000
Ciphertext:               8fb4813ee209afadd5e568573ef42f08fb77b2579e489222ece999761ab3a3cb
Reciphers for ciphertext: 0
Decipheredtext:           00000000000000000000000000000000
RESULT CIPHER-DECIPHER: -----OK-----


Test: 93
Hash algorithm: 12
Symmetric key bit length: 192
IV bit length:            128
Plaintext bit length:     128
Symmetric key:            000000000000000000000000000000000000000000000000
IV:                       5d5d5d5d5d5d5d5d5d5d5d5d5d5d5d5d
Plaintext:                00000000000000000000000000000000
Ciphertext:               e2bdc8e397ba7fe3691738ef44a887b8aac1f7bdbcb7159a5b59f551d8bd91d7
Reciphers for ciphertext: 0
Decipheredtext:           00000000000000000000000000000000
RESULT CIPHER-DECIPHER: -----OK-----


Test: 94
Hash algorithm: 10
Symmetric key bit length: 192
IV bit length:            128
Plaintext bit length:     128
Symmetric key:            000000000000000000000000000000000000000000000000
IV:                       5e5e5e5e5e5e5e5e5e5e5e5e5e5e5e5e
Plaintext:                00000000000000000000000000000000
Ciphertext:               cbc3c7ed11787d449d2a5c89b59cd7d50ab01b50870916cf734307e734355816b1aef748b81063249595a52728753ddd52df56c6f4b9ac9e
Reciphers for ciphertext: 0
Decipheredtext:           00000000000000000000000000000000
RESULT CIPHER-DECIPHER: -----OK-----


Test: 95
Hash algorithm: 11
Symmetric key bit length: 192
IV bit length:            128
Plaintext bit length:     128
Symmetric key:            000000000000000000000000000000000000000000000000
IV:                       5f5f5f5f5f5f5f5f5f5f5f5f5f5f5f5f
Plaintext:                00000000000000000000000000000000
Ciphertext:               c2edad22d64ca9c85dc7957c6bf32c3afcdf534ecfd9890897889bf0431c0bbc
Reciphers for ciphertext: 0
Decipheredtext:           00000000000000000000000000000000
RESULT CIPHER-DECIPHER: -----OK-----


Test: 96
Hash algorithm: 4
Symmetric key bit length: 192
IV bit length:            128
Plaintext bit length:     128
Symmetric key:            000000000000000000000000000000000000000000000000
IV:                       60606060606060606060606060606060
Plaintext:                00000000000000000000000000000000
Ciphertext:               8af37eb1b4ca9c476a7869705f39992c819fc4798c157bb314d9d47daf375baeda1fc66355b29d7d68f1500aa1d9785402250c32e2e632cad85a273c6acb3b7cd3dc7a78d555fc00775521991e9152c6
Reciphers for ciphertext: 0
Decipheredtext:           00000000000000000000000000000000
RESULT CIPHER-DECIPHER: -----OK-----


Test: 97
Hash algorithm: 4
Symmetric key bit length: 192
IV bit length:            128
Plaintext bit length:     128
Symmetric key:            000000000000000000000000000000000000000000000000
IV:                       61616161616161616161616161616161
Plaintext:                00000000000000000000000000000000
Ciphertext:               74c8227a5954b2bde3d9a8c2893fbd3a7fa498b2618b55499d7815cf79317fb8607c1dcd1f8b1620f295e7e4c7200ea0ca969f653446c1c8865e54189789cf55b422989b40010b98fde62e58b37e008b
Reciphers for ciphertext: 0
Decipheredtext:           00000000000000000000000000000000
RESULT CIPHER-DECIPHER: -----OK-----


Test: 98
Hash algorithm: 4
Symmetric key bit length: 192
IV bit length:            128
Plaintext bit length:     128
Symmetric key:            000000000000000000000000000000000000000000000000
IV:                       62626262626262626262626262626262
Plaintext:                00000000000000000000000000000000
Ciphertext:               d3db343a41c6cca1c1d0866afc5b3ee7d8b78ef279192b55bf713b670c55fc650e37970401b3030db75bda1a97da571bcaf8e45f6ff1704f70c4d0cbb80dbc8e97711fe364df1ff506e1fd2352e14664
Reciphers for ciphertext: 0
Decipheredtext:           00000000000000000000000000000000
RESULT CIPHER-DECIPHER: -----OK-----


Test: 99
Hash algorithm: 1
Symmetric key bit length: 192
IV bit length:            128
Plaintext bit length:     128
Symmetric key:            000000000000000000000000000000000000000000000000
IV:                       63636363636363636363636363636363
Plaintext:                00000000000000000000000000000000
Ciphertext:               22858ed36f4133b3ac2d0272e87b3d88d30033eaf15a5625eeab2e92b1993f29fe268fd30eca9350587d6d2d
Reciphers for ciphertext: 0
Decipheredtext:           00000000000000000000000000000000
RESULT CIPHER-DECIPHER: -----OK-----


Test: 100
Hash algorithm: 4
Symmetric key bit length: 192
IV bit length:            128
Plaintext bit length:     128
Symmetric key:            000000000000000000000000000000000000000000000000
IV:                       64646464646464646464646464646464
Plaintext:                00000000000000000000000000000000
Ciphertext:               4121c80799c59e59d568a34f820f55c34a4d72cfa11a79adabc91e42720197411ef904d7adb757eec4ef60d96613bff4f033d0fd6c215c3c27c647bbc11b4a2e34bea21e37a9106b6d4ddac5571e2375
Reciphers for ciphertext: 0
Decipheredtext:           00000000000000000000000000000000
RESULT CIPHER-DECIPHER: -----OK-----


Test: 101
Hash algorithm: 0
Symmetric key bit length: 192
IV bit length:            128
Plaintext bit length:     128
Symmetric key:            000000000000000000000000000000000000000000000000
IV:                       65656565656565656565656565656565
Plaintext:                00000000000000000000000000000000
Ciphertext:               761360c6bda81d92c05421692340093c973a92baecaba1ce041fec99821e1f31e9241371
Reciphers for ciphertext: 0
Decipheredtext:           00000000000000000000000000000000
RESULT CIPHER-DECIPHER: -----OK-----


Test: 102
Hash algorithm: 2
Symmetric key bit length: 192
IV bit length:            128
Plaintext bit length:     128
Symmetric key:            000000000000000000000000000000000000000000000000
IV:                       66666666666666666666666666666666
Plaintext:                00000000000000000000000000000000
Ciphertext:               efd796a72109ae02b64f57b35f6933ced8909e58d67833d721d19fc68a05e1e65b74007005f453e78efbf13ea537d841
Reciphers for ciphertext: 0
Decipheredtext:           00000000000000000000000000000000
RESULT CIPHER-DECIPHER: -----OK-----


Test: 103
Hash algorithm: 13
Symmetric key bit length: 192
IV bit length:            128
Plaintext bit length:     128
Symmetric key:            000000000000000000000000000000000000000000000000
IV:                       67676767676767676767676767676767
Plaintext:                00000000000000000000000000000000
Ciphertext:               17e9b29123652b635c926a405f3f64475d0ea1a7c72ed2dc25401f6e7c777ce2
Reciphers for ciphertext: 0
Decipheredtext:           00000000000000000000000000000000
RESULT CIPHER-DECIPHER: -----OK-----


Test: 104
Hash algorithm: 4
Symmetric key bit length: 192
IV bit length:            128
Plaintext bit length:     128
Symmetric key:            000000000000000000000000000000000000000000000000
IV:                       68686868686868686868686868686868
Plaintext:                00000000000000000000000000000000
Ciphertext:               81dc05450c0087e9c0adabc66a50f8508ab0bf8d34df601dbe0c16cb9a5e3ad250bec59d759396969d487a6f39a75965120abac19a31faaebf801b242f57670fb1c52692e0191d12ac86b1582a07b5a5
Reciphers for ciphertext: 0
Decipheredtext:           00000000000000000000000000000000
RESULT CIPHER-DECIPHER: -----OK-----


Test: 105
Hash algorithm: 1
Symmetric key bit length: 192
IV bit length:            128
Plaintext bit length:     128
Symmetric key:            000000000000000000000000000000000000000000000000
IV:                       69696969696969696969696969696969
Plaintext:                00000000000000000000000000000000
Ciphertext:               eb32a52f6fd6c1bb3a5b7743e9a238a51ab71816f1cda42d78dd5ba3b0403a04c1d3e748f3f06c998c3004b6
Reciphers for ciphertext: 0
Decipheredtext:           00000000000000000000000000000000
RESULT CIPHER-DECIPHER: -----OK-----


Test: 106
Hash algorithm: 5
Symmetric key bit length: 192
IV bit length:            128
Plaintext bit length:     128
Symmetric key:            000000000000000000000000000000000000000000000000
IV:                       6a6a6a6a6a6a6a6a6a6a6a6a6a6a6a6a
Plaintext:                00000000000000000000000000000000
Ciphertext:               f27f1843879a84b15e474152c1b5630faba15ec73a6584f7480ff7513caf0bab00a6023ab725f1268674436e
Reciphers for ciphertext: 0
Decipheredtext:           00000000000000000000000000000000
RESULT CIPHER-DECIPHER: -----OK-----


Test: 107
Hash algorithm: 1
Symmetric key bit length: 192
IV bit length:            128
Plaintext bit length:     128
Symmetric key:            000000000000000000000000000000000000000000000000
IV:                       6b6b6b6b6b6b6b6b6b6b6b6b6b6b6b6b
Plaintext:                00000000000000000000000000000000
Ciphertext:               f17a8a5ad2e98eb21d1594dc7223330500ff37634cf2eb245f93b83c2bc131a478e40c6206543e7652fa9048
Reciphers for ciphertext: 0
Decipheredtext:           00000000000000000000000000000000
RESULT CIPHER-DECIPHER: -----OK-----


Test: 108
Hash algorithm: 13
Symmetric key bit length: 192
IV bit length:            128
Plaintext bit length:     128
Symmetric key:            000000000000000000000000000000000000000000000000
IV:                       6c6c6c6c6c6c6c6c6c6c6c6c6c6c6c6c
Plaintext:                00000000000000000000000000000000
Ciphertext:               28d0fc156eb1435a03adbcdb4d8940546237ef238afabae57a7fc9f56ec158f1
Reciphers for ciphertext: 0
Decipheredtext:           00000000000000000000000000000000
RESULT CIPHER-DECIPHER: -----OK-----


Test: 109
Hash algorithm: 5
Symmetric key bit length: 192
IV bit length:            128
Plaintext bit length:     128
Symmetric key:            000000000000000000000000000000000000000000000000
IV:                       6d6d6d6d6d6d6d6d6d6d6d6d6d6d6d6d
Plaintext:                00000000000000000000000000000000
Ciphertext:               7b43c0de6fe2dbe696050a64dc27a27c229d865ad21ddba0804dbc67213dcad87cf22b3f38d200c93200ab05
Reciphers for ciphertext: 0
Decipheredtext:           00000000000000000000000000000000
RESULT CIPHER-DECIPHER: -----OK-----


Test: 110
Hash algorithm: 9
Symmetric key bit length: 192
IV bit length:            128
Plaintext bit length:     128
Symmetric key:            000000000000000000000000000000000000000000000000
IV:                       6e6e6e6e6e6e6e6e6e6e6e6e6e6e6e6e
Plaintext:                00000000000000000000000000000000
Ciphertext:               5a995e64f9c3b099316bc48d865333969c68af26a6809d248325c4da1cd8dd2acafdb1b40a3337dead7e4c6075cbdc79
Reciphers for ciphertext: 0
Decipheredtext:           00000000000000000000000000000000
RESULT CIPHER-DECIPHER: -----OK-----


Test: 111
Hash algorithm: 6
Symmetric key bit length: 192
IV bit length:            128
Plaintext bit length:     128
Symmetric key:            000000000000000000000000000000000000000000000000
IV:                       6f6f6f6f6f6f6f6f6f6f6f6f6f6f6f6f
Plaintext:                00000000000000000000000000000000
Ciphertext:               feb23ad36ad670e8712d5b5fdb9b6dee1aaeacb3da9164258609c4500d7da8bb39ec49291056e61dce001865ece8011a
Reciphers for ciphertext: 0
Decipheredtext:           00000000000000000000000000000000
RESULT CIPHER-DECIPHER: -----OK-----


Test: 112
Hash algorithm: 11
Symmetric key bit length: 192
IV bit length:            128
Plaintext bit length:     128
Symmetric key:            000000000000000000000000000000000000000000000000
IV:                       70707070707070707070707070707070
Plaintext:                00000000000000000000000000000000
Ciphertext:               2194816d2d387762e132eed67c04b5081fa67f0134ad57a22b7de05a54eb928e
Reciphers for ciphertext: 0
Decipheredtext:           00000000000000000000000000000000
RESULT CIPHER-DECIPHER: -----OK-----


Test: 113
Hash algorithm: 9
Symmetric key bit length: 192
IV bit length:            128
Plaintext bit length:     128
Symmetric key:            000000000000000000000000000000000000000000000000
IV:                       71717171717171717171717171717171
Plaintext:                00000000000000000000000000000000
Ciphertext:               346b228bcc5eda484f2c21d00b2e4211f29ad3c9931df7f5fd62218791a5acad4e79f7c6aa77fe3cd5abc01bc71ca848
Reciphers for ciphertext: 0
Decipheredtext:           00000000000000000000000000000000
RESULT CIPHER-DECIPHER: -----OK-----


Test: 114
Hash algorithm: 5
Symmetric key bit length: 192
IV bit length:            128
Plaintext bit length:     128
Symmetric key:            000000000000000000000000000000000000000000000000
IV:                       72727272727272727272727272727272
Plaintext:                00000000000000000000000000000000
Ciphertext:               b2dba3b9f0408d1631d7a1274c9c0029eb05e53d4dbf8d50279f1724b186688d33f7a714b857f7fa80c53207
Reciphers for ciphertext: 0
Decipheredtext:           00000000000000000000000000000000
RESULT CIPHER-DECIPHER: -----OK-----


Test: 115
Hash algorithm: 9
Symmetric key bit length: 192
IV bit length:            128
Plaintext bit length:     128
Symmetric key:            000000000000000000000000000000000000000000000000
IV:                       73737373737373737373737373737373
Plaintext:                00000000000000000000000000000000
Ciphertext:               9e99c2a4a26b5c9dda2176538da1b5a8586833e6fd287120686f7604172a5b14ae7c67b04ec0cc872810fbf07a1a2a83
Reciphers for ciphertext: 0
Decipheredtext:           00000000000000000000000000000000
RESULT CIPHER-DECIPHER: -----OK-----


Test: 116
Hash algorithm: 2
Symmetric key bit length: 192
IV bit length:            128
Plaintext bit length:     128
Symmetric key:            000000000000000000000000000000000000000000000000
IV:                       74747474747474747474747474747474
Plaintext:                00000000000000000000000000000000
Ciphertext:               03fa4fc28117d8b0a8b7731e4965413434bd473d766645653f29bb6b9c09931c7b137f1cde5143008350cdc51ced0219
Reciphers for ciphertext: 0
Decipheredtext:           00000000000000000000000000000000
RESULT CIPHER-DECIPHER: -----OK-----


Test: 117
Hash algorithm: 1
Symmetric key bit length: 192
IV bit length:            128
Plaintext bit length:     128
Symmetric key:            000000000000000000000000000000000000000000000000
IV:                       75757575757575757575757575757575
Plaintext:                00000000000000000000000000000000
Ciphertext:               54c3e336ed95df51eb55d630d11b3e44a5465e0f738ebac7a9d3fad088f93ce57c651b6f3976bc666a066bb6
Reciphers for ciphertext: 0
Decipheredtext:           00000000000000000000000000000000
RESULT CIPHER-DECIPHER: -----OK-----


Test: 118
Hash algorithm: 10
Symmetric key bit length: 192
IV bit length:            128
Plaintext bit length:     128
Symmetric key:            000000000000000000000000000000000000000000000000
IV:                       76767676767676767676767676767676
Plaintext:                00000000000000000000000000000000
Ciphertext:               d239c389ecb6ce22bd9d74efe5d875c9134a1f347ac7a5a953f42f816471fa0a3cbc32e91a13b449f14443e109e36b0da85d417d9d92bd1f
Reciphers for ciphertext: 0
Decipheredtext:           00000000000000000000000000000000
RESULT CIPHER-DECIPHER: -----OK-----


Test: 119
Hash algorithm: 4
Symmetric key bit length: 192
IV bit length:            128
Plaintext bit length:     128
Symmetric key:            000000000000000000000000000000000000000000000000
IV:                       77777777777777777777777777777777
Plaintext:                00000000000000000000000000000000
Ciphertext:               bf56de6ad75107f062f606d267b3a704b43a64a2ef8ee0041c57bbdf97bd6586678f2d7e4b73b04066f395ba08129c6046d88a78f27b5d090f738133dd97678167335ac71000836b26fee0b84c414a51
Reciphers for ciphertext: 0
Decipheredtext:           00000000000000000000000000000000
RESULT CIPHER-DECIPHER: -----OK-----


Test: 120
Hash algorithm: 6
Symmetric key bit length: 192
IV bit length:            128
Plaintext bit length:     128
Symmetric key:            000000000000000000000000000000000000000000000000
IV:                       78787878787878787878787878787878
Plaintext:                00000000000000000000000000000000
Ciphertext:               2929f7e49c93bc17dddb420591cb57becd3561842cd4a8da2affdd0a472d92eb8c47c16cb8175a53f13b43de4f047ac4
Reciphers for ciphertext: 0
Decipheredtext:           00000000000000000000000000000000
RESULT CIPHER-DECIPHER: -----OK-----


Test: 121
Hash algorithm: 1
Symmetric key bit length: 192
IV bit length:            128
Plaintext bit length:     128
Symmetric key:            000000000000000000000000000000000000000000000000
IV:                       79797979797979797979797979797979
Plaintext:                00000000000000000000000000000000
Ciphertext:               c7c4bac44653205f83e324b40ad4e532364107fdd84845c9c16508545336e793f32a70a91d9ce908b9e7d20d
Reciphers for ciphertext: 0
Decipheredtext:           00000000000000000000000000000000
RESULT CIPHER-DECIPHER: -----OK-----


Test: 122
Hash algorithm: 5
Symmetric key bit length: 192
IV bit length:            128
Plaintext bit length:     128
Symmetric key:            000000000000000000000000000000000000000000000000
IV:                       7a7a7a7a7a7a7a7a7a7a7a7a7a7a7a7a
Plaintext:                00000000000000000000000000000000
Ciphertext:               713defa5583642367f510564849abfdf28e3a921e5c942706919b3677980d77b9c5136c0bb649a15e919e663
Reciphers for ciphertext: 0
Decipheredtext:           00000000000000000000000000000000
RESULT CIPHER-DECIPHER: -----OK-----


Test: 123
Hash algorithm: 12
Symmetric key bit length: 192
IV bit length:            128
Plaintext bit length:     128
Symmetric key:            000000000000000000000000000000000000000000000000
IV:                       7b7b7b7b7b7b7b7b7b7b7b7b7b7b7b7b
Plaintext:                00000000000000000000000000000000
Ciphertext:               861479ce9525bb0dc4042de3c5f05a8ece684690be28d174f64ae05d59e54ce1
Reciphers for ciphertext: 0
Decipheredtext:           00000000000000000000000000000000
RESULT CIPHER-DECIPHER: -----OK-----


Test: 124
Hash algorithm: 10
Symmetric key bit length: 192
IV bit length:            128
Plaintext bit length:     128
Symmetric key:            000000000000000000000000000000000000000000000000
IV:                       7c7c7c7c7c7c7c7c7c7c7c7c7c7c7c7c
Plaintext:                00000000000000000000000000000000
Ciphertext:               2e50c2b004d4f6428045cfa45a693beeef231e0d92a59dc96e2c94cadbc0b42df9659ba80b9efcc5178118a45bc57a1290659a82a96d79f3
Reciphers for ciphertext: 0
Decipheredtext:           00000000000000000000000000000000
RESULT CIPHER-DECIPHER: -----OK-----


Test: 125
Hash algorithm: 6
Symmetric key bit length: 192
IV bit length:            128
Plaintext bit length:     128
Symmetric key:            000000000000000000000000000000000000000000000000
IV:                       7d7d7d7d7d7d7d7d7d7d7d7d7d7d7d7d
Plaintext:                00000000000000000000000000000000
Ciphertext:               b7938977a84fc574585c152bbeeccd34538f1f171808d1b9af788a24680a08618f08b7f690c510f2985eed3fb8c1aad3
Reciphers for ciphertext: 0
Decipheredtext:           00000000000000000000000000000000
RESULT CIPHER-DECIPHER: -----OK-----


Test: 126
Hash algorithm: 1
Symmetric key bit length: 192
IV bit length:            128
Plaintext bit length:     128
Symmetric key:            000000000000000000000000000000000000000000000000
IV:                       7e7e7e7e7e7e7e7e7e7e7e7e7e7e7e7e
Plaintext:                00000000000000000000000000000000
Ciphertext:               e834724b5a2541c8828e873a5327a4a619b1cf72c43e245ec008abda0ac5a607ba3fc994c315cdf1b3ae9369
Reciphers for ciphertext: 0
Decipheredtext:           00000000000000000000000000000000
RESULT CIPHER-DECIPHER: -----OK-----


Test: 127
Hash algorithm: 6
Symmetric key bit length: 192
IV bit length:            128
Plaintext bit length:     128
Symmetric key:            000000000000000000000000000000000000000000000000
IV:                       7f7f7f7f7f7f7f7f7f7f7f7f7f7f7f7f
Plaintext:                00000000000000000000000000000000
Ciphertext:               69d45e617e9b1a7fb1f9e96e69f528638dc8c801cedc0eb246dd7661bf13ed365ab30c24dd797284cb8f90614959ffbb
Reciphers for ciphertext: 0
Decipheredtext:           00000000000000000000000000000000
RESULT CIPHER-DECIPHER: -----OK-----


 DATA SHA1 (hexadecimal): e9097486e72fba4226f51f241830d25ad6ddf64b

