
DiceLock 9.0.0.1

 TEST COMPONENTS:
 ----------------
 DiceLock:           DiceLockIVDigested class
 Operation Mode:     OFB_Mode class
 Block Cipher:       TDEA class
 Hash algorithms:     0 - Sha1 class
                      1 - Sha224 class
                      2 - Sha256 class
                      3 - Sha384 class
                      4 - Sha512 class
                      5 - Sha512_224 class
                      6 - Sha512_256 class
                      7 - Ripemd128 class
                      8 - Ripemd160 class
                      9 - Ripemd256 class
                     10 - Ripemd320 class
                     11 - MD2 class
                     12 - MD4 class
                     13 - MD5 class
 Key Modifier:       DecreaseKeyModifier_6_0_0_1 class
 Random tests:       RandomTestSuite class
                     FrequencyTest class
                     BlockFrequencyTest class
                     CumulativeSumForwardTest class
                     LongestRunOfOnesTest class
                     RunsTest class
 Random alpha:       0.001

 VECTOR TEST: Test vector 1 - Changing IV, shifting 1 bit set


##### INDIVIDUAL TESTS #####

Number tests: 128


Test: 0
Hash algorithm: 0
Symmetric key bit length: 192
IV bit length:            64
Plaintext bit length:     136
Symmetric key:            000000000000000000000000000000000000000000000000
IV:                       8000000000000000
Plaintext:                0000000000000000000000000000000000
Ciphertext:               738294149e5804eae276d5316a2ab1e8ae9ea6753cbeaafdea4c4eee4daed802f4eeff5bc6
Reciphers for ciphertext: 3
Decipheredtext:           0000000000000000000000000000000000
RESULT CIPHER-DECIPHER: -----OK-----


Test: 1
Hash algorithm: 11
Symmetric key bit length: 192
IV bit length:            64
Plaintext bit length:     136
Symmetric key:            000000000000000000000000000000000000000000000000
IV:                       4000000000000000
Plaintext:                0000000000000000000000000000000000
Ciphertext:               8100adf158f1b78126e8099cab07df08b4101d2478ca12f9911487f060e9b992f6
Reciphers for ciphertext: 3
Decipheredtext:           0000000000000000000000000000000000
RESULT CIPHER-DECIPHER: -----OK-----


Test: 2
Hash algorithm: 9
Symmetric key bit length: 192
IV bit length:            64
Plaintext bit length:     136
Symmetric key:            000000000000000000000000000000000000000000000000
IV:                       2000000000000000
Plaintext:                0000000000000000000000000000000000
Ciphertext:               3ce380e659cda665f2ca660dbd1f53bafdd61a8228aa5b1e63008c2aac0c6932a9539dd612c8916c30562853996aa627f4
Reciphers for ciphertext: 3
Decipheredtext:           0000000000000000000000000000000000
RESULT CIPHER-DECIPHER: -----OK-----


Test: 3
Hash algorithm: 12
Symmetric key bit length: 192
IV bit length:            64
Plaintext bit length:     136
Symmetric key:            000000000000000000000000000000000000000000000000
IV:                       1000000000000000
Plaintext:                0000000000000000000000000000000000
Ciphertext:               1bcaa6880c71a9f7266e808cbf97a567bfd4ff82734dcde5b38e1bc7b02d7d3ff9
Reciphers for ciphertext: 3
Decipheredtext:           0000000000000000000000000000000000
RESULT CIPHER-DECIPHER: -----OK-----


Test: 4
Hash algorithm: 1
Symmetric key bit length: 192
IV bit length:            64
Plaintext bit length:     136
Symmetric key:            000000000000000000000000000000000000000000000000
IV:                       0800000000000000
Plaintext:                0000000000000000000000000000000000
Ciphertext:               85cf0a82c61cbe357a9658660e880411406c61a11bdff711db3f0aae0d0cd0fb130101686997f01e0de2e6b1b6
Reciphers for ciphertext: 3
Decipheredtext:           0000000000000000000000000000000000
RESULT CIPHER-DECIPHER: -----OK-----


Test: 5
Hash algorithm: 3
Symmetric key bit length: 192
IV bit length:            64
Plaintext bit length:     136
Symmetric key:            000000000000000000000000000000000000000000000000
IV:                       0400000000000000
Plaintext:                0000000000000000000000000000000000
Ciphertext:               63c309e956248401dc6d7de4cff0857dc3c9f7b92967375449e6b1ff4fc8669c6239b28dd2ec27d2eb726b6ba21c0ffc0a68b6a46c2f610d3727aba1b1201e832d
Reciphers for ciphertext: 3
Decipheredtext:           0000000000000000000000000000000000
RESULT CIPHER-DECIPHER: -----OK-----


Test: 6
Hash algorithm: 3
Symmetric key bit length: 192
IV bit length:            64
Plaintext bit length:     136
Symmetric key:            000000000000000000000000000000000000000000000000
IV:                       0200000000000000
Plaintext:                0000000000000000000000000000000000
Ciphertext:               0ad310aa754f523f54ab89f49eddda2393a0e7a06a445c82776e770b5f994bc33c690738d58a7830d968711dad15434d4343d129abb8b413208014d767998dbc73
Reciphers for ciphertext: 3
Decipheredtext:           0000000000000000000000000000000000
RESULT CIPHER-DECIPHER: -----OK-----


Test: 7
Hash algorithm: 4
Symmetric key bit length: 192
IV bit length:            64
Plaintext bit length:     136
Symmetric key:            000000000000000000000000000000000000000000000000
IV:                       0100000000000000
Plaintext:                0000000000000000000000000000000000
Ciphertext:               d913796939b46df075e4df300adc62018dc40ea2cf45d52e8333ea12c0128c0bb5f8811ea5ff6cb5bad93de0712e11664a5f897cfba9a20b9137756b60bdaba446edf219cb80e60f87809d42e1fbc8afc3
Reciphers for ciphertext: 3
Decipheredtext:           0000000000000000000000000000000000
RESULT CIPHER-DECIPHER: -----OK-----


Test: 8
Hash algorithm: 11
Symmetric key bit length: 192
IV bit length:            64
Plaintext bit length:     136
Symmetric key:            000000000000000000000000000000000000000000000000
IV:                       0080000000000000
Plaintext:                0000000000000000000000000000000000
Ciphertext:               f46b251bcee518d8cd196cedb643c94b396576ac925c0656c8ff769511f4fd84b5
Reciphers for ciphertext: 3
Decipheredtext:           0000000000000000000000000000000000
RESULT CIPHER-DECIPHER: -----OK-----


Test: 9
Hash algorithm: 3
Symmetric key bit length: 192
IV bit length:            64
Plaintext bit length:     136
Symmetric key:            000000000000000000000000000000000000000000000000
IV:                       0040000000000000
Plaintext:                0000000000000000000000000000000000
Ciphertext:               db969357c5ccc86b55f914a2ad024ffbb171a22397f4df18236f259609aa9456e44b5eb44457d06e8a4c47b070987bf050c3f90205bb3e74fddc21b2a678742601
Reciphers for ciphertext: 3
Decipheredtext:           0000000000000000000000000000000000
RESULT CIPHER-DECIPHER: -----OK-----


Test: 10
Hash algorithm: 6
Symmetric key bit length: 192
IV bit length:            64
Plaintext bit length:     136
Symmetric key:            000000000000000000000000000000000000000000000000
IV:                       0020000000000000
Plaintext:                0000000000000000000000000000000000
Ciphertext:               3a03f6a648c0e2f162da483127cb8a9b3132e10ce2d8ce86581c6972717d91417289353bc82290aba86de8d47d3c8425a8
Reciphers for ciphertext: 3
Decipheredtext:           0000000000000000000000000000000000
RESULT CIPHER-DECIPHER: -----OK-----


Test: 11
Hash algorithm: 13
Symmetric key bit length: 192
IV bit length:            64
Plaintext bit length:     136
Symmetric key:            000000000000000000000000000000000000000000000000
IV:                       0010000000000000
Plaintext:                0000000000000000000000000000000000
Ciphertext:               14a15de9d6eff4751a2aa9928f58f558d2e769e05f6f30b3fa38505b5cee9050f9
Reciphers for ciphertext: 3
Decipheredtext:           0000000000000000000000000000000000
RESULT CIPHER-DECIPHER: -----OK-----


Test: 12
Hash algorithm: 1
Symmetric key bit length: 192
IV bit length:            64
Plaintext bit length:     136
Symmetric key:            000000000000000000000000000000000000000000000000
IV:                       0008000000000000
Plaintext:                0000000000000000000000000000000000
Ciphertext:               956da294e1327b42a24b4954ba4dc5358f7cc3090df8d9d4ace7d7bf3fb8153a37ce2813fd4ba2979383da7ec0
Reciphers for ciphertext: 3
Decipheredtext:           0000000000000000000000000000000000
RESULT CIPHER-DECIPHER: -----OK-----


Test: 13
Hash algorithm: 0
Symmetric key bit length: 192
IV bit length:            64
Plaintext bit length:     136
Symmetric key:            000000000000000000000000000000000000000000000000
IV:                       0004000000000000
Plaintext:                0000000000000000000000000000000000
Ciphertext:               413084eb203de80256546f2de3a736a391ac1465c300cf1102f86c5451275585bfd16fe56a
Reciphers for ciphertext: 3
Decipheredtext:           0000000000000000000000000000000000
RESULT CIPHER-DECIPHER: -----OK-----


Test: 14
Hash algorithm: 6
Symmetric key bit length: 192
IV bit length:            64
Plaintext bit length:     136
Symmetric key:            000000000000000000000000000000000000000000000000
IV:                       0002000000000000
Plaintext:                0000000000000000000000000000000000
Ciphertext:               70cefb3eded2e5422a69d49954cbc8eb6c782c017a4edc81eb54daeed90e910302d47b292ebf9ee4edeb56bf51dae52690
Reciphers for ciphertext: 3
Decipheredtext:           0000000000000000000000000000000000
RESULT CIPHER-DECIPHER: -----OK-----


Test: 15
Hash algorithm: 6
Symmetric key bit length: 192
IV bit length:            64
Plaintext bit length:     136
Symmetric key:            000000000000000000000000000000000000000000000000
IV:                       0001000000000000
Plaintext:                0000000000000000000000000000000000
Ciphertext:               32010c65497d940f89997bb691dc0f1a4a3ae3f621d973f0a6f72a41f6cb86c4f3f2bc4cb95cf51356420d622a3bc08977
Reciphers for ciphertext: 3
Decipheredtext:           0000000000000000000000000000000000
RESULT CIPHER-DECIPHER: -----OK-----


Test: 16
Hash algorithm: 5
Symmetric key bit length: 192
IV bit length:            64
Plaintext bit length:     136
Symmetric key:            000000000000000000000000000000000000000000000000
IV:                       0000800000000000
Plaintext:                0000000000000000000000000000000000
Ciphertext:               f9feaba37f9573cf3cba623f825013a2e9936bb7f449090bc115371980381ff3f947a5b03c5eec6c8986667086
Reciphers for ciphertext: 3
Decipheredtext:           0000000000000000000000000000000000
RESULT CIPHER-DECIPHER: -----OK-----


Test: 17
Hash algorithm: 13
Symmetric key bit length: 192
IV bit length:            64
Plaintext bit length:     136
Symmetric key:            000000000000000000000000000000000000000000000000
IV:                       0000400000000000
Plaintext:                0000000000000000000000000000000000
Ciphertext:               c6a3512b74718b1391111a9acf0c54a19a356bec9dcdaecc9cb36be854aec4f100
Reciphers for ciphertext: 3
Decipheredtext:           0000000000000000000000000000000000
RESULT CIPHER-DECIPHER: -----OK-----


Test: 18
Hash algorithm: 9
Symmetric key bit length: 192
IV bit length:            64
Plaintext bit length:     136
Symmetric key:            000000000000000000000000000000000000000000000000
IV:                       0000200000000000
Plaintext:                0000000000000000000000000000000000
Ciphertext:               3c987ab04e923a492ce9138a0e49926ba5d661787ebd04824fdeaf5f2bbf3ff3780baeed92013bdc07332d2f3f76ce458d
Reciphers for ciphertext: 3
Decipheredtext:           0000000000000000000000000000000000
RESULT CIPHER-DECIPHER: -----OK-----


Test: 19
Hash algorithm: 3
Symmetric key bit length: 192
IV bit length:            64
Plaintext bit length:     136
Symmetric key:            000000000000000000000000000000000000000000000000
IV:                       0000100000000000
Plaintext:                0000000000000000000000000000000000
Ciphertext:               8dbe4c24f6436f82fd8a73c6577a14061f278afce4c750bfcac756f16d50ec0d19e57fe3618c391569c88dcd2b9bd3806a6726ed5dd655940b034c317855074abe
Reciphers for ciphertext: 3
Decipheredtext:           0000000000000000000000000000000000
RESULT CIPHER-DECIPHER: -----OK-----


Test: 20
Hash algorithm: 7
Symmetric key bit length: 192
IV bit length:            64
Plaintext bit length:     136
Symmetric key:            000000000000000000000000000000000000000000000000
IV:                       0000080000000000
Plaintext:                0000000000000000000000000000000000
Ciphertext:               daf92a98cff4a956363462cf1eab9d32dab7e89af8a018ad98e673a865bd5e354d
Reciphers for ciphertext: 3
Decipheredtext:           0000000000000000000000000000000000
RESULT CIPHER-DECIPHER: -----OK-----


Test: 21
Hash algorithm: 2
Symmetric key bit length: 192
IV bit length:            64
Plaintext bit length:     136
Symmetric key:            000000000000000000000000000000000000000000000000
IV:                       0000040000000000
Plaintext:                0000000000000000000000000000000000
Ciphertext:               c24eca15f0132571dcc3a4c697cb72e2d7c8c6db0da21a79dfd890e42c88c0557b935497dd099883e2d4c2e1c5a91e9edc
Reciphers for ciphertext: 3
Decipheredtext:           0000000000000000000000000000000000
RESULT CIPHER-DECIPHER: -----OK-----


Test: 22
Hash algorithm: 2
Symmetric key bit length: 192
IV bit length:            64
Plaintext bit length:     136
Symmetric key:            000000000000000000000000000000000000000000000000
IV:                       0000020000000000
Plaintext:                0000000000000000000000000000000000
Ciphertext:               339a2d60ce8f91a7fe67eef0ca4bf7403739123c789c86cd09fa34ae1ad540d0d9737fde1d1a8514908d22e700034acda9
Reciphers for ciphertext: 3
Decipheredtext:           0000000000000000000000000000000000
RESULT CIPHER-DECIPHER: -----OK-----


Test: 23
Hash algorithm: 4
Symmetric key bit length: 192
IV bit length:            64
Plaintext bit length:     136
Symmetric key:            000000000000000000000000000000000000000000000000
IV:                       0000010000000000
Plaintext:                0000000000000000000000000000000000
Ciphertext:               d10c26c30357a660a6ca30918982b2d0dccc11fd657f36e513e0c4fd6191d2db64a9aef5eca2d1b501b96fdaa2b6de7b0f20fed0857e0f58ba5a60f2086f8fa2b45095983fc4c22b7f539b3a45ca2c96fb
Reciphers for ciphertext: 3
Decipheredtext:           0000000000000000000000000000000000
RESULT CIPHER-DECIPHER: -----OK-----


Test: 24
Hash algorithm: 9
Symmetric key bit length: 192
IV bit length:            64
Plaintext bit length:     136
Symmetric key:            000000000000000000000000000000000000000000000000
IV:                       0000008000000000
Plaintext:                0000000000000000000000000000000000
Ciphertext:               4af8ef2a570088b72d8e41f86df3e492b1a001ede4a49630b1dfc80d59dc8585811fe742aa6b139f94cb80b7b8f0af031f
Reciphers for ciphertext: 3
Decipheredtext:           0000000000000000000000000000000000
RESULT CIPHER-DECIPHER: -----OK-----


Test: 25
Hash algorithm: 12
Symmetric key bit length: 192
IV bit length:            64
Plaintext bit length:     136
Symmetric key:            000000000000000000000000000000000000000000000000
IV:                       0000004000000000
Plaintext:                0000000000000000000000000000000000
Ciphertext:               aad60b4717cc315478688a46bde5e1dd8e65e32fbc56707d10d01dcd7a2f0f7b43
Reciphers for ciphertext: 3
Decipheredtext:           0000000000000000000000000000000000
RESULT CIPHER-DECIPHER: -----OK-----


Test: 26
Hash algorithm: 11
Symmetric key bit length: 192
IV bit length:            64
Plaintext bit length:     136
Symmetric key:            000000000000000000000000000000000000000000000000
IV:                       0000002000000000
Plaintext:                0000000000000000000000000000000000
Ciphertext:               5cabc5eb417cf66eb7d56e906c93e6278acdb64c62d39fb87e85ba976c2e2dabd9
Reciphers for ciphertext: 3
Decipheredtext:           0000000000000000000000000000000000
RESULT CIPHER-DECIPHER: -----OK-----


Test: 27
Hash algorithm: 2
Symmetric key bit length: 192
IV bit length:            64
Plaintext bit length:     136
Symmetric key:            000000000000000000000000000000000000000000000000
IV:                       0000001000000000
Plaintext:                0000000000000000000000000000000000
Ciphertext:               1a497ac77c983278fc6afc846665e9628a10c16bdf2e916ed6f839bc6e796ecefbce9b52d4f0ec5caee4c28d002811d3c9
Reciphers for ciphertext: 3
Decipheredtext:           0000000000000000000000000000000000
RESULT CIPHER-DECIPHER: -----OK-----


Test: 28
Hash algorithm: 3
Symmetric key bit length: 192
IV bit length:            64
Plaintext bit length:     136
Symmetric key:            000000000000000000000000000000000000000000000000
IV:                       0000000800000000
Plaintext:                0000000000000000000000000000000000
Ciphertext:               dee133c8d9fb262e91011b81b41af8ca1d74d58308e8e8f666abdd992ab38ce1d5e70e00e17aa26ddf9f4a87ab502adaaac2f455661c4a542586b65427cf1b16d2
Reciphers for ciphertext: 3
Decipheredtext:           0000000000000000000000000000000000
RESULT CIPHER-DECIPHER: -----OK-----


Test: 29
Hash algorithm: 0
Symmetric key bit length: 192
IV bit length:            64
Plaintext bit length:     136
Symmetric key:            000000000000000000000000000000000000000000000000
IV:                       0000000400000000
Plaintext:                0000000000000000000000000000000000
Ciphertext:               54031ec4dc210714fc05aa08600bba39d9b927ffecfcd3fe14523d9174a4f9092599a4bcbe
Reciphers for ciphertext: 3
Decipheredtext:           0000000000000000000000000000000000
RESULT CIPHER-DECIPHER: -----OK-----


Test: 30
Hash algorithm: 9
Symmetric key bit length: 192
IV bit length:            64
Plaintext bit length:     136
Symmetric key:            000000000000000000000000000000000000000000000000
IV:                       0000000200000000
Plaintext:                0000000000000000000000000000000000
Ciphertext:               17bae85bc0b67e9886710c6d9df0d61bd8fd43ea953320c69e743740cc2c86b70876878a6036fb99da272139fa6c42c8f0
Reciphers for ciphertext: 3
Decipheredtext:           0000000000000000000000000000000000
RESULT CIPHER-DECIPHER: -----OK-----


Test: 31
Hash algorithm: 8
Symmetric key bit length: 192
IV bit length:            64
Plaintext bit length:     136
Symmetric key:            000000000000000000000000000000000000000000000000
IV:                       0000000100000000
Plaintext:                0000000000000000000000000000000000
Ciphertext:               b8e97ba920c5cb872c7791ae103ccd3c26a4e6998a9ba9a5eb72d18f887a135886837940f3
Reciphers for ciphertext: 3
Decipheredtext:           0000000000000000000000000000000000
RESULT CIPHER-DECIPHER: -----OK-----


Test: 32
Hash algorithm: 11
Symmetric key bit length: 192
IV bit length:            64
Plaintext bit length:     136
Symmetric key:            000000000000000000000000000000000000000000000000
IV:                       0000000080000000
Plaintext:                0000000000000000000000000000000000
Ciphertext:               87dac436a7648ca9f250e57a43cd3bedfe16c74dbf3587c2b9c03f1c8601737613
Reciphers for ciphertext: 3
Decipheredtext:           0000000000000000000000000000000000
RESULT CIPHER-DECIPHER: -----OK-----


Test: 33
Hash algorithm: 4
Symmetric key bit length: 192
IV bit length:            64
Plaintext bit length:     136
Symmetric key:            000000000000000000000000000000000000000000000000
IV:                       0000000040000000
Plaintext:                0000000000000000000000000000000000
Ciphertext:               94a51d28cea82698f6c2f8c6ec37760d6b89b8c68eb2c965ebb0cc3536f4671fb91e0cd233b88fd70e39aedcb445e2d028c5c113b874ee904c5e92d4a1d9ee3644ab7d34411c2344c1c78c1cf24127270a
Reciphers for ciphertext: 3
Decipheredtext:           0000000000000000000000000000000000
RESULT CIPHER-DECIPHER: -----OK-----


Test: 34
Hash algorithm: 0
Symmetric key bit length: 192
IV bit length:            64
Plaintext bit length:     136
Symmetric key:            000000000000000000000000000000000000000000000000
IV:                       0000000020000000
Plaintext:                0000000000000000000000000000000000
Ciphertext:               8ef26365228470949f50b7f39da1071ad563d6824d0276899431688c8f5953b40695ec7ffe
Reciphers for ciphertext: 3
Decipheredtext:           0000000000000000000000000000000000
RESULT CIPHER-DECIPHER: -----OK-----


Test: 35
Hash algorithm: 11
Symmetric key bit length: 192
IV bit length:            64
Plaintext bit length:     136
Symmetric key:            000000000000000000000000000000000000000000000000
IV:                       0000000010000000
Plaintext:                0000000000000000000000000000000000
Ciphertext:               97b4845a7eaea5311ff6087da256e7010106a90dd3ec4deb212d99f181e0e8aaff
Reciphers for ciphertext: 3
Decipheredtext:           0000000000000000000000000000000000
RESULT CIPHER-DECIPHER: -----OK-----


Test: 36
Hash algorithm: 0
Symmetric key bit length: 192
IV bit length:            64
Plaintext bit length:     136
Symmetric key:            000000000000000000000000000000000000000000000000
IV:                       0000000008000000
Plaintext:                0000000000000000000000000000000000
Ciphertext:               26fcc98c4eb24742c8d3b37c65d489a781cbd828a46e40be4266eb8800a1263abbc1f76095
Reciphers for ciphertext: 3
Decipheredtext:           0000000000000000000000000000000000
RESULT CIPHER-DECIPHER: -----OK-----


Test: 37
Hash algorithm: 13
Symmetric key bit length: 192
IV bit length:            64
Plaintext bit length:     136
Symmetric key:            000000000000000000000000000000000000000000000000
IV:                       0000000004000000
Plaintext:                0000000000000000000000000000000000
Ciphertext:               7ee54b603f7c43371dd4a7cfe51a8a265b8d2df6d686a304b83fae550184d22f87
Reciphers for ciphertext: 3
Decipheredtext:           0000000000000000000000000000000000
RESULT CIPHER-DECIPHER: -----OK-----


Test: 38
Hash algorithm: 6
Symmetric key bit length: 192
IV bit length:            64
Plaintext bit length:     136
Symmetric key:            000000000000000000000000000000000000000000000000
IV:                       0000000002000000
Plaintext:                0000000000000000000000000000000000
Ciphertext:               b0d390386dc314c7bf7a4888d3c39ea341b8316a7cfdcd706ec1c972c88999554af9ca87b60bb63396559d00b05d604166
Reciphers for ciphertext: 3
Decipheredtext:           0000000000000000000000000000000000
RESULT CIPHER-DECIPHER: -----OK-----


Test: 39
Hash algorithm: 2
Symmetric key bit length: 192
IV bit length:            64
Plaintext bit length:     136
Symmetric key:            000000000000000000000000000000000000000000000000
IV:                       0000000001000000
Plaintext:                0000000000000000000000000000000000
Ciphertext:               17157bedd61b367a1d25c0024d6f3ce2091d9d6af584126ad4197680e852641b7b4d92a713fa247b3d17a302955809b35c
Reciphers for ciphertext: 3
Decipheredtext:           0000000000000000000000000000000000
RESULT CIPHER-DECIPHER: -----OK-----


Test: 40
Hash algorithm: 7
Symmetric key bit length: 192
IV bit length:            64
Plaintext bit length:     136
Symmetric key:            000000000000000000000000000000000000000000000000
IV:                       0000000000800000
Plaintext:                0000000000000000000000000000000000
Ciphertext:               7c5c67f18cf1e154265382293289fb3fc2114dd791e31de59af6144883917c5340
Reciphers for ciphertext: 3
Decipheredtext:           0000000000000000000000000000000000
RESULT CIPHER-DECIPHER: -----OK-----


Test: 41
Hash algorithm: 0
Symmetric key bit length: 192
IV bit length:            64
Plaintext bit length:     136
Symmetric key:            000000000000000000000000000000000000000000000000
IV:                       0000000000400000
Plaintext:                0000000000000000000000000000000000
Ciphertext:               85cbdb2eb9ac64f7e0640d2ccd4cd09c6968ef3a06995e9df74e5c365009be638029b2f3f4
Reciphers for ciphertext: 3
Decipheredtext:           0000000000000000000000000000000000
RESULT CIPHER-DECIPHER: -----OK-----


Test: 42
Hash algorithm: 7
Symmetric key bit length: 192
IV bit length:            64
Plaintext bit length:     136
Symmetric key:            000000000000000000000000000000000000000000000000
IV:                       0000000000200000
Plaintext:                0000000000000000000000000000000000
Ciphertext:               25a46815db91e50d68c06ca5fb8af82dab48b5d875b47de1c3b887a60f587f5052
Reciphers for ciphertext: 3
Decipheredtext:           0000000000000000000000000000000000
RESULT CIPHER-DECIPHER: -----OK-----


Test: 43
Hash algorithm: 10
Symmetric key bit length: 192
IV bit length:            64
Plaintext bit length:     136
Symmetric key:            000000000000000000000000000000000000000000000000
IV:                       0000000000100000
Plaintext:                0000000000000000000000000000000000
Ciphertext:               7ff5b01c1fdc65fa9c927774d94f36bb6b6ae644f1613d8d5457633fa3b5e9e74ce8b7eac6609f811d0b3bac07886a6b0ee6a87ae573086bc0
Reciphers for ciphertext: 3
Decipheredtext:           0000000000000000000000000000000000
RESULT CIPHER-DECIPHER: -----OK-----


Test: 44
Hash algorithm: 13
Symmetric key bit length: 192
IV bit length:            64
Plaintext bit length:     136
Symmetric key:            000000000000000000000000000000000000000000000000
IV:                       0000000000080000
Plaintext:                0000000000000000000000000000000000
Ciphertext:               9f8ea8afdad462bdc5d3855cba7bd5a15b6c461519630b2532e7a97792dbb37000
Reciphers for ciphertext: 5
Decipheredtext:           0000000000000000000000000000000000
RESULT CIPHER-DECIPHER: -----OK-----


Test: 45
Hash algorithm: 7
Symmetric key bit length: 192
IV bit length:            64
Plaintext bit length:     136
Symmetric key:            000000000000000000000000000000000000000000000000
IV:                       0000000000040000
Plaintext:                0000000000000000000000000000000000
Ciphertext:               bcaf59ca0d7566b535653311ae0bbc2eb7d1bee9aa6299627be522f9bb0dfe1451
Reciphers for ciphertext: 3
Decipheredtext:           0000000000000000000000000000000000
RESULT CIPHER-DECIPHER: -----OK-----


Test: 46
Hash algorithm: 4
Symmetric key bit length: 192
IV bit length:            64
Plaintext bit length:     136
Symmetric key:            000000000000000000000000000000000000000000000000
IV:                       0000000000020000
Plaintext:                0000000000000000000000000000000000
Ciphertext:               4f997f2e23f08065af218428e5fde9b1a25284a4885f91c316e92f49d8fdad8005d7cef7415d087b3b29c24151cab5996336372d0b9a74172ca9facdaf53058ce7443c3aa8b328130bf1680b9eb53ae2fb
Reciphers for ciphertext: 3
Decipheredtext:           0000000000000000000000000000000000
RESULT CIPHER-DECIPHER: -----OK-----


Test: 47
Hash algorithm: 11
Symmetric key bit length: 192
IV bit length:            64
Plaintext bit length:     136
Symmetric key:            000000000000000000000000000000000000000000000000
IV:                       0000000000010000
Plaintext:                0000000000000000000000000000000000
Ciphertext:               2cd51c2cd3e9209c14172702c1c295466dbdc895a5410a6e8c2678defe837cd8b8
Reciphers for ciphertext: 3
Decipheredtext:           0000000000000000000000000000000000
RESULT CIPHER-DECIPHER: -----OK-----


Test: 48
Hash algorithm: 12
Symmetric key bit length: 192
IV bit length:            64
Plaintext bit length:     136
Symmetric key:            000000000000000000000000000000000000000000000000
IV:                       0000000000008000
Plaintext:                0000000000000000000000000000000000
Ciphertext:               5228d5b234e4dcc3d6595fd081c2b187d99d1df149755890877e2c18ec13282b19
Reciphers for ciphertext: 3
Decipheredtext:           0000000000000000000000000000000000
RESULT CIPHER-DECIPHER: -----OK-----


Test: 49
Hash algorithm: 2
Symmetric key bit length: 192
IV bit length:            64
Plaintext bit length:     136
Symmetric key:            000000000000000000000000000000000000000000000000
IV:                       0000000000004000
Plaintext:                0000000000000000000000000000000000
Ciphertext:               4b457d3c401bf5c118b86cbbc3a40fee5b41cd6c241212a96f1ceb2c51dcaf28771ff0b4f7b47ec1cad8506dc815aa677a
Reciphers for ciphertext: 3
Decipheredtext:           0000000000000000000000000000000000
RESULT CIPHER-DECIPHER: -----OK-----


Test: 50
Hash algorithm: 4
Symmetric key bit length: 192
IV bit length:            64
Plaintext bit length:     136
Symmetric key:            000000000000000000000000000000000000000000000000
IV:                       0000000000002000
Plaintext:                0000000000000000000000000000000000
Ciphertext:               c3655a9b0e21a5317c1cb9d493799b77bade78813d7240e6423a1274248b29f2c3cf36ab9eb7cbcb6c2f3679deaf37e197d114961c1e2e2eb28d750353e442ad5c94a83975f071255a6851bc07506d5c1f
Reciphers for ciphertext: 3
Decipheredtext:           0000000000000000000000000000000000
RESULT CIPHER-DECIPHER: -----OK-----


Test: 51
Hash algorithm: 3
Symmetric key bit length: 192
IV bit length:            64
Plaintext bit length:     136
Symmetric key:            000000000000000000000000000000000000000000000000
IV:                       0000000000001000
Plaintext:                0000000000000000000000000000000000
Ciphertext:               ab2b5ba2a2ce8bb8a48cfca89d8201a127011feb6293dd5bf09e507e039a1418bedd4c0255f96c113704f4bdcdd068ffe3f3bb812626ed62b1c8ec17dd0a61205d
Reciphers for ciphertext: 3
Decipheredtext:           0000000000000000000000000000000000
RESULT CIPHER-DECIPHER: -----OK-----


Test: 52
Hash algorithm: 9
Symmetric key bit length: 192
IV bit length:            64
Plaintext bit length:     136
Symmetric key:            000000000000000000000000000000000000000000000000
IV:                       0000000000000800
Plaintext:                0000000000000000000000000000000000
Ciphertext:               d20f6a999c27ca32de9969fb358e12f6d438f668576fb172342cdf255a84f873e57a14cdc69d71fbc2ce09074ef408e53b
Reciphers for ciphertext: 3
Decipheredtext:           0000000000000000000000000000000000
RESULT CIPHER-DECIPHER: -----OK-----


Test: 53
Hash algorithm: 10
Symmetric key bit length: 192
IV bit length:            64
Plaintext bit length:     136
Symmetric key:            000000000000000000000000000000000000000000000000
IV:                       0000000000000400
Plaintext:                0000000000000000000000000000000000
Ciphertext:               b826fd0a24db94a10227e93fef7651ee9cad3509e75a3a7c0fc9d6a1e883d080191fcf918d686f7fe00f308f7e170c99c3a7c803fac0a4e638
Reciphers for ciphertext: 3
Decipheredtext:           0000000000000000000000000000000000
RESULT CIPHER-DECIPHER: -----OK-----


Test: 54
Hash algorithm: 10
Symmetric key bit length: 192
IV bit length:            64
Plaintext bit length:     136
Symmetric key:            000000000000000000000000000000000000000000000000
IV:                       0000000000000200
Plaintext:                0000000000000000000000000000000000
Ciphertext:               c4ff125efb52cc8f8cff7f72bc7bb57f7ed1ece6b385b32421470e37a5d0dd6488fd4af8656dc5b271c2fac15b848b9c5485f2c445ed3e1e9a
Reciphers for ciphertext: 3
Decipheredtext:           0000000000000000000000000000000000
RESULT CIPHER-DECIPHER: -----OK-----


Test: 55
Hash algorithm: 7
Symmetric key bit length: 192
IV bit length:            64
Plaintext bit length:     136
Symmetric key:            000000000000000000000000000000000000000000000000
IV:                       0000000000000100
Plaintext:                0000000000000000000000000000000000
Ciphertext:               a350a3a4370bad422c992c5b6c1ecd5da4ce4113c458e7a98cfcdee6f1cfeb6522
Reciphers for ciphertext: 3
Decipheredtext:           0000000000000000000000000000000000
RESULT CIPHER-DECIPHER: -----OK-----


Test: 56
Hash algorithm: 4
Symmetric key bit length: 192
IV bit length:            64
Plaintext bit length:     136
Symmetric key:            000000000000000000000000000000000000000000000000
IV:                       0000000000000080
Plaintext:                0000000000000000000000000000000000
Ciphertext:               e02f7f4f996b8e5b931146d134ed8eeb37fd32a4e9e50acd28d51f8b212cbde75f4269fc12d16474f8fe213b92f5edeb4ba1146243ab6076c5976df46ad4e24c4431d6c3bd703fe4c1dcd035fb25189de8
Reciphers for ciphertext: 3
Decipheredtext:           0000000000000000000000000000000000
RESULT CIPHER-DECIPHER: -----OK-----


Test: 57
Hash algorithm: 1
Symmetric key bit length: 192
IV bit length:            64
Plaintext bit length:     136
Symmetric key:            000000000000000000000000000000000000000000000000
IV:                       0000000000000040
Plaintext:                0000000000000000000000000000000000
Ciphertext:               19bf1ab78b9ab07f86a3ebb7344fcc8bd3f011b12e92711f91c33f1ddc36173389925c9cb4dabab924a1d3fe4b
Reciphers for ciphertext: 3
Decipheredtext:           0000000000000000000000000000000000
RESULT CIPHER-DECIPHER: -----OK-----


Test: 58
Hash algorithm: 0
Symmetric key bit length: 192
IV bit length:            64
Plaintext bit length:     136
Symmetric key:            000000000000000000000000000000000000000000000000
IV:                       0000000000000020
Plaintext:                0000000000000000000000000000000000
Ciphertext:               c64f8a61411547d9cec62e895106b599872b6b6b4961e7bed960fe15f595f40685c7cd4662
Reciphers for ciphertext: 3
Decipheredtext:           0000000000000000000000000000000000
RESULT CIPHER-DECIPHER: -----OK-----


Test: 59
Hash algorithm: 6
Symmetric key bit length: 192
IV bit length:            64
Plaintext bit length:     136
Symmetric key:            000000000000000000000000000000000000000000000000
IV:                       0000000000000010
Plaintext:                0000000000000000000000000000000000
Ciphertext:               f7d4d3b7816f5a55f00b45ed9f3c09ba9fff3629f311613efc8eb87fadc566c25327a750e518377c4661f7c6f061663e7d
Reciphers for ciphertext: 3
Decipheredtext:           0000000000000000000000000000000000
RESULT CIPHER-DECIPHER: -----OK-----


Test: 60
Hash algorithm: 1
Symmetric key bit length: 192
IV bit length:            64
Plaintext bit length:     136
Symmetric key:            000000000000000000000000000000000000000000000000
IV:                       0000000000000008
Plaintext:                0000000000000000000000000000000000
Ciphertext:               0beda95f962c4827341a2ee138eb37f049e24302c68fc7e7c97186d88a3ab3c8f2081548dcc19346cea621bb6b
Reciphers for ciphertext: 3
Decipheredtext:           0000000000000000000000000000000000
RESULT CIPHER-DECIPHER: -----OK-----


Test: 61
Hash algorithm: 0
Symmetric key bit length: 192
IV bit length:            64
Plaintext bit length:     136
Symmetric key:            000000000000000000000000000000000000000000000000
IV:                       0000000000000004
Plaintext:                0000000000000000000000000000000000
Ciphertext:               4f63b4ab1adc8fd19f8e4575f0d48c4c3aa24755833a2e76d131b67e0934263f507acde6df
Reciphers for ciphertext: 3
Decipheredtext:           0000000000000000000000000000000000
RESULT CIPHER-DECIPHER: -----OK-----


Test: 62
Hash algorithm: 7
Symmetric key bit length: 192
IV bit length:            64
Plaintext bit length:     136
Symmetric key:            000000000000000000000000000000000000000000000000
IV:                       0000000000000002
Plaintext:                0000000000000000000000000000000000
Ciphertext:               f8d46a674dfdd7431d84e740df0f4584df95c5da072211d38dcdc32dea7cfaedfb
Reciphers for ciphertext: 3
Decipheredtext:           0000000000000000000000000000000000
RESULT CIPHER-DECIPHER: -----OK-----


Test: 63
Hash algorithm: 3
Symmetric key bit length: 192
IV bit length:            64
Plaintext bit length:     136
Symmetric key:            000000000000000000000000000000000000000000000000
IV:                       0000000000000001
Plaintext:                0000000000000000000000000000000000
Ciphertext:               fea033890a65da4e855de8a31b69aa81b2549483493b760a06bf816a081cffb39e486e88cfa14dad0a187fff3e61b8ffe000d443387ba996af5d1193f7f3193bc5
Reciphers for ciphertext: 3
Decipheredtext:           0000000000000000000000000000000000
RESULT CIPHER-DECIPHER: -----OK-----


Test: 64
Hash algorithm: 2
Symmetric key bit length: 192
IV bit length:            64
Plaintext bit length:     136
Symmetric key:            000000000000000000000000000000000000000000000000
IV:                       8000000000000000
Plaintext:                0000000000000000000000000000000000
Ciphertext:               738294149e5804eae276d5316a2ab1e8ae790a850ccc515844e62595db75219671ea604d2e2515fdee431f485adb5b479d
Reciphers for ciphertext: 3
Decipheredtext:           0000000000000000000000000000000000
RESULT CIPHER-DECIPHER: -----OK-----


Test: 65
Hash algorithm: 10
Symmetric key bit length: 192
IV bit length:            64
Plaintext bit length:     136
Symmetric key:            000000000000000000000000000000000000000000000000
IV:                       4000000000000000
Plaintext:                0000000000000000000000000000000000
Ciphertext:               8100adf158f1b78126e8099cab07df08b49413591c26105f2fed19414bc7a10eff37a33dcf17de8788112cb44295ea08e04dfabdb18cae2618
Reciphers for ciphertext: 3
Decipheredtext:           0000000000000000000000000000000000
RESULT CIPHER-DECIPHER: -----OK-----


Test: 66
Hash algorithm: 12
Symmetric key bit length: 192
IV bit length:            64
Plaintext bit length:     136
Symmetric key:            000000000000000000000000000000000000000000000000
IV:                       2000000000000000
Plaintext:                0000000000000000000000000000000000
Ciphertext:               3ce380e659cda665f2ca660dbd1f53bafdf3d6a41d1871ea215abf21312ff5c924
Reciphers for ciphertext: 3
Decipheredtext:           0000000000000000000000000000000000
RESULT CIPHER-DECIPHER: -----OK-----


Test: 67
Hash algorithm: 8
Symmetric key bit length: 192
IV bit length:            64
Plaintext bit length:     136
Symmetric key:            000000000000000000000000000000000000000000000000
IV:                       1000000000000000
Plaintext:                0000000000000000000000000000000000
Ciphertext:               1bcaa6880c71a9f7266e808cbf97a567bf07c544abb71dc79b78c89eaad5b830dd1a988a3d
Reciphers for ciphertext: 3
Decipheredtext:           0000000000000000000000000000000000
RESULT CIPHER-DECIPHER: -----OK-----


Test: 68
Hash algorithm: 0
Symmetric key bit length: 192
IV bit length:            64
Plaintext bit length:     136
Symmetric key:            000000000000000000000000000000000000000000000000
IV:                       0800000000000000
Plaintext:                0000000000000000000000000000000000
Ciphertext:               85cf0a82c61cbe357a9658660e8804114068ebebaae6ee4735d4ae631aca7ab70d0029d661
Reciphers for ciphertext: 3
Decipheredtext:           0000000000000000000000000000000000
RESULT CIPHER-DECIPHER: -----OK-----


Test: 69
Hash algorithm: 12
Symmetric key bit length: 192
IV bit length:            64
Plaintext bit length:     136
Symmetric key:            000000000000000000000000000000000000000000000000
IV:                       0400000000000000
Plaintext:                0000000000000000000000000000000000
Ciphertext:               63c309e956248401dc6d7de4cff0857dc3acf62d121798c84574183ad85d1a1fe3
Reciphers for ciphertext: 3
Decipheredtext:           0000000000000000000000000000000000
RESULT CIPHER-DECIPHER: -----OK-----


Test: 70
Hash algorithm: 1
Symmetric key bit length: 192
IV bit length:            64
Plaintext bit length:     136
Symmetric key:            000000000000000000000000000000000000000000000000
IV:                       0200000000000000
Plaintext:                0000000000000000000000000000000000
Ciphertext:               0ad310aa754f523f54ab89f49eddda2393e37dbb336ca4fdd111377f9f9c852521d2a223b0b1acf21723228b41
Reciphers for ciphertext: 3
Decipheredtext:           0000000000000000000000000000000000
RESULT CIPHER-DECIPHER: -----OK-----


Test: 71
Hash algorithm: 7
Symmetric key bit length: 192
IV bit length:            64
Plaintext bit length:     136
Symmetric key:            000000000000000000000000000000000000000000000000
IV:                       0100000000000000
Plaintext:                0000000000000000000000000000000000
Ciphertext:               d913796939b46df075e4df300adc62018db402c9095658693ea5a3159aa929ca7e
Reciphers for ciphertext: 3
Decipheredtext:           0000000000000000000000000000000000
RESULT CIPHER-DECIPHER: -----OK-----


Test: 72
Hash algorithm: 8
Symmetric key bit length: 192
IV bit length:            64
Plaintext bit length:     136
Symmetric key:            000000000000000000000000000000000000000000000000
IV:                       0080000000000000
Plaintext:                0000000000000000000000000000000000
Ciphertext:               f46b251bcee518d8cd196cedb643c94b39e864c738758976b493bf72cbdc6c5cf19c3811af
Reciphers for ciphertext: 3
Decipheredtext:           0000000000000000000000000000000000
RESULT CIPHER-DECIPHER: -----OK-----


Test: 73
Hash algorithm: 13
Symmetric key bit length: 192
IV bit length:            64
Plaintext bit length:     136
Symmetric key:            000000000000000000000000000000000000000000000000
IV:                       0040000000000000
Plaintext:                0000000000000000000000000000000000
Ciphertext:               db969357c5ccc86b55f914a2ad024ffbb1285e2ee17c138fe47783e66ccccaea5a
Reciphers for ciphertext: 3
Decipheredtext:           0000000000000000000000000000000000
RESULT CIPHER-DECIPHER: -----OK-----


Test: 74
Hash algorithm: 11
Symmetric key bit length: 192
IV bit length:            64
Plaintext bit length:     136
Symmetric key:            000000000000000000000000000000000000000000000000
IV:                       0020000000000000
Plaintext:                0000000000000000000000000000000000
Ciphertext:               3a03f6a648c0e2f162da483127cb8a9b31ab1e7f2fda23ace150b5b1cd6575c765
Reciphers for ciphertext: 3
Decipheredtext:           0000000000000000000000000000000000
RESULT CIPHER-DECIPHER: -----OK-----


Test: 75
Hash algorithm: 12
Symmetric key bit length: 192
IV bit length:            64
Plaintext bit length:     136
Symmetric key:            000000000000000000000000000000000000000000000000
IV:                       0010000000000000
Plaintext:                0000000000000000000000000000000000
Ciphertext:               14a15de9d6eff4751a2aa9928f58f558d2db9479129753b831b25feeae1db26fc6
Reciphers for ciphertext: 3
Decipheredtext:           0000000000000000000000000000000000
RESULT CIPHER-DECIPHER: -----OK-----


Test: 76
Hash algorithm: 8
Symmetric key bit length: 192
IV bit length:            64
Plaintext bit length:     136
Symmetric key:            000000000000000000000000000000000000000000000000
IV:                       0008000000000000
Plaintext:                0000000000000000000000000000000000
Ciphertext:               956da294e1327b42a24b4954ba4dc5358f896240b75a5e152efced5772d062508f2aaf7fe5
Reciphers for ciphertext: 3
Decipheredtext:           0000000000000000000000000000000000
RESULT CIPHER-DECIPHER: -----OK-----


Test: 77
Hash algorithm: 12
Symmetric key bit length: 192
IV bit length:            64
Plaintext bit length:     136
Symmetric key:            000000000000000000000000000000000000000000000000
IV:                       0004000000000000
Plaintext:                0000000000000000000000000000000000
Ciphertext:               413084eb203de80256546f2de3a736a3918e05a0106181a446fe212811714dac3d
Reciphers for ciphertext: 3
Decipheredtext:           0000000000000000000000000000000000
RESULT CIPHER-DECIPHER: -----OK-----


Test: 78
Hash algorithm: 3
Symmetric key bit length: 192
IV bit length:            64
Plaintext bit length:     136
Symmetric key:            000000000000000000000000000000000000000000000000
IV:                       0002000000000000
Plaintext:                0000000000000000000000000000000000
Ciphertext:               70cefb3eded2e5422a69d49954cbc8eb6cdafa4bfeefc1350a10b55632535dd1f496de1962a2505fbb9f7324ac737830868a66fbdaf8717fcedb396892d763878f
Reciphers for ciphertext: 3
Decipheredtext:           0000000000000000000000000000000000
RESULT CIPHER-DECIPHER: -----OK-----


Test: 79
Hash algorithm: 5
Symmetric key bit length: 192
IV bit length:            64
Plaintext bit length:     136
Symmetric key:            000000000000000000000000000000000000000000000000
IV:                       0001000000000000
Plaintext:                0000000000000000000000000000000000
Ciphertext:               32010c65497d940f89997bb691dc0f1a4a589410327fe1ec01a01400092b93ef41e48664f0c910ba72ac7827db
Reciphers for ciphertext: 3
Decipheredtext:           0000000000000000000000000000000000
RESULT CIPHER-DECIPHER: -----OK-----


Test: 80
Hash algorithm: 10
Symmetric key bit length: 192
IV bit length:            64
Plaintext bit length:     136
Symmetric key:            000000000000000000000000000000000000000000000000
IV:                       0000800000000000
Plaintext:                0000000000000000000000000000000000
Ciphertext:               f9feaba37f9573cf3cba623f825013a2e9eced5f4e01749b61f74b2ae8eef6c2556a576e27abf49385943d4c58fdc3104634360038a75bd5fa
Reciphers for ciphertext: 3
Decipheredtext:           0000000000000000000000000000000000
RESULT CIPHER-DECIPHER: -----OK-----


Test: 81
Hash algorithm: 12
Symmetric key bit length: 192
IV bit length:            64
Plaintext bit length:     136
Symmetric key:            000000000000000000000000000000000000000000000000
IV:                       0000400000000000
Plaintext:                0000000000000000000000000000000000
Ciphertext:               c6a3512b74718b1391111a9acf0c54a19a099675d035cdc75739645da65de6ce3f
Reciphers for ciphertext: 3
Decipheredtext:           0000000000000000000000000000000000
RESULT CIPHER-DECIPHER: -----OK-----


Test: 82
Hash algorithm: 2
Symmetric key bit length: 192
IV bit length:            64
Plaintext bit length:     136
Symmetric key:            000000000000000000000000000000000000000000000000
IV:                       0000200000000000
Plaintext:                0000000000000000000000000000000000
Ciphertext:               3c987ab04e923a492ce9138a0e49926ba536106ba81c9b66e728ba53601142b5f2e10263e27575fb9fa65c06fd1da802d3
Reciphers for ciphertext: 3
Decipheredtext:           0000000000000000000000000000000000
RESULT CIPHER-DECIPHER: -----OK-----


Test: 83
Hash algorithm: 4
Symmetric key bit length: 192
IV bit length:            64
Plaintext bit length:     136
Symmetric key:            000000000000000000000000000000000000000000000000
IV:                       0000100000000000
Plaintext:                0000000000000000000000000000000000
Ciphertext:               8dbe4c24f6436f82fd8a73c6577a14061f90a397828a222cf1bb84be364f2a7db26a5d712b8f28f87b96cf709234d62510a50a203b0818889e65222d9ca1f497f2d1f96f9d7d710573315eb9a320ae9616
Reciphers for ciphertext: 3
Decipheredtext:           0000000000000000000000000000000000
RESULT CIPHER-DECIPHER: -----OK-----


Test: 84
Hash algorithm: 9
Symmetric key bit length: 192
IV bit length:            64
Plaintext bit length:     136
Symmetric key:            000000000000000000000000000000000000000000000000
IV:                       0000080000000000
Plaintext:                0000000000000000000000000000000000
Ciphertext:               daf92a98cff4a956363462cf1eab9d32da300028563c621150c4722e6eafddfc217414f4db7d87c96aa50ba2a9d4ac54c4
Reciphers for ciphertext: 3
Decipheredtext:           0000000000000000000000000000000000
RESULT CIPHER-DECIPHER: -----OK-----


Test: 85
Hash algorithm: 10
Symmetric key bit length: 192
IV bit length:            64
Plaintext bit length:     136
Symmetric key:            000000000000000000000000000000000000000000000000
IV:                       0000040000000000
Plaintext:                0000000000000000000000000000000000
Ciphertext:               c24eca15f0132571dcc3a4c697cb72e2d7d75d3ef88ef2cddf1732ec11fb6da315542be246dbd87c5a757b21d4fd73f157db3dd73d76b74f0c
Reciphers for ciphertext: 3
Decipheredtext:           0000000000000000000000000000000000
RESULT CIPHER-DECIPHER: -----OK-----


Test: 86
Hash algorithm: 7
Symmetric key bit length: 192
IV bit length:            64
Plaintext bit length:     136
Symmetric key:            000000000000000000000000000000000000000000000000
IV:                       0000020000000000
Plaintext:                0000000000000000000000000000000000
Ciphertext:               339a2d60ce8f91a7fe67eef0ca4bf740375e8b9d00a16395692e20245a69be5f3f
Reciphers for ciphertext: 3
Decipheredtext:           0000000000000000000000000000000000
RESULT CIPHER-DECIPHER: -----OK-----


Test: 87
Hash algorithm: 5
Symmetric key bit length: 192
IV bit length:            64
Plaintext bit length:     136
Symmetric key:            000000000000000000000000000000000000000000000000
IV:                       0000010000000000
Plaintext:                0000000000000000000000000000000000
Ciphertext:               d10c26c30357a660a6ca30918982b2d0dcbb993a9435cbde6e8f474b2e33cd528b72137fa329eb4a617d7db917
Reciphers for ciphertext: 3
Decipheredtext:           0000000000000000000000000000000000
RESULT CIPHER-DECIPHER: -----OK-----


Test: 88
Hash algorithm: 4
Symmetric key bit length: 192
IV bit length:            64
Plaintext bit length:     136
Symmetric key:            000000000000000000000000000000000000000000000000
IV:                       0000008000000000
Plaintext:                0000000000000000000000000000000000
Ciphertext:               4af8ef2a570088b72d8e41f86df3e492b157e5348c2b61cbc46b808c0875a38d26c47bed15b33f47d8290101005461ebbcb984f2a78f79026d781bfd89b9bf90c253a07a16d1d45680543c68e7b0b60bcb
Reciphers for ciphertext: 3
Decipheredtext:           0000000000000000000000000000000000
RESULT CIPHER-DECIPHER: -----OK-----


Test: 89
Hash algorithm: 4
Symmetric key bit length: 192
IV bit length:            64
Plaintext bit length:     136
Symmetric key:            000000000000000000000000000000000000000000000000
IV:                       0000004000000000
Plaintext:                0000000000000000000000000000000000
Ciphertext:               aad60b4717cc315478688a46bde5e1dd8eb7cbd0e16bad72273e6647b6a5b58869fb6edc0c2aaf05777ae23d0c5abe54014813e7e0439068197997342c1c876b00736442feec4847d8b10a669c535dcc60
Reciphers for ciphertext: 3
Decipheredtext:           0000000000000000000000000000000000
RESULT CIPHER-DECIPHER: -----OK-----


Test: 90
Hash algorithm: 6
Symmetric key bit length: 192
IV bit length:            64
Plaintext bit length:     136
Symmetric key:            000000000000000000000000000000000000000000000000
IV:                       0000002000000000
Plaintext:                0000000000000000000000000000000000
Ciphertext:               5cabc5eb417cf66eb7d56e906c93e6278a54493fafd17292c7c96654d036c92dce32003a8316a76cb143d667d64b7ad6ca
Reciphers for ciphertext: 3
Decipheredtext:           0000000000000000000000000000000000
RESULT CIPHER-DECIPHER: -----OK-----


Test: 91
Hash algorithm: 6
Symmetric key bit length: 192
IV bit length:            64
Plaintext bit length:     136
Symmetric key:            000000000000000000000000000000000000000000000000
IV:                       0000001000000000
Plaintext:                0000000000000000000000000000000000
Ciphertext:               1a497ac77c983278fc6afc846665e9628a12ab8083ec9656d182d9c6c43c3f228b322cd11d4251f53eb955343ee121cf58
Reciphers for ciphertext: 3
Decipheredtext:           0000000000000000000000000000000000
RESULT CIPHER-DECIPHER: -----OK-----


Test: 92
Hash algorithm: 13
Symmetric key bit length: 192
IV bit length:            64
Plaintext bit length:     136
Symmetric key:            000000000000000000000000000000000000000000000000
IV:                       0000000800000000
Plaintext:                0000000000000000000000000000000000
Ciphertext:               dee133c8d9fb262e91011b81b41af8ca1d2d298e7e602461a1b37be94fd5d25d6b
Reciphers for ciphertext: 3
Decipheredtext:           0000000000000000000000000000000000
RESULT CIPHER-DECIPHER: -----OK-----


Test: 93
Hash algorithm: 1
Symmetric key bit length: 192
IV bit length:            64
Plaintext bit length:     136
Symmetric key:            000000000000000000000000000000000000000000000000
IV:                       0000000400000000
Plaintext:                0000000000000000000000000000000000
Ciphertext:               54031ec4dc210714fc05aa08600bba39d9bdadb55dc5caa8fab9995c636253453b988c02b666a365a9362129f4
Reciphers for ciphertext: 3
Decipheredtext:           0000000000000000000000000000000000
RESULT CIPHER-DECIPHER: -----OK-----


Test: 94
Hash algorithm: 10
Symmetric key bit length: 192
IV bit length:            64
Plaintext bit length:     136
Symmetric key:            000000000000000000000000000000000000000000000000
IV:                       0000000200000000
Plaintext:                0000000000000000000000000000000000
Ciphertext:               17bae85bc0b67e9886710c6d9df0d61bd802a91cb6be5796364d8044baf15607ec5b54718b90f541fa13e9d0295349e0255815b0df206af490
Reciphers for ciphertext: 3
Decipheredtext:           0000000000000000000000000000000000
RESULT CIPHER-DECIPHER: -----OK-----


Test: 95
Hash algorithm: 10
Symmetric key bit length: 192
IV bit length:            64
Plaintext bit length:     136
Symmetric key:            000000000000000000000000000000000000000000000000
IV:                       0000000100000000
Plaintext:                0000000000000000000000000000000000
Ciphertext:               b8e97ba920c5cb872c7791ae103ccd3c26adfa8f445e242329e786d9797c9a1ccba536f1900023d25e9e25692734019ca5b3143809a9753a0c
Reciphers for ciphertext: 3
Decipheredtext:           0000000000000000000000000000000000
RESULT CIPHER-DECIPHER: -----OK-----


Test: 96
Hash algorithm: 1
Symmetric key bit length: 192
IV bit length:            64
Plaintext bit length:     136
Symmetric key:            000000000000000000000000000000000000000000000000
IV:                       0000000080000000
Plaintext:                0000000000000000000000000000000000
Ciphertext:               87dac436a7648ca9f250e57a43cd3bedfe6e746fafbe8f2347b7cc13114195c4efbf8e6fa21367707fb7d96132
Reciphers for ciphertext: 3
Decipheredtext:           0000000000000000000000000000000000
RESULT CIPHER-DECIPHER: -----OK-----


Test: 97
Hash algorithm: 5
Symmetric key bit length: 192
IV bit length:            64
Plaintext bit length:     136
Symmetric key:            000000000000000000000000000000000000000000000000
IV:                       0000000040000000
Plaintext:                0000000000000000000000000000000000
Ciphertext:               94a51d28cea82698f6c2f8c6ec37760d6bfe30017ff8345e96df4f837956789656c5b1587c33b5286efdbcbf01
Reciphers for ciphertext: 3
Decipheredtext:           0000000000000000000000000000000000
RESULT CIPHER-DECIPHER: -----OK-----


Test: 98
Hash algorithm: 2
Symmetric key bit length: 192
IV bit length:            64
Plaintext bit length:     136
Symmetric key:            000000000000000000000000000000000000000000000000
IV:                       0000000020000000
Plaintext:                0000000000000000000000000000000000
Ciphertext:               8ef26365228470949f50b7f39da1071ad5847a727d708d2c3a9b03f71982aa208391736916a1cf19c564a64d36abc58461
Reciphers for ciphertext: 3
Decipheredtext:           0000000000000000000000000000000000
RESULT CIPHER-DECIPHER: -----OK-----


Test: 99
Hash algorithm: 9
Symmetric key bit length: 192
IV bit length:            64
Plaintext bit length:     136
Symmetric key:            000000000000000000000000000000000000000000000000
IV:                       0000000010000000
Plaintext:                0000000000000000000000000000000000
Ciphertext:               97b4845a7eaea5311ff6087da256e701017d4d86948d381d37edb044dc13208612af92d0aa8ca396447c67c8843accea2f
Reciphers for ciphertext: 3
Decipheredtext:           0000000000000000000000000000000000
RESULT CIPHER-DECIPHER: -----OK-----


Test: 100
Hash algorithm: 4
Symmetric key bit length: 192
IV bit length:            64
Plaintext bit length:     136
Symmetric key:            000000000000000000000000000000000000000000000000
IV:                       0000000008000000
Plaintext:                0000000000000000000000000000000000
Ciphertext:               26fcc98c4eb24742c8d3b37c65d489a7813be1122a32d304318edd7e8c7d84e013f45857b29ed925619738b313e95e6bcd2fbf6a3fafc212b983b8f4c9e1bb67979234dbc38206c4b9cd0f9fb6b8dd96db
Reciphers for ciphertext: 3
Decipheredtext:           0000000000000000000000000000000000
RESULT CIPHER-DECIPHER: -----OK-----


Test: 101
Hash algorithm: 8
Symmetric key bit length: 192
IV bit length:            64
Plaintext bit length:     136
Symmetric key:            000000000000000000000000000000000000000000000000
IV:                       0000000004000000
Plaintext:                0000000000000000000000000000000000
Ciphertext:               7ee54b603f7c43371dd4a7cfe51a8a265b62eaa94384102d5b4372b9e98f351f9cfe4feab7
Reciphers for ciphertext: 3
Decipheredtext:           0000000000000000000000000000000000
RESULT CIPHER-DECIPHER: -----OK-----


Test: 102
Hash algorithm: 5
Symmetric key bit length: 192
IV bit length:            64
Plaintext bit length:     136
Symmetric key:            000000000000000000000000000000000000000000000000
IV:                       0000000002000000
Plaintext:                0000000000000000000000000000000000
Ciphertext:               b0d390386dc314c7bf7a4888d3c39ea341da468c6f5b5f6cc996f73337698c7ef8eff0afff9e539ab2bbe84541
Reciphers for ciphertext: 3
Decipheredtext:           0000000000000000000000000000000000
RESULT CIPHER-DECIPHER: -----OK-----


Test: 103
Hash algorithm: 11
Symmetric key bit length: 192
IV bit length:            64
Plaintext bit length:     136
Symmetric key:            000000000000000000000000000000000000000000000000
IV:                       0000000001000000
Plaintext:                0000000000000000000000000000000000
Ciphertext:               17157bedd61b367a1d25c0024d6f3ce2098608f26444f8786a2f4a39fe0fd1711c
Reciphers for ciphertext: 3
Decipheredtext:           0000000000000000000000000000000000
RESULT CIPHER-DECIPHER: -----OK-----


Test: 104
Hash algorithm: 10
Symmetric key bit length: 192
IV bit length:            64
Plaintext bit length:     136
Symmetric key:            000000000000000000000000000000000000000000000000
IV:                       0000000000800000
Plaintext:                0000000000000000000000000000000000
Ciphertext:               7c5c67f18cf1e154265382293289fb3fc2694f931cf21009faeda2cafe5e2f2ac841ef74a9c9fc682602f41421ec0560e4bf8b275afbc143bc
Reciphers for ciphertext: 3
Decipheredtext:           0000000000000000000000000000000000
RESULT CIPHER-DECIPHER: -----OK-----


Test: 105
Hash algorithm: 2
Symmetric key bit length: 192
IV bit length:            64
Plaintext bit length:     136
Symmetric key:            000000000000000000000000000000000000000000000000
IV:                       0000000000400000
Plaintext:                0000000000000000000000000000000000
Ciphertext:               85cbdb2eb9ac64f7e0640d2ccd4cd09c698f43ca36eba53859e4374dc6d247f7052d2de51cea568b6e9111b185df320cd5
Reciphers for ciphertext: 3
Decipheredtext:           0000000000000000000000000000000000
RESULT CIPHER-DECIPHER: -----OK-----


Test: 106
Hash algorithm: 6
Symmetric key bit length: 192
IV bit length:            64
Plaintext bit length:     136
Symmetric key:            000000000000000000000000000000000000000000000000
IV:                       0000000000200000
Plaintext:                0000000000000000000000000000000000
Ciphertext:               25a46815db91e50d68c06ca5fb8af82dab2d4692514b9f81a4167356e5a1d033c41313897d59b3bf15d22ebea92011c082
Reciphers for ciphertext: 3
Decipheredtext:           0000000000000000000000000000000000
RESULT CIPHER-DECIPHER: -----OK-----


Test: 107
Hash algorithm: 7
Symmetric key bit length: 192
IV bit length:            64
Plaintext bit length:     136
Symmetric key:            000000000000000000000000000000000000000000000000
IV:                       0000000000100000
Plaintext:                0000000000000000000000000000000000
Ciphertext:               7ff5b01c1fdc65fa9c927774d94f36bb6b12e4007c703061344cd5bdde7aba9ec4
Reciphers for ciphertext: 3
Decipheredtext:           0000000000000000000000000000000000
RESULT CIPHER-DECIPHER: -----OK-----


Test: 108
Hash algorithm: 11
Symmetric key bit length: 192
IV bit length:            64
Plaintext bit length:     136
Symmetric key:            000000000000000000000000000000000000000000000000
IV:                       0000000000080000
Plaintext:                0000000000000000000000000000000000
Ciphertext:               7b5f4a084bf83f87fc75cf8a1afc1e62f8ea42c381d91b7197ce1a36765842539c
Reciphers for ciphertext: 3
Decipheredtext:           0000000000000000000000000000000000
RESULT CIPHER-DECIPHER: -----OK-----


Test: 109
Hash algorithm: 11
Symmetric key bit length: 192
IV bit length:            64
Plaintext bit length:     136
Symmetric key:            000000000000000000000000000000000000000000000000
IV:                       0000000000040000
Plaintext:                0000000000000000000000000000000000
Ciphertext:               bcaf59ca0d7566b535653311ae0bbc2eb72db2d0439f9628a5070acaedecb5f1d0
Reciphers for ciphertext: 3
Decipheredtext:           0000000000000000000000000000000000
RESULT CIPHER-DECIPHER: -----OK-----


Test: 110
Hash algorithm: 7
Symmetric key bit length: 192
IV bit length:            64
Plaintext bit length:     136
Symmetric key:            000000000000000000000000000000000000000000000000
IV:                       0000000000020000
Plaintext:                0000000000000000000000000000000000
Ciphertext:               4f997f2e23f08065af218428e5fde9b1a22288cf4e4c1c84ab7f664e82460841ce
Reciphers for ciphertext: 3
Decipheredtext:           0000000000000000000000000000000000
RESULT CIPHER-DECIPHER: -----OK-----


Test: 111
Hash algorithm: 2
Symmetric key bit length: 192
IV bit length:            64
Plaintext bit length:     136
Symmetric key:            000000000000000000000000000000000000000000000000
IV:                       0000000000010000
Plaintext:                0000000000000000000000000000000000
Ciphertext:               2cd51c2cd3e9209c14172702c1c295466d265d0d3481e07c32104467e8dec9b2df29c83db2a8068705d3576f5ae9ca2389
Reciphers for ciphertext: 3
Decipheredtext:           0000000000000000000000000000000000
RESULT CIPHER-DECIPHER: -----OK-----


Test: 112
Hash algorithm: 4
Symmetric key bit length: 192
IV bit length:            64
Plaintext bit length:     136
Symmetric key:            000000000000000000000000000000000000000000000000
IV:                       0000000000008000
Plaintext:                0000000000000000000000000000000000
Ciphertext:               5228d5b234e4dcc3d6595fd081c2b187d94f350e1448859fb0905792209992d833acb67e920d55fb99aad34e1f7c44a770d65955cc791860388b493d80ea79f83e49a3f58e418107be67914215591e9975
Reciphers for ciphertext: 3
Decipheredtext:           0000000000000000000000000000000000
RESULT CIPHER-DECIPHER: -----OK-----


Test: 113
Hash algorithm: 8
Symmetric key bit length: 192
IV bit length:            64
Plaintext bit length:     136
Symmetric key:            000000000000000000000000000000000000000000000000
IV:                       0000000000004000
Plaintext:                0000000000000000000000000000000000
Ciphertext:               4b457d3c401bf5c118b86cbbc3a40fee5b574a9f1ffb779bad461e729da98b9a54fec0700f
Reciphers for ciphertext: 3
Decipheredtext:           0000000000000000000000000000000000
RESULT CIPHER-DECIPHER: -----OK-----


Test: 114
Hash algorithm: 11
Symmetric key bit length: 192
IV bit length:            64
Plaintext bit length:     136
Symmetric key:            000000000000000000000000000000000000000000000000
IV:                       0000000000002000
Plaintext:                0000000000000000000000000000000000
Ciphertext:               c3655a9b0e21a5317c1cb9d493799b77ba5278d3129cc2eb214e734028d1c7d689
Reciphers for ciphertext: 3
Decipheredtext:           0000000000000000000000000000000000
RESULT CIPHER-DECIPHER: -----OK-----


Test: 115
Hash algorithm: 5
Symmetric key bit length: 192
IV bit length:            64
Plaintext bit length:     136
Symmetric key:            000000000000000000000000000000000000000000000000
IV:                       0000000000001000
Plaintext:                0000000000000000000000000000000000
Ciphertext:               ab2b5ba2a2ce8bb8a48cfca89d8201a127c1be47f59452f3b68d01871727cde1fa89d31a50714703459ea463c1
Reciphers for ciphertext: 3
Decipheredtext:           0000000000000000000000000000000000
RESULT CIPHER-DECIPHER: -----OK-----


Test: 116
Hash algorithm: 1
Symmetric key bit length: 192
IV bit length:            64
Plaintext bit length:     136
Symmetric key:            000000000000000000000000000000000000000000000000
IV:                       0000000000000800
Plaintext:                0000000000000000000000000000000000
Ciphertext:               d20f6a999c27ca32de9969fb358e12f6d43ba1c10085cc65dc9b059f9037d6edf4950feb567d980c5239999aa3
Reciphers for ciphertext: 3
Decipheredtext:           0000000000000000000000000000000000
RESULT CIPHER-DECIPHER: -----OK-----


Test: 117
Hash algorithm: 10
Symmetric key bit length: 192
IV bit length:            64
Plaintext bit length:     136
Symmetric key:            000000000000000000000000000000000000000000000000
IV:                       0000000000000400
Plaintext:                0000000000000000000000000000000000
Ciphertext:               b826fd0a24db94a10227e93fef7651ee9cad3509e75a3a7c0fc9d6a1e883d080191fcf918d686f7fe00f308f7e170c99c3a7c803fac0a4e638
Reciphers for ciphertext: 3
Decipheredtext:           0000000000000000000000000000000000
RESULT CIPHER-DECIPHER: -----OK-----


Test: 118
Hash algorithm: 2
Symmetric key bit length: 192
IV bit length:            64
Plaintext bit length:     136
Symmetric key:            000000000000000000000000000000000000000000000000
IV:                       0000000000000200
Plaintext:                0000000000000000000000000000000000
Ciphertext:               c4ff125efb52cc8f8cff7f72bc7bb57f7ece770346a95b902188ac3f98a37092e63a358dfebf854dc96343014ad0e6f3df
Reciphers for ciphertext: 3
Decipheredtext:           0000000000000000000000000000000000
RESULT CIPHER-DECIPHER: -----OK-----


Test: 119
Hash algorithm: 9
Symmetric key bit length: 192
IV bit length:            64
Plaintext bit length:     136
Symmetric key:            000000000000000000000000000000000000000000000000
IV:                       0000000000000100
Plaintext:                0000000000000000000000000000000000
Ciphertext:               a350a3a4370bad422c992c5b6c1ecd5da449a9a16ac49d1544dedf60fadd68ac4e0a4b40df761c472028fc61dcb2e14685
Reciphers for ciphertext: 3
Decipheredtext:           0000000000000000000000000000000000
RESULT CIPHER-DECIPHER: -----OK-----


Test: 120
Hash algorithm: 3
Symmetric key bit length: 192
IV bit length:            64
Plaintext bit length:     136
Symmetric key:            000000000000000000000000000000000000000000000000
IV:                       0000000000000080
Plaintext:                0000000000000000000000000000000000
Ciphertext:               e02f7f4f996b8e5b931146d134ed8eeb374a1bcf8fa8785e13a9cdc47a337b97f4cd4b6e58d27599eaa063862b5ae84e316338af25752d6a50f103e88e20119108
Reciphers for ciphertext: 3
Decipheredtext:           0000000000000000000000000000000000
RESULT CIPHER-DECIPHER: -----OK-----


Test: 121
Hash algorithm: 13
Symmetric key bit length: 192
IV bit length:            64
Plaintext bit length:     136
Symmetric key:            000000000000000000000000000000000000000000000000
IV:                       0000000000000040
Plaintext:                0000000000000000000000000000000000
Ciphertext:               19bf1ab78b9ab07f86a3ebb7344fcc8bd3ea77a7013245f7f0a4d919795587692a
Reciphers for ciphertext: 3
Decipheredtext:           0000000000000000000000000000000000
RESULT CIPHER-DECIPHER: -----OK-----


Test: 122
Hash algorithm: 7
Symmetric key bit length: 192
IV bit length:            64
Plaintext bit length:     136
Symmetric key:            000000000000000000000000000000000000000000000000
IV:                       0000000000000020
Plaintext:                0000000000000000000000000000000000
Ciphertext:               c64f8a61411547d9cec62e895106b59987ab5e3a012ef943171e81e423f2f31de6
Reciphers for ciphertext: 3
Decipheredtext:           0000000000000000000000000000000000
RESULT CIPHER-DECIPHER: -----OK-----


Test: 123
Hash algorithm: 13
Symmetric key bit length: 192
IV bit length:            64
Plaintext bit length:     136
Symmetric key:            000000000000000000000000000000000000000000000000
IV:                       0000000000000010
Plaintext:                0000000000000000000000000000000000
Ciphertext:               f7d4d3b7816f5a55f00b45ed9f3c09ba9f041c6e0138b01ddad271b723fef4ac1b
Reciphers for ciphertext: 3
Decipheredtext:           0000000000000000000000000000000000
RESULT CIPHER-DECIPHER: -----OK-----


Test: 124
Hash algorithm: 3
Symmetric key bit length: 192
IV bit length:            64
Plaintext bit length:     136
Symmetric key:            000000000000000000000000000000000000000000000000
IV:                       0000000000000008
Plaintext:                0000000000000000000000000000000000
Ciphertext:               0beda95f962c4827341a2ee138eb37f049a1d9199fa73f986f0ec6ac4a3f7d2eefb3b053b9fa478400ed722d8775f579dee88333d2837984a18f5cd3d90103acb9
Reciphers for ciphertext: 3
Decipheredtext:           0000000000000000000000000000000000
RESULT CIPHER-DECIPHER: -----OK-----


Test: 125
Hash algorithm: 13
Symmetric key bit length: 192
IV bit length:            64
Plaintext bit length:     136
Symmetric key:            000000000000000000000000000000000000000000000000
IV:                       0000000000000004
Plaintext:                0000000000000000000000000000000000
Ciphertext:               4f63b4ab1adc8fd19f8e4575f0d48c4c3abcab091da303c85ebdf4b7bb911c29ed
Reciphers for ciphertext: 3
Decipheredtext:           0000000000000000000000000000000000
RESULT CIPHER-DECIPHER: -----OK-----


Test: 126
Hash algorithm: 12
Symmetric key bit length: 192
IV bit length:            64
Plaintext bit length:     136
Symmetric key:            000000000000000000000000000000000000000000000000
IV:                       0000000000000002
Plaintext:                0000000000000000000000000000000000
Ciphertext:               f8d46a674dfdd7431d84e740df0f4584df37e14e9c0c419b07b5f1a07c4de5df1a
Reciphers for ciphertext: 3
Decipheredtext:           0000000000000000000000000000000000
RESULT CIPHER-DECIPHER: -----OK-----


Test: 127
Hash algorithm: 8
Symmetric key bit length: 192
IV bit length:            64
Plaintext bit length:     136
Symmetric key:            000000000000000000000000000000000000000000000000
IV:                       0000000000000001
Plaintext:                0000000000000000000000000000000000
Ciphertext:               fea033890a65da4e855de8a31b69aa81b2e2afd1aab109b422dbfbf68571463f3b174cffb2
Reciphers for ciphertext: 3
Decipheredtext:           0000000000000000000000000000000000
RESULT CIPHER-DECIPHER: -----OK-----


 DATA SHA1 (hexadecimal): e3b7e1accb384153b0cc9a30a07b6c5a981a6b6c

