
DiceLock 9.0.0.1

 TEST COMPONENTS:
 ----------------
 DiceLock:           DiceLockIVDigested class
 Operation Mode:     OFB_Mode class
 Block Cipher:       Serpent256 class
 Hash algorithms:     0 - Sha1 class
                      1 - Sha224 class
                      2 - Sha256 class
                      3 - Sha384 class
                      4 - Sha512 class
                      5 - Sha512_224 class
                      6 - Sha512_256 class
                      7 - Ripemd128 class
                      8 - Ripemd160 class
                      9 - Ripemd256 class
                     10 - Ripemd320 class
                     11 - MD2 class
                     12 - MD4 class
                     13 - MD5 class
 Key Modifier:       IncreaseKeyModifier_6_0_0_1 class
 Random tests:       RandomTestSuite class
                     FrequencyTest class
                     BlockFrequencyTest class
                     CumulativeSumForwardTest class
                     LongestRunOfOnesTest class
                     RunsTest class
 Random alpha:       0.001

 VECTOR TEST: Test vector 5 - IV all byte value 0xXX


##### INDIVIDUAL TESTS #####

Number tests: 128


Test: 0
Hash algorithm: 0
Symmetric key bit length: 256
IV bit length:            128
Plaintext bit length:     128
Symmetric key:            0000000000000000000000000000000000000000000000000000000000000000
IV:                       00000000000000000000000000000000
Plaintext:                00000000000000000000000000000000
Ciphertext:               8910494504181950f98dd998a82b67496839bb39551ba50c3dc614680975714424ddde31
Reciphers for ciphertext: 0
Decipheredtext:           00000000000000000000000000000000
RESULT CIPHER-DECIPHER: -----OK-----


Test: 1
Hash algorithm: 4
Symmetric key bit length: 256
IV bit length:            128
Plaintext bit length:     128
Symmetric key:            0000000000000000000000000000000000000000000000000000000000000000
IV:                       01010101010101010101010101010101
Plaintext:                00000000000000000000000000000000
Ciphertext:               b5cf0e3514094b683c3a23a455b0438bbea3b4fd2cd6ac9c429b9ea9a5be81094bed4f9d29d125a6f061c686977b9f90f2086290be730baa2d9ce5ca46fc4eab41b49a7c81ad9f7762156cb698b54243
Reciphers for ciphertext: 0
Decipheredtext:           00000000000000000000000000000000
RESULT CIPHER-DECIPHER: -----OK-----


Test: 2
Hash algorithm: 2
Symmetric key bit length: 256
IV bit length:            128
Plaintext bit length:     128
Symmetric key:            0000000000000000000000000000000000000000000000000000000000000000
IV:                       02020202020202020202020202020202
Plaintext:                00000000000000000000000000000000
Ciphertext:               e54c8aca6e60b036735cebc0b3cd2ac8d20b823599112de3e4c223b566a1f8e075026a1734c103c1f97d5def08380885
Reciphers for ciphertext: 0
Decipheredtext:           00000000000000000000000000000000
RESULT CIPHER-DECIPHER: -----OK-----


Test: 3
Hash algorithm: 7
Symmetric key bit length: 256
IV bit length:            128
Plaintext bit length:     128
Symmetric key:            0000000000000000000000000000000000000000000000000000000000000000
IV:                       03030303030303030303030303030303
Plaintext:                00000000000000000000000000000000
Ciphertext:               02dee59e30c671f7224f9ea1c937131c761dd6f74c874c781b436f80ed709fdf
Reciphers for ciphertext: 0
Decipheredtext:           00000000000000000000000000000000
RESULT CIPHER-DECIPHER: -----OK-----


Test: 4
Hash algorithm: 6
Symmetric key bit length: 256
IV bit length:            128
Plaintext bit length:     128
Symmetric key:            0000000000000000000000000000000000000000000000000000000000000000
IV:                       04040404040404040404040404040404
Plaintext:                00000000000000000000000000000000
Ciphertext:               91e79dc262727470b45d3865a2f5dccc75fb0ba2d23560bd4379a76a74131999cc650b68d0227f06779b9b2e0d977e3e
Reciphers for ciphertext: 0
Decipheredtext:           00000000000000000000000000000000
RESULT CIPHER-DECIPHER: -----OK-----


Test: 5
Hash algorithm: 2
Symmetric key bit length: 256
IV bit length:            128
Plaintext bit length:     128
Symmetric key:            0000000000000000000000000000000000000000000000000000000000000000
IV:                       05050505050505050505050505050505
Plaintext:                00000000000000000000000000000000
Ciphertext:               945176245e431310176001db764783a8a3167edba9328ec580fec9aea32b5180b7b736f61df78be0d00ba7eeccf40230
Reciphers for ciphertext: 0
Decipheredtext:           00000000000000000000000000000000
RESULT CIPHER-DECIPHER: -----OK-----


Test: 6
Hash algorithm: 2
Symmetric key bit length: 256
IV bit length:            128
Plaintext bit length:     128
Symmetric key:            0000000000000000000000000000000000000000000000000000000000000000
IV:                       06060606060606060606060606060606
Plaintext:                00000000000000000000000000000000
Ciphertext:               b075cd937c479ad18e8b70c99376687c8732c56c8b3607041915b8bc461aba54aa86b548ad39705b5b0941696fa2c8d4
Reciphers for ciphertext: 0
Decipheredtext:           00000000000000000000000000000000
RESULT CIPHER-DECIPHER: -----OK-----


Test: 7
Hash algorithm: 13
Symmetric key bit length: 256
IV bit length:            128
Plaintext bit length:     128
Symmetric key:            0000000000000000000000000000000000000000000000000000000000000000
IV:                       07070707070707070707070707070707
Plaintext:                00000000000000000000000000000000
Ciphertext:               d0be6dfa69c33543af632d58acadbe509a597ecc8d88ccfcd6b158768fe5a6f5
Reciphers for ciphertext: 0
Decipheredtext:           00000000000000000000000000000000
RESULT CIPHER-DECIPHER: -----OK-----


Test: 8
Hash algorithm: 4
Symmetric key bit length: 256
IV bit length:            128
Plaintext bit length:     128
Symmetric key:            0000000000000000000000000000000000000000000000000000000000000000
IV:                       08080808080808080808080808080808
Plaintext:                00000000000000000000000000000000
Ciphertext:               af18a86bb10355b6891e859117d3ff55a47412a389dcb242f7bf389ce7dd3dd7d2fd3d077c4d438d1cf4995d434b88d8b82fadea064e57fbfc4ae038b959fc2abb390abd218cd2563ff599e16a0df3f8
Reciphers for ciphertext: 0
Decipheredtext:           00000000000000000000000000000000
RESULT CIPHER-DECIPHER: -----OK-----


Test: 9
Hash algorithm: 11
Symmetric key bit length: 256
IV bit length:            128
Plaintext bit length:     128
Symmetric key:            0000000000000000000000000000000000000000000000000000000000000000
IV:                       09090909090909090909090909090909
Plaintext:                00000000000000000000000000000000
Ciphertext:               98cca7067f5e028f615f55c25a3b7282a6fe596a66cb224fab105b4e72d45504
Reciphers for ciphertext: 0
Decipheredtext:           00000000000000000000000000000000
RESULT CIPHER-DECIPHER: -----OK-----


Test: 10
Hash algorithm: 6
Symmetric key bit length: 256
IV bit length:            128
Plaintext bit length:     128
Symmetric key:            0000000000000000000000000000000000000000000000000000000000000000
IV:                       0a0a0a0a0a0a0a0a0a0a0a0a0a0a0a0a
Plaintext:                00000000000000000000000000000000
Ciphertext:               3bb29125fd1dc4b1b3d4b554d5c48c1edfae07454d5ad07c44f02a5b0322494b5c441c607b04b6af4dfa29fa7f2ff59b
Reciphers for ciphertext: 0
Decipheredtext:           00000000000000000000000000000000
RESULT CIPHER-DECIPHER: -----OK-----


Test: 11
Hash algorithm: 3
Symmetric key bit length: 256
IV bit length:            128
Plaintext bit length:     128
Symmetric key:            0000000000000000000000000000000000000000000000000000000000000000
IV:                       0b0b0b0b0b0b0b0b0b0b0b0b0b0b0b0b
Plaintext:                00000000000000000000000000000000
Ciphertext:               54bb014441aa35cf4763e1b01faa172efafb64d9e0b309118fbca6fb419c564482c212e386ce55c164b929dddb575ba990f36732ddce94fc80dd5cf01b9cfd58
Reciphers for ciphertext: 0
Decipheredtext:           00000000000000000000000000000000
RESULT CIPHER-DECIPHER: -----OK-----


Test: 12
Hash algorithm: 2
Symmetric key bit length: 256
IV bit length:            128
Plaintext bit length:     128
Symmetric key:            0000000000000000000000000000000000000000000000000000000000000000
IV:                       0c0c0c0c0c0c0c0c0c0c0c0c0c0c0c0c
Plaintext:                00000000000000000000000000000000
Ciphertext:               e866d3e02875ff871d33e106b8011c7adf21db1fdf0462528aad29736d6dce52b4fe8f8c274b1f70bcbe6c63f634c1a7
Reciphers for ciphertext: 0
Decipheredtext:           00000000000000000000000000000000
RESULT CIPHER-DECIPHER: -----OK-----


Test: 13
Hash algorithm: 1
Symmetric key bit length: 256
IV bit length:            128
Plaintext bit length:     128
Symmetric key:            0000000000000000000000000000000000000000000000000000000000000000
IV:                       0d0d0d0d0d0d0d0d0d0d0d0d0d0d0d0d
Plaintext:                00000000000000000000000000000000
Ciphertext:               6f56868c3081760ccf8f7f41c88ed5509ed33bb5ae9a139a8d0953a1916cd7f1b4491faa2500bffa9c139184
Reciphers for ciphertext: 0
Decipheredtext:           00000000000000000000000000000000
RESULT CIPHER-DECIPHER: -----OK-----


Test: 14
Hash algorithm: 9
Symmetric key bit length: 256
IV bit length:            128
Plaintext bit length:     128
Symmetric key:            0000000000000000000000000000000000000000000000000000000000000000
IV:                       0e0e0e0e0e0e0e0e0e0e0e0e0e0e0e0e
Plaintext:                00000000000000000000000000000000
Ciphertext:               401c45e4d4440db435633a8127741b8986edb4a68b072009872d3ad6bdfff5359821e4b215b98176bae467256c9c93eb
Reciphers for ciphertext: 0
Decipheredtext:           00000000000000000000000000000000
RESULT CIPHER-DECIPHER: -----OK-----


Test: 15
Hash algorithm: 13
Symmetric key bit length: 256
IV bit length:            128
Plaintext bit length:     128
Symmetric key:            0000000000000000000000000000000000000000000000000000000000000000
IV:                       0f0f0f0f0f0f0f0f0f0f0f0f0f0f0f0f
Plaintext:                00000000000000000000000000000000
Ciphertext:               bc187a17afa1e2d9e9c841986219105df6ff69214bea1b66901a34b6415108f8
Reciphers for ciphertext: 0
Decipheredtext:           00000000000000000000000000000000
RESULT CIPHER-DECIPHER: -----OK-----


Test: 16
Hash algorithm: 9
Symmetric key bit length: 256
IV bit length:            128
Plaintext bit length:     128
Symmetric key:            0000000000000000000000000000000000000000000000000000000000000000
IV:                       10101010101010101010101010101010
Plaintext:                00000000000000000000000000000000
Ciphertext:               0c648d3f6758e3603ab71bb07d663b8bca957c7d381bcedd88f91be7e7edd537cf7c7e5bc6b028305ca748e88c03dc99
Reciphers for ciphertext: 0
Decipheredtext:           00000000000000000000000000000000
RESULT CIPHER-DECIPHER: -----OK-----


Test: 17
Hash algorithm: 8
Symmetric key bit length: 256
IV bit length:            128
Plaintext bit length:     128
Symmetric key:            0000000000000000000000000000000000000000000000000000000000000000
IV:                       11111111111111111111111111111111
Plaintext:                00000000000000000000000000000000
Ciphertext:               147c0f0b6b28b7f2451f9aeb6b616898e60a03822352fc029160f627c3b7e18d1c96d6c9
Reciphers for ciphertext: 0
Decipheredtext:           00000000000000000000000000000000
RESULT CIPHER-DECIPHER: -----OK-----


Test: 18
Hash algorithm: 11
Symmetric key bit length: 256
IV bit length:            128
Plaintext bit length:     128
Symmetric key:            0000000000000000000000000000000000000000000000000000000000000000
IV:                       12121212121212121212121212121212
Plaintext:                00000000000000000000000000000000
Ciphertext:               fb58bfc422ce9ad1a2de6202bae74a7bc56a41a83b5bba1168916c8e92086dfd
Reciphers for ciphertext: 0
Decipheredtext:           00000000000000000000000000000000
RESULT CIPHER-DECIPHER: -----OK-----


Test: 19
Hash algorithm: 5
Symmetric key bit length: 256
IV bit length:            128
Plaintext bit length:     128
Symmetric key:            0000000000000000000000000000000000000000000000000000000000000000
IV:                       13131313131313131313131313131313
Plaintext:                00000000000000000000000000000000
Ciphertext:               e4447169f8ee27ac4ea32a32a8303364bd9a37ed451127ea58eb9c31552a5bc0ea351d23fa37cc9f683e8a53
Reciphers for ciphertext: 0
Decipheredtext:           00000000000000000000000000000000
RESULT CIPHER-DECIPHER: -----OK-----


Test: 20
Hash algorithm: 12
Symmetric key bit length: 256
IV bit length:            128
Plaintext bit length:     128
Symmetric key:            0000000000000000000000000000000000000000000000000000000000000000
IV:                       14141414141414141414141414141414
Plaintext:                00000000000000000000000000000000
Ciphertext:               8c3f5a9f2e096cbd590664313342b66ac44365c1050406c46b48a98faf57a005
Reciphers for ciphertext: 0
Decipheredtext:           00000000000000000000000000000000
RESULT CIPHER-DECIPHER: -----OK-----


Test: 21
Hash algorithm: 6
Symmetric key bit length: 256
IV bit length:            128
Plaintext bit length:     128
Symmetric key:            0000000000000000000000000000000000000000000000000000000000000000
IV:                       15151515151515151515151515151515
Plaintext:                00000000000000000000000000000000
Ciphertext:               72a9f5f7de94b462aff9a53ddbb77a5a96b563976ed3a0af58dd3a320d51bf0ff6e1de5d364e3a9c9f083e49aa55eb57
Reciphers for ciphertext: 0
Decipheredtext:           00000000000000000000000000000000
RESULT CIPHER-DECIPHER: -----OK-----


Test: 22
Hash algorithm: 3
Symmetric key bit length: 256
IV bit length:            128
Plaintext bit length:     128
Symmetric key:            0000000000000000000000000000000000000000000000000000000000000000
IV:                       16161616161616161616161616161616
Plaintext:                00000000000000000000000000000000
Ciphertext:               cb9f730fe72a14d2e212c806b644687465df16924633280c2acd8f4de872291e3c00b7e9695efd6cadc2c1b1fbc263200a5b0381612f9a3819af01a436bd5338
Reciphers for ciphertext: 0
Decipheredtext:           00000000000000000000000000000000
RESULT CIPHER-DECIPHER: -----OK-----


Test: 23
Hash algorithm: 10
Symmetric key bit length: 256
IV bit length:            128
Plaintext bit length:     128
Symmetric key:            0000000000000000000000000000000000000000000000000000000000000000
IV:                       17171717171717171717171717171717
Plaintext:                00000000000000000000000000000000
Ciphertext:               310413b27450d9e821cc4ea9f1955b73f077cf0fe221b263cfa515c7703cd4b0d8db253d98b4bbec588e87f94c8326d0466b1b04217c2b4b
Reciphers for ciphertext: 0
Decipheredtext:           00000000000000000000000000000000
RESULT CIPHER-DECIPHER: -----OK-----


Test: 24
Hash algorithm: 2
Symmetric key bit length: 256
IV bit length:            128
Plaintext bit length:     128
Symmetric key:            0000000000000000000000000000000000000000000000000000000000000000
IV:                       18181818181818181818181818181818
Plaintext:                00000000000000000000000000000000
Ciphertext:               77837991272b629b584c4055bc7b5cfb40c4716ed05aff4ecfd2882069178ed3f8ad92c65d764b5aba2c6a0940225698
Reciphers for ciphertext: 0
Decipheredtext:           00000000000000000000000000000000
RESULT CIPHER-DECIPHER: -----OK-----


Test: 25
Hash algorithm: 5
Symmetric key bit length: 256
IV bit length:            128
Plaintext bit length:     128
Symmetric key:            0000000000000000000000000000000000000000000000000000000000000000
IV:                       19191919191919191919191919191919
Plaintext:                00000000000000000000000000000000
Ciphertext:               8f0471aa5fd0c6a03435a01aafb12eded6da372ee22fc6e6227d161952ab467acdb5531899d5b630ccf2bdae
Reciphers for ciphertext: 0
Decipheredtext:           00000000000000000000000000000000
RESULT CIPHER-DECIPHER: -----OK-----


Test: 26
Hash algorithm: 4
Symmetric key bit length: 256
IV bit length:            128
Plaintext bit length:     128
Symmetric key:            0000000000000000000000000000000000000000000000000000000000000000
IV:                       1a1a1a1a1a1a1a1a1a1a1a1a1a1a1a1a
Plaintext:                00000000000000000000000000000000
Ciphertext:               5f64f5e6a0aa5a100a67d62c69f73c3854084f2e9875bde474c66b2199f9feba3074e3e6a8dd8eedaaa74f128e3c03625535df7eea23342d24ad277b0ff014605a1e17544df000247099f7e04bd20495
Reciphers for ciphertext: 0
Decipheredtext:           00000000000000000000000000000000
RESULT CIPHER-DECIPHER: -----OK-----


Test: 27
Hash algorithm: 12
Symmetric key bit length: 256
IV bit length:            128
Plaintext bit length:     128
Symmetric key:            0000000000000000000000000000000000000000000000000000000000000000
IV:                       1b1b1b1b1b1b1b1b1b1b1b1b1b1b1b1b
Plaintext:                00000000000000000000000000000000
Ciphertext:               be0c5767dadaadd8ad51bff761f1cff2f6706839f1d7c7a19f1f7249fde4d99d
Reciphers for ciphertext: 0
Decipheredtext:           00000000000000000000000000000000
RESULT CIPHER-DECIPHER: -----OK-----


Test: 28
Hash algorithm: 3
Symmetric key bit length: 256
IV bit length:            128
Plaintext bit length:     128
Symmetric key:            0000000000000000000000000000000000000000000000000000000000000000
IV:                       1c1c1c1c1c1c1c1c1c1c1c1c1c1c1c1c
Plaintext:                00000000000000000000000000000000
Ciphertext:               a02b732cf94a74686bba7df5e659fc090e6b16b1585348b6a3653abeb86fbd63ba5f420dce5ffdc1ffb6d29d8e8fd8336d1634534b309ebb970401b328d8d777
Reciphers for ciphertext: 0
Decipheredtext:           00000000000000000000000000000000
RESULT CIPHER-DECIPHER: -----OK-----


Test: 29
Hash algorithm: 13
Symmetric key bit length: 256
IV bit length:            128
Plaintext bit length:     128
Symmetric key:            0000000000000000000000000000000000000000000000000000000000000000
IV:                       1d1d1d1d1d1d1d1d1d1d1d1d1d1d1d1d
Plaintext:                00000000000000000000000000000000
Ciphertext:               388ad29491ba3b5af30dcc518eb525f4726dc1a275f1c2e58adfb97fadfd3d51
Reciphers for ciphertext: 0
Decipheredtext:           00000000000000000000000000000000
RESULT CIPHER-DECIPHER: -----OK-----


Test: 30
Hash algorithm: 5
Symmetric key bit length: 256
IV bit length:            128
Plaintext bit length:     128
Symmetric key:            0000000000000000000000000000000000000000000000000000000000000000
IV:                       1e1e1e1e1e1e1e1e1e1e1e1e1e1e1e1e
Plaintext:                00000000000000000000000000000000
Ciphertext:               d66d8dbe935429b8bd89f0afa9ea220d8fb3cb3a2eab29feabc146ac54f04aa97067cb94244f2e17f31c005e
Reciphers for ciphertext: 0
Decipheredtext:           00000000000000000000000000000000
RESULT CIPHER-DECIPHER: -----OK-----


Test: 31
Hash algorithm: 5
Symmetric key bit length: 256
IV bit length:            128
Plaintext bit length:     128
Symmetric key:            0000000000000000000000000000000000000000000000000000000000000000
IV:                       1f1f1f1f1f1f1f1f1f1f1f1f1f1f1f1f
Plaintext:                00000000000000000000000000000000
Ciphertext:               90f56f5360f966a61bdf1c143808c830c92b29d7dd0666e00d97aa17c512a094d0fc2b936ca0c266a482b526
Reciphers for ciphertext: 0
Decipheredtext:           00000000000000000000000000000000
RESULT CIPHER-DECIPHER: -----OK-----


Test: 32
Hash algorithm: 1
Symmetric key bit length: 256
IV bit length:            128
Plaintext bit length:     128
Symmetric key:            0000000000000000000000000000000000000000000000000000000000000000
IV:                       20202020202020202020202020202020
Plaintext:                00000000000000000000000000000000
Ciphertext:               8dd70b1e8bf83db1877a4e439e18e9427c52b62715e35827c5fc62a3c7faebe3460b1dedc69d134ed0190cc0
Reciphers for ciphertext: 0
Decipheredtext:           00000000000000000000000000000000
RESULT CIPHER-DECIPHER: -----OK-----


Test: 33
Hash algorithm: 7
Symmetric key bit length: 256
IV bit length:            128
Plaintext bit length:     128
Symmetric key:            0000000000000000000000000000000000000000000000000000000000000000
IV:                       21212121212121212121212121212121
Plaintext:                00000000000000000000000000000000
Ciphertext:               79683efb73c575b2fbad70d02a2d0f290dab0d920f84483dc2a181f10e6a83ea
Reciphers for ciphertext: 0
Decipheredtext:           00000000000000000000000000000000
RESULT CIPHER-DECIPHER: -----OK-----


Test: 34
Hash algorithm: 12
Symmetric key bit length: 256
IV bit length:            128
Plaintext bit length:     128
Symmetric key:            0000000000000000000000000000000000000000000000000000000000000000
IV:                       22222222222222222222222222222222
Plaintext:                00000000000000000000000000000000
Ciphertext:               7e4d16dda019c87de620c002ff60e5ce363129838b14a204d46e0dbc6375f3a1
Reciphers for ciphertext: 0
Decipheredtext:           00000000000000000000000000000000
RESULT CIPHER-DECIPHER: -----OK-----


Test: 35
Hash algorithm: 5
Symmetric key bit length: 256
IV bit length:            128
Plaintext bit length:     128
Symmetric key:            0000000000000000000000000000000000000000000000000000000000000000
IV:                       23232323232323232323232323232323
Plaintext:                00000000000000000000000000000000
Ciphertext:               e001c907b7c9f6bdd8aba5d1aaa44ec6b9df8f830a36f6fbcee313d257be2662b4ee69046400862dc310b4df
Reciphers for ciphertext: 0
Decipheredtext:           00000000000000000000000000000000
RESULT CIPHER-DECIPHER: -----OK-----


Test: 36
Hash algorithm: 1
Symmetric key bit length: 256
IV bit length:            128
Plaintext bit length:     128
Symmetric key:            0000000000000000000000000000000000000000000000000000000000000000
IV:                       24242424242424242424242424242424
Plaintext:                00000000000000000000000000000000
Ciphertext:               8f8ab053758a8522743565586736d6797e0f0d6aeb91e0b436b349b83ed4d4d8bd3416e1a23daa4802862858
Reciphers for ciphertext: 0
Decipheredtext:           00000000000000000000000000000000
RESULT CIPHER-DECIPHER: -----OK-----


Test: 37
Hash algorithm: 13
Symmetric key bit length: 256
IV bit length:            128
Plaintext bit length:     128
Symmetric key:            0000000000000000000000000000000000000000000000000000000000000000
IV:                       25252525252525252525252525252525
Plaintext:                00000000000000000000000000000000
Ciphertext:               c4171ba3d41c17a6d6d2d089df726dba8ef008953057ee19af00a5a7fc3a751f
Reciphers for ciphertext: 0
Decipheredtext:           00000000000000000000000000000000
RESULT CIPHER-DECIPHER: -----OK-----


Test: 38
Hash algorithm: 6
Symmetric key bit length: 256
IV bit length:            128
Plaintext bit length:     128
Symmetric key:            0000000000000000000000000000000000000000000000000000000000000000
IV:                       26262626262626262626262626262626
Plaintext:                00000000000000000000000000000000
Ciphertext:               18d7d6a5c609a98c7eca1dde50274e70fccb40c5764ebd4189ee82d186c18b25126066094049ad8d0f5741f7c63dd751
Reciphers for ciphertext: 0
Decipheredtext:           00000000000000000000000000000000
RESULT CIPHER-DECIPHER: -----OK-----


Test: 39
Hash algorithm: 5
Symmetric key bit length: 256
IV bit length:            128
Plaintext bit length:     128
Symmetric key:            0000000000000000000000000000000000000000000000000000000000000000
IV:                       27272727272727272727272727272727
Plaintext:                00000000000000000000000000000000
Ciphertext:               36a58e197f8d2cdd1974da957e62cd416f7bc89dc2722c9b0f3c6c968378a5e5df8c2b8585aac0db11798251
Reciphers for ciphertext: 0
Decipheredtext:           00000000000000000000000000000000
RESULT CIPHER-DECIPHER: -----OK-----


Test: 40
Hash algorithm: 3
Symmetric key bit length: 256
IV bit length:            128
Plaintext bit length:     128
Symmetric key:            0000000000000000000000000000000000000000000000000000000000000000
IV:                       28282828282828282828282828282828
Plaintext:                00000000000000000000000000000000
Ciphertext:               4d1617e66f87b466fb486e2285aa67dbe356727bce9e88b833972969db9c26b1c03a7f8a7d2e0f915433e37573505e734a094e2b948159caf8d37355b5de4390
Reciphers for ciphertext: 0
Decipheredtext:           00000000000000000000000000000000
RESULT CIPHER-DECIPHER: -----OK-----


Test: 41
Hash algorithm: 0
Symmetric key bit length: 256
IV bit length:            128
Plaintext bit length:     128
Symmetric key:            0000000000000000000000000000000000000000000000000000000000000000
IV:                       29292929292929292929292929292929
Plaintext:                00000000000000000000000000000000
Ciphertext:               b7e58af059ee51902baa4ba0ed24a40156cc788c08ededccefe186504c7ab20c5ce53ce2
Reciphers for ciphertext: 0
Decipheredtext:           00000000000000000000000000000000
RESULT CIPHER-DECIPHER: -----OK-----


Test: 42
Hash algorithm: 4
Symmetric key bit length: 256
IV bit length:            128
Plaintext bit length:     128
Symmetric key:            0000000000000000000000000000000000000000000000000000000000000000
IV:                       2a2a2a2a2a2a2a2a2a2a2a2a2a2a2a2a
Plaintext:                00000000000000000000000000000000
Ciphertext:               a9594f27355d54316fb8dc0b6d6de1ffa235f5ef0d82b3c5111961069d63237da770c732a8ab902c60b9ad0d7b62adc10c20d8dadb5297c3a10e755cd2ca97476d9bf2a003117b81936e6b5e8f9c2c5a
Reciphers for ciphertext: 0
Decipheredtext:           00000000000000000000000000000000
RESULT CIPHER-DECIPHER: -----OK-----


Test: 43
Hash algorithm: 0
Symmetric key bit length: 256
IV bit length:            128
Plaintext bit length:     128
Symmetric key:            0000000000000000000000000000000000000000000000000000000000000000
IV:                       2b2b2b2b2b2b2b2b2b2b2b2b2b2b2b2b
Plaintext:                00000000000000000000000000000000
Ciphertext:               be55f8109c950dfe96d4bc5fdea46a045f7c0a6ccd96b1a2529f71af7ffa7c09c6bfe33b
Reciphers for ciphertext: 0
Decipheredtext:           00000000000000000000000000000000
RESULT CIPHER-DECIPHER: -----OK-----


Test: 44
Hash algorithm: 7
Symmetric key bit length: 256
IV bit length:            128
Plaintext bit length:     128
Symmetric key:            0000000000000000000000000000000000000000000000000000000000000000
IV:                       2c2c2c2c2c2c2c2c2c2c2c2c2c2c2c2c
Plaintext:                00000000000000000000000000000000
Ciphertext:               b9a566f7b8038b2a5b9160cc1cb16439cd66559ec442b6a5629d91ed38f6e8fa
Reciphers for ciphertext: 0
Decipheredtext:           00000000000000000000000000000000
RESULT CIPHER-DECIPHER: -----OK-----


Test: 45
Hash algorithm: 5
Symmetric key bit length: 256
IV bit length:            128
Plaintext bit length:     128
Symmetric key:            0000000000000000000000000000000000000000000000000000000000000000
IV:                       2d2d2d2d2d2d2d2d2d2d2d2d2d2d2d2d
Plaintext:                00000000000000000000000000000000
Ciphertext:               f33ef62a707c2fae1ec3b8a7828b860aaae0b0aecd832fe8088b0ea47f91eeae1a4f6f9b50018c9eb537fead
Reciphers for ciphertext: 0
Decipheredtext:           00000000000000000000000000000000
RESULT CIPHER-DECIPHER: -----OK-----


Test: 46
Hash algorithm: 0
Symmetric key bit length: 256
IV bit length:            128
Plaintext bit length:     128
Symmetric key:            0000000000000000000000000000000000000000000000000000000000000000
IV:                       2e2e2e2e2e2e2e2e2e2e2e2e2e2e2e2e
Plaintext:                00000000000000000000000000000000
Ciphertext:               796c746cc3df54fcfee00209653a9a149845861092dce8a03aabcff9c4648c1950dc8712
Reciphers for ciphertext: 0
Decipheredtext:           00000000000000000000000000000000
RESULT CIPHER-DECIPHER: -----OK-----


Test: 47
Hash algorithm: 5
Symmetric key bit length: 256
IV bit length:            128
Plaintext bit length:     128
Symmetric key:            0000000000000000000000000000000000000000000000000000000000000000
IV:                       2f2f2f2f2f2f2f2f2f2f2f2f2f2f2f2f
Plaintext:                00000000000000000000000000000000
Ciphertext:               83426c5d9fc880461faa36914796383ada9c2ad92237800009e28092ba8c509e0df15bf0b655b824495c7dc2
Reciphers for ciphertext: 0
Decipheredtext:           00000000000000000000000000000000
RESULT CIPHER-DECIPHER: -----OK-----


Test: 48
Hash algorithm: 13
Symmetric key bit length: 256
IV bit length:            128
Plaintext bit length:     128
Symmetric key:            0000000000000000000000000000000000000000000000000000000000000000
IV:                       30303030303030303030303030303030
Plaintext:                00000000000000000000000000000000
Ciphertext:               1f01fc6a4fdd1fc8b4b17a2dd9b2062755e6ef5cab96e677cd630f03fafa1e82
Reciphers for ciphertext: 0
Decipheredtext:           00000000000000000000000000000000
RESULT CIPHER-DECIPHER: -----OK-----


Test: 49
Hash algorithm: 12
Symmetric key bit length: 256
IV bit length:            128
Plaintext bit length:     128
Symmetric key:            0000000000000000000000000000000000000000000000000000000000000000
IV:                       31313131313131313131313131313131
Plaintext:                00000000000000000000000000000000
Ciphertext:               c0046db678ad86b0722b2c4111cc106e887852e853a0ecc94065e1ff8dd90601
Reciphers for ciphertext: 0
Decipheredtext:           00000000000000000000000000000000
RESULT CIPHER-DECIPHER: -----OK-----


Test: 50
Hash algorithm: 3
Symmetric key bit length: 256
IV bit length:            128
Plaintext bit length:     128
Symmetric key:            0000000000000000000000000000000000000000000000000000000000000000
IV:                       32323232323232323232323232323232
Plaintext:                00000000000000000000000000000000
Ciphertext:               e67eaac0619647d95024a5a32f708680483ecf5dc08f7b0798fbe2e87146c7eacdd84e59d17d0bd9905a3bbcd6c933134e47d9b1db75307419cc2c8acbf3e928
Reciphers for ciphertext: 0
Decipheredtext:           00000000000000000000000000000000
RESULT CIPHER-DECIPHER: -----OK-----


Test: 51
Hash algorithm: 3
Symmetric key bit length: 256
IV bit length:            128
Plaintext bit length:     128
Symmetric key:            0000000000000000000000000000000000000000000000000000000000000000
IV:                       33333333333333333333333333333333
Plaintext:                00000000000000000000000000000000
Ciphertext:               98b8c987893a24231f6bc48fc8f0d7a736f8ac1a282318fdd7b483c496c696cdfab24a4308e8fe4c190e2d719287060966620f7d98480a3d1c025f84fdeb791a
Reciphers for ciphertext: 0
Decipheredtext:           00000000000000000000000000000000
RESULT CIPHER-DECIPHER: -----OK-----


Test: 52
Hash algorithm: 2
Symmetric key bit length: 256
IV bit length:            128
Plaintext bit length:     128
Symmetric key:            0000000000000000000000000000000000000000000000000000000000000000
IV:                       34343434343434343434343434343434
Plaintext:                00000000000000000000000000000000
Ciphertext:               fd82e069180022a8267527a3fe281fbecac5e896ef71bf7db1ebefd62b44cd9691b888d928342d6e42efc40b56a39b13
Reciphers for ciphertext: 1
Decipheredtext:           00000000000000000000000000000000
RESULT CIPHER-DECIPHER: -----OK-----


Test: 53
Hash algorithm: 9
Symmetric key bit length: 256
IV bit length:            128
Plaintext bit length:     128
Symmetric key:            0000000000000000000000000000000000000000000000000000000000000000
IV:                       35353535353535353535353535353535
Plaintext:                00000000000000000000000000000000
Ciphertext:               b57d2c5e386a35d81e7a66478491356e738cdd1c67291865ac3466101e1adbd255592a70ed7f8d263193f1eb6d7a35b8
Reciphers for ciphertext: 0
Decipheredtext:           00000000000000000000000000000000
RESULT CIPHER-DECIPHER: -----OK-----


Test: 54
Hash algorithm: 7
Symmetric key bit length: 256
IV bit length:            128
Plaintext bit length:     128
Symmetric key:            0000000000000000000000000000000000000000000000000000000000000000
IV:                       36363636363636363636363636363636
Plaintext:                00000000000000000000000000000000
Ciphertext:               dc85f47a79be9229f699815b580020c6a846c71305ffafa6cf95707a7c47ac05
Reciphers for ciphertext: 0
Decipheredtext:           00000000000000000000000000000000
RESULT CIPHER-DECIPHER: -----OK-----


Test: 55
Hash algorithm: 11
Symmetric key bit length: 256
IV bit length:            128
Plaintext bit length:     128
Symmetric key:            0000000000000000000000000000000000000000000000000000000000000000
IV:                       37373737373737373737373737373737
Plaintext:                00000000000000000000000000000000
Ciphertext:               9057c4ca8987a179a08464056aabbe23ae653aa6901281b96acb6a89424499a5
Reciphers for ciphertext: 0
Decipheredtext:           00000000000000000000000000000000
RESULT CIPHER-DECIPHER: -----OK-----


Test: 56
Hash algorithm: 9
Symmetric key bit length: 256
IV bit length:            128
Plaintext bit length:     128
Symmetric key:            0000000000000000000000000000000000000000000000000000000000000000
IV:                       38383838383838383838383838383838
Plaintext:                00000000000000000000000000000000
Ciphertext:               74a740568b7d8ca134b5daea2d0f8eaeb256b114d43ea11c86fbdabdb78460124ef71a0a8d91e7bca5325920bd265300
Reciphers for ciphertext: 0
Decipheredtext:           00000000000000000000000000000000
RESULT CIPHER-DECIPHER: -----OK-----


Test: 57
Hash algorithm: 10
Symmetric key bit length: 256
IV bit length:            128
Plaintext bit length:     128
Symmetric key:            0000000000000000000000000000000000000000000000000000000000000000
IV:                       39393939393939393939393939393939
Plaintext:                00000000000000000000000000000000
Ciphertext:               120d1602a46ca0ff673bead35e31e81ed37ecabf321dcb748952b1bddf9867dd5956375b2d63a3920e0f8ecfe7a4db6bdf8af43b78dc6002
Reciphers for ciphertext: 0
Decipheredtext:           00000000000000000000000000000000
RESULT CIPHER-DECIPHER: -----OK-----


Test: 58
Hash algorithm: 8
Symmetric key bit length: 256
IV bit length:            128
Plaintext bit length:     128
Symmetric key:            0000000000000000000000000000000000000000000000000000000000000000
IV:                       3a3a3a3a3a3a3a3a3a3a3a3a3a3a3a3a
Plaintext:                00000000000000000000000000000000
Ciphertext:               85570fd7098bd545ff11c5ba4c0b52577721035e41f19eb52b6ea976e4dddb4286288fa1
Reciphers for ciphertext: 0
Decipheredtext:           00000000000000000000000000000000
RESULT CIPHER-DECIPHER: -----OK-----


Test: 59
Hash algorithm: 10
Symmetric key bit length: 256
IV bit length:            128
Plaintext bit length:     128
Symmetric key:            0000000000000000000000000000000000000000000000000000000000000000
IV:                       3b3b3b3b3b3b3b3b3b3b3b3b3b3b3b3b
Plaintext:                00000000000000000000000000000000
Ciphertext:               107367982ddfd4c7edb4703b81b0b9a0d100bb25bbaebf4c03dd2b55001936631c7ddab3399335a257fd3e7289ef9f3079f40344276908f1
Reciphers for ciphertext: 0
Decipheredtext:           00000000000000000000000000000000
RESULT CIPHER-DECIPHER: -----OK-----


Test: 60
Hash algorithm: 11
Symmetric key bit length: 256
IV bit length:            128
Plaintext bit length:     128
Symmetric key:            0000000000000000000000000000000000000000000000000000000000000000
IV:                       3c3c3c3c3c3c3c3c3c3c3c3c3c3c3c3c
Plaintext:                00000000000000000000000000000000
Ciphertext:               43f02f74b6d3804db7bb3c75d6c22b117dc2d118af46a08d7df432f9fe2d0c97
Reciphers for ciphertext: 1
Decipheredtext:           00000000000000000000000000000000
RESULT CIPHER-DECIPHER: -----OK-----


Test: 61
Hash algorithm: 8
Symmetric key bit length: 256
IV bit length:            128
Plaintext bit length:     128
Symmetric key:            0000000000000000000000000000000000000000000000000000000000000000
IV:                       3d3d3d3d3d3d3d3d3d3d3d3d3d3d3d3d
Plaintext:                00000000000000000000000000000000
Ciphertext:               4451c0eb920d6843d48dd1bfc631252ab627cc62da7723b300f2bd736ee7ac3fab30ab42
Reciphers for ciphertext: 0
Decipheredtext:           00000000000000000000000000000000
RESULT CIPHER-DECIPHER: -----OK-----


Test: 62
Hash algorithm: 5
Symmetric key bit length: 256
IV bit length:            128
Plaintext bit length:     128
Symmetric key:            0000000000000000000000000000000000000000000000000000000000000000
IV:                       3e3e3e3e3e3e3e3e3e3e3e3e3e3e3e3e
Plaintext:                00000000000000000000000000000000
Ciphertext:               63f7e67d952a8f875e5b50129439766e3a29a0f928d58fc14813e61169231ecab36c9c49568fd8ed1cf2e7cd
Reciphers for ciphertext: 0
Decipheredtext:           00000000000000000000000000000000
RESULT CIPHER-DECIPHER: -----OK-----


Test: 63
Hash algorithm: 6
Symmetric key bit length: 256
IV bit length:            128
Plaintext bit length:     128
Symmetric key:            0000000000000000000000000000000000000000000000000000000000000000
IV:                       3f3f3f3f3f3f3f3f3f3f3f3f3f3f3f3f
Plaintext:                00000000000000000000000000000000
Ciphertext:               141cb50f59e9f3e27d7f631841cd0d60f000236fe9aee72f8a5bfc17972bc835b80109d53f0d0707114f1ac9c7c6f904
Reciphers for ciphertext: 0
Decipheredtext:           00000000000000000000000000000000
RESULT CIPHER-DECIPHER: -----OK-----


Test: 64
Hash algorithm: 4
Symmetric key bit length: 256
IV bit length:            128
Plaintext bit length:     128
Symmetric key:            0000000000000000000000000000000000000000000000000000000000000000
IV:                       40404040404040404040404040404040
Plaintext:                00000000000000000000000000000000
Ciphertext:               ab1c2f08bb9679050638a13553740cf1a07095c083499ef178991c38a37ace7354474ea657d9af60ee7c5a48ee92940574370cff79ad08b5c7378d74835ea96324fc0d7b959c75611f40f5bd9838104a
Reciphers for ciphertext: 0
Decipheredtext:           00000000000000000000000000000000
RESULT CIPHER-DECIPHER: -----OK-----


Test: 65
Hash algorithm: 8
Symmetric key bit length: 256
IV bit length:            128
Plaintext bit length:     128
Symmetric key:            0000000000000000000000000000000000000000000000000000000000000000
IV:                       41414141414141414141414141414141
Plaintext:                00000000000000000000000000000000
Ciphertext:               0b7a1e4e58ce21360fedda15e0079b28f90c12c710b46ac6db92b6d948d1123d2dfee326
Reciphers for ciphertext: 0
Decipheredtext:           00000000000000000000000000000000
RESULT CIPHER-DECIPHER: -----OK-----


Test: 66
Hash algorithm: 7
Symmetric key bit length: 256
IV bit length:            128
Plaintext bit length:     128
Symmetric key:            0000000000000000000000000000000000000000000000000000000000000000
IV:                       42424242424242424242424242424242
Plaintext:                00000000000000000000000000000000
Ciphertext:               970364b272817252b7b07d4028a67f62e3c057db0ec04fdd8ebc8c610ce1f3a1
Reciphers for ciphertext: 0
Decipheredtext:           00000000000000000000000000000000
RESULT CIPHER-DECIPHER: -----OK-----


Test: 67
Hash algorithm: 6
Symmetric key bit length: 256
IV bit length:            128
Plaintext bit length:     128
Symmetric key:            0000000000000000000000000000000000000000000000000000000000000000
IV:                       43434343434343434343434343434343
Plaintext:                00000000000000000000000000000000
Ciphertext:               acb91f191b2d41e29d280534f97644c648a58979ab6a552f6a0c9a3b2f9081938ee0a80ddfc1bef54910251ebd465db4
Reciphers for ciphertext: 0
Decipheredtext:           00000000000000000000000000000000
RESULT CIPHER-DECIPHER: -----OK-----


Test: 68
Hash algorithm: 4
Symmetric key bit length: 256
IV bit length:            128
Plaintext bit length:     128
Symmetric key:            0000000000000000000000000000000000000000000000000000000000000000
IV:                       44444444444444444444444444444444
Plaintext:                00000000000000000000000000000000
Ciphertext:               503869cc93d39f06136a421a47011f355b54d304ab0c78f26dcbff17b70fddb7f5be0e78d9f212487dda644fe39f800c641a7dcb82c9eb275d9b04b85f22069edd500b73e18206d01c21d96243ed56e9
Reciphers for ciphertext: 0
Decipheredtext:           00000000000000000000000000000000
RESULT CIPHER-DECIPHER: -----OK-----


Test: 69
Hash algorithm: 2
Symmetric key bit length: 256
IV bit length:            128
Plaintext bit length:     128
Symmetric key:            0000000000000000000000000000000000000000000000000000000000000000
IV:                       45454545454545454545454545454545
Plaintext:                00000000000000000000000000000000
Ciphertext:               8b7c53a4e1bdbd0beda783a4ece0838dbc3b5b5b16cc20de7a394bd1398c51a5b0283e0d86ba11e674fc0e5fb91f00f4
Reciphers for ciphertext: 0
Decipheredtext:           00000000000000000000000000000000
RESULT CIPHER-DECIPHER: -----OK-----


Test: 70
Hash algorithm: 0
Symmetric key bit length: 256
IV bit length:            128
Plaintext bit length:     128
Symmetric key:            0000000000000000000000000000000000000000000000000000000000000000
IV:                       46464646464646464646464646464646
Plaintext:                00000000000000000000000000000000
Ciphertext:               61a176fce279340fe8ec75a8ab83f41980888480b37a88532ca7b8580adde214a5c31b0a
Reciphers for ciphertext: 0
Decipheredtext:           00000000000000000000000000000000
RESULT CIPHER-DECIPHER: -----OK-----


Test: 71
Hash algorithm: 6
Symmetric key bit length: 256
IV bit length:            128
Plaintext bit length:     128
Symmetric key:            0000000000000000000000000000000000000000000000000000000000000000
IV:                       47474747474747474747474747474747
Plaintext:                00000000000000000000000000000000
Ciphertext:               66c98538b79321f94513586977a24dce82d5135807d43534b237c766a144889b1989118d423f5bcbd94c9866c49c06bf
Reciphers for ciphertext: 0
Decipheredtext:           00000000000000000000000000000000
RESULT CIPHER-DECIPHER: -----OK-----


Test: 72
Hash algorithm: 2
Symmetric key bit length: 256
IV bit length:            128
Plaintext bit length:     128
Symmetric key:            0000000000000000000000000000000000000000000000000000000000000000
IV:                       48484848484848484848484848484848
Plaintext:                00000000000000000000000000000000
Ciphertext:               bf964304905d25d6234102584796b22988d14bfb672cb803b4dfca2d92fa6001feb21bf583aeb4416c827388af0c3d83
Reciphers for ciphertext: 0
Decipheredtext:           00000000000000000000000000000000
RESULT CIPHER-DECIPHER: -----OK-----


Test: 73
Hash algorithm: 10
Symmetric key bit length: 256
IV bit length:            128
Plaintext bit length:     128
Symmetric key:            0000000000000000000000000000000000000000000000000000000000000000
IV:                       49494949494949494949494949494949
Plaintext:                00000000000000000000000000000000
Ciphertext:               a03950abcc50ec519940ce21474587f7614a8c165a2187da7729954fc6ec08344cc9b478da2b7f7ba8f0076d7fc60c7e85fe954d57a3d2c0
Reciphers for ciphertext: 0
Decipheredtext:           00000000000000000000000000000000
RESULT CIPHER-DECIPHER: -----OK-----


Test: 74
Hash algorithm: 9
Symmetric key bit length: 256
IV bit length:            128
Plaintext bit length:     128
Symmetric key:            0000000000000000000000000000000000000000000000000000000000000000
IV:                       4a4a4a4a4a4a4a4a4a4a4a4a4a4a4a4a
Plaintext:                00000000000000000000000000000000
Ciphertext:               8fdac3efed25303f571e4bcc449588bf492b32adb2661d82e5504b9bde1e660365c733847e13cdb66d6b0154a8961b2d
Reciphers for ciphertext: 0
Decipheredtext:           00000000000000000000000000000000
RESULT CIPHER-DECIPHER: -----OK-----


Test: 75
Hash algorithm: 1
Symmetric key bit length: 256
IV bit length:            128
Plaintext bit length:     128
Symmetric key:            0000000000000000000000000000000000000000000000000000000000000000
IV:                       4b4b4b4b4b4b4b4b4b4b4b4b4b4b4b4b
Plaintext:                00000000000000000000000000000000
Ciphertext:               15e9f1a3dda52dcd3b66f30c12234ed2e46c4c9a43be485b79e0dfec4bc14c73d644e60d1a3d17bc4a0e72c4
Reciphers for ciphertext: 0
Decipheredtext:           00000000000000000000000000000000
RESULT CIPHER-DECIPHER: -----OK-----


Test: 76
Hash algorithm: 10
Symmetric key bit length: 256
IV bit length:            128
Plaintext bit length:     128
Symmetric key:            0000000000000000000000000000000000000000000000000000000000000000
IV:                       4c4c4c4c4c4c4c4c4c4c4c4c4c4c4c4c
Plaintext:                00000000000000000000000000000000
Ciphertext:               c3bfbdb74e4c7e619d86c6c7e370631702cc610ad83d15ea73ef9da962d9ecd430515df34652f8182069d27369dca7e61733edf7cdabe47a
Reciphers for ciphertext: 0
Decipheredtext:           00000000000000000000000000000000
RESULT CIPHER-DECIPHER: -----OK-----


Test: 77
Hash algorithm: 7
Symmetric key bit length: 256
IV bit length:            128
Plaintext bit length:     128
Symmetric key:            0000000000000000000000000000000000000000000000000000000000000000
IV:                       4d4d4d4d4d4d4d4d4d4d4d4d4d4d4d4d
Plaintext:                00000000000000000000000000000000
Ciphertext:               9b2d8280861bc51c4b6cf333559e51a6efeeb1e9fa5af8937260021271d9dd65
Reciphers for ciphertext: 0
Decipheredtext:           00000000000000000000000000000000
RESULT CIPHER-DECIPHER: -----OK-----


Test: 78
Hash algorithm: 4
Symmetric key bit length: 256
IV bit length:            128
Plaintext bit length:     128
Symmetric key:            0000000000000000000000000000000000000000000000000000000000000000
IV:                       4e4e4e4e4e4e4e4e4e4e4e4e4e4e4e4e
Plaintext:                00000000000000000000000000000000
Ciphertext:               51d40ee2f33dd6edfa9df944b71a63155ab8b42acbe23119843c44494714a19719c1d1b2174a3d35e0e0073c0b011a90e0165cac6832de49c6f8c886df50a659e2c518f09b1e317f02c1c9abfb2af1d4
Reciphers for ciphertext: 0
Decipheredtext:           00000000000000000000000000000000
RESULT CIPHER-DECIPHER: -----OK-----


Test: 79
Hash algorithm: 7
Symmetric key bit length: 256
IV bit length:            128
Plaintext bit length:     128
Symmetric key:            0000000000000000000000000000000000000000000000000000000000000000
IV:                       4f4f4f4f4f4f4f4f4f4f4f4f4f4f4f4f
Plaintext:                00000000000000000000000000000000
Ciphertext:               7006004bf0c2fa6994975626c93cb50c04c533228c83c7e6ad9ba707ed7b39cf
Reciphers for ciphertext: 0
Decipheredtext:           00000000000000000000000000000000
RESULT CIPHER-DECIPHER: -----OK-----


Test: 80
Hash algorithm: 5
Symmetric key bit length: 256
IV bit length:            128
Plaintext bit length:     128
Symmetric key:            0000000000000000000000000000000000000000000000000000000000000000
IV:                       50505050505050505050505050505050
Plaintext:                00000000000000000000000000000000
Ciphertext:               32db059a13ffe896e2a33a7722f5d48c6b05431eae00e8d0f4eb8c74dfefbc2862f7e79af01e49d89130ef05
Reciphers for ciphertext: 0
Decipheredtext:           00000000000000000000000000000000
RESULT CIPHER-DECIPHER: -----OK-----


Test: 81
Hash algorithm: 6
Symmetric key bit length: 256
IV bit length:            128
Plaintext bit length:     128
Symmetric key:            0000000000000000000000000000000000000000000000000000000000000000
IV:                       51515151515151515151515151515151
Plaintext:                00000000000000000000000000000000
Ciphertext:               0cb5325ad5ddbd73944794a30cca4d53e8a9a43a659aa9be63630bacda2c8806073fcdcba06e5fddbe33053dcf7cdd0c
Reciphers for ciphertext: 0
Decipheredtext:           00000000000000000000000000000000
RESULT CIPHER-DECIPHER: -----OK-----


Test: 82
Hash algorithm: 3
Symmetric key bit length: 256
IV bit length:            128
Plaintext bit length:     128
Symmetric key:            0000000000000000000000000000000000000000000000000000000000000000
IV:                       52525252525252525252525252525252
Plaintext:                00000000000000000000000000000000
Ciphertext:               629c9bf0a62c168dbcb9e5eee34ed2edccdcfe6d07352a537466a2a5bd789387cbd0d7e602c3d2903673b82235177698d73e26020737d5d75599fc02bd769494
Reciphers for ciphertext: 0
Decipheredtext:           00000000000000000000000000000000
RESULT CIPHER-DECIPHER: -----OK-----


Test: 83
Hash algorithm: 2
Symmetric key bit length: 256
IV bit length:            128
Plaintext bit length:     128
Symmetric key:            0000000000000000000000000000000000000000000000000000000000000000
IV:                       53535353535353535353535353535353
Plaintext:                00000000000000000000000000000000
Ciphertext:               d3440490159c9dee76630817b24a9193e4030c6fe2ed003be1fdc062672643bb69b7fbd58f90ef8ad64cc8bdbe2b2aad
Reciphers for ciphertext: 0
Decipheredtext:           00000000000000000000000000000000
RESULT CIPHER-DECIPHER: -----OK-----


Test: 84
Hash algorithm: 4
Symmetric key bit length: 256
IV bit length:            128
Plaintext bit length:     128
Symmetric key:            0000000000000000000000000000000000000000000000000000000000000000
IV:                       54545454545454545454545454545454
Plaintext:                00000000000000000000000000000000
Ciphertext:               1b248ad04e8e2397c68338362515bd7a104830187651c463b822853bd51b7ff8774c5b7819fee237fa6042de1d414c5d12c812e4cc831bc303859461eb8aec6288db1a69c59811e38731d5ce82a2430c
Reciphers for ciphertext: 0
Decipheredtext:           00000000000000000000000000000000
RESULT CIPHER-DECIPHER: -----OK-----


Test: 85
Hash algorithm: 5
Symmetric key bit length: 256
IV bit length:            128
Plaintext bit length:     128
Symmetric key:            0000000000000000000000000000000000000000000000000000000000000000
IV:                       55555555555555555555555555555555
Plaintext:                00000000000000000000000000000000
Ciphertext:               c816313533e00494d908f7e8a1535c3c91c877b18e1f04d2cf4041eb5c49349843a8a80b64914be1c6535f1e
Reciphers for ciphertext: 0
Decipheredtext:           00000000000000000000000000000000
RESULT CIPHER-DECIPHER: -----OK-----


Test: 86
Hash algorithm: 11
Symmetric key bit length: 256
IV bit length:            128
Plaintext bit length:     128
Symmetric key:            0000000000000000000000000000000000000000000000000000000000000000
IV:                       56565656565656565656565656565656
Plaintext:                00000000000000000000000000000000
Ciphertext:               4e81826e06b005ab31556ccbe6abe82370b37c021f25256bfb1a6247ce44cfa5
Reciphers for ciphertext: 0
Decipheredtext:           00000000000000000000000000000000
RESULT CIPHER-DECIPHER: -----OK-----


Test: 87
Hash algorithm: 3
Symmetric key bit length: 256
IV bit length:            128
Plaintext bit length:     128
Symmetric key:            0000000000000000000000000000000000000000000000000000000000000000
IV:                       57575757575757575757575757575757
Plaintext:                00000000000000000000000000000000
Ciphertext:               4c8d1aefb6298fa46359655ad27f43f3e2cd7f721730b37aab8622118c4902999131e4b3e5fd107ee550c4248577b784e2f25a68c9d447980e27a749a2ee609f
Reciphers for ciphertext: 0
Decipheredtext:           00000000000000000000000000000000
RESULT CIPHER-DECIPHER: -----OK-----


Test: 88
Hash algorithm: 11
Symmetric key bit length: 256
IV bit length:            128
Plaintext bit length:     128
Symmetric key:            0000000000000000000000000000000000000000000000000000000000000000
IV:                       58585858585858585858585858585858
Plaintext:                00000000000000000000000000000000
Ciphertext:               3c9f5ebf7a48a912b64823048431edc802ada0d363dd89d27c072d88acdeca4e
Reciphers for ciphertext: 0
Decipheredtext:           00000000000000000000000000000000
RESULT CIPHER-DECIPHER: -----OK-----


Test: 89
Hash algorithm: 13
Symmetric key bit length: 256
IV bit length:            128
Plaintext bit length:     128
Symmetric key:            0000000000000000000000000000000000000000000000000000000000000000
IV:                       59595959595959595959595959595959
Plaintext:                00000000000000000000000000000000
Ciphertext:               31b58dde87465402ad373c66888e284a7b529ee8630dadbdd4e54948abc630ef
Reciphers for ciphertext: 0
Decipheredtext:           00000000000000000000000000000000
RESULT CIPHER-DECIPHER: -----OK-----


Test: 90
Hash algorithm: 13
Symmetric key bit length: 256
IV bit length:            128
Plaintext bit length:     128
Symmetric key:            0000000000000000000000000000000000000000000000000000000000000000
IV:                       5a5a5a5a5a5a5a5a5a5a5a5a5a5a5a5a
Plaintext:                00000000000000000000000000000000
Ciphertext:               ff3450ff0c7d8033b087236752e9dca0b5d343c9e836798cc955564971a1c405
Reciphers for ciphertext: 0
Decipheredtext:           00000000000000000000000000000000
RESULT CIPHER-DECIPHER: -----OK-----


Test: 91
Hash algorithm: 13
Symmetric key bit length: 256
IV bit length:            128
Plaintext bit length:     128
Symmetric key:            0000000000000000000000000000000000000000000000000000000000000000
IV:                       5b5b5b5b5b5b5b5b5b5b5b5b5b5b5b5b
Plaintext:                00000000000000000000000000000000
Ciphertext:               e5335b72ba2b3df9c2cc9083ed6a1758afd448445e60c446bb1ee5adce220ffd
Reciphers for ciphertext: 0
Decipheredtext:           00000000000000000000000000000000
RESULT CIPHER-DECIPHER: -----OK-----


Test: 92
Hash algorithm: 12
Symmetric key bit length: 256
IV bit length:            128
Plaintext bit length:     128
Symmetric key:            0000000000000000000000000000000000000000000000000000000000000000
IV:                       5c5c5c5c5c5c5c5c5c5c5c5c5c5c5c5c
Plaintext:                00000000000000000000000000000000
Ciphertext:               1b0e9c81c168bce8644b066fa6c162a75372a3dfea65d6915605cbd13ad474c8
Reciphers for ciphertext: 0
Decipheredtext:           00000000000000000000000000000000
RESULT CIPHER-DECIPHER: -----OK-----


Test: 93
Hash algorithm: 0
Symmetric key bit length: 256
IV bit length:            128
Plaintext bit length:     128
Symmetric key:            0000000000000000000000000000000000000000000000000000000000000000
IV:                       5d5d5d5d5d5d5d5d5d5d5d5d5d5d5d5d
Plaintext:                00000000000000000000000000000000
Ciphertext:               b3b8ee770a8af38176a576123db1747952911c0b5b894fddb2eebbe29cef6274e419d807
Reciphers for ciphertext: 0
Decipheredtext:           00000000000000000000000000000000
RESULT CIPHER-DECIPHER: -----OK-----


Test: 94
Hash algorithm: 9
Symmetric key bit length: 256
IV bit length:            128
Plaintext bit length:     128
Symmetric key:            0000000000000000000000000000000000000000000000000000000000000000
IV:                       5e5e5e5e5e5e5e5e5e5e5e5e5e5e5e5e
Plaintext:                00000000000000000000000000000000
Ciphertext:               ac4af39a7c87428da0b19531f26deab16abb02d823c46f3012ff956668e6040d8c20a25e949b489616f981d9a0e4a080
Reciphers for ciphertext: 0
Decipheredtext:           00000000000000000000000000000000
RESULT CIPHER-DECIPHER: -----OK-----


Test: 95
Hash algorithm: 7
Symmetric key bit length: 256
IV bit length:            128
Plaintext bit length:     128
Symmetric key:            0000000000000000000000000000000000000000000000000000000000000000
IV:                       5f5f5f5f5f5f5f5f5f5f5f5f5f5f5f5f
Plaintext:                00000000000000000000000000000000
Ciphertext:               a7f5da55f3f2ab8d664e318010a83e1fd336e93c8fb396025f42c0a134efb2dc
Reciphers for ciphertext: 0
Decipheredtext:           00000000000000000000000000000000
RESULT CIPHER-DECIPHER: -----OK-----


Test: 96
Hash algorithm: 11
Symmetric key bit length: 256
IV bit length:            128
Plaintext bit length:     128
Symmetric key:            0000000000000000000000000000000000000000000000000000000000000000
IV:                       60606060606060606060606060606060
Plaintext:                00000000000000000000000000000000
Ciphertext:               cab8f97fce9a5f68b19594bc6aba765df48a0713d70f7fa87bda9a30425551db
Reciphers for ciphertext: 0
Decipheredtext:           00000000000000000000000000000000
RESULT CIPHER-DECIPHER: -----OK-----


Test: 97
Hash algorithm: 8
Symmetric key bit length: 256
IV bit length:            128
Plaintext bit length:     128
Symmetric key:            0000000000000000000000000000000000000000000000000000000000000000
IV:                       61616161616161616161616161616161
Plaintext:                00000000000000000000000000000000
Ciphertext:               d8d60c75a429b9a4ff3abceaabaa414e2aa000fcec53f2542b45d026037cc85b43a5e3ee
Reciphers for ciphertext: 0
Decipheredtext:           00000000000000000000000000000000
RESULT CIPHER-DECIPHER: -----OK-----


Test: 98
Hash algorithm: 12
Symmetric key bit length: 256
IV bit length:            128
Plaintext bit length:     128
Symmetric key:            0000000000000000000000000000000000000000000000000000000000000000
IV:                       62626262626262626262626262626262
Plaintext:                00000000000000000000000000000000
Ciphertext:               373f9c6dd1827c31d08c4d2fb72f3d6b7f43a333fa8f1648e2c280912b3a2b04
Reciphers for ciphertext: 0
Decipheredtext:           00000000000000000000000000000000
RESULT CIPHER-DECIPHER: -----OK-----


Test: 99
Hash algorithm: 6
Symmetric key bit length: 256
IV bit length:            128
Plaintext bit length:     128
Symmetric key:            0000000000000000000000000000000000000000000000000000000000000000
IV:                       63636363636363636363636363636363
Plaintext:                00000000000000000000000000000000
Ciphertext:               109e5ad743a3e461a041b6086a8dedd5f482ccb7f3e4f0ac57652907bc6b2880e475c365147a8a20e67d348cb028c6ee
Reciphers for ciphertext: 0
Decipheredtext:           00000000000000000000000000000000
RESULT CIPHER-DECIPHER: -----OK-----


Test: 100
Hash algorithm: 9
Symmetric key bit length: 256
IV bit length:            128
Plaintext bit length:     128
Symmetric key:            0000000000000000000000000000000000000000000000000000000000000000
IV:                       64646464646464646464646464646464
Plaintext:                00000000000000000000000000000000
Ciphertext:               e9e07663347a17cb1b20d847a7447d6a2f1187216b393a76a96ed8103dcf93d67b4c6b56fcda5b50beb1d0cc8a35312e
Reciphers for ciphertext: 0
Decipheredtext:           00000000000000000000000000000000
RESULT CIPHER-DECIPHER: -----OK-----


Test: 101
Hash algorithm: 13
Symmetric key bit length: 256
IV bit length:            128
Plaintext bit length:     128
Symmetric key:            0000000000000000000000000000000000000000000000000000000000000000
IV:                       65656565656565656565656565656565
Plaintext:                00000000000000000000000000000000
Ciphertext:               1f68e05d2c47882cb5a50049b4531c54558ff36bc80c7193cc777567971b04f1
Reciphers for ciphertext: 0
Decipheredtext:           00000000000000000000000000000000
RESULT CIPHER-DECIPHER: -----OK-----


Test: 102
Hash algorithm: 10
Symmetric key bit length: 256
IV bit length:            128
Plaintext bit length:     128
Symmetric key:            0000000000000000000000000000000000000000000000000000000000000000
IV:                       66666666666666666666666666666666
Plaintext:                00000000000000000000000000000000
Ciphertext:               96a6a3d90976cb4d892501eed1014de557d57f649f07a0c6674c5a8050a8c226080b07babe86fd64405ca613139a14a0aaa21e129c3e7ffc
Reciphers for ciphertext: 0
Decipheredtext:           00000000000000000000000000000000
RESULT CIPHER-DECIPHER: -----OK-----


Test: 103
Hash algorithm: 12
Symmetric key bit length: 256
IV bit length:            128
Plaintext bit length:     128
Symmetric key:            0000000000000000000000000000000000000000000000000000000000000000
IV:                       67676767676767676767676767676767
Plaintext:                00000000000000000000000000000000
Ciphertext:               512a7d0d3928f5c2426d5953502a9fe21956425312259fbb702394edcc3f898d
Reciphers for ciphertext: 0
Decipheredtext:           00000000000000000000000000000000
RESULT CIPHER-DECIPHER: -----OK-----


Test: 104
Hash algorithm: 4
Symmetric key bit length: 256
IV bit length:            128
Plaintext bit length:     128
Symmetric key:            0000000000000000000000000000000000000000000000000000000000000000
IV:                       68686868686868686868686868686868
Plaintext:                00000000000000000000000000000000
Ciphertext:               f73c9d4c6a0c08b680952749de1a0db4fc50278452d3ef42fe349a442e14cf36e6d10d1a0a8c65a6521403bf2c046fb9c94facbcfc627bbacf20a40f14d676eb413decf85e49b01fe425a16fbcaa018d
Reciphers for ciphertext: 0
Decipheredtext:           00000000000000000000000000000000
RESULT CIPHER-DECIPHER: -----OK-----


Test: 105
Hash algorithm: 7
Symmetric key bit length: 256
IV bit length:            128
Plaintext bit length:     128
Symmetric key:            0000000000000000000000000000000000000000000000000000000000000000
IV:                       69696969696969696969696969696969
Plaintext:                00000000000000000000000000000000
Ciphertext:               948090f638735b0b55e56f3bb366cc7fe043a39f443266846ce99e1a972140bc
Reciphers for ciphertext: 0
Decipheredtext:           00000000000000000000000000000000
RESULT CIPHER-DECIPHER: -----OK-----


Test: 106
Hash algorithm: 0
Symmetric key bit length: 256
IV bit length:            128
Plaintext bit length:     128
Symmetric key:            0000000000000000000000000000000000000000000000000000000000000000
IV:                       6a6a6a6a6a6a6a6a6a6a6a6a6a6a6a6a
Plaintext:                00000000000000000000000000000000
Ciphertext:               bc51294e23d4c8dce4608a3736de81f45d78db3272d77480202b47c7978097f9c2e96f7e
Reciphers for ciphertext: 0
Decipheredtext:           00000000000000000000000000000000
RESULT CIPHER-DECIPHER: -----OK-----


Test: 107
Hash algorithm: 4
Symmetric key bit length: 256
IV bit length:            128
Plaintext bit length:     128
Symmetric key:            0000000000000000000000000000000000000000000000000000000000000000
IV:                       6b6b6b6b6b6b6b6b6b6b6b6b6b6b6b6b
Plaintext:                00000000000000000000000000000000
Ciphertext:               50a80a605e7b0a630c6f83c4a0f9050e5bc4b0a866a4ed9772ce3ec950f7c78c6d0b5586a9b8105b65ac2d1bcf6952c006c45d37a3ba7dc4b3af5966fcfec7ed5e5eb6eab6c0d19d2b45d46faa66b3f7
Reciphers for ciphertext: 0
Decipheredtext:           00000000000000000000000000000000
RESULT CIPHER-DECIPHER: -----OK-----


Test: 108
Hash algorithm: 12
Symmetric key bit length: 256
IV bit length:            128
Plaintext bit length:     128
Symmetric key:            0000000000000000000000000000000000000000000000000000000000000000
IV:                       6c6c6c6c6c6c6c6c6c6c6c6c6c6c6c6c
Plaintext:                00000000000000000000000000000000
Ciphertext:               cbf56b125ac58a13878aecc910799d748389544c71c8e06ab5c421778c6c8b1b
Reciphers for ciphertext: 0
Decipheredtext:           00000000000000000000000000000000
RESULT CIPHER-DECIPHER: -----OK-----


Test: 109
Hash algorithm: 9
Symmetric key bit length: 256
IV bit length:            128
Plaintext bit length:     128
Symmetric key:            0000000000000000000000000000000000000000000000000000000000000000
IV:                       6d6d6d6d6d6d6d6d6d6d6d6d6d6d6d6d
Plaintext:                00000000000000000000000000000000
Ciphertext:               3f0a3f95defadb8514d4eb48079640bbf9fbced781b9f638a69aeb1f9d1dae07f46cdc698339b962c45aad225bda51ba
Reciphers for ciphertext: 0
Decipheredtext:           00000000000000000000000000000000
RESULT CIPHER-DECIPHER: -----OK-----


Test: 110
Hash algorithm: 9
Symmetric key bit length: 256
IV bit length:            128
Plaintext bit length:     128
Symmetric key:            0000000000000000000000000000000000000000000000000000000000000000
IV:                       6e6e6e6e6e6e6e6e6e6e6e6e6e6e6e6e
Plaintext:                00000000000000000000000000000000
Ciphertext:               5a271b8f6b68ed6dfcf692e7d2fa40ec9cd6eacd342bc0d04eb892b04871ae5084ce9c51189d6dac73427109759a51e6
Reciphers for ciphertext: 0
Decipheredtext:           00000000000000000000000000000000
RESULT CIPHER-DECIPHER: -----OK-----


Test: 111
Hash algorithm: 13
Symmetric key bit length: 256
IV bit length:            128
Plaintext bit length:     128
Symmetric key:            0000000000000000000000000000000000000000000000000000000000000000
IV:                       6f6f6f6f6f6f6f6f6f6f6f6f6f6f6f6f
Plaintext:                00000000000000000000000000000000
Ciphertext:               a9aa4e3f26c17e2d2bb82b6eb9dd22dbe34d5d09c28a8792526a5e409a953a7e
Reciphers for ciphertext: 0
Decipheredtext:           00000000000000000000000000000000
RESULT CIPHER-DECIPHER: -----OK-----


Test: 112
Hash algorithm: 4
Symmetric key bit length: 256
IV bit length:            128
Plaintext bit length:     128
Symmetric key:            0000000000000000000000000000000000000000000000000000000000000000
IV:                       70707070707070707070707070707070
Plaintext:                00000000000000000000000000000000
Ciphertext:               503ad9d2550727645edebee9c566f8a05b56631a6dd8c090207f03e435683a22e77ec54506cc3a551695466a4ec91918b5493c881fe7286009e9322fcef427a343f572b2ac3eb6775777475213f892ae
Reciphers for ciphertext: 0
Decipheredtext:           00000000000000000000000000000000
RESULT CIPHER-DECIPHER: -----OK-----


Test: 113
Hash algorithm: 3
Symmetric key bit length: 256
IV bit length:            128
Plaintext bit length:     128
Symmetric key:            0000000000000000000000000000000000000000000000000000000000000000
IV:                       71717171717171717171717171717171
Plaintext:                00000000000000000000000000000000
Ciphertext:               93c14cbe0f403b3d3c693d99986097cf3d812923ae5907e3f4b67ad2c656d6a57f8def3c25b75170f3535b391f2d576002ac846081cd6b030d4297f2ea2bb20f
Reciphers for ciphertext: 0
Decipheredtext:           00000000000000000000000000000000
RESULT CIPHER-DECIPHER: -----OK-----


Test: 114
Hash algorithm: 5
Symmetric key bit length: 256
IV bit length:            128
Plaintext bit length:     128
Symmetric key:            0000000000000000000000000000000000000000000000000000000000000000
IV:                       72727272727272727272727272727272
Plaintext:                00000000000000000000000000000000
Ciphertext:               bd05ba7535fc90978dd2131beb28a0bae4dbfcf1880390d19b9aa5181632c81e0e8551840c9d8f2ae4c4f988
Reciphers for ciphertext: 0
Decipheredtext:           00000000000000000000000000000000
RESULT CIPHER-DECIPHER: -----OK-----


Test: 115
Hash algorithm: 5
Symmetric key bit length: 256
IV bit length:            128
Plaintext bit length:     128
Symmetric key:            0000000000000000000000000000000000000000000000000000000000000000
IV:                       73737373737373737373737373737373
Plaintext:                00000000000000000000000000000000
Ciphertext:               f3ed79b37c366bd7bce592064a9ca22baa333f37c1c96b91aaad2405b786ca8f857aec6a0d1ced14e71b2111
Reciphers for ciphertext: 0
Decipheredtext:           00000000000000000000000000000000
RESULT CIPHER-DECIPHER: -----OK-----


Test: 116
Hash algorithm: 9
Symmetric key bit length: 256
IV bit length:            128
Plaintext bit length:     128
Symmetric key:            0000000000000000000000000000000000000000000000000000000000000000
IV:                       74747474747474747474747474747474
Plaintext:                00000000000000000000000000000000
Ciphertext:               1619c3915cb7631a17a03b271528da19d0e832d303f44ea7a5ee3b708fa334a5b17fb6daa1f6dc456a15e4148b4b815e
Reciphers for ciphertext: 0
Decipheredtext:           00000000000000000000000000000000
RESULT CIPHER-DECIPHER: -----OK-----


Test: 117
Hash algorithm: 13
Symmetric key bit length: 256
IV bit length:            128
Plaintext bit length:     128
Symmetric key:            0000000000000000000000000000000000000000000000000000000000000000
IV:                       75757575757575757575757575757575
Plaintext:                00000000000000000000000000000000
Ciphertext:               914cc5beb8241c5f98b65b61f18dfb69dbabd6885c6fe5e0e1642e4fd2c5e3cc
Reciphers for ciphertext: 0
Decipheredtext:           00000000000000000000000000000000
RESULT CIPHER-DECIPHER: -----OK-----


Test: 118
Hash algorithm: 8
Symmetric key bit length: 256
IV bit length:            128
Plaintext bit length:     128
Symmetric key:            0000000000000000000000000000000000000000000000000000000000000000
IV:                       76767676767676767676767676767676
Plaintext:                00000000000000000000000000000000
Ciphertext:               f4d7661a6f71089785039293f962997806a16a93270b4367517cfe5f51b4106d808d4bd3
Reciphers for ciphertext: 0
Decipheredtext:           00000000000000000000000000000000
RESULT CIPHER-DECIPHER: -----OK-----


Test: 119
Hash algorithm: 7
Symmetric key bit length: 256
IV bit length:            128
Plaintext bit length:     128
Symmetric key:            0000000000000000000000000000000000000000000000000000000000000000
IV:                       77777777777777777777777777777777
Plaintext:                00000000000000000000000000000000
Ciphertext:               88db99772fd0c4cd13d3a7e5568d701dfc18aa1e5391f9422adf56c472cafcde
Reciphers for ciphertext: 0
Decipheredtext:           00000000000000000000000000000000
RESULT CIPHER-DECIPHER: -----OK-----


Test: 120
Hash algorithm: 13
Symmetric key bit length: 256
IV bit length:            128
Plaintext bit length:     128
Symmetric key:            0000000000000000000000000000000000000000000000000000000000000000
IV:                       78787878787878787878787878787878
Plaintext:                00000000000000000000000000000000
Ciphertext:               9f6e24bf31d805fab2f2913ba3e2e931d5893789d593fc45cb20e41580aaf194
Reciphers for ciphertext: 0
Decipheredtext:           00000000000000000000000000000000
RESULT CIPHER-DECIPHER: -----OK-----


Test: 121
Hash algorithm: 8
Symmetric key bit length: 256
IV bit length:            128
Plaintext bit length:     128
Symmetric key:            0000000000000000000000000000000000000000000000000000000000000000
IV:                       79797979797979797979797979797979
Plaintext:                00000000000000000000000000000000
Ciphertext:               a8c7e363fb113bda8a7d36fb864dd9ce5ab1efeab36b702a5e025a372e9b50db6128e2a4
Reciphers for ciphertext: 0
Decipheredtext:           00000000000000000000000000000000
RESULT CIPHER-DECIPHER: -----OK-----


Test: 122
Hash algorithm: 13
Symmetric key bit length: 256
IV bit length:            128
Plaintext bit length:     128
Symmetric key:            0000000000000000000000000000000000000000000000000000000000000000
IV:                       7a7a7a7a7a7a7a7a7a7a7a7a7a7a7a7a
Plaintext:                00000000000000000000000000000000
Ciphertext:               fedfe853dda2a29cb2bfa99e05e5a92db438fb6539e95b23cb6ddcb026adb188
Reciphers for ciphertext: 0
Decipheredtext:           00000000000000000000000000000000
RESULT CIPHER-DECIPHER: -----OK-----


Test: 123
Hash algorithm: 11
Symmetric key bit length: 256
IV bit length:            128
Plaintext bit length:     128
Symmetric key:            0000000000000000000000000000000000000000000000000000000000000000
IV:                       7b7b7b7b7b7b7b7b7b7b7b7b7b7b7b7b
Plaintext:                00000000000000000000000000000000
Ciphertext:               b965a3673a8396a918e9dc16d93beec387575d0b2316b669d2a6d29af1d4c945
Reciphers for ciphertext: 0
Decipheredtext:           00000000000000000000000000000000
RESULT CIPHER-DECIPHER: -----OK-----


Test: 124
Hash algorithm: 11
Symmetric key bit length: 256
IV bit length:            128
Plaintext bit length:     128
Symmetric key:            0000000000000000000000000000000000000000000000000000000000000000
IV:                       7c7c7c7c7c7c7c7c7c7c7c7c7c7c7c7c
Plaintext:                00000000000000000000000000000000
Ciphertext:               d13b14c5c71dab20e6e966acb534480cef09eaa9de888be02ca668209ddb6f8a
Reciphers for ciphertext: 0
Decipheredtext:           00000000000000000000000000000000
RESULT CIPHER-DECIPHER: -----OK-----


Test: 125
Hash algorithm: 0
Symmetric key bit length: 256
IV bit length:            128
Plaintext bit length:     128
Symmetric key:            0000000000000000000000000000000000000000000000000000000000000000
IV:                       7d7d7d7d7d7d7d7d7d7d7d7d7d7d7d7d
Plaintext:                00000000000000000000000000000000
Ciphertext:               4977ff8f04563ac1cf843fb15027dc0ea85e0df35555869d0bcff241f179ca034ed7dd1c
Reciphers for ciphertext: 0
Decipheredtext:           00000000000000000000000000000000
RESULT CIPHER-DECIPHER: -----OK-----


Test: 126
Hash algorithm: 7
Symmetric key bit length: 256
IV bit length:            128
Plaintext bit length:     128
Symmetric key:            0000000000000000000000000000000000000000000000000000000000000000
IV:                       7e7e7e7e7e7e7e7e7e7e7e7e7e7e7e7e
Plaintext:                00000000000000000000000000000000
Ciphertext:               cda588e68607930fab44c4d2d04825a4b966bb8ffa46ae80924835f3f40fa967
Reciphers for ciphertext: 0
Decipheredtext:           00000000000000000000000000000000
RESULT CIPHER-DECIPHER: -----OK-----


Test: 127
Hash algorithm: 4
Symmetric key bit length: 256
IV bit length:            128
Plaintext bit length:     128
Symmetric key:            0000000000000000000000000000000000000000000000000000000000000000
IV:                       7f7f7f7f7f7f7f7f7f7f7f7f7f7f7f7f
Plaintext:                00000000000000000000000000000000
Ciphertext:               3c49986b3271573366ef358eee84f23a372522a30aaeb0c7184e88831e8a30b8e9a4f645509d183a4cff0b9c4548272f54ae81ee9221e5967f1adc4b5cc0c85630175f8795e69156701ac9809367578f
Reciphers for ciphertext: 0
Decipheredtext:           00000000000000000000000000000000
RESULT CIPHER-DECIPHER: -----OK-----


 DATA SHA1 (hexadecimal): 0a49b1c2794962f3b0abcfe50727f46f12f2ce18

