
DiceLock 9.0.0.1

 TEST COMPONENTS:
 ----------------
 DiceLock:           DiceLockIVDigested class
 Operation Mode:     OFB_Mode class
 Block Cipher:       AES128 class
 Hash algorithms:     0 - Sha1 class
                      1 - Sha224 class
                      2 - Sha256 class
                      3 - Sha384 class
                      4 - Sha512 class
                      5 - Sha512_224 class
                      6 - Sha512_256 class
                      7 - Ripemd128 class
                      8 - Ripemd160 class
                      9 - Ripemd256 class
                     10 - Ripemd320 class
                     11 - MD2 class
                     12 - MD4 class
                     13 - MD5 class
 Key Modifier:       IncreaseKeyModifier_6_0_0_1 class
 Random tests:       RandomTestSuite class
                     FrequencyTest class
                     BlockFrequencyTest class
                     CumulativeSumForwardTest class
                     LongestRunOfOnesTest class
                     RunsTest class
 Random alpha:       0.001

 VECTOR TEST: Test vector 5 - IV all byte value 0xXX


##### INDIVIDUAL TESTS #####

Number tests: 128


Test: 0
Hash algorithm: 8
Symmetric key bit length: 128
IV bit length:            128
Plaintext bit length:     136
Symmetric key:            00000000000000000000000000000000
IV:                       00000000000000000000000000000000
Plaintext:                0000000000000000000000000000000000
Ciphertext:               66e94bd4ef8a2c3b884cfa59ca342b2ef77ae6a9f754e64257d6eae47fa01bbe945217dee4
Reciphers for ciphertext: 0
Decipheredtext:           0000000000000000000000000000000000
RESULT CIPHER-DECIPHER: -----OK-----


Test: 1
Hash algorithm: 9
Symmetric key bit length: 128
IV bit length:            128
Plaintext bit length:     136
Symmetric key:            00000000000000000000000000000000
IV:                       01010101010101010101010101010101
Plaintext:                0000000000000000000000000000000000
Ciphertext:               e14d5d0ee27715df08b4152ba23da8e0740bb45fc011e1add9faf2598a134bc9f3dae0b59767ff9ab1e28ddb04730fc0a0
Reciphers for ciphertext: 0
Decipheredtext:           0000000000000000000000000000000000
RESULT CIPHER-DECIPHER: -----OK-----


Test: 2
Hash algorithm: 2
Symmetric key bit length: 128
IV bit length:            128
Plaintext bit length:     136
Symmetric key:            00000000000000000000000000000000
IV:                       02020202020202020202020202020202
Plaintext:                0000000000000000000000000000000000
Ciphertext:               5eba73f89142c54880f68594373c5c37a6543262e0c34b99e684a5c57e28377baee2bd46f3e217deb0c04fc17eb112f3e4
Reciphers for ciphertext: 0
Decipheredtext:           0000000000000000000000000000000000
RESULT CIPHER-DECIPHER: -----OK-----


Test: 3
Hash algorithm: 2
Symmetric key bit length: 128
IV bit length:            128
Plaintext bit length:     136
Symmetric key:            00000000000000000000000000000000
IV:                       03030303030303030303030303030303
Plaintext:                0000000000000000000000000000000000
Ciphertext:               8d34efcb3bd545ca062aecdfef7c0bfa5087bcfed369dc19640279ac35f0772c63145fbcaf179df310b8e59d6172d67052
Reciphers for ciphertext: 0
Decipheredtext:           0000000000000000000000000000000000
RESULT CIPHER-DECIPHER: -----OK-----


Test: 4
Hash algorithm: 7
Symmetric key bit length: 128
IV bit length:            128
Plaintext bit length:     136
Symmetric key:            00000000000000000000000000000000
IV:                       04040404040404040404040404040404
Plaintext:                0000000000000000000000000000000000
Ciphertext:               4a94230cc509e46257838c074a34c043a42785936caae5e0ac87c446ade9c1683c
Reciphers for ciphertext: 0
Decipheredtext:           0000000000000000000000000000000000
RESULT CIPHER-DECIPHER: -----OK-----


Test: 5
Hash algorithm: 3
Symmetric key bit length: 128
IV bit length:            128
Plaintext bit length:     136
Symmetric key:            00000000000000000000000000000000
IV:                       05050505050505050505050505050505
Plaintext:                0000000000000000000000000000000000
Ciphertext:               fec12de012c25f0566b47da56e0323e80654f59d2023d18f4d5c68ff0e69953af7fc77cb42433fad4611bbc157c0c73278c4617581205d18c53bf4de0dd755e073
Reciphers for ciphertext: 0
Decipheredtext:           0000000000000000000000000000000000
RESULT CIPHER-DECIPHER: -----OK-----


Test: 6
Hash algorithm: 0
Symmetric key bit length: 128
IV bit length:            128
Plaintext bit length:     136
Symmetric key:            00000000000000000000000000000000
IV:                       06060606060606060606060606060606
Plaintext:                0000000000000000000000000000000000
Ciphertext:               5e4587c86652eaf4e5869f0c1fb33dd0ffb36166e046a013f44bbea470db418eccbfc16a76
Reciphers for ciphertext: 0
Decipheredtext:           0000000000000000000000000000000000
RESULT CIPHER-DECIPHER: -----OK-----


Test: 7
Hash algorithm: 10
Symmetric key bit length: 128
IV bit length:            128
Plaintext bit length:     136
Symmetric key:            00000000000000000000000000000000
IV:                       07070707070707070707070707070707
Plaintext:                0000000000000000000000000000000000
Ciphertext:               9341d4e375825846e4296bacf246489a1c8652200e0b63b0e82fd8237b9ee0996d9f7f45ba4bd2249805c5d68a1f3b848c9cdaee0d4ce075c0
Reciphers for ciphertext: 0
Decipheredtext:           0000000000000000000000000000000000
RESULT CIPHER-DECIPHER: -----OK-----


Test: 8
Hash algorithm: 9
Symmetric key bit length: 128
IV bit length:            128
Plaintext bit length:     136
Symmetric key:            00000000000000000000000000000000
IV:                       08080808080808080808080808080808
Plaintext:                0000000000000000000000000000000000
Ciphertext:               0ac08f91333993d14ec940de349b24580de0398d5fc0af2bd7bc8f0c7f85ed454ba311038babf3e7b17d1dd9dd309aa846
Reciphers for ciphertext: 0
Decipheredtext:           0000000000000000000000000000000000
RESULT CIPHER-DECIPHER: -----OK-----


Test: 9
Hash algorithm: 7
Symmetric key bit length: 128
IV bit length:            128
Plaintext bit length:     136
Symmetric key:            00000000000000000000000000000000
IV:                       09090909090909090909090909090909
Plaintext:                0000000000000000000000000000000000
Ciphertext:               ed66f4f85ca4c7d2955de53f4769929372807744983348c31c451a2f95e49c3aec
Reciphers for ciphertext: 0
Decipheredtext:           0000000000000000000000000000000000
RESULT CIPHER-DECIPHER: -----OK-----


Test: 10
Hash algorithm: 10
Symmetric key bit length: 128
IV bit length:            128
Plaintext bit length:     136
Symmetric key:            00000000000000000000000000000000
IV:                       0a0a0a0a0a0a0a0a0a0a0a0a0a0a0a0a
Plaintext:                0000000000000000000000000000000000
Ciphertext:               6f428f820f3ef9a61586f31768dc360a9a7a517b6f71df1108de77bbc0047ae7fd19e2489d76e5cf6cad4d7bc0ff7d132dccdd8dcc17e99ab7
Reciphers for ciphertext: 0
Decipheredtext:           0000000000000000000000000000000000
RESULT CIPHER-DECIPHER: -----OK-----


Test: 11
Hash algorithm: 11
Symmetric key bit length: 128
IV bit length:            128
Plaintext bit length:     136
Symmetric key:            00000000000000000000000000000000
IV:                       0b0b0b0b0b0b0b0b0b0b0b0b0b0b0b0b
Plaintext:                0000000000000000000000000000000000
Ciphertext:               9c1df7643ee9fbb4273bdda2793deed40e0d007eedac0ab5a41554245e3b83a32a
Reciphers for ciphertext: 0
Decipheredtext:           0000000000000000000000000000000000
RESULT CIPHER-DECIPHER: -----OK-----


Test: 12
Hash algorithm: 5
Symmetric key bit length: 128
IV bit length:            128
Plaintext bit length:     136
Symmetric key:            00000000000000000000000000000000
IV:                       0c0c0c0c0c0c0c0c0c0c0c0c0c0c0c0c
Plaintext:                0000000000000000000000000000000000
Ciphertext:               a4cecc4eb748f1d2990243707ef773c8c2ce5bd01981d489dcb08f38cfc4b893936cc7b117bdcd1365da0e92e2
Reciphers for ciphertext: 0
Decipheredtext:           0000000000000000000000000000000000
RESULT CIPHER-DECIPHER: -----OK-----


Test: 13
Hash algorithm: 3
Symmetric key bit length: 128
IV bit length:            128
Plaintext bit length:     136
Symmetric key:            00000000000000000000000000000000
IV:                       0d0d0d0d0d0d0d0d0d0d0d0d0d0d0d0d
Plaintext:                0000000000000000000000000000000000
Ciphertext:               45425505dc200399e2dd4bfdf7cad25986ef76e5c5ed33d3d1d801c956f05ccb467c36837c3e39e5ee10ad27a157d4a8f8007e01b4197cc6ecee27d13fa6d72d6e
Reciphers for ciphertext: 0
Decipheredtext:           0000000000000000000000000000000000
RESULT CIPHER-DECIPHER: -----OK-----


Test: 14
Hash algorithm: 7
Symmetric key bit length: 128
IV bit length:            128
Plaintext bit length:     136
Symmetric key:            00000000000000000000000000000000
IV:                       0e0e0e0e0e0e0e0e0e0e0e0e0e0e0e0e
Plaintext:                0000000000000000000000000000000000
Ciphertext:               866a044f4e12669a8b11487529d582d379eb7bb42f21fe62545b5682df8a202aac
Reciphers for ciphertext: 0
Decipheredtext:           0000000000000000000000000000000000
RESULT CIPHER-DECIPHER: -----OK-----


Test: 15
Hash algorithm: 10
Symmetric key bit length: 128
IV bit length:            128
Plaintext bit length:     136
Symmetric key:            00000000000000000000000000000000
IV:                       0f0f0f0f0f0f0f0f0f0f0f0f0f0f0f0f
Plaintext:                0000000000000000000000000000000000
Ciphertext:               0fdb7da46c238c5f37b19d310a7bc35a261ac8894912c264f1fc40d5e666dd12ada5b61f5c89b88653632a897bfaeb0da66d81840037e08f3a
Reciphers for ciphertext: 0
Decipheredtext:           0000000000000000000000000000000000
RESULT CIPHER-DECIPHER: -----OK-----


Test: 16
Hash algorithm: 0
Symmetric key bit length: 128
IV bit length:            128
Plaintext bit length:     136
Symmetric key:            00000000000000000000000000000000
IV:                       10101010101010101010101010101010
Plaintext:                0000000000000000000000000000000000
Ciphertext:               0143db63ee66b0cdff9f69917680151e67ec673a4bce9449cd51a752edb272a6022736f21c
Reciphers for ciphertext: 0
Decipheredtext:           0000000000000000000000000000000000
RESULT CIPHER-DECIPHER: -----OK-----


Test: 17
Hash algorithm: 9
Symmetric key bit length: 128
IV bit length:            128
Plaintext bit length:     136
Symmetric key:            00000000000000000000000000000000
IV:                       11111111111111111111111111111111
Plaintext:                0000000000000000000000000000000000
Ciphertext:               ffa3c7ed04710b98067dae6815e2751f94155ac523f7e7b39ef43be2c9a494140c3abb910b38b109fb9129f8935442454d
Reciphers for ciphertext: 0
Decipheredtext:           0000000000000000000000000000000000
RESULT CIPHER-DECIPHER: -----OK-----


Test: 18
Hash algorithm: 0
Symmetric key bit length: 128
IV bit length:            128
Plaintext bit length:     136
Symmetric key:            00000000000000000000000000000000
IV:                       12121212121212121212121212121212
Plaintext:                0000000000000000000000000000000000
Ciphertext:               5d6e8c72c1b4f95d87bfe2d6e7e0460020b04a6d5ae146005d2987d9aa2312f51c6075106d
Reciphers for ciphertext: 0
Decipheredtext:           0000000000000000000000000000000000
RESULT CIPHER-DECIPHER: -----OK-----


Test: 19
Hash algorithm: 1
Symmetric key bit length: 128
IV bit length:            128
Plaintext bit length:     136
Symmetric key:            00000000000000000000000000000000
IV:                       13131313131313131313131313131313
Plaintext:                0000000000000000000000000000000000
Ciphertext:               76e6d5f702546b7e4465c6be919c8d89a09f487e6e1bbfc49001f930d593c4728be14b2bc7f2fad99e10a57a5e
Reciphers for ciphertext: 0
Decipheredtext:           0000000000000000000000000000000000
RESULT CIPHER-DECIPHER: -----OK-----


Test: 20
Hash algorithm: 9
Symmetric key bit length: 128
IV bit length:            128
Plaintext bit length:     136
Symmetric key:            00000000000000000000000000000000
IV:                       14141414141414141414141414141414
Plaintext:                0000000000000000000000000000000000
Ciphertext:               65f4fbf24a0c559914cd741e8a1c5c57fb8f0df93cb99aed9fe68b38bf3b6a3d445587070f8e631cdf45e68a4e016c8681
Reciphers for ciphertext: 0
Decipheredtext:           0000000000000000000000000000000000
RESULT CIPHER-DECIPHER: -----OK-----


Test: 21
Hash algorithm: 6
Symmetric key bit length: 128
IV bit length:            128
Plaintext bit length:     136
Symmetric key:            00000000000000000000000000000000
IV:                       15151515151515151515151515151515
Plaintext:                0000000000000000000000000000000000
Ciphertext:               62fa50caa964499d51ed2c88c9cad98f5f6a18aa8e396a2d342f5e16c893901266e7db3db4fb76278344d5dd0cf046d30b
Reciphers for ciphertext: 0
Decipheredtext:           0000000000000000000000000000000000
RESULT CIPHER-DECIPHER: -----OK-----


Test: 22
Hash algorithm: 11
Symmetric key bit length: 128
IV bit length:            128
Plaintext bit length:     136
Symmetric key:            00000000000000000000000000000000
IV:                       16161616161616161616161616161616
Plaintext:                0000000000000000000000000000000000
Ciphertext:               f0cebabde20ab54b516fe671c87a78554061d3333470e9fb5b63001f8d8ac435ab
Reciphers for ciphertext: 0
Decipheredtext:           0000000000000000000000000000000000
RESULT CIPHER-DECIPHER: -----OK-----


Test: 23
Hash algorithm: 12
Symmetric key bit length: 128
IV bit length:            128
Plaintext bit length:     136
Symmetric key:            00000000000000000000000000000000
IV:                       17171717171717171717171717171717
Plaintext:                0000000000000000000000000000000000
Ciphertext:               ff26bc5be0c37c6d03f45f48a9b428bd9c301398a0a17f3029ab8118743b5eb223
Reciphers for ciphertext: 0
Decipheredtext:           0000000000000000000000000000000000
RESULT CIPHER-DECIPHER: -----OK-----


Test: 24
Hash algorithm: 5
Symmetric key bit length: 128
IV bit length:            128
Plaintext bit length:     136
Symmetric key:            00000000000000000000000000000000
IV:                       18181818181818181818181818181818
Plaintext:                0000000000000000000000000000000000
Ciphertext:               bafdfd8194c03ce5dc1de125e0faaeb4d8d068e1d6a25c44ebf5909a9a5ab54eef7636846e447eac30a6b66a25
Reciphers for ciphertext: 0
Decipheredtext:           0000000000000000000000000000000000
RESULT CIPHER-DECIPHER: -----OK-----


Test: 25
Hash algorithm: 12
Symmetric key bit length: 128
IV bit length:            128
Plaintext bit length:     136
Symmetric key:            00000000000000000000000000000000
IV:                       19191919191919191919191919191919
Plaintext:                0000000000000000000000000000000000
Ciphertext:               5cbd5bf3596b06b04aff80be294e44a70993887f0818d74af4e28ac782bba4de39
Reciphers for ciphertext: 0
Decipheredtext:           0000000000000000000000000000000000
RESULT CIPHER-DECIPHER: -----OK-----


Test: 26
Hash algorithm: 1
Symmetric key bit length: 128
IV bit length:            128
Plaintext bit length:     136
Symmetric key:            00000000000000000000000000000000
IV:                       1a1a1a1a1a1a1a1a1a1a1a1a1a1a1a1a
Plaintext:                0000000000000000000000000000000000
Ciphertext:               22d4de49e73bbf9c005fd0d3f5ff2c6abecb7a75d0fed0107245c326b8f7a7d368ff0aade41f5aa21d9ed1f6d6
Reciphers for ciphertext: 0
Decipheredtext:           0000000000000000000000000000000000
RESULT CIPHER-DECIPHER: -----OK-----


Test: 27
Hash algorithm: 4
Symmetric key bit length: 128
IV bit length:            128
Plaintext bit length:     136
Symmetric key:            00000000000000000000000000000000
IV:                       1b1b1b1b1b1b1b1b1b1b1b1b1b1b1b1b
Plaintext:                0000000000000000000000000000000000
Ciphertext:               fdad55586093f58e5c97c8f8f0e8955b0fe0b08efe1cf2b6fd1a990508e8b8fcef7a9b592263eee90132d6f6e0573a091099910a230f6c1728478b7860033478e6e3a1c2ea5406ca55a76ee738cad758fc
Reciphers for ciphertext: 0
Decipheredtext:           0000000000000000000000000000000000
RESULT CIPHER-DECIPHER: -----OK-----


Test: 28
Hash algorithm: 0
Symmetric key bit length: 128
IV bit length:            128
Plaintext bit length:     136
Symmetric key:            00000000000000000000000000000000
IV:                       1c1c1c1c1c1c1c1c1c1c1c1c1c1c1c1c
Plaintext:                0000000000000000000000000000000000
Ciphertext:               a6e35f625a9e97f9c4bc6c30b0bbb522504bc7be4a7a6c6ef96a84574c7449063e1078e99e
Reciphers for ciphertext: 0
Decipheredtext:           0000000000000000000000000000000000
RESULT CIPHER-DECIPHER: -----OK-----


Test: 29
Hash algorithm: 11
Symmetric key bit length: 128
IV bit length:            128
Plaintext bit length:     136
Symmetric key:            00000000000000000000000000000000
IV:                       1d1d1d1d1d1d1d1d1d1d1d1d1d1d1d1d
Plaintext:                0000000000000000000000000000000000
Ciphertext:               89b09769ee545e7671474f6349a5ac8d9d18ad1ee07cb710664328b69f0b1be173
Reciphers for ciphertext: 0
Decipheredtext:           0000000000000000000000000000000000
RESULT CIPHER-DECIPHER: -----OK-----


Test: 30
Hash algorithm: 0
Symmetric key bit length: 128
IV bit length:            128
Plaintext bit length:     136
Symmetric key:            00000000000000000000000000000000
IV:                       1e1e1e1e1e1e1e1e1e1e1e1e1e1e1e1e
Plaintext:                0000000000000000000000000000000000
Ciphertext:               e568d8f92c4b1b3003713f38e476436d26084c39d10cb9e230ad4904442084f07166cc57e8
Reciphers for ciphertext: 0
Decipheredtext:           0000000000000000000000000000000000
RESULT CIPHER-DECIPHER: -----OK-----


Test: 31
Hash algorithm: 3
Symmetric key bit length: 128
IV bit length:            128
Plaintext bit length:     136
Symmetric key:            00000000000000000000000000000000
IV:                       1f1f1f1f1f1f1f1f1f1f1f1f1f1f1f1f
Plaintext:                0000000000000000000000000000000000
Ciphertext:               c853b5317032155f601f7139cfaa46c60b626705f14121c5175ac3f392c83c5fd9f13c24f7f5a4d3c9f60b624114aa3e4b02a41ab03bc498c4686d881f7f5d67b6
Reciphers for ciphertext: 0
Decipheredtext:           0000000000000000000000000000000000
RESULT CIPHER-DECIPHER: -----OK-----


Test: 32
Hash algorithm: 4
Symmetric key bit length: 128
IV bit length:            128
Plaintext bit length:     136
Symmetric key:            00000000000000000000000000000000
IV:                       20202020202020202020202020202020
Plaintext:                0000000000000000000000000000000000
Ciphertext:               c6ce5fd95b845219f9f2155773f4bf871bdbd3847f27e5116abffcd8a76ba4d6336e7559b7f43a2f628032efed3890eabf327b6ea534540fc58ff974d618fe5d2be4757793f525c82f319aba80d55bce3b
Reciphers for ciphertext: 0
Decipheredtext:           0000000000000000000000000000000000
RESULT CIPHER-DECIPHER: -----OK-----


Test: 33
Hash algorithm: 2
Symmetric key bit length: 128
IV bit length:            128
Plaintext bit length:     136
Symmetric key:            00000000000000000000000000000000
IV:                       21212121212121212121212121212121
Plaintext:                0000000000000000000000000000000000
Ciphertext:               453cc24f7c5b0eb4b7c33d0c49b0d980074fb4d3572e52521ab3907de656bbfe1943a8b15f28996c511d4784b8932128be
Reciphers for ciphertext: 0
Decipheredtext:           0000000000000000000000000000000000
RESULT CIPHER-DECIPHER: -----OK-----


Test: 34
Hash algorithm: 4
Symmetric key bit length: 128
IV bit length:            128
Plaintext bit length:     136
Symmetric key:            00000000000000000000000000000000
IV:                       22222222222222222222222222222222
Plaintext:                0000000000000000000000000000000000
Ciphertext:               6c9b42e8357788c5627b8c8da65399f5157186994e4916cbb62475417dbe03f0416054593dca3114d2a102b08ba80d66de42ea906c49dcf63af83d01117ac1e00c78cc63ca44d5409f223ae0118b7744a2
Reciphers for ciphertext: 0
Decipheredtext:           0000000000000000000000000000000000
RESULT CIPHER-DECIPHER: -----OK-----


Test: 35
Hash algorithm: 2
Symmetric key bit length: 128
IV bit length:            128
Plaintext bit length:     136
Symmetric key:            00000000000000000000000000000000
IV:                       23232323232323232323232323232323
Plaintext:                0000000000000000000000000000000000
Ciphertext:               805ca9d11aa6163a596d1f0be24bffd1318ad4b8c948af4a945d3e5fe1fd40d84875e365c173e6a3a2b4153effdc6248ac
Reciphers for ciphertext: 0
Decipheredtext:           0000000000000000000000000000000000
RESULT CIPHER-DECIPHER: -----OK-----


Test: 36
Hash algorithm: 2
Symmetric key bit length: 128
IV bit length:            128
Plaintext bit length:     136
Symmetric key:            00000000000000000000000000000000
IV:                       24242424242424242424242424242424
Plaintext:                0000000000000000000000000000000000
Ciphertext:               30de2252b48f58f33246d330145d11a61e3a56334ae686045d361593da0b56363f5a93ec5da0e118950ebd1ed1d3f5f3b4
Reciphers for ciphertext: 0
Decipheredtext:           0000000000000000000000000000000000
RESULT CIPHER-DECIPHER: -----OK-----


Test: 37
Hash algorithm: 0
Symmetric key bit length: 128
IV bit length:            128
Plaintext bit length:     136
Symmetric key:            00000000000000000000000000000000
IV:                       25252525252525252525252525252525
Plaintext:                0000000000000000000000000000000000
Ciphertext:               1f6b309817c75b3e49e988533ec79adf69f24fd1b03735a23ee7d1b32ffa3529c32969ccb3
Reciphers for ciphertext: 0
Decipheredtext:           0000000000000000000000000000000000
RESULT CIPHER-DECIPHER: -----OK-----


Test: 38
Hash algorithm: 2
Symmetric key bit length: 128
IV bit length:            128
Plaintext bit length:     136
Symmetric key:            00000000000000000000000000000000
IV:                       26262626262626262626262626262626
Plaintext:                0000000000000000000000000000000000
Ciphertext:               1cd52e904a9d5b1af9e71719a06498a270165d3f88189407b4fdb457f3bf6fbf3b34a852fd687f4a01fdc08c43c8b4ebf0
Reciphers for ciphertext: 0
Decipheredtext:           0000000000000000000000000000000000
RESULT CIPHER-DECIPHER: -----OK-----


Test: 39
Hash algorithm: 10
Symmetric key bit length: 128
IV bit length:            128
Plaintext bit length:     136
Symmetric key:            00000000000000000000000000000000
IV:                       27272727272727272727272727272727
Plaintext:                0000000000000000000000000000000000
Ciphertext:               08903f62ce25436ab56cf944ecd8a372501d83cb8fb0c4abc47e9db193807e7285d35ad8ab592012788d2545b436b3aec8010df136320fb147
Reciphers for ciphertext: 0
Decipheredtext:           0000000000000000000000000000000000
RESULT CIPHER-DECIPHER: -----OK-----


Test: 40
Hash algorithm: 5
Symmetric key bit length: 128
IV bit length:            128
Plaintext bit length:     136
Symmetric key:            00000000000000000000000000000000
IV:                       28282828282828282828282828282828
Plaintext:                0000000000000000000000000000000000
Ciphertext:               43ca03eed13dd8a0bc5f4851c82854c336295f1fb9e7a1a0ae95d233ee7267b4989850ca78682d113d11a7f079
Reciphers for ciphertext: 0
Decipheredtext:           0000000000000000000000000000000000
RESULT CIPHER-DECIPHER: -----OK-----


Test: 41
Hash algorithm: 5
Symmetric key bit length: 128
IV bit length:            128
Plaintext bit length:     136
Symmetric key:            00000000000000000000000000000000
IV:                       29292929292929292929292929292929
Plaintext:                0000000000000000000000000000000000
Ciphertext:               6c1ae9759f6b069d45186f07974536a7f4068ff522a9f77e936c9514b82d0ad6fc5a474dd8a69196e3bdb3ef77
Reciphers for ciphertext: 0
Decipheredtext:           0000000000000000000000000000000000
RESULT CIPHER-DECIPHER: -----OK-----


Test: 42
Hash algorithm: 7
Symmetric key bit length: 128
IV bit length:            128
Plaintext bit length:     136
Symmetric key:            00000000000000000000000000000000
IV:                       2a2a2a2a2a2a2a2a2a2a2a2a2a2a2a2a
Plaintext:                0000000000000000000000000000000000
Ciphertext:               d12e6b214afc96779d35428dba7ef40dacbc3fdb41251092b94d728827198b5c72
Reciphers for ciphertext: 0
Decipheredtext:           0000000000000000000000000000000000
RESULT CIPHER-DECIPHER: -----OK-----


Test: 43
Hash algorithm: 1
Symmetric key bit length: 128
IV bit length:            128
Plaintext bit length:     136
Symmetric key:            00000000000000000000000000000000
IV:                       2b2b2b2b2b2b2b2b2b2b2b2b2b2b2b2b
Plaintext:                0000000000000000000000000000000000
Ciphertext:               f7eb139850e20b7a869a775209dacfc7ec1e45b8014909a494c30681390b8230c5ad241cb158ebbd9e66019ae9
Reciphers for ciphertext: 0
Decipheredtext:           0000000000000000000000000000000000
RESULT CIPHER-DECIPHER: -----OK-----


Test: 44
Hash algorithm: 3
Symmetric key bit length: 128
IV bit length:            128
Plaintext bit length:     136
Symmetric key:            00000000000000000000000000000000
IV:                       2c2c2c2c2c2c2c2c2c2c2c2c2c2c2c2c
Plaintext:                0000000000000000000000000000000000
Ciphertext:               0feba9d28915072b363be732ab8e873fe6a5df1912b806d7630ce76599ac189e201c5ad043e01ad9444fff754e513f2c9cb28c09a8be2b73c305ffdffa24a68b78
Reciphers for ciphertext: 0
Decipheredtext:           0000000000000000000000000000000000
RESULT CIPHER-DECIPHER: -----OK-----


Test: 45
Hash algorithm: 13
Symmetric key bit length: 128
IV bit length:            128
Plaintext bit length:     136
Symmetric key:            00000000000000000000000000000000
IV:                       2d2d2d2d2d2d2d2d2d2d2d2d2d2d2d2d
Plaintext:                0000000000000000000000000000000000
Ciphertext:               8c0b772699c7a6d0e533eb6828920cc9417fc3ca902018e15fc74919a6495aa968
Reciphers for ciphertext: 0
Decipheredtext:           0000000000000000000000000000000000
RESULT CIPHER-DECIPHER: -----OK-----


Test: 46
Hash algorithm: 7
Symmetric key bit length: 128
IV bit length:            128
Plaintext bit length:     136
Symmetric key:            00000000000000000000000000000000
IV:                       2e2e2e2e2e2e2e2e2e2e2e2e2e2e2e2e
Plaintext:                0000000000000000000000000000000000
Ciphertext:               e07139d37ae7a3dff6cb05846b04e556d58d6089b3150ba711268ccf2ec8f14d29
Reciphers for ciphertext: 0
Decipheredtext:           0000000000000000000000000000000000
RESULT CIPHER-DECIPHER: -----OK-----


Test: 47
Hash algorithm: 3
Symmetric key bit length: 128
IV bit length:            128
Plaintext bit length:     136
Symmetric key:            00000000000000000000000000000000
IV:                       2f2f2f2f2f2f2f2f2f2f2f2f2f2f2f2f
Plaintext:                0000000000000000000000000000000000
Ciphertext:               dc3bc8f0df6302ca34bc452229565ab50e760f7830ee70d2820e60c7892ec043aaf4bb2c73f877c413695f73985531714ddb7aa65d6e41cdffadcbbc3d10d096d8
Reciphers for ciphertext: 0
Decipheredtext:           0000000000000000000000000000000000
RESULT CIPHER-DECIPHER: -----OK-----


Test: 48
Hash algorithm: 7
Symmetric key bit length: 128
IV bit length:            128
Plaintext bit length:     136
Symmetric key:            00000000000000000000000000000000
IV:                       30303030303030303030303030303030
Plaintext:                0000000000000000000000000000000000
Ciphertext:               e08682be5f2b18a6e8437a15b110d4186e8d9732de30c71c683804b0bf12e57c67
Reciphers for ciphertext: 0
Decipheredtext:           0000000000000000000000000000000000
RESULT CIPHER-DECIPHER: -----OK-----


Test: 49
Hash algorithm: 11
Symmetric key bit length: 128
IV bit length:            128
Plaintext bit length:     136
Symmetric key:            00000000000000000000000000000000
IV:                       31313131313131313131313131313131
Plaintext:                0000000000000000000000000000000000
Ciphertext:               b6de54f9a78637d1eb523ca7201589f4b827c3dd70356579c1d93dc55b62abc40a
Reciphers for ciphertext: 0
Decipheredtext:           0000000000000000000000000000000000
RESULT CIPHER-DECIPHER: -----OK-----


Test: 50
Hash algorithm: 11
Symmetric key bit length: 128
IV bit length:            128
Plaintext bit length:     136
Symmetric key:            00000000000000000000000000000000
IV:                       32323232323232323232323232323232
Plaintext:                0000000000000000000000000000000000
Ciphertext:               9406b79d9f1733ac15ad53b66671ac0f31051b3e140df47dbc27c2aa4a24cfe1f1
Reciphers for ciphertext: 0
Decipheredtext:           0000000000000000000000000000000000
RESULT CIPHER-DECIPHER: -----OK-----


Test: 51
Hash algorithm: 9
Symmetric key bit length: 128
IV bit length:            128
Plaintext bit length:     136
Symmetric key:            00000000000000000000000000000000
IV:                       33333333333333333333333333333333
Plaintext:                0000000000000000000000000000000000
Ciphertext:               2e3a7007e0696fed74cdf0e5d2e4651dccc4c372c913ffd7eb868bbc446392040e627126d86e9af31b52af71e3a2daa6ea
Reciphers for ciphertext: 0
Decipheredtext:           0000000000000000000000000000000000
RESULT CIPHER-DECIPHER: -----OK-----


Test: 52
Hash algorithm: 6
Symmetric key bit length: 128
IV bit length:            128
Plaintext bit length:     136
Symmetric key:            00000000000000000000000000000000
IV:                       34343434343434343434343434343434
Plaintext:                0000000000000000000000000000000000
Ciphertext:               b9c3bec826e9594a10878413773bcce308b121448cb6e73de36e34be532d61070ab0faafa370fed52e0ac621236370c13d
Reciphers for ciphertext: 0
Decipheredtext:           0000000000000000000000000000000000
RESULT CIPHER-DECIPHER: -----OK-----


Test: 53
Hash algorithm: 13
Symmetric key bit length: 128
IV bit length:            128
Plaintext bit length:     136
Symmetric key:            00000000000000000000000000000000
IV:                       35353535353535353535353535353535
Plaintext:                0000000000000000000000000000000000
Ciphertext:               9c041158671909d6e27cdec190905ec8906fccaceedec64e59c0062c0ff158fb69
Reciphers for ciphertext: 0
Decipheredtext:           0000000000000000000000000000000000
RESULT CIPHER-DECIPHER: -----OK-----


Test: 54
Hash algorithm: 2
Symmetric key bit length: 128
IV bit length:            128
Plaintext bit length:     136
Symmetric key:            00000000000000000000000000000000
IV:                       36363636363636363636363636363636
Plaintext:                0000000000000000000000000000000000
Ciphertext:               b268d4f22cfb940e61db58419d67d2c7c0b8e0c5ea7ef2c8a0658818ab826cf55e84f5ce6f63310dacfd23c165636104e2
Reciphers for ciphertext: 0
Decipheredtext:           0000000000000000000000000000000000
RESULT CIPHER-DECIPHER: -----OK-----


Test: 55
Hash algorithm: 8
Symmetric key bit length: 128
IV bit length:            128
Plaintext bit length:     136
Symmetric key:            00000000000000000000000000000000
IV:                       37373737373737373737373737373737
Plaintext:                0000000000000000000000000000000000
Ciphertext:               012e001e37b4a059c31d6de9b652e659b91d21e23d8cd8ce359dbb73cfdc7d73e31cf29ad3
Reciphers for ciphertext: 0
Decipheredtext:           0000000000000000000000000000000000
RESULT CIPHER-DECIPHER: -----OK-----


Test: 56
Hash algorithm: 3
Symmetric key bit length: 128
IV bit length:            128
Plaintext bit length:     136
Symmetric key:            00000000000000000000000000000000
IV:                       38383838383838383838383838383838
Plaintext:                0000000000000000000000000000000000
Ciphertext:               1c84bc596ee4f7bdfef72c248d252b982eb6b00c995ff727f5c42bae8f8ab33287d48e4f098aaa09bbfa1509832f9c99f2f4ec6a99a8e4a35966716299004ca372
Reciphers for ciphertext: 0
Decipheredtext:           0000000000000000000000000000000000
RESULT CIPHER-DECIPHER: -----OK-----


Test: 57
Hash algorithm: 9
Symmetric key bit length: 128
IV bit length:            128
Plaintext bit length:     136
Symmetric key:            00000000000000000000000000000000
IV:                       39393939393939393939393939393939
Plaintext:                0000000000000000000000000000000000
Ciphertext:               2108f2fceaf9f3eda3f302c84a8528cfd6cbf1f032196f4beb51b54e69fbf349dc7880ffeb5426c5d547b149bdb0c586c9
Reciphers for ciphertext: 0
Decipheredtext:           0000000000000000000000000000000000
RESULT CIPHER-DECIPHER: -----OK-----


Test: 58
Hash algorithm: 5
Symmetric key bit length: 128
IV bit length:            128
Plaintext bit length:     136
Symmetric key:            00000000000000000000000000000000
IV:                       3a3a3a3a3a3a3a3a3a3a3a3a3a3a3a3a
Plaintext:                0000000000000000000000000000000000
Ciphertext:               97d582aba78ce627eb0f36533bbd14f73dfd409efc91109e29c2824dec81f2f4ac93339e5505af8b2bec241d04
Reciphers for ciphertext: 0
Decipheredtext:           0000000000000000000000000000000000
RESULT CIPHER-DECIPHER: -----OK-----


Test: 59
Hash algorithm: 7
Symmetric key bit length: 128
IV bit length:            128
Plaintext bit length:     136
Symmetric key:            00000000000000000000000000000000
IV:                       3b3b3b3b3b3b3b3b3b3b3b3b3b3b3b3b
Plaintext:                0000000000000000000000000000000000
Ciphertext:               a6a28d3d8ae0dfd8994f5e1f8e1db45a00cbb33d5de50cdb16490894b52de81c25
Reciphers for ciphertext: 0
Decipheredtext:           0000000000000000000000000000000000
RESULT CIPHER-DECIPHER: -----OK-----


Test: 60
Hash algorithm: 4
Symmetric key bit length: 128
IV bit length:            128
Plaintext bit length:     136
Symmetric key:            00000000000000000000000000000000
IV:                       3c3c3c3c3c3c3c3c3c3c3c3c3c3c3c3c
Plaintext:                0000000000000000000000000000000000
Ciphertext:               3c503fc1749a61be9ecd65dbf53a102d97214de46708fb22cdd8c3a82bed6a7999e28aab50095e4772dfd737368a8af6f102a7e001c376b2c7fc5a5e82413d2bd343b66880e8053a470a39a94c2e6c0516
Reciphers for ciphertext: 0
Decipheredtext:           0000000000000000000000000000000000
RESULT CIPHER-DECIPHER: -----OK-----


Test: 61
Hash algorithm: 5
Symmetric key bit length: 128
IV bit length:            128
Plaintext bit length:     136
Symmetric key:            00000000000000000000000000000000
IV:                       3d3d3d3d3d3d3d3d3d3d3d3d3d3d3d3d
Plaintext:                0000000000000000000000000000000000
Ciphertext:               353b99205837c2da354ed65225af1bb7205fae85776eabbad41cc3aded9fe0fbec8efd239df4ee511f8e5f37e3
Reciphers for ciphertext: 0
Decipheredtext:           0000000000000000000000000000000000
RESULT CIPHER-DECIPHER: -----OK-----


Test: 62
Hash algorithm: 2
Symmetric key bit length: 128
IV bit length:            128
Plaintext bit length:     136
Symmetric key:            00000000000000000000000000000000
IV:                       3e3e3e3e3e3e3e3e3e3e3e3e3e3e3e3e
Plaintext:                0000000000000000000000000000000000
Ciphertext:               a1892a40e523bcc3e0b0a3c2eabaadf211ab013b58b72ae06de4e3e328f5b18a6b55010f1c312b50ba64e6e6295457f8c4
Reciphers for ciphertext: 0
Decipheredtext:           0000000000000000000000000000000000
RESULT CIPHER-DECIPHER: -----OK-----


Test: 63
Hash algorithm: 9
Symmetric key bit length: 128
IV bit length:            128
Plaintext bit length:     136
Symmetric key:            00000000000000000000000000000000
IV:                       3f3f3f3f3f3f3f3f3f3f3f3f3f3f3f3f
Plaintext:                0000000000000000000000000000000000
Ciphertext:               00e94befd4e8b8da0cc77bba5f1e0cc99aea104921277e00dcfe81371bee686dda34c1007297450a5e330614097271ac07
Reciphers for ciphertext: 0
Decipheredtext:           0000000000000000000000000000000000
RESULT CIPHER-DECIPHER: -----OK-----


Test: 64
Hash algorithm: 6
Symmetric key bit length: 128
IV bit length:            128
Plaintext bit length:     136
Symmetric key:            00000000000000000000000000000000
IV:                       40404040404040404040404040404040
Plaintext:                0000000000000000000000000000000000
Ciphertext:               403d815d71c227bd1a233751235c6f28fb48df7b19e1cc431464900d117906a4c143d2dcefa68c84731a634e6a5ac4cbca
Reciphers for ciphertext: 0
Decipheredtext:           0000000000000000000000000000000000
RESULT CIPHER-DECIPHER: -----OK-----


Test: 65
Hash algorithm: 1
Symmetric key bit length: 128
IV bit length:            128
Plaintext bit length:     136
Symmetric key:            00000000000000000000000000000000
IV:                       41414141414141414141414141414141
Plaintext:                0000000000000000000000000000000000
Ciphertext:               b49cbf19d357e6e1f6845c30fd5b63e33c5d321480cabc490fb318aa5bff039ce17d554637776dbee423350647
Reciphers for ciphertext: 0
Decipheredtext:           0000000000000000000000000000000000
RESULT CIPHER-DECIPHER: -----OK-----


Test: 66
Hash algorithm: 10
Symmetric key bit length: 128
IV bit length:            128
Plaintext bit length:     136
Symmetric key:            00000000000000000000000000000000
IV:                       42424242424242424242424242424242
Plaintext:                0000000000000000000000000000000000
Ciphertext:               bfdaa57cb812189713a950ad9947887983aac95191c6f3f039d858187af5e1598e00cfc4da571953e94d821fb3b077c627264e81ed72d0a56a
Reciphers for ciphertext: 0
Decipheredtext:           0000000000000000000000000000000000
RESULT CIPHER-DECIPHER: -----OK-----


Test: 67
Hash algorithm: 2
Symmetric key bit length: 128
IV bit length:            128
Plaintext bit length:     136
Symmetric key:            00000000000000000000000000000000
IV:                       43434343434343434343434343434343
Plaintext:                0000000000000000000000000000000000
Ciphertext:               7ad53ebdb19a1e1ffbde1c9faf59ad5977705d2fa5e39342b1ff8d5c75b0528ac033aef886b9316546845d6420f1e87cdd
Reciphers for ciphertext: 0
Decipheredtext:           0000000000000000000000000000000000
RESULT CIPHER-DECIPHER: -----OK-----


Test: 68
Hash algorithm: 13
Symmetric key bit length: 128
IV bit length:            128
Plaintext bit length:     136
Symmetric key:            00000000000000000000000000000000
IV:                       44444444444444444444444444444444
Plaintext:                0000000000000000000000000000000000
Ciphertext:               1f4d180108a2bc733fce3a408ea81d0333ec85a5b7b17dfbfc1db4c88eef60b8a2
Reciphers for ciphertext: 0
Decipheredtext:           0000000000000000000000000000000000
RESULT CIPHER-DECIPHER: -----OK-----


Test: 69
Hash algorithm: 10
Symmetric key bit length: 128
IV bit length:            128
Plaintext bit length:     136
Symmetric key:            00000000000000000000000000000000
IV:                       45454545454545454545454545454545
Plaintext:                0000000000000000000000000000000000
Ciphertext:               13c37af5c8157630c9fbdcb258559019dd06d08e18b6f49e9e020a946534f341ee5e1abd0d019787c35c46deb01b4612995121e02f0b3d9bb4
Reciphers for ciphertext: 0
Decipheredtext:           0000000000000000000000000000000000
RESULT CIPHER-DECIPHER: -----OK-----


Test: 70
Hash algorithm: 13
Symmetric key bit length: 128
IV bit length:            128
Plaintext bit length:     136
Symmetric key:            00000000000000000000000000000000
IV:                       46464646464646464646464646464646
Plaintext:                0000000000000000000000000000000000
Ciphertext:               72b563154a8ea9eb60328ca2a44e29ccb3817ddea3f351ee6442487e6cc5868c6d
Reciphers for ciphertext: 0
Decipheredtext:           0000000000000000000000000000000000
RESULT CIPHER-DECIPHER: -----OK-----


Test: 71
Hash algorithm: 10
Symmetric key bit length: 128
IV bit length:            128
Plaintext bit length:     136
Symmetric key:            00000000000000000000000000000000
IV:                       47474747474747474747474747474747
Plaintext:                0000000000000000000000000000000000
Ciphertext:               e4e077519484d17dc8c0725a06e449a745f1f383bcea6539d303313a8d6a429850c6f07ba97c2a0b9d97e21ee147ded0ef1cf31a1b76536aa3
Reciphers for ciphertext: 0
Decipheredtext:           0000000000000000000000000000000000
RESULT CIPHER-DECIPHER: -----OK-----


Test: 72
Hash algorithm: 9
Symmetric key bit length: 128
IV bit length:            128
Plaintext bit length:     136
Symmetric key:            00000000000000000000000000000000
IV:                       48484848484848484848484848484848
Plaintext:                0000000000000000000000000000000000
Ciphertext:               d0dd87c780eb51b9a3bfa578bed37cf4ad3a248509737de9bf51f9e9d90fa51de703249b5de2dbb5ba7d32de204c28664c
Reciphers for ciphertext: 0
Decipheredtext:           0000000000000000000000000000000000
RESULT CIPHER-DECIPHER: -----OK-----


Test: 73
Hash algorithm: 1
Symmetric key bit length: 128
IV bit length:            128
Plaintext bit length:     136
Symmetric key:            00000000000000000000000000000000
IV:                       49494949494949494949494949494949
Plaintext:                0000000000000000000000000000000000
Ciphertext:               d979653824ff7ed5cf96d9936e05b0dc7030d7cea13d14d13b8a0a2ff86c5d4fde312057b09128ddf6de4fde23
Reciphers for ciphertext: 0
Decipheredtext:           0000000000000000000000000000000000
RESULT CIPHER-DECIPHER: -----OK-----


Test: 74
Hash algorithm: 9
Symmetric key bit length: 128
IV bit length:            128
Plaintext bit length:     136
Symmetric key:            00000000000000000000000000000000
IV:                       4a4a4a4a4a4a4a4a4a4a4a4a4a4a4a4a
Plaintext:                0000000000000000000000000000000000
Ciphertext:               e7872bbd4fe2c1b008931041b3dc77394b0d7e2973bc7479b6fad55ce002aa162ae5fa44343d091d2556019b96a8d7dfe4
Reciphers for ciphertext: 0
Decipheredtext:           0000000000000000000000000000000000
RESULT CIPHER-DECIPHER: -----OK-----


Test: 75
Hash algorithm: 4
Symmetric key bit length: 128
IV bit length:            128
Plaintext bit length:     136
Symmetric key:            00000000000000000000000000000000
IV:                       4b4b4b4b4b4b4b4b4b4b4b4b4b4b4b4b
Plaintext:                0000000000000000000000000000000000
Ciphertext:               29b706226d44eb8e9c8535b544c805218434aadd841125a8fdda8bf8455c986c95f1f6ba26579734b641957ad4745c6bdb0774dd147ababedb27f35b56638c8da18ff6696ffc3c0b9ddc01b076a3a12e1e
Reciphers for ciphertext: 0
Decipheredtext:           0000000000000000000000000000000000
RESULT CIPHER-DECIPHER: -----OK-----


Test: 76
Hash algorithm: 4
Symmetric key bit length: 128
IV bit length:            128
Plaintext bit length:     136
Symmetric key:            00000000000000000000000000000000
IV:                       4c4c4c4c4c4c4c4c4c4c4c4c4c4c4c4c
Plaintext:                0000000000000000000000000000000000
Ciphertext:               1d983819e4212f50292694f1d3d534a9bd0085e3bf98406c236f285901cb855d1dc8ae16d9648597401ca2d20b6c76a28374da2e00c4159de98b2a3c30b62b96b368f292516091abcf8d017c3767903b71
Reciphers for ciphertext: 0
Decipheredtext:           0000000000000000000000000000000000
RESULT CIPHER-DECIPHER: -----OK-----


Test: 77
Hash algorithm: 10
Symmetric key bit length: 128
IV bit length:            128
Plaintext bit length:     136
Symmetric key:            00000000000000000000000000000000
IV:                       4d4d4d4d4d4d4d4d4d4d4d4d4d4d4d4d
Plaintext:                0000000000000000000000000000000000
Ciphertext:               b565e8d9c866438d2e1c54f42504f32f8ba0761c34b687ab23e5ed1c2349a222d808305fcc7794bdcaa76607ebcb46a502014557e6fc1b9a06
Reciphers for ciphertext: 0
Decipheredtext:           0000000000000000000000000000000000
RESULT CIPHER-DECIPHER: -----OK-----


Test: 78
Hash algorithm: 5
Symmetric key bit length: 128
IV bit length:            128
Plaintext bit length:     136
Symmetric key:            00000000000000000000000000000000
IV:                       4e4e4e4e4e4e4e4e4e4e4e4e4e4e4e4e
Plaintext:                0000000000000000000000000000000000
Ciphertext:               c2f7b8ff2e98fd47b196afeaba4c87d9f0a862a4a818048549981bd455000367825ebc65360ba55fe1b716ae10
Reciphers for ciphertext: 0
Decipheredtext:           0000000000000000000000000000000000
RESULT CIPHER-DECIPHER: -----OK-----


Test: 79
Hash algorithm: 2
Symmetric key bit length: 128
IV bit length:            128
Plaintext bit length:     136
Symmetric key:            00000000000000000000000000000000
IV:                       4f4f4f4f4f4f4f4f4f4f4f4f4f4f4f4f
Plaintext:                0000000000000000000000000000000000
Ciphertext:               e52b12881030ec384bc39261136b6a9583efa303904239b0964f90d28b0c604d0cc76da1d217a310eb2d41bc7d2521ea81
Reciphers for ciphertext: 0
Decipheredtext:           0000000000000000000000000000000000
RESULT CIPHER-DECIPHER: -----OK-----


Test: 80
Hash algorithm: 1
Symmetric key bit length: 128
IV bit length:            128
Plaintext bit length:     136
Symmetric key:            00000000000000000000000000000000
IV:                       50505050505050505050505050505050
Plaintext:                0000000000000000000000000000000000
Ciphertext:               97718caafe27a5d1497b79f732d937081b7edf2733e7cc0a3f0ce78f9c3081c80a5a713bfdbaf5c2ab2b665373
Reciphers for ciphertext: 0
Decipheredtext:           0000000000000000000000000000000000
RESULT CIPHER-DECIPHER: -----OK-----


Test: 81
Hash algorithm: 9
Symmetric key bit length: 128
IV bit length:            128
Plaintext bit length:     136
Symmetric key:            00000000000000000000000000000000
IV:                       51515151515151515151515151515151
Plaintext:                0000000000000000000000000000000000
Ciphertext:               25f609479a00cb059c554e7190bc9d6348cf0f0b89699673036e1302d021cafc70e64cde9b381618c7dc1d5c58bb5ea71c
Reciphers for ciphertext: 0
Decipheredtext:           0000000000000000000000000000000000
RESULT CIPHER-DECIPHER: -----OK-----


Test: 82
Hash algorithm: 5
Symmetric key bit length: 128
IV bit length:            128
Plaintext bit length:     136
Symmetric key:            00000000000000000000000000000000
IV:                       52525252525252525252525252525252
Plaintext:                0000000000000000000000000000000000
Ciphertext:               87591de1a5f33bed2c84225614811806c1edcc01b6936f43e3050959e9aecef85d6f7ee6dc28e87a175aa93445
Reciphers for ciphertext: 0
Decipheredtext:           0000000000000000000000000000000000
RESULT CIPHER-DECIPHER: -----OK-----


Test: 83
Hash algorithm: 13
Symmetric key bit length: 128
IV bit length:            128
Plaintext bit length:     136
Symmetric key:            00000000000000000000000000000000
IV:                       53535353535353535353535353535353
Plaintext:                0000000000000000000000000000000000
Ciphertext:               4bfcd942ec4cfc609520a89109c2930366b83464f45593bbefb75a5a5f680a36a2
Reciphers for ciphertext: 0
Decipheredtext:           0000000000000000000000000000000000
RESULT CIPHER-DECIPHER: -----OK-----


Test: 84
Hash algorithm: 13
Symmetric key bit length: 128
IV bit length:            128
Plaintext bit length:     136
Symmetric key:            00000000000000000000000000000000
IV:                       54545454545454545454545454545454
Plaintext:                0000000000000000000000000000000000
Ciphertext:               b2c1f39fbdb1497c571cb223cf2201433741094e29046e0ef3756640edaeeaa4e2
Reciphers for ciphertext: 0
Decipheredtext:           0000000000000000000000000000000000
RESULT CIPHER-DECIPHER: -----OK-----


Test: 85
Hash algorithm: 11
Symmetric key bit length: 128
IV bit length:            128
Plaintext bit length:     136
Symmetric key:            00000000000000000000000000000000
IV:                       55555555555555555555555555555555
Plaintext:                0000000000000000000000000000000000
Ciphertext:               9adae054f63dfaff5ea18e45edf6ea6f430bc769dd64deb4ef6cce77b9af48a791
Reciphers for ciphertext: 0
Decipheredtext:           0000000000000000000000000000000000
RESULT CIPHER-DECIPHER: -----OK-----


Test: 86
Hash algorithm: 5
Symmetric key bit length: 128
IV bit length:            128
Plaintext bit length:     136
Symmetric key:            00000000000000000000000000000000
IV:                       56565656565656565656565656565656
Plaintext:                0000000000000000000000000000000000
Ciphertext:               c4978173bda102ca2cff03c5bb212371b4ae029d248b3d7ac40572787a016ec32a1aa710a4a864bde1dd371277
Reciphers for ciphertext: 0
Decipheredtext:           0000000000000000000000000000000000
RESULT CIPHER-DECIPHER: -----OK-----


Test: 87
Hash algorithm: 2
Symmetric key bit length: 128
IV bit length:            128
Plaintext bit length:     136
Symmetric key:            00000000000000000000000000000000
IV:                       57575757575757575757575757575757
Plaintext:                0000000000000000000000000000000000
Ciphertext:               a2a0090b3eaf42171d9b4ccb421282863ca82818136ca61eb919c80c215d19a51f786a870089f411524d95b5c873cfba57
Reciphers for ciphertext: 0
Decipheredtext:           0000000000000000000000000000000000
RESULT CIPHER-DECIPHER: -----OK-----


Test: 88
Hash algorithm: 7
Symmetric key bit length: 128
IV bit length:            128
Plaintext bit length:     136
Symmetric key:            00000000000000000000000000000000
IV:                       58585858585858585858585858585858
Plaintext:                0000000000000000000000000000000000
Ciphertext:               b17dba7290137d5ef55d2ed6dd2f72cbfadc6c0a12ffff7990251ae47c7edadab4
Reciphers for ciphertext: 0
Decipheredtext:           0000000000000000000000000000000000
RESULT CIPHER-DECIPHER: -----OK-----


Test: 89
Hash algorithm: 12
Symmetric key bit length: 128
IV bit length:            128
Plaintext bit length:     136
Symmetric key:            00000000000000000000000000000000
IV:                       59595959595959595959595959595959
Plaintext:                0000000000000000000000000000000000
Ciphertext:               1c1999d0a6c796f79f4dc2b27aee2b26b4d32cbd2be77bdab33738858ee804b1b8
Reciphers for ciphertext: 0
Decipheredtext:           0000000000000000000000000000000000
RESULT CIPHER-DECIPHER: -----OK-----


Test: 90
Hash algorithm: 6
Symmetric key bit length: 128
IV bit length:            128
Plaintext bit length:     136
Symmetric key:            00000000000000000000000000000000
IV:                       5a5a5a5a5a5a5a5a5a5a5a5a5a5a5a5a
Plaintext:                0000000000000000000000000000000000
Ciphertext:               d1e0bb58f1d9a5ee3fe5ed3b49fef59da6d902411c61d7c1474156d77b13a43e741e01292e00c8c3ab52db8d8d1686f9fe
Reciphers for ciphertext: 0
Decipheredtext:           0000000000000000000000000000000000
RESULT CIPHER-DECIPHER: -----OK-----


Test: 91
Hash algorithm: 11
Symmetric key bit length: 128
IV bit length:            128
Plaintext bit length:     136
Symmetric key:            00000000000000000000000000000000
IV:                       5b5b5b5b5b5b5b5b5b5b5b5b5b5b5b5b
Plaintext:                0000000000000000000000000000000000
Ciphertext:               c1deb6e129e60abbe2c17778eb8ef81a8450c33f68bb0544abd0ae8e84a930b5e4
Reciphers for ciphertext: 0
Decipheredtext:           0000000000000000000000000000000000
RESULT CIPHER-DECIPHER: -----OK-----


Test: 92
Hash algorithm: 11
Symmetric key bit length: 128
IV bit length:            128
Plaintext bit length:     136
Symmetric key:            00000000000000000000000000000000
IV:                       5c5c5c5c5c5c5c5c5c5c5c5c5c5c5c5c
Plaintext:                0000000000000000000000000000000000
Ciphertext:               a97f1ba4cf60fd58c1b06d6d14297525d63862922d5d83b348f3df9491569738db
Reciphers for ciphertext: 0
Decipheredtext:           0000000000000000000000000000000000
RESULT CIPHER-DECIPHER: -----OK-----


Test: 93
Hash algorithm: 11
Symmetric key bit length: 128
IV bit length:            128
Plaintext bit length:     136
Symmetric key:            00000000000000000000000000000000
IV:                       5d5d5d5d5d5d5d5d5d5d5d5d5d5d5d5d
Plaintext:                0000000000000000000000000000000000
Ciphertext:               b0aa369a2833cddfc4003f377b6bf7e49121b7bf13bad083cff66fc6cb39d5ba1a
Reciphers for ciphertext: 0
Decipheredtext:           0000000000000000000000000000000000
RESULT CIPHER-DECIPHER: -----OK-----


Test: 94
Hash algorithm: 5
Symmetric key bit length: 128
IV bit length:            128
Plaintext bit length:     136
Symmetric key:            00000000000000000000000000000000
IV:                       5e5e5e5e5e5e5e5e5e5e5e5e5e5e5e5e
Plaintext:                0000000000000000000000000000000000
Ciphertext:               a7a42c50de75f784f07c0f905c768d9ef1cd313007e8e98f8ad9f1742fe6396dc55f3a9e5ea60a01dd5d4d147a
Reciphers for ciphertext: 0
Decipheredtext:           0000000000000000000000000000000000
RESULT CIPHER-DECIPHER: -----OK-----


Test: 95
Hash algorithm: 0
Symmetric key bit length: 128
IV bit length:            128
Plaintext bit length:     136
Symmetric key:            00000000000000000000000000000000
IV:                       5f5f5f5f5f5f5f5f5f5f5f5f5f5f5f5f
Plaintext:                0000000000000000000000000000000000
Ciphertext:               be5d21a228b8bb3384cf560e61219ee0745379c08a084a42332af76d72a5d32dfc3433fbd7
Reciphers for ciphertext: 0
Decipheredtext:           0000000000000000000000000000000000
RESULT CIPHER-DECIPHER: -----OK-----


Test: 96
Hash algorithm: 4
Symmetric key bit length: 128
IV bit length:            128
Plaintext bit length:     136
Symmetric key:            00000000000000000000000000000000
IV:                       60606060606060606060606060606060
Plaintext:                0000000000000000000000000000000000
Ciphertext:               b4ec7574f4bbc75a1efe32f4bfa6eb912ba9f1aed288da842958f0ff04a7f682255eb4c608df85479eafe722496e6330b31d92a282202b27854516ca99e2026e221bd04eddc9e0327cf06ec2a9894be3b1
Reciphers for ciphertext: 0
Decipheredtext:           0000000000000000000000000000000000
RESULT CIPHER-DECIPHER: -----OK-----


Test: 97
Hash algorithm: 6
Symmetric key bit length: 128
IV bit length:            128
Plaintext bit length:     136
Symmetric key:            00000000000000000000000000000000
IV:                       61616161616161616161616161616161
Plaintext:                0000000000000000000000000000000000
Ciphertext:               926c0fea05afd65f5931d29a9c6b3f9cd29a8ef5ae95a1b2f62782e8dac631f4756a2ed169c52ae845cc67a6319c9a9858
Reciphers for ciphertext: 0
Decipheredtext:           0000000000000000000000000000000000
RESULT CIPHER-DECIPHER: -----OK-----


Test: 98
Hash algorithm: 7
Symmetric key bit length: 128
IV bit length:            128
Plaintext bit length:     136
Symmetric key:            00000000000000000000000000000000
IV:                       62626262626262626262626262626262
Plaintext:                0000000000000000000000000000000000
Ciphertext:               90aa2c65e83d81912f28210d1185a167cafdbb9c0587d1855fff6feba7b2700918
Reciphers for ciphertext: 0
Decipheredtext:           0000000000000000000000000000000000
RESULT CIPHER-DECIPHER: -----OK-----


Test: 99
Hash algorithm: 2
Symmetric key bit length: 128
IV bit length:            128
Plaintext bit length:     136
Symmetric key:            00000000000000000000000000000000
IV:                       63636363636363636363636363636363
Plaintext:                0000000000000000000000000000000000
Ciphertext:               9d9a5cf8e4f0d187d305de9de48aaa354797124de0b6f98d29d7569e77fb818dac0345bf18346deba06c4062ea9a7578b4
Reciphers for ciphertext: 0
Decipheredtext:           0000000000000000000000000000000000
RESULT CIPHER-DECIPHER: -----OK-----


Test: 100
Hash algorithm: 10
Symmetric key bit length: 128
IV bit length:            128
Plaintext bit length:     136
Symmetric key:            00000000000000000000000000000000
IV:                       64646464646464646464646464646464
Plaintext:                0000000000000000000000000000000000
Ciphertext:               2529fe06f4999d7ffa831ef286028b2b22303a0aeb8a7875d131725625eaa45adca1328e1f99906b84e93579c3382852b5144ca3fbf9d5d0ad
Reciphers for ciphertext: 0
Decipheredtext:           0000000000000000000000000000000000
RESULT CIPHER-DECIPHER: -----OK-----


Test: 101
Hash algorithm: 10
Symmetric key bit length: 128
IV bit length:            128
Plaintext bit length:     136
Symmetric key:            00000000000000000000000000000000
IV:                       65656565656565656565656565656565
Plaintext:                0000000000000000000000000000000000
Ciphertext:               5e5816da962a31ba08d177a383f7af1e284b4be237e8cbd914c3203f74ef517ee9ab24c5d1257e34e5a6f1c4ab4ec7acc80a906b5ef4373b27
Reciphers for ciphertext: 0
Decipheredtext:           0000000000000000000000000000000000
RESULT CIPHER-DECIPHER: -----OK-----


Test: 102
Hash algorithm: 11
Symmetric key bit length: 128
IV bit length:            128
Plaintext bit length:     136
Symmetric key:            00000000000000000000000000000000
IV:                       66666666666666666666666666666666
Plaintext:                0000000000000000000000000000000000
Ciphertext:               9760fa565ca9242db4337142d02e2a37a5067d73dfce4a6a3d865c88be929067c9
Reciphers for ciphertext: 0
Decipheredtext:           0000000000000000000000000000000000
RESULT CIPHER-DECIPHER: -----OK-----


Test: 103
Hash algorithm: 8
Symmetric key bit length: 128
IV bit length:            128
Plaintext bit length:     136
Symmetric key:            00000000000000000000000000000000
IV:                       67676767676767676767676767676767
Plaintext:                0000000000000000000000000000000000
Ciphertext:               e8f605047bf04c36532995a562154cea7ff4f9e727c09c225a0d8f8b83083ad950da732985
Reciphers for ciphertext: 0
Decipheredtext:           0000000000000000000000000000000000
RESULT CIPHER-DECIPHER: -----OK-----


Test: 104
Hash algorithm: 10
Symmetric key bit length: 128
IV bit length:            128
Plaintext bit length:     136
Symmetric key:            00000000000000000000000000000000
IV:                       68686868686868686868686868686868
Plaintext:                0000000000000000000000000000000000
Ciphertext:               204cbf15031f670405f16de142746f55f3355f4bf87dfe8faace0025362ed2bea2701363c6c05b7fc866d67152323e882edcdbc74689c8dbc7
Reciphers for ciphertext: 0
Decipheredtext:           0000000000000000000000000000000000
RESULT CIPHER-DECIPHER: -----OK-----


Test: 105
Hash algorithm: 3
Symmetric key bit length: 128
IV bit length:            128
Plaintext bit length:     136
Symmetric key:            00000000000000000000000000000000
IV:                       69696969696969696969696969696969
Plaintext:                0000000000000000000000000000000000
Ciphertext:               90fae13ffc88140c10a54428c22b2ce1173ace51ffcd9bc4442a79c683c5bd35feedff37c15a106c176a4d56ff682567a8ffbc283bf4df79f4c52fb128ff720fc2
Reciphers for ciphertext: 0
Decipheredtext:           0000000000000000000000000000000000
RESULT CIPHER-DECIPHER: -----OK-----


Test: 106
Hash algorithm: 13
Symmetric key bit length: 128
IV bit length:            128
Plaintext bit length:     136
Symmetric key:            00000000000000000000000000000000
IV:                       6a6a6a6a6a6a6a6a6a6a6a6a6a6a6a6a
Plaintext:                0000000000000000000000000000000000
Ciphertext:               5607477660d45c790d733afab28b73eef2a5cffac0d90b1bf62f09c834d343d64f
Reciphers for ciphertext: 0
Decipheredtext:           0000000000000000000000000000000000
RESULT CIPHER-DECIPHER: -----OK-----


Test: 107
Hash algorithm: 8
Symmetric key bit length: 128
IV bit length:            128
Plaintext bit length:     136
Symmetric key:            00000000000000000000000000000000
IV:                       6b6b6b6b6b6b6b6b6b6b6b6b6b6b6b6b
Plaintext:                0000000000000000000000000000000000
Ciphertext:               c145f1b8ff7767d3a93311fd031d045e15dd4a139b441b09bff7950fdb693291e4b01fced3
Reciphers for ciphertext: 0
Decipheredtext:           0000000000000000000000000000000000
RESULT CIPHER-DECIPHER: -----OK-----


Test: 108
Hash algorithm: 12
Symmetric key bit length: 128
IV bit length:            128
Plaintext bit length:     136
Symmetric key:            00000000000000000000000000000000
IV:                       6c6c6c6c6c6c6c6c6c6c6c6c6c6c6c6c
Plaintext:                0000000000000000000000000000000000
Ciphertext:               23ce1281a61744b877892c5ff8668fe1bdecfb367ae7ab08fcdffc6b636a8c157f
Reciphers for ciphertext: 0
Decipheredtext:           0000000000000000000000000000000000
RESULT CIPHER-DECIPHER: -----OK-----


Test: 109
Hash algorithm: 5
Symmetric key bit length: 128
IV bit length:            128
Plaintext bit length:     136
Symmetric key:            00000000000000000000000000000000
IV:                       6d6d6d6d6d6d6d6d6d6d6d6d6d6d6d6d
Plaintext:                0000000000000000000000000000000000
Ciphertext:               ec18cc592305d35cb67989ed572fea5bb3868dd00e1599ab529ff4f252ed600a001d43508703d386acc9f40c61
Reciphers for ciphertext: 0
Decipheredtext:           0000000000000000000000000000000000
RESULT CIPHER-DECIPHER: -----OK-----


Test: 110
Hash algorithm: 10
Symmetric key bit length: 128
IV bit length:            128
Plaintext bit length:     136
Symmetric key:            00000000000000000000000000000000
IV:                       6e6e6e6e6e6e6e6e6e6e6e6e6e6e6e6e
Plaintext:                0000000000000000000000000000000000
Ciphertext:               256a93d3c48cfa92f2f9f5fa5b318a90bf3079673eba6d123c3908bd2d37975b673c0aa637a46e81d4124b6eb0a5e9087e870c9ba294c8a9b4
Reciphers for ciphertext: 0
Decipheredtext:           0000000000000000000000000000000000
RESULT CIPHER-DECIPHER: -----OK-----


Test: 111
Hash algorithm: 3
Symmetric key bit length: 128
IV bit length:            128
Plaintext bit length:     136
Symmetric key:            00000000000000000000000000000000
IV:                       6f6f6f6f6f6f6f6f6f6f6f6f6f6f6f6f
Plaintext:                0000000000000000000000000000000000
Ciphertext:               75738ebb52633fc2ecbac6f98cfe8dc93fdf473e7b6370ef8ad66644528b6894d6c59dc3728246e36d56a28954a0b88136b44aeb0cae5ad7f252960a9c8ce89b4a
Reciphers for ciphertext: 0
Decipheredtext:           0000000000000000000000000000000000
RESULT CIPHER-DECIPHER: -----OK-----


Test: 112
Hash algorithm: 8
Symmetric key bit length: 128
IV bit length:            128
Plaintext bit length:     136
Symmetric key:            00000000000000000000000000000000
IV:                       70707070707070707070707070707070
Plaintext:                0000000000000000000000000000000000
Ciphertext:               1f12cf60d35d0d6f821e66fdd79a721887031d2d4368316303dcb878dbbdb5e7a2225211d5
Reciphers for ciphertext: 0
Decipheredtext:           0000000000000000000000000000000000
RESULT CIPHER-DECIPHER: -----OK-----


Test: 113
Hash algorithm: 11
Symmetric key bit length: 128
IV bit length:            128
Plaintext bit length:     136
Symmetric key:            00000000000000000000000000000000
IV:                       71717171717171717171717171717171
Plaintext:                0000000000000000000000000000000000
Ciphertext:               c16a063936ba5ea38242219599260226bb50778fb0a45910b3b02dd869db984fd8
Reciphers for ciphertext: 0
Decipheredtext:           0000000000000000000000000000000000
RESULT CIPHER-DECIPHER: -----OK-----


Test: 114
Hash algorithm: 10
Symmetric key bit length: 128
IV bit length:            128
Plaintext bit length:     136
Symmetric key:            00000000000000000000000000000000
IV:                       72727272727272727272727272727272
Plaintext:                0000000000000000000000000000000000
Ciphertext:               b305319bdb3e696e75570d54f3da33ea75a616c576a5df81c0bea645839f7ce21df6198be4257103e4e28b68554fdd3922ff07ef2216a48d73
Reciphers for ciphertext: 0
Decipheredtext:           0000000000000000000000000000000000
RESULT CIPHER-DECIPHER: -----OK-----


Test: 115
Hash algorithm: 1
Symmetric key bit length: 128
IV bit length:            128
Plaintext bit length:     136
Symmetric key:            00000000000000000000000000000000
IV:                       73737373737373737373737373737373
Plaintext:                0000000000000000000000000000000000
Ciphertext:               fb2094822b411c51a4e09e14e3bcebc2a5128e3f1b32aab3bfe17c687fe1e414c0e4bbc7071dc6068d50289608
Reciphers for ciphertext: 0
Decipheredtext:           0000000000000000000000000000000000
RESULT CIPHER-DECIPHER: -----OK-----


Test: 116
Hash algorithm: 13
Symmetric key bit length: 128
IV bit length:            128
Plaintext bit length:     136
Symmetric key:            00000000000000000000000000000000
IV:                       74747474747474747474747474747474
Plaintext:                0000000000000000000000000000000000
Ciphertext:               8f421cd507ede077115442e48dace6cdde7c8aa163be32a7f8332eb02aec64436c
Reciphers for ciphertext: 0
Decipheredtext:           0000000000000000000000000000000000
RESULT CIPHER-DECIPHER: -----OK-----


Test: 117
Hash algorithm: 12
Symmetric key bit length: 128
IV bit length:            128
Plaintext bit length:     136
Symmetric key:            00000000000000000000000000000000
IV:                       75757575757575757575757575757575
Plaintext:                0000000000000000000000000000000000
Ciphertext:               a4a4e35344c9fc6d8bf07e62b420bb8e926b91c7a80575b0292385395e26ca2110
Reciphers for ciphertext: 0
Decipheredtext:           0000000000000000000000000000000000
RESULT CIPHER-DECIPHER: -----OK-----


Test: 118
Hash algorithm: 3
Symmetric key bit length: 128
IV bit length:            128
Plaintext bit length:     136
Symmetric key:            00000000000000000000000000000000
IV:                       76767676767676767676767676767676
Plaintext:                0000000000000000000000000000000000
Ciphertext:               937f3dce41a2c24852156903e73329afff394b8d0e70b1120068c9eba8e0a530b0050bea006f88aa083ce259ed4ad1a81135913f9dd8172a363cd1fde5927ee89f
Reciphers for ciphertext: 0
Decipheredtext:           0000000000000000000000000000000000
RESULT CIPHER-DECIPHER: -----OK-----


Test: 119
Hash algorithm: 13
Symmetric key bit length: 128
IV bit length:            128
Plaintext bit length:     136
Symmetric key:            00000000000000000000000000000000
IV:                       77777777777777777777777777777777
Plaintext:                0000000000000000000000000000000000
Ciphertext:               4dc30bd90edc538e7c1fbe2cf8d1ee78a7be0bb66fb70314015e654ce299194bd9
Reciphers for ciphertext: 0
Decipheredtext:           0000000000000000000000000000000000
RESULT CIPHER-DECIPHER: -----OK-----


Test: 120
Hash algorithm: 13
Symmetric key bit length: 128
IV bit length:            128
Plaintext bit length:     136
Symmetric key:            00000000000000000000000000000000
IV:                       78787878787878787878787878787878
Plaintext:                0000000000000000000000000000000000
Ciphertext:               f1a709887ef4228cdaca975b4f304740a3026fb43ec72b6503f8b065952ef8e2e1
Reciphers for ciphertext: 0
Decipheredtext:           0000000000000000000000000000000000
RESULT CIPHER-DECIPHER: -----OK-----


Test: 121
Hash algorithm: 6
Symmetric key bit length: 128
IV bit length:            128
Plaintext bit length:     136
Symmetric key:            00000000000000000000000000000000
IV:                       79797979797979797979797979797979
Plaintext:                0000000000000000000000000000000000
Ciphertext:               16b0cafe570d5ab6866581ac2b1c15d8711e5230bac7033e1ff8d6bbec7146de31c97f813bfc611449a15d3b6f031c5f68
Reciphers for ciphertext: 0
Decipheredtext:           0000000000000000000000000000000000
RESULT CIPHER-DECIPHER: -----OK-----


Test: 122
Hash algorithm: 13
Symmetric key bit length: 128
IV bit length:            128
Plaintext bit length:     136
Symmetric key:            00000000000000000000000000000000
IV:                       7a7a7a7a7a7a7a7a7a7a7a7a7a7a7a7a
Plaintext:                0000000000000000000000000000000000
Ciphertext:               404fe644cb7fddae77a31297a6f91b762bb3875bf272a09a2155d9e059c731bed7
Reciphers for ciphertext: 0
Decipheredtext:           0000000000000000000000000000000000
RESULT CIPHER-DECIPHER: -----OK-----


Test: 123
Hash algorithm: 9
Symmetric key bit length: 128
IV bit length:            128
Plaintext bit length:     136
Symmetric key:            00000000000000000000000000000000
IV:                       7b7b7b7b7b7b7b7b7b7b7b7b7b7b7b7b
Plaintext:                0000000000000000000000000000000000
Ciphertext:               de63ed75feedd3f1c4c5a788b77488b283349aefbb0d7b6bf73683eb290602e9a12d6b5ffcc93aa0ae8bc1faa43eb00d5c
Reciphers for ciphertext: 0
Decipheredtext:           0000000000000000000000000000000000
RESULT CIPHER-DECIPHER: -----OK-----


Test: 124
Hash algorithm: 10
Symmetric key bit length: 128
IV bit length:            128
Plaintext bit length:     136
Symmetric key:            00000000000000000000000000000000
IV:                       7c7c7c7c7c7c7c7c7c7c7c7c7c7c7c7c
Plaintext:                0000000000000000000000000000000000
Ciphertext:               7be6a76665328d8c7d021d074ad1d272e66ef5538b1bd36522b6f355d02677038565066854090b0ba8c193a7e61540b6c827169499d476d998
Reciphers for ciphertext: 0
Decipheredtext:           0000000000000000000000000000000000
RESULT CIPHER-DECIPHER: -----OK-----


Test: 125
Hash algorithm: 13
Symmetric key bit length: 128
IV bit length:            128
Plaintext bit length:     136
Symmetric key:            00000000000000000000000000000000
IV:                       7d7d7d7d7d7d7d7d7d7d7d7d7d7d7d7d
Plaintext:                0000000000000000000000000000000000
Ciphertext:               85c1aa07d165a83476dc12983d49db503d760917b168baefbb54a6e0565c817ef1
Reciphers for ciphertext: 0
Decipheredtext:           0000000000000000000000000000000000
RESULT CIPHER-DECIPHER: -----OK-----


Test: 126
Hash algorithm: 5
Symmetric key bit length: 128
IV bit length:            128
Plaintext bit length:     136
Symmetric key:            00000000000000000000000000000000
IV:                       7e7e7e7e7e7e7e7e7e7e7e7e7e7e7e7e
Plaintext:                0000000000000000000000000000000000
Ciphertext:               a03413f97973c78197cc4d7d56df1d2f15caa10fae4fefbf8fbe4136c2ec90fd74bbb8a02debf9f7f8f7888762
Reciphers for ciphertext: 0
Decipheredtext:           0000000000000000000000000000000000
RESULT CIPHER-DECIPHER: -----OK-----


Test: 127
Hash algorithm: 4
Symmetric key bit length: 128
IV bit length:            128
Plaintext bit length:     136
Symmetric key:            00000000000000000000000000000000
IV:                       7f7f7f7f7f7f7f7f7f7f7f7f7f7f7f7f
Plaintext:                0000000000000000000000000000000000
Ciphertext:               ecd04cf03dd607b6e41a389896c8b58e23f1cd975641b744c5a214f5688e98dc3a56ea8792fe463d729f069acc7d132a97521e0e7bb8eff17355c18c3870aaf0fbe81df99f376e6f15c1f9754c04157d15
Reciphers for ciphertext: 0
Decipheredtext:           0000000000000000000000000000000000
RESULT CIPHER-DECIPHER: -----OK-----


 DATA SHA1 (hexadecimal): 533f16bd351fc8bf0070a4ac6d0561d82b7b0742

