
DiceLock 9.0.0.1

 TEST COMPONENTS:
 ----------------
 DiceLock:           DiceLockIVDigested class
 Operation Mode:     OFB_Mode class
 Block Cipher:       TDEA class
 Hash algorithms:     0 - Sha1 class
                      1 - Sha224 class
                      2 - Sha256 class
                      3 - Sha384 class
                      4 - Sha512 class
                      5 - Sha512_224 class
                      6 - Sha512_256 class
                      7 - Ripemd128 class
                      8 - Ripemd160 class
                      9 - Ripemd256 class
                     10 - Ripemd320 class
                     11 - MD2 class
                     12 - MD4 class
                     13 - MD5 class
 Key Modifier:       DecreaseKeyModifier_6_0_0_1 class
 Random tests:       RandomTestSuite class
                     FrequencyTest class
                     BlockFrequencyTest class
                     CumulativeSumForwardTest class
                     LongestRunOfOnesTest class
                     RunsTest class
 Random alpha:       0.001

 VECTOR TEST: Test vector 4 - Symmetric key all byte value 0xXX


##### INDIVIDUAL TESTS #####

Number tests: 128


Test: 0
Hash algorithm: 3
Symmetric key bit length: 192
IV bit length:            64
Plaintext bit length:     128
Symmetric key:            000000000000000000000000000000000000000000000000
IV:                       0000000000000000
Plaintext:                00000000000000000000000000000000
Ciphertext:               34069fd706790c17b3b83a997b02d9f89a46fa4aa76030c97b677dd225349892dc84fef6e6b3729598eb2a47566823e2d98453da6a27addbb80750052571f83d
Reciphers for ciphertext: 3
Decipheredtext:           00000000000000000000000000000000
RESULT CIPHER-DECIPHER: -----OK-----


Test: 1
Hash algorithm: 7
Symmetric key bit length: 192
IV bit length:            64
Plaintext bit length:     128
Symmetric key:            010101010101010101010101010101010101010101010101
IV:                       0000000000000000
Plaintext:                00000000000000000000000000000000
Ciphertext:               ed381e3254367899fda1460ce0d6e22699fb2d5b28774516c4adb72dc4916ee5
Reciphers for ciphertext: 2
Decipheredtext:           00000000000000000000000000000000
RESULT CIPHER-DECIPHER: -----OK-----


Test: 2
Hash algorithm: 1
Symmetric key bit length: 192
IV bit length:            64
Plaintext bit length:     128
Symmetric key:            020202020202020202020202020202020202020202020202
IV:                       0000000000000000
Plaintext:                00000000000000000000000000000000
Ciphertext:               c4af51bd0a0f8add9f39b55411213445352aec849414ef4bddbf99b448c336e45f41fbe2774456858d10eec3
Reciphers for ciphertext: 0
Decipheredtext:           00000000000000000000000000000000
RESULT CIPHER-DECIPHER: -----OK-----


Test: 3
Hash algorithm: 9
Symmetric key bit length: 192
IV bit length:            64
Plaintext bit length:     128
Symmetric key:            030303030303030303030303030303030303030303030303
IV:                       0000000000000000
Plaintext:                00000000000000000000000000000000
Ciphertext:               c4af51bd0a0f8add9f39b55411213445025ea0ff554ca7602d77b5038baadaf9ae8b7c6482252c9adaf4bc68e08a8902
Reciphers for ciphertext: 0
Decipheredtext:           00000000000000000000000000000000
RESULT CIPHER-DECIPHER: -----OK-----


Test: 4
Hash algorithm: 11
Symmetric key bit length: 192
IV bit length:            64
Plaintext bit length:     128
Symmetric key:            040404040404040404040404040404040404040404040404
IV:                       0000000000000000
Plaintext:                00000000000000000000000000000000
Ciphertext:               8ca0964581b0eb53a16b32336f90dd53b29268299825cb936b243cbf477ffad5
Reciphers for ciphertext: 0
Decipheredtext:           00000000000000000000000000000000
RESULT CIPHER-DECIPHER: -----OK-----


Test: 5
Hash algorithm: 10
Symmetric key bit length: 192
IV bit length:            64
Plaintext bit length:     128
Symmetric key:            050505050505050505050505050505050505050505050505
IV:                       0000000000000000
Plaintext:                00000000000000000000000000000000
Ciphertext:               8ca0964581b0eb53a16b32336f90dd534dd34af817c180d84f02695dee395290cc9548ab158c1bd31506699e10b19839cff1a7d42a8f3544
Reciphers for ciphertext: 0
Decipheredtext:           00000000000000000000000000000000
RESULT CIPHER-DECIPHER: -----OK-----


Test: 6
Hash algorithm: 8
Symmetric key bit length: 192
IV bit length:            64
Plaintext bit length:     128
Symmetric key:            060606060606060606060606060606060606060606060606
IV:                       0000000000000000
Plaintext:                00000000000000000000000000000000
Ciphertext:               e818736e6ea987db9ab6b7e44f32346a1a6e7fe726d3cc2b4ec9db28e7e4bd7f56fe9ef4
Reciphers for ciphertext: 0
Decipheredtext:           00000000000000000000000000000000
RESULT CIPHER-DECIPHER: -----OK-----


Test: 7
Hash algorithm: 2
Symmetric key bit length: 192
IV bit length:            64
Plaintext bit length:     128
Symmetric key:            070707070707070707070707070707070707070707070707
IV:                       0000000000000000
Plaintext:                00000000000000000000000000000000
Ciphertext:               e818736e6ea987db9ab6b7e44f32346adf5f7b9199d81a0e0d287f919a5ee642088922d51927951edc6785ecaf7d3dab
Reciphers for ciphertext: 0
Decipheredtext:           00000000000000000000000000000000
RESULT CIPHER-DECIPHER: -----OK-----


Test: 8
Hash algorithm: 2
Symmetric key bit length: 192
IV bit length:            64
Plaintext bit length:     128
Symmetric key:            080808080808080808080808080808080808080808080808
IV:                       0000000000000000
Plaintext:                00000000000000000000000000000000
Ciphertext:               d6a875a7a871df70cc5e8e49c64f61c9e1ef7d585f0042a55bc0463c1323b3e1369260d887ac851e375c4ae9aad5df59
Reciphers for ciphertext: 0
Decipheredtext:           00000000000000000000000000000000
RESULT CIPHER-DECIPHER: -----OK-----


Test: 9
Hash algorithm: 9
Symmetric key bit length: 192
IV bit length:            64
Plaintext bit length:     128
Symmetric key:            090909090909090909090909090909090909090909090909
IV:                       0000000000000000
Plaintext:                00000000000000000000000000000000
Ciphertext:               d6a875a7a871df70cc5e8e49c64f61c9105984e5f732f2cd7e108e1e5cc48f75329da8089c684a0a8f84a202ef0109d4
Reciphers for ciphertext: 0
Decipheredtext:           00000000000000000000000000000000
RESULT CIPHER-DECIPHER: -----OK-----


Test: 10
Hash algorithm: 12
Symmetric key bit length: 192
IV bit length:            64
Plaintext bit length:     128
Symmetric key:            0a0a0a0a0a0a0a0a0a0a0a0a0a0a0a0a0a0a0a0a0a0a0a0a
IV:                       0000000000000000
Plaintext:                00000000000000000000000000000000
Ciphertext:               e7920457f6a431321691ba2e3a8a88a1afee3b09dda95b4b24df7790a69f9ece
Reciphers for ciphertext: 0
Decipheredtext:           00000000000000000000000000000000
RESULT CIPHER-DECIPHER: -----OK-----


Test: 11
Hash algorithm: 1
Symmetric key bit length: 192
IV bit length:            64
Plaintext bit length:     128
Symmetric key:            0b0b0b0b0b0b0b0b0b0b0b0b0b0b0b0b0b0b0b0b0b0b0b0b
IV:                       0000000000000000
Plaintext:                00000000000000000000000000000000
Ciphertext:               e7920457f6a431321691ba2e3a8a88a11617b96e68bf54a4541796ce63688a00874da6871f60deb6ffe8a119
Reciphers for ciphertext: 0
Decipheredtext:           00000000000000000000000000000000
RESULT CIPHER-DECIPHER: -----OK-----


Test: 12
Hash algorithm: 12
Symmetric key bit length: 192
IV bit length:            64
Plaintext bit length:     128
Symmetric key:            0c0c0c0c0c0c0c0c0c0c0c0c0c0c0c0c0c0c0c0c0c0c0c0c
IV:                       0000000000000000
Plaintext:                00000000000000000000000000000000
Ciphertext:               88f8569b4502edfa0f804bc7dfe7b5b2c08469c56e0f87833dce867943f2a3dd
Reciphers for ciphertext: 0
Decipheredtext:           00000000000000000000000000000000
RESULT CIPHER-DECIPHER: -----OK-----


Test: 13
Hash algorithm: 12
Symmetric key bit length: 192
IV bit length:            64
Plaintext bit length:     128
Symmetric key:            0d0d0d0d0d0d0d0d0d0d0d0d0d0d0d0d0d0d0d0d0d0d0d0d
IV:                       0000000000000000
Plaintext:                00000000000000000000000000000000
Ciphertext:               88f8569b4502edfa0f804bc7dfe7b5b2c08469c56e0f87833dce867943f2a3dd
Reciphers for ciphertext: 0
Decipheredtext:           00000000000000000000000000000000
RESULT CIPHER-DECIPHER: -----OK-----


Test: 14
Hash algorithm: 1
Symmetric key bit length: 192
IV bit length:            64
Plaintext bit length:     128
Symmetric key:            0e0e0e0e0e0e0e0e0e0e0e0e0e0e0e0e0e0e0e0e0e0e0e0e
IV:                       0000000000000000
Plaintext:                00000000000000000000000000000000
Ciphertext:               508d26d80e298ca14d08f51160f1393fa1089be19032e9370f8ed9f139133b9e7c162d3ca6e5dced13ab8dbb
Reciphers for ciphertext: 0
Decipheredtext:           00000000000000000000000000000000
RESULT CIPHER-DECIPHER: -----OK-----


Test: 15
Hash algorithm: 12
Symmetric key bit length: 192
IV bit length:            64
Plaintext bit length:     128
Symmetric key:            0f0f0f0f0f0f0f0f0f0f0f0f0f0f0f0f0f0f0f0f0f0f0f0f
IV:                       0000000000000000
Plaintext:                00000000000000000000000000000000
Ciphertext:               508d26d80e298ca14d08f51160f1393f18f119862524e6d87f4638affce42f50
Reciphers for ciphertext: 0
Decipheredtext:           00000000000000000000000000000000
RESULT CIPHER-DECIPHER: -----OK-----


Test: 16
Hash algorithm: 5
Symmetric key bit length: 192
IV bit length:            64
Plaintext bit length:     128
Symmetric key:            101010101010101010101010101010101010101010101010
IV:                       0000000000000000
Plaintext:                00000000000000000000000000000000
Ciphertext:               82e13665b4624df57bd24a786c3f60cfdb3f70e1099d4db36d9afc7b9125086b5861a361d5ef419652e8a270
Reciphers for ciphertext: 0
Decipheredtext:           00000000000000000000000000000000
RESULT CIPHER-DECIPHER: -----OK-----


Test: 17
Hash algorithm: 6
Symmetric key bit length: 192
IV bit length:            64
Plaintext bit length:     128
Symmetric key:            111111111111111111111111111111111111111111111111
IV:                       0000000000000000
Plaintext:                00000000000000000000000000000000
Ciphertext:               82e13665b4624df57bd24a786c3f60cf66fda005042559388cf6d577bad9a59a765fbe6eff77213888d8644384c2775e
Reciphers for ciphertext: 0
Decipheredtext:           00000000000000000000000000000000
RESULT CIPHER-DECIPHER: -----OK-----


Test: 18
Hash algorithm: 6
Symmetric key bit length: 192
IV bit length:            64
Plaintext bit length:     128
Symmetric key:            121212121212121212121212121212121212121212121212
IV:                       0000000000000000
Plaintext:                00000000000000000000000000000000
Ciphertext:               a8b7b5bd4a67d640a56f085f20da86654cab23ddfa20c28d524b9750f63c433072a920da69b22df77a7a449c36ebd2eb
Reciphers for ciphertext: 0
Decipheredtext:           00000000000000000000000000000000
RESULT CIPHER-DECIPHER: -----OK-----


Test: 19
Hash algorithm: 13
Symmetric key bit length: 192
IV bit length:            64
Plaintext bit length:     128
Symmetric key:            131313131313131313131313131313131313131313131313
IV:                       0000000000000000
Plaintext:                00000000000000000000000000000000
Ciphertext:               a8b7b5bd4a67d640a56f085f20da8665e250a68bae2c2fffdcbd7d7103929ec0
Reciphers for ciphertext: 0
Decipheredtext:           00000000000000000000000000000000
RESULT CIPHER-DECIPHER: -----OK-----


Test: 20
Hash algorithm: 13
Symmetric key bit length: 192
IV bit length:            64
Plaintext bit length:     128
Symmetric key:            141414141414141414141414141414141414141414141414
IV:                       0000000000000000
Plaintext:                00000000000000000000000000000000
Ciphertext:               265a7abf6b3f4a17edd5628bf51029296cbd69898f74b3a8940717a5d658318c
Reciphers for ciphertext: 0
Decipheredtext:           00000000000000000000000000000000
RESULT CIPHER-DECIPHER: -----OK-----


Test: 21
Hash algorithm: 5
Symmetric key bit length: 192
IV bit length:            64
Plaintext bit length:     128
Symmetric key:            151515151515151515151515151515151515151515151515
IV:                       0000000000000000
Plaintext:                00000000000000000000000000000000
Ciphertext:               265a7abf6b3f4a17edd5628bf51029297f843c3bd6c04a51fb9dd488080a418d85c453802057c28ef4a4a1ba
Reciphers for ciphertext: 0
Decipheredtext:           00000000000000000000000000000000
RESULT CIPHER-DECIPHER: -----OK-----


Test: 22
Hash algorithm: 1
Symmetric key bit length: 192
IV bit length:            64
Plaintext bit length:     128
Symmetric key:            161616161616161616161616161616161616161616161616
IV:                       0000000000000000
Plaintext:                00000000000000000000000000000000
Ciphertext:               3adebbe036e29c8ee43967d89144b32dcb5b06d9a8f9f918a6bf4b38c8a6b18c1ad6abda793c9d4c5108fddc
Reciphers for ciphertext: 0
Decipheredtext:           00000000000000000000000000000000
RESULT CIPHER-DECIPHER: -----OK-----


Test: 23
Hash algorithm: 4
Symmetric key bit length: 192
IV bit length:            64
Plaintext bit length:     128
Symmetric key:            171717171717171717171717171717171717171717171717
IV:                       0000000000000000
Plaintext:                00000000000000000000000000000000
Ciphertext:               3adebbe036e29c8ee43967d89144b32d31b201280e3d7b7a9a98dad5614a71af7d8a8d6bb289337bb798d577654b083c0ca1b765aa216f82fa545e547c82ea1f9b216b7f9797dd82349c7edc6b2f7da7
Reciphers for ciphertext: 0
Decipheredtext:           00000000000000000000000000000000
RESULT CIPHER-DECIPHER: -----OK-----


Test: 24
Hash algorithm: 10
Symmetric key bit length: 192
IV bit length:            64
Plaintext bit length:     128
Symmetric key:            181818181818181818181818181818181818181818181818
IV:                       0000000000000000
Plaintext:                00000000000000000000000000000000
Ciphertext:               9da493aa4b21b8d1f92c82bf5541a19a5cd74f17dd50d35a1745d9d1d4e82e59e797db7191ee5f6d4a68a5813999755be0453697d374cfe6
Reciphers for ciphertext: 0
Decipheredtext:           00000000000000000000000000000000
RESULT CIPHER-DECIPHER: -----OK-----


Test: 25
Hash algorithm: 10
Symmetric key bit length: 192
IV bit length:            64
Plaintext bit length:     128
Symmetric key:            191919191919191919191919191919191919191919191919
IV:                       0000000000000000
Plaintext:                00000000000000000000000000000000
Ciphertext:               9da493aa4b21b8d1f92c82bf5541a19a5cd74f17dd50d35a1745d9d1d4e82e59e797db7191ee5f6d4a68a5813999755be0453697d374cfe6
Reciphers for ciphertext: 0
Decipheredtext:           00000000000000000000000000000000
RESULT CIPHER-DECIPHER: -----OK-----


Test: 26
Hash algorithm: 11
Symmetric key bit length: 192
IV bit length:            64
Plaintext bit length:     128
Symmetric key:            1a1a1a1a1a1a1a1a1a1a1a1a1a1a1a1a1a1a1a1a1a1a1a1a
IV:                       0000000000000000
Plaintext:                00000000000000000000000000000000
Ciphertext:               7eed30f7d699a4138ebd34cdd379b57540dfce9bcf0c84d344f23a41fb9692f3
Reciphers for ciphertext: 0
Decipheredtext:           00000000000000000000000000000000
RESULT CIPHER-DECIPHER: -----OK-----


Test: 27
Hash algorithm: 6
Symmetric key bit length: 192
IV bit length:            64
Plaintext bit length:     128
Symmetric key:            1b1b1b1b1b1b1b1b1b1b1b1b1b1b1b1b1b1b1b1b1b1b1b1b
IV:                       0000000000000000
Plaintext:                00000000000000000000000000000000
Ciphertext:               7eed30f7d699a4138ebd34cdd379b5759af1a69766deb0de7999abc2059f70202ba5e336c70842a784c8596a1200c06e
Reciphers for ciphertext: 0
Decipheredtext:           00000000000000000000000000000000
RESULT CIPHER-DECIPHER: -----OK-----


Test: 28
Hash algorithm: 0
Symmetric key bit length: 192
IV bit length:            64
Plaintext bit length:     128
Symmetric key:            1c1c1c1c1c1c1c1c1c1c1c1c1c1c1c1c1c1c1c1c1c1c1c1c
IV:                       0000000000000000
Plaintext:                00000000000000000000000000000000
Ciphertext:               77800cba1e6054a59ae77abc5461af5696a9fec64f63e8f95eacb74cf53fb95bd78558d7
Reciphers for ciphertext: 0
Decipheredtext:           00000000000000000000000000000000
RESULT CIPHER-DECIPHER: -----OK-----


Test: 29
Hash algorithm: 1
Symmetric key bit length: 192
IV bit length:            64
Plaintext bit length:     128
Symmetric key:            1d1d1d1d1d1d1d1d1d1d1d1d1d1d1d1d1d1d1d1d1d1d1d1d
IV:                       0000000000000000
Plaintext:                00000000000000000000000000000000
Ciphertext:               77800cba1e6054a59ae77abc5461af568605b183807b3133d861565c0d83adf7097d4d899ed4713bdb9f1694
Reciphers for ciphertext: 0
Decipheredtext:           00000000000000000000000000000000
RESULT CIPHER-DECIPHER: -----OK-----


Test: 30
Hash algorithm: 0
Symmetric key bit length: 192
IV bit length:            64
Plaintext bit length:     128
Symmetric key:            1e1e1e1e1e1e1e1e1e1e1e1e1e1e1e1e1e1e1e1e1e1e1e1e
IV:                       0000000000000000
Plaintext:                00000000000000000000000000000000
Ciphertext:               4bb0c823540b654c8eafe21506ee6ebbaa993a5f0508d9104ae42fe5a7b078b6d27545ca
Reciphers for ciphertext: 0
Decipheredtext:           00000000000000000000000000000000
RESULT CIPHER-DECIPHER: -----OK-----


Test: 31
Hash algorithm: 11
Symmetric key bit length: 192
IV bit length:            64
Plaintext bit length:     128
Symmetric key:            1f1f1f1f1f1f1f1f1f1f1f1f1f1f1f1f1f1f1f1f1f1f1f1f
IV:                       0000000000000000
Plaintext:                00000000000000000000000000000000
Ciphertext:               4bb0c823540b654c8eafe21506ee6ebb7582364f4d9e458c44e0ec992e01493d
Reciphers for ciphertext: 0
Decipheredtext:           00000000000000000000000000000000
RESULT CIPHER-DECIPHER: -----OK-----


Test: 32
Hash algorithm: 12
Symmetric key bit length: 192
IV bit length:            64
Plaintext bit length:     128
Symmetric key:            202020202020202020202020202020202020202020202020
IV:                       0000000000000000
Plaintext:                00000000000000000000000000000000
Ciphertext:               9772208c6b1993f3aeaaeb5fd46b3392df0e1fd24014f98a9ce426e1487e25fd
Reciphers for ciphertext: 0
Decipheredtext:           00000000000000000000000000000000
RESULT CIPHER-DECIPHER: -----OK-----


Test: 33
Hash algorithm: 11
Symmetric key bit length: 192
IV bit length:            64
Plaintext bit length:     128
Symmetric key:            212121212121212121212121212121212121212121212121
IV:                       0000000000000000
Plaintext:                00000000000000000000000000000000
Ciphertext:               9772208c6b1993f3aeaaeb5fd46b3392a940dee0728cb33364e5e5d3fc841414
Reciphers for ciphertext: 0
Decipheredtext:           00000000000000000000000000000000
RESULT CIPHER-DECIPHER: -----OK-----


Test: 34
Hash algorithm: 12
Symmetric key bit length: 192
IV bit length:            64
Plaintext bit length:     128
Symmetric key:            222222222222222222222222222222222222222222222222
IV:                       0000000000000000
Plaintext:                00000000000000000000000000000000
Ciphertext:               00962b60aa556e6570a6c40fa4fc9eee48ea143e8158041c42e809b138e98881
Reciphers for ciphertext: 0
Decipheredtext:           00000000000000000000000000000000
RESULT CIPHER-DECIPHER: -----OK-----


Test: 35
Hash algorithm: 2
Symmetric key bit length: 192
IV bit length:            64
Plaintext bit length:     128
Symmetric key:            232323232323232323232323232323232323232323232323
IV:                       0000000000000000
Plaintext:                00000000000000000000000000000000
Ciphertext:               00962b60aa556e6570a6c40fa4fc9eee37d1239f5d24f3b0e7380c7a71904cc6b9581d7bc67913f1ab7972ba87ed729a
Reciphers for ciphertext: 0
Decipheredtext:           00000000000000000000000000000000
RESULT CIPHER-DECIPHER: -----OK-----


Test: 36
Hash algorithm: 12
Symmetric key bit length: 192
IV bit length:            64
Plaintext bit length:     128
Symmetric key:            242424242424242424242424242424242424242424242424
IV:                       0000000000000000
Plaintext:                00000000000000000000000000000000
Ciphertext:               c335c9d8a63cc1f4357f5bf7cc4ebeaa8b49f6868d31ab8d07319649505ba8c5
Reciphers for ciphertext: 0
Decipheredtext:           00000000000000000000000000000000
RESULT CIPHER-DECIPHER: -----OK-----


Test: 37
Hash algorithm: 2
Symmetric key bit length: 192
IV bit length:            64
Plaintext bit length:     128
Symmetric key:            252525252525252525252525252525252525252525252525
IV:                       0000000000000000
Plaintext:                00000000000000000000000000000000
Ciphertext:               c335c9d8a63cc1f4357f5bf7cc4ebeaaf472c127514d5c21a2e1938219226c82f9fc58a45806c52f31376983697a0f1a
Reciphers for ciphertext: 0
Decipheredtext:           00000000000000000000000000000000
RESULT CIPHER-DECIPHER: -----OK-----


Test: 38
Hash algorithm: 7
Symmetric key bit length: 192
IV bit length:            64
Plaintext bit length:     128
Symmetric key:            262626262626262626262626262626262626262626262626
IV:                       0000000000000000
Plaintext:                00000000000000000000000000000000
Ciphertext:               4e5a416420dfd5cd01d23d2281ac98323a99720d5c9ee84238decc03a5eb14f1
Reciphers for ciphertext: 0
Decipheredtext:           00000000000000000000000000000000
RESULT CIPHER-DECIPHER: -----OK-----


Test: 39
Hash algorithm: 0
Symmetric key bit length: 192
IV bit length:            64
Plaintext bit length:     128
Symmetric key:            272727272727272727272727272727272727272727272727
IV:                       0000000000000000
Plaintext:                00000000000000000000000000000000
Ciphertext:               4e5a416420dfd5cd01d23d2281ac9832af73b31871dc6991c599f0d220f28e3f887269d5
Reciphers for ciphertext: 0
Decipheredtext:           00000000000000000000000000000000
RESULT CIPHER-DECIPHER: -----OK-----


Test: 40
Hash algorithm: 3
Symmetric key bit length: 192
IV bit length:            64
Plaintext bit length:     128
Symmetric key:            282828282828282828282828282828282828282828282828
IV:                       0000000000000000
Plaintext:                00000000000000000000000000000000
Ciphertext:               50af41cdd6ecf0d4f1903aa65388f78efeef245077f5cc0a394f7ded0dbeb6e446ab46c904dd5c859cf2304682094eed28b1ac1dd86e1513dd9d3f94cf44fef0
Reciphers for ciphertext: 0
Decipheredtext:           00000000000000000000000000000000
RESULT CIPHER-DECIPHER: -----OK-----


Test: 41
Hash algorithm: 7
Symmetric key bit length: 192
IV bit length:            64
Plaintext bit length:     128
Symmetric key:            292929292929292929292929292929292929292929292929
IV:                       0000000000000000
Plaintext:                00000000000000000000000000000000
Ciphertext:               50af41cdd6ecf0d4f1903aa65388f78e246c72a4aaadcd5bc89ccb8777cf7b4d
Reciphers for ciphertext: 0
Decipheredtext:           00000000000000000000000000000000
RESULT CIPHER-DECIPHER: -----OK-----


Test: 42
Hash algorithm: 13
Symmetric key bit length: 192
IV bit length:            64
Plaintext bit length:     128
Symmetric key:            2a2a2a2a2a2a2a2a2a2a2a2a2a2a2a2a2a2a2a2a2a2a2a2a
IV:                       0000000000000000
Plaintext:                00000000000000000000000000000000
Ciphertext:               30825bb00b2f8959546f98be57d6419b7a654886ef6470e62dbded90749e593e
Reciphers for ciphertext: 0
Decipheredtext:           00000000000000000000000000000000
RESULT CIPHER-DECIPHER: -----OK-----


Test: 43
Hash algorithm: 3
Symmetric key bit length: 192
IV bit length:            64
Plaintext bit length:     128
Symmetric key:            2b2b2b2b2b2b2b2b2b2b2b2b2b2b2b2b2b2b2b2b2b2b2b2b
IV:                       0000000000000000
Plaintext:                00000000000000000000000000000000
Ciphertext:               30825bb00b2f8959546f98be57d6419b9ec23e2daa36b5879cb0dff509e000f111c5d67a9fb8399f18dffa9463d1ef608c16c2b6be43687ccad1b57dbaa3581e
Reciphers for ciphertext: 0
Decipheredtext:           00000000000000000000000000000000
RESULT CIPHER-DECIPHER: -----OK-----


Test: 44
Hash algorithm: 13
Symmetric key bit length: 192
IV bit length:            64
Plaintext bit length:     128
Symmetric key:            2c2c2c2c2c2c2c2c2c2c2c2c2c2c2c2c2c2c2c2c2c2c2c2c
IV:                       0000000000000000
Plaintext:                00000000000000000000000000000000
Ciphertext:               7dccc004ffd49e04e960ca35c671ac37372bd3321b9f67bb90b2bf1be539b492
Reciphers for ciphertext: 0
Decipheredtext:           00000000000000000000000000000000
RESULT CIPHER-DECIPHER: -----OK-----


Test: 45
Hash algorithm: 13
Symmetric key bit length: 192
IV bit length:            64
Plaintext bit length:     128
Symmetric key:            2d2d2d2d2d2d2d2d2d2d2d2d2d2d2d2d2d2d2d2d2d2d2d2d
IV:                       0000000000000000
Plaintext:                00000000000000000000000000000000
Ciphertext:               7dccc004ffd49e04e960ca35c671ac37372bd3321b9f67bb90b2bf1be539b492
Reciphers for ciphertext: 0
Decipheredtext:           00000000000000000000000000000000
RESULT CIPHER-DECIPHER: -----OK-----


Test: 46
Hash algorithm: 8
Symmetric key bit length: 192
IV bit length:            64
Plaintext bit length:     128
Symmetric key:            2e2e2e2e2e2e2e2e2e2e2e2e2e2e2e2e2e2e2e2e2e2e2e2e
IV:                       0000000000000000
Plaintext:                00000000000000000000000000000000
Ciphertext:               40d2e042fdd5cc28c6df9517d1885228b2a4eccbb5af87d812a0f9db795edb3d010c9cbc
Reciphers for ciphertext: 0
Decipheredtext:           00000000000000000000000000000000
RESULT CIPHER-DECIPHER: -----OK-----


Test: 47
Hash algorithm: 12
Symmetric key bit length: 192
IV bit length:            64
Plaintext bit length:     128
Symmetric key:            2f2f2f2f2f2f2f2f2f2f2f2f2f2f2f2f2f2f2f2f2f2f2f2f
IV:                       0000000000000000
Plaintext:                00000000000000000000000000000000
Ciphertext:               40d2e042fdd5cc28c6df9517d188522808aedf1cd6d8a651f49158a94d9d4447
Reciphers for ciphertext: 0
Decipheredtext:           00000000000000000000000000000000
RESULT CIPHER-DECIPHER: -----OK-----


Test: 48
Hash algorithm: 0
Symmetric key bit length: 192
IV bit length:            64
Plaintext bit length:     128
Symmetric key:            303030303030303030303030303030303030303030303030
IV:                       0000000000000000
Plaintext:                00000000000000000000000000000000
Ciphertext:               40826a5800608c8736b5c6ad1cb03a54a1ab9824516330dbf2fe0b5dbdee2c592a18c49c
Reciphers for ciphertext: 0
Decipheredtext:           00000000000000000000000000000000
RESULT CIPHER-DECIPHER: -----OK-----


Test: 49
Hash algorithm: 10
Symmetric key bit length: 192
IV bit length:            64
Plaintext bit length:     128
Symmetric key:            313131313131313131313131313131313131313131313131
IV:                       0000000000000000
Plaintext:                00000000000000000000000000000000
Ciphertext:               40826a5800608c8736b5c6ad1cb03a5481f1b6e59611e70cd8dc9dc39d19b597f47617dee0d20794f52e92edb3e3386492e27fbf4c0ef40e
Reciphers for ciphertext: 0
Decipheredtext:           00000000000000000000000000000000
RESULT CIPHER-DECIPHER: -----OK-----


Test: 50
Hash algorithm: 9
Symmetric key bit length: 192
IV bit length:            64
Plaintext bit length:     128
Symmetric key:            323232323232323232323232323232323232323232323232
IV:                       0000000000000000
Plaintext:                00000000000000000000000000000000
Ciphertext:               adc67d8473bf2f065a5303289322c0676b378cc62cfc02bbe81d037f09a92edb520537dabbf923c296f1e792563369c5
Reciphers for ciphertext: 0
Decipheredtext:           00000000000000000000000000000000
RESULT CIPHER-DECIPHER: -----OK-----


Test: 51
Hash algorithm: 7
Symmetric key bit length: 192
IV bit length:            64
Plaintext bit length:     128
Symmetric key:            333333333333333333333333333333333333333333333333
IV:                       0000000000000000
Plaintext:                00000000000000000000000000000000
Ciphertext:               adc67d8473bf2f065a5303289322c067d9054eed0ffe1289635ff209b7654ca4
Reciphers for ciphertext: 0
Decipheredtext:           00000000000000000000000000000000
RESULT CIPHER-DECIPHER: -----OK-----


Test: 52
Hash algorithm: 0
Symmetric key bit length: 192
IV bit length:            64
Plaintext bit length:     128
Symmetric key:            343434343434343434343434343434343434343434343434
IV:                       0000000000000000
Plaintext:                00000000000000000000000000000000
Ciphertext:               d2db51f1d2013a6300573802a09e9d3733f2a38d8302863fc41cf5f201c08b3ae649feba
Reciphers for ciphertext: 0
Decipheredtext:           00000000000000000000000000000000
RESULT CIPHER-DECIPHER: -----OK-----


Test: 53
Hash algorithm: 11
Symmetric key bit length: 192
IV bit length:            64
Plaintext bit length:     128
Symmetric key:            353535353535353535353535353535353535353535353535
IV:                       0000000000000000
Plaintext:                00000000000000000000000000000000
Ciphertext:               d2db51f1d2013a6300573802a09e9d37ece9af9dcb941aa3ca18368e8871bab1
Reciphers for ciphertext: 0
Decipheredtext:           00000000000000000000000000000000
RESULT CIPHER-DECIPHER: -----OK-----


Test: 54
Hash algorithm: 13
Symmetric key bit length: 192
IV bit length:            64
Plaintext bit length:     128
Symmetric key:            363636363636363636363636363636363636363636363636
IV:                       0000000000000000
Plaintext:                00000000000000000000000000000000
Ciphertext:               3aa3ea2d72ecf9fa1a0773f380af650f7044f91b96a7004563d506dda3e77daa
Reciphers for ciphertext: 0
Decipheredtext:           00000000000000000000000000000000
RESULT CIPHER-DECIPHER: -----OK-----


Test: 55
Hash algorithm: 13
Symmetric key bit length: 192
IV bit length:            64
Plaintext bit length:     128
Symmetric key:            373737373737373737373737373737373737373737373737
IV:                       0000000000000000
Plaintext:                00000000000000000000000000000000
Ciphertext:               3aa3ea2d72ecf9fa1a0773f380af650f7044f91b96a7004563d506dda3e77daa
Reciphers for ciphertext: 0
Decipheredtext:           00000000000000000000000000000000
RESULT CIPHER-DECIPHER: -----OK-----


Test: 56
Hash algorithm: 10
Symmetric key bit length: 192
IV bit length:            64
Plaintext bit length:     128
Symmetric key:            383838383838383838383838383838383838383838383838
IV:                       0000000000000000
Plaintext:                00000000000000000000000000000000
Ciphertext:               74d669c708972b1a389456d7b11dd16bb5a5b57a9ee64091d6fd0db930b45ea8e87ff2ecb966ed600198ae4826c8ee0654e91c67f713ed09
Reciphers for ciphertext: 0
Decipheredtext:           00000000000000000000000000000000
RESULT CIPHER-DECIPHER: -----OK-----


Test: 57
Hash algorithm: 4
Symmetric key bit length: 192
IV bit length:            64
Plaintext bit length:     128
Symmetric key:            393939393939393939393939393939393939393939393939
IV:                       0000000000000000
Plaintext:                00000000000000000000000000000000
Ciphertext:               74d669c708972b1a389456d7b11dd16b7fbad30f3048ccee4635ebda411313e98fb5124110fa4ca2763ca2c558677e88237fe1ead4d45873c32a98fda856c391cab4f341cbbee4d13bb157ee8aadc4fb
Reciphers for ciphertext: 0
Decipheredtext:           00000000000000000000000000000000
RESULT CIPHER-DECIPHER: -----OK-----


Test: 58
Hash algorithm: 4
Symmetric key bit length: 192
IV bit length:            64
Plaintext bit length:     128
Symmetric key:            3a3a3a3a3a3a3a3a3a3a3a3a3a3a3a3a3a3a3a3a3a3a3a3a
IV:                       0000000000000000
Plaintext:                00000000000000000000000000000000
Ciphertext:               4c372b229cceb764ba6116248b546f2e475b91eaa4115090c4c0ab297b5aadacf4f7deffcf17d7afeb5afcd924cc163814894624610f33bda8b48b06cd1195c962489849b3ca543ac0cca9a03296eaa3
Reciphers for ciphertext: 0
Decipheredtext:           00000000000000000000000000000000
RESULT CIPHER-DECIPHER: -----OK-----


Test: 59
Hash algorithm: 7
Symmetric key bit length: 192
IV bit length:            64
Plaintext bit length:     128
Symmetric key:            3b3b3b3b3b3b3b3b3b3b3b3b3b3b3b3b3b3b3b3b3b3b3b3b
IV:                       0000000000000000
Plaintext:                00000000000000000000000000000000
Ciphertext:               4c372b229cceb764ba6116248b546f2e38f4184be08f8aeb836de705af13e3ed
Reciphers for ciphertext: 0
Decipheredtext:           00000000000000000000000000000000
RESULT CIPHER-DECIPHER: -----OK-----


Test: 60
Hash algorithm: 2
Symmetric key bit length: 192
IV bit length:            64
Plaintext bit length:     128
Symmetric key:            3c3c3c3c3c3c3c3c3c3c3c3c3c3c3c3c3c3c3c3c3c3c3c3c
IV:                       0000000000000000
Plaintext:                00000000000000000000000000000000
Ciphertext:               46d327dadabb677aa892af3645dfa7cb71942f252dcafaaf3f0c674390b375e352c3f19f341205352572875d7bff7aa0
Reciphers for ciphertext: 0
Decipheredtext:           00000000000000000000000000000000
RESULT CIPHER-DECIPHER: -----OK-----


Test: 61
Hash algorithm: 1
Symmetric key bit length: 192
IV bit length:            64
Plaintext bit length:     128
Symmetric key:            3d3d3d3d3d3d3d3d3d3d3d3d3d3d3d3d3d3d3d3d3d3d3d3d
IV:                       0000000000000000
Plaintext:                00000000000000000000000000000000
Ciphertext:               46d327dadabb677aa892af3645dfa7cbb7569ae344a002ecea1483d61c3da56aa706bec9dab7b03eca4e3d1d
Reciphers for ciphertext: 0
Decipheredtext:           00000000000000000000000000000000
RESULT CIPHER-DECIPHER: -----OK-----


Test: 62
Hash algorithm: 1
Symmetric key bit length: 192
IV bit length:            64
Plaintext bit length:     128
Symmetric key:            3e3e3e3e3e3e3e3e3e3e3e3e3e3e3e3e3e3e3e3e3e3e3e3e
IV:                       0000000000000000
Plaintext:                00000000000000000000000000000000
Ciphertext:               f0a427ae4bdbde04a6c7d7683093296001219a97d5c0bb92e441fb8869712bc1f96ea09833e5faf8d16a575e
Reciphers for ciphertext: 0
Decipheredtext:           00000000000000000000000000000000
RESULT CIPHER-DECIPHER: -----OK-----


Test: 63
Hash algorithm: 1
Symmetric key bit length: 192
IV bit length:            64
Plaintext bit length:     128
Symmetric key:            3f3f3f3f3f3f3f3f3f3f3f3f3f3f3f3f3f3f3f3f3f3f3f3f
IV:                       0000000000000000
Plaintext:                00000000000000000000000000000000
Ciphertext:               f0a427ae4bdbde04a6c7d7683093296001219a97d5c0bb92e441fb8869712bc1f96ea09833e5faf8d16a575e
Reciphers for ciphertext: 0
Decipheredtext:           00000000000000000000000000000000
RESULT CIPHER-DECIPHER: -----OK-----


Test: 64
Hash algorithm: 2
Symmetric key bit length: 192
IV bit length:            64
Plaintext bit length:     128
Symmetric key:            404040404040404040404040404040404040404040404040
IV:                       0000000000000000
Plaintext:                00000000000000000000000000000000
Ciphertext:               c4b738cdd18d6e4802ce6def788d4485f3f0303226fcf39d9550a59aade196adfad1dab70e11b14cc80eadb75829c609
Reciphers for ciphertext: 0
Decipheredtext:           00000000000000000000000000000000
RESULT CIPHER-DECIPHER: -----OK-----


Test: 65
Hash algorithm: 4
Symmetric key bit length: 192
IV bit length:            64
Plaintext bit length:     128
Symmetric key:            414141414141414141414141414141414141414141414141
IV:                       0000000000000000
Plaintext:                00000000000000000000000000000000
Ciphertext:               c4b738cdd18d6e4802ce6def788d4485cfdb8205e95289bc7c6fd0e2888386076848b3502b01aa70c1a23f5c45fcfdffea7d570c3866ed8f54ef6c57afd9fd466e5a7963edc49b791c0d354bb3fb845c
Reciphers for ciphertext: 0
Decipheredtext:           00000000000000000000000000000000
RESULT CIPHER-DECIPHER: -----OK-----


Test: 66
Hash algorithm: 11
Symmetric key bit length: 192
IV bit length:            64
Plaintext bit length:     128
Symmetric key:            424242424242424242424242424242424242424242424242
IV:                       0000000000000000
Plaintext:                00000000000000000000000000000000
Ciphertext:               ffbaffe6d2aa6d9674ff130058fd0606c188018acb3f4d56beb01d8c70122180
Reciphers for ciphertext: 0
Decipheredtext:           00000000000000000000000000000000
RESULT CIPHER-DECIPHER: -----OK-----


Test: 67
Hash algorithm: 9
Symmetric key bit length: 192
IV bit length:            64
Plaintext bit length:     128
Symmetric key:            434343434343434343434343434343434343434343434343
IV:                       0000000000000000
Plaintext:                00000000000000000000000000000000
Ciphertext:               ffbaffe6d2aa6d9674ff130058fd0606394b0ea48de9402bc6b11357c276e8bafe14537f10c1031b35a330969ca5a431
Reciphers for ciphertext: 0
Decipheredtext:           00000000000000000000000000000000
RESULT CIPHER-DECIPHER: -----OK-----


Test: 68
Hash algorithm: 8
Symmetric key bit length: 192
IV bit length:            64
Plaintext bit length:     128
Symmetric key:            444444444444444444444444444444444444444444444444
IV:                       0000000000000000
Plaintext:                00000000000000000000000000000000
Ciphertext:               e2f2434039aa34acd2d7a99e1e0ff9dc10844fc971d07f5c06a8c552b6d970c9d4eee2d3
Reciphers for ciphertext: 0
Decipheredtext:           00000000000000000000000000000000
RESULT CIPHER-DECIPHER: -----OK-----


Test: 69
Hash algorithm: 2
Symmetric key bit length: 192
IV bit length:            64
Plaintext bit length:     128
Symmetric key:            454545454545454545454545454545454545454545454545
IV:                       0000000000000000
Plaintext:                00000000000000000000000000000000
Ciphertext:               e2f2434039aa34acd2d7a99e1e0ff9dcd5b54bbfcedba979454961ebcb632bf48a995ef24da736ed6047892ecfe2dd8c
Reciphers for ciphertext: 0
Decipheredtext:           00000000000000000000000000000000
RESULT CIPHER-DECIPHER: -----OK-----


Test: 70
Hash algorithm: 8
Symmetric key bit length: 192
IV bit length:            64
Plaintext bit length:     128
Symmetric key:            464646464646464646464646464646464646464646464646
IV:                       0000000000000000
Plaintext:                00000000000000000000000000000000
Ciphertext:               b99d86495b7f4c65478133b32d30a53d4beb8ac01305079593fe5f7f85e62c28357a00c9
Reciphers for ciphertext: 0
Decipheredtext:           00000000000000000000000000000000
RESULT CIPHER-DECIPHER: -----OK-----


Test: 71
Hash algorithm: 7
Symmetric key bit length: 192
IV bit length:            64
Plaintext bit length:     128
Symmetric key:            474747474747474747474747474747474747474747474747
IV:                       0000000000000000
Plaintext:                00000000000000000000000000000000
Ciphertext:               b99d86495b7f4c65478133b32d30a53dcd5eb520273e71ea7e8dc292097729fe
Reciphers for ciphertext: 0
Decipheredtext:           00000000000000000000000000000000
RESULT CIPHER-DECIPHER: -----OK-----


Test: 72
Hash algorithm: 1
Symmetric key bit length: 192
IV bit length:            64
Plaintext bit length:     128
Symmetric key:            484848484848484848484848484848484848484848484848
IV:                       0000000000000000
Plaintext:                00000000000000000000000000000000
Ciphertext:               d549caf0e8bae9b10d8d8927b4c1e5f024cc77c976a18c274f0ba5c7ed23e7513c4610c5a09d91a0c4a5e0b7
Reciphers for ciphertext: 0
Decipheredtext:           00000000000000000000000000000000
RESULT CIPHER-DECIPHER: -----OK-----


Test: 73
Hash algorithm: 7
Symmetric key bit length: 192
IV bit length:            64
Plaintext bit length:     128
Symmetric key:            494949494949494949494949494949494949494949494949
IV:                       0000000000000000
Plaintext:                00000000000000000000000000000000
Ciphertext:               d549caf0e8bae9b10d8d8927b4c1e5f0a18af99994fbd43e3481780690866933
Reciphers for ciphertext: 0
Decipheredtext:           00000000000000000000000000000000
RESULT CIPHER-DECIPHER: -----OK-----


Test: 74
Hash algorithm: 8
Symmetric key bit length: 192
IV bit length:            64
Plaintext bit length:     128
Symmetric key:            4a4a4a4a4a4a4a4a4a4a4a4a4a4a4a4a4a4a4a4a4a4a4a4a
IV:                       0000000000000000
Plaintext:                00000000000000000000000000000000
Ciphertext:               cdace95ef9ecac1a3a77b165edd8f0e53fdae5d7b196e7eaee08dda9450e79f07146a6fc
Reciphers for ciphertext: 0
Decipheredtext:           00000000000000000000000000000000
RESULT CIPHER-DECIPHER: -----OK-----


Test: 75
Hash algorithm: 8
Symmetric key bit length: 192
IV bit length:            64
Plaintext bit length:     128
Symmetric key:            4b4b4b4b4b4b4b4b4b4b4b4b4b4b4b4b4b4b4b4b4b4b4b4b
IV:                       0000000000000000
Plaintext:                00000000000000000000000000000000
Ciphertext:               cdace95ef9ecac1a3a77b165edd8f0e53fdae5d7b196e7eaee08dda9450e79f07146a6fc
Reciphers for ciphertext: 0
Decipheredtext:           00000000000000000000000000000000
RESULT CIPHER-DECIPHER: -----OK-----


Test: 76
Hash algorithm: 3
Symmetric key bit length: 192
IV bit length:            64
Plaintext bit length:     128
Symmetric key:            4c4c4c4c4c4c4c4c4c4c4c4c4c4c4c4c4c4c4c4c4c4c4c4c
IV:                       0000000000000000
Plaintext:                00000000000000000000000000000000
Ciphertext:               e878ddf761277a18e32ae52bcbea54c34638b86ac03e46c62bf5a26095dc15a91d33199457187aa21ed16bfe3c17d087baf93307823316d328f52e5f4a96be11
Reciphers for ciphertext: 0
Decipheredtext:           00000000000000000000000000000000
RESULT CIPHER-DECIPHER: -----OK-----


Test: 77
Hash algorithm: 13
Symmetric key bit length: 192
IV bit length:            64
Plaintext bit length:     128
Symmetric key:            4d4d4d4d4d4d4d4d4d4d4d4d4d4d4d4d4d4d4d4d4d4d4d4d
IV:                       0000000000000000
Plaintext:                00000000000000000000000000000000
Ciphertext:               e878ddf761277a18e32ae52bcbea54c3a29fcec1856c83a79af89005e8a24c66
Reciphers for ciphertext: 0
Decipheredtext:           00000000000000000000000000000000
RESULT CIPHER-DECIPHER: -----OK-----


Test: 78
Hash algorithm: 5
Symmetric key bit length: 192
IV bit length:            64
Plaintext bit length:     128
Symmetric key:            4e4e4e4e4e4e4e4e4e4e4e4e4e4e4e4e4e4e4e4e4e4e4e4e
IV:                       0000000000000000
Plaintext:                00000000000000000000000000000000
Ciphertext:               06744c265ff9cebc49964e37c470d0c25faa0aa2e206cefa5fdef834396ab8662b43fa8ecf89787eaf628aaf
Reciphers for ciphertext: 0
Decipheredtext:           00000000000000000000000000000000
RESULT CIPHER-DECIPHER: -----OK-----


Test: 79
Hash algorithm: 11
Symmetric key bit length: 192
IV bit length:            64
Plaintext bit length:     128
Symmetric key:            4f4f4f4f4f4f4f4f4f4f4f4f4f4f4f4f4f4f4f4f4f4f4f4f
IV:                       0000000000000000
Plaintext:                00000000000000000000000000000000
Ciphertext:               06744c265ff9cebc49964e37c470d0c23846b24a466cee7c83d940bbec9ff744
Reciphers for ciphertext: 0
Decipheredtext:           00000000000000000000000000000000
RESULT CIPHER-DECIPHER: -----OK-----


Test: 80
Hash algorithm: 12
Symmetric key bit length: 192
IV bit length:            64
Plaintext bit length:     128
Symmetric key:            505050505050505050505050505050505050505050505050
IV:                       0000000000000000
Plaintext:                00000000000000000000000000000000
Ciphertext:               070edb0735f68d05ab8e5be3688e85474f72e4591efbe77c99c0965df49b9328
Reciphers for ciphertext: 0
Decipheredtext:           00000000000000000000000000000000
RESULT CIPHER-DECIPHER: -----OK-----


Test: 81
Hash algorithm: 5
Symmetric key bit length: 192
IV bit length:            64
Plaintext bit length:     128
Symmetric key:            515151515151515151515151515151515151515151515151
IV:                       0000000000000000
Plaintext:                00000000000000000000000000000000
Ciphertext:               070edb0735f68d05ab8e5be3688e85475ed09d8388098d43bdc6ede09594ede30c4a13482a10fe7717a2f662
Reciphers for ciphertext: 0
Decipheredtext:           00000000000000000000000000000000
RESULT CIPHER-DECIPHER: -----OK-----


Test: 82
Hash algorithm: 3
Symmetric key bit length: 192
IV bit length:            64
Plaintext bit length:     128
Symmetric key:            525252525252525252525252525252525252525252525252
IV:                       0000000000000000
Plaintext:                00000000000000000000000000000000
Ciphertext:               17d819b45d919a56dabc7c892aa13e8cb9987c29fc88a68812633bc274977fe65e6ce39e3f6d8607223cd66cad808d9a909f00dfbccd0e0edefb03526a196d39
Reciphers for ciphertext: 0
Decipheredtext:           00000000000000000000000000000000
RESULT CIPHER-DECIPHER: -----OK-----


Test: 83
Hash algorithm: 10
Symmetric key bit length: 192
IV bit length:            64
Plaintext bit length:     128
Symmetric key:            535353535353535353535353535353535353535353535353
IV:                       0000000000000000
Plaintext:                00000000000000000000000000000000
Ciphertext:               17d819b45d919a56dabc7c892aa13e8cd6abc509cbe0f1dd34d527e7ab08b14f46156da08cfdfd23a43a9a4d728fc31042802c5212d93a1d
Reciphers for ciphertext: 0
Decipheredtext:           00000000000000000000000000000000
RESULT CIPHER-DECIPHER: -----OK-----


Test: 84
Hash algorithm: 9
Symmetric key bit length: 192
IV bit length:            64
Plaintext bit length:     128
Symmetric key:            545454545454545454545454545454545454545454545454
IV:                       0000000000000000
Plaintext:                00000000000000000000000000000000
Ciphertext:               0cd7dc4903a8b88b1da74beabf8ab51bca262d0b5ceb9536afe94bbd25015ba7567e8971d7ecf53abcef01ff60ca37a9
Reciphers for ciphertext: 0
Decipheredtext:           00000000000000000000000000000000
RESULT CIPHER-DECIPHER: -----OK-----


Test: 85
Hash algorithm: 7
Symmetric key bit length: 192
IV bit length:            64
Plaintext bit length:     128
Symmetric key:            555555555555555555555555555555555555555555555555
IV:                       0000000000000000
Plaintext:                00000000000000000000000000000000
Ciphertext:               0cd7dc4903a8b88b1da74beabf8ab51b7814ef207fe9850424abbacb9bcd39d8
Reciphers for ciphertext: 0
Decipheredtext:           00000000000000000000000000000000
RESULT CIPHER-DECIPHER: -----OK-----


Test: 86
Hash algorithm: 13
Symmetric key bit length: 192
IV bit length:            64
Plaintext bit length:     128
Symmetric key:            565656565656565656565656565656565656565656565656
IV:                       0000000000000000
Plaintext:                00000000000000000000000000000000
Ciphertext:               c994711eaa5e210d58222b8cd5d12b97837362284e15d8b221f05ea2f6993332
Reciphers for ciphertext: 0
Decipheredtext:           00000000000000000000000000000000
RESULT CIPHER-DECIPHER: -----OK-----


Test: 87
Hash algorithm: 12
Symmetric key bit length: 192
IV bit length:            64
Plaintext bit length:     128
Symmetric key:            575757575757575757575757575757575757575757575757
IV:                       0000000000000000
Plaintext:                00000000000000000000000000000000
Ciphertext:               c994711eaa5e210d58222b8cd5d12b9781e84e4081534b746a6ce63249c43df8
Reciphers for ciphertext: 0
Decipheredtext:           00000000000000000000000000000000
RESULT CIPHER-DECIPHER: -----OK-----


Test: 88
Hash algorithm: 5
Symmetric key bit length: 192
IV bit length:            64
Plaintext bit length:     128
Symmetric key:            585858585858585858585858585858585858585858585858
IV:                       0000000000000000
Plaintext:                00000000000000000000000000000000
Ciphertext:               059ccc383210c57c8c9486dada3e3c1b5c428abc8fefc53a9adc30d9272454bf0c2fdafd4efdf01eb5f14dd6
Reciphers for ciphertext: 0
Decipheredtext:           00000000000000000000000000000000
RESULT CIPHER-DECIPHER: -----OK-----


Test: 89
Hash algorithm: 2
Symmetric key bit length: 192
IV bit length:            64
Plaintext bit length:     128
Symmetric key:            595959595959595959595959595959595959595959595959
IV:                       0000000000000000
Plaintext:                00000000000000000000000000000000
Ciphertext:               059ccc383210c57c8c9486dada3e3c1b32dbc4c7c56158a91b0a4eaf0f52ee3322285ce5c57d73d3fc3826300f6a372c
Reciphers for ciphertext: 0
Decipheredtext:           00000000000000000000000000000000
RESULT CIPHER-DECIPHER: -----OK-----


Test: 90
Hash algorithm: 0
Symmetric key bit length: 192
IV bit length:            64
Plaintext bit length:     128
Symmetric key:            5a5a5a5a5a5a5a5a5a5a5a5a5a5a5a5a5a5a5a5a5a5a5a5a
IV:                       0000000000000000
Plaintext:                00000000000000000000000000000000
Ciphertext:               c747b49fb22cad2a5e6fd0d5d360f2a5266e46e3e32f11769a241d25723ee4a873ffa470
Reciphers for ciphertext: 0
Decipheredtext:           00000000000000000000000000000000
RESULT CIPHER-DECIPHER: -----OK-----


Test: 91
Hash algorithm: 6
Symmetric key bit length: 192
IV bit length:            64
Plaintext bit length:     128
Symmetric key:            5b5b5b5b5b5b5b5b5b5b5b5b5b5b5b5b5b5b5b5b5b5b5b5b
IV:                       0000000000000000
Plaintext:                00000000000000000000000000000000
Ciphertext:               c747b49fb22cad2a5e6fd0d5d360f2a5235b22ff026bb9e7a94b4fda058637f058fb656f7ce41416429facf74497c656
Reciphers for ciphertext: 0
Decipheredtext:           00000000000000000000000000000000
RESULT CIPHER-DECIPHER: -----OK-----


Test: 92
Hash algorithm: 9
Symmetric key bit length: 192
IV bit length:            64
Plaintext bit length:     128
Symmetric key:            5c5c5c5c5c5c5c5c5c5c5c5c5c5c5c5c5c5c5c5c5c5c5c5c
IV:                       0000000000000000
Plaintext:                00000000000000000000000000000000
Ciphertext:               cb7d0ff2de460aba2369edb2b341b65f0d8cfeb0810527079127ede529ca58e38e6e6471ca455999f47b299706901a1c
Reciphers for ciphertext: 0
Decipheredtext:           00000000000000000000000000000000
RESULT CIPHER-DECIPHER: -----OK-----


Test: 93
Hash algorithm: 2
Symmetric key bit length: 192
IV bit length:            64
Plaintext bit length:     128
Symmetric key:            5d5d5d5d5d5d5d5d5d5d5d5d5d5d5d5d5d5d5d5d5d5d5d5d
IV:                       0000000000000000
Plaintext:                00000000000000000000000000000000
Ciphertext:               cb7d0ff2de460aba2369edb2b341b65ffc3a070d2937976fb4f725c7662d64778a61aca1d181968d4ca3c17c4344cc91
Reciphers for ciphertext: 0
Decipheredtext:           00000000000000000000000000000000
RESULT CIPHER-DECIPHER: -----OK-----


Test: 94
Hash algorithm: 12
Symmetric key bit length: 192
IV bit length:            64
Plaintext bit length:     128
Symmetric key:            5e5e5e5e5e5e5e5e5e5e5e5e5e5e5e5e5e5e5e5e5e5e5e5e
IV:                       0000000000000000
Plaintext:                00000000000000000000000000000000
Ciphertext:               e2acb69a1c6f513285e114faafc4b0f9aad089c437623b4bb7afd94433d1a696
Reciphers for ciphertext: 0
Decipheredtext:           00000000000000000000000000000000
RESULT CIPHER-DECIPHER: -----OK-----


Test: 95
Hash algorithm: 13
Symmetric key bit length: 192
IV bit length:            64
Plaintext bit length:     128
Symmetric key:            5f5f5f5f5f5f5f5f5f5f5f5f5f5f5f5f5f5f5f5f5f5f5f5f
IV:                       0000000000000000
Plaintext:                00000000000000000000000000000000
Ciphertext:               e2acb69a1c6f513285e114faafc4b0f9a84ba5acf824a88dfc3361d48c8ca85c
Reciphers for ciphertext: 0
Decipheredtext:           00000000000000000000000000000000
RESULT CIPHER-DECIPHER: -----OK-----


Test: 96
Hash algorithm: 4
Symmetric key bit length: 192
IV bit length:            64
Plaintext bit length:     128
Symmetric key:            606060606060606060606060606060606060606060606060
IV:                       0000000000000000
Plaintext:                00000000000000000000000000000000
Ciphertext:               5ff660cb09f83313415d8444eef756dd549ada033127d4e73ffc39491ef9945f36e1522600f7be14ea04036aabae8bf3ca65fc819617b0eee78f9df7ad99e45f36e979b1e08987de8d305d6f29ac4eee
Reciphers for ciphertext: 0
Decipheredtext:           00000000000000000000000000000000
RESULT CIPHER-DECIPHER: -----OK-----


Test: 97
Hash algorithm: 0
Symmetric key bit length: 192
IV bit length:            64
Plaintext bit length:     128
Symmetric key:            616161616161616161616161616161616161616161616161
IV:                       0000000000000000
Plaintext:                00000000000000000000000000000000
Ciphertext:               5ff660cb09f83313415d8444eef756ddbedf92b758fb8f4f851649b44fa940d08f4561c9
Reciphers for ciphertext: 0
Decipheredtext:           00000000000000000000000000000000
RESULT CIPHER-DECIPHER: -----OK-----


Test: 98
Hash algorithm: 10
Symmetric key bit length: 192
IV bit length:            64
Plaintext bit length:     128
Symmetric key:            626262626262626262626262626262626262626262626262
IV:                       0000000000000000
Plaintext:                00000000000000000000000000000000
Ciphertext:               3ba0c9c8d5a1549395ad600ece0ee2ecfad3157543d03f187bc43b604fa76d2f53cddf6f726ab5697884d66274d39ccc8821f185c9d0de6d
Reciphers for ciphertext: 0
Decipheredtext:           00000000000000000000000000000000
RESULT CIPHER-DECIPHER: -----OK-----


Test: 99
Hash algorithm: 9
Symmetric key bit length: 192
IV bit length:            64
Plaintext bit length:     128
Symmetric key:            636363636363636363636363636363636363636363636363
IV:                       0000000000000000
Plaintext:                00000000000000000000000000000000
Ciphertext:               3ba0c9c8d5a1549395ad600ece0ee2ecfd51388a8ae2792e27e3605954850c50a2919ef5e522c083be54a0ef527de139
Reciphers for ciphertext: 0
Decipheredtext:           00000000000000000000000000000000
RESULT CIPHER-DECIPHER: -----OK-----


Test: 100
Hash algorithm: 4
Symmetric key bit length: 192
IV bit length:            64
Plaintext bit length:     128
Symmetric key:            646464646464646464646464646464646464646464646464
IV:                       0000000000000000
Plaintext:                00000000000000000000000000000000
Ciphertext:               57a7e1986c2c69a4f80bbb58befb63b65ccb5b5054f38e5086aa06554ef5a1342ec22537dc563e7c1b0be4518cd70307b417e9622e50b98e99cbe4a22994ae504367df93f25aa8c44cb4bf5bc8cb3fd2
Reciphers for ciphertext: 0
Decipheredtext:           00000000000000000000000000000000
RESULT CIPHER-DECIPHER: -----OK-----


Test: 101
Hash algorithm: 7
Symmetric key bit length: 192
IV bit length:            64
Plaintext bit length:     128
Symmetric key:            656565656565656565656565656565656565656565656565
IV:                       0000000000000000
Plaintext:                00000000000000000000000000000000
Ciphertext:               57a7e1986c2c69a4f80bbb58befb63b62364d2f1106d542bc1074a799abcef75
Reciphers for ciphertext: 0
Decipheredtext:           00000000000000000000000000000000
RESULT CIPHER-DECIPHER: -----OK-----


Test: 102
Hash algorithm: 3
Symmetric key bit length: 192
IV bit length:            64
Plaintext bit length:     128
Symmetric key:            666666666666666666666666666666666666666666666666
IV:                       0000000000000000
Plaintext:                00000000000000000000000000000000
Ciphertext:               b0b563c2e4ac77212f1b37a7d7a12fd91ef5065f45b54bffe7c470ec89976eb31cfc49fa2aab8f55c59f40a06ffcb107fe52fb93f3fccc58fb75f65534fa72b2
Reciphers for ciphertext: 0
Decipheredtext:           00000000000000000000000000000000
RESULT CIPHER-DECIPHER: -----OK-----


Test: 103
Hash algorithm: 13
Symmetric key bit length: 192
IV bit length:            64
Plaintext bit length:     128
Symmetric key:            676767676767676767676767676767676767676767676767
IV:                       0000000000000000
Plaintext:                00000000000000000000000000000000
Ciphertext:               b0b563c2e4ac77212f1b37a7d7a12fd9fa5270f400e78e9e56c94289f4e9377c
Reciphers for ciphertext: 0
Decipheredtext:           00000000000000000000000000000000
RESULT CIPHER-DECIPHER: -----OK-----


Test: 104
Hash algorithm: 11
Symmetric key bit length: 192
IV bit length:            64
Plaintext bit length:     128
Symmetric key:            686868686868686868686868686868686868686868686868
IV:                       0000000000000000
Plaintext:                00000000000000000000000000000000
Ciphertext:               15e63703e499d1ab38c047a2f1a95c6e2bd4c96ffd0cf16bf28f492ed9467be8
Reciphers for ciphertext: 0
Decipheredtext:           00000000000000000000000000000000
RESULT CIPHER-DECIPHER: -----OK-----


Test: 105
Hash algorithm: 5
Symmetric key bit length: 192
IV bit length:            64
Plaintext bit length:     128
Symmetric key:            696969696969696969696969696969696969696969696969
IV:                       0000000000000000
Plaintext:                00000000000000000000000000000000
Ciphertext:               15e63703e499d1ab38c047a2f1a95c6e4c3871875966d1ed2e88f1a10cb334ca9ac9cab42397c8eb2ccd80ad
Reciphers for ciphertext: 0
Decipheredtext:           00000000000000000000000000000000
RESULT CIPHER-DECIPHER: -----OK-----


Test: 106
Hash algorithm: 9
Symmetric key bit length: 192
IV bit length:            64
Plaintext bit length:     128
Symmetric key:            6a6a6a6a6a6a6a6a6a6a6a6a6a6a6a6a6a6a6a6a6a6a6a6a
IV:                       0000000000000000
Plaintext:                00000000000000000000000000000000
Ciphertext:               0cfa0f95e515647fe4f2262b37af02e6ca0bfed7ba5649c256bc267cad24ec5afe7f5188d37147a7c203ef1c604641d7
Reciphers for ciphertext: 0
Decipheredtext:           00000000000000000000000000000000
RESULT CIPHER-DECIPHER: -----OK-----


Test: 107
Hash algorithm: 6
Symmetric key bit length: 192
IV bit length:            64
Plaintext bit length:     128
Symmetric key:            6b6b6b6b6b6b6b6b6b6b6b6b6b6b6b6b6b6b6b6b6b6b6b6b
IV:                       0000000000000000
Plaintext:                00000000000000000000000000000000
Ciphertext:               0cfa0f95e515647fe4f2262b37af02e6e8e699f5555270b213d6b924e149c7b3fa49024f69ad6bd0e922aa2202d3021a
Reciphers for ciphertext: 0
Decipheredtext:           00000000000000000000000000000000
RESULT CIPHER-DECIPHER: -----OK-----


Test: 108
Hash algorithm: 4
Symmetric key bit length: 192
IV bit length:            64
Plaintext bit length:     128
Symmetric key:            6c6c6c6c6c6c6c6c6c6c6c6c6c6c6c6c6c6c6c6c6c6c6c6c
IV:                       0000000000000000
Plaintext:                00000000000000000000000000000000
Ciphertext:               813cc9417d4ae3e55c0b2f42de55aac48a5073894595041122aa924f2e5b68467489ea64a23680f0599265b4d263dccfb9e9a82ed14f60f72ed69c3b9859f186a5863c9337bd4641791f0e44c3271b0c
Reciphers for ciphertext: 0
Decipheredtext:           00000000000000000000000000000000
RESULT CIPHER-DECIPHER: -----OK-----


Test: 109
Hash algorithm: 1
Symmetric key bit length: 192
IV bit length:            64
Plaintext bit length:     128
Symmetric key:            6d6d6d6d6d6d6d6d6d6d6d6d6d6d6d6d6d6d6d6d6d6d6d6d
IV:                       0000000000000000
Plaintext:                00000000000000000000000000000000
Ciphertext:               813cc9417d4ae3e55c0b2f42de55aac470b97478e35186731e8d03a287b7a86513d5ccd569832ec7bf024d1f
Reciphers for ciphertext: 0
Decipheredtext:           00000000000000000000000000000000
RESULT CIPHER-DECIPHER: -----OK-----


Test: 110
Hash algorithm: 9
Symmetric key bit length: 192
IV bit length:            64
Plaintext bit length:     128
Symmetric key:            6e6e6e6e6e6e6e6e6e6e6e6e6e6e6e6e6e6e6e6e6e6e6e6e
IV:                       0000000000000000
Plaintext:                00000000000000000000000000000000
Ciphertext:               6dca86cb5a0faed09b1f271a242f4791ab3b7789054c836d2951274dbea4a92d28b73d393ba4c95cf9e6f36565dca372
Reciphers for ciphertext: 0
Decipheredtext:           00000000000000000000000000000000
RESULT CIPHER-DECIPHER: -----OK-----


Test: 111
Hash algorithm: 11
Symmetric key bit length: 192
IV bit length:            64
Plaintext bit length:     128
Symmetric key:            6f6f6f6f6f6f6f6f6f6f6f6f6f6f6f6f6f6f6f6f6f6f6f6f
IV:                       0000000000000000
Plaintext:                00000000000000000000000000000000
Ciphertext:               6dca86cb5a0faed09b1f271a242f479153f878a7439a8e10515029960cc06017
Reciphers for ciphertext: 0
Decipheredtext:           00000000000000000000000000000000
RESULT CIPHER-DECIPHER: -----OK-----


Test: 112
Hash algorithm: 3
Symmetric key bit length: 192
IV bit length:            64
Plaintext bit length:     128
Symmetric key:            707070707070707070707070707070707070707070707070
IV:                       0000000000000000
Plaintext:                00000000000000000000000000000000
Ciphertext:               db294ebc6c922253aa573b8f8777668d75692b21cd8b1e8d62887cc4d94127e7da97c7b083b6d0c9d6de0039145700a58d6c018cac60f50d737a318fd6631131
Reciphers for ciphertext: 0
Decipheredtext:           00000000000000000000000000000000
RESULT CIPHER-DECIPHER: -----OK-----


Test: 113
Hash algorithm: 6
Symmetric key bit length: 192
IV bit length:            64
Plaintext bit length:     128
Symmetric key:            717171717171717171717171717171717171717171717171
IV:                       0000000000000000
Plaintext:                00000000000000000000000000000000
Ciphertext:               db294ebc6c922253aa573b8f8777668d3f35d8dcdcd5369e5d73a4805191a3d837845bd31db2f270bd297fab8f637017
Reciphers for ciphertext: 0
Decipheredtext:           00000000000000000000000000000000
RESULT CIPHER-DECIPHER: -----OK-----


Test: 114
Hash algorithm: 2
Symmetric key bit length: 192
IV bit length:            64
Plaintext bit length:     128
Symmetric key:            727272727272727272727272727272727272727272727272
IV:                       0000000000000000
Plaintext:                00000000000000000000000000000000
Ciphertext:               19e79e1032880b88dc584f733915ef822ea096efc5f9965d4bc68706ec793daa932bd973bc9e2fb250137d1a498991ad
Reciphers for ciphertext: 0
Decipheredtext:           00000000000000000000000000000000
RESULT CIPHER-DECIPHER: -----OK-----


Test: 115
Hash algorithm: 3
Symmetric key bit length: 192
IV bit length:            64
Plaintext bit length:     128
Symmetric key:            737373737373737373737373737373737373737373737373
IV:                       0000000000000000
Plaintext:                00000000000000000000000000000000
Ciphertext:               19e79e1032880b88dc584f733915ef82b7a7fb8d93913756148708386723aee87e01de078382ee68a81daf5df5fc745f87a386fba0af6914b1376a424577b524
Reciphers for ciphertext: 0
Decipheredtext:           00000000000000000000000000000000
RESULT CIPHER-DECIPHER: -----OK-----


Test: 116
Hash algorithm: 0
Symmetric key bit length: 192
IV bit length:            64
Plaintext bit length:     128
Symmetric key:            747474747474747474747474747474747474747474747474
IV:                       0000000000000000
Plaintext:                00000000000000000000000000000000
Ciphertext:               2dd21e58f1fe5167ccd7fc483b8342ccccfbec24a0fded3b089c31b89add54c13e9e5892
Reciphers for ciphertext: 0
Decipheredtext:           00000000000000000000000000000000
RESULT CIPHER-DECIPHER: -----OK-----


Test: 117
Hash algorithm: 9
Symmetric key bit length: 192
IV bit length:            64
Plaintext bit length:     128
Symmetric key:            757575757575757575757575757575757575757575757575
IV:                       0000000000000000
Plaintext:                00000000000000000000000000000000
Ciphertext:               2dd21e58f1fe5167ccd7fc483b8342cceb23ef1aaebd7cda7e99fc1fa108ac7011acca4a32d3b16907ebeb4c68a6f9bd
Reciphers for ciphertext: 0
Decipheredtext:           00000000000000000000000000000000
RESULT CIPHER-DECIPHER: -----OK-----


Test: 118
Hash algorithm: 7
Symmetric key bit length: 192
IV bit length:            64
Plaintext bit length:     128
Symmetric key:            767676767676767676767676767676767676767676767676
IV:                       0000000000000000
Plaintext:                00000000000000000000000000000000
Ciphertext:               4cbe91beadba353f8aec9e92084ec3f4387da2d7d1fb08b0b3e06fb32c094f37
Reciphers for ciphertext: 0
Decipheredtext:           00000000000000000000000000000000
RESULT CIPHER-DECIPHER: -----OK-----


Test: 119
Hash algorithm: 2
Symmetric key bit length: 192
IV bit length:            64
Plaintext bit length:     128
Symmetric key:            777777777777777777777777777777777777777777777777
IV:                       0000000000000000
Plaintext:                00000000000000000000000000000000
Ciphertext:               4cbe91beadba353f8aec9e92084ec3f47bf999415acba8ea1d7256e7dd2211dc3ed372ba9bbde962b20cbcaf5ed6a5b1
Reciphers for ciphertext: 0
Decipheredtext:           00000000000000000000000000000000
RESULT CIPHER-DECIPHER: -----OK-----


Test: 120
Hash algorithm: 10
Symmetric key bit length: 192
IV bit length:            64
Plaintext bit length:     128
Symmetric key:            787878787878787878787878787878787878787878787878
IV:                       0000000000000000
Plaintext:                00000000000000000000000000000000
Ciphertext:               3cc323b2465e3a8ce89b6c73b5bffbb2fdb0ff0fd02f510706f2371d3416747103583141f4c2dddb73919127dd414fbacfc02dc497afb482
Reciphers for ciphertext: 0
Decipheredtext:           00000000000000000000000000000000
RESULT CIPHER-DECIPHER: -----OK-----


Test: 121
Hash algorithm: 9
Symmetric key bit length: 192
IV bit length:            64
Plaintext bit length:     128
Symmetric key:            797979797979797979797979797979797979797979797979
IV:                       0000000000000000
Plaintext:                00000000000000000000000000000000
Ciphertext:               3cc323b2465e3a8ce89b6c73b5bffbb2fa32d2f0191d17315ad56c242f34150ef20470db638aa831b541e7aafbef324f
Reciphers for ciphertext: 0
Decipheredtext:           00000000000000000000000000000000
RESULT CIPHER-DECIPHER: -----OK-----


Test: 122
Hash algorithm: 1
Symmetric key bit length: 192
IV bit length:            64
Plaintext bit length:     128
Symmetric key:            7a7a7a7a7a7a7a7a7a7a7a7a7a7a7a7a7a7a7a7a7a7a7a7a
IV:                       0000000000000000
Plaintext:                00000000000000000000000000000000
Ciphertext:               d15f4504f20845f6a7365ddc8897430020daf83d6c132060e5b0713cd17541a1ece7981abfc6ed6fe2980693
Reciphers for ciphertext: 0
Decipheredtext:           00000000000000000000000000000000
RESULT CIPHER-DECIPHER: -----OK-----


Test: 123
Hash algorithm: 5
Symmetric key bit length: 192
IV bit length:            64
Plaintext bit length:     128
Symmetric key:            7b7b7b7b7b7b7b7b7b7b7b7b7b7b7b7b7b7b7b7b7b7b7b7b
IV:                       0000000000000000
Plaintext:                00000000000000000000000000000000
Ciphertext:               d15f4504f20845f6a7365ddc88974300888103804ff745b0b17eebdf758d2ba437255154dae3dba9446dd735
Reciphers for ciphertext: 0
Decipheredtext:           00000000000000000000000000000000
RESULT CIPHER-DECIPHER: -----OK-----


Test: 124
Hash algorithm: 4
Symmetric key bit length: 192
IV bit length:            64
Plaintext bit length:     128
Symmetric key:            7c7c7c7c7c7c7c7c7c7c7c7c7c7c7c7c7c7c7c7c7c7c7c7c
IV:                       0000000000000000
Plaintext:                00000000000000000000000000000000
Ciphertext:               8b1536d4d60fec196f1b90e1abcae9a580798c1ceed00bed11ba2dec5bc42b27860c4e8eeb2800e71d92507c8379e272615211c6118118bd64f9eba3eb07f0a5ddcacd1e6490d497a7a44a99263b43fc
Reciphers for ciphertext: 0
Decipheredtext:           00000000000000000000000000000000
RESULT CIPHER-DECIPHER: -----OK-----


Test: 125
Hash algorithm: 2
Symmetric key bit length: 192
IV bit length:            64
Plaintext bit length:     128
Symmetric key:            7d7d7d7d7d7d7d7d7d7d7d7d7d7d7d7d7d7d7d7d7d7d7d7d
IV:                       0000000000000000
Plaintext:                00000000000000000000000000000000
Ciphertext:               8b1536d4d60fec196f1b90e1abcae9a5bc523e2b217e71ccf88558947ea63b8d14952769ce381bdb143ec2979eacd984
Reciphers for ciphertext: 0
Decipheredtext:           00000000000000000000000000000000
RESULT CIPHER-DECIPHER: -----OK-----


Test: 126
Hash algorithm: 8
Symmetric key bit length: 192
IV bit length:            64
Plaintext bit length:     128
Symmetric key:            7e7e7e7e7e7e7e7e7e7e7e7e7e7e7e7e7e7e7e7e7e7e7e7e
IV:                       0000000000000000
Plaintext:                00000000000000000000000000000000
Ciphertext:               5efa76b8a5a9eb374a1db5b713f5aaa3ac8c7a31edd3a0c79e62d97bbb2323b6f55f9433
Reciphers for ciphertext: 0
Decipheredtext:           00000000000000000000000000000000
RESULT CIPHER-DECIPHER: -----OK-----


Test: 127
Hash algorithm: 5
Symmetric key bit length: 192
IV bit length:            64
Plaintext bit length:     128
Symmetric key:            7f7f7f7f7f7f7f7f7f7f7f7f7f7f7f7f7f7f7f7f7f7f7f7f
IV:                       0000000000000000
Plaintext:                00000000000000000000000000000000
Ciphertext:               5efa76b8a5a9eb374a1db5b713f5aaa30724303c1856eb715c5503b4eeefc207852fae0a265163c040758980
Reciphers for ciphertext: 0
Decipheredtext:           00000000000000000000000000000000
RESULT CIPHER-DECIPHER: -----OK-----


 DATA SHA1 (hexadecimal): d8d578150968b4eb065cc1d449f2dd4360d2562a

