
DiceLock 9.0.0.1

 TEST COMPONENTS:
 ----------------
 DiceLock:           DiceLockXTSDigested class
                     Operating based on storage sector size length
 Operation Mode:     XTS_Mode class
 Block Cipher:       Camellia128 class
 Hash algorithms:     0 - Sha1 class
                      1 - Sha224 class
                      2 - Sha256 class
                      3 - Sha384 class
                      4 - Sha512 class
                      5 - Sha512_224 class
                      6 - Sha512_256 class
                      7 - Ripemd128 class
                      8 - Ripemd160 class
                      9 - Ripemd256 class
                     10 - Ripemd320 class
                     11 - MD2 class
                     12 - MD4 class
                     13 - MD5 class
 Key Modifier:       IncreaseKeyModifier_6_0_0_1 class
 Random tests:       RandomTestSuite class
                     FrequencyTest class
                     BlockFrequencyTest class
                     CumulativeSumForwardTest class
                     LongestRunOfOnesTest class
                     RunsTest class
 Random alpha:       0.001

 VECTOR TEST: Test vector 5 - Symmetric key all byte value 0xXX and plaintext all byte value 0xYY


##### INDIVIDUAL TESTS #####

Number tests: 128


Test: 0
Hash algorithm:       0
Sector size in bytes: 512
Data unit:   0
Start block: 1
Symmetric key bit length: 256
Plaintext bit length:     128
Symmetric key:            0000000000000000000000000000000000000000000000000000000000000000
Plaintext:                ffffffffffffffffffffffffffffffff
Ciphertext:               49f89637a9ba03fb8dc2eb40e180323a1a6fd67565f5df84fda9ad999069edc8a4c2afa4
Reciphers for ciphertext: 0
Decipheredtext:           ffffffffffffffffffffffffffffffff
RESULT CIPHER-DECIPHER: -----OK-----


Test: 1
Hash algorithm:       7
Sector size in bytes: 512
Data unit:   1
Start block: 3
Symmetric key bit length: 256
Plaintext bit length:     128
Symmetric key:            0101010101010101010101010101010101010101010101010101010101010101
Plaintext:                fefefefefefefefefefefefefefefefe
Ciphertext:               cefd56bb38131456393ac21ef33d37a6d17c80011bc7de0eb9eab164ab8314f9
Reciphers for ciphertext: 0
Decipheredtext:           fefefefefefefefefefefefefefefefe
RESULT CIPHER-DECIPHER: -----OK-----


Test: 2
Hash algorithm:       12
Sector size in bytes: 512
Data unit:   2
Start block: 5
Symmetric key bit length: 256
Plaintext bit length:     128
Symmetric key:            0202020202020202020202020202020202020202020202020202020202020202
Plaintext:                fdfdfdfdfdfdfdfdfdfdfdfdfdfdfdfd
Ciphertext:               e80d3db092e601ebd484ee0683d0e686bdca9f5518c3c614062beaf84655d579
Reciphers for ciphertext: 0
Decipheredtext:           fdfdfdfdfdfdfdfdfdfdfdfdfdfdfdfd
RESULT CIPHER-DECIPHER: -----OK-----


Test: 3
Hash algorithm:       3
Sector size in bytes: 512
Data unit:   3
Start block: 7
Symmetric key bit length: 256
Plaintext bit length:     128
Symmetric key:            0303030303030303030303030303030303030303030303030303030303030303
Plaintext:                fcfcfcfcfcfcfcfcfcfcfcfcfcfcfcfc
Ciphertext:               a933c5c098f6191694b3888d58b8038f1ebcbaf9d4a54d5aaa3ccf89919445060d41d15df98d24ddebea0f0685223e29d9b83f704ecc706cfac321b5157a1d9b
Reciphers for ciphertext: 0
Decipheredtext:           fcfcfcfcfcfcfcfcfcfcfcfcfcfcfcfc
RESULT CIPHER-DECIPHER: -----OK-----


Test: 4
Hash algorithm:       2
Sector size in bytes: 512
Data unit:   4
Start block: 9
Symmetric key bit length: 256
Plaintext bit length:     128
Symmetric key:            0404040404040404040404040404040404040404040404040404040404040404
Plaintext:                fbfbfbfbfbfbfbfbfbfbfbfbfbfbfbfb
Ciphertext:               31d16cfd0983a0e8ceee70a3f1cfc4bdc63cab6f82841e38b3e5500fe06408d01f0d45831a30777b4d0b1812d56aa2b7
Reciphers for ciphertext: 0
Decipheredtext:           fbfbfbfbfbfbfbfbfbfbfbfbfbfbfbfb
RESULT CIPHER-DECIPHER: -----OK-----


Test: 5
Hash algorithm:       8
Sector size in bytes: 512
Data unit:   5
Start block: 11
Symmetric key bit length: 256
Plaintext bit length:     128
Symmetric key:            0505050505050505050505050505050505050505050505050505050505050505
Plaintext:                fafafafafafafafafafafafafafafafa
Ciphertext:               d16355121409c4bb28f87c834ce8c0d099d67b0d5d55929fb47bb51d3564e369a0e003dc
Reciphers for ciphertext: 0
Decipheredtext:           fafafafafafafafafafafafafafafafa
RESULT CIPHER-DECIPHER: -----OK-----


Test: 6
Hash algorithm:       0
Sector size in bytes: 512
Data unit:   6
Start block: 13
Symmetric key bit length: 256
Plaintext bit length:     128
Symmetric key:            0606060606060606060606060606060606060606060606060606060606060606
Plaintext:                f9f9f9f9f9f9f9f9f9f9f9f9f9f9f9f9
Ciphertext:               0ca4290e12d2c021467a75877931f20564c62dcf719ecd7b29896389748faf544520cc63
Reciphers for ciphertext: 0
Decipheredtext:           f9f9f9f9f9f9f9f9f9f9f9f9f9f9f9f9
RESULT CIPHER-DECIPHER: -----OK-----


Test: 7
Hash algorithm:       5
Sector size in bytes: 512
Data unit:   7
Start block: 15
Symmetric key bit length: 256
Plaintext bit length:     128
Symmetric key:            0707070707070707070707070707070707070707070707070707070707070707
Plaintext:                f8f8f8f8f8f8f8f8f8f8f8f8f8f8f8f8
Ciphertext:               b1fd07e14c0f623b4c0e8b22f488d20d853719a7562e8bd229d9b3a35f30913830bb8d00e3493b3b9aae3c56
Reciphers for ciphertext: 0
Decipheredtext:           f8f8f8f8f8f8f8f8f8f8f8f8f8f8f8f8
RESULT CIPHER-DECIPHER: -----OK-----


Test: 8
Hash algorithm:       12
Sector size in bytes: 512
Data unit:   8
Start block: 17
Symmetric key bit length: 256
Plaintext bit length:     128
Symmetric key:            0808080808080808080808080808080808080808080808080808080808080808
Plaintext:                f7f7f7f7f7f7f7f7f7f7f7f7f7f7f7f7
Ciphertext:               2654226b2e1170b290772024a6dd101a382341b6409007836ccc89d063720aed
Reciphers for ciphertext: 0
Decipheredtext:           f7f7f7f7f7f7f7f7f7f7f7f7f7f7f7f7
RESULT CIPHER-DECIPHER: -----OK-----


Test: 9
Hash algorithm:       12
Sector size in bytes: 512
Data unit:   9
Start block: 19
Symmetric key bit length: 256
Plaintext bit length:     128
Symmetric key:            0909090909090909090909090909090909090909090909090909090909090909
Plaintext:                f6f6f6f6f6f6f6f6f6f6f6f6f6f6f6f6
Ciphertext:               bd681306634321b5fbb8d968a7331d5fdc1a9d2632eea57128be6c45fc87ccf6
Reciphers for ciphertext: 0
Decipheredtext:           f6f6f6f6f6f6f6f6f6f6f6f6f6f6f6f6
RESULT CIPHER-DECIPHER: -----OK-----


Test: 10
Hash algorithm:       2
Sector size in bytes: 1024
Data unit:   10
Start block: 21
Symmetric key bit length: 256
Plaintext bit length:     128
Symmetric key:            0a0a0a0a0a0a0a0a0a0a0a0a0a0a0a0a0a0a0a0a0a0a0a0a0a0a0a0a0a0a0a0a
Plaintext:                f5f5f5f5f5f5f5f5f5f5f5f5f5f5f5f5
Ciphertext:               9fa8ef43e3e94e64aeaff4a6a169704f7a1973ae9bf283870223112c7f475e2f73045c4945e45fdbd03c14b16c75744a
Reciphers for ciphertext: 0
Decipheredtext:           f5f5f5f5f5f5f5f5f5f5f5f5f5f5f5f5
RESULT CIPHER-DECIPHER: -----OK-----


Test: 11
Hash algorithm:       13
Sector size in bytes: 1024
Data unit:   11
Start block: 23
Symmetric key bit length: 256
Plaintext bit length:     128
Symmetric key:            0b0b0b0b0b0b0b0b0b0b0b0b0b0b0b0b0b0b0b0b0b0b0b0b0b0b0b0b0b0b0b0b
Plaintext:                f4f4f4f4f4f4f4f4f4f4f4f4f4f4f4f4
Ciphertext:               008405fe5bdf056f4b59f46826d16c8fefec9af7963feae1039f792c43d4ae78
Reciphers for ciphertext: 1
Decipheredtext:           f4f4f4f4f4f4f4f4f4f4f4f4f4f4f4f4
RESULT CIPHER-DECIPHER: -----OK-----


Test: 12
Hash algorithm:       7
Sector size in bytes: 1024
Data unit:   12
Start block: 25
Symmetric key bit length: 256
Plaintext bit length:     128
Symmetric key:            0c0c0c0c0c0c0c0c0c0c0c0c0c0c0c0c0c0c0c0c0c0c0c0c0c0c0c0c0c0c0c0c
Plaintext:                f3f3f3f3f3f3f3f3f3f3f3f3f3f3f3f3
Ciphertext:               9e9e4bd15dffb77d819f5e2fec45b89c1b5f35d218f976740d6b095d43b77c2e
Reciphers for ciphertext: 0
Decipheredtext:           f3f3f3f3f3f3f3f3f3f3f3f3f3f3f3f3
RESULT CIPHER-DECIPHER: -----OK-----


Test: 13
Hash algorithm:       2
Sector size in bytes: 1024
Data unit:   13
Start block: 27
Symmetric key bit length: 256
Plaintext bit length:     128
Symmetric key:            0d0d0d0d0d0d0d0d0d0d0d0d0d0d0d0d0d0d0d0d0d0d0d0d0d0d0d0d0d0d0d0d
Plaintext:                f2f2f2f2f2f2f2f2f2f2f2f2f2f2f2f2
Ciphertext:               06f8485704c11e9ac5dee2f01bb425e377ff5006669bf92f1e8d633af74350dd7678cf9969ff70483f260cd4e41d1aba
Reciphers for ciphertext: 0
Decipheredtext:           f2f2f2f2f2f2f2f2f2f2f2f2f2f2f2f2
RESULT CIPHER-DECIPHER: -----OK-----


Test: 14
Hash algorithm:       12
Sector size in bytes: 1024
Data unit:   14
Start block: 29
Symmetric key bit length: 256
Plaintext bit length:     128
Symmetric key:            0e0e0e0e0e0e0e0e0e0e0e0e0e0e0e0e0e0e0e0e0e0e0e0e0e0e0e0e0e0e0e0e
Plaintext:                f1f1f1f1f1f1f1f1f1f1f1f1f1f1f1f1
Ciphertext:               c8048b1d8ee2147541bb21e949a939477c5c01ff09fc28509f1cd066936ae842
Reciphers for ciphertext: 0
Decipheredtext:           f1f1f1f1f1f1f1f1f1f1f1f1f1f1f1f1
RESULT CIPHER-DECIPHER: -----OK-----


Test: 15
Hash algorithm:       9
Sector size in bytes: 1024
Data unit:   15
Start block: 31
Symmetric key bit length: 256
Plaintext bit length:     128
Symmetric key:            0f0f0f0f0f0f0f0f0f0f0f0f0f0f0f0f0f0f0f0f0f0f0f0f0f0f0f0f0f0f0f0f
Plaintext:                f0f0f0f0f0f0f0f0f0f0f0f0f0f0f0f0
Ciphertext:               6364d9329f06d75740595b4fa2353bbc19ca3a07948d2bafef9ab51df2f8e4a5b9664f23afdb08c585b2432ab965f00d
Reciphers for ciphertext: 0
Decipheredtext:           f0f0f0f0f0f0f0f0f0f0f0f0f0f0f0f0
RESULT CIPHER-DECIPHER: -----OK-----


Test: 16
Hash algorithm:       13
Sector size in bytes: 1024
Data unit:   16
Start block: 33
Symmetric key bit length: 256
Plaintext bit length:     128
Symmetric key:            1010101010101010101010101010101010101010101010101010101010101010
Plaintext:                efefefefefefefefefefefefefefefef
Ciphertext:               5fd3209971363c55bf0649c98824653b4a79d6653ebac45c1e6c828fd87cc3fa
Reciphers for ciphertext: 0
Decipheredtext:           efefefefefefefefefefefefefefefef
RESULT CIPHER-DECIPHER: -----OK-----


Test: 17
Hash algorithm:       10
Sector size in bytes: 1024
Data unit:   17
Start block: 35
Symmetric key bit length: 256
Plaintext bit length:     128
Symmetric key:            1111111111111111111111111111111111111111111111111111111111111111
Plaintext:                eeeeeeeeeeeeeeeeeeeeeeeeeeeeeeee
Ciphertext:               d5fde22e0f429fed3c160eaf46e4331053a7c5d0aaa51a4641b8b709e7089cadc97288fac9f0e64381d7708e89c6655ea0f175eaa9fe042c
Reciphers for ciphertext: 0
Decipheredtext:           eeeeeeeeeeeeeeeeeeeeeeeeeeeeeeee
RESULT CIPHER-DECIPHER: -----OK-----


Test: 18
Hash algorithm:       1
Sector size in bytes: 1024
Data unit:   18
Start block: 37
Symmetric key bit length: 256
Plaintext bit length:     128
Symmetric key:            1212121212121212121212121212121212121212121212121212121212121212
Plaintext:                edededededededededededededededed
Ciphertext:               7e71380c68e16bf68d67e88cf617179e0e471cba2d5e291ee98a92568048f494d9a83e7f7a468f753c032c15
Reciphers for ciphertext: 0
Decipheredtext:           edededededededededededededededed
RESULT CIPHER-DECIPHER: -----OK-----


Test: 19
Hash algorithm:       2
Sector size in bytes: 1024
Data unit:   19
Start block: 39
Symmetric key bit length: 256
Plaintext bit length:     128
Symmetric key:            1313131313131313131313131313131313131313131313131313131313131313
Plaintext:                ecececececececececececececececec
Ciphertext:               c0a33c34ed2a08ac183ff7d3105ef3788aae43c33e3d08050e106117213dd00b2443788734dbe0d07fa54f0ae5929763
Reciphers for ciphertext: 0
Decipheredtext:           ecececececececececececececececec
RESULT CIPHER-DECIPHER: -----OK-----


Test: 20
Hash algorithm:       0
Sector size in bytes: 1536
Data unit:   20
Start block: 41
Symmetric key bit length: 256
Plaintext bit length:     128
Symmetric key:            1414141414141414141414141414141414141414141414141414141414141414
Plaintext:                ebebebebebebebebebebebebebebebeb
Ciphertext:               e4842d2e61a96106c7701191bf3ef6bde88e46f20faaad3d750424affbbfa110c7999dad
Reciphers for ciphertext: 0
Decipheredtext:           ebebebebebebebebebebebebebebebeb
RESULT CIPHER-DECIPHER: -----OK-----


Test: 21
Hash algorithm:       12
Sector size in bytes: 1536
Data unit:   21
Start block: 43
Symmetric key bit length: 256
Plaintext bit length:     128
Symmetric key:            1515151515151515151515151515151515151515151515151515151515151515
Plaintext:                eaeaeaeaeaeaeaeaeaeaeaeaeaeaeaea
Ciphertext:               8fc0cfbc5ebf1ce0e813e63717e90782d4622cd468cdbb170140972156997066
Reciphers for ciphertext: 0
Decipheredtext:           eaeaeaeaeaeaeaeaeaeaeaeaeaeaeaea
RESULT CIPHER-DECIPHER: -----OK-----


Test: 22
Hash algorithm:       3
Sector size in bytes: 1536
Data unit:   22
Start block: 45
Symmetric key bit length: 256
Plaintext bit length:     128
Symmetric key:            1616161616161616161616161616161616161616161616161616161616161616
Plaintext:                e9e9e9e9e9e9e9e9e9e9e9e9e9e9e9e9
Ciphertext:               cb031c30f632a8fa0a23210a218fae54987509ce6a1ba022c1b36db0410ac2c53b790ef123bc9d5f43c6133960b357d8d1f1f8a55cce4a8c1efccf2d353abdb1
Reciphers for ciphertext: 0
Decipheredtext:           e9e9e9e9e9e9e9e9e9e9e9e9e9e9e9e9
RESULT CIPHER-DECIPHER: -----OK-----


Test: 23
Hash algorithm:       1
Sector size in bytes: 1536
Data unit:   23
Start block: 47
Symmetric key bit length: 256
Plaintext bit length:     128
Symmetric key:            1717171717171717171717171717171717171717171717171717171717171717
Plaintext:                e8e8e8e8e8e8e8e8e8e8e8e8e8e8e8e8
Ciphertext:               e672bf901921bb4e3d8de371387b087cf3af0ac126c4a9e704a329a7304eadc971bf92c14d29ca82bba94982
Reciphers for ciphertext: 0
Decipheredtext:           e8e8e8e8e8e8e8e8e8e8e8e8e8e8e8e8
RESULT CIPHER-DECIPHER: -----OK-----


Test: 24
Hash algorithm:       3
Sector size in bytes: 1536
Data unit:   24
Start block: 49
Symmetric key bit length: 256
Plaintext bit length:     128
Symmetric key:            1818181818181818181818181818181818181818181818181818181818181818
Plaintext:                e7e7e7e7e7e7e7e7e7e7e7e7e7e7e7e7
Ciphertext:               139cf41f42e24b3f3d9bb1255f94cd9419d4a287adb8f2f81600e9340d63b972a1779fd0419984a00a672a0f93e47b807aee24a080b2b8d2d7cd14ab4ab3980d
Reciphers for ciphertext: 0
Decipheredtext:           e7e7e7e7e7e7e7e7e7e7e7e7e7e7e7e7
RESULT CIPHER-DECIPHER: -----OK-----


Test: 25
Hash algorithm:       11
Sector size in bytes: 1536
Data unit:   25
Start block: 51
Symmetric key bit length: 256
Plaintext bit length:     128
Symmetric key:            1919191919191919191919191919191919191919191919191919191919191919
Plaintext:                e6e6e6e6e6e6e6e6e6e6e6e6e6e6e6e6
Ciphertext:               467b8f7a4856e876ebb75015141edae849e39dbb6d7db67941285c5dd81610fc
Reciphers for ciphertext: 0
Decipheredtext:           e6e6e6e6e6e6e6e6e6e6e6e6e6e6e6e6
RESULT CIPHER-DECIPHER: -----OK-----


Test: 26
Hash algorithm:       8
Sector size in bytes: 1536
Data unit:   26
Start block: 53
Symmetric key bit length: 256
Plaintext bit length:     128
Symmetric key:            1a1a1a1a1a1a1a1a1a1a1a1a1a1a1a1a1a1a1a1a1a1a1a1a1a1a1a1a1a1a1a1a
Plaintext:                e5e5e5e5e5e5e5e5e5e5e5e5e5e5e5e5
Ciphertext:               34b6fe132e1b9cbbc3886533e1bc32422e588dde11492e90084d586421c1b367384b605d
Reciphers for ciphertext: 0
Decipheredtext:           e5e5e5e5e5e5e5e5e5e5e5e5e5e5e5e5
RESULT CIPHER-DECIPHER: -----OK-----


Test: 27
Hash algorithm:       6
Sector size in bytes: 1536
Data unit:   27
Start block: 55
Symmetric key bit length: 256
Plaintext bit length:     128
Symmetric key:            1b1b1b1b1b1b1b1b1b1b1b1b1b1b1b1b1b1b1b1b1b1b1b1b1b1b1b1b1b1b1b1b
Plaintext:                e4e4e4e4e4e4e4e4e4e4e4e4e4e4e4e4
Ciphertext:               d09703303dbf629c14dd3e5eaaa9ffcb85b9d32c1de0da2d6f16907d7d4dcfdc6f9f0f7bbeb6aa12048f5bac4b221a8f
Reciphers for ciphertext: 0
Decipheredtext:           e4e4e4e4e4e4e4e4e4e4e4e4e4e4e4e4
RESULT CIPHER-DECIPHER: -----OK-----


Test: 28
Hash algorithm:       2
Sector size in bytes: 1536
Data unit:   28
Start block: 57
Symmetric key bit length: 256
Plaintext bit length:     128
Symmetric key:            1c1c1c1c1c1c1c1c1c1c1c1c1c1c1c1c1c1c1c1c1c1c1c1c1c1c1c1c1c1c1c1c
Plaintext:                e3e3e3e3e3e3e3e3e3e3e3e3e3e3e3e3
Ciphertext:               d79f07575305700492ec90ac3c1c6c942b6975704847567780a27b40bb95189bb422a09ad8f9387270c1a30607d62bf7
Reciphers for ciphertext: 0
Decipheredtext:           e3e3e3e3e3e3e3e3e3e3e3e3e3e3e3e3
RESULT CIPHER-DECIPHER: -----OK-----


Test: 29
Hash algorithm:       8
Sector size in bytes: 1536
Data unit:   29
Start block: 59
Symmetric key bit length: 256
Plaintext bit length:     128
Symmetric key:            1d1d1d1d1d1d1d1d1d1d1d1d1d1d1d1d1d1d1d1d1d1d1d1d1d1d1d1d1d1d1d1d
Plaintext:                e2e2e2e2e2e2e2e2e2e2e2e2e2e2e2e2
Ciphertext:               26b8cbdb91f349ed48f6cb9d60f701fa4e67ae12303cae28b067afbdb1052edd667de66b
Reciphers for ciphertext: 0
Decipheredtext:           e2e2e2e2e2e2e2e2e2e2e2e2e2e2e2e2
RESULT CIPHER-DECIPHER: -----OK-----


Test: 30
Hash algorithm:       12
Sector size in bytes: 2048
Data unit:   30
Start block: 61
Symmetric key bit length: 256
Plaintext bit length:     128
Symmetric key:            1e1e1e1e1e1e1e1e1e1e1e1e1e1e1e1e1e1e1e1e1e1e1e1e1e1e1e1e1e1e1e1e
Plaintext:                e1e1e1e1e1e1e1e1e1e1e1e1e1e1e1e1
Ciphertext:               4fc023ac1ebef1abb615fba6996a33fcf238cfccd8d29c268bff0563dc33d424
Reciphers for ciphertext: 0
Decipheredtext:           e1e1e1e1e1e1e1e1e1e1e1e1e1e1e1e1
RESULT CIPHER-DECIPHER: -----OK-----


Test: 31
Hash algorithm:       5
Sector size in bytes: 2048
Data unit:   31
Start block: 63
Symmetric key bit length: 256
Plaintext bit length:     128
Symmetric key:            1f1f1f1f1f1f1f1f1f1f1f1f1f1f1f1f1f1f1f1f1f1f1f1f1f1f1f1f1f1f1f1f
Plaintext:                e0e0e0e0e0e0e0e0e0e0e0e0e0e0e0e0
Ciphertext:               8e533d839aa493294c12ddbf7e8ff5cba515c02660ff2eabd0197e0029bb588ad4733679feb99c19cd49a15b
Reciphers for ciphertext: 0
Decipheredtext:           e0e0e0e0e0e0e0e0e0e0e0e0e0e0e0e0
RESULT CIPHER-DECIPHER: -----OK-----


Test: 32
Hash algorithm:       4
Sector size in bytes: 2048
Data unit:   32
Start block: 65
Symmetric key bit length: 256
Plaintext bit length:     128
Symmetric key:            2020202020202020202020202020202020202020202020202020202020202020
Plaintext:                dfdfdfdfdfdfdfdfdfdfdfdfdfdfdfdf
Ciphertext:               27b54387754532d8266d9ebb752295def179aacf1efd58ca0d827eedeecc7425e10a09e0a0fa4d52df2b042f0a2a28cc455b726f00526778ab6ed8e77e3a453f59ec656cf787eba2eacc391d7e238f26
Reciphers for ciphertext: 0
Decipheredtext:           dfdfdfdfdfdfdfdfdfdfdfdfdfdfdfdf
RESULT CIPHER-DECIPHER: -----OK-----


Test: 33
Hash algorithm:       11
Sector size in bytes: 2048
Data unit:   33
Start block: 67
Symmetric key bit length: 256
Plaintext bit length:     128
Symmetric key:            2121212121212121212121212121212121212121212121212121212121212121
Plaintext:                dededededededededededededededede
Ciphertext:               b7ee8f92aa68cc5b7bcd648c0826648db1d4b94cf48c24e3eecc3d893ba3059b
Reciphers for ciphertext: 0
Decipheredtext:           dededededededededededededededede
RESULT CIPHER-DECIPHER: -----OK-----


Test: 34
Hash algorithm:       8
Sector size in bytes: 2048
Data unit:   34
Start block: 69
Symmetric key bit length: 256
Plaintext bit length:     128
Symmetric key:            2222222222222222222222222222222222222222222222222222222222222222
Plaintext:                dddddddddddddddddddddddddddddddd
Ciphertext:               a1c5ea74332b8a81565408e36d2e9f437b6057d877d0a4eae23b7cbe58a22f3a005b7d86
Reciphers for ciphertext: 0
Decipheredtext:           dddddddddddddddddddddddddddddddd
RESULT CIPHER-DECIPHER: -----OK-----


Test: 35
Hash algorithm:       12
Sector size in bytes: 2048
Data unit:   35
Start block: 71
Symmetric key bit length: 256
Plaintext bit length:     128
Symmetric key:            2323232323232323232323232323232323232323232323232323232323232323
Plaintext:                dcdcdcdcdcdcdcdcdcdcdcdcdcdcdcdc
Ciphertext:               50af1006be65ec04dc824bb9e04a855d909c93b1c0191a5c708962e916ff59a3
Reciphers for ciphertext: 0
Decipheredtext:           dcdcdcdcdcdcdcdcdcdcdcdcdcdcdcdc
RESULT CIPHER-DECIPHER: -----OK-----


Test: 36
Hash algorithm:       11
Sector size in bytes: 2048
Data unit:   36
Start block: 73
Symmetric key bit length: 256
Plaintext bit length:     128
Symmetric key:            2424242424242424242424242424242424242424242424242424242424242424
Plaintext:                dbdbdbdbdbdbdbdbdbdbdbdbdbdbdbdb
Ciphertext:               b36a089ba8989a5b4d844daf792bd4bc76c998dc318ef189de17bb07b644a1e3
Reciphers for ciphertext: 0
Decipheredtext:           dbdbdbdbdbdbdbdbdbdbdbdbdbdbdbdb
RESULT CIPHER-DECIPHER: -----OK-----


Test: 37
Hash algorithm:       9
Sector size in bytes: 2048
Data unit:   37
Start block: 75
Symmetric key bit length: 256
Plaintext bit length:     128
Symmetric key:            2525252525252525252525252525252525252525252525252525252525252525
Plaintext:                dadadadadadadadadadadadadadadada
Ciphertext:               4ef42ad1f978239e137e91361941feee1961603dc84c8db10213c88b3993ac1d598fd1831e7489c2b3c11b5f1a810d4f
Reciphers for ciphertext: 0
Decipheredtext:           dadadadadadadadadadadadadadadada
RESULT CIPHER-DECIPHER: -----OK-----


Test: 38
Hash algorithm:       10
Sector size in bytes: 2048
Data unit:   38
Start block: 77
Symmetric key bit length: 256
Plaintext bit length:     128
Symmetric key:            2626262626262626262626262626262626262626262626262626262626262626
Plaintext:                d9d9d9d9d9d9d9d9d9d9d9d9d9d9d9d9
Ciphertext:               52ff5d74ffdb4dda1886af2164e34b44adc05e4f3f8e17bb22a258efb6a50dbb247c3ae321cf0c6b3ae0a6f38a6d6924230f6bbc2341babf
Reciphers for ciphertext: 0
Decipheredtext:           d9d9d9d9d9d9d9d9d9d9d9d9d9d9d9d9
RESULT CIPHER-DECIPHER: -----OK-----


Test: 39
Hash algorithm:       3
Sector size in bytes: 2048
Data unit:   39
Start block: 79
Symmetric key bit length: 256
Plaintext bit length:     128
Symmetric key:            2727272727272727272727272727272727272727272727272727272727272727
Plaintext:                d8d8d8d8d8d8d8d8d8d8d8d8d8d8d8d8
Ciphertext:               a03eb1ac68f8775e1e7600dbed550420faa00d34872cd36512dafb4af417c10839a77b8f675450af72c89e78c654cefcc2705f6a2187f6b3d8eed2eaf6792f24
Reciphers for ciphertext: 0
Decipheredtext:           d8d8d8d8d8d8d8d8d8d8d8d8d8d8d8d8
RESULT CIPHER-DECIPHER: -----OK-----


Test: 40
Hash algorithm:       7
Sector size in bytes: 2560
Data unit:   40
Start block: 81
Symmetric key bit length: 256
Plaintext bit length:     128
Symmetric key:            2828282828282828282828282828282828282828282828282828282828282828
Plaintext:                d7d7d7d7d7d7d7d7d7d7d7d7d7d7d7d7
Ciphertext:               5bbe1701397434192897ae91b1fd89c1fd42970d2a232fedd9caa2519ae4ddcb
Reciphers for ciphertext: 0
Decipheredtext:           d7d7d7d7d7d7d7d7d7d7d7d7d7d7d7d7
RESULT CIPHER-DECIPHER: -----OK-----


Test: 41
Hash algorithm:       6
Sector size in bytes: 2560
Data unit:   41
Start block: 83
Symmetric key bit length: 256
Plaintext bit length:     128
Symmetric key:            2929292929292929292929292929292929292929292929292929292929292929
Plaintext:                d6d6d6d6d6d6d6d6d6d6d6d6d6d6d6d6
Ciphertext:               1e49685456e8c7a164d56e02b31e29bcd06fb88029d299c14e90d40d5ca519fae889f56d10d81035a90c7a3a49c86f89
Reciphers for ciphertext: 0
Decipheredtext:           d6d6d6d6d6d6d6d6d6d6d6d6d6d6d6d6
RESULT CIPHER-DECIPHER: -----OK-----


Test: 42
Hash algorithm:       10
Sector size in bytes: 2560
Data unit:   42
Start block: 85
Symmetric key bit length: 256
Plaintext bit length:     128
Symmetric key:            2a2a2a2a2a2a2a2a2a2a2a2a2a2a2a2a2a2a2a2a2a2a2a2a2a2a2a2a2a2a2a2a
Plaintext:                d5d5d5d5d5d5d5d5d5d5d5d5d5d5d5d5
Ciphertext:               5ffc61bc6f4ca83ca340dff12ef36f0a17940cf2af85d135bb5ac9c71680005f272e2e554d60dd39fa5fdb27a1c40bf48389bb3e68c535ca
Reciphers for ciphertext: 0
Decipheredtext:           d5d5d5d5d5d5d5d5d5d5d5d5d5d5d5d5
RESULT CIPHER-DECIPHER: -----OK-----


Test: 43
Hash algorithm:       6
Sector size in bytes: 2560
Data unit:   43
Start block: 87
Symmetric key bit length: 256
Plaintext bit length:     128
Symmetric key:            2b2b2b2b2b2b2b2b2b2b2b2b2b2b2b2b2b2b2b2b2b2b2b2b2b2b2b2b2b2b2b2b
Plaintext:                d4d4d4d4d4d4d4d4d4d4d4d4d4d4d4d4
Ciphertext:               472ae3431e500fb72d15760c61a69e5f1268105c2d1a7134ed4ac311658802d3cff727732524057337be9676c8afa528
Reciphers for ciphertext: 0
Decipheredtext:           d4d4d4d4d4d4d4d4d4d4d4d4d4d4d4d4
RESULT CIPHER-DECIPHER: -----OK-----


Test: 44
Hash algorithm:       7
Sector size in bytes: 2560
Data unit:   44
Start block: 89
Symmetric key bit length: 256
Plaintext bit length:     128
Symmetric key:            2c2c2c2c2c2c2c2c2c2c2c2c2c2c2c2c2c2c2c2c2c2c2c2c2c2c2c2c2c2c2c2c
Plaintext:                d3d3d3d3d3d3d3d3d3d3d3d3d3d3d3d3
Ciphertext:               8a6257d13138114ea75aa7629093f31d3183f8f8fcd104cff01c2bdf0bf9c81d
Reciphers for ciphertext: 0
Decipheredtext:           d3d3d3d3d3d3d3d3d3d3d3d3d3d3d3d3
RESULT CIPHER-DECIPHER: -----OK-----


Test: 45
Hash algorithm:       13
Sector size in bytes: 2560
Data unit:   45
Start block: 91
Symmetric key bit length: 256
Plaintext bit length:     128
Symmetric key:            2d2d2d2d2d2d2d2d2d2d2d2d2d2d2d2d2d2d2d2d2d2d2d2d2d2d2d2d2d2d2d2d
Plaintext:                d2d2d2d2d2d2d2d2d2d2d2d2d2d2d2d2
Ciphertext:               16a59d6a106b4c2b844fb18856e5093e3e970f3c694e9d89cfcd1cd1d6681dc4
Reciphers for ciphertext: 0
Decipheredtext:           d2d2d2d2d2d2d2d2d2d2d2d2d2d2d2d2
RESULT CIPHER-DECIPHER: -----OK-----


Test: 46
Hash algorithm:       2
Sector size in bytes: 2560
Data unit:   46
Start block: 93
Symmetric key bit length: 256
Plaintext bit length:     128
Symmetric key:            2e2e2e2e2e2e2e2e2e2e2e2e2e2e2e2e2e2e2e2e2e2e2e2e2e2e2e2e2e2e2e2e
Plaintext:                d1d1d1d1d1d1d1d1d1d1d1d1d1d1d1d1
Ciphertext:               65b72ec495c0782ce4c4863ca8d97e4efb61d3b12bd9d158423e8eb758599bcda72d186c706cdb72a00bd14022f96094
Reciphers for ciphertext: 0
Decipheredtext:           d1d1d1d1d1d1d1d1d1d1d1d1d1d1d1d1
RESULT CIPHER-DECIPHER: -----OK-----


Test: 47
Hash algorithm:       6
Sector size in bytes: 2560
Data unit:   47
Start block: 95
Symmetric key bit length: 256
Plaintext bit length:     128
Symmetric key:            2f2f2f2f2f2f2f2f2f2f2f2f2f2f2f2f2f2f2f2f2f2f2f2f2f2f2f2f2f2f2f2f
Plaintext:                d0d0d0d0d0d0d0d0d0d0d0d0d0d0d0d0
Ciphertext:               157146798b748d957333ab24fb7e74e80f0a485be75ce349b892f0b19a692b9cc93d04d1a7af57c7ab4c99f1ab0fdc50
Reciphers for ciphertext: 0
Decipheredtext:           d0d0d0d0d0d0d0d0d0d0d0d0d0d0d0d0
RESULT CIPHER-DECIPHER: -----OK-----


Test: 48
Hash algorithm:       0
Sector size in bytes: 2560
Data unit:   48
Start block: 97
Symmetric key bit length: 256
Plaintext bit length:     128
Symmetric key:            3030303030303030303030303030303030303030303030303030303030303030
Plaintext:                cfcfcfcfcfcfcfcfcfcfcfcfcfcfcfcf
Ciphertext:               a4bdcb9f683f46efd5321115a17ccef023cef893e6436561f67a8ed76042474fa173a404
Reciphers for ciphertext: 0
Decipheredtext:           cfcfcfcfcfcfcfcfcfcfcfcfcfcfcfcf
RESULT CIPHER-DECIPHER: -----OK-----


Test: 49
Hash algorithm:       6
Sector size in bytes: 2560
Data unit:   49
Start block: 99
Symmetric key bit length: 256
Plaintext bit length:     128
Symmetric key:            3131313131313131313131313131313131313131313131313131313131313131
Plaintext:                cececececececececececececececece
Ciphertext:               cb8d28095099433d2aa3924a12a5d12c2817712aae1cc534f2ed3a4323bbb927c01b637f2f8596aa5d4f2113f8b73051
Reciphers for ciphertext: 0
Decipheredtext:           cececececececececececececececece
RESULT CIPHER-DECIPHER: -----OK-----


Test: 50
Hash algorithm:       12
Sector size in bytes: 3072
Data unit:   50
Start block: 101
Symmetric key bit length: 256
Plaintext bit length:     128
Symmetric key:            3232323232323232323232323232323232323232323232323232323232323232
Plaintext:                cdcdcdcdcdcdcdcdcdcdcdcdcdcdcdcd
Ciphertext:               fbccea543f5e87d3a9a642beb6fbfba7895b34210caf5fb62402ad2b18720068
Reciphers for ciphertext: 0
Decipheredtext:           cdcdcdcdcdcdcdcdcdcdcdcdcdcdcdcd
RESULT CIPHER-DECIPHER: -----OK-----


Test: 51
Hash algorithm:       5
Sector size in bytes: 3072
Data unit:   51
Start block: 103
Symmetric key bit length: 256
Plaintext bit length:     128
Symmetric key:            3333333333333333333333333333333333333333333333333333333333333333
Plaintext:                cccccccccccccccccccccccccccccccc
Ciphertext:               e9d4ca778ea91d6dc33a9490b83949bd2f237306ec56b45b2e0efcdd1dd072a4e0a431ed37942ac417d66ac1
Reciphers for ciphertext: 0
Decipheredtext:           cccccccccccccccccccccccccccccccc
RESULT CIPHER-DECIPHER: -----OK-----


Test: 52
Hash algorithm:       10
Sector size in bytes: 3072
Data unit:   52
Start block: 105
Symmetric key bit length: 256
Plaintext bit length:     128
Symmetric key:            3434343434343434343434343434343434343434343434343434343434343434
Plaintext:                cbcbcbcbcbcbcbcbcbcbcbcbcbcbcbcb
Ciphertext:               1cbc758c4dea19a2fadd1b2ce7c54a82b24419b89591c9132a6059302e8ede68cd970ac0e3de8239d79fd664552f23cad4c5ce4e367530ee
Reciphers for ciphertext: 0
Decipheredtext:           cbcbcbcbcbcbcbcbcbcbcbcbcbcbcbcb
RESULT CIPHER-DECIPHER: -----OK-----


Test: 53
Hash algorithm:       10
Sector size in bytes: 3072
Data unit:   53
Start block: 107
Symmetric key bit length: 256
Plaintext bit length:     128
Symmetric key:            3535353535353535353535353535353535353535353535353535353535353535
Plaintext:                cacacacacacacacacacacacacacacaca
Ciphertext:               16fd420a267826a6418a307755a89998810a985a246f8f6330f0e900779e3815ca13c3cf6cccad03d1ee0f35d2effb5d5dafc5c8b6a5883c
Reciphers for ciphertext: 0
Decipheredtext:           cacacacacacacacacacacacacacacaca
RESULT CIPHER-DECIPHER: -----OK-----


Test: 54
Hash algorithm:       3
Sector size in bytes: 3072
Data unit:   54
Start block: 109
Symmetric key bit length: 256
Plaintext bit length:     128
Symmetric key:            3636363636363636363636363636363636363636363636363636363636363636
Plaintext:                c9c9c9c9c9c9c9c9c9c9c9c9c9c9c9c9
Ciphertext:               56764df2c737dbeea833681df1394d54b6d3dc5130e035e4363013a23d886600ab5d9ef2959ea413bf69aecc5e5a183f24c50fe868521c66e9a695eb7b9bf57f
Reciphers for ciphertext: 0
Decipheredtext:           c9c9c9c9c9c9c9c9c9c9c9c9c9c9c9c9
RESULT CIPHER-DECIPHER: -----OK-----


Test: 55
Hash algorithm:       8
Sector size in bytes: 3072
Data unit:   55
Start block: 111
Symmetric key bit length: 256
Plaintext bit length:     128
Symmetric key:            3737373737373737373737373737373737373737373737373737373737373737
Plaintext:                c8c8c8c8c8c8c8c8c8c8c8c8c8c8c8c8
Ciphertext:               05d0b079ac18fff69104583a48aaa88ad8b9aecda26d1cc557da690bd967871b4939ffd7
Reciphers for ciphertext: 0
Decipheredtext:           c8c8c8c8c8c8c8c8c8c8c8c8c8c8c8c8
RESULT CIPHER-DECIPHER: -----OK-----


Test: 56
Hash algorithm:       6
Sector size in bytes: 3072
Data unit:   56
Start block: 113
Symmetric key bit length: 256
Plaintext bit length:     128
Symmetric key:            3838383838383838383838383838383838383838383838383838383838383838
Plaintext:                c7c7c7c7c7c7c7c7c7c7c7c7c7c7c7c7
Ciphertext:               025933fea7733d24ff87e390c4fb45035280e802d3b7ffdde680df389a7a4dfff0980495151ffa1d1ffd6ba43dfc854f
Reciphers for ciphertext: 0
Decipheredtext:           c7c7c7c7c7c7c7c7c7c7c7c7c7c7c7c7
RESULT CIPHER-DECIPHER: -----OK-----


Test: 57
Hash algorithm:       0
Sector size in bytes: 3072
Data unit:   57
Start block: 115
Symmetric key bit length: 256
Plaintext bit length:     128
Symmetric key:            3939393939393939393939393939393939393939393939393939393939393939
Plaintext:                c6c6c6c6c6c6c6c6c6c6c6c6c6c6c6c6
Ciphertext:               e8c30af59b2633ceb02c4d7400da9ad26aa25521b7297765e10ca2d8837739db61b01b18
Reciphers for ciphertext: 0
Decipheredtext:           c6c6c6c6c6c6c6c6c6c6c6c6c6c6c6c6
RESULT CIPHER-DECIPHER: -----OK-----


Test: 58
Hash algorithm:       10
Sector size in bytes: 3072
Data unit:   58
Start block: 117
Symmetric key bit length: 256
Plaintext bit length:     128
Symmetric key:            3a3a3a3a3a3a3a3a3a3a3a3a3a3a3a3a3a3a3a3a3a3a3a3a3a3a3a3a3a3a3a3a
Plaintext:                c5c5c5c5c5c5c5c5c5c5c5c5c5c5c5c5
Ciphertext:               e778f390bcc3b50116b663118082917f32b194642e43cbcc70bc7ee0969c27e9d35c07940bfbc061ab880bde39ed6d6c5c683ef9e9d80cc3
Reciphers for ciphertext: 0
Decipheredtext:           c5c5c5c5c5c5c5c5c5c5c5c5c5c5c5c5
RESULT CIPHER-DECIPHER: -----OK-----


Test: 59
Hash algorithm:       12
Sector size in bytes: 3072
Data unit:   59
Start block: 119
Symmetric key bit length: 256
Plaintext bit length:     128
Symmetric key:            3b3b3b3b3b3b3b3b3b3b3b3b3b3b3b3b3b3b3b3b3b3b3b3b3b3b3b3b3b3b3b3b
Plaintext:                c4c4c4c4c4c4c4c4c4c4c4c4c4c4c4c4
Ciphertext:               ef3012bccfe2e32a21439c4eb0e76f0453dfbe62b68a7ae445e714075e24f8c4
Reciphers for ciphertext: 0
Decipheredtext:           c4c4c4c4c4c4c4c4c4c4c4c4c4c4c4c4
RESULT CIPHER-DECIPHER: -----OK-----


Test: 60
Hash algorithm:       8
Sector size in bytes: 3584
Data unit:   60
Start block: 121
Symmetric key bit length: 256
Plaintext bit length:     128
Symmetric key:            3c3c3c3c3c3c3c3c3c3c3c3c3c3c3c3c3c3c3c3c3c3c3c3c3c3c3c3c3c3c3c3c
Plaintext:                c3c3c3c3c3c3c3c3c3c3c3c3c3c3c3c3
Ciphertext:               634d2b9a4a156b27434aa080855b123a68501df9ec144015381ba32c62d1de9b07fccaf9
Reciphers for ciphertext: 0
Decipheredtext:           c3c3c3c3c3c3c3c3c3c3c3c3c3c3c3c3
RESULT CIPHER-DECIPHER: -----OK-----


Test: 61
Hash algorithm:       10
Sector size in bytes: 3584
Data unit:   61
Start block: 123
Symmetric key bit length: 256
Plaintext bit length:     128
Symmetric key:            3d3d3d3d3d3d3d3d3d3d3d3d3d3d3d3d3d3d3d3d3d3d3d3d3d3d3d3d3d3d3d3d
Plaintext:                c2c2c2c2c2c2c2c2c2c2c2c2c2c2c2c2
Ciphertext:               9ce2b73aaba031350e76fdbb5646c8679bd9d8a4efcf821e7a8d6fca1262c5826439b7c2cb461b0595aa7bef6c7493e53c6f70650328af29
Reciphers for ciphertext: 0
Decipheredtext:           c2c2c2c2c2c2c2c2c2c2c2c2c2c2c2c2
RESULT CIPHER-DECIPHER: -----OK-----


Test: 62
Hash algorithm:       7
Sector size in bytes: 3584
Data unit:   62
Start block: 125
Symmetric key bit length: 256
Plaintext bit length:     128
Symmetric key:            3e3e3e3e3e3e3e3e3e3e3e3e3e3e3e3e3e3e3e3e3e3e3e3e3e3e3e3e3e3e3e3e
Plaintext:                c1c1c1c1c1c1c1c1c1c1c1c1c1c1c1c1
Ciphertext:               2a05a42051a03c3142e1cff1a48084e0cc8827361227ebf6b31ef5ccf384ea4e
Reciphers for ciphertext: 0
Decipheredtext:           c1c1c1c1c1c1c1c1c1c1c1c1c1c1c1c1
RESULT CIPHER-DECIPHER: -----OK-----


Test: 63
Hash algorithm:       8
Sector size in bytes: 3584
Data unit:   63
Start block: 127
Symmetric key bit length: 256
Plaintext bit length:     128
Symmetric key:            3f3f3f3f3f3f3f3f3f3f3f3f3f3f3f3f3f3f3f3f3f3f3f3f3f3f3f3f3f3f3f3f
Plaintext:                c0c0c0c0c0c0c0c0c0c0c0c0c0c0c0c0
Ciphertext:               46cef40e27d5a44ac74e1e290e95f9e3aca26dc1f1bab63748fa72c1703bb65da1cb1379
Reciphers for ciphertext: 0
Decipheredtext:           c0c0c0c0c0c0c0c0c0c0c0c0c0c0c0c0
RESULT CIPHER-DECIPHER: -----OK-----


Test: 64
Hash algorithm:       10
Sector size in bytes: 3584
Data unit:   64
Start block: 129
Symmetric key bit length: 256
Plaintext bit length:     128
Symmetric key:            4040404040404040404040404040404040404040404040404040404040404040
Plaintext:                bfbfbfbfbfbfbfbfbfbfbfbfbfbfbfbf
Ciphertext:               daf95e3caafc6cefbee98a32239eb77c70dc9cdbc6ff37da9a85f8e929fc75bcd6c5084e3b224bf03e7ffe5120fc5526fe28da05c9104983
Reciphers for ciphertext: 0
Decipheredtext:           bfbfbfbfbfbfbfbfbfbfbfbfbfbfbfbf
RESULT CIPHER-DECIPHER: -----OK-----


Test: 65
Hash algorithm:       1
Sector size in bytes: 3584
Data unit:   65
Start block: 131
Symmetric key bit length: 256
Plaintext bit length:     128
Symmetric key:            4141414141414141414141414141414141414141414141414141414141414141
Plaintext:                bebebebebebebebebebebebebebebebe
Ciphertext:               63ec0edc23ac015d3453b677bc5bc0629ca05c8123decf4fd8000a5bfb8ae240254c1dca67a5a9e5d6297def
Reciphers for ciphertext: 0
Decipheredtext:           bebebebebebebebebebebebebebebebe
RESULT CIPHER-DECIPHER: -----OK-----


Test: 66
Hash algorithm:       10
Sector size in bytes: 3584
Data unit:   66
Start block: 133
Symmetric key bit length: 256
Plaintext bit length:     128
Symmetric key:            4242424242424242424242424242424242424242424242424242424242424242
Plaintext:                bdbdbdbdbdbdbdbdbdbdbdbdbdbdbdbd
Ciphertext:               c3fe37457b15b950a580ba8435ac4e582041abad56e6c96f6f3be555ec5b5e30c78e1e5b71a2f9f72299c03bd5a18d6d9fb900bb6f8d1b91
Reciphers for ciphertext: 0
Decipheredtext:           bdbdbdbdbdbdbdbdbdbdbdbdbdbdbdbd
RESULT CIPHER-DECIPHER: -----OK-----


Test: 67
Hash algorithm:       5
Sector size in bytes: 3584
Data unit:   67
Start block: 135
Symmetric key bit length: 256
Plaintext bit length:     128
Symmetric key:            4343434343434343434343434343434343434343434343434343434343434343
Plaintext:                bcbcbcbcbcbcbcbcbcbcbcbcbcbcbcbc
Ciphertext:               38d4aceea1ce92a6718ba2c7c55329be4f742f70c962f472e08ad9aad9851bb71c5800f085d9f09d84153179
Reciphers for ciphertext: 0
Decipheredtext:           bcbcbcbcbcbcbcbcbcbcbcbcbcbcbcbc
RESULT CIPHER-DECIPHER: -----OK-----


Test: 68
Hash algorithm:       11
Sector size in bytes: 3584
Data unit:   68
Start block: 137
Symmetric key bit length: 256
Plaintext bit length:     128
Symmetric key:            4444444444444444444444444444444444444444444444444444444444444444
Plaintext:                bbbbbbbbbbbbbbbbbbbbbbbbbbbbbbbb
Ciphertext:               63ee3b708fa4835e778307565db22c0065a01f32d2aaa6585d172db06efe9fe6
Reciphers for ciphertext: 0
Decipheredtext:           bbbbbbbbbbbbbbbbbbbbbbbbbbbbbbbb
RESULT CIPHER-DECIPHER: -----OK-----


Test: 69
Hash algorithm:       6
Sector size in bytes: 3584
Data unit:   69
Start block: 139
Symmetric key bit length: 256
Plaintext bit length:     128
Symmetric key:            4545454545454545454545454545454545454545454545454545454545454545
Plaintext:                babababababababababababababababa
Ciphertext:               83a134aec8dec0764424581a1e2402c5845d1ddb5896410d39ed0f176f90b61d9fb10500710ae23d20acf7ec9028f7fa
Reciphers for ciphertext: 0
Decipheredtext:           babababababababababababababababa
RESULT CIPHER-DECIPHER: -----OK-----


Test: 70
Hash algorithm:       6
Sector size in bytes: 4096
Data unit:   70
Start block: 141
Symmetric key bit length: 256
Plaintext bit length:     128
Symmetric key:            4646464646464646464646464646464646464646464646464646464646464646
Plaintext:                b9b9b9b9b9b9b9b9b9b9b9b9b9b9b9b9
Ciphertext:               b05ddc9532b64884b83c37b099d4d95d1a0220baedfdc87f48fe985be029fefeb5326b7b73bd7cfb8ef0fb9f2333ba50
Reciphers for ciphertext: 0
Decipheredtext:           b9b9b9b9b9b9b9b9b9b9b9b9b9b9b9b9
RESULT CIPHER-DECIPHER: -----OK-----


Test: 71
Hash algorithm:       6
Sector size in bytes: 4096
Data unit:   71
Start block: 143
Symmetric key bit length: 256
Plaintext bit length:     128
Symmetric key:            4747474747474747474747474747474747474747474747474747474747474747
Plaintext:                b8b8b8b8b8b8b8b8b8b8b8b8b8b8b8b8
Ciphertext:               509a3a91eca4c45ad53f4a21681e37c131ec0c7212f1933ee311f4c20bb3f84159712ed32854ad0c2769842ea6c99aac
Reciphers for ciphertext: 0
Decipheredtext:           b8b8b8b8b8b8b8b8b8b8b8b8b8b8b8b8
RESULT CIPHER-DECIPHER: -----OK-----


Test: 72
Hash algorithm:       1
Sector size in bytes: 4096
Data unit:   72
Start block: 145
Symmetric key bit length: 256
Plaintext bit length:     128
Symmetric key:            4848484848484848484848484848484848484848484848484848484848484848
Plaintext:                b7b7b7b7b7b7b7b7b7b7b7b7b7b7b7b7
Ciphertext:               dc30a9ccdfe285ac147d3c648f492fc81b6d459586a74181b14d3ada60718e19187152ab113bae0b56530a7d
Reciphers for ciphertext: 0
Decipheredtext:           b7b7b7b7b7b7b7b7b7b7b7b7b7b7b7b7
RESULT CIPHER-DECIPHER: -----OK-----


Test: 73
Hash algorithm:       12
Sector size in bytes: 4096
Data unit:   73
Start block: 147
Symmetric key bit length: 256
Plaintext bit length:     128
Symmetric key:            4949494949494949494949494949494949494949494949494949494949494949
Plaintext:                b6b6b6b6b6b6b6b6b6b6b6b6b6b6b6b6
Ciphertext:               d1f366333e526e789cfdd0b6196eb8de5769f00f3badfdc1450ff9e5a96482f6
Reciphers for ciphertext: 0
Decipheredtext:           b6b6b6b6b6b6b6b6b6b6b6b6b6b6b6b6
RESULT CIPHER-DECIPHER: -----OK-----


Test: 74
Hash algorithm:       3
Sector size in bytes: 4096
Data unit:   74
Start block: 149
Symmetric key bit length: 256
Plaintext bit length:     128
Symmetric key:            4a4a4a4a4a4a4a4a4a4a4a4a4a4a4a4a4a4a4a4a4a4a4a4a4a4a4a4a4a4a4a4a
Plaintext:                b5b5b5b5b5b5b5b5b5b5b5b5b5b5b5b5
Ciphertext:               3139d293c83f82a95479c80771e831589723573cd1f57971d3ac7b78636fd9c1ac7983df5c80bf0c01a1fb1eee3e5d76125ca0057aeca570eef8ee2d39407bd2
Reciphers for ciphertext: 0
Decipheredtext:           b5b5b5b5b5b5b5b5b5b5b5b5b5b5b5b5
RESULT CIPHER-DECIPHER: -----OK-----


Test: 75
Hash algorithm:       2
Sector size in bytes: 4096
Data unit:   75
Start block: 151
Symmetric key bit length: 256
Plaintext bit length:     128
Symmetric key:            4b4b4b4b4b4b4b4b4b4b4b4b4b4b4b4b4b4b4b4b4b4b4b4b4b4b4b4b4b4b4b4b
Plaintext:                b4b4b4b4b4b4b4b4b4b4b4b4b4b4b4b4
Ciphertext:               f19baf5026f2ab08b9585103ea72ee1812abb145bc7e958aa54573e93e57fad171e41331620d26d94984c9c9ad17fe11
Reciphers for ciphertext: 0
Decipheredtext:           b4b4b4b4b4b4b4b4b4b4b4b4b4b4b4b4
RESULT CIPHER-DECIPHER: -----OK-----


Test: 76
Hash algorithm:       4
Sector size in bytes: 4096
Data unit:   76
Start block: 153
Symmetric key bit length: 256
Plaintext bit length:     128
Symmetric key:            4c4c4c4c4c4c4c4c4c4c4c4c4c4c4c4c4c4c4c4c4c4c4c4c4c4c4c4c4c4c4c4c
Plaintext:                b3b3b3b3b3b3b3b3b3b3b3b3b3b3b3b3
Ciphertext:               5e70c3a08060a893431f880433b46e6951b1ad145d17f80c58bb08fe7b1143fe3a337eff959bde1b6fc2e1f1c778ebc73ff39765c98ac48504289a4d50352a539d79635df563ad835123fd91c1accc84
Reciphers for ciphertext: 0
Decipheredtext:           b3b3b3b3b3b3b3b3b3b3b3b3b3b3b3b3
RESULT CIPHER-DECIPHER: -----OK-----


Test: 77
Hash algorithm:       10
Sector size in bytes: 4096
Data unit:   77
Start block: 155
Symmetric key bit length: 256
Plaintext bit length:     128
Symmetric key:            4d4d4d4d4d4d4d4d4d4d4d4d4d4d4d4d4d4d4d4d4d4d4d4d4d4d4d4d4d4d4d4d
Plaintext:                b2b2b2b2b2b2b2b2b2b2b2b2b2b2b2b2
Ciphertext:               d5bb6ed250234816e7162148270987da403ab0e123a28e372f70770d31691a07d2562dc38b88a8ff4ea6d79365a2458abe61befa783ca9f9
Reciphers for ciphertext: 0
Decipheredtext:           b2b2b2b2b2b2b2b2b2b2b2b2b2b2b2b2
RESULT CIPHER-DECIPHER: -----OK-----


Test: 78
Hash algorithm:       11
Sector size in bytes: 4096
Data unit:   78
Start block: 157
Symmetric key bit length: 256
Plaintext bit length:     128
Symmetric key:            4e4e4e4e4e4e4e4e4e4e4e4e4e4e4e4e4e4e4e4e4e4e4e4e4e4e4e4e4e4e4e4e
Plaintext:                b1b1b1b1b1b1b1b1b1b1b1b1b1b1b1b1
Ciphertext:               92f4ebf53d3ad783bfa92aed93e12957cd16305859ca55cd41925ff078c0f996
Reciphers for ciphertext: 0
Decipheredtext:           b1b1b1b1b1b1b1b1b1b1b1b1b1b1b1b1
RESULT CIPHER-DECIPHER: -----OK-----


Test: 79
Hash algorithm:       6
Sector size in bytes: 4096
Data unit:   79
Start block: 159
Symmetric key bit length: 256
Plaintext bit length:     128
Symmetric key:            4f4f4f4f4f4f4f4f4f4f4f4f4f4f4f4f4f4f4f4f4f4f4f4f4f4f4f4f4f4f4f4f
Plaintext:                b0b0b0b0b0b0b0b0b0b0b0b0b0b0b0b0
Ciphertext:               5fc89fd9e173f5eae0cd36010790a22f7e9c72d3ba375109b42f06177587510f9342fa485f95501cd593b5f3ba91d711
Reciphers for ciphertext: 0
Decipheredtext:           b0b0b0b0b0b0b0b0b0b0b0b0b0b0b0b0
RESULT CIPHER-DECIPHER: -----OK-----


Test: 80
Hash algorithm:       9
Sector size in bytes: 8192
Data unit:   80
Start block: 161
Symmetric key bit length: 256
Plaintext bit length:     128
Symmetric key:            5050505050505050505050505050505050505050505050505050505050505050
Plaintext:                afafafafafafafafafafafafafafafaf
Ciphertext:               0bc42ded66186b03c1b6c6421eea240da4d392f020de0085eafdffe727ca0115c5e8bcc4fa4e442d0a594fde25db8a66
Reciphers for ciphertext: 0
Decipheredtext:           afafafafafafafafafafafafafafafaf
RESULT CIPHER-DECIPHER: -----OK-----


Test: 81
Hash algorithm:       8
Sector size in bytes: 8192
Data unit:   81
Start block: 163
Symmetric key bit length: 256
Plaintext bit length:     128
Symmetric key:            5151515151515151515151515151515151515151515151515151515151515151
Plaintext:                aeaeaeaeaeaeaeaeaeaeaeaeaeaeaeae
Ciphertext:               286277295e4784350c4d873ed829970bd88c6e7e22d7e47d456b1b969dec319773f8e6f1
Reciphers for ciphertext: 0
Decipheredtext:           aeaeaeaeaeaeaeaeaeaeaeaeaeaeaeae
RESULT CIPHER-DECIPHER: -----OK-----


Test: 82
Hash algorithm:       6
Sector size in bytes: 8192
Data unit:   82
Start block: 165
Symmetric key bit length: 256
Plaintext bit length:     128
Symmetric key:            5252525252525252525252525252525252525252525252525252525252525252
Plaintext:                adadadadadadadadadadadadadadadad
Ciphertext:               4ea671791008d2637a55c0e4f83561e3a3bb2792db40fbf47bfa9c9c8f717e06c21aace45161e4f2ce47a4e3c913a7e8
Reciphers for ciphertext: 0
Decipheredtext:           adadadadadadadadadadadadadadadad
RESULT CIPHER-DECIPHER: -----OK-----


Test: 83
Hash algorithm:       10
Sector size in bytes: 8192
Data unit:   83
Start block: 167
Symmetric key bit length: 256
Plaintext bit length:     128
Symmetric key:            5353535353535353535353535353535353535353535353535353535353535353
Plaintext:                acacacacacacacacacacacacacacacac
Ciphertext:               9ed82c1031c13eb95622e16edc2c865c32e274f5a8ecbd69cb37556bf64b4ed0718b50303f8ead59f5c4bc40272d55d9e55e994429b57d8a
Reciphers for ciphertext: 0
Decipheredtext:           acacacacacacacacacacacacacacacac
RESULT CIPHER-DECIPHER: -----OK-----


Test: 84
Hash algorithm:       11
Sector size in bytes: 8192
Data unit:   84
Start block: 169
Symmetric key bit length: 256
Plaintext bit length:     128
Symmetric key:            5454545454545454545454545454545454545454545454545454545454545454
Plaintext:                abababababababababababababababab
Ciphertext:               c5e2a77e65d77a47cfb7b4eb2d1807a0051a67d7ae2788448e35811345dc39c9
Reciphers for ciphertext: 0
Decipheredtext:           abababababababababababababababab
RESULT CIPHER-DECIPHER: -----OK-----


Test: 85
Hash algorithm:       1
Sector size in bytes: 8192
Data unit:   85
Start block: 171
Symmetric key bit length: 256
Plaintext bit length:     128
Symmetric key:            5555555555555555555555555555555555555555555555555555555555555555
Plaintext:                aaaaaaaaaaaaaaaaaaaaaaaaaaaaaaaa
Ciphertext:               d9e73eed7e9e57811aa3a692cdad015558b2ff9e14d0ad6828797d5d8506ed7379eceeb8c6b9229a7da4a18a
Reciphers for ciphertext: 0
Decipheredtext:           aaaaaaaaaaaaaaaaaaaaaaaaaaaaaaaa
RESULT CIPHER-DECIPHER: -----OK-----


Test: 86
Hash algorithm:       5
Sector size in bytes: 8192
Data unit:   86
Start block: 173
Symmetric key bit length: 256
Plaintext bit length:     128
Symmetric key:            5656565656565656565656565656565656565656565656565656565656565656
Plaintext:                a9a9a9a9a9a9a9a9a9a9a9a9a9a9a9a9
Ciphertext:               e740d3275a37f5f5660dfa1b84012c06e004c74630d38e5d3af3ff8c5fe4f0f414d35df44ca91cab1929f5ad
Reciphers for ciphertext: 0
Decipheredtext:           a9a9a9a9a9a9a9a9a9a9a9a9a9a9a9a9
RESULT CIPHER-DECIPHER: -----OK-----


Test: 87
Hash algorithm:       1
Sector size in bytes: 8192
Data unit:   87
Start block: 175
Symmetric key bit length: 256
Plaintext bit length:     128
Symmetric key:            5757575757575757575757575757575757575757575757575757575757575757
Plaintext:                a8a8a8a8a8a8a8a8a8a8a8a8a8a8a8a8
Ciphertext:               9cccd57f3ccffb5cefc4eddab8913641eced2c00b89f18fc055020146ac0dc200a4e86604c50787f1becbdc3
Reciphers for ciphertext: 0
Decipheredtext:           a8a8a8a8a8a8a8a8a8a8a8a8a8a8a8a8
RESULT CIPHER-DECIPHER: -----OK-----


Test: 88
Hash algorithm:       12
Sector size in bytes: 8192
Data unit:   88
Start block: 177
Symmetric key bit length: 256
Plaintext bit length:     128
Symmetric key:            5858585858585858585858585858585858585858585858585858585858585858
Plaintext:                a7a7a7a7a7a7a7a7a7a7a7a7a7a7a7a7
Ciphertext:               fab34c0abc95261b12233a7d847094b85bd03fdae163ccad871c4c1063babf92
Reciphers for ciphertext: 0
Decipheredtext:           a7a7a7a7a7a7a7a7a7a7a7a7a7a7a7a7
RESULT CIPHER-DECIPHER: -----OK-----


Test: 89
Hash algorithm:       7
Sector size in bytes: 8192
Data unit:   89
Start block: 179
Symmetric key bit length: 256
Plaintext bit length:     128
Symmetric key:            5959595959595959595959595959595959595959595959595959595959595959
Plaintext:                a6a6a6a6a6a6a6a6a6a6a6a6a6a6a6a6
Ciphertext:               3bb630b374e64533bdf1f324045dc0d7ca2d79adfcaead1a20869bd825717481
Reciphers for ciphertext: 0
Decipheredtext:           a6a6a6a6a6a6a6a6a6a6a6a6a6a6a6a6
RESULT CIPHER-DECIPHER: -----OK-----


Test: 90
Hash algorithm:       10
Sector size in bytes: 12288
Data unit:   90
Start block: 181
Symmetric key bit length: 256
Plaintext bit length:     128
Symmetric key:            5a5a5a5a5a5a5a5a5a5a5a5a5a5a5a5a5a5a5a5a5a5a5a5a5a5a5a5a5a5a5a5a
Plaintext:                a5a5a5a5a5a5a5a5a5a5a5a5a5a5a5a5
Ciphertext:               193d2b8143faccdd4bd8d7dce7999c27af30e77d07660d5f8951a6b182ee73ad461c04f81685fb189888518a8126a90799625b23b585e0e8
Reciphers for ciphertext: 0
Decipheredtext:           a5a5a5a5a5a5a5a5a5a5a5a5a5a5a5a5
RESULT CIPHER-DECIPHER: -----OK-----


Test: 91
Hash algorithm:       6
Sector size in bytes: 12288
Data unit:   91
Start block: 183
Symmetric key bit length: 256
Plaintext bit length:     128
Symmetric key:            5b5b5b5b5b5b5b5b5b5b5b5b5b5b5b5b5b5b5b5b5b5b5b5b5b5b5b5b5b5b5b5b
Plaintext:                a4a4a4a4a4a4a4a4a4a4a4a4a4a4a4a4
Ciphertext:               9a85034f16151b7ec0aeff7730cf2794ebc2097d6e91215710378a2adc6a4a81b14c94fbf94d9e45a3394e8602b678a5
Reciphers for ciphertext: 0
Decipheredtext:           a4a4a4a4a4a4a4a4a4a4a4a4a4a4a4a4
RESULT CIPHER-DECIPHER: -----OK-----


Test: 92
Hash algorithm:       0
Sector size in bytes: 12288
Data unit:   92
Start block: 185
Symmetric key bit length: 256
Plaintext bit length:     128
Symmetric key:            5c5c5c5c5c5c5c5c5c5c5c5c5c5c5c5c5c5c5c5c5c5c5c5c5c5c5c5c5c5c5c5c
Plaintext:                a3a3a3a3a3a3a3a3a3a3a3a3a3a3a3a3
Ciphertext:               919ef3c68ae2a2da8cb5d2ecc0c6a873277c99457770dbcff088913e5dd8b18711566e28
Reciphers for ciphertext: 0
Decipheredtext:           a3a3a3a3a3a3a3a3a3a3a3a3a3a3a3a3
RESULT CIPHER-DECIPHER: -----OK-----


Test: 93
Hash algorithm:       10
Sector size in bytes: 12288
Data unit:   93
Start block: 187
Symmetric key bit length: 256
Plaintext bit length:     128
Symmetric key:            5d5d5d5d5d5d5d5d5d5d5d5d5d5d5d5d5d5d5d5d5d5d5d5d5d5d5d5d5d5d5d5d
Plaintext:                a2a2a2a2a2a2a2a2a2a2a2a2a2a2a2a2
Ciphertext:               33e213713dfb15cc3ff19ca3992061f342cd1d8e7bd2901d27d981aa60d078ec5831aa56d4c72c060d1e98c4eb4c52da79243681c52186c3
Reciphers for ciphertext: 0
Decipheredtext:           a2a2a2a2a2a2a2a2a2a2a2a2a2a2a2a2
RESULT CIPHER-DECIPHER: -----OK-----


Test: 94
Hash algorithm:       6
Sector size in bytes: 12288
Data unit:   94
Start block: 189
Symmetric key bit length: 256
Plaintext bit length:     128
Symmetric key:            5e5e5e5e5e5e5e5e5e5e5e5e5e5e5e5e5e5e5e5e5e5e5e5e5e5e5e5e5e5e5e5e
Plaintext:                a1a1a1a1a1a1a1a1a1a1a1a1a1a1a1a1
Ciphertext:               e6fddc678e85cb9bbf0c7687833d65351558caf2caf419249a5d2612231f49db6bbd45e9633fa1c66e79238cadebbb9f
Reciphers for ciphertext: 0
Decipheredtext:           a1a1a1a1a1a1a1a1a1a1a1a1a1a1a1a1
RESULT CIPHER-DECIPHER: -----OK-----


Test: 95
Hash algorithm:       6
Sector size in bytes: 12288
Data unit:   95
Start block: 191
Symmetric key bit length: 256
Plaintext bit length:     128
Symmetric key:            5f5f5f5f5f5f5f5f5f5f5f5f5f5f5f5f5f5f5f5f5f5f5f5f5f5f5f5f5f5f5f5f
Plaintext:                a0a0a0a0a0a0a0a0a0a0a0a0a0a0a0a0
Ciphertext:               c76a82f61e825e6d08f1e1d277a9a2306d064af425fb65c4e1c189f707baadf90a12e2bb52b01b206b971652dbccbcb8
Reciphers for ciphertext: 0
Decipheredtext:           a0a0a0a0a0a0a0a0a0a0a0a0a0a0a0a0
RESULT CIPHER-DECIPHER: -----OK-----


Test: 96
Hash algorithm:       11
Sector size in bytes: 12288
Data unit:   96
Start block: 193
Symmetric key bit length: 256
Plaintext bit length:     128
Symmetric key:            6060606060606060606060606060606060606060606060606060606060606060
Plaintext:                9f9f9f9f9f9f9f9f9f9f9f9f9f9f9f9f
Ciphertext:               1a464982c0aae6c7fbd339b60ac1b649d94a1b5bda21d54461031a78de05bf19
Reciphers for ciphertext: 0
Decipheredtext:           9f9f9f9f9f9f9f9f9f9f9f9f9f9f9f9f
RESULT CIPHER-DECIPHER: -----OK-----


Test: 97
Hash algorithm:       7
Sector size in bytes: 12288
Data unit:   97
Start block: 195
Symmetric key bit length: 256
Plaintext bit length:     128
Symmetric key:            6161616161616161616161616161616161616161616161616161616161616161
Plaintext:                9e9e9e9e9e9e9e9e9e9e9e9e9e9e9e9e
Ciphertext:               eff2378a03dd7b958e96853fe5c7361bf446662af9bd33b298d59a88e3e66fe3
Reciphers for ciphertext: 0
Decipheredtext:           9e9e9e9e9e9e9e9e9e9e9e9e9e9e9e9e
RESULT CIPHER-DECIPHER: -----OK-----


Test: 98
Hash algorithm:       0
Sector size in bytes: 12288
Data unit:   98
Start block: 197
Symmetric key bit length: 256
Plaintext bit length:     128
Symmetric key:            6262626262626262626262626262626262626262626262626262626262626262
Plaintext:                9d9d9d9d9d9d9d9d9d9d9d9d9d9d9d9d
Ciphertext:               6c631be17ed7a0675609d3635edd7bc335a8f92c3f97fd19f4a57f905b69d3e339be12b4
Reciphers for ciphertext: 0
Decipheredtext:           9d9d9d9d9d9d9d9d9d9d9d9d9d9d9d9d
RESULT CIPHER-DECIPHER: -----OK-----


Test: 99
Hash algorithm:       3
Sector size in bytes: 12288
Data unit:   99
Start block: 199
Symmetric key bit length: 256
Plaintext bit length:     128
Symmetric key:            6363636363636363636363636363636363636363636363636363636363636363
Plaintext:                9c9c9c9c9c9c9c9c9c9c9c9c9c9c9c9c
Ciphertext:               8a813d3de2852f3f1755b91cfdac6ba7179ae7381d5d6b3613af3ecac69e366efea1360fccd9f388caa99bc02cdfb554e4b4cd9d66ffdcdfa2d164c84781ce9a
Reciphers for ciphertext: 0
Decipheredtext:           9c9c9c9c9c9c9c9c9c9c9c9c9c9c9c9c
RESULT CIPHER-DECIPHER: -----OK-----


Test: 100
Hash algorithm:       11
Sector size in bytes: 16384
Data unit:   100
Start block: 201
Symmetric key bit length: 256
Plaintext bit length:     128
Symmetric key:            6464646464646464646464646464646464646464646464646464646464646464
Plaintext:                9b9b9b9b9b9b9b9b9b9b9b9b9b9b9b9b
Ciphertext:               60df2dde951a62c03b82f110bfcdb4e760ac13bd3bcf53baed674add3249b852
Reciphers for ciphertext: 0
Decipheredtext:           9b9b9b9b9b9b9b9b9b9b9b9b9b9b9b9b
RESULT CIPHER-DECIPHER: -----OK-----


Test: 101
Hash algorithm:       12
Sector size in bytes: 16384
Data unit:   101
Start block: 203
Symmetric key bit length: 256
Plaintext bit length:     128
Symmetric key:            6565656565656565656565656565656565656565656565656565656565656565
Plaintext:                9a9a9a9a9a9a9a9a9a9a9a9a9a9a9a9a
Ciphertext:               7a8fc92ec25e227ec06eebf5916ba0fb77f347681249ab25acdfe37dd13614af
Reciphers for ciphertext: 0
Decipheredtext:           9a9a9a9a9a9a9a9a9a9a9a9a9a9a9a9a
RESULT CIPHER-DECIPHER: -----OK-----


Test: 102
Hash algorithm:       0
Sector size in bytes: 16384
Data unit:   102
Start block: 205
Symmetric key bit length: 256
Plaintext bit length:     128
Symmetric key:            6666666666666666666666666666666666666666666666666666666666666666
Plaintext:                99999999999999999999999999999999
Ciphertext:               13481dd448ec614654254e23c4282091f04facc24d9d83de499eec8928db92f427e37a86
Reciphers for ciphertext: 0
Decipheredtext:           99999999999999999999999999999999
RESULT CIPHER-DECIPHER: -----OK-----


Test: 103
Hash algorithm:       0
Sector size in bytes: 16384
Data unit:   103
Start block: 207
Symmetric key bit length: 256
Plaintext bit length:     128
Symmetric key:            6767676767676767676767676767676767676767676767676767676767676767
Plaintext:                98989898989898989898989898989898
Ciphertext:               3481d59ecad16844db761a3276265e7aff58750bffa2f92d75c8cb72450910f990ce6752
Reciphers for ciphertext: 0
Decipheredtext:           98989898989898989898989898989898
RESULT CIPHER-DECIPHER: -----OK-----


Test: 104
Hash algorithm:       3
Sector size in bytes: 16384
Data unit:   104
Start block: 209
Symmetric key bit length: 256
Plaintext bit length:     128
Symmetric key:            6868686868686868686868686868686868686868686868686868686868686868
Plaintext:                97979797979797979797979797979797
Ciphertext:               796d964fdd280b0838ebf7e3fa7753f7a145c7a9c845676ae43c382a81310334784faeb7586797062385eb96c242cabaaddda51dc0e8692e3a0e518908f8eee3
Reciphers for ciphertext: 0
Decipheredtext:           97979797979797979797979797979797
RESULT CIPHER-DECIPHER: -----OK-----


Test: 105
Hash algorithm:       10
Sector size in bytes: 16384
Data unit:   105
Start block: 211
Symmetric key bit length: 256
Plaintext bit length:     128
Symmetric key:            6969696969696969696969696969696969696969696969696969696969696969
Plaintext:                96969696969696969696969696969696
Ciphertext:               78f1a2b669b56e02b4c031398f5aba224691f2ccd3edb5565b48d0920828d78ffe16b9233335ac7c11adf721af0e17caa847aaa25fc5ee97
Reciphers for ciphertext: 0
Decipheredtext:           96969696969696969696969696969696
RESULT CIPHER-DECIPHER: -----OK-----


Test: 106
Hash algorithm:       13
Sector size in bytes: 16384
Data unit:   106
Start block: 213
Symmetric key bit length: 256
Plaintext bit length:     128
Symmetric key:            6a6a6a6a6a6a6a6a6a6a6a6a6a6a6a6a6a6a6a6a6a6a6a6a6a6a6a6a6a6a6a6a
Plaintext:                95959595959595959595959595959595
Ciphertext:               0d2c02ae5b4d5a31a74a829abf2f487950019e5b04855b6e2e92156d9269d47e
Reciphers for ciphertext: 0
Decipheredtext:           95959595959595959595959595959595
RESULT CIPHER-DECIPHER: -----OK-----


Test: 107
Hash algorithm:       6
Sector size in bytes: 16384
Data unit:   107
Start block: 215
Symmetric key bit length: 256
Plaintext bit length:     128
Symmetric key:            6b6b6b6b6b6b6b6b6b6b6b6b6b6b6b6b6b6b6b6b6b6b6b6b6b6b6b6b6b6b6b6b
Plaintext:                94949494949494949494949494949494
Ciphertext:               1dbde6f859f03ab622bbfe940c02963f31d6c09cfae8b9d20f5dd16f120966701e07da4da2e02427e28ebd28cf22f101
Reciphers for ciphertext: 0
Decipheredtext:           94949494949494949494949494949494
RESULT CIPHER-DECIPHER: -----OK-----


Test: 108
Hash algorithm:       9
Sector size in bytes: 16384
Data unit:   108
Start block: 217
Symmetric key bit length: 256
Plaintext bit length:     128
Symmetric key:            6c6c6c6c6c6c6c6c6c6c6c6c6c6c6c6c6c6c6c6c6c6c6c6c6c6c6c6c6c6c6c6c
Plaintext:                93939393939393939393939393939393
Ciphertext:               37f5d03d373835b08025c3c2f3f72a7a96d167e59e1dc02af302bd759f32ac83054a0015fc5f930ed1c7f88ba2e94a33
Reciphers for ciphertext: 0
Decipheredtext:           93939393939393939393939393939393
RESULT CIPHER-DECIPHER: -----OK-----


Test: 109
Hash algorithm:       2
Sector size in bytes: 16384
Data unit:   109
Start block: 219
Symmetric key bit length: 256
Plaintext bit length:     128
Symmetric key:            6d6d6d6d6d6d6d6d6d6d6d6d6d6d6d6d6d6d6d6d6d6d6d6d6d6d6d6d6d6d6d6d
Plaintext:                92929292929292929292929292929292
Ciphertext:               a046faf3d3ab86c87d8a1bdcac8a1cfa0bb83e6aea7214ee333b71da7126b3dd035a877b48c89146d69a972ce988d315
Reciphers for ciphertext: 0
Decipheredtext:           92929292929292929292929292929292
RESULT CIPHER-DECIPHER: -----OK-----


Test: 110
Hash algorithm:       5
Sector size in bytes: 24576
Data unit:   110
Start block: 221
Symmetric key bit length: 256
Plaintext bit length:     128
Symmetric key:            6e6e6e6e6e6e6e6e6e6e6e6e6e6e6e6e6e6e6e6e6e6e6e6e6e6e6e6e6e6e6e6e
Plaintext:                91919191919191919191919191919191
Ciphertext:               fc61bd69a6a93274c827201091d16842261cd39eb2f916d738fe6c39cf73139ce844cd1cbcd4329bdfc1bcae
Reciphers for ciphertext: 0
Decipheredtext:           91919191919191919191919191919191
RESULT CIPHER-DECIPHER: -----OK-----


Test: 111
Hash algorithm:       8
Sector size in bytes: 24576
Data unit:   111
Start block: 223
Symmetric key bit length: 256
Plaintext bit length:     128
Symmetric key:            6f6f6f6f6f6f6f6f6f6f6f6f6f6f6f6f6f6f6f6f6f6f6f6f6f6f6f6f6f6f6f6f
Plaintext:                90909090909090909090909090909090
Ciphertext:               a86c75c97b73df0dcb2120841f27c6aac4874105d993ae7d96501b04125f56a62dd3f6a6
Reciphers for ciphertext: 0
Decipheredtext:           90909090909090909090909090909090
RESULT CIPHER-DECIPHER: -----OK-----


Test: 112
Hash algorithm:       11
Sector size in bytes: 24576
Data unit:   112
Start block: 225
Symmetric key bit length: 256
Plaintext bit length:     128
Symmetric key:            7070707070707070707070707070707070707070707070707070707070707070
Plaintext:                8f8f8f8f8f8f8f8f8f8f8f8f8f8f8f8f
Ciphertext:               89b202ba65b2aecf7d2527fdb604f707e0a74bb1e19125f664eb3dd94a291d3b
Reciphers for ciphertext: 0
Decipheredtext:           8f8f8f8f8f8f8f8f8f8f8f8f8f8f8f8f
RESULT CIPHER-DECIPHER: -----OK-----


Test: 113
Hash algorithm:       11
Sector size in bytes: 24576
Data unit:   113
Start block: 227
Symmetric key bit length: 256
Plaintext bit length:     128
Symmetric key:            7171717171717171717171717171717171717171717171717171717171717171
Plaintext:                8e8e8e8e8e8e8e8e8e8e8e8e8e8e8e8e
Ciphertext:               c87fbf7f0dc2771ae69942bdbd7d7b6552652da9f972d1f9b53eb1132a9a4899
Reciphers for ciphertext: 0
Decipheredtext:           8e8e8e8e8e8e8e8e8e8e8e8e8e8e8e8e
RESULT CIPHER-DECIPHER: -----OK-----


Test: 114
Hash algorithm:       1
Sector size in bytes: 24576
Data unit:   114
Start block: 229
Symmetric key bit length: 256
Plaintext bit length:     128
Symmetric key:            7272727272727272727272727272727272727272727272727272727272727272
Plaintext:                8d8d8d8d8d8d8d8d8d8d8d8d8d8d8d8d
Ciphertext:               5c41b74849dbd8e5103881c1b1da2dab4c57523c33214bf8aec4a3b6c711b6f257815b39345c08f6778411c5
Reciphers for ciphertext: 0
Decipheredtext:           8d8d8d8d8d8d8d8d8d8d8d8d8d8d8d8d
RESULT CIPHER-DECIPHER: -----OK-----


Test: 115
Hash algorithm:       6
Sector size in bytes: 24576
Data unit:   115
Start block: 231
Symmetric key bit length: 256
Plaintext bit length:     128
Symmetric key:            7373737373737373737373737373737373737373737373737373737373737373
Plaintext:                8c8c8c8c8c8c8c8c8c8c8c8c8c8c8c8c
Ciphertext:               68ff30de187019ea2f0927e5d5f880584cd6bb219d00636c445db47b210f208534afd6c0651c1d875ee0349533e438ad
Reciphers for ciphertext: 0
Decipheredtext:           8c8c8c8c8c8c8c8c8c8c8c8c8c8c8c8c
RESULT CIPHER-DECIPHER: -----OK-----


Test: 116
Hash algorithm:       3
Sector size in bytes: 24576
Data unit:   116
Start block: 233
Symmetric key bit length: 256
Plaintext bit length:     128
Symmetric key:            7474747474747474747474747474747474747474747474747474747474747474
Plaintext:                8b8b8b8b8b8b8b8b8b8b8b8b8b8b8b8b
Ciphertext:               563f22a821ddc4e2caedb8201ced8492733399af0f2fb1938e8600000f8938b0bf9d0e0a3f22b796540a4d6ac12d63fc6485b2b16fc850de7e359a32432904c4
Reciphers for ciphertext: 0
Decipheredtext:           8b8b8b8b8b8b8b8b8b8b8b8b8b8b8b8b
RESULT CIPHER-DECIPHER: -----OK-----


Test: 117
Hash algorithm:       10
Sector size in bytes: 24576
Data unit:   117
Start block: 235
Symmetric key bit length: 256
Plaintext bit length:     128
Symmetric key:            7575757575757575757575757575757575757575757575757575757575757575
Plaintext:                8a8a8a8a8a8a8a8a8a8a8a8a8a8a8a8a
Ciphertext:               d9b792a73be3b4f894a80d2edba5ed4fd7b9ebf531a5e6c997ab4df0e764464bec2905e4419d895e8364a1a1407938a5da03dc799346a2f4
Reciphers for ciphertext: 0
Decipheredtext:           8a8a8a8a8a8a8a8a8a8a8a8a8a8a8a8a
RESULT CIPHER-DECIPHER: -----OK-----


Test: 118
Hash algorithm:       7
Sector size in bytes: 24576
Data unit:   118
Start block: 237
Symmetric key bit length: 256
Plaintext bit length:     128
Symmetric key:            7676767676767676767676767676767676767676767676767676767676767676
Plaintext:                89898989898989898989898989898989
Ciphertext:               7740694df3e166af905af23cb09c9a1fcba411067c17fa742990990945e61cb3
Reciphers for ciphertext: 0
Decipheredtext:           89898989898989898989898989898989
RESULT CIPHER-DECIPHER: -----OK-----


Test: 119
Hash algorithm:       9
Sector size in bytes: 24576
Data unit:   119
Start block: 239
Symmetric key bit length: 256
Plaintext bit length:     128
Symmetric key:            7777777777777777777777777777777777777777777777777777777777777777
Plaintext:                88888888888888888888888888888888
Ciphertext:               38e00fdb1cf5e9137095da8c128aad8ed28998c0827e931c2b119a893343ffa1ddce0d7e029f32f4924d344952824e12
Reciphers for ciphertext: 0
Decipheredtext:           88888888888888888888888888888888
RESULT CIPHER-DECIPHER: -----OK-----


Test: 120
Hash algorithm:       12
Sector size in bytes: 32768
Data unit:   120
Start block: 241
Symmetric key bit length: 256
Plaintext bit length:     128
Symmetric key:            7878787878787878787878787878787878787878787878787878787878787878
Plaintext:                87878787878787878787878787878787
Ciphertext:               4d437417a1c9ed3c4cfebfe69d49aa6f88ca29102239d91e90495d67972d4c93
Reciphers for ciphertext: 0
Decipheredtext:           87878787878787878787878787878787
RESULT CIPHER-DECIPHER: -----OK-----


Test: 121
Hash algorithm:       10
Sector size in bytes: 32768
Data unit:   121
Start block: 243
Symmetric key bit length: 256
Plaintext bit length:     128
Symmetric key:            7979797979797979797979797979797979797979797979797979797979797979
Plaintext:                86868686868686868686868686868686
Ciphertext:               e1a43768398399e8a1cab5fd2dea91e98bad2937ea3b4db455cd51c6d21360aa766fbdd2652d2715193e9a5ac9e463782b9385a429b6b3f0
Reciphers for ciphertext: 0
Decipheredtext:           86868686868686868686868686868686
RESULT CIPHER-DECIPHER: -----OK-----


Test: 122
Hash algorithm:       8
Sector size in bytes: 32768
Data unit:   122
Start block: 245
Symmetric key bit length: 256
Plaintext bit length:     128
Symmetric key:            7a7a7a7a7a7a7a7a7a7a7a7a7a7a7a7a7a7a7a7a7a7a7a7a7a7a7a7a7a7a7a7a
Plaintext:                85858585858585858585858585858585
Ciphertext:               8917da7e4ae52e878aebc268076b40046a11108173793fd3df410ff679131790eeabd807
Reciphers for ciphertext: 0
Decipheredtext:           85858585858585858585858585858585
RESULT CIPHER-DECIPHER: -----OK-----


Test: 123
Hash algorithm:       13
Sector size in bytes: 32768
Data unit:   123
Start block: 247
Symmetric key bit length: 256
Plaintext bit length:     128
Symmetric key:            7b7b7b7b7b7b7b7b7b7b7b7b7b7b7b7b7b7b7b7b7b7b7b7b7b7b7b7b7b7b7b7b
Plaintext:                84848484848484848484848484848484
Ciphertext:               528d58c4196ac2799dace5a3440cda39b6e25c051eee5642319dca8b3582547b
Reciphers for ciphertext: 0
Decipheredtext:           84848484848484848484848484848484
RESULT CIPHER-DECIPHER: -----OK-----


Test: 124
Hash algorithm:       6
Sector size in bytes: 32768
Data unit:   124
Start block: 249
Symmetric key bit length: 256
Plaintext bit length:     128
Symmetric key:            7c7c7c7c7c7c7c7c7c7c7c7c7c7c7c7c7c7c7c7c7c7c7c7c7c7c7c7c7c7c7c7c
Plaintext:                83838383838383838383838383838383
Ciphertext:               6711d31a994eba13027458e0cdf350549792492a4a693686ce6780053d9b382a7f8d699c21b8ea9b3a7eb681b9a7adda
Reciphers for ciphertext: 0
Decipheredtext:           83838383838383838383838383838383
RESULT CIPHER-DECIPHER: -----OK-----


Test: 125
Hash algorithm:       12
Sector size in bytes: 32768
Data unit:   125
Start block: 251
Symmetric key bit length: 256
Plaintext bit length:     128
Symmetric key:            7d7d7d7d7d7d7d7d7d7d7d7d7d7d7d7d7d7d7d7d7d7d7d7d7d7d7d7d7d7d7d7d
Plaintext:                82828282828282828282828282828282
Ciphertext:               961b5e94c79a1a0c41de5c6c69a1b2f8ca44cf55418738bd0afa42849bb8b47d
Reciphers for ciphertext: 0
Decipheredtext:           82828282828282828282828282828282
RESULT CIPHER-DECIPHER: -----OK-----


Test: 126
Hash algorithm:       4
Sector size in bytes: 32768
Data unit:   126
Start block: 253
Symmetric key bit length: 256
Plaintext bit length:     128
Symmetric key:            7e7e7e7e7e7e7e7e7e7e7e7e7e7e7e7e7e7e7e7e7e7e7e7e7e7e7e7e7e7e7e7e
Plaintext:                81818181818181818181818181818181
Ciphertext:               202a6434c0ab14653217ba37b44c77b6227816079fbc2856827c34aa504d71664be5c3ccf7b57e8ee82c85561bcd2472755c86235582a76c698ed11a21627a4450260700b908510cdd6c34343f01f6d9
Reciphers for ciphertext: 0
Decipheredtext:           81818181818181818181818181818181
RESULT CIPHER-DECIPHER: -----OK-----


Test: 127
Hash algorithm:       5
Sector size in bytes: 32768
Data unit:   127
Start block: 255
Symmetric key bit length: 256
Plaintext bit length:     128
Symmetric key:            7f7f7f7f7f7f7f7f7f7f7f7f7f7f7f7f7f7f7f7f7f7f7f7f7f7f7f7f7f7f7f7f
Plaintext:                80808080808080808080808080808080
Ciphertext:               13efafee252612cfc151dda61670884708085b1d1c98f3e0ef7806cb30c7ccdbf82b2445f93c85af19ec9fcc
Reciphers for ciphertext: 0
Decipheredtext:           80808080808080808080808080808080
RESULT CIPHER-DECIPHER: -----OK-----


 DATA SHA1 (hexadecimal): 2de85244b8a1d5cf48afe81c9b6b5f5fc4186a38

