
DiceLock 9.0.0.1

 TEST COMPONENTS:
 ----------------
 DiceLock:           DiceLockXTSDigested class
                     Operating based on storage sector size length
 Operation Mode:     XTS_Mode class
 Block Cipher:       Serpent192 class
 Hash algorithms:     0 - Sha1 class
                      1 - Sha224 class
                      2 - Sha256 class
                      3 - Sha384 class
                      4 - Sha512 class
                      5 - Sha512_224 class
                      6 - Sha512_256 class
                      7 - Ripemd128 class
                      8 - Ripemd160 class
                      9 - Ripemd256 class
                     10 - Ripemd320 class
                     11 - MD2 class
                     12 - MD4 class
                     13 - MD5 class
 Key Modifier:       IncreaseKeyModifier_6_0_0_1 class
 Random tests:       RandomTestSuite class
                     FrequencyTest class
                     BlockFrequencyTest class
                     CumulativeSumForwardTest class
                     LongestRunOfOnesTest class
                     RunsTest class
 Random alpha:       0.001

 VECTOR TEST: Test vector 0 - Changing symmetric key, shifting 1 bit set


##### INDIVIDUAL TESTS #####

Number tests: 128


Test: 0
Hash algorithm:       13
Sector size in bytes: 512
Data unit:   0
Start block: 0
Symmetric key bit length: 384
Plaintext bit length:     128
Symmetric key:            000000000000000000000000000000000000000000000000000000000000000080000000000000000000000000000000
Plaintext:                00000000000000000000000000000000
Ciphertext:               48b5496f2cda3f2f3609dd1baf65d403e3d7c4dcde72ac4dc53fa1bae967e9da
Reciphers for ciphertext: 0
Decipheredtext:           00000000000000000000000000000000
RESULT CIPHER-DECIPHER: -----OK-----


Test: 1
Hash algorithm:       12
Sector size in bytes: 512
Data unit:   0
Start block: 0
Symmetric key bit length: 384
Plaintext bit length:     128
Symmetric key:            000000000000000000000000000000000000000000000000000000000000000040000000000000000000000000000000
Plaintext:                00000000000000000000000000000000
Ciphertext:               bb2670af8850bbce5bb9002fca86614c79644d3c7ee7fd6ef2cf4c7c102d4a60
Reciphers for ciphertext: 0
Decipheredtext:           00000000000000000000000000000000
RESULT CIPHER-DECIPHER: -----OK-----


Test: 2
Hash algorithm:       10
Sector size in bytes: 512
Data unit:   0
Start block: 0
Symmetric key bit length: 384
Plaintext bit length:     128
Symmetric key:            000000000000000000000000000000000000000000000000000000000000000020000000000000000000000000000000
Plaintext:                00000000000000000000000000000000
Ciphertext:               ff73ffe58b2b2ada58db46b954d5c494fd20453d96fa9c3b228f70078eef8f34219bd035b11bd1d13c0ae51b47873e26cdddc6ca62c3e113
Reciphers for ciphertext: 0
Decipheredtext:           00000000000000000000000000000000
RESULT CIPHER-DECIPHER: -----OK-----


Test: 3
Hash algorithm:       0
Sector size in bytes: 512
Data unit:   0
Start block: 0
Symmetric key bit length: 384
Plaintext bit length:     128
Symmetric key:            000000000000000000000000000000000000000000000000000000000000000010000000000000000000000000000000
Plaintext:                00000000000000000000000000000000
Ciphertext:               8341e47e5acc6a11c689be2e4b3b2780c0100b09f71aa51cd891c351a85be8fd38924bb9
Reciphers for ciphertext: 0
Decipheredtext:           00000000000000000000000000000000
RESULT CIPHER-DECIPHER: -----OK-----


Test: 4
Hash algorithm:       3
Sector size in bytes: 512
Data unit:   0
Start block: 0
Symmetric key bit length: 384
Plaintext bit length:     128
Symmetric key:            000000000000000000000000000000000000000000000000000000000000000008000000000000000000000000000000
Plaintext:                00000000000000000000000000000000
Ciphertext:               f0fc55d470016dc9a706d243c01342dea0850764a710f61adba8ca56c6ab91b3fc13204c52b2c842cf9eba3f004ba7a0f36cd281eb53f12ff784128177c050fa
Reciphers for ciphertext: 0
Decipheredtext:           00000000000000000000000000000000
RESULT CIPHER-DECIPHER: -----OK-----


Test: 5
Hash algorithm:       8
Sector size in bytes: 512
Data unit:   0
Start block: 0
Symmetric key bit length: 384
Plaintext bit length:     128
Symmetric key:            000000000000000000000000000000000000000000000000000000000000000004000000000000000000000000000000
Plaintext:                00000000000000000000000000000000
Ciphertext:               a32a1beb1aaac9b6a214854d31c3d55fa2fb652507d3f8533713ff3f4c7a3d5a77ac3913
Reciphers for ciphertext: 0
Decipheredtext:           00000000000000000000000000000000
RESULT CIPHER-DECIPHER: -----OK-----


Test: 6
Hash algorithm:       8
Sector size in bytes: 512
Data unit:   0
Start block: 0
Symmetric key bit length: 384
Plaintext bit length:     128
Symmetric key:            000000000000000000000000000000000000000000000000000000000000000002000000000000000000000000000000
Plaintext:                00000000000000000000000000000000
Ciphertext:               8b5f3c89a5c1652cad06d9d71db25c62b0ba74d2f60faf16c7889c4a1199999da264cb2e
Reciphers for ciphertext: 0
Decipheredtext:           00000000000000000000000000000000
RESULT CIPHER-DECIPHER: -----OK-----


Test: 7
Hash algorithm:       0
Sector size in bytes: 512
Data unit:   0
Start block: 0
Symmetric key bit length: 384
Plaintext bit length:     128
Symmetric key:            000000000000000000000000000000000000000000000000000000000000000001000000000000000000000000000000
Plaintext:                00000000000000000000000000000000
Ciphertext:               bd13a607857fdec547a4487e3701d55845de14faa4636802ed62064584da68ad8aa34500
Reciphers for ciphertext: 0
Decipheredtext:           00000000000000000000000000000000
RESULT CIPHER-DECIPHER: -----OK-----


Test: 8
Hash algorithm:       11
Sector size in bytes: 512
Data unit:   0
Start block: 0
Symmetric key bit length: 384
Plaintext bit length:     128
Symmetric key:            000000000000000000000000000000000000000000000000000000000000000000800000000000000000000000000000
Plaintext:                00000000000000000000000000000000
Ciphertext:               41cc3cd9a4d836ce362bfc250b6c3caef35e3dadb9aff202fdd44bf380332bd8
Reciphers for ciphertext: 0
Decipheredtext:           00000000000000000000000000000000
RESULT CIPHER-DECIPHER: -----OK-----


Test: 9
Hash algorithm:       9
Sector size in bytes: 512
Data unit:   0
Start block: 0
Symmetric key bit length: 384
Plaintext bit length:     128
Symmetric key:            000000000000000000000000000000000000000000000000000000000000000000400000000000000000000000000000
Plaintext:                00000000000000000000000000000000
Ciphertext:               9f14e2e495ce210ce85372b43dde32ed4e22be8f3ba5910dd7d734634c091708e48456954db0dd176bd7b0c35625e338
Reciphers for ciphertext: 0
Decipheredtext:           00000000000000000000000000000000
RESULT CIPHER-DECIPHER: -----OK-----


Test: 10
Hash algorithm:       1
Sector size in bytes: 1024
Data unit:   0
Start block: 0
Symmetric key bit length: 384
Plaintext bit length:     128
Symmetric key:            000000000000000000000000000000000000000000000000000000000000000000200000000000000000000000000000
Plaintext:                00000000000000000000000000000000
Ciphertext:               8fc9150ed5b682415e0ef469293ba16205274def79b51285a2550f52ae784b4935e62db3a14d033512d69669
Reciphers for ciphertext: 0
Decipheredtext:           00000000000000000000000000000000
RESULT CIPHER-DECIPHER: -----OK-----


Test: 11
Hash algorithm:       8
Sector size in bytes: 1024
Data unit:   0
Start block: 0
Symmetric key bit length: 384
Plaintext bit length:     128
Symmetric key:            000000000000000000000000000000000000000000000000000000000000000000100000000000000000000000000000
Plaintext:                00000000000000000000000000000000
Ciphertext:               9b301ec03764238747cab5039d66a24982fe76d13c9b1ff3f66be55bfae980daf3cfa961
Reciphers for ciphertext: 0
Decipheredtext:           00000000000000000000000000000000
RESULT CIPHER-DECIPHER: -----OK-----


Test: 12
Hash algorithm:       3
Sector size in bytes: 1024
Data unit:   0
Start block: 0
Symmetric key bit length: 384
Plaintext bit length:     128
Symmetric key:            000000000000000000000000000000000000000000000000000000000000000000080000000000000000000000000000
Plaintext:                00000000000000000000000000000000
Ciphertext:               a37b2fd1f54b6c36da2267b363294d81cca41b7500e19974272871d56b73010356225099db999b82b205225561b02f58636bcf62aa4b5a7705428a98cdf46f99
Reciphers for ciphertext: 0
Decipheredtext:           00000000000000000000000000000000
RESULT CIPHER-DECIPHER: -----OK-----


Test: 13
Hash algorithm:       3
Sector size in bytes: 1024
Data unit:   0
Start block: 0
Symmetric key bit length: 384
Plaintext bit length:     128
Symmetric key:            000000000000000000000000000000000000000000000000000000000000000000040000000000000000000000000000
Plaintext:                00000000000000000000000000000000
Ciphertext:               af42be26b68a11a712fb847752a54dedd4dac0ad6342a68dcdb996df0d5d8bfb52f98dd9548ee0ff58c9f378f1cfb8f0f9ee3715a755f5ef564eb4f2f01a7dcb
Reciphers for ciphertext: 0
Decipheredtext:           00000000000000000000000000000000
RESULT CIPHER-DECIPHER: -----OK-----


Test: 14
Hash algorithm:       13
Sector size in bytes: 1024
Data unit:   0
Start block: 0
Symmetric key bit length: 384
Plaintext bit length:     128
Symmetric key:            000000000000000000000000000000000000000000000000000000000000000000020000000000000000000000000000
Plaintext:                00000000000000000000000000000000
Ciphertext:               a995c46d745b718946d00da80a84d17b218baa670030e900b96d0a825e38d3a4
Reciphers for ciphertext: 0
Decipheredtext:           00000000000000000000000000000000
RESULT CIPHER-DECIPHER: -----OK-----


Test: 15
Hash algorithm:       9
Sector size in bytes: 1024
Data unit:   0
Start block: 0
Symmetric key bit length: 384
Plaintext bit length:     128
Symmetric key:            000000000000000000000000000000000000000000000000000000000000000000010000000000000000000000000000
Plaintext:                00000000000000000000000000000000
Ciphertext:               f1018a9a6cb419fc5a55abc59e5e550d9778388260c13079247de8a29b3dc3ec5e303a39599e965d43ab4a7d9354879f
Reciphers for ciphertext: 0
Decipheredtext:           00000000000000000000000000000000
RESULT CIPHER-DECIPHER: -----OK-----


Test: 16
Hash algorithm:       12
Sector size in bytes: 1024
Data unit:   0
Start block: 0
Symmetric key bit length: 384
Plaintext bit length:     128
Symmetric key:            000000000000000000000000000000000000000000000000000000000000000000008000000000000000000000000000
Plaintext:                00000000000000000000000000000000
Ciphertext:               f9147d506caf28dadf1d563ef8110212c7ad83b1101ddcb094fe1cb180f69eb3
Reciphers for ciphertext: 0
Decipheredtext:           00000000000000000000000000000000
RESULT CIPHER-DECIPHER: -----OK-----


Test: 17
Hash algorithm:       5
Sector size in bytes: 1024
Data unit:   0
Start block: 0
Symmetric key bit length: 384
Plaintext bit length:     128
Symmetric key:            000000000000000000000000000000000000000000000000000000000000000000004000000000000000000000000000
Plaintext:                00000000000000000000000000000000
Ciphertext:               baab63e648a75528c1c95c0e596d57dd18783a124a9a4296882d4d822fab5d90d00cadbf7feda0729efddcb7
Reciphers for ciphertext: 0
Decipheredtext:           00000000000000000000000000000000
RESULT CIPHER-DECIPHER: -----OK-----


Test: 18
Hash algorithm:       6
Sector size in bytes: 1024
Data unit:   0
Start block: 0
Symmetric key bit length: 384
Plaintext bit length:     128
Symmetric key:            000000000000000000000000000000000000000000000000000000000000000000002000000000000000000000000000
Plaintext:                00000000000000000000000000000000
Ciphertext:               f7064082aad6b5dc74296e3b233047b5f901e630d377b2b35e0006bf08a2c9dd1f5c302478b0007da85ddc869f31fbf1
Reciphers for ciphertext: 0
Decipheredtext:           00000000000000000000000000000000
RESULT CIPHER-DECIPHER: -----OK-----


Test: 19
Hash algorithm:       13
Sector size in bytes: 1024
Data unit:   0
Start block: 0
Symmetric key bit length: 384
Plaintext bit length:     128
Symmetric key:            000000000000000000000000000000000000000000000000000000000000000000001000000000000000000000000000
Plaintext:                00000000000000000000000000000000
Ciphertext:               77aee79105cdd5154883087b48391dbe3efbc28fa0748a749edcafb5c3a716e1
Reciphers for ciphertext: 0
Decipheredtext:           00000000000000000000000000000000
RESULT CIPHER-DECIPHER: -----OK-----


Test: 20
Hash algorithm:       2
Sector size in bytes: 1536
Data unit:   0
Start block: 0
Symmetric key bit length: 384
Plaintext bit length:     128
Symmetric key:            000000000000000000000000000000000000000000000000000000000000000000000800000000000000000000000000
Plaintext:                00000000000000000000000000000000
Ciphertext:               43d4c16d845b95a3893d5618335755e7fddcf9abc34ef043ff1accf1416cb45e35a568106ad89b06b7ef3a4709219eee
Reciphers for ciphertext: 0
Decipheredtext:           00000000000000000000000000000000
RESULT CIPHER-DECIPHER: -----OK-----


Test: 21
Hash algorithm:       7
Sector size in bytes: 1536
Data unit:   0
Start block: 0
Symmetric key bit length: 384
Plaintext bit length:     128
Symmetric key:            000000000000000000000000000000000000000000000000000000000000000000000400000000000000000000000000
Plaintext:                00000000000000000000000000000000
Ciphertext:               abae35cde19641b826332d94b40a588f16d362187fc52b6ccb3817f7435dc70b
Reciphers for ciphertext: 0
Decipheredtext:           00000000000000000000000000000000
RESULT CIPHER-DECIPHER: -----OK-----


Test: 22
Hash algorithm:       10
Sector size in bytes: 1536
Data unit:   0
Start block: 0
Symmetric key bit length: 384
Plaintext bit length:     128
Symmetric key:            000000000000000000000000000000000000000000000000000000000000000000000200000000000000000000000000
Plaintext:                00000000000000000000000000000000
Ciphertext:               9bca584aa87582b8ea282ac81433c33f39a5db6bddd67f413a785268007877ad7391e98bdc867a27fcf9c212ffec4f0a731694c5df1d41e8
Reciphers for ciphertext: 0
Decipheredtext:           00000000000000000000000000000000
RESULT CIPHER-DECIPHER: -----OK-----


Test: 23
Hash algorithm:       9
Sector size in bytes: 1536
Data unit:   0
Start block: 0
Symmetric key bit length: 384
Plaintext bit length:     128
Symmetric key:            000000000000000000000000000000000000000000000000000000000000000000000100000000000000000000000000
Plaintext:                00000000000000000000000000000000
Ciphertext:               d425876595826e0b8435c7fb2099b77fd990ae402edc068395d4243e590a6a13e0155b2cf17838004e760b901ad70bb3
Reciphers for ciphertext: 0
Decipheredtext:           00000000000000000000000000000000
RESULT CIPHER-DECIPHER: -----OK-----


Test: 24
Hash algorithm:       9
Sector size in bytes: 1536
Data unit:   0
Start block: 0
Symmetric key bit length: 384
Plaintext bit length:     128
Symmetric key:            000000000000000000000000000000000000000000000000000000000000000000000080000000000000000000000000
Plaintext:                00000000000000000000000000000000
Ciphertext:               4c4df6a33ed0b6fbccbc632dce9b2ee4181c9179ae90b435a7b50fb0a561926a5e4e1363b749693326add6d5392875cb
Reciphers for ciphertext: 0
Decipheredtext:           00000000000000000000000000000000
RESULT CIPHER-DECIPHER: -----OK-----


Test: 25
Hash algorithm:       0
Sector size in bytes: 1536
Data unit:   0
Start block: 0
Symmetric key bit length: 384
Plaintext bit length:     128
Symmetric key:            000000000000000000000000000000000000000000000000000000000000000000000040000000000000000000000000
Plaintext:                00000000000000000000000000000000
Ciphertext:               b0180219a5ec74e0dd359b97c6947d53e62caa3da66e463f18323a0fa3bf1e5ea141ce3b
Reciphers for ciphertext: 0
Decipheredtext:           00000000000000000000000000000000
RESULT CIPHER-DECIPHER: -----OK-----


Test: 26
Hash algorithm:       1
Sector size in bytes: 1536
Data unit:   0
Start block: 0
Symmetric key bit length: 384
Plaintext bit length:     128
Symmetric key:            000000000000000000000000000000000000000000000000000000000000000000000020000000000000000000000000
Plaintext:                00000000000000000000000000000000
Ciphertext:               d40bc25a9e94bf3ba5e9a2903eb1176be21075b9b2e35e87695d7f55775b62fbde20f73717175541b0bfc2b7
Reciphers for ciphertext: 0
Decipheredtext:           00000000000000000000000000000000
RESULT CIPHER-DECIPHER: -----OK-----


Test: 27
Hash algorithm:       2
Sector size in bytes: 1536
Data unit:   0
Start block: 0
Symmetric key bit length: 384
Plaintext bit length:     128
Symmetric key:            000000000000000000000000000000000000000000000000000000000000000000000010000000000000000000000000
Plaintext:                00000000000000000000000000000000
Ciphertext:               735f4f59db74f579d707f0257f74e2739aeed235114d2815f90e31d36a349be015a09053b20bda100ae3398faa5c51eb
Reciphers for ciphertext: 0
Decipheredtext:           00000000000000000000000000000000
RESULT CIPHER-DECIPHER: -----OK-----


Test: 28
Hash algorithm:       2
Sector size in bytes: 1536
Data unit:   0
Start block: 0
Symmetric key bit length: 384
Plaintext bit length:     128
Symmetric key:            000000000000000000000000000000000000000000000000000000000000000000000008000000000000000000000000
Plaintext:                00000000000000000000000000000000
Ciphertext:               133cd1ba516fccbf2baffc726da5e930130a995f92f6517b57897a69083bb250643c17a999ecb571faea6270063d49c0
Reciphers for ciphertext: 0
Decipheredtext:           00000000000000000000000000000000
RESULT CIPHER-DECIPHER: -----OK-----


Test: 29
Hash algorithm:       13
Sector size in bytes: 1536
Data unit:   0
Start block: 0
Symmetric key bit length: 384
Plaintext bit length:     128
Symmetric key:            000000000000000000000000000000000000000000000000000000000000000000000004000000000000000000000000
Plaintext:                00000000000000000000000000000000
Ciphertext:               49f6d736d6caa317f0b940995dd6de47c9c731a38639ed92fa1accceb7e66e37
Reciphers for ciphertext: 0
Decipheredtext:           00000000000000000000000000000000
RESULT CIPHER-DECIPHER: -----OK-----


Test: 30
Hash algorithm:       11
Sector size in bytes: 2048
Data unit:   0
Start block: 0
Symmetric key bit length: 384
Plaintext bit length:     128
Symmetric key:            000000000000000000000000000000000000000000000000000000000000000000000002000000000000000000000000
Plaintext:                00000000000000000000000000000000
Ciphertext:               d02c41d53826c4ba05bb3030a49a196aa841cd1145914f90f50d7d3422e94eff
Reciphers for ciphertext: 0
Decipheredtext:           00000000000000000000000000000000
RESULT CIPHER-DECIPHER: -----OK-----


Test: 31
Hash algorithm:       4
Sector size in bytes: 2048
Data unit:   0
Start block: 0
Symmetric key bit length: 384
Plaintext bit length:     128
Symmetric key:            000000000000000000000000000000000000000000000000000000000000000000000001000000000000000000000000
Plaintext:                00000000000000000000000000000000
Ciphertext:               9fa17c90c1c665a40c89ec02cebedf7cd4959a402d5dcce64c0974dd09df1729c182cfa3325347db3f6ad7f62d694a845bf1b1793c496caa56539981ee1c0a8addc852c0b2db4fa0284a53f0ce3b2e26
Reciphers for ciphertext: 0
Decipheredtext:           00000000000000000000000000000000
RESULT CIPHER-DECIPHER: -----OK-----


Test: 32
Hash algorithm:       1
Sector size in bytes: 2048
Data unit:   0
Start block: 0
Symmetric key bit length: 384
Plaintext bit length:     128
Symmetric key:            000000000000000000000000000000000000000000000000000000000000000000000000800000000000000000000000
Plaintext:                00000000000000000000000000000000
Ciphertext:               6f1b3c80c4f17c4f11fb33faed4dcecc0cbd72a42ea1941ee100ebf11eeffc61d157c8e5f3af24ba0262fdeb
Reciphers for ciphertext: 0
Decipheredtext:           00000000000000000000000000000000
RESULT CIPHER-DECIPHER: -----OK-----


Test: 33
Hash algorithm:       7
Sector size in bytes: 2048
Data unit:   0
Start block: 0
Symmetric key bit length: 384
Plaintext bit length:     128
Symmetric key:            000000000000000000000000000000000000000000000000000000000000000000000000400000000000000000000000
Plaintext:                00000000000000000000000000000000
Ciphertext:               0afd788e4a15e3de58ef565ef60ccb7d292c99a6c0b77262fb447cc06fb02adb
Reciphers for ciphertext: 0
Decipheredtext:           00000000000000000000000000000000
RESULT CIPHER-DECIPHER: -----OK-----


Test: 34
Hash algorithm:       12
Sector size in bytes: 2048
Data unit:   0
Start block: 0
Symmetric key bit length: 384
Plaintext bit length:     128
Symmetric key:            000000000000000000000000000000000000000000000000000000000000000000000000200000000000000000000000
Plaintext:                00000000000000000000000000000000
Ciphertext:               811524d03cdb0b618619f970b5bef997e3e9828da275cd014523d3aeeaef7fba
Reciphers for ciphertext: 0
Decipheredtext:           00000000000000000000000000000000
RESULT CIPHER-DECIPHER: -----OK-----


Test: 35
Hash algorithm:       8
Sector size in bytes: 2048
Data unit:   0
Start block: 0
Symmetric key bit length: 384
Plaintext bit length:     128
Symmetric key:            000000000000000000000000000000000000000000000000000000000000000000000000100000000000000000000000
Plaintext:                00000000000000000000000000000000
Ciphertext:               9e3b7db3473e4e106388f5c9571224d661bf334473b8f638792804a8e0dc1781fc57ce51
Reciphers for ciphertext: 0
Decipheredtext:           00000000000000000000000000000000
RESULT CIPHER-DECIPHER: -----OK-----


Test: 36
Hash algorithm:       1
Sector size in bytes: 2048
Data unit:   0
Start block: 0
Symmetric key bit length: 384
Plaintext bit length:     128
Symmetric key:            000000000000000000000000000000000000000000000000000000000000000000000000080000000000000000000000
Plaintext:                00000000000000000000000000000000
Ciphertext:               557542c5de0b4f00a82af9d7c78e26c50e630f9fb5f29fb76989b38a07d7cad9a73c72a8c7aa14c93b55d1a6
Reciphers for ciphertext: 0
Decipheredtext:           00000000000000000000000000000000
RESULT CIPHER-DECIPHER: -----OK-----


Test: 37
Hash algorithm:       1
Sector size in bytes: 2048
Data unit:   0
Start block: 0
Symmetric key bit length: 384
Plaintext bit length:     128
Symmetric key:            000000000000000000000000000000000000000000000000000000000000000000000000040000000000000000000000
Plaintext:                00000000000000000000000000000000
Ciphertext:               fe15ba9e8d53831b6d72479ebb724fdfdaac2d4f063fb28bb69c267caad5825c1016add184128c093671ea92
Reciphers for ciphertext: 0
Decipheredtext:           00000000000000000000000000000000
RESULT CIPHER-DECIPHER: -----OK-----


Test: 38
Hash algorithm:       6
Sector size in bytes: 2048
Data unit:   0
Start block: 0
Symmetric key bit length: 384
Plaintext bit length:     128
Symmetric key:            000000000000000000000000000000000000000000000000000000000000000000000000020000000000000000000000
Plaintext:                00000000000000000000000000000000
Ciphertext:               d6aa2309e6b4402344b76f51dfc574202ee0920391c067339a5a1e80615e3132473f14b4e5034c89b15cbcec85417fd4
Reciphers for ciphertext: 0
Decipheredtext:           00000000000000000000000000000000
RESULT CIPHER-DECIPHER: -----OK-----


Test: 39
Hash algorithm:       7
Sector size in bytes: 2048
Data unit:   0
Start block: 0
Symmetric key bit length: 384
Plaintext bit length:     128
Symmetric key:            000000000000000000000000000000000000000000000000000000000000000000000000010000000000000000000000
Plaintext:                00000000000000000000000000000000
Ciphertext:               e1bbd523433926b4e482d962da5262f03f224bad0aa127716455084d67587d6f
Reciphers for ciphertext: 0
Decipheredtext:           00000000000000000000000000000000
RESULT CIPHER-DECIPHER: -----OK-----


Test: 40
Hash algorithm:       9
Sector size in bytes: 2560
Data unit:   0
Start block: 0
Symmetric key bit length: 384
Plaintext bit length:     128
Symmetric key:            000000000000000000000000000000000000000000000000000000000000000000000000008000000000000000000000
Plaintext:                00000000000000000000000000000000
Ciphertext:               a9a10f2cb927c82a027868ffed04ce947cb431edfa885ae0560858e48de4465ee6cd37d41c947561a0dffdc2662699d6
Reciphers for ciphertext: 0
Decipheredtext:           00000000000000000000000000000000
RESULT CIPHER-DECIPHER: -----OK-----


Test: 41
Hash algorithm:       0
Sector size in bytes: 2560
Data unit:   0
Start block: 0
Symmetric key bit length: 384
Plaintext bit length:     128
Symmetric key:            000000000000000000000000000000000000000000000000000000000000000000000000004000000000000000000000
Plaintext:                00000000000000000000000000000000
Ciphertext:               346f08589e3f67f37b728bcf2d4a613da784e30948acdffa1d17035c80f983f3e2c08999
Reciphers for ciphertext: 0
Decipheredtext:           00000000000000000000000000000000
RESULT CIPHER-DECIPHER: -----OK-----


Test: 42
Hash algorithm:       4
Sector size in bytes: 2560
Data unit:   0
Start block: 0
Symmetric key bit length: 384
Plaintext bit length:     128
Symmetric key:            000000000000000000000000000000000000000000000000000000000000000000000000002000000000000000000000
Plaintext:                00000000000000000000000000000000
Ciphertext:               67d37ae83b6f7e2fc358c2f31a02ef5e7ead9f95c43767d82c423e44565ddbf9cf7318143acc2611527dd8f5ca71417d2852eebd79411b3fbc6f95262a724c5dfbe26a7691c350792eca9f1f21c5d28f
Reciphers for ciphertext: 0
Decipheredtext:           00000000000000000000000000000000
RESULT CIPHER-DECIPHER: -----OK-----


Test: 43
Hash algorithm:       1
Sector size in bytes: 2560
Data unit:   0
Start block: 0
Symmetric key bit length: 384
Plaintext bit length:     128
Symmetric key:            000000000000000000000000000000000000000000000000000000000000000000000000001000000000000000000000
Plaintext:                00000000000000000000000000000000
Ciphertext:               5d15760e5d6087e4e621897e128b4ba7a3d6a6798e49daf817cc111a3da44b1e067e59c3202fc7487005727f
Reciphers for ciphertext: 0
Decipheredtext:           00000000000000000000000000000000
RESULT CIPHER-DECIPHER: -----OK-----


Test: 44
Hash algorithm:       8
Sector size in bytes: 2560
Data unit:   0
Start block: 0
Symmetric key bit length: 384
Plaintext bit length:     128
Symmetric key:            000000000000000000000000000000000000000000000000000000000000000000000000000800000000000000000000
Plaintext:                00000000000000000000000000000000
Ciphertext:               fff5ed81a27a3db2d7cdf7d6a97f71cc13ba7ad8408a351066174f8c861b8d4d76866f8a
Reciphers for ciphertext: 0
Decipheredtext:           00000000000000000000000000000000
RESULT CIPHER-DECIPHER: -----OK-----


Test: 45
Hash algorithm:       3
Sector size in bytes: 2560
Data unit:   0
Start block: 0
Symmetric key bit length: 384
Plaintext bit length:     128
Symmetric key:            000000000000000000000000000000000000000000000000000000000000000000000000000400000000000000000000
Plaintext:                00000000000000000000000000000000
Ciphertext:               8f4586aaf55108f8604cdd42107d82a24eec301e9f91a292e07b89354de23057af1617e671a4bf540a54de27bab51a191c289d8cd350eb85d8a2b1a160c24712
Reciphers for ciphertext: 0
Decipheredtext:           00000000000000000000000000000000
RESULT CIPHER-DECIPHER: -----OK-----


Test: 46
Hash algorithm:       6
Sector size in bytes: 2560
Data unit:   0
Start block: 0
Symmetric key bit length: 384
Plaintext bit length:     128
Symmetric key:            000000000000000000000000000000000000000000000000000000000000000000000000000200000000000000000000
Plaintext:                00000000000000000000000000000000
Ciphertext:               bf0423cb7a66c210b96bf12bd42371bc0a315dea6e158d721ff9a9d95f4ecd0d575c44661659f5321e14f1f324a2a0c1
Reciphers for ciphertext: 0
Decipheredtext:           00000000000000000000000000000000
RESULT CIPHER-DECIPHER: -----OK-----


Test: 47
Hash algorithm:       8
Sector size in bytes: 2560
Data unit:   0
Start block: 0
Symmetric key bit length: 384
Plaintext bit length:     128
Symmetric key:            000000000000000000000000000000000000000000000000000000000000000000000000000100000000000000000000
Plaintext:                00000000000000000000000000000000
Ciphertext:               3bb9aba1b2633bc7746f5d2330bd5248a6bcf7d1b497cd44fe2613767324f0d5a4648ba9
Reciphers for ciphertext: 0
Decipheredtext:           00000000000000000000000000000000
RESULT CIPHER-DECIPHER: -----OK-----


Test: 48
Hash algorithm:       13
Sector size in bytes: 2560
Data unit:   0
Start block: 0
Symmetric key bit length: 384
Plaintext bit length:     128
Symmetric key:            000000000000000000000000000000000000000000000000000000000000000000000000000080000000000000000000
Plaintext:                00000000000000000000000000000000
Ciphertext:               e62e00e7d4e7911e4c6fef13bc3fa721b84aa5c593d2bdbbef449252d15647cd
Reciphers for ciphertext: 0
Decipheredtext:           00000000000000000000000000000000
RESULT CIPHER-DECIPHER: -----OK-----


Test: 49
Hash algorithm:       7
Sector size in bytes: 2560
Data unit:   0
Start block: 0
Symmetric key bit length: 384
Plaintext bit length:     128
Symmetric key:            000000000000000000000000000000000000000000000000000000000000000000000000000040000000000000000000
Plaintext:                00000000000000000000000000000000
Ciphertext:               50bc8e76a90ea7671ec8348c98f6fe188cb3479be83ffe23d5edce0678f3065a
Reciphers for ciphertext: 0
Decipheredtext:           00000000000000000000000000000000
RESULT CIPHER-DECIPHER: -----OK-----


Test: 50
Hash algorithm:       5
Sector size in bytes: 3072
Data unit:   0
Start block: 0
Symmetric key bit length: 384
Plaintext bit length:     128
Symmetric key:            000000000000000000000000000000000000000000000000000000000000000000000000000020000000000000000000
Plaintext:                00000000000000000000000000000000
Ciphertext:               da3e205ffffa8fe57ccfbb6252168f43e95f1760632e8a2744f8cc96f726e773449b4ea46ebf8f0a7463156d
Reciphers for ciphertext: 0
Decipheredtext:           00000000000000000000000000000000
RESULT CIPHER-DECIPHER: -----OK-----


Test: 51
Hash algorithm:       1
Sector size in bytes: 3072
Data unit:   0
Start block: 0
Symmetric key bit length: 384
Plaintext bit length:     128
Symmetric key:            000000000000000000000000000000000000000000000000000000000000000000000000000010000000000000000000
Plaintext:                00000000000000000000000000000000
Ciphertext:               740147f674d40c58a5e2db99f534f25735474b2def460fbbd0e9a81696a9470d1a9271d4a95d98b2d88c25e8
Reciphers for ciphertext: 0
Decipheredtext:           00000000000000000000000000000000
RESULT CIPHER-DECIPHER: -----OK-----


Test: 52
Hash algorithm:       3
Sector size in bytes: 3072
Data unit:   0
Start block: 0
Symmetric key bit length: 384
Plaintext bit length:     128
Symmetric key:            000000000000000000000000000000000000000000000000000000000000000000000000000008000000000000000000
Plaintext:                00000000000000000000000000000000
Ciphertext:               7836eec5eda6248b5d5ebe6e6f6661a6f5e7a7ebb2e6c46781b10a4ad49fed7cbe4ede63c8eac3d6061f40f7436caa9cee55569524dc4b29424a53fc9d2fafd6
Reciphers for ciphertext: 0
Decipheredtext:           00000000000000000000000000000000
RESULT CIPHER-DECIPHER: -----OK-----


Test: 53
Hash algorithm:       8
Sector size in bytes: 3072
Data unit:   0
Start block: 0
Symmetric key bit length: 384
Plaintext bit length:     128
Symmetric key:            000000000000000000000000000000000000000000000000000000000000000000000000000004000000000000000000
Plaintext:                00000000000000000000000000000000
Ciphertext:               9b33e95075a3f97004be8b0b865f1dddffd46affb3e50e749a755c9ca84e059f6fd95a73
Reciphers for ciphertext: 0
Decipheredtext:           00000000000000000000000000000000
RESULT CIPHER-DECIPHER: -----OK-----


Test: 54
Hash algorithm:       11
Sector size in bytes: 3072
Data unit:   0
Start block: 0
Symmetric key bit length: 384
Plaintext bit length:     128
Symmetric key:            000000000000000000000000000000000000000000000000000000000000000000000000000002000000000000000000
Plaintext:                00000000000000000000000000000000
Ciphertext:               a336bdbcc61cc07d9f208401728a256e4b466dc3115de216af9cf83c948b673a
Reciphers for ciphertext: 0
Decipheredtext:           00000000000000000000000000000000
RESULT CIPHER-DECIPHER: -----OK-----


Test: 55
Hash algorithm:       4
Sector size in bytes: 3072
Data unit:   0
Start block: 0
Symmetric key bit length: 384
Plaintext bit length:     128
Symmetric key:            000000000000000000000000000000000000000000000000000000000000000000000000000001000000000000000000
Plaintext:                00000000000000000000000000000000
Ciphertext:               119ca2e05cd9dd2015d0904c2d0e67bc0b09412e30e8c84ddeea89bf4e22ed244718c313ebc55184939b58d0ceb8813fe0a1f7299da4252f009168f65ba22832988b158c02111fbce74939253a3bda43
Reciphers for ciphertext: 0
Decipheredtext:           00000000000000000000000000000000
RESULT CIPHER-DECIPHER: -----OK-----


Test: 56
Hash algorithm:       8
Sector size in bytes: 3072
Data unit:   0
Start block: 0
Symmetric key bit length: 384
Plaintext bit length:     128
Symmetric key:            000000000000000000000000000000000000000000000000000000000000000000000000000000800000000000000000
Plaintext:                00000000000000000000000000000000
Ciphertext:               ea30d05f3cf17eee43da536aebb12f9a8968ce1698dae8ebf5942c0a507c574442f397dc
Reciphers for ciphertext: 0
Decipheredtext:           00000000000000000000000000000000
RESULT CIPHER-DECIPHER: -----OK-----


Test: 57
Hash algorithm:       10
Sector size in bytes: 3072
Data unit:   0
Start block: 0
Symmetric key bit length: 384
Plaintext bit length:     128
Symmetric key:            000000000000000000000000000000000000000000000000000000000000000000000000000000400000000000000000
Plaintext:                00000000000000000000000000000000
Ciphertext:               0b159e480a8dd25a33adc4556b027ed07c79b44dbdb4bb7f044922ed4827750476268638ac65474232ec3ac4e4682a307cb9a642e5330a8e
Reciphers for ciphertext: 0
Decipheredtext:           00000000000000000000000000000000
RESULT CIPHER-DECIPHER: -----OK-----


Test: 58
Hash algorithm:       12
Sector size in bytes: 3072
Data unit:   0
Start block: 0
Symmetric key bit length: 384
Plaintext bit length:     128
Symmetric key:            000000000000000000000000000000000000000000000000000000000000000000000000000000200000000000000000
Plaintext:                00000000000000000000000000000000
Ciphertext:               4e56ca1c712752b15959d0e627a54f91fc2d8aa5af66f536062c5038df4449a0
Reciphers for ciphertext: 0
Decipheredtext:           00000000000000000000000000000000
RESULT CIPHER-DECIPHER: -----OK-----


Test: 59
Hash algorithm:       8
Sector size in bytes: 3072
Data unit:   0
Start block: 0
Symmetric key bit length: 384
Plaintext bit length:     128
Symmetric key:            000000000000000000000000000000000000000000000000000000000000000000000000000000100000000000000000
Plaintext:                00000000000000000000000000000000
Ciphertext:               cfef2cdc78518846dd39dbb64ad5fae46cedbbd18d2efadd5578adccc6e128eb245843ac
Reciphers for ciphertext: 0
Decipheredtext:           00000000000000000000000000000000
RESULT CIPHER-DECIPHER: -----OK-----


Test: 60
Hash algorithm:       0
Sector size in bytes: 3584
Data unit:   0
Start block: 0
Symmetric key bit length: 384
Plaintext bit length:     128
Symmetric key:            000000000000000000000000000000000000000000000000000000000000000000000000000000080000000000000000
Plaintext:                00000000000000000000000000000000
Ciphertext:               9d6ead2a687e32c05cdab41a485a647f39caac65541ddbd729f8330263169f866f5679b6
Reciphers for ciphertext: 0
Decipheredtext:           00000000000000000000000000000000
RESULT CIPHER-DECIPHER: -----OK-----


Test: 61
Hash algorithm:       5
Sector size in bytes: 3584
Data unit:   0
Start block: 0
Symmetric key bit length: 384
Plaintext bit length:     128
Symmetric key:            000000000000000000000000000000000000000000000000000000000000000000000000000000040000000000000000
Plaintext:                00000000000000000000000000000000
Ciphertext:               2a4660e65ea90a2d332f5f8db96f826539a8bedc629a3e3f80b542d5239da8a2d02a596ffc24d85c4d8bef0d
Reciphers for ciphertext: 0
Decipheredtext:           00000000000000000000000000000000
RESULT CIPHER-DECIPHER: -----OK-----


Test: 62
Hash algorithm:       11
Sector size in bytes: 3584
Data unit:   0
Start block: 0
Symmetric key bit length: 384
Plaintext bit length:     128
Symmetric key:            000000000000000000000000000000000000000000000000000000000000000000000000000000020000000000000000
Plaintext:                00000000000000000000000000000000
Ciphertext:               f96366af91cf819b4ee7052ba63e0ef5b7fb259afe9ad0597a3e1a4faf9ae155
Reciphers for ciphertext: 0
Decipheredtext:           00000000000000000000000000000000
RESULT CIPHER-DECIPHER: -----OK-----


Test: 63
Hash algorithm:       0
Sector size in bytes: 3584
Data unit:   0
Start block: 0
Symmetric key bit length: 384
Plaintext bit length:     128
Symmetric key:            000000000000000000000000000000000000000000000000000000000000000000000000000000010000000000000000
Plaintext:                00000000000000000000000000000000
Ciphertext:               d08c4e141a43ff52e8c9cb2a88b7032f6de1ceaae7c34e4a047bb88c6099dc0d624e07cb
Reciphers for ciphertext: 0
Decipheredtext:           00000000000000000000000000000000
RESULT CIPHER-DECIPHER: -----OK-----


Test: 64
Hash algorithm:       8
Sector size in bytes: 3584
Data unit:   0
Start block: 0
Symmetric key bit length: 384
Plaintext bit length:     128
Symmetric key:            000000000000000000000000000000000000000000000000000000000000000000000000000000008000000000000000
Plaintext:                00000000000000000000000000000000
Ciphertext:               b994c4c96d788f217e47c568a3e25128c8bcf05c46bad438f8524b6647e7a534d61c3ab5
Reciphers for ciphertext: 0
Decipheredtext:           00000000000000000000000000000000
RESULT CIPHER-DECIPHER: -----OK-----


Test: 65
Hash algorithm:       11
Sector size in bytes: 3584
Data unit:   0
Start block: 0
Symmetric key bit length: 384
Plaintext bit length:     128
Symmetric key:            000000000000000000000000000000000000000000000000000000000000000000000000000000004000000000000000
Plaintext:                00000000000000000000000000000000
Ciphertext:               d5421bc520112af0a1d447ff73a84a46509fa5799ea69ab8cc45b8032e062290
Reciphers for ciphertext: 0
Decipheredtext:           00000000000000000000000000000000
RESULT CIPHER-DECIPHER: -----OK-----


Test: 66
Hash algorithm:       13
Sector size in bytes: 3584
Data unit:   0
Start block: 0
Symmetric key bit length: 384
Plaintext bit length:     128
Symmetric key:            000000000000000000000000000000000000000000000000000000000000000000000000000000002000000000000000
Plaintext:                00000000000000000000000000000000
Ciphertext:               6aaa3f4005c977b189ca44c945cb4eef915a2aeca50c3c0cca4bf573b0655ae9
Reciphers for ciphertext: 0
Decipheredtext:           00000000000000000000000000000000
RESULT CIPHER-DECIPHER: -----OK-----


Test: 67
Hash algorithm:       2
Sector size in bytes: 3584
Data unit:   0
Start block: 0
Symmetric key bit length: 384
Plaintext bit length:     128
Symmetric key:            000000000000000000000000000000000000000000000000000000000000000000000000000000001000000000000000
Plaintext:                00000000000000000000000000000000
Ciphertext:               5c4c65589663bc9ab2a3a356360d6819161953526d2873a7b624f155d0a9b8fb143afb8ea821c9c0afab839fd2306b49
Reciphers for ciphertext: 0
Decipheredtext:           00000000000000000000000000000000
RESULT CIPHER-DECIPHER: -----OK-----


Test: 68
Hash algorithm:       11
Sector size in bytes: 3584
Data unit:   0
Start block: 0
Symmetric key bit length: 384
Plaintext bit length:     128
Symmetric key:            000000000000000000000000000000000000000000000000000000000000000000000000000000000800000000000000
Plaintext:                00000000000000000000000000000000
Ciphertext:               14acc0c86051bd6cc37d3ce863ca177c77568f0955eb74f64caadd14f6d736dc
Reciphers for ciphertext: 0
Decipheredtext:           00000000000000000000000000000000
RESULT CIPHER-DECIPHER: -----OK-----


Test: 69
Hash algorithm:       7
Sector size in bytes: 3584
Data unit:   0
Start block: 0
Symmetric key bit length: 384
Plaintext bit length:     128
Symmetric key:            000000000000000000000000000000000000000000000000000000000000000000000000000000000400000000000000
Plaintext:                00000000000000000000000000000000
Ciphertext:               db55c3ea1c9abffc54aeec36dc80c5fe48c0e367f66490a1ae8817cbd1b0e573
Reciphers for ciphertext: 0
Decipheredtext:           00000000000000000000000000000000
RESULT CIPHER-DECIPHER: -----OK-----


Test: 70
Hash algorithm:       12
Sector size in bytes: 4096
Data unit:   0
Start block: 0
Symmetric key bit length: 384
Plaintext bit length:     128
Symmetric key:            000000000000000000000000000000000000000000000000000000000000000000000000000000000200000000000000
Plaintext:                00000000000000000000000000000000
Ciphertext:               fdf1e599b151774d67b2a7893de2ae2c50854c35dc1afc73dce6c9c18c8c918b
Reciphers for ciphertext: 0
Decipheredtext:           00000000000000000000000000000000
RESULT CIPHER-DECIPHER: -----OK-----


Test: 71
Hash algorithm:       9
Sector size in bytes: 4096
Data unit:   0
Start block: 0
Symmetric key bit length: 384
Plaintext bit length:     128
Symmetric key:            000000000000000000000000000000000000000000000000000000000000000000000000000000000100000000000000
Plaintext:                00000000000000000000000000000000
Ciphertext:               9c488e3a8a3203fcd735c080e79a8749471c6b85493c9ee1b68cb777ec7305fe276f758a801ee60d6ec2e47721191398
Reciphers for ciphertext: 0
Decipheredtext:           00000000000000000000000000000000
RESULT CIPHER-DECIPHER: -----OK-----


Test: 72
Hash algorithm:       9
Sector size in bytes: 4096
Data unit:   0
Start block: 0
Symmetric key bit length: 384
Plaintext bit length:     128
Symmetric key:            000000000000000000000000000000000000000000000000000000000000000000000000000000000080000000000000
Plaintext:                00000000000000000000000000000000
Ciphertext:               5a7579327344c1964c580aec3f1ba232a74b4739ee8dfea96b269ebbb06dafd8dc9ea191f9a98fe4d70e3e2068498d71
Reciphers for ciphertext: 0
Decipheredtext:           00000000000000000000000000000000
RESULT CIPHER-DECIPHER: -----OK-----


Test: 73
Hash algorithm:       7
Sector size in bytes: 4096
Data unit:   0
Start block: 0
Symmetric key bit length: 384
Plaintext bit length:     128
Symmetric key:            000000000000000000000000000000000000000000000000000000000000000000000000000000000040000000000000
Plaintext:                00000000000000000000000000000000
Ciphertext:               e118f80357382185dc6de3fdb4b977a9ad619f205e45e6c375b78a492439cefc
Reciphers for ciphertext: 0
Decipheredtext:           00000000000000000000000000000000
RESULT CIPHER-DECIPHER: -----OK-----


Test: 74
Hash algorithm:       1
Sector size in bytes: 4096
Data unit:   0
Start block: 0
Symmetric key bit length: 384
Plaintext bit length:     128
Symmetric key:            000000000000000000000000000000000000000000000000000000000000000000000000000000000020000000000000
Plaintext:                00000000000000000000000000000000
Ciphertext:               bfd724b067972dde1260324c775bb5fb497fcdc2dd6f0e942e2348e957734f634b815c8ca558426a0c96e1e4
Reciphers for ciphertext: 0
Decipheredtext:           00000000000000000000000000000000
RESULT CIPHER-DECIPHER: -----OK-----


Test: 75
Hash algorithm:       9
Sector size in bytes: 4096
Data unit:   0
Start block: 0
Symmetric key bit length: 384
Plaintext bit length:     128
Symmetric key:            000000000000000000000000000000000000000000000000000000000000000000000000000000000010000000000000
Plaintext:                00000000000000000000000000000000
Ciphertext:               c38026fb31a98095397afa4489cf285ff37b576e7a4305c882cb11b5d067b66bd7094855d3bebd2397b8b2ed1b51d255
Reciphers for ciphertext: 0
Decipheredtext:           00000000000000000000000000000000
RESULT CIPHER-DECIPHER: -----OK-----


Test: 76
Hash algorithm:       2
Sector size in bytes: 4096
Data unit:   0
Start block: 0
Symmetric key bit length: 384
Plaintext bit length:     128
Symmetric key:            000000000000000000000000000000000000000000000000000000000000000000000000000000000008000000000000
Plaintext:                00000000000000000000000000000000
Ciphertext:               57739b9ab6618f86d334dfb2b5e68ff86f1a5245e239ae8d911986a64a0808be1207a0a924e880c3f3b5b82111bde4a3
Reciphers for ciphertext: 0
Decipheredtext:           00000000000000000000000000000000
RESULT CIPHER-DECIPHER: -----OK-----


Test: 77
Hash algorithm:       12
Sector size in bytes: 4096
Data unit:   0
Start block: 0
Symmetric key bit length: 384
Plaintext bit length:     128
Symmetric key:            000000000000000000000000000000000000000000000000000000000000000000000000000000000004000000000000
Plaintext:                00000000000000000000000000000000
Ciphertext:               a71ee0284e493e4453ebfdc6311f2e242a4816606bfee02edb0f93ca8a853de5
Reciphers for ciphertext: 0
Decipheredtext:           00000000000000000000000000000000
RESULT CIPHER-DECIPHER: -----OK-----


Test: 78
Hash algorithm:       5
Sector size in bytes: 4096
Data unit:   0
Start block: 0
Symmetric key bit length: 384
Plaintext bit length:     128
Symmetric key:            000000000000000000000000000000000000000000000000000000000000000000000000000000000002000000000000
Plaintext:                00000000000000000000000000000000
Ciphertext:               b665136f4cad9446e1332a696f507cbae49eb75a015a6f00d4d43675d76f2ba004b2045400df58e14fee4be6
Reciphers for ciphertext: 0
Decipheredtext:           00000000000000000000000000000000
RESULT CIPHER-DECIPHER: -----OK-----


Test: 79
Hash algorithm:       8
Sector size in bytes: 4096
Data unit:   0
Start block: 0
Symmetric key bit length: 384
Plaintext bit length:     128
Symmetric key:            000000000000000000000000000000000000000000000000000000000000000000000000000000000001000000000000
Plaintext:                00000000000000000000000000000000
Ciphertext:               6b1b85ecf33ec8010292a2b0e68bbf9b1e4621b232d2210d10d214fcb0e9fb8e4c2c6bea
Reciphers for ciphertext: 0
Decipheredtext:           00000000000000000000000000000000
RESULT CIPHER-DECIPHER: -----OK-----


Test: 80
Hash algorithm:       1
Sector size in bytes: 8192
Data unit:   0
Start block: 0
Symmetric key bit length: 384
Plaintext bit length:     128
Symmetric key:            000000000000000000000000000000000000000000000000000000000000000000000000000000000000800000000000
Plaintext:                00000000000000000000000000000000
Ciphertext:               eaaf16f2f6e5a13c6ee687cf154a6ca04d43d7591315eb67fbc452c56ea69bd9d7558330a00544ac26397ac2
Reciphers for ciphertext: 0
Decipheredtext:           00000000000000000000000000000000
RESULT CIPHER-DECIPHER: -----OK-----


Test: 81
Hash algorithm:       5
Sector size in bytes: 8192
Data unit:   0
Start block: 0
Symmetric key bit length: 384
Plaintext bit length:     128
Symmetric key:            000000000000000000000000000000000000000000000000000000000000000000000000000000000000400000000000
Plaintext:                00000000000000000000000000000000
Ciphertext:               63f19725b271e738840ad66bb942eb3690227edd1fce00b8b3c2ff8975e9295b051d827c9b86aeba16776aaf
Reciphers for ciphertext: 0
Decipheredtext:           00000000000000000000000000000000
RESULT CIPHER-DECIPHER: -----OK-----


Test: 82
Hash algorithm:       1
Sector size in bytes: 8192
Data unit:   0
Start block: 0
Symmetric key bit length: 384
Plaintext bit length:     128
Symmetric key:            000000000000000000000000000000000000000000000000000000000000000000000000000000000000200000000000
Plaintext:                00000000000000000000000000000000
Ciphertext:               9c14a2a9fcb4f1f555429ee79a0027db5e0ca57bbbff3dfe4e3d025bff03a6b75fb38939a321f0c09cbb0d56
Reciphers for ciphertext: 0
Decipheredtext:           00000000000000000000000000000000
RESULT CIPHER-DECIPHER: -----OK-----


Test: 83
Hash algorithm:       2
Sector size in bytes: 8192
Data unit:   0
Start block: 0
Symmetric key bit length: 384
Plaintext bit length:     128
Symmetric key:            000000000000000000000000000000000000000000000000000000000000000000000000000000000000100000000000
Plaintext:                00000000000000000000000000000000
Ciphertext:               092728d1fb80b2956a4a8f0544374c5d9921195844be8fd0a69d0848730bd2765ae162e47fab977ed2238c1753b1ffec
Reciphers for ciphertext: 0
Decipheredtext:           00000000000000000000000000000000
RESULT CIPHER-DECIPHER: -----OK-----


Test: 84
Hash algorithm:       3
Sector size in bytes: 8192
Data unit:   0
Start block: 0
Symmetric key bit length: 384
Plaintext bit length:     128
Symmetric key:            000000000000000000000000000000000000000000000000000000000000000000000000000000000000080000000000
Plaintext:                00000000000000000000000000000000
Ciphertext:               36073d41e7f073d234d5a07511def103ecf581145a1042e3cfa01cd012af222dc7d07e69a7627fae9ca898660a5a89d457f6799bf379c9c06a85b13f37d8a47d
Reciphers for ciphertext: 0
Decipheredtext:           00000000000000000000000000000000
RESULT CIPHER-DECIPHER: -----OK-----


Test: 85
Hash algorithm:       5
Sector size in bytes: 8192
Data unit:   0
Start block: 0
Symmetric key bit length: 384
Plaintext bit length:     128
Symmetric key:            000000000000000000000000000000000000000000000000000000000000000000000000000000000000040000000000
Plaintext:                00000000000000000000000000000000
Ciphertext:               7db39c31931bb2fc23635423413d3987bc4735693ee14d2e6765c8c8ce1a73907e910bcc814b7536025644e8
Reciphers for ciphertext: 0
Decipheredtext:           00000000000000000000000000000000
RESULT CIPHER-DECIPHER: -----OK-----


Test: 86
Hash algorithm:       6
Sector size in bytes: 8192
Data unit:   0
Start block: 0
Symmetric key bit length: 384
Plaintext bit length:     128
Symmetric key:            000000000000000000000000000000000000000000000000000000000000000000000000000000000000020000000000
Plaintext:                00000000000000000000000000000000
Ciphertext:               540cdcf2b876be614c132328a3cbc17b9459705729526b5770af09f897b802e5ddecccca1697619206a2a7664c32cffa
Reciphers for ciphertext: 0
Decipheredtext:           00000000000000000000000000000000
RESULT CIPHER-DECIPHER: -----OK-----


Test: 87
Hash algorithm:       12
Sector size in bytes: 8192
Data unit:   0
Start block: 0
Symmetric key bit length: 384
Plaintext bit length:     128
Symmetric key:            000000000000000000000000000000000000000000000000000000000000000000000000000000000000010000000000
Plaintext:                00000000000000000000000000000000
Ciphertext:               a883b4014c66c453133bf400314fb51b99852117c2a5a5e4a43a30f4c6bb82d9
Reciphers for ciphertext: 0
Decipheredtext:           00000000000000000000000000000000
RESULT CIPHER-DECIPHER: -----OK-----


Test: 88
Hash algorithm:       6
Sector size in bytes: 8192
Data unit:   0
Start block: 0
Symmetric key bit length: 384
Plaintext bit length:     128
Symmetric key:            000000000000000000000000000000000000000000000000000000000000000000000000000000000000008000000000
Plaintext:                00000000000000000000000000000000
Ciphertext:               c195a9f8725c8cf2058d38c8a7eef0b0a2ecd7adec9f815ee81734cbaa0b1fe0ff982f5d19eba226cfd36f1a1d4fc692
Reciphers for ciphertext: 0
Decipheredtext:           00000000000000000000000000000000
RESULT CIPHER-DECIPHER: -----OK-----


Test: 89
Hash algorithm:       2
Sector size in bytes: 8192
Data unit:   0
Start block: 0
Symmetric key bit length: 384
Plaintext bit length:     128
Symmetric key:            000000000000000000000000000000000000000000000000000000000000000000000000000000000000004000000000
Plaintext:                00000000000000000000000000000000
Ciphertext:               7c54f823e61d49452bf8de26839d233eb6e727ed128046e4eb80e3642fd9aeede0c542360180837001335451e7953230
Reciphers for ciphertext: 0
Decipheredtext:           00000000000000000000000000000000
RESULT CIPHER-DECIPHER: -----OK-----


Test: 90
Hash algorithm:       5
Sector size in bytes: 12288
Data unit:   0
Start block: 0
Symmetric key bit length: 384
Plaintext bit length:     128
Symmetric key:            000000000000000000000000000000000000000000000000000000000000000000000000000000000000002000000000
Plaintext:                00000000000000000000000000000000
Ciphertext:               2667e11505a0ea2dbd00f20cb6b3dc527a3af352e05e062d5ec3234911242acf0b7ff18356e60a521c16075e
Reciphers for ciphertext: 0
Decipheredtext:           00000000000000000000000000000000
RESULT CIPHER-DECIPHER: -----OK-----


Test: 91
Hash algorithm:       10
Sector size in bytes: 12288
Data unit:   0
Start block: 0
Symmetric key bit length: 384
Plaintext bit length:     128
Symmetric key:            000000000000000000000000000000000000000000000000000000000000000000000000000000000000001000000000
Plaintext:                00000000000000000000000000000000
Ciphertext:               860fbc7c5f4a18f11625917d4a08fb0afe33beea23715d74955029199dabdaafbde878b242ee972ecf9a693da60d12dcb9506878a7afc642
Reciphers for ciphertext: 0
Decipheredtext:           00000000000000000000000000000000
RESULT CIPHER-DECIPHER: -----OK-----


Test: 92
Hash algorithm:       4
Sector size in bytes: 12288
Data unit:   0
Start block: 0
Symmetric key bit length: 384
Plaintext bit length:     128
Symmetric key:            000000000000000000000000000000000000000000000000000000000000000000000000000000000000000800000000
Plaintext:                00000000000000000000000000000000
Ciphertext:               da88b6fa51edc79314aa8ede7b9561ec4b7bdf8745e1d20b26354d4e242ba1135bd4a37cfe6f9aedf33e92cf50b9e3342c045cc40c0f2e54e4bf6012c136ca0fe7d503a7142baf4554bae475a544d5dd
Reciphers for ciphertext: 0
Decipheredtext:           00000000000000000000000000000000
RESULT CIPHER-DECIPHER: -----OK-----


Test: 93
Hash algorithm:       0
Sector size in bytes: 12288
Data unit:   0
Start block: 0
Symmetric key bit length: 384
Plaintext bit length:     128
Symmetric key:            000000000000000000000000000000000000000000000000000000000000000000000000000000000000000400000000
Plaintext:                00000000000000000000000000000000
Ciphertext:               09a400761c33879815cd12e98574d8ef24b49b5038bf6447089a42985197fdbfeeb5f094
Reciphers for ciphertext: 0
Decipheredtext:           00000000000000000000000000000000
RESULT CIPHER-DECIPHER: -----OK-----


Test: 94
Hash algorithm:       1
Sector size in bytes: 12288
Data unit:   0
Start block: 0
Symmetric key bit length: 384
Plaintext bit length:     128
Symmetric key:            000000000000000000000000000000000000000000000000000000000000000000000000000000000000000200000000
Plaintext:                00000000000000000000000000000000
Ciphertext:               4693be477f26a51dd63e3d2c9b9659a199c38e74f6d892f3859265e46d9cc33d10716b051ab132d17fc8773c
Reciphers for ciphertext: 0
Decipheredtext:           00000000000000000000000000000000
RESULT CIPHER-DECIPHER: -----OK-----


Test: 95
Hash algorithm:       1
Sector size in bytes: 12288
Data unit:   0
Start block: 0
Symmetric key bit length: 384
Plaintext bit length:     128
Symmetric key:            000000000000000000000000000000000000000000000000000000000000000000000000000000000000000100000000
Plaintext:                00000000000000000000000000000000
Ciphertext:               cafc8acd60482e68c191a10868ccc2bc21c01dfc9c156ef7ba39883960001a40173db353b99638c9a70ad7c8
Reciphers for ciphertext: 0
Decipheredtext:           00000000000000000000000000000000
RESULT CIPHER-DECIPHER: -----OK-----


Test: 96
Hash algorithm:       1
Sector size in bytes: 12288
Data unit:   0
Start block: 0
Symmetric key bit length: 384
Plaintext bit length:     128
Symmetric key:            000000000000000000000000000000000000000000000000000000000000000000000000000000000000000080000000
Plaintext:                00000000000000000000000000000000
Ciphertext:               1f792f8b28b0de8e8f46a4f666ea5a87ca2c7c4034a7b9114f5a65f76aa6507ff8b5dc4cbda3bfccd0c2aa51
Reciphers for ciphertext: 0
Decipheredtext:           00000000000000000000000000000000
RESULT CIPHER-DECIPHER: -----OK-----


Test: 97
Hash algorithm:       6
Sector size in bytes: 12288
Data unit:   0
Start block: 0
Symmetric key bit length: 384
Plaintext bit length:     128
Symmetric key:            000000000000000000000000000000000000000000000000000000000000000000000000000000000000000040000000
Plaintext:                00000000000000000000000000000000
Ciphertext:               2cbdc2b439013b01aaadb9c5274246022da72f7329e024cff2d649c8204674d8dc1001400c665b127c5a714a8b2f2592
Reciphers for ciphertext: 0
Decipheredtext:           00000000000000000000000000000000
RESULT CIPHER-DECIPHER: -----OK-----


Test: 98
Hash algorithm:       13
Sector size in bytes: 12288
Data unit:   0
Start block: 0
Symmetric key bit length: 384
Plaintext bit length:     128
Symmetric key:            000000000000000000000000000000000000000000000000000000000000000000000000000000000000000020000000
Plaintext:                00000000000000000000000000000000
Ciphertext:               d2bd4b6c2f69d147751db2a733e6323d33b0844a8ec5bc64fe871975fdcad6c6
Reciphers for ciphertext: 0
Decipheredtext:           00000000000000000000000000000000
RESULT CIPHER-DECIPHER: -----OK-----


Test: 99
Hash algorithm:       8
Sector size in bytes: 12288
Data unit:   0
Start block: 0
Symmetric key bit length: 384
Plaintext bit length:     128
Symmetric key:            000000000000000000000000000000000000000000000000000000000000000000000000000000000000000010000000
Plaintext:                00000000000000000000000000000000
Ciphertext:               e05ab84795c1d4d91091bc59f54b9d594224f785b0ff448934e575b2efe32e6e73fbaf28
Reciphers for ciphertext: 0
Decipheredtext:           00000000000000000000000000000000
RESULT CIPHER-DECIPHER: -----OK-----


Test: 100
Hash algorithm:       11
Sector size in bytes: 16384
Data unit:   0
Start block: 0
Symmetric key bit length: 384
Plaintext bit length:     128
Symmetric key:            000000000000000000000000000000000000000000000000000000000000000000000000000000000000000008000000
Plaintext:                00000000000000000000000000000000
Ciphertext:               27a91ac3bf8b08cfd6d734d3bf5f8e58f361d71c610bf8c97979943da2d28a82
Reciphers for ciphertext: 0
Decipheredtext:           00000000000000000000000000000000
RESULT CIPHER-DECIPHER: -----OK-----


Test: 101
Hash algorithm:       11
Sector size in bytes: 16384
Data unit:   0
Start block: 0
Symmetric key bit length: 384
Plaintext bit length:     128
Symmetric key:            000000000000000000000000000000000000000000000000000000000000000000000000000000000000000004000000
Plaintext:                00000000000000000000000000000000
Ciphertext:               0dabd422f42419b690d57957d164ab1fa84c77ad5650b9d506f1dfeb978837e0
Reciphers for ciphertext: 0
Decipheredtext:           00000000000000000000000000000000
RESULT CIPHER-DECIPHER: -----OK-----


Test: 102
Hash algorithm:       6
Sector size in bytes: 16384
Data unit:   0
Start block: 0
Symmetric key bit length: 384
Plaintext bit length:     128
Symmetric key:            000000000000000000000000000000000000000000000000000000000000000000000000000000000000000002000000
Plaintext:                00000000000000000000000000000000
Ciphertext:               a7afba36a3375aa0ae36d7f7d3a9221d4fac609667f1c86f8ce06f89730aca8cc9f13eac1a7bb1c9d708c0d25c079391
Reciphers for ciphertext: 0
Decipheredtext:           00000000000000000000000000000000
RESULT CIPHER-DECIPHER: -----OK-----


Test: 103
Hash algorithm:       2
Sector size in bytes: 16384
Data unit:   0
Start block: 0
Symmetric key bit length: 384
Plaintext bit length:     128
Symmetric key:            000000000000000000000000000000000000000000000000000000000000000000000000000000000000000001000000
Plaintext:                00000000000000000000000000000000
Ciphertext:               9105558844d36ec2bd15afc2c42bd8af56f6da1216048b915ad5b072521d3f02f9af0274aad0c63dac9266a9db20bc9a
Reciphers for ciphertext: 0
Decipheredtext:           00000000000000000000000000000000
RESULT CIPHER-DECIPHER: -----OK-----


Test: 104
Hash algorithm:       5
Sector size in bytes: 16384
Data unit:   0
Start block: 0
Symmetric key bit length: 384
Plaintext bit length:     128
Symmetric key:            000000000000000000000000000000000000000000000000000000000000000000000000000000000000000000800000
Plaintext:                00000000000000000000000000000000
Ciphertext:               c46a615791cdb123c727748428a2606d3c97715f833637b83d1de3ae418eb121c69beecd936320122c3467bc
Reciphers for ciphertext: 0
Decipheredtext:           00000000000000000000000000000000
RESULT CIPHER-DECIPHER: -----OK-----


Test: 105
Hash algorithm:       11
Sector size in bytes: 16384
Data unit:   0
Start block: 0
Symmetric key bit length: 384
Plaintext bit length:     128
Symmetric key:            000000000000000000000000000000000000000000000000000000000000000000000000000000000000000000400000
Plaintext:                00000000000000000000000000000000
Ciphertext:               04dff86621bc3863810c36b5be0b3a27556b799eefcc220cf123de097895ee4a
Reciphers for ciphertext: 0
Decipheredtext:           00000000000000000000000000000000
RESULT CIPHER-DECIPHER: -----OK-----


Test: 106
Hash algorithm:       3
Sector size in bytes: 16384
Data unit:   0
Start block: 0
Symmetric key bit length: 384
Plaintext bit length:     128
Symmetric key:            000000000000000000000000000000000000000000000000000000000000000000000000000000000000000000200000
Plaintext:                00000000000000000000000000000000
Ciphertext:               893ecb9783e76af706564372659124d139e9f13cf119286e68aea57076cd3689fcb8b92fabc5d2191f828bc9a69587ca51d463f845cd17d7759ce49edbe5fb11
Reciphers for ciphertext: 0
Decipheredtext:           00000000000000000000000000000000
RESULT CIPHER-DECIPHER: -----OK-----


Test: 107
Hash algorithm:       2
Sector size in bytes: 16384
Data unit:   0
Start block: 0
Symmetric key bit length: 384
Plaintext bit length:     128
Symmetric key:            000000000000000000000000000000000000000000000000000000000000000000000000000000000000000000100000
Plaintext:                00000000000000000000000000000000
Ciphertext:               4e302d0887478d12a8d1eefe77d66985086e799cc4f915ada070ef3706a80e3311c79fb5cf0a92fb2b167c1b66efc93c
Reciphers for ciphertext: 0
Decipheredtext:           00000000000000000000000000000000
RESULT CIPHER-DECIPHER: -----OK-----


Test: 108
Hash algorithm:       2
Sector size in bytes: 16384
Data unit:   0
Start block: 0
Symmetric key bit length: 384
Plaintext bit length:     128
Symmetric key:            000000000000000000000000000000000000000000000000000000000000000000000000000000000000000000080000
Plaintext:                00000000000000000000000000000000
Ciphertext:               55223275ca7d6a6f7bad241622011f099c44012a856cd0695a7b443399387d0fb226bc5e0f0763f785f675ee7804f58a
Reciphers for ciphertext: 0
Decipheredtext:           00000000000000000000000000000000
RESULT CIPHER-DECIPHER: -----OK-----


Test: 109
Hash algorithm:       8
Sector size in bytes: 16384
Data unit:   0
Start block: 0
Symmetric key bit length: 384
Plaintext bit length:     128
Symmetric key:            000000000000000000000000000000000000000000000000000000000000000000000000000000000000000000040000
Plaintext:                00000000000000000000000000000000
Ciphertext:               7871dca56cc2e76d2f79a973f275adef65e869795d3f4b3ea4c465a987ad3f857d4e0efd
Reciphers for ciphertext: 0
Decipheredtext:           00000000000000000000000000000000
RESULT CIPHER-DECIPHER: -----OK-----


Test: 110
Hash algorithm:       12
Sector size in bytes: 24576
Data unit:   0
Start block: 0
Symmetric key bit length: 384
Plaintext bit length:     128
Symmetric key:            000000000000000000000000000000000000000000000000000000000000000000000000000000000000000000020000
Plaintext:                00000000000000000000000000000000
Ciphertext:               2a71c914f649962eccf07294c3704fed78b9246bea8c7ed14d50d167213fbe25
Reciphers for ciphertext: 0
Decipheredtext:           00000000000000000000000000000000
RESULT CIPHER-DECIPHER: -----OK-----


Test: 111
Hash algorithm:       10
Sector size in bytes: 24576
Data unit:   0
Start block: 0
Symmetric key bit length: 384
Plaintext bit length:     128
Symmetric key:            000000000000000000000000000000000000000000000000000000000000000000000000000000000000000000010000
Plaintext:                00000000000000000000000000000000
Ciphertext:               e27e9a56db45706a302a7df9fbac06e272e15b5c6997a3d5cd8c4ec3e609b427879a7741cb41c1c3f8154a9419fe702040432846c18b9574
Reciphers for ciphertext: 0
Decipheredtext:           00000000000000000000000000000000
RESULT CIPHER-DECIPHER: -----OK-----


Test: 112
Hash algorithm:       2
Sector size in bytes: 24576
Data unit:   0
Start block: 0
Symmetric key bit length: 384
Plaintext bit length:     128
Symmetric key:            000000000000000000000000000000000000000000000000000000000000000000000000000000000000000000008000
Plaintext:                00000000000000000000000000000000
Ciphertext:               c9a1a33db3b96f65aaa1d786c856482d870056b21cb29fe14cb8cea5e657ac212f87f4b4fcacf27801b5e15f906b2ef7
Reciphers for ciphertext: 0
Decipheredtext:           00000000000000000000000000000000
RESULT CIPHER-DECIPHER: -----OK-----


Test: 113
Hash algorithm:       11
Sector size in bytes: 24576
Data unit:   0
Start block: 0
Symmetric key bit length: 384
Plaintext bit length:     128
Symmetric key:            000000000000000000000000000000000000000000000000000000000000000000000000000000000000000000004000
Plaintext:                00000000000000000000000000000000
Ciphertext:               f0d06574b9ba1a6c33434bdb14a9935fc14cfbef84ad74217c15b2c5b78d54f0
Reciphers for ciphertext: 0
Decipheredtext:           00000000000000000000000000000000
RESULT CIPHER-DECIPHER: -----OK-----


Test: 114
Hash algorithm:       13
Sector size in bytes: 24576
Data unit:   0
Start block: 0
Symmetric key bit length: 384
Plaintext bit length:     128
Symmetric key:            000000000000000000000000000000000000000000000000000000000000000000000000000000000000000000002000
Plaintext:                00000000000000000000000000000000
Ciphertext:               eb6b0d82589e8c0152d1e2bc2ef6c58e9d6fb5a3542198a12144d959513f27d6
Reciphers for ciphertext: 0
Decipheredtext:           00000000000000000000000000000000
RESULT CIPHER-DECIPHER: -----OK-----


Test: 115
Hash algorithm:       2
Sector size in bytes: 24576
Data unit:   0
Start block: 0
Symmetric key bit length: 384
Plaintext bit length:     128
Symmetric key:            000000000000000000000000000000000000000000000000000000000000000000000000000000000000000000001000
Plaintext:                00000000000000000000000000000000
Ciphertext:               cb28f1a0aa228c38f8ed5935617cfc2cb3c9ed8fb743e2e3e746749b54f3cdff58e3a095cf2916c17dd6ccf3e59a8c0f
Reciphers for ciphertext: 0
Decipheredtext:           00000000000000000000000000000000
RESULT CIPHER-DECIPHER: -----OK-----


Test: 116
Hash algorithm:       12
Sector size in bytes: 24576
Data unit:   0
Start block: 0
Symmetric key bit length: 384
Plaintext bit length:     128
Symmetric key:            000000000000000000000000000000000000000000000000000000000000000000000000000000000000000000000800
Plaintext:                00000000000000000000000000000000
Ciphertext:               d62cacb5e30bdfa3494a826593e33baa1acb48444cbfaeb7fe561d7b1d04f466
Reciphers for ciphertext: 0
Decipheredtext:           00000000000000000000000000000000
RESULT CIPHER-DECIPHER: -----OK-----


Test: 117
Hash algorithm:       12
Sector size in bytes: 24576
Data unit:   0
Start block: 0
Symmetric key bit length: 384
Plaintext bit length:     128
Symmetric key:            000000000000000000000000000000000000000000000000000000000000000000000000000000000000000000000400
Plaintext:                00000000000000000000000000000000
Ciphertext:               922ee18696157b6a5e3ea1bb12d77855ef6131e7b2f8473fef41b0e234ceef75
Reciphers for ciphertext: 0
Decipheredtext:           00000000000000000000000000000000
RESULT CIPHER-DECIPHER: -----OK-----


Test: 118
Hash algorithm:       0
Sector size in bytes: 24576
Data unit:   0
Start block: 0
Symmetric key bit length: 384
Plaintext bit length:     128
Symmetric key:            000000000000000000000000000000000000000000000000000000000000000000000000000000000000000000000200
Plaintext:                00000000000000000000000000000000
Ciphertext:               0c31797e9ca9b495a33a60c156bd7ff846df9c2120bcce3478d1ff617a7b7d31c192db1d
Reciphers for ciphertext: 0
Decipheredtext:           00000000000000000000000000000000
RESULT CIPHER-DECIPHER: -----OK-----


Test: 119
Hash algorithm:       4
Sector size in bytes: 24576
Data unit:   0
Start block: 0
Symmetric key bit length: 384
Plaintext bit length:     128
Symmetric key:            000000000000000000000000000000000000000000000000000000000000000000000000000000000000000000000100
Plaintext:                00000000000000000000000000000000
Ciphertext:               e542bc345935a3931dc4f91aa01695769fa693a575c5c55c17deccd5a1c7484f8b174f87b754717db15466665368db6c2c162ab75dccad28b2b7adfc4adfe5c3d0a1be48c5c885fd8c45a16f93c41578
Reciphers for ciphertext: 0
Decipheredtext:           00000000000000000000000000000000
RESULT CIPHER-DECIPHER: -----OK-----


Test: 120
Hash algorithm:       13
Sector size in bytes: 32768
Data unit:   0
Start block: 0
Symmetric key bit length: 384
Plaintext bit length:     128
Symmetric key:            000000000000000000000000000000000000000000000000000000000000000000000000000000000000000000000080
Plaintext:                00000000000000000000000000000000
Ciphertext:               c6ad868eb9ad613f2d5280a863442d60b860a6966a52a38154494ce3e51a26bc
Reciphers for ciphertext: 0
Decipheredtext:           00000000000000000000000000000000
RESULT CIPHER-DECIPHER: -----OK-----


Test: 121
Hash algorithm:       12
Sector size in bytes: 32768
Data unit:   0
Start block: 0
Symmetric key bit length: 384
Plaintext bit length:     128
Symmetric key:            000000000000000000000000000000000000000000000000000000000000000000000000000000000000000000000040
Plaintext:                00000000000000000000000000000000
Ciphertext:               45bb5d31c3a68230258128db66b7fcf017f5ec54d4b1ad8546b771a26591d817
Reciphers for ciphertext: 0
Decipheredtext:           00000000000000000000000000000000
RESULT CIPHER-DECIPHER: -----OK-----


Test: 122
Hash algorithm:       3
Sector size in bytes: 32768
Data unit:   0
Start block: 0
Symmetric key bit length: 384
Plaintext bit length:     128
Symmetric key:            000000000000000000000000000000000000000000000000000000000000000000000000000000000000000000000020
Plaintext:                00000000000000000000000000000000
Ciphertext:               413cefd084112d1ebdba6fe1f5d8446f68d35c35bf102dcd5430cc68d520428c7e58eec5339d524425deaf90f1a9666b51bfef7cd6e8c0f3dc3aa642fca7b650
Reciphers for ciphertext: 0
Decipheredtext:           00000000000000000000000000000000
RESULT CIPHER-DECIPHER: -----OK-----


Test: 123
Hash algorithm:       10
Sector size in bytes: 32768
Data unit:   0
Start block: 0
Symmetric key bit length: 384
Plaintext bit length:     128
Symmetric key:            000000000000000000000000000000000000000000000000000000000000000000000000000000000000000000000010
Plaintext:                00000000000000000000000000000000
Ciphertext:               9506080fd6aa0048b457be231d5c84f47771d44204ff4538d5b2cd0cfdc47537baab586ae0efd9f82b8f6f173d16acd9e0bafb009b709d7e
Reciphers for ciphertext: 0
Decipheredtext:           00000000000000000000000000000000
RESULT CIPHER-DECIPHER: -----OK-----


Test: 124
Hash algorithm:       11
Sector size in bytes: 32768
Data unit:   0
Start block: 0
Symmetric key bit length: 384
Plaintext bit length:     128
Symmetric key:            000000000000000000000000000000000000000000000000000000000000000000000000000000000000000000000008
Plaintext:                00000000000000000000000000000000
Ciphertext:               c501391c94546d7b009af5c86bfe71eb20d552648d84e6fec10551c51af2f0f4
Reciphers for ciphertext: 0
Decipheredtext:           00000000000000000000000000000000
RESULT CIPHER-DECIPHER: -----OK-----


Test: 125
Hash algorithm:       11
Sector size in bytes: 32768
Data unit:   0
Start block: 0
Symmetric key bit length: 384
Plaintext bit length:     128
Symmetric key:            000000000000000000000000000000000000000000000000000000000000000000000000000000000000000000000004
Plaintext:                00000000000000000000000000000000
Ciphertext:               b8fc8b7be325ad5cca88b7873fd284704d88d7367d9a1be8bc693b2302813115
Reciphers for ciphertext: 0
Decipheredtext:           00000000000000000000000000000000
RESULT CIPHER-DECIPHER: -----OK-----


Test: 126
Hash algorithm:       6
Sector size in bytes: 32768
Data unit:   0
Start block: 0
Symmetric key bit length: 384
Plaintext bit length:     128
Symmetric key:            000000000000000000000000000000000000000000000000000000000000000000000000000000000000000000000002
Plaintext:                00000000000000000000000000000000
Ciphertext:               bea62be36e5208bcf996235608b2656bd0e3020f6a73acb22819251bdc373ff52d86da3bfffb9c4799fcedb5a27ece27
Reciphers for ciphertext: 0
Decipheredtext:           00000000000000000000000000000000
RESULT CIPHER-DECIPHER: -----OK-----


Test: 127
Hash algorithm:       6
Sector size in bytes: 32768
Data unit:   0
Start block: 0
Symmetric key bit length: 384
Plaintext bit length:     128
Symmetric key:            000000000000000000000000000000000000000000000000000000000000000000000000000000000000000000000001
Plaintext:                00000000000000000000000000000000
Ciphertext:               1c3ff25dd363f224bb9741b7ffe57cbe231508ea96e98ea61d4e47722f46ad067a229348999307b695da560c7a160745
Reciphers for ciphertext: 0
Decipheredtext:           00000000000000000000000000000000
RESULT CIPHER-DECIPHER: -----OK-----


 DATA SHA1 (hexadecimal): 3a5c57a89ab0a1f2f81a32db99e9a512c7401af5

