
DiceLock 9.0.0.1

 TEST COMPONENTS:
 ----------------
 DiceLock:           DiceLockXTSDigested class
                     Operating over full text length
 Operation Mode:     XTS_Mode class
 Block Cipher:       AES128 class
 Hash algorithms:     0 - Sha1 class
                      1 - Sha224 class
                      2 - Sha256 class
                      3 - Sha384 class
                      4 - Sha512 class
                      5 - Sha512_224 class
                      6 - Sha512_256 class
                      7 - Ripemd128 class
                      8 - Ripemd160 class
                      9 - Ripemd256 class
                     10 - Ripemd320 class
                     11 - MD2 class
                     12 - MD4 class
                     13 - MD5 class
 Key Modifier:       DecreaseKeyModifier_6_0_0_1 class
 Random tests:       RandomTestSuite class
                     FrequencyTest class
                     BlockFrequencyTest class
                     CumulativeSumForwardTest class
                     LongestRunOfOnesTest class
                     RunsTest class
 Random alpha:       0.001

 VECTOR TEST: Test vector 6 - Plaintext lengths from 1 byte to 16 bytes with byte value 0xYY and symmetric key all byte value 0x00


##### INDIVIDUAL TESTS #####

Number tests: 128


Test: 0
Hash algorithm: 6
Data unit:      0
Start block:    1
Symmetric key bit length: 256
Plaintext bit length:     8
Symmetric key:            0000000000000000000000000000000000000000000000000000000000000000
Plaintext:                00
Ciphertext:               9f8d39556fdc8f22782c69fd953ebd7ade4e2008a8170a44137a07b10fdd673fd7
Reciphers for ciphertext: 0
Decipheredtext:           00
RESULT CIPHER-DECIPHER: -----OK-----


Test: 1
Hash algorithm: 10
Data unit:      1
Start block:    3
Symmetric key bit length: 256
Plaintext bit length:     8
Symmetric key:            0000000000000000000000000000000000000000000000000000000000000000
Plaintext:                01
Ciphertext:               c0d4b1b58ea02c78dc273788bc33a86297de399b1142f7782a1b98a5b87dae8175bd644143197c81d0
Reciphers for ciphertext: 0
Decipheredtext:           01
RESULT CIPHER-DECIPHER: -----OK-----


Test: 2
Hash algorithm: 6
Data unit:      2
Start block:    5
Symmetric key bit length: 256
Plaintext bit length:     8
Symmetric key:            0000000000000000000000000000000000000000000000000000000000000000
Plaintext:                02
Ciphertext:               84d205f188abb822bd1cacd429c971038f1ef3c24dc24ac676f3cee0d9db5ed705
Reciphers for ciphertext: 0
Decipheredtext:           02
RESULT CIPHER-DECIPHER: -----OK-----


Test: 3
Hash algorithm: 0
Data unit:      3
Start block:    7
Symmetric key bit length: 256
Plaintext bit length:     8
Symmetric key:            0000000000000000000000000000000000000000000000000000000000000000
Plaintext:                03
Ciphertext:               e156f08fa9a5dbb3e383dbf46e57fb714e27da2bff
Reciphers for ciphertext: 0
Decipheredtext:           03
RESULT CIPHER-DECIPHER: -----OK-----


Test: 4
Hash algorithm: 0
Data unit:      4
Start block:    9
Symmetric key bit length: 256
Plaintext bit length:     8
Symmetric key:            0000000000000000000000000000000000000000000000000000000000000000
Plaintext:                04
Ciphertext:               21a03943b02b6b40d2447f42b02fc1266d98bbfb81
Reciphers for ciphertext: 0
Decipheredtext:           04
RESULT CIPHER-DECIPHER: -----OK-----


Test: 5
Hash algorithm: 3
Data unit:      5
Start block:    11
Symmetric key bit length: 256
Plaintext bit length:     8
Symmetric key:            0000000000000000000000000000000000000000000000000000000000000000
Plaintext:                05
Ciphertext:               32ab031543e55207b18f791de6d3a5b28d41adbc29ac5ea30af8379bb4e21bf88efeedf9efeb10ada9d7387e200bc1bb1e
Reciphers for ciphertext: 0
Decipheredtext:           05
RESULT CIPHER-DECIPHER: -----OK-----


Test: 6
Hash algorithm: 11
Data unit:      6
Start block:    13
Symmetric key bit length: 256
Plaintext bit length:     8
Symmetric key:            0000000000000000000000000000000000000000000000000000000000000000
Plaintext:                06
Ciphertext:               c99ee2d9c58f4efb8db849d3a5649e4d57
Reciphers for ciphertext: 0
Decipheredtext:           06
RESULT CIPHER-DECIPHER: -----OK-----


Test: 7
Hash algorithm: 4
Data unit:      7
Start block:    15
Symmetric key bit length: 256
Plaintext bit length:     8
Symmetric key:            0000000000000000000000000000000000000000000000000000000000000000
Plaintext:                07
Ciphertext:               7aa39878f49d864ee21611760b75195f891be8e24162ce454645154a269829b5de05d60ac5341289e6fd2cf0c879bd2f4d1b74da863e6cd9f0b9e41cb0456e0495
Reciphers for ciphertext: 0
Decipheredtext:           07
RESULT CIPHER-DECIPHER: -----OK-----


Test: 8
Hash algorithm: 11
Data unit:      8
Start block:    17
Symmetric key bit length: 256
Plaintext bit length:     16
Symmetric key:            0000000000000000000000000000000000000000000000000000000000000000
Plaintext:                0808
Ciphertext:               98b2fe6ca1cf11e13e962db283e4d662cbcc
Reciphers for ciphertext: 0
Decipheredtext:           0808
RESULT CIPHER-DECIPHER: -----OK-----


Test: 9
Hash algorithm: 11
Data unit:      9
Start block:    19
Symmetric key bit length: 256
Plaintext bit length:     16
Symmetric key:            0000000000000000000000000000000000000000000000000000000000000000
Plaintext:                0909
Ciphertext:               af9735fead3d59e7fa3e2dbe2f2d4c16fb80
Reciphers for ciphertext: 0
Decipheredtext:           0909
RESULT CIPHER-DECIPHER: -----OK-----


Test: 10
Hash algorithm: 1
Data unit:      10
Start block:    21
Symmetric key bit length: 256
Plaintext bit length:     16
Symmetric key:            0000000000000000000000000000000000000000000000000000000000000000
Plaintext:                0a0a
Ciphertext:               1bf8beadf635db2124b2a295c734d03a99fb31708fd3c69196873bc6ebdf
Reciphers for ciphertext: 0
Decipheredtext:           0a0a
RESULT CIPHER-DECIPHER: -----OK-----


Test: 11
Hash algorithm: 8
Data unit:      11
Start block:    23
Symmetric key bit length: 256
Plaintext bit length:     16
Symmetric key:            0000000000000000000000000000000000000000000000000000000000000000
Plaintext:                0b0b
Ciphertext:               3623193b3c03ac8cbd7c5fd92238b41324d18fd7e6ff
Reciphers for ciphertext: 0
Decipheredtext:           0b0b
RESULT CIPHER-DECIPHER: -----OK-----


Test: 12
Hash algorithm: 13
Data unit:      12
Start block:    25
Symmetric key bit length: 256
Plaintext bit length:     16
Symmetric key:            0000000000000000000000000000000000000000000000000000000000000000
Plaintext:                0c0c
Ciphertext:               aaadf37daef4fb010a765ec03744eb9c3d01
Reciphers for ciphertext: 0
Decipheredtext:           0c0c
RESULT CIPHER-DECIPHER: -----OK-----


Test: 13
Hash algorithm: 5
Data unit:      13
Start block:    27
Symmetric key bit length: 256
Plaintext bit length:     16
Symmetric key:            0000000000000000000000000000000000000000000000000000000000000000
Plaintext:                0d0d
Ciphertext:               b0ac8116999719d4fd911061e53d830a517ff3a94e24057d519aef5f6a63
Reciphers for ciphertext: 0
Decipheredtext:           0d0d
RESULT CIPHER-DECIPHER: -----OK-----


Test: 14
Hash algorithm: 9
Data unit:      14
Start block:    29
Symmetric key bit length: 256
Plaintext bit length:     16
Symmetric key:            0000000000000000000000000000000000000000000000000000000000000000
Plaintext:                0e0e
Ciphertext:               c7c84ea5dfe4619b8ed8675e3ad9863005b62c929d83084f1f795b194e3b05bd5d2c
Reciphers for ciphertext: 0
Decipheredtext:           0e0e
RESULT CIPHER-DECIPHER: -----OK-----


Test: 15
Hash algorithm: 8
Data unit:      15
Start block:    31
Symmetric key bit length: 256
Plaintext bit length:     16
Symmetric key:            0000000000000000000000000000000000000000000000000000000000000000
Plaintext:                0f0f
Ciphertext:               469a7ab3469ea5f599292e4e57697f8d227f599938c3
Reciphers for ciphertext: 0
Decipheredtext:           0f0f
RESULT CIPHER-DECIPHER: -----OK-----


Test: 16
Hash algorithm: 7
Data unit:      16
Start block:    33
Symmetric key bit length: 256
Plaintext bit length:     24
Symmetric key:            0000000000000000000000000000000000000000000000000000000000000000
Plaintext:                101010
Ciphertext:               d279514bdcdd0ca1b0631e81ce727c61b5d42a
Reciphers for ciphertext: 0
Decipheredtext:           101010
RESULT CIPHER-DECIPHER: -----OK-----


Test: 17
Hash algorithm: 10
Data unit:      17
Start block:    35
Symmetric key bit length: 256
Plaintext bit length:     24
Symmetric key:            0000000000000000000000000000000000000000000000000000000000000000
Plaintext:                111111
Ciphertext:               b30f5495bb3e6227e83c62cb8ef9a5194fcb13b8fbd3bfee4b01c1db45432b2f24419aecd2c630bd4ea6cf
Reciphers for ciphertext: 0
Decipheredtext:           111111
RESULT CIPHER-DECIPHER: -----OK-----


Test: 18
Hash algorithm: 6
Data unit:      18
Start block:    37
Symmetric key bit length: 256
Plaintext bit length:     24
Symmetric key:            0000000000000000000000000000000000000000000000000000000000000000
Plaintext:                121212
Ciphertext:               9bda92d9f83418e2067ab2a53c4dd2af58be5f798ea94e388fc6da1190c8dab4513917
Reciphers for ciphertext: 0
Decipheredtext:           121212
RESULT CIPHER-DECIPHER: -----OK-----


Test: 19
Hash algorithm: 5
Data unit:      19
Start block:    39
Symmetric key bit length: 256
Plaintext bit length:     24
Symmetric key:            0000000000000000000000000000000000000000000000000000000000000000
Plaintext:                131313
Ciphertext:               e1669a8da014d3095b2af3e1f36a1c881ed5257eb14ab764ee4b5260975922
Reciphers for ciphertext: 0
Decipheredtext:           131313
RESULT CIPHER-DECIPHER: -----OK-----


Test: 20
Hash algorithm: 12
Data unit:      20
Start block:    41
Symmetric key bit length: 256
Plaintext bit length:     24
Symmetric key:            0000000000000000000000000000000000000000000000000000000000000000
Plaintext:                141414
Ciphertext:               d32e2eabf011d2ccfa98e9556f44dc3bccd77b
Reciphers for ciphertext: 0
Decipheredtext:           141414
RESULT CIPHER-DECIPHER: -----OK-----


Test: 21
Hash algorithm: 1
Data unit:      21
Start block:    43
Symmetric key bit length: 256
Plaintext bit length:     24
Symmetric key:            0000000000000000000000000000000000000000000000000000000000000000
Plaintext:                151515
Ciphertext:               a1e7c918ab4db2c2e1e9d6c33fff425a8c549de179b54fda2b173f350d7e7e
Reciphers for ciphertext: 0
Decipheredtext:           151515
RESULT CIPHER-DECIPHER: -----OK-----


Test: 22
Hash algorithm: 4
Data unit:      22
Start block:    45
Symmetric key bit length: 256
Plaintext bit length:     24
Symmetric key:            0000000000000000000000000000000000000000000000000000000000000000
Plaintext:                161616
Ciphertext:               2b5ea67d50078fb2b34c3e8ea4bb4e2ba3b38027dfea85c479087e2dbdb02db5ff619d66790552d4a0062d505f5a27e43e41e2857775d18c51167c4aaf8d72c21c0940
Reciphers for ciphertext: 0
Decipheredtext:           161616
RESULT CIPHER-DECIPHER: -----OK-----


Test: 23
Hash algorithm: 8
Data unit:      23
Start block:    47
Symmetric key bit length: 256
Plaintext bit length:     24
Symmetric key:            0000000000000000000000000000000000000000000000000000000000000000
Plaintext:                171717
Ciphertext:               8a2446a4829e035ec83a33c3e237b65d2bfef2a558722d
Reciphers for ciphertext: 0
Decipheredtext:           171717
RESULT CIPHER-DECIPHER: -----OK-----


Test: 24
Hash algorithm: 0
Data unit:      24
Start block:    49
Symmetric key bit length: 256
Plaintext bit length:     32
Symmetric key:            0000000000000000000000000000000000000000000000000000000000000000
Plaintext:                18181818
Ciphertext:               a508058014168622320cda39c4c523999e0cfb0991d13a5c
Reciphers for ciphertext: 0
Decipheredtext:           18181818
RESULT CIPHER-DECIPHER: -----OK-----


Test: 25
Hash algorithm: 3
Data unit:      25
Start block:    51
Symmetric key bit length: 256
Plaintext bit length:     32
Symmetric key:            0000000000000000000000000000000000000000000000000000000000000000
Plaintext:                19191919
Ciphertext:               449b2339d97880c4f25feed95d4a01834f26f5b27caaf2e0860063d32c764f69871a7dc03ddb2b5878335cce0d5c23eb5ab3ce19
Reciphers for ciphertext: 0
Decipheredtext:           19191919
RESULT CIPHER-DECIPHER: -----OK-----


Test: 26
Hash algorithm: 3
Data unit:      26
Start block:    53
Symmetric key bit length: 256
Plaintext bit length:     32
Symmetric key:            0000000000000000000000000000000000000000000000000000000000000000
Plaintext:                1a1a1a1a
Ciphertext:               1def3867b48ef83b607a7b2ac70dfd9d14e80dff231757b7d267596167f2dd8b912cce57bab3d9fc5837e5c666af27f0f716d024
Reciphers for ciphertext: 0
Decipheredtext:           1a1a1a1a
RESULT CIPHER-DECIPHER: -----OK-----


Test: 27
Hash algorithm: 7
Data unit:      27
Start block:    55
Symmetric key bit length: 256
Plaintext bit length:     32
Symmetric key:            0000000000000000000000000000000000000000000000000000000000000000
Plaintext:                1b1b1b1b
Ciphertext:               ae1a7fa0c6ee3b13a56fd1f5e8dcafea3a2fa0af
Reciphers for ciphertext: 0
Decipheredtext:           1b1b1b1b
RESULT CIPHER-DECIPHER: -----OK-----


Test: 28
Hash algorithm: 9
Data unit:      28
Start block:    57
Symmetric key bit length: 256
Plaintext bit length:     32
Symmetric key:            0000000000000000000000000000000000000000000000000000000000000000
Plaintext:                1c1c1c1c
Ciphertext:               803056e33028bcb116351584105eef6570babaa02c1b11a05f2f868bb2bc529e432a2ce8
Reciphers for ciphertext: 0
Decipheredtext:           1c1c1c1c
RESULT CIPHER-DECIPHER: -----OK-----


Test: 29
Hash algorithm: 0
Data unit:      29
Start block:    59
Symmetric key bit length: 256
Plaintext bit length:     32
Symmetric key:            0000000000000000000000000000000000000000000000000000000000000000
Plaintext:                1d1d1d1d
Ciphertext:               c46ad15c82b4bff904d5d19c0ac243a4ce3b0d92a6143150
Reciphers for ciphertext: 0
Decipheredtext:           1d1d1d1d
RESULT CIPHER-DECIPHER: -----OK-----


Test: 30
Hash algorithm: 2
Data unit:      30
Start block:    61
Symmetric key bit length: 256
Plaintext bit length:     32
Symmetric key:            0000000000000000000000000000000000000000000000000000000000000000
Plaintext:                1e1e1e1e
Ciphertext:               f1a5052dec49adc29456677d0f7b4c7c9baeaf0a9fa58e5fcf2573467d9207753b8658d1
Reciphers for ciphertext: 0
Decipheredtext:           1e1e1e1e
RESULT CIPHER-DECIPHER: -----OK-----


Test: 31
Hash algorithm: 0
Data unit:      31
Start block:    63
Symmetric key bit length: 256
Plaintext bit length:     32
Symmetric key:            0000000000000000000000000000000000000000000000000000000000000000
Plaintext:                1f1f1f1f
Ciphertext:               88da19f1ecb915f487be6f26ce9ff7842a54e70405a0f00c
Reciphers for ciphertext: 0
Decipheredtext:           1f1f1f1f
RESULT CIPHER-DECIPHER: -----OK-----


Test: 32
Hash algorithm: 13
Data unit:      32
Start block:    65
Symmetric key bit length: 256
Plaintext bit length:     40
Symmetric key:            0000000000000000000000000000000000000000000000000000000000000000
Plaintext:                2020202020
Ciphertext:               f6d38c04b50916a7f98eebdbcc2748863f4048b326
Reciphers for ciphertext: 0
Decipheredtext:           2020202020
RESULT CIPHER-DECIPHER: -----OK-----


Test: 33
Hash algorithm: 4
Data unit:      33
Start block:    67
Symmetric key bit length: 256
Plaintext bit length:     40
Symmetric key:            0000000000000000000000000000000000000000000000000000000000000000
Plaintext:                2121212121
Ciphertext:               d255bb48875a84ad640706e80d1d2a6b2c9f2412ba5081502a3804e2e8bdd45153ae5f81920c62834cc5ec5474bc56c4ff89c6e640214397267d763c8620ee00361590c44d
Reciphers for ciphertext: 0
Decipheredtext:           2121212121
RESULT CIPHER-DECIPHER: -----OK-----


Test: 34
Hash algorithm: 13
Data unit:      34
Start block:    69
Symmetric key bit length: 256
Plaintext bit length:     40
Symmetric key:            0000000000000000000000000000000000000000000000000000000000000000
Plaintext:                2222222222
Ciphertext:               06de4a48b2bd948ba70cb5ec0c61826043d15338da
Reciphers for ciphertext: 0
Decipheredtext:           2222222222
RESULT CIPHER-DECIPHER: -----OK-----


Test: 35
Hash algorithm: 1
Data unit:      35
Start block:    71
Symmetric key bit length: 256
Plaintext bit length:     40
Symmetric key:            0000000000000000000000000000000000000000000000000000000000000000
Plaintext:                2323232323
Ciphertext:               70d5ea87333fa02685ae0425cc3c3ef96230d4ac7395c73d3ff30a88161887c721
Reciphers for ciphertext: 0
Decipheredtext:           2323232323
RESULT CIPHER-DECIPHER: -----OK-----


Test: 36
Hash algorithm: 6
Data unit:      36
Start block:    73
Symmetric key bit length: 256
Plaintext bit length:     40
Symmetric key:            0000000000000000000000000000000000000000000000000000000000000000
Plaintext:                2424242424
Ciphertext:               1012af93ed2ff6e4e5fddd9c66545582dd099991e7d4541dbadc8fc04ff7fd1079706cef85
Reciphers for ciphertext: 0
Decipheredtext:           2424242424
RESULT CIPHER-DECIPHER: -----OK-----


Test: 37
Hash algorithm: 11
Data unit:      37
Start block:    75
Symmetric key bit length: 256
Plaintext bit length:     40
Symmetric key:            0000000000000000000000000000000000000000000000000000000000000000
Plaintext:                2525252525
Ciphertext:               5033b9c4d6cd9ba10bab86b9a22ffb2b73d24bcbb9
Reciphers for ciphertext: 0
Decipheredtext:           2525252525
RESULT CIPHER-DECIPHER: -----OK-----


Test: 38
Hash algorithm: 2
Data unit:      38
Start block:    77
Symmetric key bit length: 256
Plaintext bit length:     40
Symmetric key:            0000000000000000000000000000000000000000000000000000000000000000
Plaintext:                2626262626
Ciphertext:               fcfd9d4358a1c764df1414687b4bc97f2198713d62fa37b07b12a293bf645b09e479c9eabb
Reciphers for ciphertext: 0
Decipheredtext:           2626262626
RESULT CIPHER-DECIPHER: -----OK-----


Test: 39
Hash algorithm: 5
Data unit:      39
Start block:    79
Symmetric key bit length: 256
Plaintext bit length:     40
Symmetric key:            0000000000000000000000000000000000000000000000000000000000000000
Plaintext:                2727272727
Ciphertext:               41509dddf81e89ecdfe38065e85c938c9a58cdf384cde8caed1677d828a9637c1f
Reciphers for ciphertext: 0
Decipheredtext:           2727272727
RESULT CIPHER-DECIPHER: -----OK-----


Test: 40
Hash algorithm: 0
Data unit:      40
Start block:    81
Symmetric key bit length: 256
Plaintext bit length:     48
Symmetric key:            0000000000000000000000000000000000000000000000000000000000000000
Plaintext:                282828282828
Ciphertext:               0331fa1cf7e8c9ef7a3b8520d7dc1245a27ef9d85f601e3d9486
Reciphers for ciphertext: 0
Decipheredtext:           282828282828
RESULT CIPHER-DECIPHER: -----OK-----


Test: 41
Hash algorithm: 0
Data unit:      41
Start block:    83
Symmetric key bit length: 256
Plaintext bit length:     48
Symmetric key:            0000000000000000000000000000000000000000000000000000000000000000
Plaintext:                292929292929
Ciphertext:               e875fa7a839cf1aeba92ab98ae728e20ec09b73d811ea36c2504
Reciphers for ciphertext: 0
Decipheredtext:           292929292929
RESULT CIPHER-DECIPHER: -----OK-----


Test: 42
Hash algorithm: 9
Data unit:      42
Start block:    85
Symmetric key bit length: 256
Plaintext bit length:     48
Symmetric key:            0000000000000000000000000000000000000000000000000000000000000000
Plaintext:                2a2a2a2a2a2a
Ciphertext:               488297f36750f845057484076b6114e391372762c4c42bdd4f38668db6503ba9aa6c3880680a
Reciphers for ciphertext: 0
Decipheredtext:           2a2a2a2a2a2a
RESULT CIPHER-DECIPHER: -----OK-----


Test: 43
Hash algorithm: 9
Data unit:      43
Start block:    87
Symmetric key bit length: 256
Plaintext bit length:     48
Symmetric key:            0000000000000000000000000000000000000000000000000000000000000000
Plaintext:                2b2b2b2b2b2b
Ciphertext:               5caf302f07c8347a8051e94f052988e505c8310aaec0d5d08f5bfcd7437c0a479ac6a129e8c1
Reciphers for ciphertext: 0
Decipheredtext:           2b2b2b2b2b2b
RESULT CIPHER-DECIPHER: -----OK-----


Test: 44
Hash algorithm: 7
Data unit:      44
Start block:    89
Symmetric key bit length: 256
Plaintext bit length:     48
Symmetric key:            0000000000000000000000000000000000000000000000000000000000000000
Plaintext:                2c2c2c2c2c2c
Ciphertext:               e61d57bce236a5a9184b1f3d122c95c499a33b68dfa6
Reciphers for ciphertext: 0
Decipheredtext:           2c2c2c2c2c2c
RESULT CIPHER-DECIPHER: -----OK-----


Test: 45
Hash algorithm: 3
Data unit:      45
Start block:    91
Symmetric key bit length: 256
Plaintext bit length:     48
Symmetric key:            0000000000000000000000000000000000000000000000000000000000000000
Plaintext:                2d2d2d2d2d2d
Ciphertext:               3efbacee2162b2271c8d68d4850f4d4d2d53a08ba05f0a6be4b413ec361a63465ed447bf2d02c3bca3676ca896feaf7f8743b10ca164
Reciphers for ciphertext: 0
Decipheredtext:           2d2d2d2d2d2d
RESULT CIPHER-DECIPHER: -----OK-----


Test: 46
Hash algorithm: 8
Data unit:      46
Start block:    93
Symmetric key bit length: 256
Plaintext bit length:     48
Symmetric key:            0000000000000000000000000000000000000000000000000000000000000000
Plaintext:                2e2e2e2e2e2e
Ciphertext:               4377a3691e7a7ea41825a38f5551d7eba2e5b2883151f6e356b5
Reciphers for ciphertext: 0
Decipheredtext:           2e2e2e2e2e2e
RESULT CIPHER-DECIPHER: -----OK-----


Test: 47
Hash algorithm: 4
Data unit:      47
Start block:    95
Symmetric key bit length: 256
Plaintext bit length:     48
Symmetric key:            0000000000000000000000000000000000000000000000000000000000000000
Plaintext:                2f2f2f2f2f2f
Ciphertext:               404011167777610dc6990f9cd02fa8589e65ca13b2c9dfd2c525f37f24b8c21b6781f60b1a89b7cc9941fd333655984f53396d5976653616deb95af898254b659e7e15804d0e
Reciphers for ciphertext: 0
Decipheredtext:           2f2f2f2f2f2f
RESULT CIPHER-DECIPHER: -----OK-----


Test: 48
Hash algorithm: 7
Data unit:      48
Start block:    97
Symmetric key bit length: 256
Plaintext bit length:     56
Symmetric key:            0000000000000000000000000000000000000000000000000000000000000000
Plaintext:                30303030303030
Ciphertext:               f6b008ff65f5a04c10371653747f25acb27e8016a473a1
Reciphers for ciphertext: 0
Decipheredtext:           30303030303030
RESULT CIPHER-DECIPHER: -----OK-----


Test: 49
Hash algorithm: 12
Data unit:      49
Start block:    99
Symmetric key bit length: 256
Plaintext bit length:     56
Symmetric key:            0000000000000000000000000000000000000000000000000000000000000000
Plaintext:                31313131313131
Ciphertext:               cd06b418ff3dbcaf4983119d01920116c949b3194acd8a
Reciphers for ciphertext: 0
Decipheredtext:           31313131313131
RESULT CIPHER-DECIPHER: -----OK-----


Test: 50
Hash algorithm: 6
Data unit:      50
Start block:    101
Symmetric key bit length: 256
Plaintext bit length:     56
Symmetric key:            0000000000000000000000000000000000000000000000000000000000000000
Plaintext:                32323232323232
Ciphertext:               04e9192442af181034cdebe60906fbeb546c3fcc313bb8bd88b1522308c54071c196d4b24ce5ee
Reciphers for ciphertext: 0
Decipheredtext:           32323232323232
RESULT CIPHER-DECIPHER: -----OK-----


Test: 51
Hash algorithm: 0
Data unit:      51
Start block:    103
Symmetric key bit length: 256
Plaintext bit length:     56
Symmetric key:            0000000000000000000000000000000000000000000000000000000000000000
Plaintext:                33333333333333
Ciphertext:               d2bc583c1d5c0384f9f8f1ba7d534c79edd252f9f18de4b6bee7c0
Reciphers for ciphertext: 0
Decipheredtext:           33333333333333
RESULT CIPHER-DECIPHER: -----OK-----


Test: 52
Hash algorithm: 13
Data unit:      52
Start block:    105
Symmetric key bit length: 256
Plaintext bit length:     56
Symmetric key:            0000000000000000000000000000000000000000000000000000000000000000
Plaintext:                34343434343434
Ciphertext:               4e09f2932d9af103f2766bd279b9bddf841dea8c663bbf
Reciphers for ciphertext: 0
Decipheredtext:           34343434343434
RESULT CIPHER-DECIPHER: -----OK-----


Test: 53
Hash algorithm: 9
Data unit:      53
Start block:    107
Symmetric key bit length: 256
Plaintext bit length:     56
Symmetric key:            0000000000000000000000000000000000000000000000000000000000000000
Plaintext:                35353535353535
Ciphertext:               9247a9cb42fafc448354fef0663e1d18293acd55c8d34bb6c718d82e7e892ee9b172b08dd394e8
Reciphers for ciphertext: 0
Decipheredtext:           35353535353535
RESULT CIPHER-DECIPHER: -----OK-----


Test: 54
Hash algorithm: 7
Data unit:      54
Start block:    109
Symmetric key bit length: 256
Plaintext bit length:     56
Symmetric key:            0000000000000000000000000000000000000000000000000000000000000000
Plaintext:                36363636363636
Ciphertext:               9c38ef19648d43e29849ab58772a06894bbe110e252392
Reciphers for ciphertext: 0
Decipheredtext:           36363636363636
RESULT CIPHER-DECIPHER: -----OK-----


Test: 55
Hash algorithm: 5
Data unit:      55
Start block:    111
Symmetric key bit length: 256
Plaintext bit length:     56
Symmetric key:            0000000000000000000000000000000000000000000000000000000000000000
Plaintext:                37373737373737
Ciphertext:               fd5938dc436b507472b46724df8fdd1663b010e6902fecb7d7e7651d5d165674cbc111
Reciphers for ciphertext: 0
Decipheredtext:           37373737373737
RESULT CIPHER-DECIPHER: -----OK-----


Test: 56
Hash algorithm: 7
Data unit:      56
Start block:    113
Symmetric key bit length: 256
Plaintext bit length:     64
Symmetric key:            0000000000000000000000000000000000000000000000000000000000000000
Plaintext:                3838383838383838
Ciphertext:               b42ff787ea83b6cb2f5be133a2f14a58e2aa0f662b851909
Reciphers for ciphertext: 0
Decipheredtext:           3838383838383838
RESULT CIPHER-DECIPHER: -----OK-----


Test: 57
Hash algorithm: 9
Data unit:      57
Start block:    115
Symmetric key bit length: 256
Plaintext bit length:     64
Symmetric key:            0000000000000000000000000000000000000000000000000000000000000000
Plaintext:                3939393939393939
Ciphertext:               2bc620c2f78d0a91cbc2418f3652d0b6c84ec2db3908ab7b906ae3fbb4e261a38553bafca2d360ba
Reciphers for ciphertext: 0
Decipheredtext:           3939393939393939
RESULT CIPHER-DECIPHER: -----OK-----


Test: 58
Hash algorithm: 2
Data unit:      58
Start block:    117
Symmetric key bit length: 256
Plaintext bit length:     64
Symmetric key:            0000000000000000000000000000000000000000000000000000000000000000
Plaintext:                3a3a3a3a3a3a3a3a
Ciphertext:               40ec4add3f812cfdb32184e08ca5b7ae4ea92b96a9c3eec5b3a04a309d092b6a4118d89d341f499c
Reciphers for ciphertext: 0
Decipheredtext:           3a3a3a3a3a3a3a3a
RESULT CIPHER-DECIPHER: -----OK-----


Test: 59
Hash algorithm: 3
Data unit:      59
Start block:    119
Symmetric key bit length: 256
Plaintext bit length:     64
Symmetric key:            0000000000000000000000000000000000000000000000000000000000000000
Plaintext:                3b3b3b3b3b3b3b3b
Ciphertext:               e983862bd3d5fdb3f7d949a666903976daa58a989ed129db17b0d5abb04341341730ebf54512bbd616760e3308bc0dcf79da355265de10c9
Reciphers for ciphertext: 0
Decipheredtext:           3b3b3b3b3b3b3b3b
RESULT CIPHER-DECIPHER: -----OK-----


Test: 60
Hash algorithm: 1
Data unit:      60
Start block:    121
Symmetric key bit length: 256
Plaintext bit length:     64
Symmetric key:            0000000000000000000000000000000000000000000000000000000000000000
Plaintext:                3c3c3c3c3c3c3c3c
Ciphertext:               b2067319d2dd1bb9597a0c7bf43fce2d5a14043cb473efe88ddb820240e9caa18f52ac28
Reciphers for ciphertext: 0
Decipheredtext:           3c3c3c3c3c3c3c3c
RESULT CIPHER-DECIPHER: -----OK-----


Test: 61
Hash algorithm: 6
Data unit:      61
Start block:    123
Symmetric key bit length: 256
Plaintext bit length:     64
Symmetric key:            0000000000000000000000000000000000000000000000000000000000000000
Plaintext:                3d3d3d3d3d3d3d3d
Ciphertext:               a1a45ea784fadb0ae0dbed48ee2b04cf792422af2ad9a2ad5d1aa31ee0ba52713ee0a98b0aa4215a
Reciphers for ciphertext: 0
Decipheredtext:           3d3d3d3d3d3d3d3d
RESULT CIPHER-DECIPHER: -----OK-----


Test: 62
Hash algorithm: 2
Data unit:      62
Start block:    125
Symmetric key bit length: 256
Plaintext bit length:     64
Symmetric key:            0000000000000000000000000000000000000000000000000000000000000000
Plaintext:                3e3e3e3e3e3e3e3e
Ciphertext:               96f3465291290630f242c86b3841faf93e60a721f0ef0b56fdd489fb5aa718fda159706f548273c4
Reciphers for ciphertext: 0
Decipheredtext:           3e3e3e3e3e3e3e3e
RESULT CIPHER-DECIPHER: -----OK-----


Test: 63
Hash algorithm: 7
Data unit:      63
Start block:    127
Symmetric key bit length: 256
Plaintext bit length:     64
Symmetric key:            0000000000000000000000000000000000000000000000000000000000000000
Plaintext:                3f3f3f3f3f3f3f3f
Ciphertext:               aa548d0c9157320ed4daf8908192c354d5f65c7bf709f324
Reciphers for ciphertext: 0
Decipheredtext:           3f3f3f3f3f3f3f3f
RESULT CIPHER-DECIPHER: -----OK-----


Test: 64
Hash algorithm: 3
Data unit:      64
Start block:    129
Symmetric key bit length: 256
Plaintext bit length:     72
Symmetric key:            0000000000000000000000000000000000000000000000000000000000000000
Plaintext:                404040404040404040
Ciphertext:               490474b445ca563ce41d95ec592027aea08ebcd0fa356a70134b72229f3cf0e5fa3e7253f4e7c70514092a0fe6c724caaa2cb51678ab384f7d
Reciphers for ciphertext: 0
Decipheredtext:           404040404040404040
RESULT CIPHER-DECIPHER: -----OK-----


Test: 65
Hash algorithm: 3
Data unit:      65
Start block:    131
Symmetric key bit length: 256
Plaintext bit length:     72
Symmetric key:            0000000000000000000000000000000000000000000000000000000000000000
Plaintext:                414141414141414141
Ciphertext:               010ea2828fe43ebc6ab600a2feebca01fe4ae2d774ab9cf9ca398d83fc2cd7bfdb87f01b6ac2bdb550932b2a021795cd973867afec391619cc
Reciphers for ciphertext: 0
Decipheredtext:           414141414141414141
RESULT CIPHER-DECIPHER: -----OK-----


Test: 66
Hash algorithm: 11
Data unit:      66
Start block:    133
Symmetric key bit length: 256
Plaintext bit length:     72
Symmetric key:            0000000000000000000000000000000000000000000000000000000000000000
Plaintext:                424242424242424242
Ciphertext:               7ad81345d0134821099c7e8743783358754ca9d135c6348c3c
Reciphers for ciphertext: 0
Decipheredtext:           424242424242424242
RESULT CIPHER-DECIPHER: -----OK-----


Test: 67
Hash algorithm: 12
Data unit:      67
Start block:    135
Symmetric key bit length: 256
Plaintext bit length:     72
Symmetric key:            0000000000000000000000000000000000000000000000000000000000000000
Plaintext:                434343434343434343
Ciphertext:               69df6c0636e49012ae169c58ef0905fe09a028c736e1e8a0ca
Reciphers for ciphertext: 0
Decipheredtext:           434343434343434343
RESULT CIPHER-DECIPHER: -----OK-----


Test: 68
Hash algorithm: 11
Data unit:      68
Start block:    137
Symmetric key bit length: 256
Plaintext bit length:     72
Symmetric key:            0000000000000000000000000000000000000000000000000000000000000000
Plaintext:                444444444444444444
Ciphertext:               19c5a252e879049b983e25e9edeaad669df785cf0bde15d5ef
Reciphers for ciphertext: 0
Decipheredtext:           444444444444444444
RESULT CIPHER-DECIPHER: -----OK-----


Test: 69
Hash algorithm: 0
Data unit:      69
Start block:    139
Symmetric key bit length: 256
Plaintext bit length:     72
Symmetric key:            0000000000000000000000000000000000000000000000000000000000000000
Plaintext:                454545454545454545
Ciphertext:               171cb68ab8fd134f1dec92634c753dfe4608efb7e9a48cc1b69a08e4e9
Reciphers for ciphertext: 0
Decipheredtext:           454545454545454545
RESULT CIPHER-DECIPHER: -----OK-----


Test: 70
Hash algorithm: 13
Data unit:      70
Start block:    141
Symmetric key bit length: 256
Plaintext bit length:     72
Symmetric key:            0000000000000000000000000000000000000000000000000000000000000000
Plaintext:                464646464646464646
Ciphertext:               8b569429fd79ea9936be260efde4b1f05a85777683e97005ee
Reciphers for ciphertext: 0
Decipheredtext:           464646464646464646
RESULT CIPHER-DECIPHER: -----OK-----


Test: 71
Hash algorithm: 6
Data unit:      71
Start block:    143
Symmetric key bit length: 256
Plaintext bit length:     72
Symmetric key:            0000000000000000000000000000000000000000000000000000000000000000
Plaintext:                474747474747474747
Ciphertext:               5a6d34442a712025491a6e5e97147d672ac9b733942ee1d57455bbb616b8c89e7780be3ae984c2c525
Reciphers for ciphertext: 0
Decipheredtext:           474747474747474747
RESULT CIPHER-DECIPHER: -----OK-----


Test: 72
Hash algorithm: 0
Data unit:      72
Start block:    145
Symmetric key bit length: 256
Plaintext bit length:     80
Symmetric key:            0000000000000000000000000000000000000000000000000000000000000000
Plaintext:                48484848484848484848
Ciphertext:               0a05320e78bba9fc2544e53e21f7b4bee627d9b4c9edc63b688d20a31466
Reciphers for ciphertext: 0
Decipheredtext:           48484848484848484848
RESULT CIPHER-DECIPHER: -----OK-----


Test: 73
Hash algorithm: 7
Data unit:      73
Start block:    147
Symmetric key bit length: 256
Plaintext bit length:     80
Symmetric key:            0000000000000000000000000000000000000000000000000000000000000000
Plaintext:                49494949494949494949
Ciphertext:               50678c1c42613666920dc2530316b97fed860b50f2cd2f387ee6
Reciphers for ciphertext: 0
Decipheredtext:           49494949494949494949
RESULT CIPHER-DECIPHER: -----OK-----


Test: 74
Hash algorithm: 2
Data unit:      74
Start block:    149
Symmetric key bit length: 256
Plaintext bit length:     80
Symmetric key:            0000000000000000000000000000000000000000000000000000000000000000
Plaintext:                4a4a4a4a4a4a4a4a4a4a
Ciphertext:               e143333d476949fa5ab1531c4f48d3b1ded98daa8ecd77c1e689fd5d6460e6181685b01bf16ba34cbef5
Reciphers for ciphertext: 0
Decipheredtext:           4a4a4a4a4a4a4a4a4a4a
RESULT CIPHER-DECIPHER: -----OK-----


Test: 75
Hash algorithm: 6
Data unit:      75
Start block:    151
Symmetric key bit length: 256
Plaintext bit length:     80
Symmetric key:            0000000000000000000000000000000000000000000000000000000000000000
Plaintext:                4b4b4b4b4b4b4b4b4b4b
Ciphertext:               3fc111bdcd4121af6f9c929e4367c832253f9dfaef10c90eae467607989a5df7db2e779cb0f5b842cfec
Reciphers for ciphertext: 0
Decipheredtext:           4b4b4b4b4b4b4b4b4b4b
RESULT CIPHER-DECIPHER: -----OK-----


Test: 76
Hash algorithm: 0
Data unit:      76
Start block:    153
Symmetric key bit length: 256
Plaintext bit length:     80
Symmetric key:            0000000000000000000000000000000000000000000000000000000000000000
Plaintext:                4c4c4c4c4c4c4c4c4c4c
Ciphertext:               6d5e2ae4afbbbcab2fd71ff0efa6004940c17998afb9fd92330ffe0fc48f
Reciphers for ciphertext: 0
Decipheredtext:           4c4c4c4c4c4c4c4c4c4c
RESULT CIPHER-DECIPHER: -----OK-----


Test: 77
Hash algorithm: 8
Data unit:      77
Start block:    155
Symmetric key bit length: 256
Plaintext bit length:     80
Symmetric key:            0000000000000000000000000000000000000000000000000000000000000000
Plaintext:                4d4d4d4d4d4d4d4d4d4d
Ciphertext:               ce1faeb71dedafa449efdcc19deb73b0af8d08c143cae041a06a1ec41f58
Reciphers for ciphertext: 0
Decipheredtext:           4d4d4d4d4d4d4d4d4d4d
RESULT CIPHER-DECIPHER: -----OK-----


Test: 78
Hash algorithm: 2
Data unit:      78
Start block:    157
Symmetric key bit length: 256
Plaintext bit length:     80
Symmetric key:            0000000000000000000000000000000000000000000000000000000000000000
Plaintext:                4e4e4e4e4e4e4e4e4e4e
Ciphertext:               007c551bbff4b0f29b17a83577c8e071cdafb336de50ba90cc32a9719d232ed08d2f203f07d24348046d
Reciphers for ciphertext: 0
Decipheredtext:           4e4e4e4e4e4e4e4e4e4e
RESULT CIPHER-DECIPHER: -----OK-----


Test: 79
Hash algorithm: 0
Data unit:      79
Start block:    159
Symmetric key bit length: 256
Plaintext bit length:     80
Symmetric key:            0000000000000000000000000000000000000000000000000000000000000000
Plaintext:                4f4f4f4f4f4f4f4f4f4f
Ciphertext:               8950b5c2e61a2df20813fffacca9745787e6659c53b2c32dd854acf8ed0c
Reciphers for ciphertext: 0
Decipheredtext:           4f4f4f4f4f4f4f4f4f4f
RESULT CIPHER-DECIPHER: -----OK-----


Test: 80
Hash algorithm: 1
Data unit:      80
Start block:    161
Symmetric key bit length: 256
Plaintext bit length:     88
Symmetric key:            0000000000000000000000000000000000000000000000000000000000000000
Plaintext:                5050505050505050505050
Ciphertext:               64c0f7dd0d123506aea1662fad578bc2ad5d22f67737348d229556d01743b283f86bb5ed4ad74d
Reciphers for ciphertext: 0
Decipheredtext:           5050505050505050505050
RESULT CIPHER-DECIPHER: -----OK-----


Test: 81
Hash algorithm: 4
Data unit:      81
Start block:    163
Symmetric key bit length: 256
Plaintext bit length:     88
Symmetric key:            0000000000000000000000000000000000000000000000000000000000000000
Plaintext:                5151515151515151515151
Ciphertext:               9a20d3cf6ae7b3f5d904437b505b81c7773456f7653322832f8959ca52211b7234c19e6250fe6f1e9ade1eaad98a1d8b72a288febc8d8fe6cf31fefde0419a259e2644bc7b95cdcd98bd36
Reciphers for ciphertext: 0
Decipheredtext:           5151515151515151515151
RESULT CIPHER-DECIPHER: -----OK-----


Test: 82
Hash algorithm: 2
Data unit:      82
Start block:    165
Symmetric key bit length: 256
Plaintext bit length:     88
Symmetric key:            0000000000000000000000000000000000000000000000000000000000000000
Plaintext:                5252525252525252525252
Ciphertext:               d56cccac883e3316950d585d68dd2b526a5219781a3dd72f0c7a67c0447cf008bc1ed5869142b7d2d2d3ee
Reciphers for ciphertext: 0
Decipheredtext:           5252525252525252525252
RESULT CIPHER-DECIPHER: -----OK-----


Test: 83
Hash algorithm: 10
Data unit:      83
Start block:    167
Symmetric key bit length: 256
Plaintext bit length:     88
Symmetric key:            0000000000000000000000000000000000000000000000000000000000000000
Plaintext:                5353535353535353535353
Ciphertext:               7a35d58414ac6f4da2383f6ec9c3d1f276278ad4dad61504a88721f017a9d88cad8f020a51cd7b325e2ee5eadb3185b3727119
Reciphers for ciphertext: 0
Decipheredtext:           5353535353535353535353
RESULT CIPHER-DECIPHER: -----OK-----


Test: 84
Hash algorithm: 6
Data unit:      84
Start block:    169
Symmetric key bit length: 256
Plaintext bit length:     88
Symmetric key:            0000000000000000000000000000000000000000000000000000000000000000
Plaintext:                5454545454545454545454
Ciphertext:               78cdb1faa52007ac7d2fbf456260700f41ced04ae2f4d1417be486d41394200a6c097615305917de1a9784
Reciphers for ciphertext: 0
Decipheredtext:           5454545454545454545454
RESULT CIPHER-DECIPHER: -----OK-----


Test: 85
Hash algorithm: 5
Data unit:      85
Start block:    171
Symmetric key bit length: 256
Plaintext bit length:     88
Symmetric key:            0000000000000000000000000000000000000000000000000000000000000000
Plaintext:                5555555555555555555555
Ciphertext:               66065e36ce637032b1d5073271800ccdda8cccd81721f86f7e868975848ce4caee73640d7eebe6
Reciphers for ciphertext: 0
Decipheredtext:           5555555555555555555555
RESULT CIPHER-DECIPHER: -----OK-----


Test: 86
Hash algorithm: 4
Data unit:      86
Start block:    173
Symmetric key bit length: 256
Plaintext bit length:     88
Symmetric key:            0000000000000000000000000000000000000000000000000000000000000000
Plaintext:                5656565656565656565656
Ciphertext:               c732828c0f71255c146590cfe62a2c0faa1bdba861431b3fcec2f2208aa9d199b743a19b97d73b62c948a64bb2d5f626458c441056435e3efec08515a2da78070cea9e6fb83060cd662c8d
Reciphers for ciphertext: 0
Decipheredtext:           5656565656565656565656
RESULT CIPHER-DECIPHER: -----OK-----


Test: 87
Hash algorithm: 10
Data unit:      87
Start block:    175
Symmetric key bit length: 256
Plaintext bit length:     88
Symmetric key:            0000000000000000000000000000000000000000000000000000000000000000
Plaintext:                5757575757575757575757
Ciphertext:               89f4cd9a0c7ef765902537650617698d38d1507656e542326019dac9a49b0b5ce943374014c00258d7d9c449698a0a52798dae
Reciphers for ciphertext: 0
Decipheredtext:           5757575757575757575757
RESULT CIPHER-DECIPHER: -----OK-----


Test: 88
Hash algorithm: 1
Data unit:      88
Start block:    177
Symmetric key bit length: 256
Plaintext bit length:     96
Symmetric key:            0000000000000000000000000000000000000000000000000000000000000000
Plaintext:                585858585858585858585858
Ciphertext:               992ed01896b1685909ba01c37c588226b3dbd85f1779260b18c5d480be3b2ea5102761d2f1c7dcc5
Reciphers for ciphertext: 0
Decipheredtext:           585858585858585858585858
RESULT CIPHER-DECIPHER: -----OK-----


Test: 89
Hash algorithm: 4
Data unit:      89
Start block:    179
Symmetric key bit length: 256
Plaintext bit length:     96
Symmetric key:            0000000000000000000000000000000000000000000000000000000000000000
Plaintext:                595959595959595959595959
Ciphertext:               2102eddae2fbbd7b3421523e1f84ee54b07ad3b887a89f06352a8e0514718d233ac2464a90c3bd1d9f22073e7ab296027bfe5cb3a31a4ed818bb9982ae0a21c5b9349f07dbedc87f524d1feb
Reciphers for ciphertext: 0
Decipheredtext:           595959595959595959595959
RESULT CIPHER-DECIPHER: -----OK-----


Test: 90
Hash algorithm: 0
Data unit:      90
Start block:    181
Symmetric key bit length: 256
Plaintext bit length:     96
Symmetric key:            0000000000000000000000000000000000000000000000000000000000000000
Plaintext:                5a5a5a5a5a5a5a5a5a5a5a5a
Ciphertext:               975f45102a4b7c8421a3fc22ec29d41355dd507d3fdb5523851e7e592f9debbb
Reciphers for ciphertext: 0
Decipheredtext:           5a5a5a5a5a5a5a5a5a5a5a5a
RESULT CIPHER-DECIPHER: -----OK-----


Test: 91
Hash algorithm: 10
Data unit:      91
Start block:    183
Symmetric key bit length: 256
Plaintext bit length:     96
Symmetric key:            0000000000000000000000000000000000000000000000000000000000000000
Plaintext:                5b5b5b5b5b5b5b5b5b5b5b5b
Ciphertext:               9c6c3cfbb89abe753b36bc4e695ae4687ef49de26f6ca71085fecb8e4f8497f6437b25b30f25c1e4266de5661066010628e8f45b
Reciphers for ciphertext: 0
Decipheredtext:           5b5b5b5b5b5b5b5b5b5b5b5b
RESULT CIPHER-DECIPHER: -----OK-----


Test: 92
Hash algorithm: 13
Data unit:      92
Start block:    185
Symmetric key bit length: 256
Plaintext bit length:     96
Symmetric key:            0000000000000000000000000000000000000000000000000000000000000000
Plaintext:                5c5c5c5c5c5c5c5c5c5c5c5c
Ciphertext:               72a706b713ca64d1bdf18c1288d4cae2bcf71cddabf6774dbd0e8afb
Reciphers for ciphertext: 0
Decipheredtext:           5c5c5c5c5c5c5c5c5c5c5c5c
RESULT CIPHER-DECIPHER: -----OK-----


Test: 93
Hash algorithm: 3
Data unit:      93
Start block:    187
Symmetric key bit length: 256
Plaintext bit length:     96
Symmetric key:            0000000000000000000000000000000000000000000000000000000000000000
Plaintext:                5d5d5d5d5d5d5d5d5d5d5d5d
Ciphertext:               5bab1be17ab06e85d1a60892c24eaf5f75c8ffe541b223cc8ff1532e1328516f67d044e1ff1bc14ca2772aa93b2f1b41c63323fe8773d697bc3debf0
Reciphers for ciphertext: 0
Decipheredtext:           5d5d5d5d5d5d5d5d5d5d5d5d
RESULT CIPHER-DECIPHER: -----OK-----


Test: 94
Hash algorithm: 4
Data unit:      94
Start block:    189
Symmetric key bit length: 256
Plaintext bit length:     96
Symmetric key:            0000000000000000000000000000000000000000000000000000000000000000
Plaintext:                5e5e5e5e5e5e5e5e5e5e5e5e
Ciphertext:               8db86e53fc8a8acb86731543f23718cb2518171d3e87b493db82ca9f3c4bf90f6335f41ebeeba7de67e42cca0ac32cb16aea635e0063ca312fb11db720d47020d94389463f3cad65ef8e3260
Reciphers for ciphertext: 0
Decipheredtext:           5e5e5e5e5e5e5e5e5e5e5e5e
RESULT CIPHER-DECIPHER: -----OK-----


Test: 95
Hash algorithm: 10
Data unit:      95
Start block:    191
Symmetric key bit length: 256
Plaintext bit length:     96
Symmetric key:            0000000000000000000000000000000000000000000000000000000000000000
Plaintext:                5f5f5f5f5f5f5f5f5f5f5f5f
Ciphertext:               297b39086890e19a9c8ab06cf44611ba5cc71dd61f37a185fc118a55bf7946ad47df4a4d13d1d199c5b3abe48b5084c8f0592724
Reciphers for ciphertext: 0
Decipheredtext:           5f5f5f5f5f5f5f5f5f5f5f5f
RESULT CIPHER-DECIPHER: -----OK-----


Test: 96
Hash algorithm: 13
Data unit:      96
Start block:    193
Symmetric key bit length: 256
Plaintext bit length:     104
Symmetric key:            0000000000000000000000000000000000000000000000000000000000000000
Plaintext:                60606060606060606060606060
Ciphertext:               742a080502e4eb906f2f59ab715aa924865cfcd0818938e8d127ad62e6
Reciphers for ciphertext: 0
Decipheredtext:           60606060606060606060606060
RESULT CIPHER-DECIPHER: -----OK-----


Test: 97
Hash algorithm: 9
Data unit:      97
Start block:    195
Symmetric key bit length: 256
Plaintext bit length:     104
Symmetric key:            0000000000000000000000000000000000000000000000000000000000000000
Plaintext:                61616161616161616161616161
Ciphertext:               ccbdd1ede5f755f9ae9dc40adced05be9c01f4255d3c5297d7f042474d40bfe7666a3f5e37ff01ed1c9d805a2d
Reciphers for ciphertext: 0
Decipheredtext:           61616161616161616161616161
RESULT CIPHER-DECIPHER: -----OK-----


Test: 98
Hash algorithm: 10
Data unit:      98
Start block:    197
Symmetric key bit length: 256
Plaintext bit length:     104
Symmetric key:            0000000000000000000000000000000000000000000000000000000000000000
Plaintext:                62626262626262626262626262
Ciphertext:               d97e72e6aba59350d69399b0ec571bccf84d8f28e897e994ebeb7a58cf08931392f73ea6d559f6812647761a9a8c36837879ee71cc
Reciphers for ciphertext: 0
Decipheredtext:           62626262626262626262626262
RESULT CIPHER-DECIPHER: -----OK-----


Test: 99
Hash algorithm: 10
Data unit:      99
Start block:    199
Symmetric key bit length: 256
Plaintext bit length:     104
Symmetric key:            0000000000000000000000000000000000000000000000000000000000000000
Plaintext:                63636363636363636363636363
Ciphertext:               4eb8fd34355a9b1ac03602614e66ec4de36116077b7c31e47e1eb2b8adcb0a17c989652ac036309d4760ae5f511eb6ed49b761fc1c
Reciphers for ciphertext: 0
Decipheredtext:           63636363636363636363636363
RESULT CIPHER-DECIPHER: -----OK-----


Test: 100
Hash algorithm: 6
Data unit:      100
Start block:    201
Symmetric key bit length: 256
Plaintext bit length:     104
Symmetric key:            0000000000000000000000000000000000000000000000000000000000000000
Plaintext:                64646464646464646464646464
Ciphertext:               7697ffbbbfab5d5e273de5ccbe404ec18ec514cad554f5edee4001223ded4b8724bd6c197e89ec28127e4115b5
Reciphers for ciphertext: 0
Decipheredtext:           64646464646464646464646464
RESULT CIPHER-DECIPHER: -----OK-----


Test: 101
Hash algorithm: 10
Data unit:      101
Start block:    203
Symmetric key bit length: 256
Plaintext bit length:     104
Symmetric key:            0000000000000000000000000000000000000000000000000000000000000000
Plaintext:                65656565656565656565656565
Ciphertext:               52d6617e14a60307f13dac2232aacfd7e9b672076d814201b1e2eb33dd9bbb13fa2f879da94a76bf42f1806d13cca1f1797df03b34
Reciphers for ciphertext: 0
Decipheredtext:           65656565656565656565656565
RESULT CIPHER-DECIPHER: -----OK-----


Test: 102
Hash algorithm: 10
Data unit:      102
Start block:    205
Symmetric key bit length: 256
Plaintext bit length:     104
Symmetric key:            0000000000000000000000000000000000000000000000000000000000000000
Plaintext:                66666666666666666666666666
Ciphertext:               5b543dfbf4d7dc19ecf621ece2ac332a9f41cfa268f34dd043dd4552d0191f1f5bdc854e1572e6f89aa2e39f025aebd7c2ba87e40f
Reciphers for ciphertext: 0
Decipheredtext:           66666666666666666666666666
RESULT CIPHER-DECIPHER: -----OK-----


Test: 103
Hash algorithm: 10
Data unit:      103
Start block:    207
Symmetric key bit length: 256
Plaintext bit length:     104
Symmetric key:            0000000000000000000000000000000000000000000000000000000000000000
Plaintext:                67676767676767676767676767
Ciphertext:               078d06e7351b41687aecc29bb286ae150bfa1c563bdd5c1c94ad36498e16bf79243ec5b975d8a853eeba5856dafe000329a4d1098a
Reciphers for ciphertext: 0
Decipheredtext:           67676767676767676767676767
RESULT CIPHER-DECIPHER: -----OK-----


Test: 104
Hash algorithm: 3
Data unit:      104
Start block:    209
Symmetric key bit length: 256
Plaintext bit length:     112
Symmetric key:            0000000000000000000000000000000000000000000000000000000000000000
Plaintext:                6868686868686868686868686868
Ciphertext:               aa465868a61b23c678c84bd8f8c2d10f33340caa84d90d255206da174a14daba3df1e75020ab25080bc2d106d788dddb24b92604d5dd6ef861bf7ac6e541
Reciphers for ciphertext: 0
Decipheredtext:           6868686868686868686868686868
RESULT CIPHER-DECIPHER: -----OK-----


Test: 105
Hash algorithm: 4
Data unit:      105
Start block:    211
Symmetric key bit length: 256
Plaintext bit length:     112
Symmetric key:            0000000000000000000000000000000000000000000000000000000000000000
Plaintext:                6969696969696969696969696969
Ciphertext:               5b52e19ba9bf4c8f1fdedb144cfacdd241f96064af51510274179ae50a50a55f3839864a435cfd2f105ea7e988f2538a57933a435780832d828405627094db3fd79116347e21694b8aa575c6662b
Reciphers for ciphertext: 0
Decipheredtext:           6969696969696969696969696969
RESULT CIPHER-DECIPHER: -----OK-----


Test: 106
Hash algorithm: 11
Data unit:      106
Start block:    213
Symmetric key bit length: 256
Plaintext bit length:     112
Symmetric key:            0000000000000000000000000000000000000000000000000000000000000000
Plaintext:                6a6a6a6a6a6a6a6a6a6a6a6a6a6a
Ciphertext:               7990533a7c136b87aa469a051b7e0bd08b6b71fcb96046075ad6d051f3e4
Reciphers for ciphertext: 0
Decipheredtext:           6a6a6a6a6a6a6a6a6a6a6a6a6a6a
RESULT CIPHER-DECIPHER: -----OK-----


Test: 107
Hash algorithm: 6
Data unit:      107
Start block:    215
Symmetric key bit length: 256
Plaintext bit length:     112
Symmetric key:            0000000000000000000000000000000000000000000000000000000000000000
Plaintext:                6b6b6b6b6b6b6b6b6b6b6b6b6b6b
Ciphertext:               89ba9e13836ef44644149007c7098ddabe5abf7687112f7c7bcef8d6b28651f340cd7e48361d37f636cba177c244
Reciphers for ciphertext: 0
Decipheredtext:           6b6b6b6b6b6b6b6b6b6b6b6b6b6b
RESULT CIPHER-DECIPHER: -----OK-----


Test: 108
Hash algorithm: 2
Data unit:      108
Start block:    217
Symmetric key bit length: 256
Plaintext bit length:     112
Symmetric key:            0000000000000000000000000000000000000000000000000000000000000000
Plaintext:                6c6c6c6c6c6c6c6c6c6c6c6c6c6c
Ciphertext:               8cce870eca75fcab10daa43c2b4809533c8057c5f31ea92bc416c865de6765c17fb7f2af60a2d9f715e09aaf5e28
Reciphers for ciphertext: 0
Decipheredtext:           6c6c6c6c6c6c6c6c6c6c6c6c6c6c
RESULT CIPHER-DECIPHER: -----OK-----


Test: 109
Hash algorithm: 13
Data unit:      109
Start block:    219
Symmetric key bit length: 256
Plaintext bit length:     112
Symmetric key:            0000000000000000000000000000000000000000000000000000000000000000
Plaintext:                6d6d6d6d6d6d6d6d6d6d6d6d6d6d
Ciphertext:               e1f3185e014657dc81b5c080e7d12e0963f818a8acd96061bf749e5de536
Reciphers for ciphertext: 0
Decipheredtext:           6d6d6d6d6d6d6d6d6d6d6d6d6d6d
RESULT CIPHER-DECIPHER: -----OK-----


Test: 110
Hash algorithm: 5
Data unit:      110
Start block:    221
Symmetric key bit length: 256
Plaintext bit length:     112
Symmetric key:            0000000000000000000000000000000000000000000000000000000000000000
Plaintext:                6e6e6e6e6e6e6e6e6e6e6e6e6e6e
Ciphertext:               122aa53b1e85b9a5eff31d2e48b43366fd6b0f36341af62367d88c166966fcf9915e0ca967314d95b715
Reciphers for ciphertext: 0
Decipheredtext:           6e6e6e6e6e6e6e6e6e6e6e6e6e6e
RESULT CIPHER-DECIPHER: -----OK-----


Test: 111
Hash algorithm: 5
Data unit:      111
Start block:    223
Symmetric key bit length: 256
Plaintext bit length:     112
Symmetric key:            0000000000000000000000000000000000000000000000000000000000000000
Plaintext:                6f6f6f6f6f6f6f6f6f6f6f6f6f6f
Ciphertext:               8c130a6ec08c1ebf0873ec7d967e43805721fb1ec1f278d8638acb65ef0711b2da51cfc45026886cbc0a
Reciphers for ciphertext: 0
Decipheredtext:           6f6f6f6f6f6f6f6f6f6f6f6f6f6f
RESULT CIPHER-DECIPHER: -----OK-----


Test: 112
Hash algorithm: 9
Data unit:      112
Start block:    225
Symmetric key bit length: 256
Plaintext bit length:     120
Symmetric key:            0000000000000000000000000000000000000000000000000000000000000000
Plaintext:                707070707070707070707070707070
Ciphertext:               4dcc0107285e2669b8e40da9d04a151fdec68898d0366b24ddc734798387cc876688884bd1f014045bed29a7045362
Reciphers for ciphertext: 0
Decipheredtext:           707070707070707070707070707070
RESULT CIPHER-DECIPHER: -----OK-----


Test: 113
Hash algorithm: 11
Data unit:      113
Start block:    227
Symmetric key bit length: 256
Plaintext bit length:     120
Symmetric key:            0000000000000000000000000000000000000000000000000000000000000000
Plaintext:                717171717171717171717171717171
Ciphertext:               b9654b436c80783c9af27a9b45327327ec8cf922867fd2541c736b52b2aff0
Reciphers for ciphertext: 0
Decipheredtext:           717171717171717171717171717171
RESULT CIPHER-DECIPHER: -----OK-----


Test: 114
Hash algorithm: 6
Data unit:      114
Start block:    229
Symmetric key bit length: 256
Plaintext bit length:     120
Symmetric key:            0000000000000000000000000000000000000000000000000000000000000000
Plaintext:                727272727272727272727272727272
Ciphertext:               37d18089cf29a02d630c1ec88740fd8285546eabf33de3df14505c1a888feb3a62d1e55fe14daac57cb181a711cb46
Reciphers for ciphertext: 0
Decipheredtext:           727272727272727272727272727272
RESULT CIPHER-DECIPHER: -----OK-----


Test: 115
Hash algorithm: 2
Data unit:      115
Start block:    231
Symmetric key bit length: 256
Plaintext bit length:     120
Symmetric key:            0000000000000000000000000000000000000000000000000000000000000000
Plaintext:                737373737373737373737373737373
Ciphertext:               a39db2ab4c9ab1c2d8944f78b30e34ee7e54e42c59dd9db9f39891be3c70b0211b31d198a5752190f6e47440c080f9
Reciphers for ciphertext: 0
Decipheredtext:           737373737373737373737373737373
RESULT CIPHER-DECIPHER: -----OK-----


Test: 116
Hash algorithm: 8
Data unit:      116
Start block:    233
Symmetric key bit length: 256
Plaintext bit length:     120
Symmetric key:            0000000000000000000000000000000000000000000000000000000000000000
Plaintext:                747474747474747474747474747474
Ciphertext:               8501abb190eedaf82080cdc8316c8cc594d32bdf99a1f7c2655ef6977e88562d6f277d
Reciphers for ciphertext: 0
Decipheredtext:           747474747474747474747474747474
RESULT CIPHER-DECIPHER: -----OK-----


Test: 117
Hash algorithm: 6
Data unit:      117
Start block:    235
Symmetric key bit length: 256
Plaintext bit length:     120
Symmetric key:            0000000000000000000000000000000000000000000000000000000000000000
Plaintext:                757575757575757575757575757575
Ciphertext:               c8c42507a6af84423247ea72afab20ba59a10ef6ce181d0accbc473bc924fa32e02603c601b05d15e595887458c145
Reciphers for ciphertext: 0
Decipheredtext:           757575757575757575757575757575
RESULT CIPHER-DECIPHER: -----OK-----


Test: 118
Hash algorithm: 11
Data unit:      118
Start block:    237
Symmetric key bit length: 256
Plaintext bit length:     120
Symmetric key:            0000000000000000000000000000000000000000000000000000000000000000
Plaintext:                767676767676767676767676767676
Ciphertext:               810d74a2e04fd6718006c4776a5b2f57b4bdff7f464592282f57209abb2a32
Reciphers for ciphertext: 0
Decipheredtext:           767676767676767676767676767676
RESULT CIPHER-DECIPHER: -----OK-----


Test: 119
Hash algorithm: 9
Data unit:      119
Start block:    239
Symmetric key bit length: 256
Plaintext bit length:     120
Symmetric key:            0000000000000000000000000000000000000000000000000000000000000000
Plaintext:                777777777777777777777777777777
Ciphertext:               5bd29c7e7d98d20392e87bffe67fd8ebaa08c3a0962441d7b0a0c41a61bef2f96a7964db800374a302d10a729fc29c
Reciphers for ciphertext: 0
Decipheredtext:           777777777777777777777777777777
RESULT CIPHER-DECIPHER: -----OK-----


Test: 120
Hash algorithm: 9
Data unit:      120
Start block:    241
Symmetric key bit length: 256
Plaintext bit length:     128
Symmetric key:            0000000000000000000000000000000000000000000000000000000000000000
Plaintext:                78787878787878787878787878787878
Ciphertext:               6577da70b469c9dc53dc587c41aaed3b66c2b2405f679d601dce7e7acafeaf966636afc0e6119b5658591aabf0f0b744
Reciphers for ciphertext: 0
Decipheredtext:           78787878787878787878787878787878
RESULT CIPHER-DECIPHER: -----OK-----


Test: 121
Hash algorithm: 6
Data unit:      121
Start block:    243
Symmetric key bit length: 256
Plaintext bit length:     128
Symmetric key:            0000000000000000000000000000000000000000000000000000000000000000
Plaintext:                79797979797979797979797979797979
Ciphertext:               e3a853f006ed39b99de768b492c8b5698d35a95c817f2242c973a985d4787891ede67118280c03acc82e31cb54399426
Reciphers for ciphertext: 0
Decipheredtext:           79797979797979797979797979797979
RESULT CIPHER-DECIPHER: -----OK-----


Test: 122
Hash algorithm: 10
Data unit:      122
Start block:    245
Symmetric key bit length: 256
Plaintext bit length:     128
Symmetric key:            0000000000000000000000000000000000000000000000000000000000000000
Plaintext:                7a7a7a7a7a7a7a7a7a7a7a7a7a7a7a7a
Ciphertext:               c7936692ee86d6c85c9ee366cee214983ffe9134222af5733ce072e72d687beafa1f4685e708b0b3073d0ccc8fe39c9bc8cb5f829550e07c
Reciphers for ciphertext: 0
Decipheredtext:           7a7a7a7a7a7a7a7a7a7a7a7a7a7a7a7a
RESULT CIPHER-DECIPHER: -----OK-----


Test: 123
Hash algorithm: 5
Data unit:      123
Start block:    247
Symmetric key bit length: 256
Plaintext bit length:     128
Symmetric key:            0000000000000000000000000000000000000000000000000000000000000000
Plaintext:                7b7b7b7b7b7b7b7b7b7b7b7b7b7b7b7b
Ciphertext:               474370c015298d92f70100ab847078735416341ff218a166e42209c4062b0c9f86d906dbf170a7657e66d61b
Reciphers for ciphertext: 0
Decipheredtext:           7b7b7b7b7b7b7b7b7b7b7b7b7b7b7b7b
RESULT CIPHER-DECIPHER: -----OK-----


Test: 124
Hash algorithm: 8
Data unit:      124
Start block:    249
Symmetric key bit length: 256
Plaintext bit length:     128
Symmetric key:            0000000000000000000000000000000000000000000000000000000000000000
Plaintext:                7c7c7c7c7c7c7c7c7c7c7c7c7c7c7c7c
Ciphertext:               e6cffe8f94791c03cb1be7c870bc9cb46858b5137653054d22637892fc335110ce638a0b
Reciphers for ciphertext: 0
Decipheredtext:           7c7c7c7c7c7c7c7c7c7c7c7c7c7c7c7c
RESULT CIPHER-DECIPHER: -----OK-----


Test: 125
Hash algorithm: 5
Data unit:      125
Start block:    251
Symmetric key bit length: 256
Plaintext bit length:     128
Symmetric key:            0000000000000000000000000000000000000000000000000000000000000000
Plaintext:                7d7d7d7d7d7d7d7d7d7d7d7d7d7d7d7d
Ciphertext:               cc36e19bf477d060a74b4ef408967041a71d57471138276eb7aa2a42ea6b583eb7ddcc99849f435f737ffeee
Reciphers for ciphertext: 0
Decipheredtext:           7d7d7d7d7d7d7d7d7d7d7d7d7d7d7d7d
RESULT CIPHER-DECIPHER: -----OK-----


Test: 126
Hash algorithm: 11
Data unit:      126
Start block:    253
Symmetric key bit length: 256
Plaintext bit length:     128
Symmetric key:            0000000000000000000000000000000000000000000000000000000000000000
Plaintext:                7e7e7e7e7e7e7e7e7e7e7e7e7e7e7e7e
Ciphertext:               ccce04984ef21d5c4e639b96d3adacf3cbdf3b06e3a8f1c7b54f205eca3dfa1e
Reciphers for ciphertext: 0
Decipheredtext:           7e7e7e7e7e7e7e7e7e7e7e7e7e7e7e7e
RESULT CIPHER-DECIPHER: -----OK-----


Test: 127
Hash algorithm: 8
Data unit:      127
Start block:    255
Symmetric key bit length: 256
Plaintext bit length:     128
Symmetric key:            0000000000000000000000000000000000000000000000000000000000000000
Plaintext:                7f7f7f7f7f7f7f7f7f7f7f7f7f7f7f7f
Ciphertext:               20b6a7a205b13c030f9598a0125400c4b7ba883e3afae5a93d576e036f5701d1b4a89f70
Reciphers for ciphertext: 0
Decipheredtext:           7f7f7f7f7f7f7f7f7f7f7f7f7f7f7f7f
RESULT CIPHER-DECIPHER: -----OK-----


 DATA SHA1 (hexadecimal): b82c27da303750323ccb8f006d9de6f66d5917bb

