
DiceLock 9.0.0.1

 TEST COMPONENTS:
 ----------------
 DiceLock:           DiceLockXTSDigested class
                     Operating over full text length
 Operation Mode:     XTS_Mode class
 Block Cipher:       AES128 class
 Hash algorithms:     0 - Sha1 class
                      1 - Sha224 class
                      2 - Sha256 class
                      3 - Sha384 class
                      4 - Sha512 class
                      5 - Sha512_224 class
                      6 - Sha512_256 class
                      7 - Ripemd128 class
                      8 - Ripemd160 class
                      9 - Ripemd256 class
                     10 - Ripemd320 class
                     11 - MD2 class
                     12 - MD4 class
                     13 - MD5 class
 Key Modifier:       IncreaseKeyModifier_6_0_0_1 class
 Random tests:       RandomTestSuite class
                     FrequencyTest class
                     BlockFrequencyTest class
                     CumulativeSumForwardTest class
                     LongestRunOfOnesTest class
                     RunsTest class
 Random alpha:       0.001

 VECTOR TEST: Test vector 3 - Symmetric key all byte value 0xXX


##### INDIVIDUAL TESTS #####

Number tests: 128


Test: 0
Hash algorithm: 6
Data unit:      0
Start block:    1
Symmetric key bit length: 256
Plaintext bit length:     128
Symmetric key:            0000000000000000000000000000000000000000000000000000000000000000
Plaintext:                00000000000000000000000000000000
Ciphertext:               917cf69ebd68b2ec9b9fe9a3eadda692c928c190589b61c3cff4a7b5e692be56582dc6d2b39b18185624a4f4582becf8
Reciphers for ciphertext: 0
Decipheredtext:           00000000000000000000000000000000
RESULT CIPHER-DECIPHER: -----OK-----


Test: 1
Hash algorithm: 9
Data unit:      1
Start block:    3
Symmetric key bit length: 256
Plaintext bit length:     128
Symmetric key:            0101010101010101010101010101010101010101010101010101010101010101
Plaintext:                00000000000000000000000000000000
Ciphertext:               2fb683c1fe4c181bcf1a9b7958b9058c2ee120ba8840681934b372b704b39392ada261df9c4c3f6547b62007e7c4412e
Reciphers for ciphertext: 0
Decipheredtext:           00000000000000000000000000000000
RESULT CIPHER-DECIPHER: -----OK-----


Test: 2
Hash algorithm: 3
Data unit:      2
Start block:    5
Symmetric key bit length: 256
Plaintext bit length:     128
Symmetric key:            0202020202020202020202020202020202020202020202020202020202020202
Plaintext:                00000000000000000000000000000000
Ciphertext:               32ee15197cc4570bdaf7155c056fa55b7d7f1d83e3aa892b1d809ba127ee0b06fb5887d88dddfe60778feae7438c17cd622b7b6eecc6be23bc926b5bef38e390
Reciphers for ciphertext: 0
Decipheredtext:           00000000000000000000000000000000
RESULT CIPHER-DECIPHER: -----OK-----


Test: 3
Hash algorithm: 0
Data unit:      3
Start block:    7
Symmetric key bit length: 256
Plaintext bit length:     128
Symmetric key:            0303030303030303030303030303030303030303030303030303030303030303
Plaintext:                00000000000000000000000000000000
Ciphertext:               b278a5aacd1dbfb329854ce3798a78b33d04dea3574a51555899872a3aea19bc5ae613f4
Reciphers for ciphertext: 0
Decipheredtext:           00000000000000000000000000000000
RESULT CIPHER-DECIPHER: -----OK-----


Test: 4
Hash algorithm: 1
Data unit:      4
Start block:    9
Symmetric key bit length: 256
Plaintext bit length:     128
Symmetric key:            0404040404040404040404040404040404040404040404040404040404040404
Plaintext:                00000000000000000000000000000000
Ciphertext:               ce1062ab6265a2a0fbe0a22665849f2c9db779ff3d5a97ed02b859aef396539c0e8bd2561e52c2cc7d03a50d
Reciphers for ciphertext: 0
Decipheredtext:           00000000000000000000000000000000
RESULT CIPHER-DECIPHER: -----OK-----


Test: 5
Hash algorithm: 0
Data unit:      5
Start block:    11
Symmetric key bit length: 256
Plaintext bit length:     128
Symmetric key:            0505050505050505050505050505050505050505050505050505050505050505
Plaintext:                00000000000000000000000000000000
Ciphertext:               f5edfd857d02984c2a810d84be3ddfb4184abbcaf22a661f31e0d5025d97720b8dcb67b7
Reciphers for ciphertext: 0
Decipheredtext:           00000000000000000000000000000000
RESULT CIPHER-DECIPHER: -----OK-----


Test: 6
Hash algorithm: 6
Data unit:      6
Start block:    13
Symmetric key bit length: 256
Plaintext bit length:     128
Symmetric key:            0606060606060606060606060606060606060606060606060606060606060606
Plaintext:                00000000000000000000000000000000
Ciphertext:               aa05fe1c283b290c486e911ac790e825f8a5b16f8521aab1b5e0b954ebe2abe901097ccc06ef88a5eef8a0d265d5b9de
Reciphers for ciphertext: 0
Decipheredtext:           00000000000000000000000000000000
RESULT CIPHER-DECIPHER: -----OK-----


Test: 7
Hash algorithm: 2
Data unit:      7
Start block:    15
Symmetric key bit length: 256
Plaintext bit length:     128
Symmetric key:            0707070707070707070707070707070707070707070707070707070707070707
Plaintext:                00000000000000000000000000000000
Ciphertext:               9977a8e944fa8f7872472a35ae4d66d4c57a149a441d3691357575310de43f8591b1145949c1f77b39a1f2c4f0a5ade8
Reciphers for ciphertext: 0
Decipheredtext:           00000000000000000000000000000000
RESULT CIPHER-DECIPHER: -----OK-----


Test: 8
Hash algorithm: 11
Data unit:      8
Start block:    17
Symmetric key bit length: 256
Plaintext bit length:     128
Symmetric key:            0808080808080808080808080808080808080808080808080808080808080808
Plaintext:                00000000000000000000000000000000
Ciphertext:               41c9bb81499c0acbbf5d7ee286a81e0e6470f06dabba30d233723097b0eb5892
Reciphers for ciphertext: 0
Decipheredtext:           00000000000000000000000000000000
RESULT CIPHER-DECIPHER: -----OK-----


Test: 9
Hash algorithm: 5
Data unit:      9
Start block:    19
Symmetric key bit length: 256
Plaintext bit length:     128
Symmetric key:            0909090909090909090909090909090909090909090909090909090909090909
Plaintext:                00000000000000000000000000000000
Ciphertext:               b4b68f28d5acefefc23c27abf3e9333cc2e018b5719dedb3d3065f5aabecb0a987c6a41f317746291182e671
Reciphers for ciphertext: 0
Decipheredtext:           00000000000000000000000000000000
RESULT CIPHER-DECIPHER: -----OK-----


Test: 10
Hash algorithm: 4
Data unit:      10
Start block:    21
Symmetric key bit length: 256
Plaintext bit length:     128
Symmetric key:            0a0a0a0a0a0a0a0a0a0a0a0a0a0a0a0a0a0a0a0a0a0a0a0a0a0a0a0a0a0a0a0a
Plaintext:                00000000000000000000000000000000
Ciphertext:               d31b4b5386d4aba42d60d58d7b258a624f97f75c5a380639bc6417015bcbe01fdb9ee3653bf053f0bef7a180f36c37e88253a0bfe2ec6035f20e596a16d2644135caa88a52c4bded91c9222f64f9a31a
Reciphers for ciphertext: 0
Decipheredtext:           00000000000000000000000000000000
RESULT CIPHER-DECIPHER: -----OK-----


Test: 11
Hash algorithm: 3
Data unit:      11
Start block:    23
Symmetric key bit length: 256
Plaintext bit length:     128
Symmetric key:            0b0b0b0b0b0b0b0b0b0b0b0b0b0b0b0b0b0b0b0b0b0b0b0b0b0b0b0b0b0b0b0b
Plaintext:                00000000000000000000000000000000
Ciphertext:               66bb2100e05987cbd75683f2597fe8d54ddd408ae122e742ff60c694b8ed5e5aaae7f1f7b5f2310038561b4e4a66da08dfc50cc985dce3c0380a1f964142ad2c
Reciphers for ciphertext: 0
Decipheredtext:           00000000000000000000000000000000
RESULT CIPHER-DECIPHER: -----OK-----


Test: 12
Hash algorithm: 11
Data unit:      12
Start block:    25
Symmetric key bit length: 256
Plaintext bit length:     128
Symmetric key:            0c0c0c0c0c0c0c0c0c0c0c0c0c0c0c0c0c0c0c0c0c0c0c0c0c0c0c0c0c0c0c0c
Plaintext:                00000000000000000000000000000000
Ciphertext:               cc5dba24121c84c9381f9bcfb280cdf8acfc35fafea5596327d31c940357ceef
Reciphers for ciphertext: 0
Decipheredtext:           00000000000000000000000000000000
RESULT CIPHER-DECIPHER: -----OK-----


Test: 13
Hash algorithm: 3
Data unit:      13
Start block:    27
Symmetric key bit length: 256
Plaintext bit length:     128
Symmetric key:            0d0d0d0d0d0d0d0d0d0d0d0d0d0d0d0d0d0d0d0d0d0d0d0d0d0d0d0d0d0d0d0d
Plaintext:                00000000000000000000000000000000
Ciphertext:               c38cd3bef69907d613f880cd4b7deb135fd6cf1d482bd3c869d34486bbcce7ff751cf01faa73f633ddb92a5e91dd8da00b6d9c7d2426e7aaaaea8360a2ee3f11
Reciphers for ciphertext: 0
Decipheredtext:           00000000000000000000000000000000
RESULT CIPHER-DECIPHER: -----OK-----


Test: 14
Hash algorithm: 3
Data unit:      14
Start block:    29
Symmetric key bit length: 256
Plaintext bit length:     128
Symmetric key:            0e0e0e0e0e0e0e0e0e0e0e0e0e0e0e0e0e0e0e0e0e0e0e0e0e0e0e0e0e0e0e0e
Plaintext:                00000000000000000000000000000000
Ciphertext:               0d7336bd487dbc568e899bf84f60b975a3a48cff26644547a3ac466b3acb2a0dca76ff30330ff1c0eea0cbe7b1cf70acced60c0089d8b021cc5fc68f16aac488
Reciphers for ciphertext: 0
Decipheredtext:           00000000000000000000000000000000
RESULT CIPHER-DECIPHER: -----OK-----


Test: 15
Hash algorithm: 4
Data unit:      15
Start block:    31
Symmetric key bit length: 256
Plaintext bit length:     128
Symmetric key:            0f0f0f0f0f0f0f0f0f0f0f0f0f0f0f0f0f0f0f0f0f0f0f0f0f0f0f0f0f0f0f0f
Plaintext:                00000000000000000000000000000000
Ciphertext:               237cf080f067c54d160d3915ea008ea956001a0414173478547f6ea50cb89c5ea633e53cf769a1b4364de3c5b4d2ecd78dcb4d216f749522713cce4717c8b11a05009dd343e6458920513a39541b9218
Reciphers for ciphertext: 0
Decipheredtext:           00000000000000000000000000000000
RESULT CIPHER-DECIPHER: -----OK-----


Test: 16
Hash algorithm: 0
Data unit:      16
Start block:    33
Symmetric key bit length: 256
Plaintext bit length:     128
Symmetric key:            1010101010101010101010101010101010101010101010101010101010101010
Plaintext:                00000000000000000000000000000000
Ciphertext:               e188a0643762b14b8a80aa41ba8734a865ef11c1dbe61fcde2b6b6763b6270c8ebaca5c2
Reciphers for ciphertext: 0
Decipheredtext:           00000000000000000000000000000000
RESULT CIPHER-DECIPHER: -----OK-----


Test: 17
Hash algorithm: 11
Data unit:      17
Start block:    35
Symmetric key bit length: 256
Plaintext bit length:     128
Symmetric key:            1111111111111111111111111111111111111111111111111111111111111111
Plaintext:                00000000000000000000000000000000
Ciphertext:               34ce4c9e5531d178646710acd08add70fb14df73f7f13b79bfbfee6ac4eb231a
Reciphers for ciphertext: 0
Decipheredtext:           00000000000000000000000000000000
RESULT CIPHER-DECIPHER: -----OK-----


Test: 18
Hash algorithm: 5
Data unit:      18
Start block:    37
Symmetric key bit length: 256
Plaintext bit length:     128
Symmetric key:            1212121212121212121212121212121212121212121212121212121212121212
Plaintext:                00000000000000000000000000000000
Ciphertext:               240c8029624547777d0b5509067cf45e4f6d7d1970308dc367971fec790cf9e4a47cc69a78e2dc9b614316ed
Reciphers for ciphertext: 0
Decipheredtext:           00000000000000000000000000000000
RESULT CIPHER-DECIPHER: -----OK-----


Test: 19
Hash algorithm: 10
Data unit:      19
Start block:    39
Symmetric key bit length: 256
Plaintext bit length:     128
Symmetric key:            1313131313131313131313131313131313131313131313131313131313131313
Plaintext:                00000000000000000000000000000000
Ciphertext:               cefebdf64667bd52baa8c2a8f4311a001f3c5cc0a410707456cfb66a3a3cf82be0ce6eda878b2b64a41b4074eda7845e894c61d69fb53c46
Reciphers for ciphertext: 0
Decipheredtext:           00000000000000000000000000000000
RESULT CIPHER-DECIPHER: -----OK-----


Test: 20
Hash algorithm: 8
Data unit:      20
Start block:    41
Symmetric key bit length: 256
Plaintext bit length:     128
Symmetric key:            1414141414141414141414141414141414141414141414141414141414141414
Plaintext:                00000000000000000000000000000000
Ciphertext:               e122bb8320044f32da744242f5b18a1ef8576feb37a57773f565d8cd0d1fdcf7056776e0
Reciphers for ciphertext: 0
Decipheredtext:           00000000000000000000000000000000
RESULT CIPHER-DECIPHER: -----OK-----


Test: 21
Hash algorithm: 0
Data unit:      21
Start block:    43
Symmetric key bit length: 256
Plaintext bit length:     128
Symmetric key:            1515151515151515151515151515151515151515151515151515151515151515
Plaintext:                00000000000000000000000000000000
Ciphertext:               9b1cbf419a5a4b3864fb185522ec100e52b3aa4a4561abc8a216374215292fd6163439bc
Reciphers for ciphertext: 0
Decipheredtext:           00000000000000000000000000000000
RESULT CIPHER-DECIPHER: -----OK-----


Test: 22
Hash algorithm: 4
Data unit:      22
Start block:    45
Symmetric key bit length: 256
Plaintext bit length:     128
Symmetric key:            1616161616161616161616161616161616161616161616161616161616161616
Plaintext:                00000000000000000000000000000000
Ciphertext:               7c756a5165cef56dae9ed87f7f44b4becbfbc80da679484178bdae6632a4949f444f45d034538a889e6f0d4475ae7ac95f7d0c29c3e46962c33f6c56f6333e3323eeca1c1cd74127afc7284b6d91e0d6
Reciphers for ciphertext: 0
Decipheredtext:           00000000000000000000000000000000
RESULT CIPHER-DECIPHER: -----OK-----


Test: 23
Hash algorithm: 2
Data unit:      23
Start block:    47
Symmetric key bit length: 256
Plaintext bit length:     128
Symmetric key:            1717171717171717171717171717171717171717171717171717171717171717
Plaintext:                00000000000000000000000000000000
Ciphertext:               81c07c42ad42b829e15987153d7b63543c99f23d1b7adc258fff2db24e75a717e67c5adba96b13bf4108a51f0f1bde24
Reciphers for ciphertext: 0
Decipheredtext:           00000000000000000000000000000000
RESULT CIPHER-DECIPHER: -----OK-----


Test: 24
Hash algorithm: 13
Data unit:      24
Start block:    49
Symmetric key bit length: 256
Plaintext bit length:     128
Symmetric key:            1818181818181818181818181818181818181818181818181818181818181818
Plaintext:                00000000000000000000000000000000
Ciphertext:               d21415723f57874ac9e7a35cf0a07851ea7bd13889fc08ae31853bd4d14fd966
Reciphers for ciphertext: 0
Decipheredtext:           00000000000000000000000000000000
RESULT CIPHER-DECIPHER: -----OK-----


Test: 25
Hash algorithm: 8
Data unit:      25
Start block:    51
Symmetric key bit length: 256
Plaintext bit length:     128
Symmetric key:            1919191919191919191919191919191919191919191919191919191919191919
Plaintext:                00000000000000000000000000000000
Ciphertext:               c2c8d447e82f663fa381ec5d3914fc8c0f1da20ed98ff00313237425886533ffd7a2e8a6
Reciphers for ciphertext: 0
Decipheredtext:           00000000000000000000000000000000
RESULT CIPHER-DECIPHER: -----OK-----


Test: 26
Hash algorithm: 12
Data unit:      26
Start block:    53
Symmetric key bit length: 256
Plaintext bit length:     128
Symmetric key:            1a1a1a1a1a1a1a1a1a1a1a1a1a1a1a1a1a1a1a1a1a1a1a1a1a1a1a1a1a1a1a1a
Plaintext:                00000000000000000000000000000000
Ciphertext:               f50feffc068ecc7afd47df01366c49b7eec62c147a21cc783d82e27c785dc537
Reciphers for ciphertext: 0
Decipheredtext:           00000000000000000000000000000000
RESULT CIPHER-DECIPHER: -----OK-----


Test: 27
Hash algorithm: 2
Data unit:      27
Start block:    55
Symmetric key bit length: 256
Plaintext bit length:     128
Symmetric key:            1b1b1b1b1b1b1b1b1b1b1b1b1b1b1b1b1b1b1b1b1b1b1b1b1b1b1b1b1b1b1b1b
Plaintext:                00000000000000000000000000000000
Ciphertext:               1a69efe13ffad50d0283a80d1e764e00d736028340bfd63804dbf204273a29f51ddcde97cfa981687e029654877ae7f6
Reciphers for ciphertext: 0
Decipheredtext:           00000000000000000000000000000000
RESULT CIPHER-DECIPHER: -----OK-----


Test: 28
Hash algorithm: 3
Data unit:      28
Start block:    57
Symmetric key bit length: 256
Plaintext bit length:     128
Symmetric key:            1c1c1c1c1c1c1c1c1c1c1c1c1c1c1c1c1c1c1c1c1c1c1c1c1c1c1c1c1c1c1c1c
Plaintext:                00000000000000000000000000000000
Ciphertext:               245edd7d1aa410d4e7e508eaa86175d5179df92a0b0d4f5e3e5ccd1eac4c695c2160223e472a680e6aec1e356091a979789185184abd9159e7e9d1afbc087bba
Reciphers for ciphertext: 0
Decipheredtext:           00000000000000000000000000000000
RESULT CIPHER-DECIPHER: -----OK-----


Test: 29
Hash algorithm: 11
Data unit:      29
Start block:    59
Symmetric key bit length: 256
Plaintext bit length:     128
Symmetric key:            1d1d1d1d1d1d1d1d1d1d1d1d1d1d1d1d1d1d1d1d1d1d1d1d1d1d1d1d1d1d1d1d
Plaintext:                00000000000000000000000000000000
Ciphertext:               81753a58ce2c02e4eb5da4d72a283aadca576e71195c932924d3636b921d21f5
Reciphers for ciphertext: 0
Decipheredtext:           00000000000000000000000000000000
RESULT CIPHER-DECIPHER: -----OK-----


Test: 30
Hash algorithm: 8
Data unit:      30
Start block:    61
Symmetric key bit length: 256
Plaintext bit length:     128
Symmetric key:            1e1e1e1e1e1e1e1e1e1e1e1e1e1e1e1e1e1e1e1e1e1e1e1e1e1e1e1e1e1e1e1e
Plaintext:                00000000000000000000000000000000
Ciphertext:               9d4dbccbaa8da8c452b52264415b8696595cf7738ddf1fb864ac497c38f08662958ece72
Reciphers for ciphertext: 0
Decipheredtext:           00000000000000000000000000000000
RESULT CIPHER-DECIPHER: -----OK-----


Test: 31
Hash algorithm: 9
Data unit:      31
Start block:    63
Symmetric key bit length: 256
Plaintext bit length:     128
Symmetric key:            1f1f1f1f1f1f1f1f1f1f1f1f1f1f1f1f1f1f1f1f1f1f1f1f1f1f1f1f1f1f1f1f
Plaintext:                00000000000000000000000000000000
Ciphertext:               1903e66b46b2e1880b95f03c297f5d02d834b6788a671c2855c5d53b51a76d17c75d2f7a3c6a3e58ec7162fcb65ff726
Reciphers for ciphertext: 0
Decipheredtext:           00000000000000000000000000000000
RESULT CIPHER-DECIPHER: -----OK-----


Test: 32
Hash algorithm: 6
Data unit:      32
Start block:    65
Symmetric key bit length: 256
Plaintext bit length:     128
Symmetric key:            2020202020202020202020202020202020202020202020202020202020202020
Plaintext:                00000000000000000000000000000000
Ciphertext:               420c1425e40bc9f0d676e0eb7022e132194ef3a2807d2f83edef640ba5bdcbee0f0f1c1e3b06abb7ffccdcd3388cbde0
Reciphers for ciphertext: 0
Decipheredtext:           00000000000000000000000000000000
RESULT CIPHER-DECIPHER: -----OK-----


Test: 33
Hash algorithm: 6
Data unit:      33
Start block:    67
Symmetric key bit length: 256
Plaintext bit length:     128
Symmetric key:            2121212121212121212121212121212121212121212121212121212121212121
Plaintext:                00000000000000000000000000000000
Ciphertext:               75580efb30ee01c2cde0ea7cbae399134e63872142ff1b54dfc656be6276efe909aff28096e4f07bd36e55455efb2744
Reciphers for ciphertext: 0
Decipheredtext:           00000000000000000000000000000000
RESULT CIPHER-DECIPHER: -----OK-----


Test: 34
Hash algorithm: 8
Data unit:      34
Start block:    69
Symmetric key bit length: 256
Plaintext bit length:     128
Symmetric key:            2222222222222222222222222222222222222222222222222222222222222222
Plaintext:                00000000000000000000000000000000
Ciphertext:               3eecd89863f6e419c558aeea68729e53688d9a07bd383800962b67382825d140c292686c
Reciphers for ciphertext: 0
Decipheredtext:           00000000000000000000000000000000
RESULT CIPHER-DECIPHER: -----OK-----


Test: 35
Hash algorithm: 12
Data unit:      35
Start block:    71
Symmetric key bit length: 256
Plaintext bit length:     128
Symmetric key:            2323232323232323232323232323232323232323232323232323232323232323
Plaintext:                00000000000000000000000000000000
Ciphertext:               4023a050b55493b042e271ce3217a9d1d1717c2e18f677810f1c438b4bf1a2be
Reciphers for ciphertext: 0
Decipheredtext:           00000000000000000000000000000000
RESULT CIPHER-DECIPHER: -----OK-----


Test: 36
Hash algorithm: 13
Data unit:      36
Start block:    73
Symmetric key bit length: 256
Plaintext bit length:     128
Symmetric key:            2424242424242424242424242424242424242424242424242424242424242424
Plaintext:                00000000000000000000000000000000
Ciphertext:               9457fccccdd90d35779fbdad5c2eb8db84fba7341327b3ae6b6a4be90244a8d2
Reciphers for ciphertext: 0
Decipheredtext:           00000000000000000000000000000000
RESULT CIPHER-DECIPHER: -----OK-----


Test: 37
Hash algorithm: 12
Data unit:      37
Start block:    75
Symmetric key bit length: 256
Plaintext bit length:     128
Symmetric key:            2525252525252525252525252525252525252525252525252525252525252525
Plaintext:                00000000000000000000000000000000
Ciphertext:               0973b0d82f486f3f4ee7d6c4768b70e528cf80ebcd10a08bf98f1b462adf5c4c
Reciphers for ciphertext: 0
Decipheredtext:           00000000000000000000000000000000
RESULT CIPHER-DECIPHER: -----OK-----


Test: 38
Hash algorithm: 8
Data unit:      38
Start block:    77
Symmetric key bit length: 256
Plaintext bit length:     128
Symmetric key:            2626262626262626262626262626262626262626262626262626262626262626
Plaintext:                00000000000000000000000000000000
Ciphertext:               0045bb69879d39947e7683e6c2040684c6a507d39ff0cb63190dfd3550b7c2946ab5c272
Reciphers for ciphertext: 0
Decipheredtext:           00000000000000000000000000000000
RESULT CIPHER-DECIPHER: -----OK-----


Test: 39
Hash algorithm: 3
Data unit:      39
Start block:    79
Symmetric key bit length: 256
Plaintext bit length:     128
Symmetric key:            2727272727272727272727272727272727272727272727272727272727272727
Plaintext:                00000000000000000000000000000000
Ciphertext:               ecbc82826b6f2d546bbaadd2228c4d31f41771050b221786bbc562454fcdbff75dfd1c7811bf57499826debbd4a2cff4f1f899cd880ea6d76e2e0e5d3ac37900
Reciphers for ciphertext: 0
Decipheredtext:           00000000000000000000000000000000
RESULT CIPHER-DECIPHER: -----OK-----


Test: 40
Hash algorithm: 12
Data unit:      40
Start block:    81
Symmetric key bit length: 256
Plaintext bit length:     128
Symmetric key:            2828282828282828282828282828282828282828282828282828282828282828
Plaintext:                00000000000000000000000000000000
Ciphertext:               b6dc1bfc958461d312e0c748eedfc5cb0c7a7f8fbf31f728687e2abf0ec27202
Reciphers for ciphertext: 0
Decipheredtext:           00000000000000000000000000000000
RESULT CIPHER-DECIPHER: -----OK-----


Test: 41
Hash algorithm: 10
Data unit:      41
Start block:    83
Symmetric key bit length: 256
Plaintext bit length:     128
Symmetric key:            2929292929292929292929292929292929292929292929292929292929292929
Plaintext:                00000000000000000000000000000000
Ciphertext:               3f079a884fd66064ceeed19c0a7b419c48ab783c2bb86ed5f6e2587880dfc6e467c94032e1aa9d79b8802cfc46147613341a33d1c6a6e815
Reciphers for ciphertext: 0
Decipheredtext:           00000000000000000000000000000000
RESULT CIPHER-DECIPHER: -----OK-----


Test: 42
Hash algorithm: 7
Data unit:      42
Start block:    85
Symmetric key bit length: 256
Plaintext bit length:     128
Symmetric key:            2a2a2a2a2a2a2a2a2a2a2a2a2a2a2a2a2a2a2a2a2a2a2a2a2a2a2a2a2a2a2a2a
Plaintext:                00000000000000000000000000000000
Ciphertext:               4891f3ba5bbae03dde734820732f071342635dd4963bc5b90f506b0092f57ecb
Reciphers for ciphertext: 0
Decipheredtext:           00000000000000000000000000000000
RESULT CIPHER-DECIPHER: -----OK-----


Test: 43
Hash algorithm: 9
Data unit:      43
Start block:    87
Symmetric key bit length: 256
Plaintext bit length:     128
Symmetric key:            2b2b2b2b2b2b2b2b2b2b2b2b2b2b2b2b2b2b2b2b2b2b2b2b2b2b2b2b2b2b2b2b
Plaintext:                00000000000000000000000000000000
Ciphertext:               1ed8c3b8183a986a112769febf498c2e831a98359903efbb330d2cf672faf54000bcee144f97482f5a7439e66d16befe
Reciphers for ciphertext: 0
Decipheredtext:           00000000000000000000000000000000
RESULT CIPHER-DECIPHER: -----OK-----


Test: 44
Hash algorithm: 10
Data unit:      44
Start block:    89
Symmetric key bit length: 256
Plaintext bit length:     128
Symmetric key:            2c2c2c2c2c2c2c2c2c2c2c2c2c2c2c2c2c2c2c2c2c2c2c2c2c2c2c2c2c2c2c2c
Plaintext:                00000000000000000000000000000000
Ciphertext:               1b879272ff003e27d8d2f6a0cc1c3506963c23411b9a00569ab24d3db6c536443c9bbf36018c54aed09702b623cb984064068824bd5984d0
Reciphers for ciphertext: 0
Decipheredtext:           00000000000000000000000000000000
RESULT CIPHER-DECIPHER: -----OK-----


Test: 45
Hash algorithm: 7
Data unit:      45
Start block:    91
Symmetric key bit length: 256
Plaintext bit length:     128
Symmetric key:            2d2d2d2d2d2d2d2d2d2d2d2d2d2d2d2d2d2d2d2d2d2d2d2d2d2d2d2d2d2d2d2d
Plaintext:                00000000000000000000000000000000
Ciphertext:               a2c80d6cd110846d4234774851b565c406fc9cb59b41a3e5c5f7689d0f619723
Reciphers for ciphertext: 0
Decipheredtext:           00000000000000000000000000000000
RESULT CIPHER-DECIPHER: -----OK-----


Test: 46
Hash algorithm: 12
Data unit:      46
Start block:    93
Symmetric key bit length: 256
Plaintext bit length:     128
Symmetric key:            2e2e2e2e2e2e2e2e2e2e2e2e2e2e2e2e2e2e2e2e2e2e2e2e2e2e2e2e2e2e2e2e
Plaintext:                00000000000000000000000000000000
Ciphertext:               a8868deac02f141baa6e61a6afacfff016f26ff8251519f3ee1d62daa88820d1
Reciphers for ciphertext: 0
Decipheredtext:           00000000000000000000000000000000
RESULT CIPHER-DECIPHER: -----OK-----


Test: 47
Hash algorithm: 13
Data unit:      47
Start block:    95
Symmetric key bit length: 256
Plaintext bit length:     128
Symmetric key:            2f2f2f2f2f2f2f2f2f2f2f2f2f2f2f2f2f2f2f2f2f2f2f2f2f2f2f2f2f2f2f2f
Plaintext:                00000000000000000000000000000000
Ciphertext:               99eb49460a0962b19c32b33ff77a5cb8ec9f2a67911a9fa6cb303f591a2f2581
Reciphers for ciphertext: 0
Decipheredtext:           00000000000000000000000000000000
RESULT CIPHER-DECIPHER: -----OK-----


Test: 48
Hash algorithm: 9
Data unit:      48
Start block:    97
Symmetric key bit length: 256
Plaintext bit length:     128
Symmetric key:            3030303030303030303030303030303030303030303030303030303030303030
Plaintext:                00000000000000000000000000000000
Ciphertext:               47b78096fe70c1ba0b5439f675dc077926310bf9c324ed293682bcfeac999937aa10aa1633dd8b531aa2741a0669a91a
Reciphers for ciphertext: 0
Decipheredtext:           00000000000000000000000000000000
RESULT CIPHER-DECIPHER: -----OK-----


Test: 49
Hash algorithm: 5
Data unit:      49
Start block:    99
Symmetric key bit length: 256
Plaintext bit length:     128
Symmetric key:            3131313131313131313131313131313131313131313131313131313131313131
Plaintext:                00000000000000000000000000000000
Ciphertext:               0f1d618a7649c1b2de10f9eefe76fbcd588f9097b2549b10aab769faf54bdb4038625a3646fd54733163dbad
Reciphers for ciphertext: 0
Decipheredtext:           00000000000000000000000000000000
RESULT CIPHER-DECIPHER: -----OK-----


Test: 50
Hash algorithm: 9
Data unit:      50
Start block:    101
Symmetric key bit length: 256
Plaintext bit length:     128
Symmetric key:            3232323232323232323232323232323232323232323232323232323232323232
Plaintext:                00000000000000000000000000000000
Ciphertext:               610015758a7bed8952de375f9b793565bbbbccb61873f0f2dc93ff3bc2297ec1cefc8a00984ef84034f6439032586f22
Reciphers for ciphertext: 0
Decipheredtext:           00000000000000000000000000000000
RESULT CIPHER-DECIPHER: -----OK-----


Test: 51
Hash algorithm: 11
Data unit:      51
Start block:    103
Symmetric key bit length: 256
Plaintext bit length:     128
Symmetric key:            3333333333333333333333333333333333333333333333333333333333333333
Plaintext:                00000000000000000000000000000000
Ciphertext:               d9ef8c1140c98e8aaba4134900d6903c1b60507a04e7d2a12b3bd67a986c6d01
Reciphers for ciphertext: 0
Decipheredtext:           00000000000000000000000000000000
RESULT CIPHER-DECIPHER: -----OK-----


Test: 52
Hash algorithm: 7
Data unit:      52
Start block:    105
Symmetric key bit length: 256
Plaintext bit length:     128
Symmetric key:            3434343434343434343434343434343434343434343434343434343434343434
Plaintext:                00000000000000000000000000000000
Ciphertext:               b73d9e9ed6798ca85850daa1f77b5be415d10e74d2332e34c65f9ef650c2f90e
Reciphers for ciphertext: 0
Decipheredtext:           00000000000000000000000000000000
RESULT CIPHER-DECIPHER: -----OK-----


Test: 53
Hash algorithm: 3
Data unit:      53
Start block:    107
Symmetric key bit length: 256
Plaintext bit length:     128
Symmetric key:            3535353535353535353535353535353535353535353535353535353535353535
Plaintext:                00000000000000000000000000000000
Ciphertext:               c648f3dbbfd29a411f286cebd52d60a5163d31fa88c59d9059600f631f2ea03a5ab30ba20af61404a689036d71cae472f75357ec5c755ff9593614641a83cf63
Reciphers for ciphertext: 0
Decipheredtext:           00000000000000000000000000000000
RESULT CIPHER-DECIPHER: -----OK-----


Test: 54
Hash algorithm: 1
Data unit:      54
Start block:    109
Symmetric key bit length: 256
Plaintext bit length:     128
Symmetric key:            3636363636363636363636363636363636363636363636363636363636363636
Plaintext:                00000000000000000000000000000000
Ciphertext:               0bf4bb27f4976cf08302b990525d90a6b96b4605e2a34d354015ecb44830cf7cca552faaf91a88b3cc0150ac
Reciphers for ciphertext: 0
Decipheredtext:           00000000000000000000000000000000
RESULT CIPHER-DECIPHER: -----OK-----


Test: 55
Hash algorithm: 0
Data unit:      55
Start block:    111
Symmetric key bit length: 256
Plaintext bit length:     128
Symmetric key:            3737373737373737373737373737373737373737373737373737373737373737
Plaintext:                00000000000000000000000000000000
Ciphertext:               8367d9c252aceb99f38a02966282e71352a607fb63f6baefc4dc5d34fe84ccca02637240
Reciphers for ciphertext: 0
Decipheredtext:           00000000000000000000000000000000
RESULT CIPHER-DECIPHER: -----OK-----


Test: 56
Hash algorithm: 10
Data unit:      56
Start block:    113
Symmetric key bit length: 256
Plaintext bit length:     128
Symmetric key:            3838383838383838383838383838383838383838383838383838383838383838
Plaintext:                00000000000000000000000000000000
Ciphertext:               4c87ad6507f89b7d51ee48e979f13f937511a90b56150a9ac75cb3ee81b62a72768dc166056159f688616e8c53b8147d4474deaac1083d7b
Reciphers for ciphertext: 0
Decipheredtext:           00000000000000000000000000000000
RESULT CIPHER-DECIPHER: -----OK-----


Test: 57
Hash algorithm: 13
Data unit:      57
Start block:    115
Symmetric key bit length: 256
Plaintext bit length:     128
Symmetric key:            3939393939393939393939393939393939393939393939393939393939393939
Plaintext:                00000000000000000000000000000000
Ciphertext:               e97df559c84f7a1a8eea7d6351eeb07b46a68647ee52725666adcb661c9cb801
Reciphers for ciphertext: 0
Decipheredtext:           00000000000000000000000000000000
RESULT CIPHER-DECIPHER: -----OK-----


Test: 58
Hash algorithm: 11
Data unit:      58
Start block:    117
Symmetric key bit length: 256
Plaintext bit length:     128
Symmetric key:            3a3a3a3a3a3a3a3a3a3a3a3a3a3a3a3a3a3a3a3a3a3a3a3a3a3a3a3a3a3a3a3a
Plaintext:                00000000000000000000000000000000
Ciphertext:               65517f84e81bfa5f35f48da8f90fced6cae258757377fb86b563dd7ee86ac616
Reciphers for ciphertext: 0
Decipheredtext:           00000000000000000000000000000000
RESULT CIPHER-DECIPHER: -----OK-----


Test: 59
Hash algorithm: 2
Data unit:      59
Start block:    119
Symmetric key bit length: 256
Plaintext bit length:     128
Symmetric key:            3b3b3b3b3b3b3b3b3b3b3b3b3b3b3b3b3b3b3b3b3b3b3b3b3b3b3b3b3b3b3b3b
Plaintext:                00000000000000000000000000000000
Ciphertext:               2c2a896cd40bfbc34fe77f4488c1dd8401cbc44f7377a41489db5e5f475092170a5a3f5e066ffec9f81c2aebd58579d0
Reciphers for ciphertext: 0
Decipheredtext:           00000000000000000000000000000000
RESULT CIPHER-DECIPHER: -----OK-----


Test: 60
Hash algorithm: 9
Data unit:      60
Start block:    121
Symmetric key bit length: 256
Plaintext bit length:     128
Symmetric key:            3c3c3c3c3c3c3c3c3c3c3c3c3c3c3c3c3c3c3c3c3c3c3c3c3c3c3c3c3c3c3c3c
Plaintext:                00000000000000000000000000000000
Ciphertext:               10a398d8a50ec7ce51f74b18771de85a2729cb0f7409d25c280834acd245d7406003a8e6ca9a35aa0356f60a43b4dca6
Reciphers for ciphertext: 0
Decipheredtext:           00000000000000000000000000000000
RESULT CIPHER-DECIPHER: -----OK-----


Test: 61
Hash algorithm: 5
Data unit:      61
Start block:    123
Symmetric key bit length: 256
Plaintext bit length:     128
Symmetric key:            3d3d3d3d3d3d3d3d3d3d3d3d3d3d3d3d3d3d3d3d3d3d3d3d3d3d3d3d3d3d3d3d
Plaintext:                00000000000000000000000000000000
Ciphertext:               2dc64885e37d3094446e3872e270baa3ba3c86286346a108e796f5378ceea6e6a1a1b851684c9a786207a72b
Reciphers for ciphertext: 0
Decipheredtext:           00000000000000000000000000000000
RESULT CIPHER-DECIPHER: -----OK-----


Test: 62
Hash algorithm: 10
Data unit:      62
Start block:    125
Symmetric key bit length: 256
Plaintext bit length:     128
Symmetric key:            3e3e3e3e3e3e3e3e3e3e3e3e3e3e3e3e3e3e3e3e3e3e3e3e3e3e3e3e3e3e3e3e
Plaintext:                00000000000000000000000000000000
Ciphertext:               2f768150a8fea8c2aa77b2216d3952851cb48743ac056a7e9db2d2bb1ea7207ce607ff4cb9117384f12231c5320114afe4380c6cf66a35fe
Reciphers for ciphertext: 0
Decipheredtext:           00000000000000000000000000000000
RESULT CIPHER-DECIPHER: -----OK-----


Test: 63
Hash algorithm: 12
Data unit:      63
Start block:    127
Symmetric key bit length: 256
Plaintext bit length:     128
Symmetric key:            3f3f3f3f3f3f3f3f3f3f3f3f3f3f3f3f3f3f3f3f3f3f3f3f3f3f3f3f3f3f3f3f
Plaintext:                00000000000000000000000000000000
Ciphertext:               db2ad7ac85b761cd8c087722330683321d24830a6312364455df132794a7535e
Reciphers for ciphertext: 0
Decipheredtext:           00000000000000000000000000000000
RESULT CIPHER-DECIPHER: -----OK-----


Test: 64
Hash algorithm: 10
Data unit:      64
Start block:    129
Symmetric key bit length: 256
Plaintext bit length:     128
Symmetric key:            4040404040404040404040404040404040404040404040404040404040404040
Plaintext:                00000000000000000000000000000000
Ciphertext:               de6c8d2045442b68407c0e242f714235acf946d7cde87cdbe72c211f7b19052639571a2fc6c7b666305808ef3cb427db7f1a3844b01a7023
Reciphers for ciphertext: 0
Decipheredtext:           00000000000000000000000000000000
RESULT CIPHER-DECIPHER: -----OK-----


Test: 65
Hash algorithm: 13
Data unit:      65
Start block:    131
Symmetric key bit length: 256
Plaintext bit length:     128
Symmetric key:            4141414141414141414141414141414141414141414141414141414141414141
Plaintext:                00000000000000000000000000000000
Ciphertext:               3add9ebb0627bcc24a058edbecdc152362c24684ac211942019b8455bd60c6bd
Reciphers for ciphertext: 0
Decipheredtext:           00000000000000000000000000000000
RESULT CIPHER-DECIPHER: -----OK-----


Test: 66
Hash algorithm: 6
Data unit:      66
Start block:    133
Symmetric key bit length: 256
Plaintext bit length:     128
Symmetric key:            4242424242424242424242424242424242424242424242424242424242424242
Plaintext:                00000000000000000000000000000000
Ciphertext:               b961a5f6831ec306f62066ed397cf4dd65ce7eb6caa3a1fda4905b7128756e755523510e2e04f35e6116ce18ed67d6d5
Reciphers for ciphertext: 0
Decipheredtext:           00000000000000000000000000000000
RESULT CIPHER-DECIPHER: -----OK-----


Test: 67
Hash algorithm: 13
Data unit:      67
Start block:    135
Symmetric key bit length: 256
Plaintext bit length:     128
Symmetric key:            4343434343434343434343434343434343434343434343434343434343434343
Plaintext:                00000000000000000000000000000000
Ciphertext:               6968d8b86af4919427138bb0a08e9babc532242cf83f9d595b576641e3067a2c
Reciphers for ciphertext: 0
Decipheredtext:           00000000000000000000000000000000
RESULT CIPHER-DECIPHER: -----OK-----


Test: 68
Hash algorithm: 3
Data unit:      68
Start block:    137
Symmetric key bit length: 256
Plaintext bit length:     128
Symmetric key:            4444444444444444444444444444444444444444444444444444444444444444
Plaintext:                00000000000000000000000000000000
Ciphertext:               ebe7dcc261eabc4586ef96379b3e0c09c5bcd832ec2306093bf97fb4862b298967764a6ef48d028b95237d3544195a341648deb1703a3630d68603e7c0f940e7
Reciphers for ciphertext: 0
Decipheredtext:           00000000000000000000000000000000
RESULT CIPHER-DECIPHER: -----OK-----


Test: 69
Hash algorithm: 2
Data unit:      69
Start block:    139
Symmetric key bit length: 256
Plaintext bit length:     128
Symmetric key:            4545454545454545454545454545454545454545454545454545454545454545
Plaintext:                00000000000000000000000000000000
Ciphertext:               6e5849e36f87bb25532c083ce732f442eea2666a4e49acd17216cc04c0da7388ae579a5c5216faadc846948ce8d63334
Reciphers for ciphertext: 0
Decipheredtext:           00000000000000000000000000000000
RESULT CIPHER-DECIPHER: -----OK-----


Test: 70
Hash algorithm: 12
Data unit:      70
Start block:    141
Symmetric key bit length: 256
Plaintext bit length:     128
Symmetric key:            4646464646464646464646464646464646464646464646464646464646464646
Plaintext:                00000000000000000000000000000000
Ciphertext:               fa487bb7231f150152d86709353195749425484f6a86b50876be2634eff34b50
Reciphers for ciphertext: 0
Decipheredtext:           00000000000000000000000000000000
RESULT CIPHER-DECIPHER: -----OK-----


Test: 71
Hash algorithm: 2
Data unit:      71
Start block:    143
Symmetric key bit length: 256
Plaintext bit length:     128
Symmetric key:            4747474747474747474747474747474747474747474747474747474747474747
Plaintext:                00000000000000000000000000000000
Ciphertext:               65d65fcf171fe996c74b8331e2a39234c9583dffb210ab8aa6e9e12f0df010dd83252d64c7cd9536581ebf00c28c958d
Reciphers for ciphertext: 0
Decipheredtext:           00000000000000000000000000000000
RESULT CIPHER-DECIPHER: -----OK-----


Test: 72
Hash algorithm: 12
Data unit:      72
Start block:    145
Symmetric key bit length: 256
Plaintext bit length:     128
Symmetric key:            4848484848484848484848484848484848484848484848484848484848484848
Plaintext:                00000000000000000000000000000000
Ciphertext:               f0b63607dfcd98b41221800f48e49f45465eabcac19db12b032a6aaba276762e
Reciphers for ciphertext: 0
Decipheredtext:           00000000000000000000000000000000
RESULT CIPHER-DECIPHER: -----OK-----


Test: 73
Hash algorithm: 13
Data unit:      73
Start block:    147
Symmetric key bit length: 256
Plaintext bit length:     128
Symmetric key:            4949494949494949494949494949494949494949494949494949494949494949
Plaintext:                00000000000000000000000000000000
Ciphertext:               796b391f31f64ce74b3943212d206426b850629ad00bbfbfd7e81addfe12123f
Reciphers for ciphertext: 0
Decipheredtext:           00000000000000000000000000000000
RESULT CIPHER-DECIPHER: -----OK-----


Test: 74
Hash algorithm: 12
Data unit:      74
Start block:    149
Symmetric key bit length: 256
Plaintext bit length:     128
Symmetric key:            4a4a4a4a4a4a4a4a4a4a4a4a4a4a4a4a4a4a4a4a4a4a4a4a4a4a4a4a4a4a4a4a
Plaintext:                00000000000000000000000000000000
Ciphertext:               a29bb726604426837422a6e1491c3209992b622479283504f39e56e9ea2c9aad
Reciphers for ciphertext: 0
Decipheredtext:           00000000000000000000000000000000
RESULT CIPHER-DECIPHER: -----OK-----


Test: 75
Hash algorithm: 0
Data unit:      75
Start block:    151
Symmetric key bit length: 256
Plaintext bit length:     128
Symmetric key:            4b4b4b4b4b4b4b4b4b4b4b4b4b4b4b4b4b4b4b4b4b4b4b4b4b4b4b4b4b4b4b4b
Plaintext:                00000000000000000000000000000000
Ciphertext:               a1c880c230f1541cde4107b92d7cc2a44eeac849df182e876706efe353505c72cae725aa
Reciphers for ciphertext: 0
Decipheredtext:           00000000000000000000000000000000
RESULT CIPHER-DECIPHER: -----OK-----


Test: 76
Hash algorithm: 9
Data unit:      76
Start block:    153
Symmetric key bit length: 256
Plaintext bit length:     128
Symmetric key:            4c4c4c4c4c4c4c4c4c4c4c4c4c4c4c4c4c4c4c4c4c4c4c4c4c4c4c4c4c4c4c4c
Plaintext:                00000000000000000000000000000000
Ciphertext:               8a39eef0816ae9a07b2f13efa927132d05669bbbf8f09c4b22edd8ab0e555c8ae1ee06e545634580909ddecea67998b4
Reciphers for ciphertext: 0
Decipheredtext:           00000000000000000000000000000000
RESULT CIPHER-DECIPHER: -----OK-----


Test: 77
Hash algorithm: 2
Data unit:      77
Start block:    155
Symmetric key bit length: 256
Plaintext bit length:     128
Symmetric key:            4d4d4d4d4d4d4d4d4d4d4d4d4d4d4d4d4d4d4d4d4d4d4d4d4d4d4d4d4d4d4d4d
Plaintext:                00000000000000000000000000000000
Ciphertext:               78749253666a5a4962b358bde1a0c0f452a30e579f1db722684aa6352dfc1285afae4d0a61f763728ceeebf04edbb22d
Reciphers for ciphertext: 0
Decipheredtext:           00000000000000000000000000000000
RESULT CIPHER-DECIPHER: -----OK-----


Test: 78
Hash algorithm: 8
Data unit:      78
Start block:    157
Symmetric key bit length: 256
Plaintext bit length:     128
Symmetric key:            4e4e4e4e4e4e4e4e4e4e4e4e4e4e4e4e4e4e4e4e4e4e4e4e4e4e4e4e4e4e4e4e
Plaintext:                00000000000000000000000000000000
Ciphertext:               15da06d1642feb304d43042be21c1ea8a1460518257c0639d93c9c44a5efd9f4acef822a
Reciphers for ciphertext: 0
Decipheredtext:           00000000000000000000000000000000
RESULT CIPHER-DECIPHER: -----OK-----


Test: 79
Hash algorithm: 7
Data unit:      79
Start block:    159
Symmetric key bit length: 256
Plaintext bit length:     128
Symmetric key:            4f4f4f4f4f4f4f4f4f4f4f4f4f4f4f4f4f4f4f4f4f4f4f4f4f4f4f4f4f4f4f4f
Plaintext:                00000000000000000000000000000000
Ciphertext:               d7317447672e2d16351cb0c7842ee5ae37c4766f0626115d5c17316ad5086c1a
Reciphers for ciphertext: 0
Decipheredtext:           00000000000000000000000000000000
RESULT CIPHER-DECIPHER: -----OK-----


Test: 80
Hash algorithm: 10
Data unit:      80
Start block:    161
Symmetric key bit length: 256
Plaintext bit length:     128
Symmetric key:            5050505050505050505050505050505050505050505050505050505050505050
Plaintext:                00000000000000000000000000000000
Ciphertext:               a5962a02b2ceb394c889f551fd28fd00f1cefa026c3fd830411fb570a6cb499da59a122143194f3466ab62977b67acca71e9139e840ebc5b
Reciphers for ciphertext: 0
Decipheredtext:           00000000000000000000000000000000
RESULT CIPHER-DECIPHER: -----OK-----


Test: 81
Hash algorithm: 3
Data unit:      81
Start block:    163
Symmetric key bit length: 256
Plaintext bit length:     128
Symmetric key:            5151515151515151515151515151515151515151515151515151515151515151
Plaintext:                00000000000000000000000000000000
Ciphertext:               344452e44cc11bd97c670ec2fe57ed6cee57798016eae35b849029a0fd598869330d01642c24c2c9cbe5de4e8ea3024fb7cf11283a8a8418fd8b571a1445879b
Reciphers for ciphertext: 0
Decipheredtext:           00000000000000000000000000000000
RESULT CIPHER-DECIPHER: -----OK-----


Test: 82
Hash algorithm: 2
Data unit:      82
Start block:    165
Symmetric key bit length: 256
Plaintext bit length:     128
Symmetric key:            5252525252525252525252525252525252525252525252525252525252525252
Plaintext:                00000000000000000000000000000000
Ciphertext:               f07b3a2add62819544e7e8e920d87f39ece0b9c023126545f5d86c89977b284413a66adbe6aeab4a8c645f62584388ab
Reciphers for ciphertext: 0
Decipheredtext:           00000000000000000000000000000000
RESULT CIPHER-DECIPHER: -----OK-----


Test: 83
Hash algorithm: 13
Data unit:      83
Start block:    167
Symmetric key bit length: 256
Plaintext bit length:     128
Symmetric key:            5353535353535353535353535353535353535353535353535353535353535353
Plaintext:                00000000000000000000000000000000
Ciphertext:               677a9161142a038708458035194a8b0f63f2ec3450641631e6c610ae386a3bf8
Reciphers for ciphertext: 0
Decipheredtext:           00000000000000000000000000000000
RESULT CIPHER-DECIPHER: -----OK-----


Test: 84
Hash algorithm: 2
Data unit:      84
Start block:    169
Symmetric key bit length: 256
Plaintext bit length:     128
Symmetric key:            5454545454545454545454545454545454545454545454545454545454545454
Plaintext:                00000000000000000000000000000000
Ciphertext:               12ceafdef69a82c6bdff3b2c291a3368106cdbace5209f0211c6a49c91616a13a69687dac9a9fbd3175f624beae95711
Reciphers for ciphertext: 0
Decipheredtext:           00000000000000000000000000000000
RESULT CIPHER-DECIPHER: -----OK-----


Test: 85
Hash algorithm: 0
Data unit:      85
Start block:    171
Symmetric key bit length: 256
Plaintext bit length:     128
Symmetric key:            5555555555555555555555555555555555555555555555555555555555555555
Plaintext:                00000000000000000000000000000000
Ciphertext:               a68a629656adcb36f3933de2f5cd000f5ad3d6ddacb7a4a10667a29cad05ec2da08197be
Reciphers for ciphertext: 0
Decipheredtext:           00000000000000000000000000000000
RESULT CIPHER-DECIPHER: -----OK-----


Test: 86
Hash algorithm: 4
Data unit:      86
Start block:    173
Symmetric key bit length: 256
Plaintext bit length:     128
Symmetric key:            5656565656565656565656565656565656565656565656565656565656565656
Plaintext:                00000000000000000000000000000000
Ciphertext:               3f18527299bbb2be786307ce5d4bbcbac854b3e7d6095dc488f5d096537813def99b3066cb29670e83833eb66ce3d35aa8e5fb834a92f047855076113508e1c7fe7b439e3ad5f106b719d9aa55e7028e
Reciphers for ciphertext: 0
Decipheredtext:           00000000000000000000000000000000
RESULT CIPHER-DECIPHER: -----OK-----


Test: 87
Hash algorithm: 13
Data unit:      87
Start block:    175
Symmetric key bit length: 256
Plaintext bit length:     128
Symmetric key:            5757575757575757575757575757575757575757575757575757575757575757
Plaintext:                00000000000000000000000000000000
Ciphertext:               1ccc671cb1b8b3c98dd3dbb0af11e749bc424ec99f1f6cc1e61d4793b35197d6
Reciphers for ciphertext: 0
Decipheredtext:           00000000000000000000000000000000
RESULT CIPHER-DECIPHER: -----OK-----


Test: 88
Hash algorithm: 3
Data unit:      88
Start block:    177
Symmetric key bit length: 256
Plaintext bit length:     128
Symmetric key:            5858585858585858585858585858585858585858585858585858585858585858
Plaintext:                00000000000000000000000000000000
Ciphertext:               3b876c1dd28bfe3398f9a3311f1ad95f8d54387abc3d1f510fb1433f8e3fe0e3fbbbad1b81804b64603c5bc71eea28517759637d523a86554148b1f82a6f9227
Reciphers for ciphertext: 0
Decipheredtext:           00000000000000000000000000000000
RESULT CIPHER-DECIPHER: -----OK-----


Test: 89
Hash algorithm: 10
Data unit:      89
Start block:    179
Symmetric key bit length: 256
Plaintext bit length:     128
Symmetric key:            5959595959595959595959595959595959595959595959595959595959595959
Plaintext:                00000000000000000000000000000000
Ciphertext:               a291faaa25e811b681bc1757f6cd99b338776ec1e6035d64f030c50af1605b730e16aa446ad453643d8a25d78493cfb1ae3419a5a4cca0c9
Reciphers for ciphertext: 0
Decipheredtext:           00000000000000000000000000000000
RESULT CIPHER-DECIPHER: -----OK-----


Test: 90
Hash algorithm: 11
Data unit:      90
Start block:    181
Symmetric key bit length: 256
Plaintext bit length:     128
Symmetric key:            5a5a5a5a5a5a5a5a5a5a5a5a5a5a5a5a5a5a5a5a5a5a5a5a5a5a5a5a5a5a5a5a
Plaintext:                00000000000000000000000000000000
Ciphertext:               be8a633e93d8f87bf489be04ed04268688c67ccb1f4e1c866c4413ba2bbbcfd6
Reciphers for ciphertext: 0
Decipheredtext:           00000000000000000000000000000000
RESULT CIPHER-DECIPHER: -----OK-----


Test: 91
Hash algorithm: 13
Data unit:      91
Start block:    183
Symmetric key bit length: 256
Plaintext bit length:     128
Symmetric key:            5b5b5b5b5b5b5b5b5b5b5b5b5b5b5b5b5b5b5b5b5b5b5b5b5b5b5b5b5b5b5b5b
Plaintext:                00000000000000000000000000000000
Ciphertext:               80fa6188f365687cd8c996ae2eb554cb701c7e6137ae72f0caab30eb2da6ddd9
Reciphers for ciphertext: 0
Decipheredtext:           00000000000000000000000000000000
RESULT CIPHER-DECIPHER: -----OK-----


Test: 92
Hash algorithm: 7
Data unit:      92
Start block:    185
Symmetric key bit length: 256
Plaintext bit length:     128
Symmetric key:            5c5c5c5c5c5c5c5c5c5c5c5c5c5c5c5c5c5c5c5c5c5c5c5c5c5c5c5c5c5c5c5c
Plaintext:                00000000000000000000000000000000
Ciphertext:               5a8f41629149dc6937b500ae77c207d9c767318ca121cfca8149e3307ca787cd
Reciphers for ciphertext: 0
Decipheredtext:           00000000000000000000000000000000
RESULT CIPHER-DECIPHER: -----OK-----


Test: 93
Hash algorithm: 8
Data unit:      93
Start block:    187
Symmetric key bit length: 256
Plaintext bit length:     128
Symmetric key:            5d5d5d5d5d5d5d5d5d5d5d5d5d5d5d5d5d5d5d5d5d5d5d5d5d5d5d5d5d5d5d5d
Plaintext:                00000000000000000000000000000000
Ciphertext:               462f356c807382bb43bed424b3b98ef89985c831e1710590eeddbcd89b21124fe7718b42
Reciphers for ciphertext: 0
Decipheredtext:           00000000000000000000000000000000
RESULT CIPHER-DECIPHER: -----OK-----


Test: 94
Hash algorithm: 4
Data unit:      94
Start block:    189
Symmetric key bit length: 256
Plaintext bit length:     128
Symmetric key:            5e5e5e5e5e5e5e5e5e5e5e5e5e5e5e5e5e5e5e5e5e5e5e5e5e5e5e5e5e5e5e5e
Plaintext:                00000000000000000000000000000000
Ciphertext:               64fef4fda1d0612e640e92b631142059c760fb766291580ed22e53a7ed5d9eadbb905679d355aca8df10241ed6180724acb84472242d3bbce7f173bca8f071ab65143f5b2b1feefdb3033d21a44d10b4
Reciphers for ciphertext: 0
Decipheredtext:           00000000000000000000000000000000
RESULT CIPHER-DECIPHER: -----OK-----


Test: 95
Hash algorithm: 12
Data unit:      95
Start block:    191
Symmetric key bit length: 256
Plaintext bit length:     128
Symmetric key:            5f5f5f5f5f5f5f5f5f5f5f5f5f5f5f5f5f5f5f5f5f5f5f5f5f5f5f5f5f5f5f5f
Plaintext:                00000000000000000000000000000000
Ciphertext:               f19318bcf8a173ee6e50e53fb8e57132bdea1f17ea1118fde87d777ac0e1c6dc
Reciphers for ciphertext: 0
Decipheredtext:           00000000000000000000000000000000
RESULT CIPHER-DECIPHER: -----OK-----


Test: 96
Hash algorithm: 10
Data unit:      96
Start block:    193
Symmetric key bit length: 256
Plaintext bit length:     128
Symmetric key:            6060606060606060606060606060606060606060606060606060606060606060
Plaintext:                00000000000000000000000000000000
Ciphertext:               e0b2e47ccd3df6ded646cd52621fb1c32e200ab1c2071b731f04c8e18ec173ae1107617459c4c365ec9fb857f6e426558064940ab1cfc5c5
Reciphers for ciphertext: 0
Decipheredtext:           00000000000000000000000000000000
RESULT CIPHER-DECIPHER: -----OK-----


Test: 97
Hash algorithm: 8
Data unit:      97
Start block:    195
Symmetric key bit length: 256
Plaintext bit length:     128
Symmetric key:            6161616161616161616161616161616161616161616161616161616161616161
Plaintext:                00000000000000000000000000000000
Ciphertext:               f423776e3c3d5e18b602c9ef763669e55cfbab348d1ac2aaa2e482b4bfde795cb46b5edb
Reciphers for ciphertext: 0
Decipheredtext:           00000000000000000000000000000000
RESULT CIPHER-DECIPHER: -----OK-----


Test: 98
Hash algorithm: 5
Data unit:      98
Start block:    197
Symmetric key bit length: 256
Plaintext bit length:     128
Symmetric key:            6262626262626262626262626262626262626262626262626262626262626262
Plaintext:                00000000000000000000000000000000
Ciphertext:               4ef4d7531825b54c01da319b4528260d1b542e3f882e190658d3bdcc86a1b0c31cf1c1cfb38a7a9f194ef5f6
Reciphers for ciphertext: 0
Decipheredtext:           00000000000000000000000000000000
RESULT CIPHER-DECIPHER: -----OK-----


Test: 99
Hash algorithm: 0
Data unit:      99
Start block:    199
Symmetric key bit length: 256
Plaintext bit length:     128
Symmetric key:            6363636363636363636363636363636363636363636363636363636363636363
Plaintext:                00000000000000000000000000000000
Ciphertext:               9b89dc14b4cfa0f7e2c920fa329cbaa95e5a17eea3c8611d01ed48993dec540db364ef96
Reciphers for ciphertext: 0
Decipheredtext:           00000000000000000000000000000000
RESULT CIPHER-DECIPHER: -----OK-----


Test: 100
Hash algorithm: 3
Data unit:      100
Start block:    201
Symmetric key bit length: 256
Plaintext bit length:     128
Symmetric key:            6464646464646464646464646464646464646464646464646464646464646464
Plaintext:                00000000000000000000000000000000
Ciphertext:               967e1faca9b511a761b3f1eb79c028e01cbc6fa0d26f1fbd2064450f126ab3e6a6223a82db37d34298d0f4cfb076f27f4e668570120127341b2970f82ca0c777
Reciphers for ciphertext: 0
Decipheredtext:           00000000000000000000000000000000
RESULT CIPHER-DECIPHER: -----OK-----


Test: 101
Hash algorithm: 13
Data unit:      101
Start block:    203
Symmetric key bit length: 256
Plaintext bit length:     128
Symmetric key:            6565656565656565656565656565656565656565656565656565656565656565
Plaintext:                00000000000000000000000000000000
Ciphertext:               cbb757dfcbf6d4acfe2a09884804768d42be457d0bf3dd01ee71f3ecc1627fd6
Reciphers for ciphertext: 0
Decipheredtext:           00000000000000000000000000000000
RESULT CIPHER-DECIPHER: -----OK-----


Test: 102
Hash algorithm: 11
Data unit:      102
Start block:    205
Symmetric key bit length: 256
Plaintext bit length:     128
Symmetric key:            6666666666666666666666666666666666666666666666666666666666666666
Plaintext:                00000000000000000000000000000000
Ciphertext:               41515033630aa4354f1fedce89ec588d47c38d6660acec59d2eddbe7e3bf5a8b
Reciphers for ciphertext: 0
Decipheredtext:           00000000000000000000000000000000
RESULT CIPHER-DECIPHER: -----OK-----


Test: 103
Hash algorithm: 4
Data unit:      103
Start block:    207
Symmetric key bit length: 256
Plaintext bit length:     128
Symmetric key:            6767676767676767676767676767676767676767676767676767676767676767
Plaintext:                00000000000000000000000000000000
Ciphertext:               2f8f5ebafde78817cdeefff528c156e0949cb59528ac4e12d03e01978a6d7772c755f51fdf445b582d50aab40d136b3a635e3d427b6797902d1baf9c060a64567b5b565de282425c70a752e8e7f4db78
Reciphers for ciphertext: 0
Decipheredtext:           00000000000000000000000000000000
RESULT CIPHER-DECIPHER: -----OK-----


Test: 104
Hash algorithm: 9
Data unit:      104
Start block:    209
Symmetric key bit length: 256
Plaintext bit length:     128
Symmetric key:            6868686868686868686868686868686868686868686868686868686868686868
Plaintext:                00000000000000000000000000000000
Ciphertext:               46f02846089989554e84bb237a71e6ea3a8d01e826aaa1758df84a972d7fde520240f72c9af56dc8c399b97439da128d
Reciphers for ciphertext: 0
Decipheredtext:           00000000000000000000000000000000
RESULT CIPHER-DECIPHER: -----OK-----


Test: 105
Hash algorithm: 10
Data unit:      105
Start block:    211
Symmetric key bit length: 256
Plaintext bit length:     128
Symmetric key:            6969696969696969696969696969696969696969696969696969696969696969
Plaintext:                00000000000000000000000000000000
Ciphertext:               15e9e0daa606b6b24b6e9a5787a099aa9961989846ee00ce311f39e795630fc2ab9ae675ac02e438862fb81881132b499dcc538da4daedf2
Reciphers for ciphertext: 0
Decipheredtext:           00000000000000000000000000000000
RESULT CIPHER-DECIPHER: -----OK-----


Test: 106
Hash algorithm: 6
Data unit:      106
Start block:    213
Symmetric key bit length: 256
Plaintext bit length:     128
Symmetric key:            6a6a6a6a6a6a6a6a6a6a6a6a6a6a6a6a6a6a6a6a6a6a6a6a6a6a6a6a6a6a6a6a
Plaintext:                00000000000000000000000000000000
Ciphertext:               703a835547c865037d1cf8ade7c371881b3d4b1dd039c6cbb4706587e746bb56c403dec53988117934b0aa420d9075cd
Reciphers for ciphertext: 0
Decipheredtext:           00000000000000000000000000000000
RESULT CIPHER-DECIPHER: -----OK-----


Test: 107
Hash algorithm: 3
Data unit:      107
Start block:    215
Symmetric key bit length: 256
Plaintext bit length:     128
Symmetric key:            6b6b6b6b6b6b6b6b6b6b6b6b6b6b6b6b6b6b6b6b6b6b6b6b6b6b6b6b6b6b6b6b
Plaintext:                00000000000000000000000000000000
Ciphertext:               f77fcc3389ba0f7a918c10a3c1c7125cc9ad2ca880dd88b8fd8b85bf4dda0d17a8516111214ef2e807509a064276804daf73c7c3e0d4867d6853bee6cf539706
Reciphers for ciphertext: 0
Decipheredtext:           00000000000000000000000000000000
RESULT CIPHER-DECIPHER: -----OK-----


Test: 108
Hash algorithm: 11
Data unit:      108
Start block:    217
Symmetric key bit length: 256
Plaintext bit length:     128
Symmetric key:            6c6c6c6c6c6c6c6c6c6c6c6c6c6c6c6c6c6c6c6c6c6c6c6c6c6c6c6c6c6c6c6c
Plaintext:                00000000000000000000000000000000
Ciphertext:               7751d51d0ac90dca83ead3031209a6ac91b3524aceb03893602d4517d83855c3
Reciphers for ciphertext: 0
Decipheredtext:           00000000000000000000000000000000
RESULT CIPHER-DECIPHER: -----OK-----


Test: 109
Hash algorithm: 8
Data unit:      109
Start block:    219
Symmetric key bit length: 256
Plaintext bit length:     128
Symmetric key:            6d6d6d6d6d6d6d6d6d6d6d6d6d6d6d6d6d6d6d6d6d6d6d6d6d6d6d6d6d6d6d6d
Plaintext:                00000000000000000000000000000000
Ciphertext:               eb9463dd75848267746d0ca5cfe71dc9e412b033b921f50893b659edaa3b12e79a4cdeb7
Reciphers for ciphertext: 0
Decipheredtext:           00000000000000000000000000000000
RESULT CIPHER-DECIPHER: -----OK-----


Test: 110
Hash algorithm: 3
Data unit:      110
Start block:    221
Symmetric key bit length: 256
Plaintext bit length:     128
Symmetric key:            6e6e6e6e6e6e6e6e6e6e6e6e6e6e6e6e6e6e6e6e6e6e6e6e6e6e6e6e6e6e6e6e
Plaintext:                00000000000000000000000000000000
Ciphertext:               fedb0d681b21c8c4ec2cef1c0c1ac57d149c5e2d7933a550fa93ec6ce78e789703dc6d6b847bf227f2210ed57cda918fcf26b4ab6a387f57d110f1ef7a1a830b
Reciphers for ciphertext: 0
Decipheredtext:           00000000000000000000000000000000
RESULT CIPHER-DECIPHER: -----OK-----


Test: 111
Hash algorithm: 7
Data unit:      111
Start block:    223
Symmetric key bit length: 256
Plaintext bit length:     128
Symmetric key:            6f6f6f6f6f6f6f6f6f6f6f6f6f6f6f6f6f6f6f6f6f6f6f6f6f6f6f6f6f6f6f6f
Plaintext:                00000000000000000000000000000000
Ciphertext:               c7aa7088a1b465f8f95c054d27e271e59eeb2104eb9a6bbeda3fa3bf876fc045
Reciphers for ciphertext: 0
Decipheredtext:           00000000000000000000000000000000
RESULT CIPHER-DECIPHER: -----OK-----


Test: 112
Hash algorithm: 3
Data unit:      112
Start block:    225
Symmetric key bit length: 256
Plaintext bit length:     128
Symmetric key:            7070707070707070707070707070707070707070707070707070707070707070
Plaintext:                00000000000000000000000000000000
Ciphertext:               de31e694d99f6d713dd74dffbd3875038f42fc4e864a10b09171e8068e706ea5e91231b63413a015db3ca7e35c496ec560499473880f43149b09e071e14afd3d
Reciphers for ciphertext: 0
Decipheredtext:           00000000000000000000000000000000
RESULT CIPHER-DECIPHER: -----OK-----


Test: 113
Hash algorithm: 2
Data unit:      113
Start block:    227
Symmetric key bit length: 256
Plaintext bit length:     128
Symmetric key:            7171717171717171717171717171717171717171717171717171717171717171
Plaintext:                00000000000000000000000000000000
Ciphertext:               f313a1deba8e1a7f77445e2526f91fc6df46e20911fc361b2f8dcb98bf3d59ba6d4ce1dc1f5877c92d144615d8a53758
Reciphers for ciphertext: 0
Decipheredtext:           00000000000000000000000000000000
RESULT CIPHER-DECIPHER: -----OK-----


Test: 114
Hash algorithm: 6
Data unit:      114
Start block:    229
Symmetric key bit length: 256
Plaintext bit length:     128
Symmetric key:            7272727272727272727272727272727272727272727272727272727272727272
Plaintext:                00000000000000000000000000000000
Ciphertext:               ff0270a27633e5142bf68b06c02352dc46bb95949a75b8a6e859b3896ea24d90f828bc5e4cb5569ed971628e385fd287
Reciphers for ciphertext: 0
Decipheredtext:           00000000000000000000000000000000
RESULT CIPHER-DECIPHER: -----OK-----


Test: 115
Hash algorithm: 4
Data unit:      115
Start block:    231
Symmetric key bit length: 256
Plaintext bit length:     128
Symmetric key:            7373737373737373737373737373737373737373737373737373737373737373
Plaintext:                00000000000000000000000000000000
Ciphertext:               3115dd741566046301d4cf54fa50b74d838564a73af6233ca135768a29a11a2d584b99a69153a0308e4525ccefd3e9ce50530a58222003b4702c346ed454bb86c8254465679d25dbb9ac2b7b733333ab
Reciphers for ciphertext: 1
Decipheredtext:           00000000000000000000000000000000
RESULT CIPHER-DECIPHER: -----OK-----


Test: 116
Hash algorithm: 5
Data unit:      116
Start block:    233
Symmetric key bit length: 256
Plaintext bit length:     128
Symmetric key:            7474747474747474747474747474747474747474747474747474747474747474
Plaintext:                00000000000000000000000000000000
Ciphertext:               bd855545a01bb97d64777fb3ad076101c82713bd481dc039f0c16df90e67c2a719b818a3d25a86ca7324a830
Reciphers for ciphertext: 0
Decipheredtext:           00000000000000000000000000000000
RESULT CIPHER-DECIPHER: -----OK-----


Test: 117
Hash algorithm: 7
Data unit:      117
Start block:    235
Symmetric key bit length: 256
Plaintext bit length:     128
Symmetric key:            7575757575757575757575757575757575757575757575757575757575757575
Plaintext:                00000000000000000000000000000000
Ciphertext:               905cd8e4719b4e70d243234591b2b3313ddaefd8c4f4b92dad9b509eacdec45a
Reciphers for ciphertext: 0
Decipheredtext:           00000000000000000000000000000000
RESULT CIPHER-DECIPHER: -----OK-----


Test: 118
Hash algorithm: 1
Data unit:      118
Start block:    237
Symmetric key bit length: 256
Plaintext bit length:     128
Symmetric key:            7676767676767676767676767676767676767676767676767676767676767676
Plaintext:                00000000000000000000000000000000
Ciphertext:               ac738881629a4a1d9d658d5034e6600b5a801b59b01673374145d7bd4d45a5b5d8ad5dd33dc160544756aa64
Reciphers for ciphertext: 0
Decipheredtext:           00000000000000000000000000000000
RESULT CIPHER-DECIPHER: -----OK-----


Test: 119
Hash algorithm: 13
Data unit:      119
Start block:    239
Symmetric key bit length: 256
Plaintext bit length:     128
Symmetric key:            7777777777777777777777777777777777777777777777777777777777777777
Plaintext:                00000000000000000000000000000000
Ciphertext:               b7f430b75a190937ac197ea8f369e1468c4b928afa4cf8fbf8c55fb509e67797
Reciphers for ciphertext: 0
Decipheredtext:           00000000000000000000000000000000
RESULT CIPHER-DECIPHER: -----OK-----


Test: 120
Hash algorithm: 2
Data unit:      120
Start block:    241
Symmetric key bit length: 256
Plaintext bit length:     128
Symmetric key:            7878787878787878787878787878787878787878787878787878787878787878
Plaintext:                00000000000000000000000000000000
Ciphertext:               1286a829659410e085f8c64842c59c906d5b5af58243d2b32ac866c63b04c094ff2931a731e893e85ecab05b498f25f1
Reciphers for ciphertext: 0
Decipheredtext:           00000000000000000000000000000000
RESULT CIPHER-DECIPHER: -----OK-----


Test: 121
Hash algorithm: 7
Data unit:      121
Start block:    243
Symmetric key bit length: 256
Plaintext bit length:     128
Symmetric key:            7979797979797979797979797979797979797979797979797979797979797979
Plaintext:                00000000000000000000000000000000
Ciphertext:               bbb502975bdf7283ad8217b92dea19c87364647874fcc9eaf0ecfc191a1501a1
Reciphers for ciphertext: 0
Decipheredtext:           00000000000000000000000000000000
RESULT CIPHER-DECIPHER: -----OK-----


Test: 122
Hash algorithm: 1
Data unit:      122
Start block:    245
Symmetric key bit length: 256
Plaintext bit length:     128
Symmetric key:            7a7a7a7a7a7a7a7a7a7a7a7a7a7a7a7a7a7a7a7a7a7a7a7a7a7a7a7a7a7a7a7a
Plaintext:                00000000000000000000000000000000
Ciphertext:               d4625c9410c19b2151d60b9c865a6af7c35210e2f071ace4a2a1149d32243d4ac5b80b534ca2f27c1f663410
Reciphers for ciphertext: 0
Decipheredtext:           00000000000000000000000000000000
RESULT CIPHER-DECIPHER: -----OK-----


Test: 123
Hash algorithm: 9
Data unit:      123
Start block:    247
Symmetric key bit length: 256
Plaintext bit length:     128
Symmetric key:            7b7b7b7b7b7b7b7b7b7b7b7b7b7b7b7b7b7b7b7b7b7b7b7b7b7b7b7b7b7b7b7b
Plaintext:                00000000000000000000000000000000
Ciphertext:               cb16fed98b7099cb9036d938ed4234f060effe01b60400d17ce2054dd73d8175a3c347ec5ae9ba932b43c738343e0251
Reciphers for ciphertext: 0
Decipheredtext:           00000000000000000000000000000000
RESULT CIPHER-DECIPHER: -----OK-----


Test: 124
Hash algorithm: 10
Data unit:      124
Start block:    249
Symmetric key bit length: 256
Plaintext bit length:     128
Symmetric key:            7c7c7c7c7c7c7c7c7c7c7c7c7c7c7c7c7c7c7c7c7c7c7c7c7c7c7c7c7c7c7c7c
Plaintext:                00000000000000000000000000000000
Ciphertext:               c74498ec7943b904a8a89a2153dfcb89a1b3897177c87b574bd660c50bea06f886f0523c3b2c25476eb74c7e0abf77a778132c350d19385f
Reciphers for ciphertext: 0
Decipheredtext:           00000000000000000000000000000000
RESULT CIPHER-DECIPHER: -----OK-----


Test: 125
Hash algorithm: 1
Data unit:      125
Start block:    251
Symmetric key bit length: 256
Plaintext bit length:     128
Symmetric key:            7d7d7d7d7d7d7d7d7d7d7d7d7d7d7d7d7d7d7d7d7d7d7d7d7d7d7d7d7d7d7d7d
Plaintext:                00000000000000000000000000000000
Ciphertext:               0abc279a1fe510d941b147b65c7e51d900cb800b179d6ec789baffc760269fa82ea934a8dcb3439cd9c9e068
Reciphers for ciphertext: 0
Decipheredtext:           00000000000000000000000000000000
RESULT CIPHER-DECIPHER: -----OK-----


Test: 126
Hash algorithm: 1
Data unit:      126
Start block:    253
Symmetric key bit length: 256
Plaintext bit length:     128
Symmetric key:            7e7e7e7e7e7e7e7e7e7e7e7e7e7e7e7e7e7e7e7e7e7e7e7e7e7e7e7e7e7e7e7e
Plaintext:                00000000000000000000000000000000
Ciphertext:               176b414262a99310b1e467115a8f171f9f87e3906f597e7690aabdcd61b2536390bdaddd258fe31a9ddec9f2
Reciphers for ciphertext: 0
Decipheredtext:           00000000000000000000000000000000
RESULT CIPHER-DECIPHER: -----OK-----


Test: 127
Hash algorithm: 2
Data unit:      127
Start block:    255
Symmetric key bit length: 256
Plaintext bit length:     128
Symmetric key:            7f7f7f7f7f7f7f7f7f7f7f7f7f7f7f7f7f7f7f7f7f7f7f7f7f7f7f7f7f7f7f7f
Plaintext:                00000000000000000000000000000000
Ciphertext:               59fcffb12880a468bae3edb5654b2afe92e38d243d6cd97ad7bc2f0c10453d110d0d98e938edd4be7b19ac08a390da65
Reciphers for ciphertext: 0
Decipheredtext:           00000000000000000000000000000000
RESULT CIPHER-DECIPHER: -----OK-----


 DATA SHA1 (hexadecimal): c61de5aa5cddcac0ce375ec96ff77df5edb6dbca

