
DiceLock 9.0.0.1

 TEST COMPONENTS:
 ----------------
 DiceLock:           DiceLockXTSDigested class
                     Operating over full text length
 Operation Mode:     XTS_Mode class
 Block Cipher:       AES192 class
 Hash algorithms:     0 - Sha1 class
                      1 - Sha224 class
                      2 - Sha256 class
                      3 - Sha384 class
                      4 - Sha512 class
                      5 - Sha512_224 class
                      6 - Sha512_256 class
                      7 - Ripemd128 class
                      8 - Ripemd160 class
                      9 - Ripemd256 class
                     10 - Ripemd320 class
                     11 - MD2 class
                     12 - MD4 class
                     13 - MD5 class
 Key Modifier:       IncreaseKeyModifier_6_0_0_1 class
 Random tests:       RandomTestSuite class
                     FrequencyTest class
                     BlockFrequencyTest class
                     CumulativeSumForwardTest class
                     LongestRunOfOnesTest class
                     RunsTest class
 Random alpha:       0.001

 VECTOR TEST: Test vector 5 - Symmetric key all byte value 0xXX and plaintext all byte value 0xYY


##### INDIVIDUAL TESTS #####

Number tests: 128


Test: 0
Hash algorithm: 3
Data unit:      0
Start block:    1
Symmetric key bit length: 384
Plaintext bit length:     128
Symmetric key:            000000000000000000000000000000000000000000000000000000000000000000000000000000000000000000000000
Plaintext:                ffffffffffffffffffffffffffffffff
Ciphertext:               6adb097d23686156f55c63969daf6ecdfa18c0f3c4e2ad80919e27464101648e4525ef983a3d54f65ae0bb0bb98b396128c2bdc64650b7a9f4ddb340ac4ec3fe
Reciphers for ciphertext: 0
Decipheredtext:           ffffffffffffffffffffffffffffffff
RESULT CIPHER-DECIPHER: -----OK-----


Test: 1
Hash algorithm: 0
Data unit:      1
Start block:    3
Symmetric key bit length: 384
Plaintext bit length:     128
Symmetric key:            010101010101010101010101010101010101010101010101010101010101010101010101010101010101010101010101
Plaintext:                fefefefefefefefefefefefefefefefe
Ciphertext:               ba249b77300144584c8425d48c0e3f719fe5c69ea89fbc22ececb7a95e4a10a5e397f726
Reciphers for ciphertext: 0
Decipheredtext:           fefefefefefefefefefefefefefefefe
RESULT CIPHER-DECIPHER: -----OK-----


Test: 2
Hash algorithm: 13
Data unit:      2
Start block:    5
Symmetric key bit length: 384
Plaintext bit length:     128
Symmetric key:            020202020202020202020202020202020202020202020202020202020202020202020202020202020202020202020202
Plaintext:                fdfdfdfdfdfdfdfdfdfdfdfdfdfdfdfd
Ciphertext:               0f4539e3154840e96bf44c530af28019cfbd48d01fe474e59834aa0f38ece8f1
Reciphers for ciphertext: 0
Decipheredtext:           fdfdfdfdfdfdfdfdfdfdfdfdfdfdfdfd
RESULT CIPHER-DECIPHER: -----OK-----


Test: 3
Hash algorithm: 4
Data unit:      3
Start block:    7
Symmetric key bit length: 384
Plaintext bit length:     128
Symmetric key:            030303030303030303030303030303030303030303030303030303030303030303030303030303030303030303030303
Plaintext:                fcfcfcfcfcfcfcfcfcfcfcfcfcfcfcfc
Ciphertext:               a8d91992b1f794f191aaa44fbab3f08916d9361de2adc88bf2d73588957e6a29dedf4fc43e90e6455785c550166df02cd54485b9f62be6b9b09439b35b9c63ff23cf8a749901214f47084af89774473a
Reciphers for ciphertext: 0
Decipheredtext:           fcfcfcfcfcfcfcfcfcfcfcfcfcfcfcfc
RESULT CIPHER-DECIPHER: -----OK-----


Test: 4
Hash algorithm: 12
Data unit:      4
Start block:    9
Symmetric key bit length: 384
Plaintext bit length:     128
Symmetric key:            040404040404040404040404040404040404040404040404040404040404040404040404040404040404040404040404
Plaintext:                fbfbfbfbfbfbfbfbfbfbfbfbfbfbfbfb
Ciphertext:               7d112fc605c7d7fcb85e339ac03f891e06cf42b4026e97c3346230059651a41b
Reciphers for ciphertext: 0
Decipheredtext:           fbfbfbfbfbfbfbfbfbfbfbfbfbfbfbfb
RESULT CIPHER-DECIPHER: -----OK-----


Test: 5
Hash algorithm: 1
Data unit:      5
Start block:    11
Symmetric key bit length: 384
Plaintext bit length:     128
Symmetric key:            050505050505050505050505050505050505050505050505050505050505050505050505050505050505050505050505
Plaintext:                fafafafafafafafafafafafafafafafa
Ciphertext:               55573fab893881df9c6deed8aa1649a3b6fb4978ccfb13d6d59fef28a9c75b767bad5d03a2a39ab38e1f9bdc
Reciphers for ciphertext: 0
Decipheredtext:           fafafafafafafafafafafafafafafafa
RESULT CIPHER-DECIPHER: -----OK-----


Test: 6
Hash algorithm: 2
Data unit:      6
Start block:    13
Symmetric key bit length: 384
Plaintext bit length:     128
Symmetric key:            060606060606060606060606060606060606060606060606060606060606060606060606060606060606060606060606
Plaintext:                f9f9f9f9f9f9f9f9f9f9f9f9f9f9f9f9
Ciphertext:               3b60fbd71329106e37236449196ed815197179db0be96362d722fc7d6f5c7f3fefa2c00fde4b6be837c4ba1602e2f122
Reciphers for ciphertext: 0
Decipheredtext:           f9f9f9f9f9f9f9f9f9f9f9f9f9f9f9f9
RESULT CIPHER-DECIPHER: -----OK-----


Test: 7
Hash algorithm: 13
Data unit:      7
Start block:    15
Symmetric key bit length: 384
Plaintext bit length:     128
Symmetric key:            070707070707070707070707070707070707070707070707070707070707070707070707070707070707070707070707
Plaintext:                f8f8f8f8f8f8f8f8f8f8f8f8f8f8f8f8
Ciphertext:               e811c646083ca70a241e5b70cdaed3410ab99c5dcf97e9bf569c5d7f3c0bacfc
Reciphers for ciphertext: 0
Decipheredtext:           f8f8f8f8f8f8f8f8f8f8f8f8f8f8f8f8
RESULT CIPHER-DECIPHER: -----OK-----


Test: 8
Hash algorithm: 9
Data unit:      8
Start block:    17
Symmetric key bit length: 384
Plaintext bit length:     128
Symmetric key:            080808080808080808080808080808080808080808080808080808080808080808080808080808080808080808080808
Plaintext:                f7f7f7f7f7f7f7f7f7f7f7f7f7f7f7f7
Ciphertext:               edff12f37f1d1e0a4a010b98d492546115d4a19ab4e5b601b0d97b7593d900758016d2633b056852d899655ad8de6eee
Reciphers for ciphertext: 0
Decipheredtext:           f7f7f7f7f7f7f7f7f7f7f7f7f7f7f7f7
RESULT CIPHER-DECIPHER: -----OK-----


Test: 9
Hash algorithm: 12
Data unit:      9
Start block:    19
Symmetric key bit length: 384
Plaintext bit length:     128
Symmetric key:            090909090909090909090909090909090909090909090909090909090909090909090909090909090909090909090909
Plaintext:                f6f6f6f6f6f6f6f6f6f6f6f6f6f6f6f6
Ciphertext:               13b49be0b928dac31153634cbf3151cc754b12bbc53071fd433c6e539f12e434
Reciphers for ciphertext: 0
Decipheredtext:           f6f6f6f6f6f6f6f6f6f6f6f6f6f6f6f6
RESULT CIPHER-DECIPHER: -----OK-----


Test: 10
Hash algorithm: 9
Data unit:      10
Start block:    21
Symmetric key bit length: 384
Plaintext bit length:     128
Symmetric key:            0a0a0a0a0a0a0a0a0a0a0a0a0a0a0a0a0a0a0a0a0a0a0a0a0a0a0a0a0a0a0a0a0a0a0a0a0a0a0a0a0a0a0a0a0a0a0a0a
Plaintext:                f5f5f5f5f5f5f5f5f5f5f5f5f5f5f5f5
Ciphertext:               ddf5708922c1cd8aa0a1b0bc8b23a0062a3397a6b0d9ffc47f9df3740586ee57d9dfa7fc05091af07a04564b45e89ed1
Reciphers for ciphertext: 0
Decipheredtext:           f5f5f5f5f5f5f5f5f5f5f5f5f5f5f5f5
RESULT CIPHER-DECIPHER: -----OK-----


Test: 11
Hash algorithm: 2
Data unit:      11
Start block:    23
Symmetric key bit length: 384
Plaintext bit length:     128
Symmetric key:            0b0b0b0b0b0b0b0b0b0b0b0b0b0b0b0b0b0b0b0b0b0b0b0b0b0b0b0b0b0b0b0b0b0b0b0b0b0b0b0b0b0b0b0b0b0b0b0b
Plaintext:                f4f4f4f4f4f4f4f4f4f4f4f4f4f4f4f4
Ciphertext:               7520d27f2778248495392e643661083c999f4e9c8879e377757e8f9f3417296d070744645d9b3d194734af65c0cb5a0d
Reciphers for ciphertext: 0
Decipheredtext:           f4f4f4f4f4f4f4f4f4f4f4f4f4f4f4f4
RESULT CIPHER-DECIPHER: -----OK-----


Test: 12
Hash algorithm: 4
Data unit:      12
Start block:    25
Symmetric key bit length: 384
Plaintext bit length:     128
Symmetric key:            0c0c0c0c0c0c0c0c0c0c0c0c0c0c0c0c0c0c0c0c0c0c0c0c0c0c0c0c0c0c0c0c0c0c0c0c0c0c0c0c0c0c0c0c0c0c0c0c
Plaintext:                f3f3f3f3f3f3f3f3f3f3f3f3f3f3f3f3
Ciphertext:               135316eb769665a3374e87e76fa4916700942d16fdd166ebc43bc4d60af87020ba37ee7203faaaf99085cd3e1ad5c4525fa6823af83f0fd381eccae25bd9a3bb159fc745c8637d1a612a52aa18dc4e69
Reciphers for ciphertext: 0
Decipheredtext:           f3f3f3f3f3f3f3f3f3f3f3f3f3f3f3f3
RESULT CIPHER-DECIPHER: -----OK-----


Test: 13
Hash algorithm: 5
Data unit:      13
Start block:    27
Symmetric key bit length: 384
Plaintext bit length:     128
Symmetric key:            0d0d0d0d0d0d0d0d0d0d0d0d0d0d0d0d0d0d0d0d0d0d0d0d0d0d0d0d0d0d0d0d0d0d0d0d0d0d0d0d0d0d0d0d0d0d0d0d
Plaintext:                f2f2f2f2f2f2f2f2f2f2f2f2f2f2f2f2
Ciphertext:               a2d30c58188d3ea494ef541fd846ea4aa191a5bc01c3ca46adc16051c41b7fd12a83842fe81f59668363a333
Reciphers for ciphertext: 0
Decipheredtext:           f2f2f2f2f2f2f2f2f2f2f2f2f2f2f2f2
RESULT CIPHER-DECIPHER: -----OK-----


Test: 14
Hash algorithm: 9
Data unit:      14
Start block:    29
Symmetric key bit length: 384
Plaintext bit length:     128
Symmetric key:            0e0e0e0e0e0e0e0e0e0e0e0e0e0e0e0e0e0e0e0e0e0e0e0e0e0e0e0e0e0e0e0e0e0e0e0e0e0e0e0e0e0e0e0e0e0e0e0e
Plaintext:                f1f1f1f1f1f1f1f1f1f1f1f1f1f1f1f1
Ciphertext:               e8717440e24ff5a09f5f6e83de265cac516d931da42575d8f851bdd01dd5e34b4b88ce276c0f9d442d8b833fce6e06a1
Reciphers for ciphertext: 0
Decipheredtext:           f1f1f1f1f1f1f1f1f1f1f1f1f1f1f1f1
RESULT CIPHER-DECIPHER: -----OK-----


Test: 15
Hash algorithm: 9
Data unit:      15
Start block:    31
Symmetric key bit length: 384
Plaintext bit length:     128
Symmetric key:            0f0f0f0f0f0f0f0f0f0f0f0f0f0f0f0f0f0f0f0f0f0f0f0f0f0f0f0f0f0f0f0f0f0f0f0f0f0f0f0f0f0f0f0f0f0f0f0f
Plaintext:                f0f0f0f0f0f0f0f0f0f0f0f0f0f0f0f0
Ciphertext:               7c08040c4121e3095fcd921a08d440ff3895a70da95bf4719496767d620d8faee6172d310a60e6a0bae2426360424f99
Reciphers for ciphertext: 0
Decipheredtext:           f0f0f0f0f0f0f0f0f0f0f0f0f0f0f0f0
RESULT CIPHER-DECIPHER: -----OK-----


Test: 16
Hash algorithm: 3
Data unit:      16
Start block:    33
Symmetric key bit length: 384
Plaintext bit length:     128
Symmetric key:            101010101010101010101010101010101010101010101010101010101010101010101010101010101010101010101010
Plaintext:                efefefefefefefefefefefefefefefef
Ciphertext:               667d251e2056f67dd0e44e6e5510c6e2b8c33cc42d56502f79e96f24e9e9c6b6e112ca75251ca60e4e68c684e95c2a86e1c5f6652aa88445f35d0a4559bda392
Reciphers for ciphertext: 0
Decipheredtext:           efefefefefefefefefefefefefefefef
RESULT CIPHER-DECIPHER: -----OK-----


Test: 17
Hash algorithm: 8
Data unit:      17
Start block:    35
Symmetric key bit length: 384
Plaintext bit length:     128
Symmetric key:            111111111111111111111111111111111111111111111111111111111111111111111111111111111111111111111111
Plaintext:                eeeeeeeeeeeeeeeeeeeeeeeeeeeeeeee
Ciphertext:               7bfff692f7dc4e800cd4a0d57a59706687baf9cfa78be11dabf5b5ff7f304084ffe0c994
Reciphers for ciphertext: 0
Decipheredtext:           eeeeeeeeeeeeeeeeeeeeeeeeeeeeeeee
RESULT CIPHER-DECIPHER: -----OK-----


Test: 18
Hash algorithm: 13
Data unit:      18
Start block:    37
Symmetric key bit length: 384
Plaintext bit length:     128
Symmetric key:            121212121212121212121212121212121212121212121212121212121212121212121212121212121212121212121212
Plaintext:                edededededededededededededededed
Ciphertext:               cef91cd08e77443665379bee1f96c9ddbcbd2b7e9de74d41f7a82087708b4a86
Reciphers for ciphertext: 0
Decipheredtext:           edededededededededededededededed
RESULT CIPHER-DECIPHER: -----OK-----


Test: 19
Hash algorithm: 1
Data unit:      19
Start block:    39
Symmetric key bit length: 384
Plaintext bit length:     128
Symmetric key:            131313131313131313131313131313131313131313131313131313131313131313131313131313131313131313131313
Plaintext:                ecececececececececececececececec
Ciphertext:               9dcb0dbea5dc090ec7d55da54dfb60d00ad9abafae524d324cd30ba6a82791ea54ecd372a3a3a0c6523c3b7c
Reciphers for ciphertext: 0
Decipheredtext:           ecececececececececececececececec
RESULT CIPHER-DECIPHER: -----OK-----


Test: 20
Hash algorithm: 11
Data unit:      20
Start block:    41
Symmetric key bit length: 384
Plaintext bit length:     128
Symmetric key:            141414141414141414141414141414141414141414141414141414141414141414141414141414141414141414141414
Plaintext:                ebebebebebebebebebebebebebebebeb
Ciphertext:               396537772adcba81166fcf924a2a94ce9e17b5744e067919a39c5383217a023b
Reciphers for ciphertext: 0
Decipheredtext:           ebebebebebebebebebebebebebebebeb
RESULT CIPHER-DECIPHER: -----OK-----


Test: 21
Hash algorithm: 3
Data unit:      21
Start block:    43
Symmetric key bit length: 384
Plaintext bit length:     128
Symmetric key:            151515151515151515151515151515151515151515151515151515151515151515151515151515151515151515151515
Plaintext:                eaeaeaeaeaeaeaeaeaeaeaeaeaeaeaea
Ciphertext:               a7657378a10ab55b29882393fc3d380b43d084e48825104274aab6e7ad9c4e5a16f229e0471e1a589f1f988f0b194efc75a512fcbf8accb5f347b8cff63a60d4
Reciphers for ciphertext: 0
Decipheredtext:           eaeaeaeaeaeaeaeaeaeaeaeaeaeaeaea
RESULT CIPHER-DECIPHER: -----OK-----


Test: 22
Hash algorithm: 13
Data unit:      22
Start block:    45
Symmetric key bit length: 384
Plaintext bit length:     128
Symmetric key:            161616161616161616161616161616161616161616161616161616161616161616161616161616161616161616161616
Plaintext:                e9e9e9e9e9e9e9e9e9e9e9e9e9e9e9e9
Ciphertext:               84d9914e573949fe70ea2e51b53f0810e9748b4db20d91c2f6b4f0ab8078df09
Reciphers for ciphertext: 0
Decipheredtext:           e9e9e9e9e9e9e9e9e9e9e9e9e9e9e9e9
RESULT CIPHER-DECIPHER: -----OK-----


Test: 23
Hash algorithm: 10
Data unit:      23
Start block:    47
Symmetric key bit length: 384
Plaintext bit length:     128
Symmetric key:            171717171717171717171717171717171717171717171717171717171717171717171717171717171717171717171717
Plaintext:                e8e8e8e8e8e8e8e8e8e8e8e8e8e8e8e8
Ciphertext:               410aa082b93bd13cb32db50545cd2a81ce0671824dd65b2979483c7b4e984957099f64238a37af2806e48a6a68c1be944e8581f6f317e1b6
Reciphers for ciphertext: 0
Decipheredtext:           e8e8e8e8e8e8e8e8e8e8e8e8e8e8e8e8
RESULT CIPHER-DECIPHER: -----OK-----


Test: 24
Hash algorithm: 5
Data unit:      24
Start block:    49
Symmetric key bit length: 384
Plaintext bit length:     128
Symmetric key:            181818181818181818181818181818181818181818181818181818181818181818181818181818181818181818181818
Plaintext:                e7e7e7e7e7e7e7e7e7e7e7e7e7e7e7e7
Ciphertext:               6af40761059c7915390683bafb616f10c86a1c7063bb38e717491f14c99e1b85e432ae905cdd12d68f4312e6
Reciphers for ciphertext: 0
Decipheredtext:           e7e7e7e7e7e7e7e7e7e7e7e7e7e7e7e7
RESULT CIPHER-DECIPHER: -----OK-----


Test: 25
Hash algorithm: 6
Data unit:      25
Start block:    51
Symmetric key bit length: 384
Plaintext bit length:     128
Symmetric key:            191919191919191919191919191919191919191919191919191919191919191919191919191919191919191919191919
Plaintext:                e6e6e6e6e6e6e6e6e6e6e6e6e6e6e6e6
Ciphertext:               41c489452f816b5fff05dc1b280df918baf0a760572e663bae0346e9d219b7776fcdff6592e3e3ca5bb4c5baef8c7401
Reciphers for ciphertext: 0
Decipheredtext:           e6e6e6e6e6e6e6e6e6e6e6e6e6e6e6e6
RESULT CIPHER-DECIPHER: -----OK-----


Test: 26
Hash algorithm: 5
Data unit:      26
Start block:    53
Symmetric key bit length: 384
Plaintext bit length:     128
Symmetric key:            1a1a1a1a1a1a1a1a1a1a1a1a1a1a1a1a1a1a1a1a1a1a1a1a1a1a1a1a1a1a1a1a1a1a1a1a1a1a1a1a1a1a1a1a1a1a1a1a
Plaintext:                e5e5e5e5e5e5e5e5e5e5e5e5e5e5e5e5
Ciphertext:               5b235eb4bfd25214f3ee941bccac0c26a8cc01988f94357a1442facd46047e7653410acb67bbf618232bde08
Reciphers for ciphertext: 0
Decipheredtext:           e5e5e5e5e5e5e5e5e5e5e5e5e5e5e5e5
RESULT CIPHER-DECIPHER: -----OK-----


Test: 27
Hash algorithm: 9
Data unit:      27
Start block:    55
Symmetric key bit length: 384
Plaintext bit length:     128
Symmetric key:            1b1b1b1b1b1b1b1b1b1b1b1b1b1b1b1b1b1b1b1b1b1b1b1b1b1b1b1b1b1b1b1b1b1b1b1b1b1b1b1b1b1b1b1b1b1b1b1b
Plaintext:                e4e4e4e4e4e4e4e4e4e4e4e4e4e4e4e4
Ciphertext:               74ecf69d06047fb74733e46e80d31ca2e1245319a81d754b4e9baeab108ff18f757c47918fca2011793c14918a51e759
Reciphers for ciphertext: 0
Decipheredtext:           e4e4e4e4e4e4e4e4e4e4e4e4e4e4e4e4
RESULT CIPHER-DECIPHER: -----OK-----


Test: 28
Hash algorithm: 10
Data unit:      28
Start block:    57
Symmetric key bit length: 384
Plaintext bit length:     128
Symmetric key:            1c1c1c1c1c1c1c1c1c1c1c1c1c1c1c1c1c1c1c1c1c1c1c1c1c1c1c1c1c1c1c1c1c1c1c1c1c1c1c1c1c1c1c1c1c1c1c1c
Plaintext:                e3e3e3e3e3e3e3e3e3e3e3e3e3e3e3e3
Ciphertext:               a97a5e731d1c487af0b0cc1c9a6b2a56b3adadd61f0314185556e186b4d3a0cf09ecfbfaf497aacef8e044d9be9fba5ba945d0e042818328
Reciphers for ciphertext: 0
Decipheredtext:           e3e3e3e3e3e3e3e3e3e3e3e3e3e3e3e3
RESULT CIPHER-DECIPHER: -----OK-----


Test: 29
Hash algorithm: 3
Data unit:      29
Start block:    59
Symmetric key bit length: 384
Plaintext bit length:     128
Symmetric key:            1d1d1d1d1d1d1d1d1d1d1d1d1d1d1d1d1d1d1d1d1d1d1d1d1d1d1d1d1d1d1d1d1d1d1d1d1d1d1d1d1d1d1d1d1d1d1d1d
Plaintext:                e2e2e2e2e2e2e2e2e2e2e2e2e2e2e2e2
Ciphertext:               769ca5761d5879932eccaa611928e04ea0f27391c49c6d30cfab62aefa91b7ee18eb4d7eaf1ccab062595c25c6d174c20dcb687ad6d4e42cc4c0afc4412c1a3a
Reciphers for ciphertext: 0
Decipheredtext:           e2e2e2e2e2e2e2e2e2e2e2e2e2e2e2e2
RESULT CIPHER-DECIPHER: -----OK-----


Test: 30
Hash algorithm: 4
Data unit:      30
Start block:    61
Symmetric key bit length: 384
Plaintext bit length:     128
Symmetric key:            1e1e1e1e1e1e1e1e1e1e1e1e1e1e1e1e1e1e1e1e1e1e1e1e1e1e1e1e1e1e1e1e1e1e1e1e1e1e1e1e1e1e1e1e1e1e1e1e
Plaintext:                e1e1e1e1e1e1e1e1e1e1e1e1e1e1e1e1
Ciphertext:               510f718dbf0de1c9c56b492d2eb5a05de2d4721930f4d5c915b48e667d8493965c805327a996ddb214ea3b36f0a0731e91622ad5bbb2c5984e38a5df15e931b17637cc1a2136a3c9af742b91dff34509
Reciphers for ciphertext: 0
Decipheredtext:           e1e1e1e1e1e1e1e1e1e1e1e1e1e1e1e1
RESULT CIPHER-DECIPHER: -----OK-----


Test: 31
Hash algorithm: 2
Data unit:      31
Start block:    63
Symmetric key bit length: 384
Plaintext bit length:     128
Symmetric key:            1f1f1f1f1f1f1f1f1f1f1f1f1f1f1f1f1f1f1f1f1f1f1f1f1f1f1f1f1f1f1f1f1f1f1f1f1f1f1f1f1f1f1f1f1f1f1f1f
Plaintext:                e0e0e0e0e0e0e0e0e0e0e0e0e0e0e0e0
Ciphertext:               72695b47a5282796e90d8bd6bcb4962ea4a3b70037ee34b7df2620dc227fc196fb93e97b61b3d5cc1a42dec01c99eb29
Reciphers for ciphertext: 0
Decipheredtext:           e0e0e0e0e0e0e0e0e0e0e0e0e0e0e0e0
RESULT CIPHER-DECIPHER: -----OK-----


Test: 32
Hash algorithm: 2
Data unit:      32
Start block:    65
Symmetric key bit length: 384
Plaintext bit length:     128
Symmetric key:            202020202020202020202020202020202020202020202020202020202020202020202020202020202020202020202020
Plaintext:                dfdfdfdfdfdfdfdfdfdfdfdfdfdfdfdf
Ciphertext:               a4016071b7277b5514e33e8ea693ca19c99f2c02b9d54d4696d11bd7972f423f5f78276ade54bed22b9d08417e6ab919
Reciphers for ciphertext: 0
Decipheredtext:           dfdfdfdfdfdfdfdfdfdfdfdfdfdfdfdf
RESULT CIPHER-DECIPHER: -----OK-----


Test: 33
Hash algorithm: 9
Data unit:      33
Start block:    67
Symmetric key bit length: 384
Plaintext bit length:     128
Symmetric key:            212121212121212121212121212121212121212121212121212121212121212121212121212121212121212121212121
Plaintext:                dededededededededededededededede
Ciphertext:               6fff87f731d9ef12f2b4cf0d8e731abfc7c1a9a982239f7f7c6e6f42b536e818a5fdd68fe79dfc893f2792d7c28ea293
Reciphers for ciphertext: 0
Decipheredtext:           dededededededededededededededede
RESULT CIPHER-DECIPHER: -----OK-----


Test: 34
Hash algorithm: 0
Data unit:      34
Start block:    69
Symmetric key bit length: 384
Plaintext bit length:     128
Symmetric key:            222222222222222222222222222222222222222222222222222222222222222222222222222222222222222222222222
Plaintext:                dddddddddddddddddddddddddddddddd
Ciphertext:               aa3cfea27b898ea3f69bb4d95818105a6d8f5bd11285fc33dbe8b6311f5fec189ec91c08
Reciphers for ciphertext: 0
Decipheredtext:           dddddddddddddddddddddddddddddddd
RESULT CIPHER-DECIPHER: -----OK-----


Test: 35
Hash algorithm: 4
Data unit:      35
Start block:    71
Symmetric key bit length: 384
Plaintext bit length:     128
Symmetric key:            232323232323232323232323232323232323232323232323232323232323232323232323232323232323232323232323
Plaintext:                dcdcdcdcdcdcdcdcdcdcdcdcdcdcdcdc
Ciphertext:               085c339e83a120983ae32cef82703cc324ff1d1285fc99f4f78bd98ac9160907a85df0aa6c9a2d1de46933f88af6944fa8086c34d08eca004f7c8467c01a6681602a43804d4362a1893d6aa692ba7ec0
Reciphers for ciphertext: 0
Decipheredtext:           dcdcdcdcdcdcdcdcdcdcdcdcdcdcdcdc
RESULT CIPHER-DECIPHER: -----OK-----


Test: 36
Hash algorithm: 12
Data unit:      36
Start block:    73
Symmetric key bit length: 384
Plaintext bit length:     128
Symmetric key:            242424242424242424242424242424242424242424242424242424242424242424242424242424242424242424242424
Plaintext:                dbdbdbdbdbdbdbdbdbdbdbdbdbdbdbdb
Ciphertext:               ca336207c062a8da268c6d99a7c0936a654f41ce25c7791f9e86ce69ee15bf02
Reciphers for ciphertext: 0
Decipheredtext:           dbdbdbdbdbdbdbdbdbdbdbdbdbdbdbdb
RESULT CIPHER-DECIPHER: -----OK-----


Test: 37
Hash algorithm: 4
Data unit:      37
Start block:    75
Symmetric key bit length: 384
Plaintext bit length:     128
Symmetric key:            252525252525252525252525252525252525252525252525252525252525252525252525252525252525252525252525
Plaintext:                dadadadadadadadadadadadadadadada
Ciphertext:               80b9fbe2d8f5072f13a78d9ba0b3f01d8288b1bf2ffe3aa53139e2f10b8e6de32866f56ef15614a4a2aa6e9fe9f99dc53bcd38affde3d368e87128819d18c057f4fd0871b622af818ab30c08b5b4c500
Reciphers for ciphertext: 0
Decipheredtext:           dadadadadadadadadadadadadadadada
RESULT CIPHER-DECIPHER: -----OK-----


Test: 38
Hash algorithm: 4
Data unit:      38
Start block:    77
Symmetric key bit length: 384
Plaintext bit length:     128
Symmetric key:            262626262626262626262626262626262626262626262626262626262626262626262626262626262626262626262626
Plaintext:                d9d9d9d9d9d9d9d9d9d9d9d9d9d9d9d9
Ciphertext:               247a9bf58084558ce0236044ad8e0b1bc75affa268af201076b886349987535de44a666298672d54f957fe92f353ac1a165cb5b5a281d53d504ef1e71456dfeb2ce288efc23bed8f16d25b51fbce3388
Reciphers for ciphertext: 0
Decipheredtext:           d9d9d9d9d9d9d9d9d9d9d9d9d9d9d9d9
RESULT CIPHER-DECIPHER: -----OK-----


Test: 39
Hash algorithm: 1
Data unit:      39
Start block:    79
Symmetric key bit length: 384
Plaintext bit length:     128
Symmetric key:            272727272727272727272727272727272727272727272727272727272727272727272727272727272727272727272727
Plaintext:                d8d8d8d8d8d8d8d8d8d8d8d8d8d8d8d8
Ciphertext:               1b11464f88974f5e67d94f57223e0dfa3784129dc2581b06a4278e1855b3201b7f26d7cf9b24a82993d716b5
Reciphers for ciphertext: 0
Decipheredtext:           d8d8d8d8d8d8d8d8d8d8d8d8d8d8d8d8
RESULT CIPHER-DECIPHER: -----OK-----


Test: 40
Hash algorithm: 8
Data unit:      40
Start block:    81
Symmetric key bit length: 384
Plaintext bit length:     128
Symmetric key:            282828282828282828282828282828282828282828282828282828282828282828282828282828282828282828282828
Plaintext:                d7d7d7d7d7d7d7d7d7d7d7d7d7d7d7d7
Ciphertext:               31d87f9954bc863b918593d5054cdbf63fa755e452dd83662ffed8b954a83f8ccd77d40f
Reciphers for ciphertext: 0
Decipheredtext:           d7d7d7d7d7d7d7d7d7d7d7d7d7d7d7d7
RESULT CIPHER-DECIPHER: -----OK-----


Test: 41
Hash algorithm: 4
Data unit:      41
Start block:    83
Symmetric key bit length: 384
Plaintext bit length:     128
Symmetric key:            292929292929292929292929292929292929292929292929292929292929292929292929292929292929292929292929
Plaintext:                d6d6d6d6d6d6d6d6d6d6d6d6d6d6d6d6
Ciphertext:               ed0dd1600861f7c7c580b813c3c2419154869808a4e394a09f73e2dff376f7c12fb76ff9faa5baa72f7ff3474d9a056fa75715da0775af2df8a21c2e9acbc5b4e594fec369cd8c6dfd8aaa0f12b7ac86
Reciphers for ciphertext: 0
Decipheredtext:           d6d6d6d6d6d6d6d6d6d6d6d6d6d6d6d6
RESULT CIPHER-DECIPHER: -----OK-----


Test: 42
Hash algorithm: 5
Data unit:      42
Start block:    85
Symmetric key bit length: 384
Plaintext bit length:     128
Symmetric key:            2a2a2a2a2a2a2a2a2a2a2a2a2a2a2a2a2a2a2a2a2a2a2a2a2a2a2a2a2a2a2a2a2a2a2a2a2a2a2a2a2a2a2a2a2a2a2a2a
Plaintext:                d5d5d5d5d5d5d5d5d5d5d5d5d5d5d5d5
Ciphertext:               c34243e05fe6e8a9c2de42d91bac1d6a5be03aa3aa3d38a56692ecf0430e1799e43cc370043d301a95179dea
Reciphers for ciphertext: 0
Decipheredtext:           d5d5d5d5d5d5d5d5d5d5d5d5d5d5d5d5
RESULT CIPHER-DECIPHER: -----OK-----


Test: 43
Hash algorithm: 7
Data unit:      43
Start block:    87
Symmetric key bit length: 384
Plaintext bit length:     128
Symmetric key:            2b2b2b2b2b2b2b2b2b2b2b2b2b2b2b2b2b2b2b2b2b2b2b2b2b2b2b2b2b2b2b2b2b2b2b2b2b2b2b2b2b2b2b2b2b2b2b2b
Plaintext:                d4d4d4d4d4d4d4d4d4d4d4d4d4d4d4d4
Ciphertext:               290599498b501e4ba10a9fe53c4be6ac5b4eb2773fb53d687595bd0c64919987
Reciphers for ciphertext: 0
Decipheredtext:           d4d4d4d4d4d4d4d4d4d4d4d4d4d4d4d4
RESULT CIPHER-DECIPHER: -----OK-----


Test: 44
Hash algorithm: 10
Data unit:      44
Start block:    89
Symmetric key bit length: 384
Plaintext bit length:     128
Symmetric key:            2c2c2c2c2c2c2c2c2c2c2c2c2c2c2c2c2c2c2c2c2c2c2c2c2c2c2c2c2c2c2c2c2c2c2c2c2c2c2c2c2c2c2c2c2c2c2c2c
Plaintext:                d3d3d3d3d3d3d3d3d3d3d3d3d3d3d3d3
Ciphertext:               56feeee857246fa7a666a6884c497a1d69b48d9e193179c3b8ed8ca30f604870b61022a8b55b1f4acec90b4bd42fbf6f688f7f322719c29f
Reciphers for ciphertext: 0
Decipheredtext:           d3d3d3d3d3d3d3d3d3d3d3d3d3d3d3d3
RESULT CIPHER-DECIPHER: -----OK-----


Test: 45
Hash algorithm: 5
Data unit:      45
Start block:    91
Symmetric key bit length: 384
Plaintext bit length:     128
Symmetric key:            2d2d2d2d2d2d2d2d2d2d2d2d2d2d2d2d2d2d2d2d2d2d2d2d2d2d2d2d2d2d2d2d2d2d2d2d2d2d2d2d2d2d2d2d2d2d2d2d
Plaintext:                d2d2d2d2d2d2d2d2d2d2d2d2d2d2d2d2
Ciphertext:               140e3e33dea5f9e92b13c0a3a6ed1f6a8ce6ccbf6e74a755a804359adc2f26e4ce7035d1f7a1c74a3d9b0165
Reciphers for ciphertext: 0
Decipheredtext:           d2d2d2d2d2d2d2d2d2d2d2d2d2d2d2d2
RESULT CIPHER-DECIPHER: -----OK-----


Test: 46
Hash algorithm: 10
Data unit:      46
Start block:    93
Symmetric key bit length: 384
Plaintext bit length:     128
Symmetric key:            2e2e2e2e2e2e2e2e2e2e2e2e2e2e2e2e2e2e2e2e2e2e2e2e2e2e2e2e2e2e2e2e2e2e2e2e2e2e2e2e2e2e2e2e2e2e2e2e
Plaintext:                d1d1d1d1d1d1d1d1d1d1d1d1d1d1d1d1
Ciphertext:               0d9bde24831467714b7f2e513bf6e001e5249dcc47261ca3dffbf230e6fb8cadee1e0e84d896c7061277108ace6caa642f789a0b628bafbd
Reciphers for ciphertext: 0
Decipheredtext:           d1d1d1d1d1d1d1d1d1d1d1d1d1d1d1d1
RESULT CIPHER-DECIPHER: -----OK-----


Test: 47
Hash algorithm: 12
Data unit:      47
Start block:    95
Symmetric key bit length: 384
Plaintext bit length:     128
Symmetric key:            2f2f2f2f2f2f2f2f2f2f2f2f2f2f2f2f2f2f2f2f2f2f2f2f2f2f2f2f2f2f2f2f2f2f2f2f2f2f2f2f2f2f2f2f2f2f2f2f
Plaintext:                d0d0d0d0d0d0d0d0d0d0d0d0d0d0d0d0
Ciphertext:               8c9e1072594d8404b7c60594714f6d29be9fb5b6416b5fea42a20ea52b347a5e
Reciphers for ciphertext: 0
Decipheredtext:           d0d0d0d0d0d0d0d0d0d0d0d0d0d0d0d0
RESULT CIPHER-DECIPHER: -----OK-----


Test: 48
Hash algorithm: 1
Data unit:      48
Start block:    97
Symmetric key bit length: 384
Plaintext bit length:     128
Symmetric key:            303030303030303030303030303030303030303030303030303030303030303030303030303030303030303030303030
Plaintext:                cfcfcfcfcfcfcfcfcfcfcfcfcfcfcfcf
Ciphertext:               73842c5845df520c823f6ca918eeecaf63631fb12892e5c680fd2d77f01259037eba51956d5b35cbb9b0ea1e
Reciphers for ciphertext: 0
Decipheredtext:           cfcfcfcfcfcfcfcfcfcfcfcfcfcfcfcf
RESULT CIPHER-DECIPHER: -----OK-----


Test: 49
Hash algorithm: 11
Data unit:      49
Start block:    99
Symmetric key bit length: 384
Plaintext bit length:     128
Symmetric key:            313131313131313131313131313131313131313131313131313131313131313131313131313131313131313131313131
Plaintext:                cececececececececececececececece
Ciphertext:               3eebe9afa18e1e63a2c24b8cd30a47be98c0b605b80069d244ae0424b75f4f81
Reciphers for ciphertext: 0
Decipheredtext:           cececececececececececececececece
RESULT CIPHER-DECIPHER: -----OK-----


Test: 50
Hash algorithm: 3
Data unit:      50
Start block:    101
Symmetric key bit length: 384
Plaintext bit length:     128
Symmetric key:            323232323232323232323232323232323232323232323232323232323232323232323232323232323232323232323232
Plaintext:                cdcdcdcdcdcdcdcdcdcdcdcdcdcdcdcd
Ciphertext:               232a438fd977f3cd5cd24d1d61a53a8928a60a8200c87ac1d59596006882c56426d24244d692cb58d74e25c6e49a1412e510a75292978a1820c9d9ab8e4c9777
Reciphers for ciphertext: 0
Decipheredtext:           cdcdcdcdcdcdcdcdcdcdcdcdcdcdcdcd
RESULT CIPHER-DECIPHER: -----OK-----


Test: 51
Hash algorithm: 12
Data unit:      51
Start block:    103
Symmetric key bit length: 384
Plaintext bit length:     128
Symmetric key:            333333333333333333333333333333333333333333333333333333333333333333333333333333333333333333333333
Plaintext:                cccccccccccccccccccccccccccccccc
Ciphertext:               794477d2e7d977d0edfbe8d4bf716a8763aff81bd62c2d02d25a74f4487d7c93
Reciphers for ciphertext: 0
Decipheredtext:           cccccccccccccccccccccccccccccccc
RESULT CIPHER-DECIPHER: -----OK-----


Test: 52
Hash algorithm: 2
Data unit:      52
Start block:    105
Symmetric key bit length: 384
Plaintext bit length:     128
Symmetric key:            343434343434343434343434343434343434343434343434343434343434343434343434343434343434343434343434
Plaintext:                cbcbcbcbcbcbcbcbcbcbcbcbcbcbcbcb
Ciphertext:               09f669839e09a5d2a9202023cbeca568373dcdad757cbac72c9235b2de75e6879693a3600630fcfe24af391e9810048e
Reciphers for ciphertext: 0
Decipheredtext:           cbcbcbcbcbcbcbcbcbcbcbcbcbcbcbcb
RESULT CIPHER-DECIPHER: -----OK-----


Test: 53
Hash algorithm: 0
Data unit:      53
Start block:    107
Symmetric key bit length: 384
Plaintext bit length:     128
Symmetric key:            353535353535353535353535353535353535353535353535353535353535353535353535353535353535353535353535
Plaintext:                cacacacacacacacacacacacacacacaca
Ciphertext:               ed5ec794211d59952461f98a9000cb4e3a3d7a2823e024cc7738a59120246e0abeb46633
Reciphers for ciphertext: 0
Decipheredtext:           cacacacacacacacacacacacacacacaca
RESULT CIPHER-DECIPHER: -----OK-----


Test: 54
Hash algorithm: 6
Data unit:      54
Start block:    109
Symmetric key bit length: 384
Plaintext bit length:     128
Symmetric key:            363636363636363636363636363636363636363636363636363636363636363636363636363636363636363636363636
Plaintext:                c9c9c9c9c9c9c9c9c9c9c9c9c9c9c9c9
Ciphertext:               714f4aa6b3daa180d8a459de5369d5103a76f136723befb9237eb0c4f0e2d4c7af497907a671445530dbbaf38068be8f
Reciphers for ciphertext: 0
Decipheredtext:           c9c9c9c9c9c9c9c9c9c9c9c9c9c9c9c9
RESULT CIPHER-DECIPHER: -----OK-----


Test: 55
Hash algorithm: 4
Data unit:      55
Start block:    111
Symmetric key bit length: 384
Plaintext bit length:     128
Symmetric key:            373737373737373737373737373737373737373737373737373737373737373737373737373737373737373737373737
Plaintext:                c8c8c8c8c8c8c8c8c8c8c8c8c8c8c8c8
Ciphertext:               b2a69f97ca27f0d31cf8aae8723c08c93c08c78dbb0a2fad85fcd91eb9888bb8f5f0a2d39bdb42f8e971539dc0fecda56d38581239fa1e88726937c527b0b33a642c555bf7d83a3fb9025470fd0c6e5f
Reciphers for ciphertext: 0
Decipheredtext:           c8c8c8c8c8c8c8c8c8c8c8c8c8c8c8c8
RESULT CIPHER-DECIPHER: -----OK-----


Test: 56
Hash algorithm: 6
Data unit:      56
Start block:    113
Symmetric key bit length: 384
Plaintext bit length:     128
Symmetric key:            383838383838383838383838383838383838383838383838383838383838383838383838383838383838383838383838
Plaintext:                c7c7c7c7c7c7c7c7c7c7c7c7c7c7c7c7
Ciphertext:               17ec162e8c563a542902a7ad8959ecd484fc1d1c2497cf2b97347d82bfe7477934269387d63938d23cd565784497745d
Reciphers for ciphertext: 0
Decipheredtext:           c7c7c7c7c7c7c7c7c7c7c7c7c7c7c7c7
RESULT CIPHER-DECIPHER: -----OK-----


Test: 57
Hash algorithm: 8
Data unit:      57
Start block:    115
Symmetric key bit length: 384
Plaintext bit length:     128
Symmetric key:            393939393939393939393939393939393939393939393939393939393939393939393939393939393939393939393939
Plaintext:                c6c6c6c6c6c6c6c6c6c6c6c6c6c6c6c6
Ciphertext:               bf9a6f9459e1354e78a80c861f1dcf3a0adb03452dc2997a114eb6e07db30f888e2a772d
Reciphers for ciphertext: 0
Decipheredtext:           c6c6c6c6c6c6c6c6c6c6c6c6c6c6c6c6
RESULT CIPHER-DECIPHER: -----OK-----


Test: 58
Hash algorithm: 0
Data unit:      58
Start block:    117
Symmetric key bit length: 384
Plaintext bit length:     128
Symmetric key:            3a3a3a3a3a3a3a3a3a3a3a3a3a3a3a3a3a3a3a3a3a3a3a3a3a3a3a3a3a3a3a3a3a3a3a3a3a3a3a3a3a3a3a3a3a3a3a3a
Plaintext:                c5c5c5c5c5c5c5c5c5c5c5c5c5c5c5c5
Ciphertext:               d974b821e483b97b62f12d864ba71cc6cb90f21513706ea3d45b0dc1aa759a622ca0f0ab
Reciphers for ciphertext: 0
Decipheredtext:           c5c5c5c5c5c5c5c5c5c5c5c5c5c5c5c5
RESULT CIPHER-DECIPHER: -----OK-----


Test: 59
Hash algorithm: 12
Data unit:      59
Start block:    119
Symmetric key bit length: 384
Plaintext bit length:     128
Symmetric key:            3b3b3b3b3b3b3b3b3b3b3b3b3b3b3b3b3b3b3b3b3b3b3b3b3b3b3b3b3b3b3b3b3b3b3b3b3b3b3b3b3b3b3b3b3b3b3b3b
Plaintext:                c4c4c4c4c4c4c4c4c4c4c4c4c4c4c4c4
Ciphertext:               413f2d3a2e1e8180dcaebed08583e84a46ec508a0c8af886d643708165b98f7d
Reciphers for ciphertext: 0
Decipheredtext:           c4c4c4c4c4c4c4c4c4c4c4c4c4c4c4c4
RESULT CIPHER-DECIPHER: -----OK-----


Test: 60
Hash algorithm: 8
Data unit:      60
Start block:    121
Symmetric key bit length: 384
Plaintext bit length:     128
Symmetric key:            3c3c3c3c3c3c3c3c3c3c3c3c3c3c3c3c3c3c3c3c3c3c3c3c3c3c3c3c3c3c3c3c3c3c3c3c3c3c3c3c3c3c3c3c3c3c3c3c
Plaintext:                c3c3c3c3c3c3c3c3c3c3c3c3c3c3c3c3
Ciphertext:               c935cfd545618deedb23cf6e5257b5ede2c3604b3ce5b8e3fef185b1addd4678d81e4f27
Reciphers for ciphertext: 0
Decipheredtext:           c3c3c3c3c3c3c3c3c3c3c3c3c3c3c3c3
RESULT CIPHER-DECIPHER: -----OK-----


Test: 61
Hash algorithm: 2
Data unit:      61
Start block:    123
Symmetric key bit length: 384
Plaintext bit length:     128
Symmetric key:            3d3d3d3d3d3d3d3d3d3d3d3d3d3d3d3d3d3d3d3d3d3d3d3d3d3d3d3d3d3d3d3d3d3d3d3d3d3d3d3d3d3d3d3d3d3d3d3d
Plaintext:                c2c2c2c2c2c2c2c2c2c2c2c2c2c2c2c2
Ciphertext:               fd5b8fdf4d10061b86ad8b746458561b0fac1d83dd5c3cb1a6a1a962104cbcb70c3ad1717b9be3924c795bd42cc3a3f0
Reciphers for ciphertext: 0
Decipheredtext:           c2c2c2c2c2c2c2c2c2c2c2c2c2c2c2c2
RESULT CIPHER-DECIPHER: -----OK-----


Test: 62
Hash algorithm: 10
Data unit:      62
Start block:    125
Symmetric key bit length: 384
Plaintext bit length:     128
Symmetric key:            3e3e3e3e3e3e3e3e3e3e3e3e3e3e3e3e3e3e3e3e3e3e3e3e3e3e3e3e3e3e3e3e3e3e3e3e3e3e3e3e3e3e3e3e3e3e3e3e
Plaintext:                c1c1c1c1c1c1c1c1c1c1c1c1c1c1c1c1
Ciphertext:               a847613f2b78e4f08ffd67c2d3bf3ce6ee9453dad31f296355c3d56f3594bf95a762cd2163239c32a59c8bc74cac56998dd8ad2333671f8e
Reciphers for ciphertext: 0
Decipheredtext:           c1c1c1c1c1c1c1c1c1c1c1c1c1c1c1c1
RESULT CIPHER-DECIPHER: -----OK-----


Test: 63
Hash algorithm: 13
Data unit:      63
Start block:    127
Symmetric key bit length: 384
Plaintext bit length:     128
Symmetric key:            3f3f3f3f3f3f3f3f3f3f3f3f3f3f3f3f3f3f3f3f3f3f3f3f3f3f3f3f3f3f3f3f3f3f3f3f3f3f3f3f3f3f3f3f3f3f3f3f
Plaintext:                c0c0c0c0c0c0c0c0c0c0c0c0c0c0c0c0
Ciphertext:               48c0cf3645acb91e479d857548613e1c251df8fc268262a1d5444b034ff67fad
Reciphers for ciphertext: 0
Decipheredtext:           c0c0c0c0c0c0c0c0c0c0c0c0c0c0c0c0
RESULT CIPHER-DECIPHER: -----OK-----


Test: 64
Hash algorithm: 11
Data unit:      64
Start block:    129
Symmetric key bit length: 384
Plaintext bit length:     128
Symmetric key:            404040404040404040404040404040404040404040404040404040404040404040404040404040404040404040404040
Plaintext:                bfbfbfbfbfbfbfbfbfbfbfbfbfbfbfbf
Ciphertext:               a0b72f80a3fdbe15142c89f02f8e7acbc53f92b9db29edf9dd8e6d47410d4f9a
Reciphers for ciphertext: 0
Decipheredtext:           bfbfbfbfbfbfbfbfbfbfbfbfbfbfbfbf
RESULT CIPHER-DECIPHER: -----OK-----


Test: 65
Hash algorithm: 11
Data unit:      65
Start block:    131
Symmetric key bit length: 384
Plaintext bit length:     128
Symmetric key:            414141414141414141414141414141414141414141414141414141414141414141414141414141414141414141414141
Plaintext:                bebebebebebebebebebebebebebebebe
Ciphertext:               bce9d3dd1399045a1b1e78c8d2df9fa836d3fe9bd7961eb0e447b721d18dae40
Reciphers for ciphertext: 0
Decipheredtext:           bebebebebebebebebebebebebebebebe
RESULT CIPHER-DECIPHER: -----OK-----


Test: 66
Hash algorithm: 0
Data unit:      66
Start block:    133
Symmetric key bit length: 384
Plaintext bit length:     128
Symmetric key:            424242424242424242424242424242424242424242424242424242424242424242424242424242424242424242424242
Plaintext:                bdbdbdbdbdbdbdbdbdbdbdbdbdbdbdbd
Ciphertext:               dae9c013765f518f2edf1158988fb5383b66135d9caf841819d8ca4a85716b32007e4a45
Reciphers for ciphertext: 0
Decipheredtext:           bdbdbdbdbdbdbdbdbdbdbdbdbdbdbdbd
RESULT CIPHER-DECIPHER: -----OK-----


Test: 67
Hash algorithm: 9
Data unit:      67
Start block:    135
Symmetric key bit length: 384
Plaintext bit length:     128
Symmetric key:            434343434343434343434343434343434343434343434343434343434343434343434343434343434343434343434343
Plaintext:                bcbcbcbcbcbcbcbcbcbcbcbcbcbcbcbc
Ciphertext:               f5532c381da3c7a5145a264f3698a2c092a5a7ec601a5d4aa7963f99c67e8fc715bd75c1a70ececa3dbc73b5bce1b460
Reciphers for ciphertext: 0
Decipheredtext:           bcbcbcbcbcbcbcbcbcbcbcbcbcbcbcbc
RESULT CIPHER-DECIPHER: -----OK-----


Test: 68
Hash algorithm: 12
Data unit:      68
Start block:    137
Symmetric key bit length: 384
Plaintext bit length:     128
Symmetric key:            444444444444444444444444444444444444444444444444444444444444444444444444444444444444444444444444
Plaintext:                bbbbbbbbbbbbbbbbbbbbbbbbbbbbbbbb
Ciphertext:               3995bcbc19e33dd4cbdec76740bd20cf871b6347f5bb80124f2bbb962b2b0403
Reciphers for ciphertext: 0
Decipheredtext:           bbbbbbbbbbbbbbbbbbbbbbbbbbbbbbbb
RESULT CIPHER-DECIPHER: -----OK-----


Test: 69
Hash algorithm: 9
Data unit:      69
Start block:    139
Symmetric key bit length: 384
Plaintext bit length:     128
Symmetric key:            454545454545454545454545454545454545454545454545454545454545454545454545454545454545454545454545
Plaintext:                babababababababababababababababa
Ciphertext:               1c95f3f5ddd3fa4e31b720456565b062d4fb6367100c9e0637722bd31eb7cd0abdd252117de22ad382e727753c3f1b7d
Reciphers for ciphertext: 0
Decipheredtext:           babababababababababababababababa
RESULT CIPHER-DECIPHER: -----OK-----


Test: 70
Hash algorithm: 3
Data unit:      70
Start block:    141
Symmetric key bit length: 384
Plaintext bit length:     128
Symmetric key:            464646464646464646464646464646464646464646464646464646464646464646464646464646464646464646464646
Plaintext:                b9b9b9b9b9b9b9b9b9b9b9b9b9b9b9b9
Ciphertext:               3cdd41bd7d8d6e84c10781e3abdc5be01f78c389aa5f292fc49f9e40e80316c924a23fad546be0ffd2ced6b28b356b53e478005f627b356b4e83eb96c99235c1
Reciphers for ciphertext: 0
Decipheredtext:           b9b9b9b9b9b9b9b9b9b9b9b9b9b9b9b9
RESULT CIPHER-DECIPHER: -----OK-----


Test: 71
Hash algorithm: 10
Data unit:      71
Start block:    143
Symmetric key bit length: 384
Plaintext bit length:     128
Symmetric key:            474747474747474747474747474747474747474747474747474747474747474747474747474747474747474747474747
Plaintext:                b8b8b8b8b8b8b8b8b8b8b8b8b8b8b8b8
Ciphertext:               3af5b1ef698250f7505313101a26e31e36adff0cd562d443d0e3e4514d0ab5e573c23c8439733e1eb234f3d6459d46ff0a5d1dc6370359f7
Reciphers for ciphertext: 0
Decipheredtext:           b8b8b8b8b8b8b8b8b8b8b8b8b8b8b8b8
RESULT CIPHER-DECIPHER: -----OK-----


Test: 72
Hash algorithm: 3
Data unit:      72
Start block:    145
Symmetric key bit length: 384
Plaintext bit length:     128
Symmetric key:            484848484848484848484848484848484848484848484848484848484848484848484848484848484848484848484848
Plaintext:                b7b7b7b7b7b7b7b7b7b7b7b7b7b7b7b7
Ciphertext:               b0210db1a403dd048bcb1c6189ae3b710b2a9cd7bce3b8f949346cd396b60c4d15aefdf85464efb917fb00f06b000c8d1e0ec51667852724a70e527bde341cc7
Reciphers for ciphertext: 0
Decipheredtext:           b7b7b7b7b7b7b7b7b7b7b7b7b7b7b7b7
RESULT CIPHER-DECIPHER: -----OK-----


Test: 73
Hash algorithm: 13
Data unit:      73
Start block:    147
Symmetric key bit length: 384
Plaintext bit length:     128
Symmetric key:            494949494949494949494949494949494949494949494949494949494949494949494949494949494949494949494949
Plaintext:                b6b6b6b6b6b6b6b6b6b6b6b6b6b6b6b6
Ciphertext:               b60c4e9e8980793edba2bc12ef34ae8518a209f3c76e14d66324e82b3b684dd7
Reciphers for ciphertext: 0
Decipheredtext:           b6b6b6b6b6b6b6b6b6b6b6b6b6b6b6b6
RESULT CIPHER-DECIPHER: -----OK-----


Test: 74
Hash algorithm: 9
Data unit:      74
Start block:    149
Symmetric key bit length: 384
Plaintext bit length:     128
Symmetric key:            4a4a4a4a4a4a4a4a4a4a4a4a4a4a4a4a4a4a4a4a4a4a4a4a4a4a4a4a4a4a4a4a4a4a4a4a4a4a4a4a4a4a4a4a4a4a4a4a
Plaintext:                b5b5b5b5b5b5b5b5b5b5b5b5b5b5b5b5
Ciphertext:               ceb97083f2d424dccfceac88c32624ecdad3b4cf11b8e536137380fbd80c4b7f0c3e40c2045a98d1bc251923611e207f
Reciphers for ciphertext: 0
Decipheredtext:           b5b5b5b5b5b5b5b5b5b5b5b5b5b5b5b5
RESULT CIPHER-DECIPHER: -----OK-----


Test: 75
Hash algorithm: 4
Data unit:      75
Start block:    151
Symmetric key bit length: 384
Plaintext bit length:     128
Symmetric key:            4b4b4b4b4b4b4b4b4b4b4b4b4b4b4b4b4b4b4b4b4b4b4b4b4b4b4b4b4b4b4b4b4b4b4b4b4b4b4b4b4b4b4b4b4b4b4b4b
Plaintext:                b4b4b4b4b4b4b4b4b4b4b4b4b4b4b4b4
Ciphertext:               42351188c67e33579b18b504a74e7ac3a91bfc7fd5f0c37e28bbebca90d778a1c6ac807a32d33d1ea4fa53fa44009d670416b57647de9c4ea5f38efc166638bf8545b8479da7881f51682205594c9745
Reciphers for ciphertext: 0
Decipheredtext:           b4b4b4b4b4b4b4b4b4b4b4b4b4b4b4b4
RESULT CIPHER-DECIPHER: -----OK-----


Test: 76
Hash algorithm: 0
Data unit:      76
Start block:    153
Symmetric key bit length: 384
Plaintext bit length:     128
Symmetric key:            4c4c4c4c4c4c4c4c4c4c4c4c4c4c4c4c4c4c4c4c4c4c4c4c4c4c4c4c4c4c4c4c4c4c4c4c4c4c4c4c4c4c4c4c4c4c4c4c
Plaintext:                b3b3b3b3b3b3b3b3b3b3b3b3b3b3b3b3
Ciphertext:               2fab1f35b11d1622ade0750cb21982ac4eb1cd569baadffd8f97bdd3cb5bae7289d6f51c
Reciphers for ciphertext: 0
Decipheredtext:           b3b3b3b3b3b3b3b3b3b3b3b3b3b3b3b3
RESULT CIPHER-DECIPHER: -----OK-----


Test: 77
Hash algorithm: 1
Data unit:      77
Start block:    155
Symmetric key bit length: 384
Plaintext bit length:     128
Symmetric key:            4d4d4d4d4d4d4d4d4d4d4d4d4d4d4d4d4d4d4d4d4d4d4d4d4d4d4d4d4d4d4d4d4d4d4d4d4d4d4d4d4d4d4d4d4d4d4d4d
Plaintext:                b2b2b2b2b2b2b2b2b2b2b2b2b2b2b2b2
Ciphertext:               66a9990d4277659d88d3936ceee93dbd378f4497a019e4e54109498ed704256e8bc97864df8cb2efedefd423
Reciphers for ciphertext: 0
Decipheredtext:           b2b2b2b2b2b2b2b2b2b2b2b2b2b2b2b2
RESULT CIPHER-DECIPHER: -----OK-----


Test: 78
Hash algorithm: 1
Data unit:      78
Start block:    157
Symmetric key bit length: 384
Plaintext bit length:     128
Symmetric key:            4e4e4e4e4e4e4e4e4e4e4e4e4e4e4e4e4e4e4e4e4e4e4e4e4e4e4e4e4e4e4e4e4e4e4e4e4e4e4e4e4e4e4e4e4e4e4e4e
Plaintext:                b1b1b1b1b1b1b1b1b1b1b1b1b1b1b1b1
Ciphertext:               34173d716a9e8c356e517771cca5feb9ab8a3bf882c1ea3d31b135d10937f5b60c3fd310648245a984f67778
Reciphers for ciphertext: 0
Decipheredtext:           b1b1b1b1b1b1b1b1b1b1b1b1b1b1b1b1
RESULT CIPHER-DECIPHER: -----OK-----


Test: 79
Hash algorithm: 12
Data unit:      79
Start block:    159
Symmetric key bit length: 384
Plaintext bit length:     128
Symmetric key:            4f4f4f4f4f4f4f4f4f4f4f4f4f4f4f4f4f4f4f4f4f4f4f4f4f4f4f4f4f4f4f4f4f4f4f4f4f4f4f4f4f4f4f4f4f4f4f4f
Plaintext:                b0b0b0b0b0b0b0b0b0b0b0b0b0b0b0b0
Ciphertext:               eeb2d3aeaa9acd7af1b3df66c8e4b1a7599584dec197b8c0c1395ca712991053
Reciphers for ciphertext: 0
Decipheredtext:           b0b0b0b0b0b0b0b0b0b0b0b0b0b0b0b0
RESULT CIPHER-DECIPHER: -----OK-----


Test: 80
Hash algorithm: 5
Data unit:      80
Start block:    161
Symmetric key bit length: 384
Plaintext bit length:     128
Symmetric key:            505050505050505050505050505050505050505050505050505050505050505050505050505050505050505050505050
Plaintext:                afafafafafafafafafafafafafafafaf
Ciphertext:               904c3e0bdd4cb66d2509773b35a11836844035ab5413c41a7825fc0e14b78486feaba0273b7d18961b9ef3df
Reciphers for ciphertext: 0
Decipheredtext:           afafafafafafafafafafafafafafafaf
RESULT CIPHER-DECIPHER: -----OK-----


Test: 81
Hash algorithm: 5
Data unit:      81
Start block:    163
Symmetric key bit length: 384
Plaintext bit length:     128
Symmetric key:            515151515151515151515151515151515151515151515151515151515151515151515151515151515151515151515151
Plaintext:                aeaeaeaeaeaeaeaeaeaeaeaeaeaeaeae
Ciphertext:               c3a82561de07416788a99366f3ac261a7ad44f710f2ad3fb98288d34162e3736b0da0b6e619e6fb75c434934
Reciphers for ciphertext: 0
Decipheredtext:           aeaeaeaeaeaeaeaeaeaeaeaeaeaeaeae
RESULT CIPHER-DECIPHER: -----OK-----


Test: 82
Hash algorithm: 13
Data unit:      82
Start block:    165
Symmetric key bit length: 384
Plaintext bit length:     128
Symmetric key:            525252525252525252525252525252525252525252525252525252525252525252525252525252525252525252525252
Plaintext:                adadadadadadadadadadadadadadadad
Ciphertext:               e015341db096ce5092a1fc8cc13812955efa994deed8a0d4b3a8b364f1c0273c
Reciphers for ciphertext: 0
Decipheredtext:           adadadadadadadadadadadadadadadad
RESULT CIPHER-DECIPHER: -----OK-----


Test: 83
Hash algorithm: 4
Data unit:      83
Start block:    167
Symmetric key bit length: 384
Plaintext bit length:     128
Symmetric key:            535353535353535353535353535353535353535353535353535353535353535353535353535353535353535353535353
Plaintext:                acacacacacacacacacacacacacacacac
Ciphertext:               0967aeee8fb012e7cc2c9953e2a48290bd3bbbeb42e25ca5d9a0f675f1f4ac1387be9f34353845d99b70e6cf752505a89a7743d5bcba2221b33b8623ddc85821b32cb5fc638d7c8984b50e2d084f43b3
Reciphers for ciphertext: 0
Decipheredtext:           acacacacacacacacacacacacacacacac
RESULT CIPHER-DECIPHER: -----OK-----


Test: 84
Hash algorithm: 3
Data unit:      84
Start block:    169
Symmetric key bit length: 384
Plaintext bit length:     128
Symmetric key:            545454545454545454545454545454545454545454545454545454545454545454545454545454545454545454545454
Plaintext:                abababababababababababababababab
Ciphertext:               4db444599dce89c3e953f33825ed6ad9ae37b38d91b9b625d938d94339aefd3d6364548f8a1ae5e50a397f3e91c8e160855fe0de9cb1f3f3791a17c1ddc476f8
Reciphers for ciphertext: 0
Decipheredtext:           abababababababababababababababab
RESULT CIPHER-DECIPHER: -----OK-----


Test: 85
Hash algorithm: 9
Data unit:      85
Start block:    171
Symmetric key bit length: 384
Plaintext bit length:     128
Symmetric key:            555555555555555555555555555555555555555555555555555555555555555555555555555555555555555555555555
Plaintext:                aaaaaaaaaaaaaaaaaaaaaaaaaaaaaaaa
Ciphertext:               df3653b146d8a2157d9e72fe1908ffca34b7add36a3dbfcf336bfeeb685571581d145fe59a813edad21f4b6b115fb1d2
Reciphers for ciphertext: 0
Decipheredtext:           aaaaaaaaaaaaaaaaaaaaaaaaaaaaaaaa
RESULT CIPHER-DECIPHER: -----OK-----


Test: 86
Hash algorithm: 5
Data unit:      86
Start block:    173
Symmetric key bit length: 384
Plaintext bit length:     128
Symmetric key:            565656565656565656565656565656565656565656565656565656565656565656565656565656565656565656565656
Plaintext:                a9a9a9a9a9a9a9a9a9a9a9a9a9a9a9a9
Ciphertext:               3bc5458ec6ad436d60e831a63040a62479ce4a91a41a04bdeb478739efff176457a57f994d947e97220a6cbf
Reciphers for ciphertext: 0
Decipheredtext:           a9a9a9a9a9a9a9a9a9a9a9a9a9a9a9a9
RESULT CIPHER-DECIPHER: -----OK-----


Test: 87
Hash algorithm: 13
Data unit:      87
Start block:    175
Symmetric key bit length: 384
Plaintext bit length:     128
Symmetric key:            575757575757575757575757575757575757575757575757575757575757575757575757575757575757575757575757
Plaintext:                a8a8a8a8a8a8a8a8a8a8a8a8a8a8a8a8
Ciphertext:               d53dbe1ccd0cef2fb844d4f8df21587ea13b06e203bb03e78ec1245812025439
Reciphers for ciphertext: 0
Decipheredtext:           a8a8a8a8a8a8a8a8a8a8a8a8a8a8a8a8
RESULT CIPHER-DECIPHER: -----OK-----


Test: 88
Hash algorithm: 4
Data unit:      88
Start block:    177
Symmetric key bit length: 384
Plaintext bit length:     128
Symmetric key:            585858585858585858585858585858585858585858585858585858585858585858585858585858585858585858585858
Plaintext:                a7a7a7a7a7a7a7a7a7a7a7a7a7a7a7a7
Ciphertext:               e5411d652884a2dcee8f52d726f7b62b4acf9a58480a648cb72fa5a049641d305371b04937652753d926b93a8bd3290e00e7ccd2455901d1bc8f95872099698e4e415c127241ba00705e2fa971e557a8
Reciphers for ciphertext: 0
Decipheredtext:           a7a7a7a7a7a7a7a7a7a7a7a7a7a7a7a7
RESULT CIPHER-DECIPHER: -----OK-----


Test: 89
Hash algorithm: 11
Data unit:      89
Start block:    179
Symmetric key bit length: 384
Plaintext bit length:     128
Symmetric key:            595959595959595959595959595959595959595959595959595959595959595959595959595959595959595959595959
Plaintext:                a6a6a6a6a6a6a6a6a6a6a6a6a6a6a6a6
Ciphertext:               d4b2a3de08fab8ac866e02ee2bfbd2f8f1de8c67529d31ef16b846f8066e1ffe
Reciphers for ciphertext: 0
Decipheredtext:           a6a6a6a6a6a6a6a6a6a6a6a6a6a6a6a6
RESULT CIPHER-DECIPHER: -----OK-----


Test: 90
Hash algorithm: 9
Data unit:      90
Start block:    181
Symmetric key bit length: 384
Plaintext bit length:     128
Symmetric key:            5a5a5a5a5a5a5a5a5a5a5a5a5a5a5a5a5a5a5a5a5a5a5a5a5a5a5a5a5a5a5a5a5a5a5a5a5a5a5a5a5a5a5a5a5a5a5a5a
Plaintext:                a5a5a5a5a5a5a5a5a5a5a5a5a5a5a5a5
Ciphertext:               7ff92b0bbcc50f77de6c752b485cbd4967d82bd754fef9ed4aac34f69052ab8c264bcde6719a899abe0bcccdb80b5f7c
Reciphers for ciphertext: 0
Decipheredtext:           a5a5a5a5a5a5a5a5a5a5a5a5a5a5a5a5
RESULT CIPHER-DECIPHER: -----OK-----


Test: 91
Hash algorithm: 11
Data unit:      91
Start block:    183
Symmetric key bit length: 384
Plaintext bit length:     128
Symmetric key:            5b5b5b5b5b5b5b5b5b5b5b5b5b5b5b5b5b5b5b5b5b5b5b5b5b5b5b5b5b5b5b5b5b5b5b5b5b5b5b5b5b5b5b5b5b5b5b5b
Plaintext:                a4a4a4a4a4a4a4a4a4a4a4a4a4a4a4a4
Ciphertext:               248bcb945cce18fbb44227a5d88139b04a4545b8ba38c91983090354a367a78f
Reciphers for ciphertext: 0
Decipheredtext:           a4a4a4a4a4a4a4a4a4a4a4a4a4a4a4a4
RESULT CIPHER-DECIPHER: -----OK-----


Test: 92
Hash algorithm: 8
Data unit:      92
Start block:    185
Symmetric key bit length: 384
Plaintext bit length:     128
Symmetric key:            5c5c5c5c5c5c5c5c5c5c5c5c5c5c5c5c5c5c5c5c5c5c5c5c5c5c5c5c5c5c5c5c5c5c5c5c5c5c5c5c5c5c5c5c5c5c5c5c
Plaintext:                a3a3a3a3a3a3a3a3a3a3a3a3a3a3a3a3
Ciphertext:               79efc5cdb7981d1b570862dbde1fd89f930cb14236b10841a7439efed1c0930ab08715d1
Reciphers for ciphertext: 0
Decipheredtext:           a3a3a3a3a3a3a3a3a3a3a3a3a3a3a3a3
RESULT CIPHER-DECIPHER: -----OK-----


Test: 93
Hash algorithm: 9
Data unit:      93
Start block:    187
Symmetric key bit length: 384
Plaintext bit length:     128
Symmetric key:            5d5d5d5d5d5d5d5d5d5d5d5d5d5d5d5d5d5d5d5d5d5d5d5d5d5d5d5d5d5d5d5d5d5d5d5d5d5d5d5d5d5d5d5d5d5d5d5d
Plaintext:                a2a2a2a2a2a2a2a2a2a2a2a2a2a2a2a2
Ciphertext:               1628b9a5af8d71b872a998787e722b5cc83c8006449af16a0c0e4da3176b38ca406432872cd507b94bcf7648b27a0f3e
Reciphers for ciphertext: 0
Decipheredtext:           a2a2a2a2a2a2a2a2a2a2a2a2a2a2a2a2
RESULT CIPHER-DECIPHER: -----OK-----


Test: 94
Hash algorithm: 6
Data unit:      94
Start block:    189
Symmetric key bit length: 384
Plaintext bit length:     128
Symmetric key:            5e5e5e5e5e5e5e5e5e5e5e5e5e5e5e5e5e5e5e5e5e5e5e5e5e5e5e5e5e5e5e5e5e5e5e5e5e5e5e5e5e5e5e5e5e5e5e5e
Plaintext:                a1a1a1a1a1a1a1a1a1a1a1a1a1a1a1a1
Ciphertext:               d379cc0dfa2d67f8d489044715257f19262af8a2cdb0f072fa1aee3fe6a61e60c8fcc43158b67150be26806a558d5119
Reciphers for ciphertext: 0
Decipheredtext:           a1a1a1a1a1a1a1a1a1a1a1a1a1a1a1a1
RESULT CIPHER-DECIPHER: -----OK-----


Test: 95
Hash algorithm: 8
Data unit:      95
Start block:    191
Symmetric key bit length: 384
Plaintext bit length:     128
Symmetric key:            5f5f5f5f5f5f5f5f5f5f5f5f5f5f5f5f5f5f5f5f5f5f5f5f5f5f5f5f5f5f5f5f5f5f5f5f5f5f5f5f5f5f5f5f5f5f5f5f
Plaintext:                a0a0a0a0a0a0a0a0a0a0a0a0a0a0a0a0
Ciphertext:               6179e23d1ef87b5339adba5e16b0718b69a9b2e83053cdca2a8f5fda01fff9a752b4d8f1
Reciphers for ciphertext: 0
Decipheredtext:           a0a0a0a0a0a0a0a0a0a0a0a0a0a0a0a0
RESULT CIPHER-DECIPHER: -----OK-----


Test: 96
Hash algorithm: 8
Data unit:      96
Start block:    193
Symmetric key bit length: 384
Plaintext bit length:     128
Symmetric key:            606060606060606060606060606060606060606060606060606060606060606060606060606060606060606060606060
Plaintext:                9f9f9f9f9f9f9f9f9f9f9f9f9f9f9f9f
Ciphertext:               aed659602267c6b62bda9048058512aa3b6db0536c05ef1ae2a59bf4fd5593f474baf6ea
Reciphers for ciphertext: 0
Decipheredtext:           9f9f9f9f9f9f9f9f9f9f9f9f9f9f9f9f
RESULT CIPHER-DECIPHER: -----OK-----


Test: 97
Hash algorithm: 0
Data unit:      97
Start block:    195
Symmetric key bit length: 384
Plaintext bit length:     128
Symmetric key:            616161616161616161616161616161616161616161616161616161616161616161616161616161616161616161616161
Plaintext:                9e9e9e9e9e9e9e9e9e9e9e9e9e9e9e9e
Ciphertext:               bd5290bac4f564fa6f3e1462ad2d5f9cc45a99c3e175b72b1cc7092b76a5a08950c13c0c
Reciphers for ciphertext: 0
Decipheredtext:           9e9e9e9e9e9e9e9e9e9e9e9e9e9e9e9e
RESULT CIPHER-DECIPHER: -----OK-----


Test: 98
Hash algorithm: 0
Data unit:      98
Start block:    197
Symmetric key bit length: 384
Plaintext bit length:     128
Symmetric key:            626262626262626262626262626262626262626262626262626262626262626262626262626262626262626262626262
Plaintext:                9d9d9d9d9d9d9d9d9d9d9d9d9d9d9d9d
Ciphertext:               3bad27676136a0416b1171b155aaa4fd7369c49d6c29dd0a5f23aeaced8ac459a81726c2
Reciphers for ciphertext: 0
Decipheredtext:           9d9d9d9d9d9d9d9d9d9d9d9d9d9d9d9d
RESULT CIPHER-DECIPHER: -----OK-----


Test: 99
Hash algorithm: 11
Data unit:      99
Start block:    199
Symmetric key bit length: 384
Plaintext bit length:     128
Symmetric key:            636363636363636363636363636363636363636363636363636363636363636363636363636363636363636363636363
Plaintext:                9c9c9c9c9c9c9c9c9c9c9c9c9c9c9c9c
Ciphertext:               4e76a1ff85a7a056d303a58bbf31d43eae4c441a6f39e3c17107d055a0567d36
Reciphers for ciphertext: 0
Decipheredtext:           9c9c9c9c9c9c9c9c9c9c9c9c9c9c9c9c
RESULT CIPHER-DECIPHER: -----OK-----


Test: 100
Hash algorithm: 10
Data unit:      100
Start block:    201
Symmetric key bit length: 384
Plaintext bit length:     128
Symmetric key:            646464646464646464646464646464646464646464646464646464646464646464646464646464646464646464646464
Plaintext:                9b9b9b9b9b9b9b9b9b9b9b9b9b9b9b9b
Ciphertext:               3bb07b56797894cd6c5a9be744c6e263a555e608e51538260163fb1f87f0929f44bf47c5746fc36819e681bb6ec151ccaa8de595aa1e8507
Reciphers for ciphertext: 0
Decipheredtext:           9b9b9b9b9b9b9b9b9b9b9b9b9b9b9b9b
RESULT CIPHER-DECIPHER: -----OK-----


Test: 101
Hash algorithm: 7
Data unit:      101
Start block:    203
Symmetric key bit length: 384
Plaintext bit length:     128
Symmetric key:            656565656565656565656565656565656565656565656565656565656565656565656565656565656565656565656565
Plaintext:                9a9a9a9a9a9a9a9a9a9a9a9a9a9a9a9a
Ciphertext:               01f1c0f4b31bf6166a75790efcc62822e9179c9aa4a9e909940fa1bc235f8795
Reciphers for ciphertext: 0
Decipheredtext:           9a9a9a9a9a9a9a9a9a9a9a9a9a9a9a9a
RESULT CIPHER-DECIPHER: -----OK-----


Test: 102
Hash algorithm: 1
Data unit:      102
Start block:    205
Symmetric key bit length: 384
Plaintext bit length:     128
Symmetric key:            666666666666666666666666666666666666666666666666666666666666666666666666666666666666666666666666
Plaintext:                99999999999999999999999999999999
Ciphertext:               c6684d659f53b22d1013bc3a09b8d9836fdffc755aa9bea71c5ac3c8f94a02d321f038d5ce58e2fdcb628e37
Reciphers for ciphertext: 0
Decipheredtext:           99999999999999999999999999999999
RESULT CIPHER-DECIPHER: -----OK-----


Test: 103
Hash algorithm: 13
Data unit:      103
Start block:    207
Symmetric key bit length: 384
Plaintext bit length:     128
Symmetric key:            676767676767676767676767676767676767676767676767676767676767676767676767676767676767676767676767
Plaintext:                98989898989898989898989898989898
Ciphertext:               1b1466a3e0060a0275dce24234d5329c8f1202ae0ce0ce764e7d7045395364f4
Reciphers for ciphertext: 0
Decipheredtext:           98989898989898989898989898989898
RESULT CIPHER-DECIPHER: -----OK-----


Test: 104
Hash algorithm: 2
Data unit:      104
Start block:    209
Symmetric key bit length: 384
Plaintext bit length:     128
Symmetric key:            686868686868686868686868686868686868686868686868686868686868686868686868686868686868686868686868
Plaintext:                97979797979797979797979797979797
Ciphertext:               c8b7ef989152ab85f01725d4955ff0c3514d1e6bcaf35b8f3bbb617c5c6fa20529dc313872e7191660f0d0fb656c3c85
Reciphers for ciphertext: 0
Decipheredtext:           97979797979797979797979797979797
RESULT CIPHER-DECIPHER: -----OK-----


Test: 105
Hash algorithm: 0
Data unit:      105
Start block:    211
Symmetric key bit length: 384
Plaintext bit length:     128
Symmetric key:            696969696969696969696969696969696969696969696969696969696969696969696969696969696969696969696969
Plaintext:                96969696969696969696969696969696
Ciphertext:               f7ee56ea49e115b5d72b14684305b136892b13bfce9cd6f42f03150cfa6effa61e77e857
Reciphers for ciphertext: 0
Decipheredtext:           96969696969696969696969696969696
RESULT CIPHER-DECIPHER: -----OK-----


Test: 106
Hash algorithm: 8
Data unit:      106
Start block:    213
Symmetric key bit length: 384
Plaintext bit length:     128
Symmetric key:            6a6a6a6a6a6a6a6a6a6a6a6a6a6a6a6a6a6a6a6a6a6a6a6a6a6a6a6a6a6a6a6a6a6a6a6a6a6a6a6a6a6a6a6a6a6a6a6a
Plaintext:                95959595959595959595959595959595
Ciphertext:               d59d9db1bea9c0059ac50250be1f26f59a89b015f271fa8e286d67cb5505389161168206
Reciphers for ciphertext: 0
Decipheredtext:           95959595959595959595959595959595
RESULT CIPHER-DECIPHER: -----OK-----


Test: 107
Hash algorithm: 3
Data unit:      107
Start block:    215
Symmetric key bit length: 384
Plaintext bit length:     128
Symmetric key:            6b6b6b6b6b6b6b6b6b6b6b6b6b6b6b6b6b6b6b6b6b6b6b6b6b6b6b6b6b6b6b6b6b6b6b6b6b6b6b6b6b6b6b6b6b6b6b6b
Plaintext:                94949494949494949494949494949494
Ciphertext:               2efcbac87b3a0c6a98c013ee16ea63d43c57feaf897faff6146e402a64117aebe10648345eb194c5b6effbd097238b8bb1139051727873206ae3090181d57d89
Reciphers for ciphertext: 0
Decipheredtext:           94949494949494949494949494949494
RESULT CIPHER-DECIPHER: -----OK-----


Test: 108
Hash algorithm: 2
Data unit:      108
Start block:    217
Symmetric key bit length: 384
Plaintext bit length:     128
Symmetric key:            6c6c6c6c6c6c6c6c6c6c6c6c6c6c6c6c6c6c6c6c6c6c6c6c6c6c6c6c6c6c6c6c6c6c6c6c6c6c6c6c6c6c6c6c6c6c6c6c
Plaintext:                93939393939393939393939393939393
Ciphertext:               6476a3e159cbdf3398996d641c69df70b6db322a008972806a33dfa0a379f34f063373afd9a623c0742a61f4f6f2c49d
Reciphers for ciphertext: 0
Decipheredtext:           93939393939393939393939393939393
RESULT CIPHER-DECIPHER: -----OK-----


Test: 109
Hash algorithm: 0
Data unit:      109
Start block:    219
Symmetric key bit length: 384
Plaintext bit length:     128
Symmetric key:            6d6d6d6d6d6d6d6d6d6d6d6d6d6d6d6d6d6d6d6d6d6d6d6d6d6d6d6d6d6d6d6d6d6d6d6d6d6d6d6d6d6d6d6d6d6d6d6d
Plaintext:                92929292929292929292929292929292
Ciphertext:               50bc4c8afe2b8394f861694d4d7d9513aed2c93f002febdcea7f16e6f183b5efb51528dd
Reciphers for ciphertext: 0
Decipheredtext:           92929292929292929292929292929292
RESULT CIPHER-DECIPHER: -----OK-----


Test: 110
Hash algorithm: 6
Data unit:      110
Start block:    221
Symmetric key bit length: 384
Plaintext bit length:     128
Symmetric key:            6e6e6e6e6e6e6e6e6e6e6e6e6e6e6e6e6e6e6e6e6e6e6e6e6e6e6e6e6e6e6e6e6e6e6e6e6e6e6e6e6e6e6e6e6e6e6e6e
Plaintext:                91919191919191919191919191919191
Ciphertext:               537993dfa6f68ea890aee8af90a82c4e23265a8c793adf424eb1e7c99e37c80c389ab0208e7e995f66d873b31be29e0d
Reciphers for ciphertext: 0
Decipheredtext:           91919191919191919191919191919191
RESULT CIPHER-DECIPHER: -----OK-----


Test: 111
Hash algorithm: 3
Data unit:      111
Start block:    223
Symmetric key bit length: 384
Plaintext bit length:     128
Symmetric key:            6f6f6f6f6f6f6f6f6f6f6f6f6f6f6f6f6f6f6f6f6f6f6f6f6f6f6f6f6f6f6f6f6f6f6f6f6f6f6f6f6f6f6f6f6f6f6f6f
Plaintext:                90909090909090909090909090909090
Ciphertext:               19f799ecf21ecd880cd2770360a4c7b15c031aa04738d8da6c9572177d04512baa7144e975d95d6f3c038cd6319c68b19bc09781191b0256992bf1f696507989
Reciphers for ciphertext: 0
Decipheredtext:           90909090909090909090909090909090
RESULT CIPHER-DECIPHER: -----OK-----


Test: 112
Hash algorithm: 1
Data unit:      112
Start block:    225
Symmetric key bit length: 384
Plaintext bit length:     128
Symmetric key:            707070707070707070707070707070707070707070707070707070707070707070707070707070707070707070707070
Plaintext:                8f8f8f8f8f8f8f8f8f8f8f8f8f8f8f8f
Ciphertext:               245fca973ea20812a790ee4d77fafb17b0337d48109fad8d0a87dc1153398833beb203d17cd4161610a0b18b
Reciphers for ciphertext: 0
Decipheredtext:           8f8f8f8f8f8f8f8f8f8f8f8f8f8f8f8f
RESULT CIPHER-DECIPHER: -----OK-----


Test: 113
Hash algorithm: 5
Data unit:      113
Start block:    227
Symmetric key bit length: 384
Plaintext bit length:     128
Symmetric key:            717171717171717171717171717171717171717171717171717171717171717171717171717171717171717171717171
Plaintext:                8e8e8e8e8e8e8e8e8e8e8e8e8e8e8e8e
Ciphertext:               48edf19dd9d2bfa731892631e7cd0d75a44fb9381f9016553e487a684adf24c63a7fad582dd766bc84b91209
Reciphers for ciphertext: 0
Decipheredtext:           8e8e8e8e8e8e8e8e8e8e8e8e8e8e8e8e
RESULT CIPHER-DECIPHER: -----OK-----


Test: 114
Hash algorithm: 6
Data unit:      114
Start block:    229
Symmetric key bit length: 384
Plaintext bit length:     128
Symmetric key:            727272727272727272727272727272727272727272727272727272727272727272727272727272727272727272727272
Plaintext:                8d8d8d8d8d8d8d8d8d8d8d8d8d8d8d8d
Ciphertext:               23940f3bb29473f5020182769d87aa8ec5ee164540fd2b3cc401ed1e404ed3cc74b45fba0e8895ecc892080e16a43fae
Reciphers for ciphertext: 0
Decipheredtext:           8d8d8d8d8d8d8d8d8d8d8d8d8d8d8d8d
RESULT CIPHER-DECIPHER: -----OK-----


Test: 115
Hash algorithm: 9
Data unit:      115
Start block:    231
Symmetric key bit length: 384
Plaintext bit length:     128
Symmetric key:            737373737373737373737373737373737373737373737373737373737373737373737373737373737373737373737373
Plaintext:                8c8c8c8c8c8c8c8c8c8c8c8c8c8c8c8c
Ciphertext:               83c6411bc3a31d88d543ead2ff37977351225194a8b69108bc2065e210a45eec63f1d71ef5818dbaaf2cad8301357736
Reciphers for ciphertext: 0
Decipheredtext:           8c8c8c8c8c8c8c8c8c8c8c8c8c8c8c8c
RESULT CIPHER-DECIPHER: -----OK-----


Test: 116
Hash algorithm: 3
Data unit:      116
Start block:    233
Symmetric key bit length: 384
Plaintext bit length:     128
Symmetric key:            747474747474747474747474747474747474747474747474747474747474747474747474747474747474747474747474
Plaintext:                8b8b8b8b8b8b8b8b8b8b8b8b8b8b8b8b
Ciphertext:               c395dae572c2065b05a60ad373ddda8e51f59a78dc2e96ec036ad373190aa13d3a62d804e007693f0978edf84ffb74d74d461360d812258a2f93572ff0d5c1b7
Reciphers for ciphertext: 0
Decipheredtext:           8b8b8b8b8b8b8b8b8b8b8b8b8b8b8b8b
RESULT CIPHER-DECIPHER: -----OK-----


Test: 117
Hash algorithm: 2
Data unit:      117
Start block:    235
Symmetric key bit length: 384
Plaintext bit length:     128
Symmetric key:            757575757575757575757575757575757575757575757575757575757575757575757575757575757575757575757575
Plaintext:                8a8a8a8a8a8a8a8a8a8a8a8a8a8a8a8a
Ciphertext:               d9dd0b27069888c0ec37beb945114f9f42a0cc9d00cbab99fac7df651fa50120e84f2a3d9d97448b75e2d076898b6a3e
Reciphers for ciphertext: 0
Decipheredtext:           8a8a8a8a8a8a8a8a8a8a8a8a8a8a8a8a
RESULT CIPHER-DECIPHER: -----OK-----


Test: 118
Hash algorithm: 7
Data unit:      118
Start block:    237
Symmetric key bit length: 384
Plaintext bit length:     128
Symmetric key:            767676767676767676767676767676767676767676767676767676767676767676767676767676767676767676767676
Plaintext:                89898989898989898989898989898989
Ciphertext:               35ce11c5bedf132726df4ccb6d2963faa56fee89a53f5d180cc1259d5d7fe914
Reciphers for ciphertext: 0
Decipheredtext:           89898989898989898989898989898989
RESULT CIPHER-DECIPHER: -----OK-----


Test: 119
Hash algorithm: 1
Data unit:      119
Start block:    239
Symmetric key bit length: 384
Plaintext bit length:     128
Symmetric key:            777777777777777777777777777777777777777777777777777777777777777777777777777777777777777777777777
Plaintext:                88888888888888888888888888888888
Ciphertext:               5a772bdc8b47bc8a1802a008f45b6fbcb4f8e0717ad845e95ab84d09cee18d182520bb47483023a0491d3433
Reciphers for ciphertext: 0
Decipheredtext:           88888888888888888888888888888888
RESULT CIPHER-DECIPHER: -----OK-----


Test: 120
Hash algorithm: 3
Data unit:      120
Start block:    241
Symmetric key bit length: 384
Plaintext bit length:     128
Symmetric key:            787878787878787878787878787878787878787878787878787878787878787878787878787878787878787878787878
Plaintext:                87878787878787878787878787878787
Ciphertext:               4dcb8bcebc5c13d1cdd6a56faece4ac9abe5b1c12f9240e26997f5dbf1b6ae8252a6c5b5ef4f6664c65822b30de38ecdabcbda0591df8baed4efc6662b598951
Reciphers for ciphertext: 0
Decipheredtext:           87878787878787878787878787878787
RESULT CIPHER-DECIPHER: -----OK-----


Test: 121
Hash algorithm: 0
Data unit:      121
Start block:    243
Symmetric key bit length: 384
Plaintext bit length:     128
Symmetric key:            797979797979797979797979797979797979797979797979797979797979797979797979797979797979797979797979
Plaintext:                86868686868686868686868686868686
Ciphertext:               1ccdf9fc2059753a7c83dbd90aa8f89aa90d429d4e3c400127dba625c40c21c522fd12e3
Reciphers for ciphertext: 0
Decipheredtext:           86868686868686868686868686868686
RESULT CIPHER-DECIPHER: -----OK-----


Test: 122
Hash algorithm: 3
Data unit:      122
Start block:    245
Symmetric key bit length: 384
Plaintext bit length:     128
Symmetric key:            7a7a7a7a7a7a7a7a7a7a7a7a7a7a7a7a7a7a7a7a7a7a7a7a7a7a7a7a7a7a7a7a7a7a7a7a7a7a7a7a7a7a7a7a7a7a7a7a
Plaintext:                85858585858585858585858585858585
Ciphertext:               4f06cb1a0743167f75873b97eea91451cd084c17d8321155880ca828108c735551ac186d2db0e921f9f3202d81b106572bc9c2d313bc32c5f241f0fb7a3a0b03
Reciphers for ciphertext: 0
Decipheredtext:           85858585858585858585858585858585
RESULT CIPHER-DECIPHER: -----OK-----


Test: 123
Hash algorithm: 2
Data unit:      123
Start block:    247
Symmetric key bit length: 384
Plaintext bit length:     128
Symmetric key:            7b7b7b7b7b7b7b7b7b7b7b7b7b7b7b7b7b7b7b7b7b7b7b7b7b7b7b7b7b7b7b7b7b7b7b7b7b7b7b7b7b7b7b7b7b7b7b7b
Plaintext:                84848484848484848484848484848484
Ciphertext:               b72477679f53ae9fc0a0bdf2cd5fabed18da63a0aaf8d226b4fd909cb8afc8f4f64a5a15003db1827a7a73af48f30e51
Reciphers for ciphertext: 0
Decipheredtext:           84848484848484848484848484848484
RESULT CIPHER-DECIPHER: -----OK-----


Test: 124
Hash algorithm: 7
Data unit:      124
Start block:    249
Symmetric key bit length: 384
Plaintext bit length:     128
Symmetric key:            7c7c7c7c7c7c7c7c7c7c7c7c7c7c7c7c7c7c7c7c7c7c7c7c7c7c7c7c7c7c7c7c7c7c7c7c7c7c7c7c7c7c7c7c7c7c7c7c
Plaintext:                83838383838383838383838383838383
Ciphertext:               2a02bacd80606ecd90cdbba8f72e93b83a34d004921dabd4e0b347c4614a90ce
Reciphers for ciphertext: 0
Decipheredtext:           83838383838383838383838383838383
RESULT CIPHER-DECIPHER: -----OK-----


Test: 125
Hash algorithm: 8
Data unit:      125
Start block:    251
Symmetric key bit length: 384
Plaintext bit length:     128
Symmetric key:            7d7d7d7d7d7d7d7d7d7d7d7d7d7d7d7d7d7d7d7d7d7d7d7d7d7d7d7d7d7d7d7d7d7d7d7d7d7d7d7d7d7d7d7d7d7d7d7d
Plaintext:                82828282828282828282828282828282
Ciphertext:               22eaf82536354f49371b44a5c06da31d10fc7af08cefdc0b8fa41ae4955608e9e65402ff
Reciphers for ciphertext: 0
Decipheredtext:           82828282828282828282828282828282
RESULT CIPHER-DECIPHER: -----OK-----


Test: 126
Hash algorithm: 8
Data unit:      126
Start block:    253
Symmetric key bit length: 384
Plaintext bit length:     128
Symmetric key:            7e7e7e7e7e7e7e7e7e7e7e7e7e7e7e7e7e7e7e7e7e7e7e7e7e7e7e7e7e7e7e7e7e7e7e7e7e7e7e7e7e7e7e7e7e7e7e7e
Plaintext:                81818181818181818181818181818181
Ciphertext:               e1afe5a8a28cad7dac88e6534e95835fb4ec42b05a227952956fac9bf348b22ce4fbbd13
Reciphers for ciphertext: 0
Decipheredtext:           81818181818181818181818181818181
RESULT CIPHER-DECIPHER: -----OK-----


Test: 127
Hash algorithm: 5
Data unit:      127
Start block:    255
Symmetric key bit length: 384
Plaintext bit length:     128
Symmetric key:            7f7f7f7f7f7f7f7f7f7f7f7f7f7f7f7f7f7f7f7f7f7f7f7f7f7f7f7f7f7f7f7f7f7f7f7f7f7f7f7f7f7f7f7f7f7f7f7f
Plaintext:                80808080808080808080808080808080
Ciphertext:               79bd724f1a13867c553fefbbe5cbc3c296306ca8acd7bc5aa58f3bd566586f0492dc197c6b1261a2131ed789
Reciphers for ciphertext: 0
Decipheredtext:           80808080808080808080808080808080
RESULT CIPHER-DECIPHER: -----OK-----


 DATA SHA1 (hexadecimal): 2e73efe658216905b61bbafc93de06a7ec7a34cd

