
DiceLock 9.0.0.1

 TEST COMPONENTS:
 ----------------
 DiceLock:           DiceLockIndexed class
 Base Stream Cipher: ARC4_Discarding class
 Key Modifier:       IncreaseBase0IndexModifier_6_0_0_1 class
   Index bit length: 128
 Random tests:       RandomTestSuite class
                     FrequencyTest class
                     BlockFrequencyTest class
                     CumulativeSumForwardTest class
                     LongestRunOfOnesTest class
                     RunsTest class
 Random alpha:       0.001

 VECTOR TEST: Test vector 4 - Plaintext all byte value 0xXX


##### INDIVIDUAL TESTS #####

Number tests: 128


Test: 0
Symmetric key bit length: 128
Plaintext bit length:     136
Symmetric key:            00000000000000000000000000000000
Plaintext:                0000000000000000000000000000000000
Ciphertext:               1e6e1e6d0bba59898a42594cce7e4ce41e6e1e6d0bba59898a42594cce7e4ce43d
Reciphers for ciphertext: 0
Decipheredtext:           0000000000000000000000000000000000
RESULT CIPHER-DECIPHER: -----OK-----


Test: 1
Symmetric key bit length: 128
Plaintext bit length:     136
Symmetric key:            00000000000000000000000000000000
Plaintext:                0101010101010101010101010101010101
Ciphertext:               1e6e1e6d0bba59898a42594cce7e4ce41f6f1f6c0abb58888b43584dcf7f4de53c
Reciphers for ciphertext: 0
Decipheredtext:           0101010101010101010101010101010101
RESULT CIPHER-DECIPHER: -----OK-----


Test: 2
Symmetric key bit length: 128
Plaintext bit length:     136
Symmetric key:            00000000000000000000000000000000
Plaintext:                0202020202020202020202020202020202
Ciphertext:               1e6e1e6d0bba59898a42594cce7e4ce41c6c1c6f09b85b8b88405b4ecc7c4ee63f
Reciphers for ciphertext: 0
Decipheredtext:           0202020202020202020202020202020202
RESULT CIPHER-DECIPHER: -----OK-----


Test: 3
Symmetric key bit length: 128
Plaintext bit length:     136
Symmetric key:            00000000000000000000000000000000
Plaintext:                0303030303030303030303030303030303
Ciphertext:               1e6e1e6d0bba59898a42594cce7e4ce41d6d1d6e08b95a8a89415a4fcd7d4fe73e
Reciphers for ciphertext: 0
Decipheredtext:           0303030303030303030303030303030303
RESULT CIPHER-DECIPHER: -----OK-----


Test: 4
Symmetric key bit length: 128
Plaintext bit length:     136
Symmetric key:            00000000000000000000000000000000
Plaintext:                0404040404040404040404040404040404
Ciphertext:               1e6e1e6d0bba59898a42594cce7e4ce41a6a1a690fbe5d8d8e465d48ca7a48e039
Reciphers for ciphertext: 0
Decipheredtext:           0404040404040404040404040404040404
RESULT CIPHER-DECIPHER: -----OK-----


Test: 5
Symmetric key bit length: 128
Plaintext bit length:     136
Symmetric key:            00000000000000000000000000000000
Plaintext:                0505050505050505050505050505050505
Ciphertext:               1e6e1e6d0bba59898a42594cce7e4ce41b6b1b680ebf5c8c8f475c49cb7b49e138
Reciphers for ciphertext: 0
Decipheredtext:           0505050505050505050505050505050505
RESULT CIPHER-DECIPHER: -----OK-----


Test: 6
Symmetric key bit length: 128
Plaintext bit length:     136
Symmetric key:            00000000000000000000000000000000
Plaintext:                0606060606060606060606060606060606
Ciphertext:               1e6e1e6d0bba59898a42594cce7e4ce41868186b0dbc5f8f8c445f4ac8784ae23b
Reciphers for ciphertext: 0
Decipheredtext:           0606060606060606060606060606060606
RESULT CIPHER-DECIPHER: -----OK-----


Test: 7
Symmetric key bit length: 128
Plaintext bit length:     136
Symmetric key:            00000000000000000000000000000000
Plaintext:                0707070707070707070707070707070707
Ciphertext:               1e6e1e6d0bba59898a42594cce7e4ce41969196a0cbd5e8e8d455e4bc9794be33a
Reciphers for ciphertext: 0
Decipheredtext:           0707070707070707070707070707070707
RESULT CIPHER-DECIPHER: -----OK-----


Test: 8
Symmetric key bit length: 128
Plaintext bit length:     136
Symmetric key:            00000000000000000000000000000000
Plaintext:                0808080808080808080808080808080808
Ciphertext:               1e6e1e6d0bba59898a42594cce7e4ce41666166503b25181824a5144c67644ec35
Reciphers for ciphertext: 0
Decipheredtext:           0808080808080808080808080808080808
RESULT CIPHER-DECIPHER: -----OK-----


Test: 9
Symmetric key bit length: 128
Plaintext bit length:     136
Symmetric key:            00000000000000000000000000000000
Plaintext:                0909090909090909090909090909090909
Ciphertext:               1e6e1e6d0bba59898a42594cce7e4ce41767176402b35080834b5045c77745ed34
Reciphers for ciphertext: 0
Decipheredtext:           0909090909090909090909090909090909
RESULT CIPHER-DECIPHER: -----OK-----


Test: 10
Symmetric key bit length: 128
Plaintext bit length:     136
Symmetric key:            00000000000000000000000000000000
Plaintext:                0a0a0a0a0a0a0a0a0a0a0a0a0a0a0a0a0a
Ciphertext:               1e6e1e6d0bba59898a42594cce7e4ce41464146701b0538380485346c47446ee37
Reciphers for ciphertext: 0
Decipheredtext:           0a0a0a0a0a0a0a0a0a0a0a0a0a0a0a0a0a
RESULT CIPHER-DECIPHER: -----OK-----


Test: 11
Symmetric key bit length: 128
Plaintext bit length:     136
Symmetric key:            00000000000000000000000000000000
Plaintext:                0b0b0b0b0b0b0b0b0b0b0b0b0b0b0b0b0b
Ciphertext:               1e6e1e6d0bba59898a42594cce7e4ce41565156600b1528281495247c57547ef36
Reciphers for ciphertext: 0
Decipheredtext:           0b0b0b0b0b0b0b0b0b0b0b0b0b0b0b0b0b
RESULT CIPHER-DECIPHER: -----OK-----


Test: 12
Symmetric key bit length: 128
Plaintext bit length:     136
Symmetric key:            00000000000000000000000000000000
Plaintext:                0c0c0c0c0c0c0c0c0c0c0c0c0c0c0c0c0c
Ciphertext:               1e6e1e6d0bba59898a42594cce7e4ce41262126107b65585864e5540c27240e831
Reciphers for ciphertext: 0
Decipheredtext:           0c0c0c0c0c0c0c0c0c0c0c0c0c0c0c0c0c
RESULT CIPHER-DECIPHER: -----OK-----


Test: 13
Symmetric key bit length: 128
Plaintext bit length:     136
Symmetric key:            00000000000000000000000000000000
Plaintext:                0d0d0d0d0d0d0d0d0d0d0d0d0d0d0d0d0d
Ciphertext:               1e6e1e6d0bba59898a42594cce7e4ce41363136006b75484874f5441c37341e930
Reciphers for ciphertext: 0
Decipheredtext:           0d0d0d0d0d0d0d0d0d0d0d0d0d0d0d0d0d
RESULT CIPHER-DECIPHER: -----OK-----


Test: 14
Symmetric key bit length: 128
Plaintext bit length:     136
Symmetric key:            00000000000000000000000000000000
Plaintext:                0e0e0e0e0e0e0e0e0e0e0e0e0e0e0e0e0e
Ciphertext:               1e6e1e6d0bba59898a42594cce7e4ce41060106305b45787844c5742c07042ea33
Reciphers for ciphertext: 0
Decipheredtext:           0e0e0e0e0e0e0e0e0e0e0e0e0e0e0e0e0e
RESULT CIPHER-DECIPHER: -----OK-----


Test: 15
Symmetric key bit length: 128
Plaintext bit length:     136
Symmetric key:            00000000000000000000000000000000
Plaintext:                0f0f0f0f0f0f0f0f0f0f0f0f0f0f0f0f0f
Ciphertext:               1e6e1e6d0bba59898a42594cce7e4ce41161116204b55686854d5643c17143eb32
Reciphers for ciphertext: 0
Decipheredtext:           0f0f0f0f0f0f0f0f0f0f0f0f0f0f0f0f0f
RESULT CIPHER-DECIPHER: -----OK-----


Test: 16
Symmetric key bit length: 128
Plaintext bit length:     136
Symmetric key:            00000000000000000000000000000000
Plaintext:                1010101010101010101010101010101010
Ciphertext:               1e6e1e6d0bba59898a42594cce7e4ce40e7e0e7d1baa49999a52495cde6e5cf42d
Reciphers for ciphertext: 0
Decipheredtext:           1010101010101010101010101010101010
RESULT CIPHER-DECIPHER: -----OK-----


Test: 17
Symmetric key bit length: 128
Plaintext bit length:     136
Symmetric key:            00000000000000000000000000000000
Plaintext:                1111111111111111111111111111111111
Ciphertext:               1e6e1e6d0bba59898a42594cce7e4ce40f7f0f7c1aab48989b53485ddf6f5df52c
Reciphers for ciphertext: 0
Decipheredtext:           1111111111111111111111111111111111
RESULT CIPHER-DECIPHER: -----OK-----


Test: 18
Symmetric key bit length: 128
Plaintext bit length:     136
Symmetric key:            00000000000000000000000000000000
Plaintext:                1212121212121212121212121212121212
Ciphertext:               1e6e1e6d0bba59898a42594cce7e4ce40c7c0c7f19a84b9b98504b5edc6c5ef62f
Reciphers for ciphertext: 0
Decipheredtext:           1212121212121212121212121212121212
RESULT CIPHER-DECIPHER: -----OK-----


Test: 19
Symmetric key bit length: 128
Plaintext bit length:     136
Symmetric key:            00000000000000000000000000000000
Plaintext:                1313131313131313131313131313131313
Ciphertext:               1e6e1e6d0bba59898a42594cce7e4ce40d7d0d7e18a94a9a99514a5fdd6d5ff72e
Reciphers for ciphertext: 0
Decipheredtext:           1313131313131313131313131313131313
RESULT CIPHER-DECIPHER: -----OK-----


Test: 20
Symmetric key bit length: 128
Plaintext bit length:     136
Symmetric key:            00000000000000000000000000000000
Plaintext:                1414141414141414141414141414141414
Ciphertext:               1e6e1e6d0bba59898a42594cce7e4ce40a7a0a791fae4d9d9e564d58da6a58f029
Reciphers for ciphertext: 0
Decipheredtext:           1414141414141414141414141414141414
RESULT CIPHER-DECIPHER: -----OK-----


Test: 21
Symmetric key bit length: 128
Plaintext bit length:     136
Symmetric key:            00000000000000000000000000000000
Plaintext:                1515151515151515151515151515151515
Ciphertext:               1e6e1e6d0bba59898a42594cce7e4ce40b7b0b781eaf4c9c9f574c59db6b59f128
Reciphers for ciphertext: 0
Decipheredtext:           1515151515151515151515151515151515
RESULT CIPHER-DECIPHER: -----OK-----


Test: 22
Symmetric key bit length: 128
Plaintext bit length:     136
Symmetric key:            00000000000000000000000000000000
Plaintext:                1616161616161616161616161616161616
Ciphertext:               1e6e1e6d0bba59898a42594cce7e4ce40878087b1dac4f9f9c544f5ad8685af22b
Reciphers for ciphertext: 0
Decipheredtext:           1616161616161616161616161616161616
RESULT CIPHER-DECIPHER: -----OK-----


Test: 23
Symmetric key bit length: 128
Plaintext bit length:     136
Symmetric key:            00000000000000000000000000000000
Plaintext:                1717171717171717171717171717171717
Ciphertext:               1e6e1e6d0bba59898a42594cce7e4ce40979097a1cad4e9e9d554e5bd9695bf32a
Reciphers for ciphertext: 0
Decipheredtext:           1717171717171717171717171717171717
RESULT CIPHER-DECIPHER: -----OK-----


Test: 24
Symmetric key bit length: 128
Plaintext bit length:     136
Symmetric key:            00000000000000000000000000000000
Plaintext:                1818181818181818181818181818181818
Ciphertext:               1e6e1e6d0bba59898a42594cce7e4ce40676067513a24191925a4154d66654fc25
Reciphers for ciphertext: 0
Decipheredtext:           1818181818181818181818181818181818
RESULT CIPHER-DECIPHER: -----OK-----


Test: 25
Symmetric key bit length: 128
Plaintext bit length:     136
Symmetric key:            00000000000000000000000000000000
Plaintext:                1919191919191919191919191919191919
Ciphertext:               1e6e1e6d0bba59898a42594cce7e4ce40777077412a34090935b4055d76755fd24
Reciphers for ciphertext: 0
Decipheredtext:           1919191919191919191919191919191919
RESULT CIPHER-DECIPHER: -----OK-----


Test: 26
Symmetric key bit length: 128
Plaintext bit length:     136
Symmetric key:            00000000000000000000000000000000
Plaintext:                1a1a1a1a1a1a1a1a1a1a1a1a1a1a1a1a1a
Ciphertext:               1e6e1e6d0bba59898a42594cce7e4ce40474047711a0439390584356d46456fe27
Reciphers for ciphertext: 0
Decipheredtext:           1a1a1a1a1a1a1a1a1a1a1a1a1a1a1a1a1a
RESULT CIPHER-DECIPHER: -----OK-----


Test: 27
Symmetric key bit length: 128
Plaintext bit length:     136
Symmetric key:            00000000000000000000000000000000
Plaintext:                1b1b1b1b1b1b1b1b1b1b1b1b1b1b1b1b1b
Ciphertext:               1e6e1e6d0bba59898a42594cce7e4ce40575057610a1429291594257d56557ff26
Reciphers for ciphertext: 0
Decipheredtext:           1b1b1b1b1b1b1b1b1b1b1b1b1b1b1b1b1b
RESULT CIPHER-DECIPHER: -----OK-----


Test: 28
Symmetric key bit length: 128
Plaintext bit length:     136
Symmetric key:            00000000000000000000000000000000
Plaintext:                1c1c1c1c1c1c1c1c1c1c1c1c1c1c1c1c1c
Ciphertext:               1e6e1e6d0bba59898a42594cce7e4ce40272027117a64595965e4550d26250f821
Reciphers for ciphertext: 0
Decipheredtext:           1c1c1c1c1c1c1c1c1c1c1c1c1c1c1c1c1c
RESULT CIPHER-DECIPHER: -----OK-----


Test: 29
Symmetric key bit length: 128
Plaintext bit length:     136
Symmetric key:            00000000000000000000000000000000
Plaintext:                1d1d1d1d1d1d1d1d1d1d1d1d1d1d1d1d1d
Ciphertext:               1e6e1e6d0bba59898a42594cce7e4ce40373037016a74494975f4451d36351f920
Reciphers for ciphertext: 0
Decipheredtext:           1d1d1d1d1d1d1d1d1d1d1d1d1d1d1d1d1d
RESULT CIPHER-DECIPHER: -----OK-----


Test: 30
Symmetric key bit length: 128
Plaintext bit length:     136
Symmetric key:            00000000000000000000000000000000
Plaintext:                1e1e1e1e1e1e1e1e1e1e1e1e1e1e1e1e1e
Ciphertext:               1e6e1e6d0bba59898a42594cce7e4ce40070007315a44797945c4752d06052fa23
Reciphers for ciphertext: 0
Decipheredtext:           1e1e1e1e1e1e1e1e1e1e1e1e1e1e1e1e1e
RESULT CIPHER-DECIPHER: -----OK-----


Test: 31
Symmetric key bit length: 128
Plaintext bit length:     136
Symmetric key:            00000000000000000000000000000000
Plaintext:                1f1f1f1f1f1f1f1f1f1f1f1f1f1f1f1f1f
Ciphertext:               1e6e1e6d0bba59898a42594cce7e4ce40171017214a54696955d4653d16153fb22
Reciphers for ciphertext: 0
Decipheredtext:           1f1f1f1f1f1f1f1f1f1f1f1f1f1f1f1f1f
RESULT CIPHER-DECIPHER: -----OK-----


Test: 32
Symmetric key bit length: 128
Plaintext bit length:     136
Symmetric key:            00000000000000000000000000000000
Plaintext:                2020202020202020202020202020202020
Ciphertext:               1e6e1e6d0bba59898a42594cce7e4ce43e4e3e4d2b9a79a9aa62796cee5e6cc41d
Reciphers for ciphertext: 0
Decipheredtext:           2020202020202020202020202020202020
RESULT CIPHER-DECIPHER: -----OK-----


Test: 33
Symmetric key bit length: 128
Plaintext bit length:     136
Symmetric key:            00000000000000000000000000000000
Plaintext:                2121212121212121212121212121212121
Ciphertext:               1e6e1e6d0bba59898a42594cce7e4ce43f4f3f4c2a9b78a8ab63786def5f6dc51c
Reciphers for ciphertext: 0
Decipheredtext:           2121212121212121212121212121212121
RESULT CIPHER-DECIPHER: -----OK-----


Test: 34
Symmetric key bit length: 128
Plaintext bit length:     136
Symmetric key:            00000000000000000000000000000000
Plaintext:                2222222222222222222222222222222222
Ciphertext:               1e6e1e6d0bba59898a42594cce7e4ce43c4c3c4f29987baba8607b6eec5c6ec61f
Reciphers for ciphertext: 0
Decipheredtext:           2222222222222222222222222222222222
RESULT CIPHER-DECIPHER: -----OK-----


Test: 35
Symmetric key bit length: 128
Plaintext bit length:     136
Symmetric key:            00000000000000000000000000000000
Plaintext:                2323232323232323232323232323232323
Ciphertext:               1e6e1e6d0bba59898a42594cce7e4ce43d4d3d4e28997aaaa9617a6fed5d6fc71e
Reciphers for ciphertext: 0
Decipheredtext:           2323232323232323232323232323232323
RESULT CIPHER-DECIPHER: -----OK-----


Test: 36
Symmetric key bit length: 128
Plaintext bit length:     136
Symmetric key:            00000000000000000000000000000000
Plaintext:                2424242424242424242424242424242424
Ciphertext:               1e6e1e6d0bba59898a42594cce7e4ce43a4a3a492f9e7dadae667d68ea5a68c019
Reciphers for ciphertext: 0
Decipheredtext:           2424242424242424242424242424242424
RESULT CIPHER-DECIPHER: -----OK-----


Test: 37
Symmetric key bit length: 128
Plaintext bit length:     136
Symmetric key:            00000000000000000000000000000000
Plaintext:                2525252525252525252525252525252525
Ciphertext:               1e6e1e6d0bba59898a42594cce7e4ce43b4b3b482e9f7cacaf677c69eb5b69c118
Reciphers for ciphertext: 0
Decipheredtext:           2525252525252525252525252525252525
RESULT CIPHER-DECIPHER: -----OK-----


Test: 38
Symmetric key bit length: 128
Plaintext bit length:     136
Symmetric key:            00000000000000000000000000000000
Plaintext:                2626262626262626262626262626262626
Ciphertext:               1e6e1e6d0bba59898a42594cce7e4ce43848384b2d9c7fafac647f6ae8586ac21b
Reciphers for ciphertext: 0
Decipheredtext:           2626262626262626262626262626262626
RESULT CIPHER-DECIPHER: -----OK-----


Test: 39
Symmetric key bit length: 128
Plaintext bit length:     136
Symmetric key:            00000000000000000000000000000000
Plaintext:                2727272727272727272727272727272727
Ciphertext:               1e6e1e6d0bba59898a42594cce7e4ce43949394a2c9d7eaead657e6be9596bc31a
Reciphers for ciphertext: 0
Decipheredtext:           2727272727272727272727272727272727
RESULT CIPHER-DECIPHER: -----OK-----


Test: 40
Symmetric key bit length: 128
Plaintext bit length:     136
Symmetric key:            00000000000000000000000000000000
Plaintext:                2828282828282828282828282828282828
Ciphertext:               1e6e1e6d0bba59898a42594cce7e4ce436463645239271a1a26a7164e65664cc15
Reciphers for ciphertext: 0
Decipheredtext:           2828282828282828282828282828282828
RESULT CIPHER-DECIPHER: -----OK-----


Test: 41
Symmetric key bit length: 128
Plaintext bit length:     136
Symmetric key:            00000000000000000000000000000000
Plaintext:                2929292929292929292929292929292929
Ciphertext:               1e6e1e6d0bba59898a42594cce7e4ce437473744229370a0a36b7065e75765cd14
Reciphers for ciphertext: 0
Decipheredtext:           2929292929292929292929292929292929
RESULT CIPHER-DECIPHER: -----OK-----


Test: 42
Symmetric key bit length: 128
Plaintext bit length:     136
Symmetric key:            00000000000000000000000000000000
Plaintext:                2a2a2a2a2a2a2a2a2a2a2a2a2a2a2a2a2a
Ciphertext:               1e6e1e6d0bba59898a42594cce7e4ce434443447219073a3a0687366e45466ce17
Reciphers for ciphertext: 0
Decipheredtext:           2a2a2a2a2a2a2a2a2a2a2a2a2a2a2a2a2a
RESULT CIPHER-DECIPHER: -----OK-----


Test: 43
Symmetric key bit length: 128
Plaintext bit length:     136
Symmetric key:            00000000000000000000000000000000
Plaintext:                2b2b2b2b2b2b2b2b2b2b2b2b2b2b2b2b2b
Ciphertext:               1e6e1e6d0bba59898a42594cce7e4ce435453546209172a2a1697267e55567cf16
Reciphers for ciphertext: 0
Decipheredtext:           2b2b2b2b2b2b2b2b2b2b2b2b2b2b2b2b2b
RESULT CIPHER-DECIPHER: -----OK-----


Test: 44
Symmetric key bit length: 128
Plaintext bit length:     136
Symmetric key:            00000000000000000000000000000000
Plaintext:                2c2c2c2c2c2c2c2c2c2c2c2c2c2c2c2c2c
Ciphertext:               1e6e1e6d0bba59898a42594cce7e4ce432423241279675a5a66e7560e25260c811
Reciphers for ciphertext: 0
Decipheredtext:           2c2c2c2c2c2c2c2c2c2c2c2c2c2c2c2c2c
RESULT CIPHER-DECIPHER: -----OK-----


Test: 45
Symmetric key bit length: 128
Plaintext bit length:     136
Symmetric key:            00000000000000000000000000000000
Plaintext:                2d2d2d2d2d2d2d2d2d2d2d2d2d2d2d2d2d
Ciphertext:               1e6e1e6d0bba59898a42594cce7e4ce433433340269774a4a76f7461e35361c910
Reciphers for ciphertext: 0
Decipheredtext:           2d2d2d2d2d2d2d2d2d2d2d2d2d2d2d2d2d
RESULT CIPHER-DECIPHER: -----OK-----


Test: 46
Symmetric key bit length: 128
Plaintext bit length:     136
Symmetric key:            00000000000000000000000000000000
Plaintext:                2e2e2e2e2e2e2e2e2e2e2e2e2e2e2e2e2e
Ciphertext:               1e6e1e6d0bba59898a42594cce7e4ce430403043259477a7a46c7762e05062ca13
Reciphers for ciphertext: 0
Decipheredtext:           2e2e2e2e2e2e2e2e2e2e2e2e2e2e2e2e2e
RESULT CIPHER-DECIPHER: -----OK-----


Test: 47
Symmetric key bit length: 128
Plaintext bit length:     136
Symmetric key:            00000000000000000000000000000000
Plaintext:                2f2f2f2f2f2f2f2f2f2f2f2f2f2f2f2f2f
Ciphertext:               1e6e1e6d0bba59898a42594cce7e4ce431413142249576a6a56d7663e15163cb12
Reciphers for ciphertext: 0
Decipheredtext:           2f2f2f2f2f2f2f2f2f2f2f2f2f2f2f2f2f
RESULT CIPHER-DECIPHER: -----OK-----


Test: 48
Symmetric key bit length: 128
Plaintext bit length:     136
Symmetric key:            00000000000000000000000000000000
Plaintext:                3030303030303030303030303030303030
Ciphertext:               1e6e1e6d0bba59898a42594cce7e4ce42e5e2e5d3b8a69b9ba72697cfe4e7cd40d
Reciphers for ciphertext: 0
Decipheredtext:           3030303030303030303030303030303030
RESULT CIPHER-DECIPHER: -----OK-----


Test: 49
Symmetric key bit length: 128
Plaintext bit length:     136
Symmetric key:            00000000000000000000000000000000
Plaintext:                3131313131313131313131313131313131
Ciphertext:               1e6e1e6d0bba59898a42594cce7e4ce42f5f2f5c3a8b68b8bb73687dff4f7dd50c
Reciphers for ciphertext: 0
Decipheredtext:           3131313131313131313131313131313131
RESULT CIPHER-DECIPHER: -----OK-----


Test: 50
Symmetric key bit length: 128
Plaintext bit length:     136
Symmetric key:            00000000000000000000000000000000
Plaintext:                3232323232323232323232323232323232
Ciphertext:               1e6e1e6d0bba59898a42594cce7e4ce42c5c2c5f39886bbbb8706b7efc4c7ed60f
Reciphers for ciphertext: 0
Decipheredtext:           3232323232323232323232323232323232
RESULT CIPHER-DECIPHER: -----OK-----


Test: 51
Symmetric key bit length: 128
Plaintext bit length:     136
Symmetric key:            00000000000000000000000000000000
Plaintext:                3333333333333333333333333333333333
Ciphertext:               1e6e1e6d0bba59898a42594cce7e4ce42d5d2d5e38896abab9716a7ffd4d7fd70e
Reciphers for ciphertext: 0
Decipheredtext:           3333333333333333333333333333333333
RESULT CIPHER-DECIPHER: -----OK-----


Test: 52
Symmetric key bit length: 128
Plaintext bit length:     136
Symmetric key:            00000000000000000000000000000000
Plaintext:                3434343434343434343434343434343434
Ciphertext:               1e6e1e6d0bba59898a42594cce7e4ce42a5a2a593f8e6dbdbe766d78fa4a78d009
Reciphers for ciphertext: 0
Decipheredtext:           3434343434343434343434343434343434
RESULT CIPHER-DECIPHER: -----OK-----


Test: 53
Symmetric key bit length: 128
Plaintext bit length:     136
Symmetric key:            00000000000000000000000000000000
Plaintext:                3535353535353535353535353535353535
Ciphertext:               1e6e1e6d0bba59898a42594cce7e4ce42b5b2b583e8f6cbcbf776c79fb4b79d108
Reciphers for ciphertext: 0
Decipheredtext:           3535353535353535353535353535353535
RESULT CIPHER-DECIPHER: -----OK-----


Test: 54
Symmetric key bit length: 128
Plaintext bit length:     136
Symmetric key:            00000000000000000000000000000000
Plaintext:                3636363636363636363636363636363636
Ciphertext:               1e6e1e6d0bba59898a42594cce7e4ce42858285b3d8c6fbfbc746f7af8487ad20b
Reciphers for ciphertext: 0
Decipheredtext:           3636363636363636363636363636363636
RESULT CIPHER-DECIPHER: -----OK-----


Test: 55
Symmetric key bit length: 128
Plaintext bit length:     136
Symmetric key:            00000000000000000000000000000000
Plaintext:                3737373737373737373737373737373737
Ciphertext:               1e6e1e6d0bba59898a42594cce7e4ce42959295a3c8d6ebebd756e7bf9497bd30a
Reciphers for ciphertext: 0
Decipheredtext:           3737373737373737373737373737373737
RESULT CIPHER-DECIPHER: -----OK-----


Test: 56
Symmetric key bit length: 128
Plaintext bit length:     136
Symmetric key:            00000000000000000000000000000000
Plaintext:                3838383838383838383838383838383838
Ciphertext:               1e6e1e6d0bba59898a42594cce7e4ce426562655338261b1b27a6174f64674dc05
Reciphers for ciphertext: 0
Decipheredtext:           3838383838383838383838383838383838
RESULT CIPHER-DECIPHER: -----OK-----


Test: 57
Symmetric key bit length: 128
Plaintext bit length:     136
Symmetric key:            00000000000000000000000000000000
Plaintext:                3939393939393939393939393939393939
Ciphertext:               1e6e1e6d0bba59898a42594cce7e4ce427572754328360b0b37b6075f74775dd04
Reciphers for ciphertext: 0
Decipheredtext:           3939393939393939393939393939393939
RESULT CIPHER-DECIPHER: -----OK-----


Test: 58
Symmetric key bit length: 128
Plaintext bit length:     136
Symmetric key:            00000000000000000000000000000000
Plaintext:                3a3a3a3a3a3a3a3a3a3a3a3a3a3a3a3a3a
Ciphertext:               1e6e1e6d0bba59898a42594cce7e4ce424542457318063b3b0786376f44476de07
Reciphers for ciphertext: 0
Decipheredtext:           3a3a3a3a3a3a3a3a3a3a3a3a3a3a3a3a3a
RESULT CIPHER-DECIPHER: -----OK-----


Test: 59
Symmetric key bit length: 128
Plaintext bit length:     136
Symmetric key:            00000000000000000000000000000000
Plaintext:                3b3b3b3b3b3b3b3b3b3b3b3b3b3b3b3b3b
Ciphertext:               1e6e1e6d0bba59898a42594cce7e4ce425552556308162b2b1796277f54577df06
Reciphers for ciphertext: 0
Decipheredtext:           3b3b3b3b3b3b3b3b3b3b3b3b3b3b3b3b3b
RESULT CIPHER-DECIPHER: -----OK-----


Test: 60
Symmetric key bit length: 128
Plaintext bit length:     136
Symmetric key:            00000000000000000000000000000000
Plaintext:                3c3c3c3c3c3c3c3c3c3c3c3c3c3c3c3c3c
Ciphertext:               1e6e1e6d0bba59898a42594cce7e4ce422522251378665b5b67e6570f24270d801
Reciphers for ciphertext: 0
Decipheredtext:           3c3c3c3c3c3c3c3c3c3c3c3c3c3c3c3c3c
RESULT CIPHER-DECIPHER: -----OK-----


Test: 61
Symmetric key bit length: 128
Plaintext bit length:     136
Symmetric key:            00000000000000000000000000000000
Plaintext:                3d3d3d3d3d3d3d3d3d3d3d3d3d3d3d3d3d
Ciphertext:               1e6e1e6d0bba59898a42594cce7e4ce423532350368764b4b77f6471f34371d900
Reciphers for ciphertext: 0
Decipheredtext:           3d3d3d3d3d3d3d3d3d3d3d3d3d3d3d3d3d
RESULT CIPHER-DECIPHER: -----OK-----


Test: 62
Symmetric key bit length: 128
Plaintext bit length:     136
Symmetric key:            00000000000000000000000000000000
Plaintext:                3e3e3e3e3e3e3e3e3e3e3e3e3e3e3e3e3e
Ciphertext:               1e6e1e6d0bba59898a42594cce7e4ce420502053358467b7b47c6772f04072da03
Reciphers for ciphertext: 0
Decipheredtext:           3e3e3e3e3e3e3e3e3e3e3e3e3e3e3e3e3e
RESULT CIPHER-DECIPHER: -----OK-----


Test: 63
Symmetric key bit length: 128
Plaintext bit length:     136
Symmetric key:            00000000000000000000000000000000
Plaintext:                3f3f3f3f3f3f3f3f3f3f3f3f3f3f3f3f3f
Ciphertext:               1e6e1e6d0bba59898a42594cce7e4ce421512152348566b6b57d6673f14173db02
Reciphers for ciphertext: 0
Decipheredtext:           3f3f3f3f3f3f3f3f3f3f3f3f3f3f3f3f3f
RESULT CIPHER-DECIPHER: -----OK-----


Test: 64
Symmetric key bit length: 128
Plaintext bit length:     136
Symmetric key:            00000000000000000000000000000000
Plaintext:                4040404040404040404040404040404040
Ciphertext:               1e6e1e6d0bba59898a42594cce7e4ce45e2e5e2d4bfa19c9ca02190c8e3e0ca47d
Reciphers for ciphertext: 0
Decipheredtext:           4040404040404040404040404040404040
RESULT CIPHER-DECIPHER: -----OK-----


Test: 65
Symmetric key bit length: 128
Plaintext bit length:     136
Symmetric key:            00000000000000000000000000000000
Plaintext:                4141414141414141414141414141414141
Ciphertext:               1e6e1e6d0bba59898a42594cce7e4ce45f2f5f2c4afb18c8cb03180d8f3f0da57c
Reciphers for ciphertext: 0
Decipheredtext:           4141414141414141414141414141414141
RESULT CIPHER-DECIPHER: -----OK-----


Test: 66
Symmetric key bit length: 128
Plaintext bit length:     136
Symmetric key:            00000000000000000000000000000000
Plaintext:                4242424242424242424242424242424242
Ciphertext:               1e6e1e6d0bba59898a42594cce7e4ce45c2c5c2f49f81bcbc8001b0e8c3c0ea67f
Reciphers for ciphertext: 0
Decipheredtext:           4242424242424242424242424242424242
RESULT CIPHER-DECIPHER: -----OK-----


Test: 67
Symmetric key bit length: 128
Plaintext bit length:     136
Symmetric key:            00000000000000000000000000000000
Plaintext:                4343434343434343434343434343434343
Ciphertext:               1e6e1e6d0bba59898a42594cce7e4ce45d2d5d2e48f91acac9011a0f8d3d0fa77e
Reciphers for ciphertext: 0
Decipheredtext:           4343434343434343434343434343434343
RESULT CIPHER-DECIPHER: -----OK-----


Test: 68
Symmetric key bit length: 128
Plaintext bit length:     136
Symmetric key:            00000000000000000000000000000000
Plaintext:                4444444444444444444444444444444444
Ciphertext:               1e6e1e6d0bba59898a42594cce7e4ce45a2a5a294ffe1dcdce061d088a3a08a079
Reciphers for ciphertext: 0
Decipheredtext:           4444444444444444444444444444444444
RESULT CIPHER-DECIPHER: -----OK-----


Test: 69
Symmetric key bit length: 128
Plaintext bit length:     136
Symmetric key:            00000000000000000000000000000000
Plaintext:                4545454545454545454545454545454545
Ciphertext:               1e6e1e6d0bba59898a42594cce7e4ce45b2b5b284eff1ccccf071c098b3b09a178
Reciphers for ciphertext: 0
Decipheredtext:           4545454545454545454545454545454545
RESULT CIPHER-DECIPHER: -----OK-----


Test: 70
Symmetric key bit length: 128
Plaintext bit length:     136
Symmetric key:            00000000000000000000000000000000
Plaintext:                4646464646464646464646464646464646
Ciphertext:               1e6e1e6d0bba59898a42594cce7e4ce45828582b4dfc1fcfcc041f0a88380aa27b
Reciphers for ciphertext: 0
Decipheredtext:           4646464646464646464646464646464646
RESULT CIPHER-DECIPHER: -----OK-----


Test: 71
Symmetric key bit length: 128
Plaintext bit length:     136
Symmetric key:            00000000000000000000000000000000
Plaintext:                4747474747474747474747474747474747
Ciphertext:               1e6e1e6d0bba59898a42594cce7e4ce45929592a4cfd1ececd051e0b89390ba37a
Reciphers for ciphertext: 0
Decipheredtext:           4747474747474747474747474747474747
RESULT CIPHER-DECIPHER: -----OK-----


Test: 72
Symmetric key bit length: 128
Plaintext bit length:     136
Symmetric key:            00000000000000000000000000000000
Plaintext:                4848484848484848484848484848484848
Ciphertext:               1e6e1e6d0bba59898a42594cce7e4ce45626562543f211c1c20a1104863604ac75
Reciphers for ciphertext: 0
Decipheredtext:           4848484848484848484848484848484848
RESULT CIPHER-DECIPHER: -----OK-----


Test: 73
Symmetric key bit length: 128
Plaintext bit length:     136
Symmetric key:            00000000000000000000000000000000
Plaintext:                4949494949494949494949494949494949
Ciphertext:               1e6e1e6d0bba59898a42594cce7e4ce45727572442f310c0c30b1005873705ad74
Reciphers for ciphertext: 0
Decipheredtext:           4949494949494949494949494949494949
RESULT CIPHER-DECIPHER: -----OK-----


Test: 74
Symmetric key bit length: 128
Plaintext bit length:     136
Symmetric key:            00000000000000000000000000000000
Plaintext:                4a4a4a4a4a4a4a4a4a4a4a4a4a4a4a4a4a
Ciphertext:               1e6e1e6d0bba59898a42594cce7e4ce45424542741f013c3c0081306843406ae77
Reciphers for ciphertext: 0
Decipheredtext:           4a4a4a4a4a4a4a4a4a4a4a4a4a4a4a4a4a
RESULT CIPHER-DECIPHER: -----OK-----


Test: 75
Symmetric key bit length: 128
Plaintext bit length:     136
Symmetric key:            00000000000000000000000000000000
Plaintext:                4b4b4b4b4b4b4b4b4b4b4b4b4b4b4b4b4b
Ciphertext:               1e6e1e6d0bba59898a42594cce7e4ce45525552640f112c2c1091207853507af76
Reciphers for ciphertext: 0
Decipheredtext:           4b4b4b4b4b4b4b4b4b4b4b4b4b4b4b4b4b
RESULT CIPHER-DECIPHER: -----OK-----


Test: 76
Symmetric key bit length: 128
Plaintext bit length:     136
Symmetric key:            00000000000000000000000000000000
Plaintext:                4c4c4c4c4c4c4c4c4c4c4c4c4c4c4c4c4c
Ciphertext:               1e6e1e6d0bba59898a42594cce7e4ce45222522147f615c5c60e1500823200a871
Reciphers for ciphertext: 0
Decipheredtext:           4c4c4c4c4c4c4c4c4c4c4c4c4c4c4c4c4c
RESULT CIPHER-DECIPHER: -----OK-----


Test: 77
Symmetric key bit length: 128
Plaintext bit length:     136
Symmetric key:            00000000000000000000000000000000
Plaintext:                4d4d4d4d4d4d4d4d4d4d4d4d4d4d4d4d4d
Ciphertext:               1e6e1e6d0bba59898a42594cce7e4ce45323532046f714c4c70f1401833301a970
Reciphers for ciphertext: 0
Decipheredtext:           4d4d4d4d4d4d4d4d4d4d4d4d4d4d4d4d4d
RESULT CIPHER-DECIPHER: -----OK-----


Test: 78
Symmetric key bit length: 128
Plaintext bit length:     136
Symmetric key:            00000000000000000000000000000000
Plaintext:                4e4e4e4e4e4e4e4e4e4e4e4e4e4e4e4e4e
Ciphertext:               1e6e1e6d0bba59898a42594cce7e4ce45020502345f417c7c40c1702803002aa73
Reciphers for ciphertext: 0
Decipheredtext:           4e4e4e4e4e4e4e4e4e4e4e4e4e4e4e4e4e
RESULT CIPHER-DECIPHER: -----OK-----


Test: 79
Symmetric key bit length: 128
Plaintext bit length:     136
Symmetric key:            00000000000000000000000000000000
Plaintext:                4f4f4f4f4f4f4f4f4f4f4f4f4f4f4f4f4f
Ciphertext:               1e6e1e6d0bba59898a42594cce7e4ce45121512244f516c6c50d1603813103ab72
Reciphers for ciphertext: 0
Decipheredtext:           4f4f4f4f4f4f4f4f4f4f4f4f4f4f4f4f4f
RESULT CIPHER-DECIPHER: -----OK-----


Test: 80
Symmetric key bit length: 128
Plaintext bit length:     136
Symmetric key:            00000000000000000000000000000000
Plaintext:                5050505050505050505050505050505050
Ciphertext:               1e6e1e6d0bba59898a42594cce7e4ce44e3e4e3d5bea09d9da12091c9e2e1cb46d
Reciphers for ciphertext: 0
Decipheredtext:           5050505050505050505050505050505050
RESULT CIPHER-DECIPHER: -----OK-----


Test: 81
Symmetric key bit length: 128
Plaintext bit length:     136
Symmetric key:            00000000000000000000000000000000
Plaintext:                5151515151515151515151515151515151
Ciphertext:               1e6e1e6d0bba59898a42594cce7e4ce44f3f4f3c5aeb08d8db13081d9f2f1db56c
Reciphers for ciphertext: 0
Decipheredtext:           5151515151515151515151515151515151
RESULT CIPHER-DECIPHER: -----OK-----


Test: 82
Symmetric key bit length: 128
Plaintext bit length:     136
Symmetric key:            00000000000000000000000000000000
Plaintext:                5252525252525252525252525252525252
Ciphertext:               1e6e1e6d0bba59898a42594cce7e4ce44c3c4c3f59e80bdbd8100b1e9c2c1eb66f
Reciphers for ciphertext: 0
Decipheredtext:           5252525252525252525252525252525252
RESULT CIPHER-DECIPHER: -----OK-----


Test: 83
Symmetric key bit length: 128
Plaintext bit length:     136
Symmetric key:            00000000000000000000000000000000
Plaintext:                5353535353535353535353535353535353
Ciphertext:               1e6e1e6d0bba59898a42594cce7e4ce44d3d4d3e58e90adad9110a1f9d2d1fb76e
Reciphers for ciphertext: 0
Decipheredtext:           5353535353535353535353535353535353
RESULT CIPHER-DECIPHER: -----OK-----


Test: 84
Symmetric key bit length: 128
Plaintext bit length:     136
Symmetric key:            00000000000000000000000000000000
Plaintext:                5454545454545454545454545454545454
Ciphertext:               1e6e1e6d0bba59898a42594cce7e4ce44a3a4a395fee0dddde160d189a2a18b069
Reciphers for ciphertext: 0
Decipheredtext:           5454545454545454545454545454545454
RESULT CIPHER-DECIPHER: -----OK-----


Test: 85
Symmetric key bit length: 128
Plaintext bit length:     136
Symmetric key:            00000000000000000000000000000000
Plaintext:                5555555555555555555555555555555555
Ciphertext:               1e6e1e6d0bba59898a42594cce7e4ce44b3b4b385eef0cdcdf170c199b2b19b168
Reciphers for ciphertext: 0
Decipheredtext:           5555555555555555555555555555555555
RESULT CIPHER-DECIPHER: -----OK-----


Test: 86
Symmetric key bit length: 128
Plaintext bit length:     136
Symmetric key:            00000000000000000000000000000000
Plaintext:                5656565656565656565656565656565656
Ciphertext:               1e6e1e6d0bba59898a42594cce7e4ce44838483b5dec0fdfdc140f1a98281ab26b
Reciphers for ciphertext: 0
Decipheredtext:           5656565656565656565656565656565656
RESULT CIPHER-DECIPHER: -----OK-----


Test: 87
Symmetric key bit length: 128
Plaintext bit length:     136
Symmetric key:            00000000000000000000000000000000
Plaintext:                5757575757575757575757575757575757
Ciphertext:               1e6e1e6d0bba59898a42594cce7e4ce44939493a5ced0ededd150e1b99291bb36a
Reciphers for ciphertext: 0
Decipheredtext:           5757575757575757575757575757575757
RESULT CIPHER-DECIPHER: -----OK-----


Test: 88
Symmetric key bit length: 128
Plaintext bit length:     136
Symmetric key:            00000000000000000000000000000000
Plaintext:                5858585858585858585858585858585858
Ciphertext:               1e6e1e6d0bba59898a42594cce7e4ce44636463553e201d1d21a0114962614bc65
Reciphers for ciphertext: 0
Decipheredtext:           5858585858585858585858585858585858
RESULT CIPHER-DECIPHER: -----OK-----


Test: 89
Symmetric key bit length: 128
Plaintext bit length:     136
Symmetric key:            00000000000000000000000000000000
Plaintext:                5959595959595959595959595959595959
Ciphertext:               1e6e1e6d0bba59898a42594cce7e4ce44737473452e300d0d31b0015972715bd64
Reciphers for ciphertext: 0
Decipheredtext:           5959595959595959595959595959595959
RESULT CIPHER-DECIPHER: -----OK-----


Test: 90
Symmetric key bit length: 128
Plaintext bit length:     136
Symmetric key:            00000000000000000000000000000000
Plaintext:                5a5a5a5a5a5a5a5a5a5a5a5a5a5a5a5a5a
Ciphertext:               1e6e1e6d0bba59898a42594cce7e4ce44434443751e003d3d0180316942416be67
Reciphers for ciphertext: 0
Decipheredtext:           5a5a5a5a5a5a5a5a5a5a5a5a5a5a5a5a5a
RESULT CIPHER-DECIPHER: -----OK-----


Test: 91
Symmetric key bit length: 128
Plaintext bit length:     136
Symmetric key:            00000000000000000000000000000000
Plaintext:                5b5b5b5b5b5b5b5b5b5b5b5b5b5b5b5b5b
Ciphertext:               1e6e1e6d0bba59898a42594cce7e4ce44535453650e102d2d1190217952517bf66
Reciphers for ciphertext: 0
Decipheredtext:           5b5b5b5b5b5b5b5b5b5b5b5b5b5b5b5b5b
RESULT CIPHER-DECIPHER: -----OK-----


Test: 92
Symmetric key bit length: 128
Plaintext bit length:     136
Symmetric key:            00000000000000000000000000000000
Plaintext:                5c5c5c5c5c5c5c5c5c5c5c5c5c5c5c5c5c
Ciphertext:               1e6e1e6d0bba59898a42594cce7e4ce44232423157e605d5d61e0510922210b861
Reciphers for ciphertext: 0
Decipheredtext:           5c5c5c5c5c5c5c5c5c5c5c5c5c5c5c5c5c
RESULT CIPHER-DECIPHER: -----OK-----


Test: 93
Symmetric key bit length: 128
Plaintext bit length:     136
Symmetric key:            00000000000000000000000000000000
Plaintext:                5d5d5d5d5d5d5d5d5d5d5d5d5d5d5d5d5d
Ciphertext:               1e6e1e6d0bba59898a42594cce7e4ce44333433056e704d4d71f0411932311b960
Reciphers for ciphertext: 0
Decipheredtext:           5d5d5d5d5d5d5d5d5d5d5d5d5d5d5d5d5d
RESULT CIPHER-DECIPHER: -----OK-----


Test: 94
Symmetric key bit length: 128
Plaintext bit length:     136
Symmetric key:            00000000000000000000000000000000
Plaintext:                5e5e5e5e5e5e5e5e5e5e5e5e5e5e5e5e5e
Ciphertext:               1e6e1e6d0bba59898a42594cce7e4ce44030403355e407d7d41c0712902012ba63
Reciphers for ciphertext: 0
Decipheredtext:           5e5e5e5e5e5e5e5e5e5e5e5e5e5e5e5e5e
RESULT CIPHER-DECIPHER: -----OK-----


Test: 95
Symmetric key bit length: 128
Plaintext bit length:     136
Symmetric key:            00000000000000000000000000000000
Plaintext:                5f5f5f5f5f5f5f5f5f5f5f5f5f5f5f5f5f
Ciphertext:               1e6e1e6d0bba59898a42594cce7e4ce44131413254e506d6d51d0613912113bb62
Reciphers for ciphertext: 0
Decipheredtext:           5f5f5f5f5f5f5f5f5f5f5f5f5f5f5f5f5f
RESULT CIPHER-DECIPHER: -----OK-----


Test: 96
Symmetric key bit length: 128
Plaintext bit length:     136
Symmetric key:            00000000000000000000000000000000
Plaintext:                6060606060606060606060606060606060
Ciphertext:               1e6e1e6d0bba59898a42594cce7e4ce47e0e7e0d6bda39e9ea22392cae1e2c845d
Reciphers for ciphertext: 0
Decipheredtext:           6060606060606060606060606060606060
RESULT CIPHER-DECIPHER: -----OK-----


Test: 97
Symmetric key bit length: 128
Plaintext bit length:     136
Symmetric key:            00000000000000000000000000000000
Plaintext:                6161616161616161616161616161616161
Ciphertext:               1e6e1e6d0bba59898a42594cce7e4ce47f0f7f0c6adb38e8eb23382daf1f2d855c
Reciphers for ciphertext: 0
Decipheredtext:           6161616161616161616161616161616161
RESULT CIPHER-DECIPHER: -----OK-----


Test: 98
Symmetric key bit length: 128
Plaintext bit length:     136
Symmetric key:            00000000000000000000000000000000
Plaintext:                6262626262626262626262626262626262
Ciphertext:               1e6e1e6d0bba59898a42594cce7e4ce47c0c7c0f69d83bebe8203b2eac1c2e865f
Reciphers for ciphertext: 0
Decipheredtext:           6262626262626262626262626262626262
RESULT CIPHER-DECIPHER: -----OK-----


Test: 99
Symmetric key bit length: 128
Plaintext bit length:     136
Symmetric key:            00000000000000000000000000000000
Plaintext:                6363636363636363636363636363636363
Ciphertext:               1e6e1e6d0bba59898a42594cce7e4ce47d0d7d0e68d93aeae9213a2fad1d2f875e
Reciphers for ciphertext: 0
Decipheredtext:           6363636363636363636363636363636363
RESULT CIPHER-DECIPHER: -----OK-----


Test: 100
Symmetric key bit length: 128
Plaintext bit length:     136
Symmetric key:            00000000000000000000000000000000
Plaintext:                6464646464646464646464646464646464
Ciphertext:               1e6e1e6d0bba59898a42594cce7e4ce47a0a7a096fde3dedee263d28aa1a288059
Reciphers for ciphertext: 0
Decipheredtext:           6464646464646464646464646464646464
RESULT CIPHER-DECIPHER: -----OK-----


Test: 101
Symmetric key bit length: 128
Plaintext bit length:     136
Symmetric key:            00000000000000000000000000000000
Plaintext:                6565656565656565656565656565656565
Ciphertext:               1e6e1e6d0bba59898a42594cce7e4ce47b0b7b086edf3cecef273c29ab1b298158
Reciphers for ciphertext: 0
Decipheredtext:           6565656565656565656565656565656565
RESULT CIPHER-DECIPHER: -----OK-----


Test: 102
Symmetric key bit length: 128
Plaintext bit length:     136
Symmetric key:            00000000000000000000000000000000
Plaintext:                6666666666666666666666666666666666
Ciphertext:               1e6e1e6d0bba59898a42594cce7e4ce47808780b6ddc3fefec243f2aa8182a825b
Reciphers for ciphertext: 0
Decipheredtext:           6666666666666666666666666666666666
RESULT CIPHER-DECIPHER: -----OK-----


Test: 103
Symmetric key bit length: 128
Plaintext bit length:     136
Symmetric key:            00000000000000000000000000000000
Plaintext:                6767676767676767676767676767676767
Ciphertext:               1e6e1e6d0bba59898a42594cce7e4ce47909790a6cdd3eeeed253e2ba9192b835a
Reciphers for ciphertext: 0
Decipheredtext:           6767676767676767676767676767676767
RESULT CIPHER-DECIPHER: -----OK-----


Test: 104
Symmetric key bit length: 128
Plaintext bit length:     136
Symmetric key:            00000000000000000000000000000000
Plaintext:                6868686868686868686868686868686868
Ciphertext:               1e6e1e6d0bba59898a42594cce7e4ce47606760563d231e1e22a3124a616248c55
Reciphers for ciphertext: 0
Decipheredtext:           6868686868686868686868686868686868
RESULT CIPHER-DECIPHER: -----OK-----


Test: 105
Symmetric key bit length: 128
Plaintext bit length:     136
Symmetric key:            00000000000000000000000000000000
Plaintext:                6969696969696969696969696969696969
Ciphertext:               1e6e1e6d0bba59898a42594cce7e4ce47707770462d330e0e32b3025a717258d54
Reciphers for ciphertext: 0
Decipheredtext:           6969696969696969696969696969696969
RESULT CIPHER-DECIPHER: -----OK-----


Test: 106
Symmetric key bit length: 128
Plaintext bit length:     136
Symmetric key:            00000000000000000000000000000000
Plaintext:                6a6a6a6a6a6a6a6a6a6a6a6a6a6a6a6a6a
Ciphertext:               1e6e1e6d0bba59898a42594cce7e4ce47404740761d033e3e0283326a414268e57
Reciphers for ciphertext: 0
Decipheredtext:           6a6a6a6a6a6a6a6a6a6a6a6a6a6a6a6a6a
RESULT CIPHER-DECIPHER: -----OK-----


Test: 107
Symmetric key bit length: 128
Plaintext bit length:     136
Symmetric key:            00000000000000000000000000000000
Plaintext:                6b6b6b6b6b6b6b6b6b6b6b6b6b6b6b6b6b
Ciphertext:               1e6e1e6d0bba59898a42594cce7e4ce47505750660d132e2e1293227a515278f56
Reciphers for ciphertext: 0
Decipheredtext:           6b6b6b6b6b6b6b6b6b6b6b6b6b6b6b6b6b
RESULT CIPHER-DECIPHER: -----OK-----


Test: 108
Symmetric key bit length: 128
Plaintext bit length:     136
Symmetric key:            00000000000000000000000000000000
Plaintext:                6c6c6c6c6c6c6c6c6c6c6c6c6c6c6c6c6c
Ciphertext:               1e6e1e6d0bba59898a42594cce7e4ce47202720167d635e5e62e3520a212208851
Reciphers for ciphertext: 0
Decipheredtext:           6c6c6c6c6c6c6c6c6c6c6c6c6c6c6c6c6c
RESULT CIPHER-DECIPHER: -----OK-----


Test: 109
Symmetric key bit length: 128
Plaintext bit length:     136
Symmetric key:            00000000000000000000000000000000
Plaintext:                6d6d6d6d6d6d6d6d6d6d6d6d6d6d6d6d6d
Ciphertext:               1e6e1e6d0bba59898a42594cce7e4ce47303730066d734e4e72f3421a313218950
Reciphers for ciphertext: 0
Decipheredtext:           6d6d6d6d6d6d6d6d6d6d6d6d6d6d6d6d6d
RESULT CIPHER-DECIPHER: -----OK-----


Test: 110
Symmetric key bit length: 128
Plaintext bit length:     136
Symmetric key:            00000000000000000000000000000000
Plaintext:                6e6e6e6e6e6e6e6e6e6e6e6e6e6e6e6e6e
Ciphertext:               1e6e1e6d0bba59898a42594cce7e4ce47000700365d437e7e42c3722a010228a53
Reciphers for ciphertext: 0
Decipheredtext:           6e6e6e6e6e6e6e6e6e6e6e6e6e6e6e6e6e
RESULT CIPHER-DECIPHER: -----OK-----


Test: 111
Symmetric key bit length: 128
Plaintext bit length:     136
Symmetric key:            00000000000000000000000000000000
Plaintext:                6f6f6f6f6f6f6f6f6f6f6f6f6f6f6f6f6f
Ciphertext:               1e6e1e6d0bba59898a42594cce7e4ce47101710264d536e6e52d3623a111238b52
Reciphers for ciphertext: 0
Decipheredtext:           6f6f6f6f6f6f6f6f6f6f6f6f6f6f6f6f6f
RESULT CIPHER-DECIPHER: -----OK-----


Test: 112
Symmetric key bit length: 128
Plaintext bit length:     136
Symmetric key:            00000000000000000000000000000000
Plaintext:                7070707070707070707070707070707070
Ciphertext:               1e6e1e6d0bba59898a42594cce7e4ce46e1e6e1d7bca29f9fa32293cbe0e3c944d
Reciphers for ciphertext: 0
Decipheredtext:           7070707070707070707070707070707070
RESULT CIPHER-DECIPHER: -----OK-----


Test: 113
Symmetric key bit length: 128
Plaintext bit length:     136
Symmetric key:            00000000000000000000000000000000
Plaintext:                7171717171717171717171717171717171
Ciphertext:               1e6e1e6d0bba59898a42594cce7e4ce46f1f6f1c7acb28f8fb33283dbf0f3d954c
Reciphers for ciphertext: 0
Decipheredtext:           7171717171717171717171717171717171
RESULT CIPHER-DECIPHER: -----OK-----


Test: 114
Symmetric key bit length: 128
Plaintext bit length:     136
Symmetric key:            00000000000000000000000000000000
Plaintext:                7272727272727272727272727272727272
Ciphertext:               1e6e1e6d0bba59898a42594cce7e4ce46c1c6c1f79c82bfbf8302b3ebc0c3e964f
Reciphers for ciphertext: 0
Decipheredtext:           7272727272727272727272727272727272
RESULT CIPHER-DECIPHER: -----OK-----


Test: 115
Symmetric key bit length: 128
Plaintext bit length:     136
Symmetric key:            00000000000000000000000000000000
Plaintext:                7373737373737373737373737373737373
Ciphertext:               1e6e1e6d0bba59898a42594cce7e4ce46d1d6d1e78c92afaf9312a3fbd0d3f974e
Reciphers for ciphertext: 0
Decipheredtext:           7373737373737373737373737373737373
RESULT CIPHER-DECIPHER: -----OK-----


Test: 116
Symmetric key bit length: 128
Plaintext bit length:     136
Symmetric key:            00000000000000000000000000000000
Plaintext:                7474747474747474747474747474747474
Ciphertext:               1e6e1e6d0bba59898a42594cce7e4ce46a1a6a197fce2dfdfe362d38ba0a389049
Reciphers for ciphertext: 0
Decipheredtext:           7474747474747474747474747474747474
RESULT CIPHER-DECIPHER: -----OK-----


Test: 117
Symmetric key bit length: 128
Plaintext bit length:     136
Symmetric key:            00000000000000000000000000000000
Plaintext:                7575757575757575757575757575757575
Ciphertext:               1e6e1e6d0bba59898a42594cce7e4ce46b1b6b187ecf2cfcff372c39bb0b399148
Reciphers for ciphertext: 0
Decipheredtext:           7575757575757575757575757575757575
RESULT CIPHER-DECIPHER: -----OK-----


Test: 118
Symmetric key bit length: 128
Plaintext bit length:     136
Symmetric key:            00000000000000000000000000000000
Plaintext:                7676767676767676767676767676767676
Ciphertext:               1e6e1e6d0bba59898a42594cce7e4ce46818681b7dcc2ffffc342f3ab8083a924b
Reciphers for ciphertext: 0
Decipheredtext:           7676767676767676767676767676767676
RESULT CIPHER-DECIPHER: -----OK-----


Test: 119
Symmetric key bit length: 128
Plaintext bit length:     136
Symmetric key:            00000000000000000000000000000000
Plaintext:                7777777777777777777777777777777777
Ciphertext:               1e6e1e6d0bba59898a42594cce7e4ce46919691a7ccd2efefd352e3bb9093b934a
Reciphers for ciphertext: 0
Decipheredtext:           7777777777777777777777777777777777
RESULT CIPHER-DECIPHER: -----OK-----


Test: 120
Symmetric key bit length: 128
Plaintext bit length:     136
Symmetric key:            00000000000000000000000000000000
Plaintext:                7878787878787878787878787878787878
Ciphertext:               1e6e1e6d0bba59898a42594cce7e4ce46616661573c221f1f23a2134b606349c45
Reciphers for ciphertext: 0
Decipheredtext:           7878787878787878787878787878787878
RESULT CIPHER-DECIPHER: -----OK-----


Test: 121
Symmetric key bit length: 128
Plaintext bit length:     136
Symmetric key:            00000000000000000000000000000000
Plaintext:                7979797979797979797979797979797979
Ciphertext:               1e6e1e6d0bba59898a42594cce7e4ce46717671472c320f0f33b2035b707359d44
Reciphers for ciphertext: 0
Decipheredtext:           7979797979797979797979797979797979
RESULT CIPHER-DECIPHER: -----OK-----


Test: 122
Symmetric key bit length: 128
Plaintext bit length:     136
Symmetric key:            00000000000000000000000000000000
Plaintext:                7a7a7a7a7a7a7a7a7a7a7a7a7a7a7a7a7a
Ciphertext:               1e6e1e6d0bba59898a42594cce7e4ce46414641771c023f3f0382336b404369e47
Reciphers for ciphertext: 0
Decipheredtext:           7a7a7a7a7a7a7a7a7a7a7a7a7a7a7a7a7a
RESULT CIPHER-DECIPHER: -----OK-----


Test: 123
Symmetric key bit length: 128
Plaintext bit length:     136
Symmetric key:            00000000000000000000000000000000
Plaintext:                7b7b7b7b7b7b7b7b7b7b7b7b7b7b7b7b7b
Ciphertext:               1e6e1e6d0bba59898a42594cce7e4ce46515651670c122f2f1392237b505379f46
Reciphers for ciphertext: 0
Decipheredtext:           7b7b7b7b7b7b7b7b7b7b7b7b7b7b7b7b7b
RESULT CIPHER-DECIPHER: -----OK-----


Test: 124
Symmetric key bit length: 128
Plaintext bit length:     136
Symmetric key:            00000000000000000000000000000000
Plaintext:                7c7c7c7c7c7c7c7c7c7c7c7c7c7c7c7c7c
Ciphertext:               1e6e1e6d0bba59898a42594cce7e4ce46212621177c625f5f63e2530b202309841
Reciphers for ciphertext: 0
Decipheredtext:           7c7c7c7c7c7c7c7c7c7c7c7c7c7c7c7c7c
RESULT CIPHER-DECIPHER: -----OK-----


Test: 125
Symmetric key bit length: 128
Plaintext bit length:     136
Symmetric key:            00000000000000000000000000000000
Plaintext:                7d7d7d7d7d7d7d7d7d7d7d7d7d7d7d7d7d
Ciphertext:               1e6e1e6d0bba59898a42594cce7e4ce46313631076c724f4f73f2431b303319940
Reciphers for ciphertext: 0
Decipheredtext:           7d7d7d7d7d7d7d7d7d7d7d7d7d7d7d7d7d
RESULT CIPHER-DECIPHER: -----OK-----


Test: 126
Symmetric key bit length: 128
Plaintext bit length:     136
Symmetric key:            00000000000000000000000000000000
Plaintext:                7e7e7e7e7e7e7e7e7e7e7e7e7e7e7e7e7e
Ciphertext:               1e6e1e6d0bba59898a42594cce7e4ce46010601375c427f7f43c2732b000329a43
Reciphers for ciphertext: 0
Decipheredtext:           7e7e7e7e7e7e7e7e7e7e7e7e7e7e7e7e7e
RESULT CIPHER-DECIPHER: -----OK-----


Test: 127
Symmetric key bit length: 128
Plaintext bit length:     136
Symmetric key:            00000000000000000000000000000000
Plaintext:                7f7f7f7f7f7f7f7f7f7f7f7f7f7f7f7f7f
Ciphertext:               1e6e1e6d0bba59898a42594cce7e4ce46111611274c526f6f53d2633b101339b42
Reciphers for ciphertext: 0
Decipheredtext:           7f7f7f7f7f7f7f7f7f7f7f7f7f7f7f7f7f
RESULT CIPHER-DECIPHER: -----OK-----


 DATA SHA1 (hexadecimal): dd4bf268a9993357cf0f8ad733294a50d0f881f4

