
DiceLock 9.0.0.1

 TEST COMPONENTS:
 ----------------
 DiceLock:           DiceLockXTSIndexed class
 Operation Mode:     XTS_Mode class
 Block Cipher:       Serpent256 class
 Key Modifier:       IncreaseBase0IndexModifier_6_0_0_1 class
   Index bit length: 128
 Random tests:       RandomTestSuite class
                     FrequencyTest class
                     BlockFrequencyTest class
                     CumulativeSumForwardTest class
                     LongestRunOfOnesTest class
                     RunsTest class
 Random alpha:       0.001

 VECTOR TEST: Test vector 4 - Plaintext all byte value 0xXX


##### INDIVIDUAL TESTS #####

Number tests: 128


Test: 0
Data unit:   0
Start block: 1
Symmetric key bit length: 512
Plaintext bit length:     136
Symmetric key:            00000000000000000000000000000000000000000000000000000000000000000000000000000000000000000000000000000000000000000000000000000000
Plaintext:                0000000000000000000000000000000000
Ciphertext:               e99df18b21f7841a16e7a46edb57ae563f593089c99e56e7885306ba2538d20ee9
Reciphers for ciphertext: 0
Decipheredtext:           0000000000000000000000000000000000
RESULT CIPHER-DECIPHER: -----OK-----


Test: 1
Data unit:   1
Start block: 3
Symmetric key bit length: 512
Plaintext bit length:     136
Symmetric key:            00000000000000000000000000000000000000000000000000000000000000000000000000000000000000000000000000000000000000000000000000000000
Plaintext:                0101010101010101010101010101010101
Ciphertext:               be765a3d005eb29e702ce8c38e1e629ebedfc6e949509eb9bc8e7385c80bb0b9fb
Reciphers for ciphertext: 0
Decipheredtext:           0101010101010101010101010101010101
RESULT CIPHER-DECIPHER: -----OK-----


Test: 2
Data unit:   2
Start block: 5
Symmetric key bit length: 512
Plaintext bit length:     136
Symmetric key:            00000000000000000000000000000000000000000000000000000000000000000000000000000000000000000000000000000000000000000000000000000000
Plaintext:                0202020202020202020202020202020202
Ciphertext:               f2b47115d99112814015cfb6c4e9cb406803d15cd217f9c093e74fb32e9292a360
Reciphers for ciphertext: 0
Decipheredtext:           0202020202020202020202020202020202
RESULT CIPHER-DECIPHER: -----OK-----


Test: 3
Data unit:   3
Start block: 7
Symmetric key bit length: 512
Plaintext bit length:     136
Symmetric key:            00000000000000000000000000000000000000000000000000000000000000000000000000000000000000000000000000000000000000000000000000000000
Plaintext:                0303030303030303030303030303030303
Ciphertext:               cc6e96ef64b8f8d72b2ae3d3d8135f0e0ed1ad27f5859425f0bf2c3fa63f4d8d71
Reciphers for ciphertext: 0
Decipheredtext:           0303030303030303030303030303030303
RESULT CIPHER-DECIPHER: -----OK-----


Test: 4
Data unit:   4
Start block: 9
Symmetric key bit length: 512
Plaintext bit length:     136
Symmetric key:            00000000000000000000000000000000000000000000000000000000000000000000000000000000000000000000000000000000000000000000000000000000
Plaintext:                0404040404040404040404040404040404
Ciphertext:               921b1f667b0d10944a1af0b27d93dff646d86c3c35ad6bc8b3ec9da19d3eb72850
Reciphers for ciphertext: 0
Decipheredtext:           0404040404040404040404040404040404
RESULT CIPHER-DECIPHER: -----OK-----


Test: 5
Data unit:   5
Start block: 11
Symmetric key bit length: 512
Plaintext bit length:     136
Symmetric key:            00000000000000000000000000000000000000000000000000000000000000000000000000000000000000000000000000000000000000000000000000000000
Plaintext:                0505050505050505050505050505050505
Ciphertext:               68da8bcf67ccbf4cdcc6d940522dae09ec50d776335917e550e23f5eebedc288a4
Reciphers for ciphertext: 0
Decipheredtext:           0505050505050505050505050505050505
RESULT CIPHER-DECIPHER: -----OK-----


Test: 6
Data unit:   6
Start block: 13
Symmetric key bit length: 512
Plaintext bit length:     136
Symmetric key:            00000000000000000000000000000000000000000000000000000000000000000000000000000000000000000000000000000000000000000000000000000000
Plaintext:                0606060606060606060606060606060606
Ciphertext:               49a08a76079eb1e80f66f274251ee3f54d2bc8c1eb3c88e149459d24878f097f3a
Reciphers for ciphertext: 0
Decipheredtext:           0606060606060606060606060606060606
RESULT CIPHER-DECIPHER: -----OK-----


Test: 7
Data unit:   7
Start block: 15
Symmetric key bit length: 512
Plaintext bit length:     136
Symmetric key:            00000000000000000000000000000000000000000000000000000000000000000000000000000000000000000000000000000000000000000000000000000000
Plaintext:                0707070707070707070707070707070707
Ciphertext:               419339e0b38dde37f51d11ecc9d0813e0872ef1e6eb8ea0b5b2b3f66c7c25bb100
Reciphers for ciphertext: 0
Decipheredtext:           0707070707070707070707070707070707
RESULT CIPHER-DECIPHER: -----OK-----


Test: 8
Data unit:   8
Start block: 17
Symmetric key bit length: 512
Plaintext bit length:     136
Symmetric key:            00000000000000000000000000000000000000000000000000000000000000000000000000000000000000000000000000000000000000000000000000000000
Plaintext:                0808080808080808080808080808080808
Ciphertext:               09c89be479892246a08368e51df69113280667a0d41c5d58eb9d26a5226d083fbe
Reciphers for ciphertext: 0
Decipheredtext:           0808080808080808080808080808080808
RESULT CIPHER-DECIPHER: -----OK-----


Test: 9
Data unit:   9
Start block: 19
Symmetric key bit length: 512
Plaintext bit length:     136
Symmetric key:            00000000000000000000000000000000000000000000000000000000000000000000000000000000000000000000000000000000000000000000000000000000
Plaintext:                0909090909090909090909090909090909
Ciphertext:               8fb6eb1b14ca6dda67078bc39b429ac2b4f7c5dcade2da69f657191890f2940c5b
Reciphers for ciphertext: 0
Decipheredtext:           0909090909090909090909090909090909
RESULT CIPHER-DECIPHER: -----OK-----


Test: 10
Data unit:   10
Start block: 21
Symmetric key bit length: 512
Plaintext bit length:     136
Symmetric key:            00000000000000000000000000000000000000000000000000000000000000000000000000000000000000000000000000000000000000000000000000000000
Plaintext:                0a0a0a0a0a0a0a0a0a0a0a0a0a0a0a0a0a
Ciphertext:               9f558b159f4577c54fb586c8f21adc1c40a1726a5945dbe383aa41adfaedfce8c3
Reciphers for ciphertext: 0
Decipheredtext:           0a0a0a0a0a0a0a0a0a0a0a0a0a0a0a0a0a
RESULT CIPHER-DECIPHER: -----OK-----


Test: 11
Data unit:   11
Start block: 23
Symmetric key bit length: 512
Plaintext bit length:     136
Symmetric key:            00000000000000000000000000000000000000000000000000000000000000000000000000000000000000000000000000000000000000000000000000000000
Plaintext:                0b0b0b0b0b0b0b0b0b0b0b0b0b0b0b0b0b
Ciphertext:               50e06ba1e7937caca1dcd32d17259c51c7c06ab7b55abc934686a68d18cd38a065
Reciphers for ciphertext: 0
Decipheredtext:           0b0b0b0b0b0b0b0b0b0b0b0b0b0b0b0b0b
RESULT CIPHER-DECIPHER: -----OK-----


Test: 12
Data unit:   12
Start block: 25
Symmetric key bit length: 512
Plaintext bit length:     136
Symmetric key:            00000000000000000000000000000000000000000000000000000000000000000000000000000000000000000000000000000000000000000000000000000000
Plaintext:                0c0c0c0c0c0c0c0c0c0c0c0c0c0c0c0c0c
Ciphertext:               d5d45e98ea2d11d3aafe9e5281c9c7a40b6b88340d5eac566fd6fb282d1a72ed8f
Reciphers for ciphertext: 0
Decipheredtext:           0c0c0c0c0c0c0c0c0c0c0c0c0c0c0c0c0c
RESULT CIPHER-DECIPHER: -----OK-----


Test: 13
Data unit:   13
Start block: 27
Symmetric key bit length: 512
Plaintext bit length:     136
Symmetric key:            00000000000000000000000000000000000000000000000000000000000000000000000000000000000000000000000000000000000000000000000000000000
Plaintext:                0d0d0d0d0d0d0d0d0d0d0d0d0d0d0d0d0d
Ciphertext:               d375cdd8f57900915d0bc0c0396d37baa3f4ae7afa3a94842f2a0965147f6fecb8
Reciphers for ciphertext: 0
Decipheredtext:           0d0d0d0d0d0d0d0d0d0d0d0d0d0d0d0d0d
RESULT CIPHER-DECIPHER: -----OK-----


Test: 14
Data unit:   14
Start block: 29
Symmetric key bit length: 512
Plaintext bit length:     136
Symmetric key:            00000000000000000000000000000000000000000000000000000000000000000000000000000000000000000000000000000000000000000000000000000000
Plaintext:                0e0e0e0e0e0e0e0e0e0e0e0e0e0e0e0e0e
Ciphertext:               fd6a4558c76ba1573d39a0f3198543f7b5f4c8548457ea160aa2382d56536ad373
Reciphers for ciphertext: 0
Decipheredtext:           0e0e0e0e0e0e0e0e0e0e0e0e0e0e0e0e0e
RESULT CIPHER-DECIPHER: -----OK-----


Test: 15
Data unit:   15
Start block: 31
Symmetric key bit length: 512
Plaintext bit length:     136
Symmetric key:            00000000000000000000000000000000000000000000000000000000000000000000000000000000000000000000000000000000000000000000000000000000
Plaintext:                0f0f0f0f0f0f0f0f0f0f0f0f0f0f0f0f0f
Ciphertext:               1cf19193db97d1a06c14e762de993a405335c399c195316978fa00a4327c21b078
Reciphers for ciphertext: 0
Decipheredtext:           0f0f0f0f0f0f0f0f0f0f0f0f0f0f0f0f0f
RESULT CIPHER-DECIPHER: -----OK-----


Test: 16
Data unit:   16
Start block: 33
Symmetric key bit length: 512
Plaintext bit length:     136
Symmetric key:            00000000000000000000000000000000000000000000000000000000000000000000000000000000000000000000000000000000000000000000000000000000
Plaintext:                1010101010101010101010101010101010
Ciphertext:               72f00a9926a415d25b8ad2d339ecfd552807bdb4d4f22b4a979d353b69f3bc884d
Reciphers for ciphertext: 0
Decipheredtext:           1010101010101010101010101010101010
RESULT CIPHER-DECIPHER: -----OK-----


Test: 17
Data unit:   17
Start block: 35
Symmetric key bit length: 512
Plaintext bit length:     136
Symmetric key:            00000000000000000000000000000000000000000000000000000000000000000000000000000000000000000000000000000000000000000000000000000000
Plaintext:                1111111111111111111111111111111111
Ciphertext:               fc048f508a58bcb2ab34afbbd285e15ff842ef7376fabe719e18ff8fb738563e6b
Reciphers for ciphertext: 0
Decipheredtext:           1111111111111111111111111111111111
RESULT CIPHER-DECIPHER: -----OK-----


Test: 18
Data unit:   18
Start block: 37
Symmetric key bit length: 512
Plaintext bit length:     136
Symmetric key:            00000000000000000000000000000000000000000000000000000000000000000000000000000000000000000000000000000000000000000000000000000000
Plaintext:                1212121212121212121212121212121212
Ciphertext:               e843a29d3022419bbe673e64a6b4b160f3f7f29b9484a592e43a5551d10b2b4773
Reciphers for ciphertext: 0
Decipheredtext:           1212121212121212121212121212121212
RESULT CIPHER-DECIPHER: -----OK-----


Test: 19
Data unit:   19
Start block: 39
Symmetric key bit length: 512
Plaintext bit length:     136
Symmetric key:            00000000000000000000000000000000000000000000000000000000000000000000000000000000000000000000000000000000000000000000000000000000
Plaintext:                1313131313131313131313131313131313
Ciphertext:               24c4ceba74c15ab5c17f8adf39e27eeba3ad4e02237f5aa3dbdafc855bd6a3e9cb
Reciphers for ciphertext: 0
Decipheredtext:           1313131313131313131313131313131313
RESULT CIPHER-DECIPHER: -----OK-----


Test: 20
Data unit:   20
Start block: 41
Symmetric key bit length: 512
Plaintext bit length:     136
Symmetric key:            00000000000000000000000000000000000000000000000000000000000000000000000000000000000000000000000000000000000000000000000000000000
Plaintext:                1414141414141414141414141414141414
Ciphertext:               7dfe03e9249e619a631fbc6a1a2cf9f399162e0980b1faac2eae010c62d61b1cb9
Reciphers for ciphertext: 0
Decipheredtext:           1414141414141414141414141414141414
RESULT CIPHER-DECIPHER: -----OK-----


Test: 21
Data unit:   21
Start block: 43
Symmetric key bit length: 512
Plaintext bit length:     136
Symmetric key:            00000000000000000000000000000000000000000000000000000000000000000000000000000000000000000000000000000000000000000000000000000000
Plaintext:                1515151515151515151515151515151515
Ciphertext:               a91cf4e363294d1bb79cd4c77cdbacbe7da3a30f5e39116a99dd8204abb460dbde
Reciphers for ciphertext: 0
Decipheredtext:           1515151515151515151515151515151515
RESULT CIPHER-DECIPHER: -----OK-----


Test: 22
Data unit:   22
Start block: 45
Symmetric key bit length: 512
Plaintext bit length:     136
Symmetric key:            00000000000000000000000000000000000000000000000000000000000000000000000000000000000000000000000000000000000000000000000000000000
Plaintext:                1616161616161616161616161616161616
Ciphertext:               dd2bc822aeeee66ce97c2cbf1286dc479002ab8815560fb1338b77f956703e9170
Reciphers for ciphertext: 0
Decipheredtext:           1616161616161616161616161616161616
RESULT CIPHER-DECIPHER: -----OK-----


Test: 23
Data unit:   23
Start block: 47
Symmetric key bit length: 512
Plaintext bit length:     136
Symmetric key:            00000000000000000000000000000000000000000000000000000000000000000000000000000000000000000000000000000000000000000000000000000000
Plaintext:                1717171717171717171717171717171717
Ciphertext:               fa54f4d14f6eba22ab11ac00f9f446bf8ab586fd9a2b6873992c334557c419817f
Reciphers for ciphertext: 0
Decipheredtext:           1717171717171717171717171717171717
RESULT CIPHER-DECIPHER: -----OK-----


Test: 24
Data unit:   24
Start block: 49
Symmetric key bit length: 512
Plaintext bit length:     136
Symmetric key:            00000000000000000000000000000000000000000000000000000000000000000000000000000000000000000000000000000000000000000000000000000000
Plaintext:                1818181818181818181818181818181818
Ciphertext:               00981d2baa4cac1ce63c4083f46e1740715eb12b426e1f362c336f53d52b7b395a
Reciphers for ciphertext: 0
Decipheredtext:           1818181818181818181818181818181818
RESULT CIPHER-DECIPHER: -----OK-----


Test: 25
Data unit:   25
Start block: 51
Symmetric key bit length: 512
Plaintext bit length:     136
Symmetric key:            00000000000000000000000000000000000000000000000000000000000000000000000000000000000000000000000000000000000000000000000000000000
Plaintext:                1919191919191919191919191919191919
Ciphertext:               1e9166b7f4b0b2880a301f18a7df1790ae448a7030e644df3c018b288c85413285
Reciphers for ciphertext: 0
Decipheredtext:           1919191919191919191919191919191919
RESULT CIPHER-DECIPHER: -----OK-----


Test: 26
Data unit:   26
Start block: 53
Symmetric key bit length: 512
Plaintext bit length:     136
Symmetric key:            00000000000000000000000000000000000000000000000000000000000000000000000000000000000000000000000000000000000000000000000000000000
Plaintext:                1a1a1a1a1a1a1a1a1a1a1a1a1a1a1a1a1a
Ciphertext:               17b113abd1398ee08dce3728fe0348daab0e21c0544c7014d7153d5a8dadc35e7a
Reciphers for ciphertext: 0
Decipheredtext:           1a1a1a1a1a1a1a1a1a1a1a1a1a1a1a1a1a
RESULT CIPHER-DECIPHER: -----OK-----


Test: 27
Data unit:   27
Start block: 55
Symmetric key bit length: 512
Plaintext bit length:     136
Symmetric key:            00000000000000000000000000000000000000000000000000000000000000000000000000000000000000000000000000000000000000000000000000000000
Plaintext:                1b1b1b1b1b1b1b1b1b1b1b1b1b1b1b1b1b
Ciphertext:               b2640caa33a6cfb1e00d9bcb393fbc718bf117d9e47b6ba63616dc662376838a6a
Reciphers for ciphertext: 0
Decipheredtext:           1b1b1b1b1b1b1b1b1b1b1b1b1b1b1b1b1b
RESULT CIPHER-DECIPHER: -----OK-----


Test: 28
Data unit:   28
Start block: 57
Symmetric key bit length: 512
Plaintext bit length:     136
Symmetric key:            00000000000000000000000000000000000000000000000000000000000000000000000000000000000000000000000000000000000000000000000000000000
Plaintext:                1c1c1c1c1c1c1c1c1c1c1c1c1c1c1c1c1c
Ciphertext:               ac502f59643255d1fcb90e485b2e1fd86fa2fe7f6a22b0cc152ee73827b483df19
Reciphers for ciphertext: 0
Decipheredtext:           1c1c1c1c1c1c1c1c1c1c1c1c1c1c1c1c1c
RESULT CIPHER-DECIPHER: -----OK-----


Test: 29
Data unit:   29
Start block: 59
Symmetric key bit length: 512
Plaintext bit length:     136
Symmetric key:            00000000000000000000000000000000000000000000000000000000000000000000000000000000000000000000000000000000000000000000000000000000
Plaintext:                1d1d1d1d1d1d1d1d1d1d1d1d1d1d1d1d1d
Ciphertext:               3b80778176413b48134ae754078902152005e7e6bfebc617c06ba589b3dcd28ceb
Reciphers for ciphertext: 0
Decipheredtext:           1d1d1d1d1d1d1d1d1d1d1d1d1d1d1d1d1d
RESULT CIPHER-DECIPHER: -----OK-----


Test: 30
Data unit:   30
Start block: 61
Symmetric key bit length: 512
Plaintext bit length:     136
Symmetric key:            00000000000000000000000000000000000000000000000000000000000000000000000000000000000000000000000000000000000000000000000000000000
Plaintext:                1e1e1e1e1e1e1e1e1e1e1e1e1e1e1e1e1e
Ciphertext:               f543db4fdf9f055a476f06eb79cb596ccb927ab3e141afa914f12fdb41ba06b109
Reciphers for ciphertext: 0
Decipheredtext:           1e1e1e1e1e1e1e1e1e1e1e1e1e1e1e1e1e
RESULT CIPHER-DECIPHER: -----OK-----


Test: 31
Data unit:   31
Start block: 63
Symmetric key bit length: 512
Plaintext bit length:     136
Symmetric key:            00000000000000000000000000000000000000000000000000000000000000000000000000000000000000000000000000000000000000000000000000000000
Plaintext:                1f1f1f1f1f1f1f1f1f1f1f1f1f1f1f1f1f
Ciphertext:               d776617b730961bd5a5b8c6ab2ba7f5e2fd4664f69f1670f91a9235dce82d98ae8
Reciphers for ciphertext: 0
Decipheredtext:           1f1f1f1f1f1f1f1f1f1f1f1f1f1f1f1f1f
RESULT CIPHER-DECIPHER: -----OK-----


Test: 32
Data unit:   32
Start block: 65
Symmetric key bit length: 512
Plaintext bit length:     136
Symmetric key:            00000000000000000000000000000000000000000000000000000000000000000000000000000000000000000000000000000000000000000000000000000000
Plaintext:                2020202020202020202020202020202020
Ciphertext:               60c4c0ec476877bbe13954a4e1d4dbcebd3ac5a1d5e51acaf0fa6025fa5a208641
Reciphers for ciphertext: 0
Decipheredtext:           2020202020202020202020202020202020
RESULT CIPHER-DECIPHER: -----OK-----


Test: 33
Data unit:   33
Start block: 67
Symmetric key bit length: 512
Plaintext bit length:     136
Symmetric key:            00000000000000000000000000000000000000000000000000000000000000000000000000000000000000000000000000000000000000000000000000000000
Plaintext:                2121212121212121212121212121212121
Ciphertext:               214ea64d4565ac3f5c4e5837e5e0bc208e83d7e647804e601ebef394db7df21f7d
Reciphers for ciphertext: 0
Decipheredtext:           2121212121212121212121212121212121
RESULT CIPHER-DECIPHER: -----OK-----


Test: 34
Data unit:   34
Start block: 69
Symmetric key bit length: 512
Plaintext bit length:     136
Symmetric key:            00000000000000000000000000000000000000000000000000000000000000000000000000000000000000000000000000000000000000000000000000000000
Plaintext:                2222222222222222222222222222222222
Ciphertext:               e8dc968b1dbe1350290492e24f4247d957afac416d56d916d04c1c54a868c37aff
Reciphers for ciphertext: 0
Decipheredtext:           2222222222222222222222222222222222
RESULT CIPHER-DECIPHER: -----OK-----


Test: 35
Data unit:   35
Start block: 71
Symmetric key bit length: 512
Plaintext bit length:     136
Symmetric key:            00000000000000000000000000000000000000000000000000000000000000000000000000000000000000000000000000000000000000000000000000000000
Plaintext:                2323232323232323232323232323232323
Ciphertext:               a3d0fed939c79692ce3291dbd001855ca03e427eed78c62c9e7423fbb8d0898977
Reciphers for ciphertext: 0
Decipheredtext:           2323232323232323232323232323232323
RESULT CIPHER-DECIPHER: -----OK-----


Test: 36
Data unit:   36
Start block: 73
Symmetric key bit length: 512
Plaintext bit length:     136
Symmetric key:            00000000000000000000000000000000000000000000000000000000000000000000000000000000000000000000000000000000000000000000000000000000
Plaintext:                2424242424242424242424242424242424
Ciphertext:               2b0b8a3175e23ad5f32970a135c5a625b8b8ed9fc41c2277ea75286a59551ae493
Reciphers for ciphertext: 0
Decipheredtext:           2424242424242424242424242424242424
RESULT CIPHER-DECIPHER: -----OK-----


Test: 37
Data unit:   37
Start block: 75
Symmetric key bit length: 512
Plaintext bit length:     136
Symmetric key:            00000000000000000000000000000000000000000000000000000000000000000000000000000000000000000000000000000000000000000000000000000000
Plaintext:                2525252525252525252525252525252525
Ciphertext:               5eb876da3e847ed4334b267fca98615ef6ecf340b0673de01e75dd304e8407f4f3
Reciphers for ciphertext: 0
Decipheredtext:           2525252525252525252525252525252525
RESULT CIPHER-DECIPHER: -----OK-----


Test: 38
Data unit:   38
Start block: 77
Symmetric key bit length: 512
Plaintext bit length:     136
Symmetric key:            00000000000000000000000000000000000000000000000000000000000000000000000000000000000000000000000000000000000000000000000000000000
Plaintext:                2626262626262626262626262626262626
Ciphertext:               4833627660d48e6113bdaa9f18802e32c873be802bbddbb7a2cfc95d35b7247bbe
Reciphers for ciphertext: 0
Decipheredtext:           2626262626262626262626262626262626
RESULT CIPHER-DECIPHER: -----OK-----


Test: 39
Data unit:   39
Start block: 79
Symmetric key bit length: 512
Plaintext bit length:     136
Symmetric key:            00000000000000000000000000000000000000000000000000000000000000000000000000000000000000000000000000000000000000000000000000000000
Plaintext:                2727272727272727272727272727272727
Ciphertext:               502ff5bf482ebfbd66c87539b21c3058362a716b66d0b4ff3377873aba3804706f
Reciphers for ciphertext: 0
Decipheredtext:           2727272727272727272727272727272727
RESULT CIPHER-DECIPHER: -----OK-----


Test: 40
Data unit:   40
Start block: 81
Symmetric key bit length: 512
Plaintext bit length:     136
Symmetric key:            00000000000000000000000000000000000000000000000000000000000000000000000000000000000000000000000000000000000000000000000000000000
Plaintext:                2828282828282828282828282828282828
Ciphertext:               666ee78f1c9ccb23a3c14b49dac0e6ffb1206229d0466e5dd9e1a7cd6f9d1cbc73
Reciphers for ciphertext: 0
Decipheredtext:           2828282828282828282828282828282828
RESULT CIPHER-DECIPHER: -----OK-----


Test: 41
Data unit:   41
Start block: 83
Symmetric key bit length: 512
Plaintext bit length:     136
Symmetric key:            00000000000000000000000000000000000000000000000000000000000000000000000000000000000000000000000000000000000000000000000000000000
Plaintext:                2929292929292929292929292929292929
Ciphertext:               ed7e6813e85890e2cefb904dc2242f3cf1466e9498fe72bc27848de477b9171adc
Reciphers for ciphertext: 0
Decipheredtext:           2929292929292929292929292929292929
RESULT CIPHER-DECIPHER: -----OK-----


Test: 42
Data unit:   42
Start block: 85
Symmetric key bit length: 512
Plaintext bit length:     136
Symmetric key:            00000000000000000000000000000000000000000000000000000000000000000000000000000000000000000000000000000000000000000000000000000000
Plaintext:                2a2a2a2a2a2a2a2a2a2a2a2a2a2a2a2a2a
Ciphertext:               47154fbc4638118fa94e0eab827ac471e383a186a02e31da4e4d9de1d08b1c2959
Reciphers for ciphertext: 0
Decipheredtext:           2a2a2a2a2a2a2a2a2a2a2a2a2a2a2a2a2a
RESULT CIPHER-DECIPHER: -----OK-----


Test: 43
Data unit:   43
Start block: 87
Symmetric key bit length: 512
Plaintext bit length:     136
Symmetric key:            00000000000000000000000000000000000000000000000000000000000000000000000000000000000000000000000000000000000000000000000000000000
Plaintext:                2b2b2b2b2b2b2b2b2b2b2b2b2b2b2b2b2b
Ciphertext:               a0b5e322434ae7b148227788e035736996901a86c3d43316db61252e199848278d
Reciphers for ciphertext: 0
Decipheredtext:           2b2b2b2b2b2b2b2b2b2b2b2b2b2b2b2b2b
RESULT CIPHER-DECIPHER: -----OK-----


Test: 44
Data unit:   44
Start block: 89
Symmetric key bit length: 512
Plaintext bit length:     136
Symmetric key:            00000000000000000000000000000000000000000000000000000000000000000000000000000000000000000000000000000000000000000000000000000000
Plaintext:                2c2c2c2c2c2c2c2c2c2c2c2c2c2c2c2c2c
Ciphertext:               4b471a18d00e76731026ff3206d6f7cd9c8b65800f51b26fafa8644fec61ca93c1
Reciphers for ciphertext: 0
Decipheredtext:           2c2c2c2c2c2c2c2c2c2c2c2c2c2c2c2c2c
RESULT CIPHER-DECIPHER: -----OK-----


Test: 45
Data unit:   45
Start block: 91
Symmetric key bit length: 512
Plaintext bit length:     136
Symmetric key:            00000000000000000000000000000000000000000000000000000000000000000000000000000000000000000000000000000000000000000000000000000000
Plaintext:                2d2d2d2d2d2d2d2d2d2d2d2d2d2d2d2d2d
Ciphertext:               3f89bc74786b949761d7d962e92d35184da269677c97e5ae8804b478b4b94919f7
Reciphers for ciphertext: 0
Decipheredtext:           2d2d2d2d2d2d2d2d2d2d2d2d2d2d2d2d2d
RESULT CIPHER-DECIPHER: -----OK-----


Test: 46
Data unit:   46
Start block: 93
Symmetric key bit length: 512
Plaintext bit length:     136
Symmetric key:            00000000000000000000000000000000000000000000000000000000000000000000000000000000000000000000000000000000000000000000000000000000
Plaintext:                2e2e2e2e2e2e2e2e2e2e2e2e2e2e2e2e2e
Ciphertext:               bcacd107fc9a608ef6723f49f6a6055ef609a407722fb42da8bfa7079b5a669b6e
Reciphers for ciphertext: 0
Decipheredtext:           2e2e2e2e2e2e2e2e2e2e2e2e2e2e2e2e2e
RESULT CIPHER-DECIPHER: -----OK-----


Test: 47
Data unit:   47
Start block: 95
Symmetric key bit length: 512
Plaintext bit length:     136
Symmetric key:            00000000000000000000000000000000000000000000000000000000000000000000000000000000000000000000000000000000000000000000000000000000
Plaintext:                2f2f2f2f2f2f2f2f2f2f2f2f2f2f2f2f2f
Ciphertext:               8322a60e14f92edd90f04b4d89dc657f403556348611319be8654678b291dfa822
Reciphers for ciphertext: 0
Decipheredtext:           2f2f2f2f2f2f2f2f2f2f2f2f2f2f2f2f2f
RESULT CIPHER-DECIPHER: -----OK-----


Test: 48
Data unit:   48
Start block: 97
Symmetric key bit length: 512
Plaintext bit length:     136
Symmetric key:            00000000000000000000000000000000000000000000000000000000000000000000000000000000000000000000000000000000000000000000000000000000
Plaintext:                3030303030303030303030303030303030
Ciphertext:               87159ac51d1c18b4593a4a7d5783c57b36e00c23ca8ba4b7b3c9c84c3315dc03da
Reciphers for ciphertext: 0
Decipheredtext:           3030303030303030303030303030303030
RESULT CIPHER-DECIPHER: -----OK-----


Test: 49
Data unit:   49
Start block: 99
Symmetric key bit length: 512
Plaintext bit length:     136
Symmetric key:            00000000000000000000000000000000000000000000000000000000000000000000000000000000000000000000000000000000000000000000000000000000
Plaintext:                3131313131313131313131313131313131
Ciphertext:               827fde4c757ae8faed7d592289b273cb3fdb5345be4b22ad11e26361ec7eb457ef
Reciphers for ciphertext: 0
Decipheredtext:           3131313131313131313131313131313131
RESULT CIPHER-DECIPHER: -----OK-----


Test: 50
Data unit:   50
Start block: 101
Symmetric key bit length: 512
Plaintext bit length:     136
Symmetric key:            00000000000000000000000000000000000000000000000000000000000000000000000000000000000000000000000000000000000000000000000000000000
Plaintext:                3232323232323232323232323232323232
Ciphertext:               7276d2861244702ce2fa27da2aef80c7b4504bc95e1fb94269a3b8184c94ebfceb
Reciphers for ciphertext: 0
Decipheredtext:           3232323232323232323232323232323232
RESULT CIPHER-DECIPHER: -----OK-----


Test: 51
Data unit:   51
Start block: 103
Symmetric key bit length: 512
Plaintext bit length:     136
Symmetric key:            00000000000000000000000000000000000000000000000000000000000000000000000000000000000000000000000000000000000000000000000000000000
Plaintext:                3333333333333333333333333333333333
Ciphertext:               fa4239a2bfd66e715573bddc5edd349da55d2bfe861a676dbcc3e58003fc75d070
Reciphers for ciphertext: 0
Decipheredtext:           3333333333333333333333333333333333
RESULT CIPHER-DECIPHER: -----OK-----


Test: 52
Data unit:   52
Start block: 105
Symmetric key bit length: 512
Plaintext bit length:     136
Symmetric key:            00000000000000000000000000000000000000000000000000000000000000000000000000000000000000000000000000000000000000000000000000000000
Plaintext:                3434343434343434343434343434343434
Ciphertext:               08de866a54045f40b69e254d6ba7965d63d46dc94c8bb029fcebb3541c8e98e409
Reciphers for ciphertext: 0
Decipheredtext:           3434343434343434343434343434343434
RESULT CIPHER-DECIPHER: -----OK-----


Test: 53
Data unit:   53
Start block: 107
Symmetric key bit length: 512
Plaintext bit length:     136
Symmetric key:            00000000000000000000000000000000000000000000000000000000000000000000000000000000000000000000000000000000000000000000000000000000
Plaintext:                3535353535353535353535353535353535
Ciphertext:               164b0807d07ce8a771dc0b8df4c619a9959d8d0c2766ef5b9cd8c6cbb3f675085d
Reciphers for ciphertext: 0
Decipheredtext:           3535353535353535353535353535353535
RESULT CIPHER-DECIPHER: -----OK-----


Test: 54
Data unit:   54
Start block: 109
Symmetric key bit length: 512
Plaintext bit length:     136
Symmetric key:            00000000000000000000000000000000000000000000000000000000000000000000000000000000000000000000000000000000000000000000000000000000
Plaintext:                3636363636363636363636363636363636
Ciphertext:               0e561772d5f9850f13577021ac4b84efdf79b583aa2332cc59412915251dc519f5
Reciphers for ciphertext: 0
Decipheredtext:           3636363636363636363636363636363636
RESULT CIPHER-DECIPHER: -----OK-----


Test: 55
Data unit:   55
Start block: 111
Symmetric key bit length: 512
Plaintext bit length:     136
Symmetric key:            00000000000000000000000000000000000000000000000000000000000000000000000000000000000000000000000000000000000000000000000000000000
Plaintext:                3737373737373737373737373737373737
Ciphertext:               638eebd416311018ff55da45219e23a0fb0b0ae383c911eeb8ac59253d9c88bf62
Reciphers for ciphertext: 0
Decipheredtext:           3737373737373737373737373737373737
RESULT CIPHER-DECIPHER: -----OK-----


Test: 56
Data unit:   56
Start block: 113
Symmetric key bit length: 512
Plaintext bit length:     136
Symmetric key:            00000000000000000000000000000000000000000000000000000000000000000000000000000000000000000000000000000000000000000000000000000000
Plaintext:                3838383838383838383838383838383838
Ciphertext:               b3caf49f83df82a259d36b98fabdea178be1281d8811854a137811dc0980fdcb7b
Reciphers for ciphertext: 0
Decipheredtext:           3838383838383838383838383838383838
RESULT CIPHER-DECIPHER: -----OK-----


Test: 57
Data unit:   57
Start block: 115
Symmetric key bit length: 512
Plaintext bit length:     136
Symmetric key:            00000000000000000000000000000000000000000000000000000000000000000000000000000000000000000000000000000000000000000000000000000000
Plaintext:                3939393939393939393939393939393939
Ciphertext:               02f9171bfb559e3a9cde1a7a862232a1dfd0b279d500148ec5540abdc29176233e
Reciphers for ciphertext: 0
Decipheredtext:           3939393939393939393939393939393939
RESULT CIPHER-DECIPHER: -----OK-----


Test: 58
Data unit:   58
Start block: 117
Symmetric key bit length: 512
Plaintext bit length:     136
Symmetric key:            00000000000000000000000000000000000000000000000000000000000000000000000000000000000000000000000000000000000000000000000000000000
Plaintext:                3a3a3a3a3a3a3a3a3a3a3a3a3a3a3a3a3a
Ciphertext:               0b63c364dbad1e418eb7b9b09babde59e5a8654543a6e8cf2e4cdbb37e3326a1cc
Reciphers for ciphertext: 0
Decipheredtext:           3a3a3a3a3a3a3a3a3a3a3a3a3a3a3a3a3a
RESULT CIPHER-DECIPHER: -----OK-----


Test: 59
Data unit:   59
Start block: 119
Symmetric key bit length: 512
Plaintext bit length:     136
Symmetric key:            00000000000000000000000000000000000000000000000000000000000000000000000000000000000000000000000000000000000000000000000000000000
Plaintext:                3b3b3b3b3b3b3b3b3b3b3b3b3b3b3b3b3b
Ciphertext:               45d2fa1ded0bb14b58759f76d004f416da2e721d6811e8c8e981cfe60352f53bd2
Reciphers for ciphertext: 0
Decipheredtext:           3b3b3b3b3b3b3b3b3b3b3b3b3b3b3b3b3b
RESULT CIPHER-DECIPHER: -----OK-----


Test: 60
Data unit:   60
Start block: 121
Symmetric key bit length: 512
Plaintext bit length:     136
Symmetric key:            00000000000000000000000000000000000000000000000000000000000000000000000000000000000000000000000000000000000000000000000000000000
Plaintext:                3c3c3c3c3c3c3c3c3c3c3c3c3c3c3c3c3c
Ciphertext:               f4a5fae2d4a8898f2c406d7857247dc935e2727a26f7e58ba169f3993609e39daa
Reciphers for ciphertext: 0
Decipheredtext:           3c3c3c3c3c3c3c3c3c3c3c3c3c3c3c3c3c
RESULT CIPHER-DECIPHER: -----OK-----


Test: 61
Data unit:   61
Start block: 123
Symmetric key bit length: 512
Plaintext bit length:     136
Symmetric key:            00000000000000000000000000000000000000000000000000000000000000000000000000000000000000000000000000000000000000000000000000000000
Plaintext:                3d3d3d3d3d3d3d3d3d3d3d3d3d3d3d3d3d
Ciphertext:               f0bd95ab34d08bf62cd2cc5152604ea28a104fc9e607c8974df1c3d05f1cd4bb2d
Reciphers for ciphertext: 0
Decipheredtext:           3d3d3d3d3d3d3d3d3d3d3d3d3d3d3d3d3d
RESULT CIPHER-DECIPHER: -----OK-----


Test: 62
Data unit:   62
Start block: 125
Symmetric key bit length: 512
Plaintext bit length:     136
Symmetric key:            00000000000000000000000000000000000000000000000000000000000000000000000000000000000000000000000000000000000000000000000000000000
Plaintext:                3e3e3e3e3e3e3e3e3e3e3e3e3e3e3e3e3e
Ciphertext:               358cd741b09ddc7e8094e400d98ac85b8b6f7a54a3f1ab4f38ba1ad4a30029f6bf
Reciphers for ciphertext: 0
Decipheredtext:           3e3e3e3e3e3e3e3e3e3e3e3e3e3e3e3e3e
RESULT CIPHER-DECIPHER: -----OK-----


Test: 63
Data unit:   63
Start block: 127
Symmetric key bit length: 512
Plaintext bit length:     136
Symmetric key:            00000000000000000000000000000000000000000000000000000000000000000000000000000000000000000000000000000000000000000000000000000000
Plaintext:                3f3f3f3f3f3f3f3f3f3f3f3f3f3f3f3f3f
Ciphertext:               814920091f410c4c02cee8978a948a425fa9a242a223b2f6dbd728c72bef6837b7
Reciphers for ciphertext: 0
Decipheredtext:           3f3f3f3f3f3f3f3f3f3f3f3f3f3f3f3f3f
RESULT CIPHER-DECIPHER: -----OK-----


Test: 64
Data unit:   64
Start block: 129
Symmetric key bit length: 512
Plaintext bit length:     136
Symmetric key:            00000000000000000000000000000000000000000000000000000000000000000000000000000000000000000000000000000000000000000000000000000000
Plaintext:                4040404040404040404040404040404040
Ciphertext:               cff14db8da961aecad7e5e9a2fff36428a1e342c0b8bdc269333821f1b7418d399
Reciphers for ciphertext: 0
Decipheredtext:           4040404040404040404040404040404040
RESULT CIPHER-DECIPHER: -----OK-----


Test: 65
Data unit:   65
Start block: 131
Symmetric key bit length: 512
Plaintext bit length:     136
Symmetric key:            00000000000000000000000000000000000000000000000000000000000000000000000000000000000000000000000000000000000000000000000000000000
Plaintext:                4141414141414141414141414141414141
Ciphertext:               8483611a953e427cad0fad5ac753f6f6927453aa5a742bdf94c76e5f366a6cdef0
Reciphers for ciphertext: 0
Decipheredtext:           4141414141414141414141414141414141
RESULT CIPHER-DECIPHER: -----OK-----


Test: 66
Data unit:   66
Start block: 133
Symmetric key bit length: 512
Plaintext bit length:     136
Symmetric key:            00000000000000000000000000000000000000000000000000000000000000000000000000000000000000000000000000000000000000000000000000000000
Plaintext:                4242424242424242424242424242424242
Ciphertext:               0c6f422996f3c79147fb6bd6b3f888c2230a8b338a44648990d4a9e895f5ff9fab
Reciphers for ciphertext: 0
Decipheredtext:           4242424242424242424242424242424242
RESULT CIPHER-DECIPHER: -----OK-----


Test: 67
Data unit:   67
Start block: 135
Symmetric key bit length: 512
Plaintext bit length:     136
Symmetric key:            00000000000000000000000000000000000000000000000000000000000000000000000000000000000000000000000000000000000000000000000000000000
Plaintext:                4343434343434343434343434343434343
Ciphertext:               ea1483b188976c7d16f5622e735c5f7fc9818a78d410b78cda00fb9a9928753eca
Reciphers for ciphertext: 0
Decipheredtext:           4343434343434343434343434343434343
RESULT CIPHER-DECIPHER: -----OK-----


Test: 68
Data unit:   68
Start block: 137
Symmetric key bit length: 512
Plaintext bit length:     136
Symmetric key:            00000000000000000000000000000000000000000000000000000000000000000000000000000000000000000000000000000000000000000000000000000000
Plaintext:                4444444444444444444444444444444444
Ciphertext:               b09fdaba7fb00cb18ce4acb86237a8ba755a257fa640a0ef136ac505b8c1c10c91
Reciphers for ciphertext: 0
Decipheredtext:           4444444444444444444444444444444444
RESULT CIPHER-DECIPHER: -----OK-----


Test: 69
Data unit:   69
Start block: 139
Symmetric key bit length: 512
Plaintext bit length:     136
Symmetric key:            00000000000000000000000000000000000000000000000000000000000000000000000000000000000000000000000000000000000000000000000000000000
Plaintext:                4545454545454545454545454545454545
Ciphertext:               594e61c0730194acd2fed46fcd4cbdcc7fef55adf79bc0b07ec56bd143f1b30c1a
Reciphers for ciphertext: 0
Decipheredtext:           4545454545454545454545454545454545
RESULT CIPHER-DECIPHER: -----OK-----


Test: 70
Data unit:   70
Start block: 141
Symmetric key bit length: 512
Plaintext bit length:     136
Symmetric key:            00000000000000000000000000000000000000000000000000000000000000000000000000000000000000000000000000000000000000000000000000000000
Plaintext:                4646464646464646464646464646464646
Ciphertext:               fe31d655bc77bac3576b28caf18f5c17e03adef5c11cad1a5e1a82c113bc7b135f
Reciphers for ciphertext: 0
Decipheredtext:           4646464646464646464646464646464646
RESULT CIPHER-DECIPHER: -----OK-----


Test: 71
Data unit:   71
Start block: 143
Symmetric key bit length: 512
Plaintext bit length:     136
Symmetric key:            00000000000000000000000000000000000000000000000000000000000000000000000000000000000000000000000000000000000000000000000000000000
Plaintext:                4747474747474747474747474747474747
Ciphertext:               0db70532547aec92f640f3362ddadcbdad76b02ed0e32d700539b85d1e8a3a235b
Reciphers for ciphertext: 0
Decipheredtext:           4747474747474747474747474747474747
RESULT CIPHER-DECIPHER: -----OK-----


Test: 72
Data unit:   72
Start block: 145
Symmetric key bit length: 512
Plaintext bit length:     136
Symmetric key:            00000000000000000000000000000000000000000000000000000000000000000000000000000000000000000000000000000000000000000000000000000000
Plaintext:                4848484848484848484848484848484848
Ciphertext:               5de6a03b1fd41a0fd01c435625645f42f5f3a906481433b93b7e7e06c1a8e707ef
Reciphers for ciphertext: 0
Decipheredtext:           4848484848484848484848484848484848
RESULT CIPHER-DECIPHER: -----OK-----


Test: 73
Data unit:   73
Start block: 147
Symmetric key bit length: 512
Plaintext bit length:     136
Symmetric key:            00000000000000000000000000000000000000000000000000000000000000000000000000000000000000000000000000000000000000000000000000000000
Plaintext:                4949494949494949494949494949494949
Ciphertext:               1bc5833a35d77cb2bcfbaa55c3c958a41e825afa70083807b3619f74b6bbc89552
Reciphers for ciphertext: 0
Decipheredtext:           4949494949494949494949494949494949
RESULT CIPHER-DECIPHER: -----OK-----


Test: 74
Data unit:   74
Start block: 149
Symmetric key bit length: 512
Plaintext bit length:     136
Symmetric key:            00000000000000000000000000000000000000000000000000000000000000000000000000000000000000000000000000000000000000000000000000000000
Plaintext:                4a4a4a4a4a4a4a4a4a4a4a4a4a4a4a4a4a
Ciphertext:               42a447ee06677e1c1f3af49d09564856ee80da51d7727d3902c4aa3fb91ed07fd8
Reciphers for ciphertext: 0
Decipheredtext:           4a4a4a4a4a4a4a4a4a4a4a4a4a4a4a4a4a
RESULT CIPHER-DECIPHER: -----OK-----


Test: 75
Data unit:   75
Start block: 151
Symmetric key bit length: 512
Plaintext bit length:     136
Symmetric key:            00000000000000000000000000000000000000000000000000000000000000000000000000000000000000000000000000000000000000000000000000000000
Plaintext:                4b4b4b4b4b4b4b4b4b4b4b4b4b4b4b4b4b
Ciphertext:               ab0e8803dae67e1cbf9616f5f382e9a7c468c98a4ad3bd31c91bf7ce617865ebbd
Reciphers for ciphertext: 0
Decipheredtext:           4b4b4b4b4b4b4b4b4b4b4b4b4b4b4b4b4b
RESULT CIPHER-DECIPHER: -----OK-----


Test: 76
Data unit:   76
Start block: 153
Symmetric key bit length: 512
Plaintext bit length:     136
Symmetric key:            00000000000000000000000000000000000000000000000000000000000000000000000000000000000000000000000000000000000000000000000000000000
Plaintext:                4c4c4c4c4c4c4c4c4c4c4c4c4c4c4c4c4c
Ciphertext:               a8d7f745d6a2b6ab42bbcc2d44db08f31ccf9568815749c58b2881854962a65868
Reciphers for ciphertext: 0
Decipheredtext:           4c4c4c4c4c4c4c4c4c4c4c4c4c4c4c4c4c
RESULT CIPHER-DECIPHER: -----OK-----


Test: 77
Data unit:   77
Start block: 155
Symmetric key bit length: 512
Plaintext bit length:     136
Symmetric key:            00000000000000000000000000000000000000000000000000000000000000000000000000000000000000000000000000000000000000000000000000000000
Plaintext:                4d4d4d4d4d4d4d4d4d4d4d4d4d4d4d4d4d
Ciphertext:               4473aab58400567c6a29f22c47a8c31652e5e6bbcae62d74d17234763549f488eb
Reciphers for ciphertext: 0
Decipheredtext:           4d4d4d4d4d4d4d4d4d4d4d4d4d4d4d4d4d
RESULT CIPHER-DECIPHER: -----OK-----


Test: 78
Data unit:   78
Start block: 157
Symmetric key bit length: 512
Plaintext bit length:     136
Symmetric key:            00000000000000000000000000000000000000000000000000000000000000000000000000000000000000000000000000000000000000000000000000000000
Plaintext:                4e4e4e4e4e4e4e4e4e4e4e4e4e4e4e4e4e
Ciphertext:               e83fda12d8d38efa76e2a258a02749d5f2e5702afa729e35e878efa70dbf2c155d
Reciphers for ciphertext: 0
Decipheredtext:           4e4e4e4e4e4e4e4e4e4e4e4e4e4e4e4e4e
RESULT CIPHER-DECIPHER: -----OK-----


Test: 79
Data unit:   79
Start block: 159
Symmetric key bit length: 512
Plaintext bit length:     136
Symmetric key:            00000000000000000000000000000000000000000000000000000000000000000000000000000000000000000000000000000000000000000000000000000000
Plaintext:                4f4f4f4f4f4f4f4f4f4f4f4f4f4f4f4f4f
Ciphertext:               3d8b0f3a657eb950b824196c12725e27031e06efd897a3ec81c8490b4b244b3e4e
Reciphers for ciphertext: 0
Decipheredtext:           4f4f4f4f4f4f4f4f4f4f4f4f4f4f4f4f4f
RESULT CIPHER-DECIPHER: -----OK-----


Test: 80
Data unit:   80
Start block: 161
Symmetric key bit length: 512
Plaintext bit length:     136
Symmetric key:            00000000000000000000000000000000000000000000000000000000000000000000000000000000000000000000000000000000000000000000000000000000
Plaintext:                5050505050505050505050505050505050
Ciphertext:               32ff926e988eef3ada68db0c3e2355c2ba99625d9843da5670aa2bb1e58f029130
Reciphers for ciphertext: 0
Decipheredtext:           5050505050505050505050505050505050
RESULT CIPHER-DECIPHER: -----OK-----


Test: 81
Data unit:   81
Start block: 163
Symmetric key bit length: 512
Plaintext bit length:     136
Symmetric key:            00000000000000000000000000000000000000000000000000000000000000000000000000000000000000000000000000000000000000000000000000000000
Plaintext:                5151515151515151515151515151515151
Ciphertext:               f00a1c9162e0d58c59503fb2b1d50a341f547220f161bf9b3e4f0b2f6990c4d4ed
Reciphers for ciphertext: 0
Decipheredtext:           5151515151515151515151515151515151
RESULT CIPHER-DECIPHER: -----OK-----


Test: 82
Data unit:   82
Start block: 165
Symmetric key bit length: 512
Plaintext bit length:     136
Symmetric key:            00000000000000000000000000000000000000000000000000000000000000000000000000000000000000000000000000000000000000000000000000000000
Plaintext:                5252525252525252525252525252525252
Ciphertext:               dfcc4f40a4631390f57daebed5ab681d9f3c3e7b7f00711730b1a8d124269eb64e
Reciphers for ciphertext: 0
Decipheredtext:           5252525252525252525252525252525252
RESULT CIPHER-DECIPHER: -----OK-----


Test: 83
Data unit:   83
Start block: 167
Symmetric key bit length: 512
Plaintext bit length:     136
Symmetric key:            00000000000000000000000000000000000000000000000000000000000000000000000000000000000000000000000000000000000000000000000000000000
Plaintext:                5353535353535353535353535353535353
Ciphertext:               a1199cf01f8328efb6c5c1e51eccf73325032d381d045579e30a5806c407f29c8a
Reciphers for ciphertext: 0
Decipheredtext:           5353535353535353535353535353535353
RESULT CIPHER-DECIPHER: -----OK-----


Test: 84
Data unit:   84
Start block: 169
Symmetric key bit length: 512
Plaintext bit length:     136
Symmetric key:            00000000000000000000000000000000000000000000000000000000000000000000000000000000000000000000000000000000000000000000000000000000
Plaintext:                5454545454545454545454545454545454
Ciphertext:               648885388642afbcf5e9d17334f84a467a306165dbdbfd489789229809beee80d6
Reciphers for ciphertext: 0
Decipheredtext:           5454545454545454545454545454545454
RESULT CIPHER-DECIPHER: -----OK-----


Test: 85
Data unit:   85
Start block: 171
Symmetric key bit length: 512
Plaintext bit length:     136
Symmetric key:            00000000000000000000000000000000000000000000000000000000000000000000000000000000000000000000000000000000000000000000000000000000
Plaintext:                5555555555555555555555555555555555
Ciphertext:               89db697bbf5ef05f8733b1d15fd956a9006c10fe71c5b359a2cff91c72d8adb366
Reciphers for ciphertext: 0
Decipheredtext:           5555555555555555555555555555555555
RESULT CIPHER-DECIPHER: -----OK-----


Test: 86
Data unit:   86
Start block: 173
Symmetric key bit length: 512
Plaintext bit length:     136
Symmetric key:            00000000000000000000000000000000000000000000000000000000000000000000000000000000000000000000000000000000000000000000000000000000
Plaintext:                5656565656565656565656565656565656
Ciphertext:               17c545242abf9099756b2030cbe85de01022e8cabf9e8c1ee443c33d2cc2e594de
Reciphers for ciphertext: 1
Decipheredtext:           5656565656565656565656565656565656
RESULT CIPHER-DECIPHER: -----OK-----


Test: 87
Data unit:   87
Start block: 175
Symmetric key bit length: 512
Plaintext bit length:     136
Symmetric key:            00000000000000000000000000000000000000000000000000000000000000000000000000000000000000000000000000000000000000000000000000000000
Plaintext:                5757575757575757575757575757575757
Ciphertext:               4102e6919addc209b3528da1d2f514ebf79b1c0e963fc7f781adc7b13869fc00c1
Reciphers for ciphertext: 0
Decipheredtext:           5757575757575757575757575757575757
RESULT CIPHER-DECIPHER: -----OK-----


Test: 88
Data unit:   88
Start block: 177
Symmetric key bit length: 512
Plaintext bit length:     136
Symmetric key:            00000000000000000000000000000000000000000000000000000000000000000000000000000000000000000000000000000000000000000000000000000000
Plaintext:                5858585858585858585858585858585858
Ciphertext:               36acf74e255bf22a2d5f73f4d36862fe1c198baa26dfd3ff59e66877b7978a4d7a
Reciphers for ciphertext: 0
Decipheredtext:           5858585858585858585858585858585858
RESULT CIPHER-DECIPHER: -----OK-----


Test: 89
Data unit:   89
Start block: 179
Symmetric key bit length: 512
Plaintext bit length:     136
Symmetric key:            00000000000000000000000000000000000000000000000000000000000000000000000000000000000000000000000000000000000000000000000000000000
Plaintext:                5959595959595959595959595959595959
Ciphertext:               126b4cd3c35ebc1f67abb5540352b7073b0ad84f10019af09dfedefbc8dce152d4
Reciphers for ciphertext: 0
Decipheredtext:           5959595959595959595959595959595959
RESULT CIPHER-DECIPHER: -----OK-----


Test: 90
Data unit:   90
Start block: 181
Symmetric key bit length: 512
Plaintext bit length:     136
Symmetric key:            00000000000000000000000000000000000000000000000000000000000000000000000000000000000000000000000000000000000000000000000000000000
Plaintext:                5a5a5a5a5a5a5a5a5a5a5a5a5a5a5a5a5a
Ciphertext:               1a8e143110661baba08537d9b60c637465966439655cc299934bc9ff9d41fc3099
Reciphers for ciphertext: 0
Decipheredtext:           5a5a5a5a5a5a5a5a5a5a5a5a5a5a5a5a5a
RESULT CIPHER-DECIPHER: -----OK-----


Test: 91
Data unit:   91
Start block: 183
Symmetric key bit length: 512
Plaintext bit length:     136
Symmetric key:            00000000000000000000000000000000000000000000000000000000000000000000000000000000000000000000000000000000000000000000000000000000
Plaintext:                5b5b5b5b5b5b5b5b5b5b5b5b5b5b5b5b5b
Ciphertext:               953372c3d68876f38a4ad109b35db8b043648e4e8b562bccaaa8587ba6ecc8e1b1
Reciphers for ciphertext: 0
Decipheredtext:           5b5b5b5b5b5b5b5b5b5b5b5b5b5b5b5b5b
RESULT CIPHER-DECIPHER: -----OK-----


Test: 92
Data unit:   92
Start block: 185
Symmetric key bit length: 512
Plaintext bit length:     136
Symmetric key:            00000000000000000000000000000000000000000000000000000000000000000000000000000000000000000000000000000000000000000000000000000000
Plaintext:                5c5c5c5c5c5c5c5c5c5c5c5c5c5c5c5c5c
Ciphertext:               8c557f5294f69871ce02e695d02d9c2fdbed721e554f85bd889bdb6da0e7bb0e73
Reciphers for ciphertext: 0
Decipheredtext:           5c5c5c5c5c5c5c5c5c5c5c5c5c5c5c5c5c
RESULT CIPHER-DECIPHER: -----OK-----


Test: 93
Data unit:   93
Start block: 187
Symmetric key bit length: 512
Plaintext bit length:     136
Symmetric key:            00000000000000000000000000000000000000000000000000000000000000000000000000000000000000000000000000000000000000000000000000000000
Plaintext:                5d5d5d5d5d5d5d5d5d5d5d5d5d5d5d5d5d
Ciphertext:               6cfde097cde1ae74ea9a205f19dae3f01585c6b1009e7c6d725632d77f12832403
Reciphers for ciphertext: 0
Decipheredtext:           5d5d5d5d5d5d5d5d5d5d5d5d5d5d5d5d5d
RESULT CIPHER-DECIPHER: -----OK-----


Test: 94
Data unit:   94
Start block: 189
Symmetric key bit length: 512
Plaintext bit length:     136
Symmetric key:            00000000000000000000000000000000000000000000000000000000000000000000000000000000000000000000000000000000000000000000000000000000
Plaintext:                5e5e5e5e5e5e5e5e5e5e5e5e5e5e5e5e5e
Ciphertext:               de4c7d71bf870c2074157d7552b61b08d806f8711e69a985c6ab3471aaeb4b6b45
Reciphers for ciphertext: 0
Decipheredtext:           5e5e5e5e5e5e5e5e5e5e5e5e5e5e5e5e5e
RESULT CIPHER-DECIPHER: -----OK-----


Test: 95
Data unit:   95
Start block: 191
Symmetric key bit length: 512
Plaintext bit length:     136
Symmetric key:            00000000000000000000000000000000000000000000000000000000000000000000000000000000000000000000000000000000000000000000000000000000
Plaintext:                5f5f5f5f5f5f5f5f5f5f5f5f5f5f5f5f5f
Ciphertext:               873ddc34ae484c84610c027f74170564b636923d0a2074db6366d1e4af2471a498
Reciphers for ciphertext: 0
Decipheredtext:           5f5f5f5f5f5f5f5f5f5f5f5f5f5f5f5f5f
RESULT CIPHER-DECIPHER: -----OK-----


Test: 96
Data unit:   96
Start block: 193
Symmetric key bit length: 512
Plaintext bit length:     136
Symmetric key:            00000000000000000000000000000000000000000000000000000000000000000000000000000000000000000000000000000000000000000000000000000000
Plaintext:                6060606060606060606060606060606060
Ciphertext:               7329762260e18c4607a4eb90f057b93ed2b4dc321f3f7512ffa78ae6dd9bf05e39
Reciphers for ciphertext: 0
Decipheredtext:           6060606060606060606060606060606060
RESULT CIPHER-DECIPHER: -----OK-----


Test: 97
Data unit:   97
Start block: 195
Symmetric key bit length: 512
Plaintext bit length:     136
Symmetric key:            00000000000000000000000000000000000000000000000000000000000000000000000000000000000000000000000000000000000000000000000000000000
Plaintext:                6161616161616161616161616161616161
Ciphertext:               b009a1a8a6496bfc8763df7fc92f08575c51871bc67b2a208c7bc9cdcde933cdcf
Reciphers for ciphertext: 0
Decipheredtext:           6161616161616161616161616161616161
RESULT CIPHER-DECIPHER: -----OK-----


Test: 98
Data unit:   98
Start block: 197
Symmetric key bit length: 512
Plaintext bit length:     136
Symmetric key:            00000000000000000000000000000000000000000000000000000000000000000000000000000000000000000000000000000000000000000000000000000000
Plaintext:                6262626262626262626262626262626262
Ciphertext:               795e7d521fa7448fa6dc743d84dbc365b488501fa7aab318f1d62301eda36e7d6d
Reciphers for ciphertext: 0
Decipheredtext:           6262626262626262626262626262626262
RESULT CIPHER-DECIPHER: -----OK-----


Test: 99
Data unit:   99
Start block: 199
Symmetric key bit length: 512
Plaintext bit length:     136
Symmetric key:            00000000000000000000000000000000000000000000000000000000000000000000000000000000000000000000000000000000000000000000000000000000
Plaintext:                6363636363636363636363636363636363
Ciphertext:               284aadadfb5fbf4bf59022c50f57cee86b620fe820d0b11db3be183ddd5df87939
Reciphers for ciphertext: 0
Decipheredtext:           6363636363636363636363636363636363
RESULT CIPHER-DECIPHER: -----OK-----


Test: 100
Data unit:   100
Start block: 201
Symmetric key bit length: 512
Plaintext bit length:     136
Symmetric key:            00000000000000000000000000000000000000000000000000000000000000000000000000000000000000000000000000000000000000000000000000000000
Plaintext:                6464646464646464646464646464646464
Ciphertext:               bd82a661b40c8ca888ef8125816be8295dadbab584ee8477161fb0f48510080965
Reciphers for ciphertext: 0
Decipheredtext:           6464646464646464646464646464646464
RESULT CIPHER-DECIPHER: -----OK-----


Test: 101
Data unit:   101
Start block: 203
Symmetric key bit length: 512
Plaintext bit length:     136
Symmetric key:            00000000000000000000000000000000000000000000000000000000000000000000000000000000000000000000000000000000000000000000000000000000
Plaintext:                6565656565656565656565656565656565
Ciphertext:               c27d04945b50343df8bafab77e8400e82af037cd0b256d0663d0d68acaccce9ae5
Reciphers for ciphertext: 0
Decipheredtext:           6565656565656565656565656565656565
RESULT CIPHER-DECIPHER: -----OK-----


Test: 102
Data unit:   102
Start block: 205
Symmetric key bit length: 512
Plaintext bit length:     136
Symmetric key:            00000000000000000000000000000000000000000000000000000000000000000000000000000000000000000000000000000000000000000000000000000000
Plaintext:                6666666666666666666666666666666666
Ciphertext:               13b420da556400256b4854f814da42b826b59f9e1340dc685f4a0b3f953335c669
Reciphers for ciphertext: 0
Decipheredtext:           6666666666666666666666666666666666
RESULT CIPHER-DECIPHER: -----OK-----


Test: 103
Data unit:   103
Start block: 207
Symmetric key bit length: 512
Plaintext bit length:     136
Symmetric key:            00000000000000000000000000000000000000000000000000000000000000000000000000000000000000000000000000000000000000000000000000000000
Plaintext:                6767676767676767676767676767676767
Ciphertext:               f832af06e64fb3a4ba3626d7edc5df827454c41cc36960fb2a74e407b887d4a4b6
Reciphers for ciphertext: 0
Decipheredtext:           6767676767676767676767676767676767
RESULT CIPHER-DECIPHER: -----OK-----


Test: 104
Data unit:   104
Start block: 209
Symmetric key bit length: 512
Plaintext bit length:     136
Symmetric key:            00000000000000000000000000000000000000000000000000000000000000000000000000000000000000000000000000000000000000000000000000000000
Plaintext:                6868686868686868686868686868686868
Ciphertext:               248c2c44714c72273587cd2fda5583e93fec444d5afb24d92276f69d312d8f9e46
Reciphers for ciphertext: 0
Decipheredtext:           6868686868686868686868686868686868
RESULT CIPHER-DECIPHER: -----OK-----


Test: 105
Data unit:   105
Start block: 211
Symmetric key bit length: 512
Plaintext bit length:     136
Symmetric key:            00000000000000000000000000000000000000000000000000000000000000000000000000000000000000000000000000000000000000000000000000000000
Plaintext:                6969696969696969696969696969696969
Ciphertext:               88196e5e2e379112cab7adb689bbc94f9a807fdff2a51d0267f0fec6bdf0a66dc3
Reciphers for ciphertext: 0
Decipheredtext:           6969696969696969696969696969696969
RESULT CIPHER-DECIPHER: -----OK-----


Test: 106
Data unit:   106
Start block: 213
Symmetric key bit length: 512
Plaintext bit length:     136
Symmetric key:            00000000000000000000000000000000000000000000000000000000000000000000000000000000000000000000000000000000000000000000000000000000
Plaintext:                6a6a6a6a6a6a6a6a6a6a6a6a6a6a6a6a6a
Ciphertext:               8da7b06cd20c4601e93250564997a45e2bc468a4a81af83a1c15ff14b01025e5ad
Reciphers for ciphertext: 0
Decipheredtext:           6a6a6a6a6a6a6a6a6a6a6a6a6a6a6a6a6a
RESULT CIPHER-DECIPHER: -----OK-----


Test: 107
Data unit:   107
Start block: 215
Symmetric key bit length: 512
Plaintext bit length:     136
Symmetric key:            00000000000000000000000000000000000000000000000000000000000000000000000000000000000000000000000000000000000000000000000000000000
Plaintext:                6b6b6b6b6b6b6b6b6b6b6b6b6b6b6b6b6b
Ciphertext:               868c208eba73981e0c5f65f535df9e702c31efb042e5e00e43d773fff7b36fafb8
Reciphers for ciphertext: 0
Decipheredtext:           6b6b6b6b6b6b6b6b6b6b6b6b6b6b6b6b6b
RESULT CIPHER-DECIPHER: -----OK-----


Test: 108
Data unit:   108
Start block: 217
Symmetric key bit length: 512
Plaintext bit length:     136
Symmetric key:            00000000000000000000000000000000000000000000000000000000000000000000000000000000000000000000000000000000000000000000000000000000
Plaintext:                6c6c6c6c6c6c6c6c6c6c6c6c6c6c6c6c6c
Ciphertext:               c38bf7341b2517a99a788a59997fad44700ff4a41c78d0fe3662bcba0d14764471
Reciphers for ciphertext: 0
Decipheredtext:           6c6c6c6c6c6c6c6c6c6c6c6c6c6c6c6c6c
RESULT CIPHER-DECIPHER: -----OK-----


Test: 109
Data unit:   109
Start block: 219
Symmetric key bit length: 512
Plaintext bit length:     136
Symmetric key:            00000000000000000000000000000000000000000000000000000000000000000000000000000000000000000000000000000000000000000000000000000000
Plaintext:                6d6d6d6d6d6d6d6d6d6d6d6d6d6d6d6d6d
Ciphertext:               4a62005a5f8726b742b189316c0ff07d1fc169ee0bf32484c84faf96840e85daa5
Reciphers for ciphertext: 0
Decipheredtext:           6d6d6d6d6d6d6d6d6d6d6d6d6d6d6d6d6d
RESULT CIPHER-DECIPHER: -----OK-----


Test: 110
Data unit:   110
Start block: 221
Symmetric key bit length: 512
Plaintext bit length:     136
Symmetric key:            00000000000000000000000000000000000000000000000000000000000000000000000000000000000000000000000000000000000000000000000000000000
Plaintext:                6e6e6e6e6e6e6e6e6e6e6e6e6e6e6e6e6e
Ciphertext:               9548246a36a90823b6cff9597610ee537abf06c2dfc7dc050984fb08dfe2568811
Reciphers for ciphertext: 0
Decipheredtext:           6e6e6e6e6e6e6e6e6e6e6e6e6e6e6e6e6e
RESULT CIPHER-DECIPHER: -----OK-----


Test: 111
Data unit:   111
Start block: 223
Symmetric key bit length: 512
Plaintext bit length:     136
Symmetric key:            00000000000000000000000000000000000000000000000000000000000000000000000000000000000000000000000000000000000000000000000000000000
Plaintext:                6f6f6f6f6f6f6f6f6f6f6f6f6f6f6f6f6f
Ciphertext:               faa778d7216c539d351b53db4092883acd51a9e5f5d4b721589348c61029f28675
Reciphers for ciphertext: 0
Decipheredtext:           6f6f6f6f6f6f6f6f6f6f6f6f6f6f6f6f6f
RESULT CIPHER-DECIPHER: -----OK-----


Test: 112
Data unit:   112
Start block: 225
Symmetric key bit length: 512
Plaintext bit length:     136
Symmetric key:            00000000000000000000000000000000000000000000000000000000000000000000000000000000000000000000000000000000000000000000000000000000
Plaintext:                7070707070707070707070707070707070
Ciphertext:               587d4ea0bd8cae21af41f682baa7e0ec7b0e546ad0d9ba14b4c6cf49d1080f960a
Reciphers for ciphertext: 0
Decipheredtext:           7070707070707070707070707070707070
RESULT CIPHER-DECIPHER: -----OK-----


Test: 113
Data unit:   113
Start block: 227
Symmetric key bit length: 512
Plaintext bit length:     136
Symmetric key:            00000000000000000000000000000000000000000000000000000000000000000000000000000000000000000000000000000000000000000000000000000000
Plaintext:                7171717171717171717171717171717171
Ciphertext:               e465f87aae987e53b82cb07f180826642a902e64d60ee671a20c4955b20152ed90
Reciphers for ciphertext: 0
Decipheredtext:           7171717171717171717171717171717171
RESULT CIPHER-DECIPHER: -----OK-----


Test: 114
Data unit:   114
Start block: 229
Symmetric key bit length: 512
Plaintext bit length:     136
Symmetric key:            00000000000000000000000000000000000000000000000000000000000000000000000000000000000000000000000000000000000000000000000000000000
Plaintext:                7272727272727272727272727272727272
Ciphertext:               e3d74bad81dde28babff70070a83361ebe4c525e7f8f0e18044d86c85f71597fb7
Reciphers for ciphertext: 0
Decipheredtext:           7272727272727272727272727272727272
RESULT CIPHER-DECIPHER: -----OK-----


Test: 115
Data unit:   115
Start block: 231
Symmetric key bit length: 512
Plaintext bit length:     136
Symmetric key:            00000000000000000000000000000000000000000000000000000000000000000000000000000000000000000000000000000000000000000000000000000000
Plaintext:                7373737373737373737373737373737373
Ciphertext:               72809613550885cdf2398978da213ed3ef22e1d5e5f987694c4a8b1a4bfb73e98f
Reciphers for ciphertext: 0
Decipheredtext:           7373737373737373737373737373737373
RESULT CIPHER-DECIPHER: -----OK-----


Test: 116
Data unit:   116
Start block: 233
Symmetric key bit length: 512
Plaintext bit length:     136
Symmetric key:            00000000000000000000000000000000000000000000000000000000000000000000000000000000000000000000000000000000000000000000000000000000
Plaintext:                7474747474747474747474747474747474
Ciphertext:               6317575601cc425ef5030f1ba6b1ecaa7b6071bf4ea872ad4a8953a009e93d03f3
Reciphers for ciphertext: 0
Decipheredtext:           7474747474747474747474747474747474
RESULT CIPHER-DECIPHER: -----OK-----


Test: 117
Data unit:   117
Start block: 235
Symmetric key bit length: 512
Plaintext bit length:     136
Symmetric key:            00000000000000000000000000000000000000000000000000000000000000000000000000000000000000000000000000000000000000000000000000000000
Plaintext:                7575757575757575757575757575757575
Ciphertext:               e625129c8d7be5c9050bac636062461bfcb3b151dc559171d31b595aabbc21acf9
Reciphers for ciphertext: 0
Decipheredtext:           7575757575757575757575757575757575
RESULT CIPHER-DECIPHER: -----OK-----


Test: 118
Data unit:   118
Start block: 237
Symmetric key bit length: 512
Plaintext bit length:     136
Symmetric key:            00000000000000000000000000000000000000000000000000000000000000000000000000000000000000000000000000000000000000000000000000000000
Plaintext:                7676767676767676767676767676767676
Ciphertext:               a0ed4cc1cbaec7ccc79f234bb919f309185af54d30c3ec15dc5b235bc59a42b268
Reciphers for ciphertext: 0
Decipheredtext:           7676767676767676767676767676767676
RESULT CIPHER-DECIPHER: -----OK-----


Test: 119
Data unit:   119
Start block: 239
Symmetric key bit length: 512
Plaintext bit length:     136
Symmetric key:            00000000000000000000000000000000000000000000000000000000000000000000000000000000000000000000000000000000000000000000000000000000
Plaintext:                7777777777777777777777777777777777
Ciphertext:               69cd7380f9b663dd607a2958a89ada99920d587d8abe24a6afc3a16c52306e50ae
Reciphers for ciphertext: 0
Decipheredtext:           7777777777777777777777777777777777
RESULT CIPHER-DECIPHER: -----OK-----


Test: 120
Data unit:   120
Start block: 241
Symmetric key bit length: 512
Plaintext bit length:     136
Symmetric key:            00000000000000000000000000000000000000000000000000000000000000000000000000000000000000000000000000000000000000000000000000000000
Plaintext:                7878787878787878787878787878787878
Ciphertext:               9afd0741c58c25159f92e221cbb298950620b5324096d829e6da49df78bff2af0f
Reciphers for ciphertext: 0
Decipheredtext:           7878787878787878787878787878787878
RESULT CIPHER-DECIPHER: -----OK-----


Test: 121
Data unit:   121
Start block: 243
Symmetric key bit length: 512
Plaintext bit length:     136
Symmetric key:            00000000000000000000000000000000000000000000000000000000000000000000000000000000000000000000000000000000000000000000000000000000
Plaintext:                7979797979797979797979797979797979
Ciphertext:               d3963a75727138c86e52757785be2e71a46c2dc613696b2be640a0b951a0d9f61e
Reciphers for ciphertext: 0
Decipheredtext:           7979797979797979797979797979797979
RESULT CIPHER-DECIPHER: -----OK-----


Test: 122
Data unit:   122
Start block: 245
Symmetric key bit length: 512
Plaintext bit length:     136
Symmetric key:            00000000000000000000000000000000000000000000000000000000000000000000000000000000000000000000000000000000000000000000000000000000
Plaintext:                7a7a7a7a7a7a7a7a7a7a7a7a7a7a7a7a7a
Ciphertext:               7fdf18269a4eef2da3af9d8883bd18964c3ca7a2cca884d8a6015158d9c0f85cbc
Reciphers for ciphertext: 0
Decipheredtext:           7a7a7a7a7a7a7a7a7a7a7a7a7a7a7a7a7a
RESULT CIPHER-DECIPHER: -----OK-----


Test: 123
Data unit:   123
Start block: 247
Symmetric key bit length: 512
Plaintext bit length:     136
Symmetric key:            00000000000000000000000000000000000000000000000000000000000000000000000000000000000000000000000000000000000000000000000000000000
Plaintext:                7b7b7b7b7b7b7b7b7b7b7b7b7b7b7b7b7b
Ciphertext:               a169786aff5970b545ee8cb6097a4ba71e345da039ac1c897dd206283f54df3500
Reciphers for ciphertext: 0
Decipheredtext:           7b7b7b7b7b7b7b7b7b7b7b7b7b7b7b7b7b
RESULT CIPHER-DECIPHER: -----OK-----


Test: 124
Data unit:   124
Start block: 249
Symmetric key bit length: 512
Plaintext bit length:     136
Symmetric key:            00000000000000000000000000000000000000000000000000000000000000000000000000000000000000000000000000000000000000000000000000000000
Plaintext:                7c7c7c7c7c7c7c7c7c7c7c7c7c7c7c7c7c
Ciphertext:               ed982924f55937ab0bba5080048e5a7c49befd2fb229c0db23a9a2a9acc652c584
Reciphers for ciphertext: 0
Decipheredtext:           7c7c7c7c7c7c7c7c7c7c7c7c7c7c7c7c7c
RESULT CIPHER-DECIPHER: -----OK-----


Test: 125
Data unit:   125
Start block: 251
Symmetric key bit length: 512
Plaintext bit length:     136
Symmetric key:            00000000000000000000000000000000000000000000000000000000000000000000000000000000000000000000000000000000000000000000000000000000
Plaintext:                7d7d7d7d7d7d7d7d7d7d7d7d7d7d7d7d7d
Ciphertext:               057c7c2e77c36bee1ba8e00cf238b9ef0bb43f2b7103a0bc5700b70dba13256d84
Reciphers for ciphertext: 0
Decipheredtext:           7d7d7d7d7d7d7d7d7d7d7d7d7d7d7d7d7d
RESULT CIPHER-DECIPHER: -----OK-----


Test: 126
Data unit:   126
Start block: 253
Symmetric key bit length: 512
Plaintext bit length:     136
Symmetric key:            00000000000000000000000000000000000000000000000000000000000000000000000000000000000000000000000000000000000000000000000000000000
Plaintext:                7e7e7e7e7e7e7e7e7e7e7e7e7e7e7e7e7e
Ciphertext:               8073f4f2804d042a0d8a041f8739a747e81d47c1a659c35eb4d1ef92e8f5057b71
Reciphers for ciphertext: 0
Decipheredtext:           7e7e7e7e7e7e7e7e7e7e7e7e7e7e7e7e7e
RESULT CIPHER-DECIPHER: -----OK-----


Test: 127
Data unit:   127
Start block: 255
Symmetric key bit length: 512
Plaintext bit length:     136
Symmetric key:            00000000000000000000000000000000000000000000000000000000000000000000000000000000000000000000000000000000000000000000000000000000
Plaintext:                7f7f7f7f7f7f7f7f7f7f7f7f7f7f7f7f7f
Ciphertext:               96f8a17d63d11a43531e0067a8749b23c2292a99599a569b8351abcbd7a0b6c2db
Reciphers for ciphertext: 0
Decipheredtext:           7f7f7f7f7f7f7f7f7f7f7f7f7f7f7f7f7f
RESULT CIPHER-DECIPHER: -----OK-----


 DATA SHA1 (hexadecimal): 59f2a06f1d4efc6d2625ff40a9047ee5e5563978

