
DiceLock 9.0.0.1

 TEST COMPONENTS:
 ----------------
 DiceLock:           DiceLockXTSIndexed class
 Operation Mode:     XTS_Mode class
 Block Cipher:       AES128 class
 Key Modifier:       IncreaseBase0IndexModifier_6_0_0_1 class
   Index bit length: 128
 Random tests:       RandomTestSuite class
                     FrequencyTest class
                     BlockFrequencyTest class
                     CumulativeSumForwardTest class
                     LongestRunOfOnesTest class
                     RunsTest class
 Random alpha:       0.001

 VECTOR TEST: Test vector 3 - Symmetric key all byte value 0xXX


##### INDIVIDUAL TESTS #####

Number tests: 128


Test: 0
Data unit:   0
Start block: 1
Symmetric key bit length: 256
Plaintext bit length:     136
Symmetric key:            0000000000000000000000000000000000000000000000000000000000000000
Plaintext:                0000000000000000000000000000000000
Ciphertext:               917cf69ebd68b2ec9b9fe9a3eadda692e62b361e89c90e48001d65120f8ea4d491
Reciphers for ciphertext: 0
Decipheredtext:           0000000000000000000000000000000000
RESULT CIPHER-DECIPHER: -----OK-----


Test: 1
Data unit:   1
Start block: 3
Symmetric key bit length: 256
Plaintext bit length:     136
Symmetric key:            0101010101010101010101010101010101010101010101010101010101010101
Plaintext:                0000000000000000000000000000000000
Ciphertext:               2fb683c1fe4c181bcf1a9b7958b9058c6947a1fab77fc200bb9c5b18c2d87a6e2f
Reciphers for ciphertext: 0
Decipheredtext:           0000000000000000000000000000000000
RESULT CIPHER-DECIPHER: -----OK-----


Test: 2
Data unit:   2
Start block: 5
Symmetric key bit length: 256
Plaintext bit length:     136
Symmetric key:            0202020202020202020202020202020202020202020202020202020202020202
Plaintext:                0000000000000000000000000000000000
Ciphertext:               32ee15197cc4570bdaf7155c056fa55b6ae59b782090cb5995a88f880752027132
Reciphers for ciphertext: 0
Decipheredtext:           0000000000000000000000000000000000
RESULT CIPHER-DECIPHER: -----OK-----


Test: 3
Data unit:   3
Start block: 7
Symmetric key bit length: 256
Plaintext bit length:     136
Symmetric key:            0303030303030303030303030303030303030303030303030303030303030303
Plaintext:                0000000000000000000000000000000000
Ciphertext:               b278a5aacd1dbfb329854ce3798a78b3b441e3545448bf134af22701f7c6e172b2
Reciphers for ciphertext: 0
Decipheredtext:           0000000000000000000000000000000000
RESULT CIPHER-DECIPHER: -----OK-----


Test: 4
Data unit:   4
Start block: 9
Symmetric key bit length: 256
Plaintext bit length:     136
Symmetric key:            0404040404040404040404040404040404040404040404040404040404040404
Plaintext:                0000000000000000000000000000000000
Ciphertext:               ce1062ab6265a2a0fbe0a22665849f2c2377e174efc47b0e646946d93a711df0ce
Reciphers for ciphertext: 0
Decipheredtext:           0000000000000000000000000000000000
RESULT CIPHER-DECIPHER: -----OK-----


Test: 5
Data unit:   5
Start block: 11
Symmetric key bit length: 256
Plaintext bit length:     136
Symmetric key:            0505050505050505050505050505050505050505050505050505050505050505
Plaintext:                0000000000000000000000000000000000
Ciphertext:               f5edfd857d02984c2a810d84be3ddfb474d51260b610df4defcfed8beb8e6bf8f5
Reciphers for ciphertext: 0
Decipheredtext:           0000000000000000000000000000000000
RESULT CIPHER-DECIPHER: -----OK-----


Test: 6
Data unit:   6
Start block: 13
Symmetric key bit length: 256
Plaintext bit length:     136
Symmetric key:            0606060606060606060606060606060606060606060606060606060606060606
Plaintext:                0000000000000000000000000000000000
Ciphertext:               aa05fe1c283b290c486e911ac790e825e5e35c77e370030775e1379a16f21478aa
Reciphers for ciphertext: 0
Decipheredtext:           0000000000000000000000000000000000
RESULT CIPHER-DECIPHER: -----OK-----


Test: 7
Data unit:   7
Start block: 15
Symmetric key bit length: 256
Plaintext bit length:     136
Symmetric key:            0707070707070707070707070707070707070707070707070707070707070707
Plaintext:                0000000000000000000000000000000000
Ciphertext:               9977a8e944fa8f7872472a35ae4d66d4d5aa608250bd58a4e72462e2057849dd99
Reciphers for ciphertext: 0
Decipheredtext:           0000000000000000000000000000000000
RESULT CIPHER-DECIPHER: -----OK-----


Test: 8
Data unit:   8
Start block: 17
Symmetric key bit length: 256
Plaintext bit length:     136
Symmetric key:            0808080808080808080808080808080808080808080808080808080808080808
Plaintext:                0000000000000000000000000000000000
Ciphertext:               41c9bb81499c0acbbf5d7ee286a81e0eb7eadd484fefd86ceae10439e0c8acc741
Reciphers for ciphertext: 0
Decipheredtext:           0000000000000000000000000000000000
RESULT CIPHER-DECIPHER: -----OK-----


Test: 9
Data unit:   9
Start block: 19
Symmetric key bit length: 256
Plaintext bit length:     136
Symmetric key:            0909090909090909090909090909090909090909090909090909090909090909
Plaintext:                0000000000000000000000000000000000
Ciphertext:               b4b68f28d5acefefc23c27abf3e9333c951c0f8d1f2e9e16afbf78decb0efcc6b4
Reciphers for ciphertext: 0
Decipheredtext:           0000000000000000000000000000000000
RESULT CIPHER-DECIPHER: -----OK-----


Test: 10
Data unit:   10
Start block: 21
Symmetric key bit length: 256
Plaintext bit length:     136
Symmetric key:            0a0a0a0a0a0a0a0a0a0a0a0a0a0a0a0a0a0a0a0a0a0a0a0a0a0a0a0a0a0a0a0a
Plaintext:                0000000000000000000000000000000000
Ciphertext:               d31b4b5386d4aba42d60d58d7b258a62dbb13ce56f9dfb70a10f769b9d7545d7d3
Reciphers for ciphertext: 0
Decipheredtext:           0000000000000000000000000000000000
RESULT CIPHER-DECIPHER: -----OK-----


Test: 11
Data unit:   11
Start block: 23
Symmetric key bit length: 256
Plaintext bit length:     136
Symmetric key:            0b0b0b0b0b0b0b0b0b0b0b0b0b0b0b0b0b0b0b0b0b0b0b0b0b0b0b0b0b0b0b0b
Plaintext:                0000000000000000000000000000000000
Ciphertext:               66bb2100e05987cbd75683f2597fe8d5c2da2b7457e5f2e3b084bd021ccc344166
Reciphers for ciphertext: 0
Decipheredtext:           0000000000000000000000000000000000
RESULT CIPHER-DECIPHER: -----OK-----


Test: 12
Data unit:   12
Start block: 25
Symmetric key bit length: 256
Plaintext bit length:     136
Symmetric key:            0c0c0c0c0c0c0c0c0c0c0c0c0c0c0c0c0c0c0c0c0c0c0c0c0c0c0c0c0c0c0c0c
Plaintext:                0000000000000000000000000000000000
Ciphertext:               cc5dba24121c84c9381f9bcfb280cdf8be452f99919ab03090e1002bebb2c21ecc
Reciphers for ciphertext: 0
Decipheredtext:           0000000000000000000000000000000000
RESULT CIPHER-DECIPHER: -----OK-----


Test: 13
Data unit:   13
Start block: 27
Symmetric key bit length: 256
Plaintext bit length:     136
Symmetric key:            0d0d0d0d0d0d0d0d0d0d0d0d0d0d0d0d0d0d0d0d0d0d0d0d0d0d0d0d0d0d0d0d
Plaintext:                0000000000000000000000000000000000
Ciphertext:               c38cd3bef69907d613f880cd4b7deb1394a86e7ed0d49f10fed5196daebc5206c3
Reciphers for ciphertext: 0
Decipheredtext:           0000000000000000000000000000000000
RESULT CIPHER-DECIPHER: -----OK-----


Test: 14
Data unit:   14
Start block: 29
Symmetric key bit length: 256
Plaintext bit length:     136
Symmetric key:            0e0e0e0e0e0e0e0e0e0e0e0e0e0e0e0e0e0e0e0e0e0e0e0e0e0e0e0e0e0e0e0e
Plaintext:                0000000000000000000000000000000000
Ciphertext:               0d7336bd487dbc568e899bf84f60b9751c40ee63c3763f56f33965784e83f8c30d
Reciphers for ciphertext: 0
Decipheredtext:           0000000000000000000000000000000000
RESULT CIPHER-DECIPHER: -----OK-----


Test: 15
Data unit:   15
Start block: 31
Symmetric key bit length: 256
Plaintext bit length:     136
Symmetric key:            0f0f0f0f0f0f0f0f0f0f0f0f0f0f0f0f0f0f0f0f0f0f0f0f0f0f0f0f0f0f0f0f
Plaintext:                0000000000000000000000000000000000
Ciphertext:               237cf080f067c54d160d3915ea008ea9ca7faf4253767c13f12ae10786dc9b8823
Reciphers for ciphertext: 0
Decipheredtext:           0000000000000000000000000000000000
RESULT CIPHER-DECIPHER: -----OK-----


Test: 16
Data unit:   16
Start block: 33
Symmetric key bit length: 256
Plaintext bit length:     136
Symmetric key:            1010101010101010101010101010101010101010101010101010101010101010
Plaintext:                0000000000000000000000000000000000
Ciphertext:               e188a0643762b14b8a80aa41ba8734a80544f7452e795a5d7f1d06d3ed08ce70e1
Reciphers for ciphertext: 0
Decipheredtext:           0000000000000000000000000000000000
RESULT CIPHER-DECIPHER: -----OK-----


Test: 17
Data unit:   17
Start block: 35
Symmetric key bit length: 256
Plaintext bit length:     136
Symmetric key:            1111111111111111111111111111111111111111111111111111111111111111
Plaintext:                0000000000000000000000000000000000
Ciphertext:               34ce4c9e5531d178646710acd08add708b993c93245288d4b385cbaac1eb5f5a34
Reciphers for ciphertext: 0
Decipheredtext:           0000000000000000000000000000000000
RESULT CIPHER-DECIPHER: -----OK-----


Test: 18
Data unit:   18
Start block: 37
Symmetric key bit length: 256
Plaintext bit length:     136
Symmetric key:            1212121212121212121212121212121212121212121212121212121212121212
Plaintext:                0000000000000000000000000000000000
Ciphertext:               240c8029624547777d0b5509067cf45ed527396b4c73dc0b1d2bc9330ee68cb524
Reciphers for ciphertext: 0
Decipheredtext:           0000000000000000000000000000000000
RESULT CIPHER-DECIPHER: -----OK-----


Test: 19
Data unit:   19
Start block: 39
Symmetric key bit length: 256
Plaintext bit length:     136
Symmetric key:            1313131313131313131313131313131313131313131313131313131313131313
Plaintext:                0000000000000000000000000000000000
Ciphertext:               cefebdf64667bd52baa8c2a8f4311a0051cdccb9f7c9aa36cf934201cc5b961ace
Reciphers for ciphertext: 0
Decipheredtext:           0000000000000000000000000000000000
RESULT CIPHER-DECIPHER: -----OK-----


Test: 20
Data unit:   20
Start block: 41
Symmetric key bit length: 256
Plaintext bit length:     136
Symmetric key:            1414141414141414141414141414141414141414141414141414141414141414
Plaintext:                0000000000000000000000000000000000
Ciphertext:               e122bb8320044f32da744242f5b18a1e24a287a549f520521ec7cd1d0b4dd5cee1
Reciphers for ciphertext: 0
Decipheredtext:           0000000000000000000000000000000000
RESULT CIPHER-DECIPHER: -----OK-----


Test: 21
Data unit:   21
Start block: 43
Symmetric key bit length: 256
Plaintext bit length:     136
Symmetric key:            1515151515151515151515151515151515151515151515151515151515151515
Plaintext:                0000000000000000000000000000000000
Ciphertext:               9b1cbf419a5a4b3864fb185522ec100e2233aef0d7e793bc15903cc77cbe9a7a9b
Reciphers for ciphertext: 0
Decipheredtext:           0000000000000000000000000000000000
RESULT CIPHER-DECIPHER: -----OK-----


Test: 22
Data unit:   22
Start block: 45
Symmetric key bit length: 256
Plaintext bit length:     136
Symmetric key:            1616161616161616161616161616161616161616161616161616161616161616
Plaintext:                0000000000000000000000000000000000
Ciphertext:               7c756a5165cef56dae9ed87f7f44b4be4e567355633d0014c5b403fde3b43d747c
Reciphers for ciphertext: 0
Decipheredtext:           0000000000000000000000000000000000
RESULT CIPHER-DECIPHER: -----OK-----


Test: 23
Data unit:   23
Start block: 47
Symmetric key bit length: 256
Plaintext bit length:     136
Symmetric key:            1717171717171717171717171717171717171717171717171717171717171717
Plaintext:                0000000000000000000000000000000000
Ciphertext:               81c07c42ad42b829e15987153d7b6354f8e799bb10dfc671ccb5c301d528aa1c81
Reciphers for ciphertext: 0
Decipheredtext:           0000000000000000000000000000000000
RESULT CIPHER-DECIPHER: -----OK-----


Test: 24
Data unit:   24
Start block: 49
Symmetric key bit length: 256
Plaintext bit length:     136
Symmetric key:            1818181818181818181818181818181818181818181818181818181818181818
Plaintext:                0000000000000000000000000000000000
Ciphertext:               d21415723f57874ac9e7a35cf0a07851deceb49cc3ab58439c0774f8ab2c5415d2
Reciphers for ciphertext: 0
Decipheredtext:           0000000000000000000000000000000000
RESULT CIPHER-DECIPHER: -----OK-----


Test: 25
Data unit:   25
Start block: 51
Symmetric key bit length: 256
Plaintext bit length:     136
Symmetric key:            1919191919191919191919191919191919191919191919191919191919191919
Plaintext:                0000000000000000000000000000000000
Ciphertext:               c2c8d447e82f663fa381ec5d3914fc8c3b3d68ad9f8170ee7f53b5398e5d9a39c2
Reciphers for ciphertext: 0
Decipheredtext:           0000000000000000000000000000000000
RESULT CIPHER-DECIPHER: -----OK-----


Test: 26
Data unit:   26
Start block: 53
Symmetric key bit length: 256
Plaintext bit length:     136
Symmetric key:            1a1a1a1a1a1a1a1a1a1a1a1a1a1a1a1a1a1a1a1a1a1a1a1a1a1a1a1a1a1a1a1a
Plaintext:                0000000000000000000000000000000000
Ciphertext:               f50feffc068ecc7afd47df01366c49b79c8b5d1202a0904154eb59f19602ad05f5
Reciphers for ciphertext: 0
Decipheredtext:           0000000000000000000000000000000000
RESULT CIPHER-DECIPHER: -----OK-----


Test: 27
Data unit:   27
Start block: 55
Symmetric key bit length: 256
Plaintext bit length:     136
Symmetric key:            1b1b1b1b1b1b1b1b1b1b1b1b1b1b1b1b1b1b1b1b1b1b1b1b1b1b1b1b1b1b1b1b
Plaintext:                0000000000000000000000000000000000
Ciphertext:               1a69efe13ffad50d0283a80d1e764e0005b90cd089160f517ccc286697905e631a
Reciphers for ciphertext: 0
Decipheredtext:           0000000000000000000000000000000000
RESULT CIPHER-DECIPHER: -----OK-----


Test: 28
Data unit:   28
Start block: 57
Symmetric key bit length: 256
Plaintext bit length:     136
Symmetric key:            1c1c1c1c1c1c1c1c1c1c1c1c1c1c1c1c1c1c1c1c1c1c1c1c1c1c1c1c1c1c1c1c
Plaintext:                0000000000000000000000000000000000
Ciphertext:               245edd7d1aa410d4e7e508eaa86175d5141df83e5c3d9728e5f71fea4abebe1d24
Reciphers for ciphertext: 0
Decipheredtext:           0000000000000000000000000000000000
RESULT CIPHER-DECIPHER: -----OK-----


Test: 29
Data unit:   29
Start block: 59
Symmetric key bit length: 256
Plaintext bit length:     136
Symmetric key:            1d1d1d1d1d1d1d1d1d1d1d1d1d1d1d1d1d1d1d1d1d1d1d1d1d1d1d1d1d1d1d1d
Plaintext:                0000000000000000000000000000000000
Ciphertext:               81753a58ce2c02e4eb5da4d72a283aadd78b6e9c513033d8d17c303f406a198981
Reciphers for ciphertext: 0
Decipheredtext:           0000000000000000000000000000000000
RESULT CIPHER-DECIPHER: -----OK-----


Test: 30
Data unit:   30
Start block: 61
Symmetric key bit length: 256
Plaintext bit length:     136
Symmetric key:            1e1e1e1e1e1e1e1e1e1e1e1e1e1e1e1e1e1e1e1e1e1e1e1e1e1e1e1e1e1e1e1e
Plaintext:                0000000000000000000000000000000000
Ciphertext:               9d4dbccbaa8da8c452b52264415b8696beccaf7270e402a5c9a366344db378389d
Reciphers for ciphertext: 0
Decipheredtext:           0000000000000000000000000000000000
RESULT CIPHER-DECIPHER: -----OK-----


Test: 31
Data unit:   31
Start block: 63
Symmetric key bit length: 256
Plaintext bit length:     136
Symmetric key:            1f1f1f1f1f1f1f1f1f1f1f1f1f1f1f1f1f1f1f1f1f1f1f1f1f1f1f1f1f1f1f1f
Plaintext:                0000000000000000000000000000000000
Ciphertext:               1903e66b46b2e1880b95f03c297f5d02df9934213121a00d914515e259e0f0b319
Reciphers for ciphertext: 0
Decipheredtext:           0000000000000000000000000000000000
RESULT CIPHER-DECIPHER: -----OK-----


Test: 32
Data unit:   32
Start block: 65
Symmetric key bit length: 256
Plaintext bit length:     136
Symmetric key:            2020202020202020202020202020202020202020202020202020202020202020
Plaintext:                0000000000000000000000000000000000
Ciphertext:               420c1425e40bc9f0d676e0eb7022e1320fb995b261a3b0ff47cfb7b545498d8f42
Reciphers for ciphertext: 0
Decipheredtext:           0000000000000000000000000000000000
RESULT CIPHER-DECIPHER: -----OK-----


Test: 33
Data unit:   33
Start block: 67
Symmetric key bit length: 256
Plaintext bit length:     136
Symmetric key:            2121212121212121212121212121212121212121212121212121212121212121
Plaintext:                0000000000000000000000000000000000
Ciphertext:               75580efb30ee01c2cde0ea7cbae39913d1eff9e8a732941d07a643bacd47c76f75
Reciphers for ciphertext: 0
Decipheredtext:           0000000000000000000000000000000000
RESULT CIPHER-DECIPHER: -----OK-----


Test: 34
Data unit:   34
Start block: 69
Symmetric key bit length: 256
Plaintext bit length:     136
Symmetric key:            2222222222222222222222222222222222222222222222222222222222222222
Plaintext:                0000000000000000000000000000000000
Ciphertext:               3eecd89863f6e419c558aeea68729e5336f02209c63f3602f5b5b948b4f6433c3e
Reciphers for ciphertext: 0
Decipheredtext:           0000000000000000000000000000000000
RESULT CIPHER-DECIPHER: -----OK-----


Test: 35
Data unit:   35
Start block: 71
Symmetric key bit length: 256
Plaintext bit length:     136
Symmetric key:            2323232323232323232323232323232323232323232323232323232323232323
Plaintext:                0000000000000000000000000000000000
Ciphertext:               4023a050b55493b042e271ce3217a9d1ea821ab5897b07f18a3e71b2501a760d40
Reciphers for ciphertext: 0
Decipheredtext:           0000000000000000000000000000000000
RESULT CIPHER-DECIPHER: -----OK-----


Test: 36
Data unit:   36
Start block: 73
Symmetric key bit length: 256
Plaintext bit length:     136
Symmetric key:            2424242424242424242424242424242424242424242424242424242424242424
Plaintext:                0000000000000000000000000000000000
Ciphertext:               9457fccccdd90d35779fbdad5c2eb8db4f08d7b97b668de232ec0079ee139bb994
Reciphers for ciphertext: 0
Decipheredtext:           0000000000000000000000000000000000
RESULT CIPHER-DECIPHER: -----OK-----


Test: 37
Data unit:   37
Start block: 75
Symmetric key bit length: 256
Plaintext bit length:     136
Symmetric key:            2525252525252525252525252525252525252525252525252525252525252525
Plaintext:                0000000000000000000000000000000000
Ciphertext:               0973b0d82f486f3f4ee7d6c4768b70e5a0021202fb90607d30b468f159f0e1a909
Reciphers for ciphertext: 0
Decipheredtext:           0000000000000000000000000000000000
RESULT CIPHER-DECIPHER: -----OK-----


Test: 38
Data unit:   38
Start block: 77
Symmetric key bit length: 256
Plaintext bit length:     136
Symmetric key:            2626262626262626262626262626262626262626262626262626262626262626
Plaintext:                0000000000000000000000000000000000
Ciphertext:               0045bb69879d39947e7683e6c20406843c72f17e9c09bf92e943c326e971711800
Reciphers for ciphertext: 0
Decipheredtext:           0000000000000000000000000000000000
RESULT CIPHER-DECIPHER: -----OK-----


Test: 39
Data unit:   39
Start block: 79
Symmetric key bit length: 256
Plaintext bit length:     136
Symmetric key:            2727272727272727272727272727272727272727272727272727272727272727
Plaintext:                0000000000000000000000000000000000
Ciphertext:               ecbc82826b6f2d546bbaadd2228c4d3138661e3f146b45cb222713d3b4662490ec
Reciphers for ciphertext: 0
Decipheredtext:           0000000000000000000000000000000000
RESULT CIPHER-DECIPHER: -----OK-----


Test: 40
Data unit:   40
Start block: 81
Symmetric key bit length: 256
Plaintext bit length:     136
Symmetric key:            2828282828282828282828282828282828282828282828282828282828282828
Plaintext:                0000000000000000000000000000000000
Ciphertext:               b6dc1bfc958461d312e0c748eedfc5cbe26654b5cb353ef8536e2ca6b22707c3b6
Reciphers for ciphertext: 0
Decipheredtext:           0000000000000000000000000000000000
RESULT CIPHER-DECIPHER: -----OK-----


Test: 41
Data unit:   41
Start block: 83
Symmetric key bit length: 256
Plaintext bit length:     136
Symmetric key:            2929292929292929292929292929292929292929292929292929292929292929
Plaintext:                0000000000000000000000000000000000
Ciphertext:               3f079a884fd66064ceeed19c0a7b419c33bcd9fd1777154bd11ef25ffc9a8e643f
Reciphers for ciphertext: 0
Decipheredtext:           0000000000000000000000000000000000
RESULT CIPHER-DECIPHER: -----OK-----


Test: 42
Data unit:   42
Start block: 85
Symmetric key bit length: 256
Plaintext bit length:     136
Symmetric key:            2a2a2a2a2a2a2a2a2a2a2a2a2a2a2a2a2a2a2a2a2a2a2a2a2a2a2a2a2a2a2a2a
Plaintext:                0000000000000000000000000000000000
Ciphertext:               4891f3ba5bbae03dde734820732f0713406ee1e7aa0851e7146235d38d5c84ad48
Reciphers for ciphertext: 0
Decipheredtext:           0000000000000000000000000000000000
RESULT CIPHER-DECIPHER: -----OK-----


Test: 43
Data unit:   43
Start block: 87
Symmetric key bit length: 256
Plaintext bit length:     136
Symmetric key:            2b2b2b2b2b2b2b2b2b2b2b2b2b2b2b2b2b2b2b2b2b2b2b2b2b2b2b2b2b2b2b2b
Plaintext:                0000000000000000000000000000000000
Ciphertext:               1ed8c3b8183a986a112769febf498c2ef08605a897a418100168d4fb0586c5481e
Reciphers for ciphertext: 0
Decipheredtext:           0000000000000000000000000000000000
RESULT CIPHER-DECIPHER: -----OK-----


Test: 44
Data unit:   44
Start block: 89
Symmetric key bit length: 256
Plaintext bit length:     136
Symmetric key:            2c2c2c2c2c2c2c2c2c2c2c2c2c2c2c2c2c2c2c2c2c2c2c2c2c2c2c2c2c2c2c2c
Plaintext:                0000000000000000000000000000000000
Ciphertext:               1b879272ff003e27d8d2f6a0cc1c3506fa7d9b8a85a467230415a916ec1973c31b
Reciphers for ciphertext: 0
Decipheredtext:           0000000000000000000000000000000000
RESULT CIPHER-DECIPHER: -----OK-----


Test: 45
Data unit:   45
Start block: 91
Symmetric key bit length: 256
Plaintext bit length:     136
Symmetric key:            2d2d2d2d2d2d2d2d2d2d2d2d2d2d2d2d2d2d2d2d2d2d2d2d2d2d2d2d2d2d2d2d
Plaintext:                0000000000000000000000000000000000
Ciphertext:               a2c80d6cd110846d4234774851b565c4e8b3613317074b1a2bc2df98c5f907e6a2
Reciphers for ciphertext: 0
Decipheredtext:           0000000000000000000000000000000000
RESULT CIPHER-DECIPHER: -----OK-----


Test: 46
Data unit:   46
Start block: 93
Symmetric key bit length: 256
Plaintext bit length:     136
Symmetric key:            2e2e2e2e2e2e2e2e2e2e2e2e2e2e2e2e2e2e2e2e2e2e2e2e2e2e2e2e2e2e2e2e
Plaintext:                0000000000000000000000000000000000
Ciphertext:               a8868deac02f141baa6e61a6afacfff0dd67ff0931c2797327074b6f962cc3aca8
Reciphers for ciphertext: 0
Decipheredtext:           0000000000000000000000000000000000
RESULT CIPHER-DECIPHER: -----OK-----


Test: 47
Data unit:   47
Start block: 95
Symmetric key bit length: 256
Plaintext bit length:     136
Symmetric key:            2f2f2f2f2f2f2f2f2f2f2f2f2f2f2f2f2f2f2f2f2f2f2f2f2f2f2f2f2f2f2f2f
Plaintext:                0000000000000000000000000000000000
Ciphertext:               99eb49460a0962b19c32b33ff77a5cb885d7f9f0ed12130315719c753bc9765299
Reciphers for ciphertext: 0
Decipheredtext:           0000000000000000000000000000000000
RESULT CIPHER-DECIPHER: -----OK-----


Test: 48
Data unit:   48
Start block: 97
Symmetric key bit length: 256
Plaintext bit length:     136
Symmetric key:            3030303030303030303030303030303030303030303030303030303030303030
Plaintext:                0000000000000000000000000000000000
Ciphertext:               47b78096fe70c1ba0b5439f675dc077916366209d65e57b4b45f9a236694dfcd47
Reciphers for ciphertext: 0
Decipheredtext:           0000000000000000000000000000000000
RESULT CIPHER-DECIPHER: -----OK-----


Test: 49
Data unit:   49
Start block: 99
Symmetric key bit length: 256
Plaintext bit length:     136
Symmetric key:            3131313131313131313131313131313131313131313131313131313131313131
Plaintext:                0000000000000000000000000000000000
Ciphertext:               0f1d618a7649c1b2de10f9eefe76fbcd0f05f0fa39ec45eac6a7f8eaa08ac98c0f
Reciphers for ciphertext: 0
Decipheredtext:           0000000000000000000000000000000000
RESULT CIPHER-DECIPHER: -----OK-----


Test: 50
Data unit:   50
Start block: 101
Symmetric key bit length: 256
Plaintext bit length:     136
Symmetric key:            3232323232323232323232323232323232323232323232323232323232323232
Plaintext:                0000000000000000000000000000000000
Ciphertext:               610015758a7bed8952de375f9b79356552f0f110d8a9a69fad7050576652794361
Reciphers for ciphertext: 0
Decipheredtext:           0000000000000000000000000000000000
RESULT CIPHER-DECIPHER: -----OK-----


Test: 51
Data unit:   51
Start block: 103
Symmetric key bit length: 256
Plaintext bit length:     136
Symmetric key:            3333333333333333333333333333333333333333333333333333333333333333
Plaintext:                0000000000000000000000000000000000
Ciphertext:               d9ef8c1140c98e8aaba4134900d6903c497a98144407c2f0be05ac7667aece62d9
Reciphers for ciphertext: 0
Decipheredtext:           0000000000000000000000000000000000
RESULT CIPHER-DECIPHER: -----OK-----


Test: 52
Data unit:   52
Start block: 105
Symmetric key bit length: 256
Plaintext bit length:     136
Symmetric key:            3434343434343434343434343434343434343434343434343434343434343434
Plaintext:                0000000000000000000000000000000000
Ciphertext:               b73d9e9ed6798ca85850daa1f77b5be4005d0ff782a9177a9b7bd9e292a97b62b7
Reciphers for ciphertext: 0
Decipheredtext:           0000000000000000000000000000000000
RESULT CIPHER-DECIPHER: -----OK-----


Test: 53
Data unit:   53
Start block: 107
Symmetric key bit length: 256
Plaintext bit length:     136
Symmetric key:            3535353535353535353535353535353535353535353535353535353535353535
Plaintext:                0000000000000000000000000000000000
Ciphertext:               c648f3dbbfd29a411f286cebd52d60a54a3a4f2d3ac8211cfd358e118550dd90c6
Reciphers for ciphertext: 0
Decipheredtext:           0000000000000000000000000000000000
RESULT CIPHER-DECIPHER: -----OK-----


Test: 54
Data unit:   54
Start block: 109
Symmetric key bit length: 256
Plaintext bit length:     136
Symmetric key:            3636363636363636363636363636363636363636363636363636363636363636
Plaintext:                0000000000000000000000000000000000
Ciphertext:               0bf4bb27f4976cf08302b990525d90a6b17885f9ee68844240bd0e6ef6c0b8e00b
Reciphers for ciphertext: 0
Decipheredtext:           0000000000000000000000000000000000
RESULT CIPHER-DECIPHER: -----OK-----


Test: 55
Data unit:   55
Start block: 111
Symmetric key bit length: 256
Plaintext bit length:     136
Symmetric key:            3737373737373737373737373737373737373737373737373737373737373737
Plaintext:                0000000000000000000000000000000000
Ciphertext:               8367d9c252aceb99f38a02966282e7136da1f28444ec54ba2013f18039bbfecc83
Reciphers for ciphertext: 0
Decipheredtext:           0000000000000000000000000000000000
RESULT CIPHER-DECIPHER: -----OK-----


Test: 56
Data unit:   56
Start block: 113
Symmetric key bit length: 256
Plaintext bit length:     136
Symmetric key:            3838383838383838383838383838383838383838383838383838383838383838
Plaintext:                0000000000000000000000000000000000
Ciphertext:               4c87ad6507f89b7d51ee48e979f13f93aefa41895652f30f238fe1b45066cb704c
Reciphers for ciphertext: 0
Decipheredtext:           0000000000000000000000000000000000
RESULT CIPHER-DECIPHER: -----OK-----


Test: 57
Data unit:   57
Start block: 115
Symmetric key bit length: 256
Plaintext bit length:     136
Symmetric key:            3939393939393939393939393939393939393939393939393939393939393939
Plaintext:                0000000000000000000000000000000000
Ciphertext:               e97df559c84f7a1a8eea7d6351eeb07b10ae11ec79c62ea822f15644fd9d9baae9
Reciphers for ciphertext: 0
Decipheredtext:           0000000000000000000000000000000000
RESULT CIPHER-DECIPHER: -----OK-----


Test: 58
Data unit:   58
Start block: 117
Symmetric key bit length: 256
Plaintext bit length:     136
Symmetric key:            3a3a3a3a3a3a3a3a3a3a3a3a3a3a3a3a3a3a3a3a3a3a3a3a3a3a3a3a3a3a3a3a
Plaintext:                0000000000000000000000000000000000
Ciphertext:               65517f84e81bfa5f35f48da8f90fced6bb0900d34b39e2040afeb006acbedf5865
Reciphers for ciphertext: 0
Decipheredtext:           0000000000000000000000000000000000
RESULT CIPHER-DECIPHER: -----OK-----


Test: 59
Data unit:   59
Start block: 119
Symmetric key bit length: 256
Plaintext bit length:     136
Symmetric key:            3b3b3b3b3b3b3b3b3b3b3b3b3b3b3b3b3b3b3b3b3b3b3b3b3b3b3b3b3b3b3b3b
Plaintext:                0000000000000000000000000000000000
Ciphertext:               2c2a896cd40bfbc34fe77f4488c1dd845d28fdbb40ffb5e090c77cd5803da2132c
Reciphers for ciphertext: 0
Decipheredtext:           0000000000000000000000000000000000
RESULT CIPHER-DECIPHER: -----OK-----


Test: 60
Data unit:   60
Start block: 121
Symmetric key bit length: 256
Plaintext bit length:     136
Symmetric key:            3c3c3c3c3c3c3c3c3c3c3c3c3c3c3c3c3c3c3c3c3c3c3c3c3c3c3c3c3c3c3c3c
Plaintext:                0000000000000000000000000000000000
Ciphertext:               10a398d8a50ec7ce51f74b18771de85aa660c3830df1cf15a5c1a4185c205f1b10
Reciphers for ciphertext: 0
Decipheredtext:           0000000000000000000000000000000000
RESULT CIPHER-DECIPHER: -----OK-----


Test: 61
Data unit:   61
Start block: 123
Symmetric key bit length: 256
Plaintext bit length:     136
Symmetric key:            3d3d3d3d3d3d3d3d3d3d3d3d3d3d3d3d3d3d3d3d3d3d3d3d3d3d3d3d3d3d3d3d
Plaintext:                0000000000000000000000000000000000
Ciphertext:               2dc64885e37d3094446e3872e270baa33260c184afc9d0d4a3577e14dd649c572d
Reciphers for ciphertext: 0
Decipheredtext:           0000000000000000000000000000000000
RESULT CIPHER-DECIPHER: -----OK-----


Test: 62
Data unit:   62
Start block: 125
Symmetric key bit length: 256
Plaintext bit length:     136
Symmetric key:            3e3e3e3e3e3e3e3e3e3e3e3e3e3e3e3e3e3e3e3e3e3e3e3e3e3e3e3e3e3e3e3e
Plaintext:                0000000000000000000000000000000000
Ciphertext:               2f768150a8fea8c2aa77b2216d3952850c241c2245fd18f3c4f66121d56beeb32f
Reciphers for ciphertext: 0
Decipheredtext:           0000000000000000000000000000000000
RESULT CIPHER-DECIPHER: -----OK-----


Test: 63
Data unit:   63
Start block: 127
Symmetric key bit length: 256
Plaintext bit length:     136
Symmetric key:            3f3f3f3f3f3f3f3f3f3f3f3f3f3f3f3f3f3f3f3f3f3f3f3f3f3f3f3f3f3f3f3f
Plaintext:                0000000000000000000000000000000000
Ciphertext:               db2ad7ac85b761cd8c0877223306833290408814d718c8fdb344c9a5e2848e85db
Reciphers for ciphertext: 0
Decipheredtext:           0000000000000000000000000000000000
RESULT CIPHER-DECIPHER: -----OK-----


Test: 64
Data unit:   64
Start block: 129
Symmetric key bit length: 256
Plaintext bit length:     136
Symmetric key:            4040404040404040404040404040404040404040404040404040404040404040
Plaintext:                0000000000000000000000000000000000
Ciphertext:               de6c8d2045442b68407c0e242f714235c4b30fbec80028b9943a1c153e5c5624de
Reciphers for ciphertext: 0
Decipheredtext:           0000000000000000000000000000000000
RESULT CIPHER-DECIPHER: -----OK-----


Test: 65
Data unit:   65
Start block: 131
Symmetric key bit length: 256
Plaintext bit length:     136
Symmetric key:            4141414141414141414141414141414141414141414141414141414141414141
Plaintext:                0000000000000000000000000000000000
Ciphertext:               3add9ebb0627bcc24a058edbecdc1523446832cf2bd7c14b3f46046ce9ac0f7c3a
Reciphers for ciphertext: 0
Decipheredtext:           0000000000000000000000000000000000
RESULT CIPHER-DECIPHER: -----OK-----


Test: 66
Data unit:   66
Start block: 133
Symmetric key bit length: 256
Plaintext bit length:     136
Symmetric key:            4242424242424242424242424242424242424242424242424242424242424242
Plaintext:                0000000000000000000000000000000000
Ciphertext:               b961a5f6831ec306f62066ed397cf4dd6887bae55327e58c5881e2366e3a0be3b9
Reciphers for ciphertext: 0
Decipheredtext:           0000000000000000000000000000000000
RESULT CIPHER-DECIPHER: -----OK-----


Test: 67
Data unit:   67
Start block: 135
Symmetric key bit length: 256
Plaintext bit length:     136
Symmetric key:            4343434343434343434343434343434343434343434343434343434343434343
Plaintext:                0000000000000000000000000000000000
Ciphertext:               6968d8b86af4919427138bb0a08e9babd1f093f9adf871276a052ddd0a1c30b369
Reciphers for ciphertext: 0
Decipheredtext:           0000000000000000000000000000000000
RESULT CIPHER-DECIPHER: -----OK-----


Test: 68
Data unit:   68
Start block: 137
Symmetric key bit length: 256
Plaintext bit length:     136
Symmetric key:            4444444444444444444444444444444444444444444444444444444444444444
Plaintext:                0000000000000000000000000000000000
Ciphertext:               ebe7dcc261eabc4586ef96379b3e0c09ecd399449ec6ea7e7cec5920e2e2a56feb
Reciphers for ciphertext: 0
Decipheredtext:           0000000000000000000000000000000000
RESULT CIPHER-DECIPHER: -----OK-----


Test: 69
Data unit:   69
Start block: 139
Symmetric key bit length: 256
Plaintext bit length:     136
Symmetric key:            4545454545454545454545454545454545454545454545454545454545454545
Plaintext:                0000000000000000000000000000000000
Ciphertext:               6e5849e36f87bb25532c083ce732f442a7012d0d9e40a56e288de7fe6756b81c6e
Reciphers for ciphertext: 0
Decipheredtext:           0000000000000000000000000000000000
RESULT CIPHER-DECIPHER: -----OK-----


Test: 70
Data unit:   70
Start block: 141
Symmetric key bit length: 256
Plaintext bit length:     136
Symmetric key:            4646464646464646464646464646464646464646464646464646464646464646
Plaintext:                0000000000000000000000000000000000
Ciphertext:               fa487bb7231f150152d86709353195746c720e2da0dd58ddfded4a2cef04a79efa
Reciphers for ciphertext: 0
Decipheredtext:           0000000000000000000000000000000000
RESULT CIPHER-DECIPHER: -----OK-----


Test: 71
Data unit:   71
Start block: 143
Symmetric key bit length: 256
Plaintext bit length:     136
Symmetric key:            4747474747474747474747474747474747474747474747474747474747474747
Plaintext:                0000000000000000000000000000000000
Ciphertext:               65d65fcf171fe996c74b8331e2a39234606ac008270313278d79c50b13a777aa65
Reciphers for ciphertext: 0
Decipheredtext:           0000000000000000000000000000000000
RESULT CIPHER-DECIPHER: -----OK-----


Test: 72
Data unit:   72
Start block: 145
Symmetric key bit length: 256
Plaintext bit length:     136
Symmetric key:            4848484848484848484848484848484848484848484848484848484848484848
Plaintext:                0000000000000000000000000000000000
Ciphertext:               f0b63607dfcd98b41221800f48e49f452c486711b94920aa13a4e3a35c8de4d0f0
Reciphers for ciphertext: 0
Decipheredtext:           0000000000000000000000000000000000
RESULT CIPHER-DECIPHER: -----OK-----


Test: 73
Data unit:   73
Start block: 147
Symmetric key bit length: 256
Plaintext bit length:     136
Symmetric key:            4949494949494949494949494949494949494949494949494949494949494949
Plaintext:                0000000000000000000000000000000000
Ciphertext:               796b391f31f64ce74b3943212d2064262f71c8e8cf9a564a01799305b3cec5f279
Reciphers for ciphertext: 0
Decipheredtext:           0000000000000000000000000000000000
RESULT CIPHER-DECIPHER: -----OK-----


Test: 74
Data unit:   74
Start block: 149
Symmetric key bit length: 256
Plaintext bit length:     136
Symmetric key:            4a4a4a4a4a4a4a4a4a4a4a4a4a4a4a4a4a4a4a4a4a4a4a4a4a4a4a4a4a4a4a4a
Plaintext:                0000000000000000000000000000000000
Ciphertext:               a29bb726604426837422a6e1491c320915069037fbc8b4ae0e3deb85d37194fda2
Reciphers for ciphertext: 0
Decipheredtext:           0000000000000000000000000000000000
RESULT CIPHER-DECIPHER: -----OK-----


Test: 75
Data unit:   75
Start block: 151
Symmetric key bit length: 256
Plaintext bit length:     136
Symmetric key:            4b4b4b4b4b4b4b4b4b4b4b4b4b4b4b4b4b4b4b4b4b4b4b4b4b4b4b4b4b4b4b4b
Plaintext:                0000000000000000000000000000000000
Ciphertext:               a1c880c230f1541cde4107b92d7cc2a45f1b234db43cd12589d811ebf8dc9992a1
Reciphers for ciphertext: 0
Decipheredtext:           0000000000000000000000000000000000
RESULT CIPHER-DECIPHER: -----OK-----


Test: 76
Data unit:   76
Start block: 153
Symmetric key bit length: 256
Plaintext bit length:     136
Symmetric key:            4c4c4c4c4c4c4c4c4c4c4c4c4c4c4c4c4c4c4c4c4c4c4c4c4c4c4c4c4c4c4c4c
Plaintext:                0000000000000000000000000000000000
Ciphertext:               8a39eef0816ae9a07b2f13efa927132d2a3e433c073da4d759850c032cb976dd8a
Reciphers for ciphertext: 0
Decipheredtext:           0000000000000000000000000000000000
RESULT CIPHER-DECIPHER: -----OK-----


Test: 77
Data unit:   77
Start block: 155
Symmetric key bit length: 256
Plaintext bit length:     136
Symmetric key:            4d4d4d4d4d4d4d4d4d4d4d4d4d4d4d4d4d4d4d4d4d4d4d4d4d4d4d4d4d4d4d4d
Plaintext:                0000000000000000000000000000000000
Ciphertext:               78749253666a5a4962b358bde1a0c0f4de4da27f5398a481159efffd299269cd78
Reciphers for ciphertext: 0
Decipheredtext:           0000000000000000000000000000000000
RESULT CIPHER-DECIPHER: -----OK-----


Test: 78
Data unit:   78
Start block: 157
Symmetric key bit length: 256
Plaintext bit length:     136
Symmetric key:            4e4e4e4e4e4e4e4e4e4e4e4e4e4e4e4e4e4e4e4e4e4e4e4e4e4e4e4e4e4e4e4e
Plaintext:                0000000000000000000000000000000000
Ciphertext:               15da06d1642feb304d43042be21c1ea85a6946f37dfa1058f474875106d5961f15
Reciphers for ciphertext: 0
Decipheredtext:           0000000000000000000000000000000000
RESULT CIPHER-DECIPHER: -----OK-----


Test: 79
Data unit:   79
Start block: 159
Symmetric key bit length: 256
Plaintext bit length:     136
Symmetric key:            4f4f4f4f4f4f4f4f4f4f4f4f4f4f4f4f4f4f4f4f4f4f4f4f4f4f4f4f4f4f4f4f
Plaintext:                0000000000000000000000000000000000
Ciphertext:               d7317447672e2d16351cb0c7842ee5aee43609ab326c070e060fb425fbb098e5d7
Reciphers for ciphertext: 0
Decipheredtext:           0000000000000000000000000000000000
RESULT CIPHER-DECIPHER: -----OK-----


Test: 80
Data unit:   80
Start block: 161
Symmetric key bit length: 256
Plaintext bit length:     136
Symmetric key:            5050505050505050505050505050505050505050505050505050505050505050
Plaintext:                0000000000000000000000000000000000
Ciphertext:               a5962a02b2ceb394c889f551fd28fd005e92730bf75e7c74aab3b82e4f3bd00ea5
Reciphers for ciphertext: 0
Decipheredtext:           0000000000000000000000000000000000
RESULT CIPHER-DECIPHER: -----OK-----


Test: 81
Data unit:   81
Start block: 163
Symmetric key bit length: 256
Plaintext bit length:     136
Symmetric key:            5151515151515151515151515151515151515151515151515151515151515151
Plaintext:                0000000000000000000000000000000000
Ciphertext:               344452e44cc11bd97c670ec2fe57ed6ccb649f7cbf43d91064286b2154daeb2834
Reciphers for ciphertext: 0
Decipheredtext:           0000000000000000000000000000000000
RESULT CIPHER-DECIPHER: -----OK-----


Test: 82
Data unit:   82
Start block: 165
Symmetric key bit length: 256
Plaintext bit length:     136
Symmetric key:            5252525252525252525252525252525252525252525252525252525252525252
Plaintext:                0000000000000000000000000000000000
Ciphertext:               f07b3a2add62819544e7e8e920d87f3943b13e3d393c3102c613e19a509ca684f0
Reciphers for ciphertext: 0
Decipheredtext:           0000000000000000000000000000000000
RESULT CIPHER-DECIPHER: -----OK-----


Test: 83
Data unit:   83
Start block: 167
Symmetric key bit length: 256
Plaintext bit length:     136
Symmetric key:            5353535353535353535353535353535353535353535353535353535353535353
Plaintext:                0000000000000000000000000000000000
Ciphertext:               677a9161142a038708458035194a8b0f54c89efbcab69472efabe98a61d160cf67
Reciphers for ciphertext: 0
Decipheredtext:           0000000000000000000000000000000000
RESULT CIPHER-DECIPHER: -----OK-----


Test: 84
Data unit:   84
Start block: 169
Symmetric key bit length: 256
Plaintext bit length:     136
Symmetric key:            5454545454545454545454545454545454545454545454545454545454545454
Plaintext:                0000000000000000000000000000000000
Ciphertext:               12ceafdef69a82c6bdff3b2c291a336855bce5d7ad57441c2425137a323219ed12
Reciphers for ciphertext: 0
Decipheredtext:           0000000000000000000000000000000000
RESULT CIPHER-DECIPHER: -----OK-----


Test: 85
Data unit:   85
Start block: 171
Symmetric key bit length: 256
Plaintext bit length:     136
Symmetric key:            5555555555555555555555555555555555555555555555555555555555555555
Plaintext:                0000000000000000000000000000000000
Ciphertext:               a68a629656adcb36f3933de2f5cd000fe94f56067306613e099c71d09b80fccda6
Reciphers for ciphertext: 0
Decipheredtext:           0000000000000000000000000000000000
RESULT CIPHER-DECIPHER: -----OK-----


Test: 86
Data unit:   86
Start block: 173
Symmetric key bit length: 256
Plaintext bit length:     136
Symmetric key:            5656565656565656565656565656565656565656565656565656565656565656
Plaintext:                0000000000000000000000000000000000
Ciphertext:               3f18527299bbb2be786307ce5d4bbcbaa0b5eb689e9d29f7bb074f6b07d199213f
Reciphers for ciphertext: 0
Decipheredtext:           0000000000000000000000000000000000
RESULT CIPHER-DECIPHER: -----OK-----


Test: 87
Data unit:   87
Start block: 175
Symmetric key bit length: 256
Plaintext bit length:     136
Symmetric key:            5757575757575757575757575757575757575757575757575757575757575757
Plaintext:                0000000000000000000000000000000000
Ciphertext:               1ccc671cb1b8b3c98dd3dbb0af11e7499502c49baa0c11781e7ee43bafb73e031c
Reciphers for ciphertext: 0
Decipheredtext:           0000000000000000000000000000000000
RESULT CIPHER-DECIPHER: -----OK-----


Test: 88
Data unit:   88
Start block: 177
Symmetric key bit length: 256
Plaintext bit length:     136
Symmetric key:            5858585858585858585858585858585858585858585858585858585858585858
Plaintext:                0000000000000000000000000000000000
Ciphertext:               3b876c1dd28bfe3398f9a3311f1ad95fe86d65106f24d96c2baf4ae119b897403b
Reciphers for ciphertext: 0
Decipheredtext:           0000000000000000000000000000000000
RESULT CIPHER-DECIPHER: -----OK-----


Test: 89
Data unit:   89
Start block: 179
Symmetric key bit length: 256
Plaintext bit length:     136
Symmetric key:            5959595959595959595959595959595959595959595959595959595959595959
Plaintext:                0000000000000000000000000000000000
Ciphertext:               a291faaa25e811b681bc1757f6cd99b3c0c7f75eb4b97af5b378b58b8fcb2c0fa2
Reciphers for ciphertext: 0
Decipheredtext:           0000000000000000000000000000000000
RESULT CIPHER-DECIPHER: -----OK-----


Test: 90
Data unit:   90
Start block: 181
Symmetric key bit length: 256
Plaintext bit length:     136
Symmetric key:            5a5a5a5a5a5a5a5a5a5a5a5a5a5a5a5a5a5a5a5a5a5a5a5a5a5a5a5a5a5a5a5a
Plaintext:                0000000000000000000000000000000000
Ciphertext:               be8a633e93d8f87bf489be04ed042686b4bd2380d19f38cec7d241ba1adaf509be
Reciphers for ciphertext: 0
Decipheredtext:           0000000000000000000000000000000000
RESULT CIPHER-DECIPHER: -----OK-----


Test: 91
Data unit:   91
Start block: 183
Symmetric key bit length: 256
Plaintext bit length:     136
Symmetric key:            5b5b5b5b5b5b5b5b5b5b5b5b5b5b5b5b5b5b5b5b5b5b5b5b5b5b5b5b5b5b5b5b
Plaintext:                0000000000000000000000000000000000
Ciphertext:               80fa6188f365687cd8c996ae2eb554cbfd0a49b014fea1df2da0527162ba4b2d80
Reciphers for ciphertext: 0
Decipheredtext:           0000000000000000000000000000000000
RESULT CIPHER-DECIPHER: -----OK-----


Test: 92
Data unit:   92
Start block: 185
Symmetric key bit length: 256
Plaintext bit length:     136
Symmetric key:            5c5c5c5c5c5c5c5c5c5c5c5c5c5c5c5c5c5c5c5c5c5c5c5c5c5c5c5c5c5c5c5c
Plaintext:                0000000000000000000000000000000000
Ciphertext:               5a8f41629149dc6937b500ae77c207d9e0fded64d90be7730da8cfc48b4a34fe5a
Reciphers for ciphertext: 0
Decipheredtext:           0000000000000000000000000000000000
RESULT CIPHER-DECIPHER: -----OK-----


Test: 93
Data unit:   93
Start block: 187
Symmetric key bit length: 256
Plaintext bit length:     136
Symmetric key:            5d5d5d5d5d5d5d5d5d5d5d5d5d5d5d5d5d5d5d5d5d5d5d5d5d5d5d5d5d5d5d5d
Plaintext:                0000000000000000000000000000000000
Ciphertext:               462f356c807382bb43bed424b3b98ef880539974e856eda0844bddfd2b9363cf46
Reciphers for ciphertext: 0
Decipheredtext:           0000000000000000000000000000000000
RESULT CIPHER-DECIPHER: -----OK-----


Test: 94
Data unit:   94
Start block: 189
Symmetric key bit length: 256
Plaintext bit length:     136
Symmetric key:            5e5e5e5e5e5e5e5e5e5e5e5e5e5e5e5e5e5e5e5e5e5e5e5e5e5e5e5e5e5e5e5e
Plaintext:                0000000000000000000000000000000000
Ciphertext:               64fef4fda1d0612e640e92b631142059be70fbccf52e5ae14e2279514ecb592a64
Reciphers for ciphertext: 0
Decipheredtext:           0000000000000000000000000000000000
RESULT CIPHER-DECIPHER: -----OK-----


Test: 95
Data unit:   95
Start block: 191
Symmetric key bit length: 256
Plaintext bit length:     136
Symmetric key:            5f5f5f5f5f5f5f5f5f5f5f5f5f5f5f5f5f5f5f5f5f5f5f5f5f5f5f5f5f5f5f5f
Plaintext:                0000000000000000000000000000000000
Ciphertext:               f19318bcf8a173ee6e50e53fb8e571320d34bf1b3e71155ac9400f09666e7118f1
Reciphers for ciphertext: 0
Decipheredtext:           0000000000000000000000000000000000
RESULT CIPHER-DECIPHER: -----OK-----


Test: 96
Data unit:   96
Start block: 193
Symmetric key bit length: 256
Plaintext bit length:     136
Symmetric key:            6060606060606060606060606060606060606060606060606060606060606060
Plaintext:                0000000000000000000000000000000000
Ciphertext:               e0b2e47ccd3df6ded646cd52621fb1c3c32b6a556ed4f6e8b414ffd1eb0bf9d3e0
Reciphers for ciphertext: 0
Decipheredtext:           0000000000000000000000000000000000
RESULT CIPHER-DECIPHER: -----OK-----


Test: 97
Data unit:   97
Start block: 195
Symmetric key bit length: 256
Plaintext bit length:     136
Symmetric key:            6161616161616161616161616161616161616161616161616161616161616161
Plaintext:                0000000000000000000000000000000000
Ciphertext:               f423776e3c3d5e18b602c9ef763669e5a96992be6aed03f94cbe4adb1ff139fcf4
Reciphers for ciphertext: 0
Decipheredtext:           0000000000000000000000000000000000
RESULT CIPHER-DECIPHER: -----OK-----


Test: 98
Data unit:   98
Start block: 197
Symmetric key bit length: 256
Plaintext bit length:     136
Symmetric key:            6262626262626262626262626262626262626262626262626262626262626262
Plaintext:                0000000000000000000000000000000000
Ciphertext:               4ef4d7531825b54c01da319b4528260defb3f0f624381fce556957b3c65c71a84e
Reciphers for ciphertext: 0
Decipheredtext:           0000000000000000000000000000000000
RESULT CIPHER-DECIPHER: -----OK-----


Test: 99
Data unit:   99
Start block: 199
Symmetric key bit length: 256
Plaintext bit length:     136
Symmetric key:            6363636363636363636363636363636363636363636363636363636363636363
Plaintext:                0000000000000000000000000000000000
Ciphertext:               9b89dc14b4cfa0f7e2c920fa329cbaa902420060392d393a4aa5245e3cb1a2ec9b
Reciphers for ciphertext: 0
Decipheredtext:           0000000000000000000000000000000000
RESULT CIPHER-DECIPHER: -----OK-----


Test: 100
Data unit:   100
Start block: 201
Symmetric key bit length: 256
Plaintext bit length:     136
Symmetric key:            6464646464646464646464646464646464646464646464646464646464646464
Plaintext:                0000000000000000000000000000000000
Ciphertext:               967e1faca9b511a761b3f1eb79c028e0491b097bf80095ddb98488cad1e5a1af96
Reciphers for ciphertext: 0
Decipheredtext:           0000000000000000000000000000000000
RESULT CIPHER-DECIPHER: -----OK-----


Test: 101
Data unit:   101
Start block: 203
Symmetric key bit length: 256
Plaintext bit length:     136
Symmetric key:            6565656565656565656565656565656565656565656565656565656565656565
Plaintext:                0000000000000000000000000000000000
Ciphertext:               cbb757dfcbf6d4acfe2a09884804768dd7109e6ca0bac02b7102acee11480a88cb
Reciphers for ciphertext: 0
Decipheredtext:           0000000000000000000000000000000000
RESULT CIPHER-DECIPHER: -----OK-----


Test: 102
Data unit:   102
Start block: 205
Symmetric key bit length: 256
Plaintext bit length:     136
Symmetric key:            6666666666666666666666666666666666666666666666666666666666666666
Plaintext:                0000000000000000000000000000000000
Ciphertext:               41515033630aa4354f1fedce89ec588da5840e5c851c4e40455b9858de50684941
Reciphers for ciphertext: 0
Decipheredtext:           0000000000000000000000000000000000
RESULT CIPHER-DECIPHER: -----OK-----


Test: 103
Data unit:   103
Start block: 207
Symmetric key bit length: 256
Plaintext bit length:     136
Symmetric key:            6767676767676767676767676767676767676767676767676767676767676767
Plaintext:                0000000000000000000000000000000000
Ciphertext:               2f8f5ebafde78817cdeefff528c156e0a4149f9b1c507fc8479f5706c599cec12f
Reciphers for ciphertext: 0
Decipheredtext:           0000000000000000000000000000000000
RESULT CIPHER-DECIPHER: -----OK-----


Test: 104
Data unit:   104
Start block: 209
Symmetric key bit length: 256
Plaintext bit length:     136
Symmetric key:            6868686868686868686868686868686868686868686868686868686868686868
Plaintext:                0000000000000000000000000000000000
Ciphertext:               46f02846089989554e84bb237a71e6eaf6002a0548f06bc0b3c0db76c9e587f646
Reciphers for ciphertext: 0
Decipheredtext:           0000000000000000000000000000000000
RESULT CIPHER-DECIPHER: -----OK-----


Test: 105
Data unit:   105
Start block: 211
Symmetric key bit length: 256
Plaintext bit length:     136
Symmetric key:            6969696969696969696969696969696969696969696969696969696969696969
Plaintext:                0000000000000000000000000000000000
Ciphertext:               15e9e0daa606b6b24b6e9a5787a099aac8aac23e0d40342aefe6cb4547ed49cf15
Reciphers for ciphertext: 0
Decipheredtext:           0000000000000000000000000000000000
RESULT CIPHER-DECIPHER: -----OK-----


Test: 106
Data unit:   106
Start block: 213
Symmetric key bit length: 256
Plaintext bit length:     136
Symmetric key:            6a6a6a6a6a6a6a6a6a6a6a6a6a6a6a6a6a6a6a6a6a6a6a6a6a6a6a6a6a6a6a6a
Plaintext:                0000000000000000000000000000000000
Ciphertext:               703a835547c865037d1cf8ade7c37188d8c64e8ebc632011164b82aa93efc6c670
Reciphers for ciphertext: 0
Decipheredtext:           0000000000000000000000000000000000
RESULT CIPHER-DECIPHER: -----OK-----


Test: 107
Data unit:   107
Start block: 215
Symmetric key bit length: 256
Plaintext bit length:     136
Symmetric key:            6b6b6b6b6b6b6b6b6b6b6b6b6b6b6b6b6b6b6b6b6b6b6b6b6b6b6b6b6b6b6b6b
Plaintext:                0000000000000000000000000000000000
Ciphertext:               f77fcc3389ba0f7a918c10a3c1c7125c545b4e9464e5d85a276513dcc6086511f7
Reciphers for ciphertext: 0
Decipheredtext:           0000000000000000000000000000000000
RESULT CIPHER-DECIPHER: -----OK-----


Test: 108
Data unit:   108
Start block: 217
Symmetric key bit length: 256
Plaintext bit length:     136
Symmetric key:            6c6c6c6c6c6c6c6c6c6c6c6c6c6c6c6c6c6c6c6c6c6c6c6c6c6c6c6c6c6c6c6c
Plaintext:                0000000000000000000000000000000000
Ciphertext:               7751d51d0ac90dca83ead3031209a6acdac5064ebb3403c88936069ed12285b977
Reciphers for ciphertext: 0
Decipheredtext:           0000000000000000000000000000000000
RESULT CIPHER-DECIPHER: -----OK-----


Test: 109
Data unit:   109
Start block: 219
Symmetric key bit length: 256
Plaintext bit length:     136
Symmetric key:            6d6d6d6d6d6d6d6d6d6d6d6d6d6d6d6d6d6d6d6d6d6d6d6d6d6d6d6d6d6d6d6d
Plaintext:                0000000000000000000000000000000000
Ciphertext:               eb9463dd75848267746d0ca5cfe71dc9766a1766b351d2f77e1a6c9648449fedeb
Reciphers for ciphertext: 0
Decipheredtext:           0000000000000000000000000000000000
RESULT CIPHER-DECIPHER: -----OK-----


Test: 110
Data unit:   110
Start block: 221
Symmetric key bit length: 256
Plaintext bit length:     136
Symmetric key:            6e6e6e6e6e6e6e6e6e6e6e6e6e6e6e6e6e6e6e6e6e6e6e6e6e6e6e6e6e6e6e6e
Plaintext:                0000000000000000000000000000000000
Ciphertext:               fedb0d681b21c8c4ec2cef1c0c1ac57d858ce6670d9febbcf695249dbe02dc34fe
Reciphers for ciphertext: 0
Decipheredtext:           0000000000000000000000000000000000
RESULT CIPHER-DECIPHER: -----OK-----


Test: 111
Data unit:   111
Start block: 223
Symmetric key bit length: 256
Plaintext bit length:     136
Symmetric key:            6f6f6f6f6f6f6f6f6f6f6f6f6f6f6f6f6f6f6f6f6f6f6f6f6f6f6f6f6f6f6f6f
Plaintext:                0000000000000000000000000000000000
Ciphertext:               c7aa7088a1b465f8f95c054d27e271e56b06f6f7e96f05a207f123c859c63b6cc7
Reciphers for ciphertext: 0
Decipheredtext:           0000000000000000000000000000000000
RESULT CIPHER-DECIPHER: -----OK-----


Test: 112
Data unit:   112
Start block: 225
Symmetric key bit length: 256
Plaintext bit length:     136
Symmetric key:            7070707070707070707070707070707070707070707070707070707070707070
Plaintext:                0000000000000000000000000000000000
Ciphertext:               de31e694d99f6d713dd74dffbd3875033e844963f7299548db8a273ffbab876ade
Reciphers for ciphertext: 0
Decipheredtext:           0000000000000000000000000000000000
RESULT CIPHER-DECIPHER: -----OK-----


Test: 113
Data unit:   113
Start block: 227
Symmetric key bit length: 256
Plaintext bit length:     136
Symmetric key:            7171717171717171717171717171717171717171717171717171717171717171
Plaintext:                0000000000000000000000000000000000
Ciphertext:               f313a1deba8e1a7f77445e2526f91fc6803752e585c0e755886e870a8353cbecf3
Reciphers for ciphertext: 0
Decipheredtext:           0000000000000000000000000000000000
RESULT CIPHER-DECIPHER: -----OK-----


Test: 114
Data unit:   114
Start block: 229
Symmetric key bit length: 256
Plaintext bit length:     136
Symmetric key:            7272727272727272727272727272727272727272727272727272727272727272
Plaintext:                0000000000000000000000000000000000
Ciphertext:               ff0270a27633e5142bf68b06c02352dc98d40204c4e9adf7efb963afa65d506fff
Reciphers for ciphertext: 0
Decipheredtext:           0000000000000000000000000000000000
RESULT CIPHER-DECIPHER: -----OK-----


Test: 115
Data unit:   115
Start block: 231
Symmetric key bit length: 256
Plaintext bit length:     136
Symmetric key:            7373737373737373737373737373737373737373737373737373737373737373
Plaintext:                0000000000000000000000000000000000
Ciphertext:               37502c932f4342768703d08906c69a77f3c7ee9ff1a62e9199e967c24067866437
Reciphers for ciphertext: 0
Decipheredtext:           0000000000000000000000000000000000
RESULT CIPHER-DECIPHER: -----OK-----


Test: 116
Data unit:   116
Start block: 233
Symmetric key bit length: 256
Plaintext bit length:     136
Symmetric key:            7474747474747474747474747474747474747474747474747474747474747474
Plaintext:                0000000000000000000000000000000000
Ciphertext:               bd855545a01bb97d64777fb3ad0761016b6530293ee0d64482eef63a2892053fbd
Reciphers for ciphertext: 0
Decipheredtext:           0000000000000000000000000000000000
RESULT CIPHER-DECIPHER: -----OK-----


Test: 117
Data unit:   117
Start block: 235
Symmetric key bit length: 256
Plaintext bit length:     136
Symmetric key:            7575757575757575757575757575757575757575757575757575757575757575
Plaintext:                0000000000000000000000000000000000
Ciphertext:               905cd8e4719b4e70d243234591b2b331cabf925c36491857be29934c33206b9390
Reciphers for ciphertext: 0
Decipheredtext:           0000000000000000000000000000000000
RESULT CIPHER-DECIPHER: -----OK-----


Test: 118
Data unit:   118
Start block: 237
Symmetric key bit length: 256
Plaintext bit length:     136
Symmetric key:            7676767676767676767676767676767676767676767676767676767676767676
Plaintext:                0000000000000000000000000000000000
Ciphertext:               ac738881629a4a1d9d658d5034e6600ba6cc08f731f4e23fa66cbbd9f2bc4141ac
Reciphers for ciphertext: 0
Decipheredtext:           0000000000000000000000000000000000
RESULT CIPHER-DECIPHER: -----OK-----


Test: 119
Data unit:   119
Start block: 239
Symmetric key bit length: 256
Plaintext bit length:     136
Symmetric key:            7777777777777777777777777777777777777777777777777777777777777777
Plaintext:                0000000000000000000000000000000000
Ciphertext:               b7f430b75a190937ac197ea8f369e14628bb81b560465c5a60e662b1cf8c5044b7
Reciphers for ciphertext: 0
Decipheredtext:           0000000000000000000000000000000000
RESULT CIPHER-DECIPHER: -----OK-----


Test: 120
Data unit:   120
Start block: 241
Symmetric key bit length: 256
Plaintext bit length:     136
Symmetric key:            7878787878787878787878787878787878787878787878787878787878787878
Plaintext:                0000000000000000000000000000000000
Ciphertext:               1286a829659410e085f8c64842c59c90f82e2774581d3d287155442619cf864712
Reciphers for ciphertext: 0
Decipheredtext:           0000000000000000000000000000000000
RESULT CIPHER-DECIPHER: -----OK-----


Test: 121
Data unit:   121
Start block: 243
Symmetric key bit length: 256
Plaintext bit length:     136
Symmetric key:            7979797979797979797979797979797979797979797979797979797979797979
Plaintext:                0000000000000000000000000000000000
Ciphertext:               bbb502975bdf7283ad8217b92dea19c8e0f37158cbebad61a05727bb2ec323b8bb
Reciphers for ciphertext: 0
Decipheredtext:           0000000000000000000000000000000000
RESULT CIPHER-DECIPHER: -----OK-----


Test: 122
Data unit:   122
Start block: 245
Symmetric key bit length: 256
Plaintext bit length:     136
Symmetric key:            7a7a7a7a7a7a7a7a7a7a7a7a7a7a7a7a7a7a7a7a7a7a7a7a7a7a7a7a7a7a7a7a
Plaintext:                0000000000000000000000000000000000
Ciphertext:               d4625c9410c19b2151d60b9c865a6af7b6ded915b539960ba27f31660e36d742d4
Reciphers for ciphertext: 0
Decipheredtext:           0000000000000000000000000000000000
RESULT CIPHER-DECIPHER: -----OK-----


Test: 123
Data unit:   123
Start block: 247
Symmetric key bit length: 256
Plaintext bit length:     136
Symmetric key:            7b7b7b7b7b7b7b7b7b7b7b7b7b7b7b7b7b7b7b7b7b7b7b7b7b7b7b7b7b7b7b7b
Plaintext:                0000000000000000000000000000000000
Ciphertext:               cb16fed98b7099cb9036d938ed4234f04b2dea23e34a1c6b74b71ffab7362b1ecb
Reciphers for ciphertext: 0
Decipheredtext:           0000000000000000000000000000000000
RESULT CIPHER-DECIPHER: -----OK-----


Test: 124
Data unit:   124
Start block: 249
Symmetric key bit length: 256
Plaintext bit length:     136
Symmetric key:            7c7c7c7c7c7c7c7c7c7c7c7c7c7c7c7c7c7c7c7c7c7c7c7c7c7c7c7c7c7c7c7c
Plaintext:                0000000000000000000000000000000000
Ciphertext:               c74498ec7943b904a8a89a2153dfcb89c82960ae6a9df5b3ff4f6a1687d34779c7
Reciphers for ciphertext: 0
Decipheredtext:           0000000000000000000000000000000000
RESULT CIPHER-DECIPHER: -----OK-----


Test: 125
Data unit:   125
Start block: 251
Symmetric key bit length: 256
Plaintext bit length:     136
Symmetric key:            7d7d7d7d7d7d7d7d7d7d7d7d7d7d7d7d7d7d7d7d7d7d7d7d7d7d7d7d7d7d7d7d
Plaintext:                0000000000000000000000000000000000
Ciphertext:               0abc279a1fe510d941b147b65c7e51d95fd5fecdb4c2a8a1d3009d85062cfc6f0a
Reciphers for ciphertext: 0
Decipheredtext:           0000000000000000000000000000000000
RESULT CIPHER-DECIPHER: -----OK-----


Test: 126
Data unit:   126
Start block: 253
Symmetric key bit length: 256
Plaintext bit length:     136
Symmetric key:            7e7e7e7e7e7e7e7e7e7e7e7e7e7e7e7e7e7e7e7e7e7e7e7e7e7e7e7e7e7e7e7e
Plaintext:                0000000000000000000000000000000000
Ciphertext:               176b414262a99310b1e467115a8f171fb4b1ded71a984a5a1f8b5fac528719bf17
Reciphers for ciphertext: 0
Decipheredtext:           0000000000000000000000000000000000
RESULT CIPHER-DECIPHER: -----OK-----


Test: 127
Data unit:   127
Start block: 255
Symmetric key bit length: 256
Plaintext bit length:     136
Symmetric key:            7f7f7f7f7f7f7f7f7f7f7f7f7f7f7f7f7f7f7f7f7f7f7f7f7f7f7f7f7f7f7f7f
Plaintext:                0000000000000000000000000000000000
Ciphertext:               59fcffb12880a468bae3edb5654b2afe138b6febe38ba27b2ac1c7b43b27ca1859
Reciphers for ciphertext: 0
Decipheredtext:           0000000000000000000000000000000000
RESULT CIPHER-DECIPHER: -----OK-----


 DATA SHA1 (hexadecimal): 5b5ac46e8d9905fb4fd12425495c2120086dc221

