
DiceLock 9.0.0.1

 TEST COMPONENTS:
 ----------------
 DiceLock:           DiceLockXTSIndexed class
 Operation Mode:     XTS_Mode class
 Block Cipher:       Camellia192 class
 Key Modifier:       IncreaseBase0IndexModifier_6_0_0_1 class
   Index bit length: 128
 Random tests:       RandomTestSuite class
                     FrequencyTest class
                     BlockFrequencyTest class
                     CumulativeSumForwardTest class
                     LongestRunOfOnesTest class
                     RunsTest class
 Random alpha:       0.001

 VECTOR TEST: Test vector 1 - Changing plaintext, shifting 1 bit set


##### INDIVIDUAL TESTS #####

Number tests: 128


Test: 0
Data unit:   0
Start block: 0
Symmetric key bit length: 384
Plaintext bit length:     128
Symmetric key:            000000000000000000000000000000000000000000000000000000000000000000000000000000000000000000000000
Plaintext:                80000000000000000000000000000000
Ciphertext:               62b5b23b94cbbdf6579661879deace2e2662a43c0424171a2ff219ab043dcc90
Reciphers for ciphertext: 0
Decipheredtext:           80000000000000000000000000000000
RESULT CIPHER-DECIPHER: -----OK-----


Test: 1
Data unit:   0
Start block: 0
Symmetric key bit length: 384
Plaintext bit length:     128
Symmetric key:            000000000000000000000000000000000000000000000000000000000000000000000000000000000000000000000000
Plaintext:                40000000000000000000000000000000
Ciphertext:               62b5b23b94cbbdf6579661879deace2e5e833aa7fb3b060d8ab57f94327fe170
Reciphers for ciphertext: 0
Decipheredtext:           40000000000000000000000000000000
RESULT CIPHER-DECIPHER: -----OK-----


Test: 2
Data unit:   0
Start block: 0
Symmetric key bit length: 384
Plaintext bit length:     128
Symmetric key:            000000000000000000000000000000000000000000000000000000000000000000000000000000000000000000000000
Plaintext:                20000000000000000000000000000000
Ciphertext:               62b5b23b94cbbdf6579661879deace2eb780fc955f7f05469277c8e2c1d3f693
Reciphers for ciphertext: 0
Decipheredtext:           20000000000000000000000000000000
RESULT CIPHER-DECIPHER: -----OK-----


Test: 3
Data unit:   0
Start block: 0
Symmetric key bit length: 384
Plaintext bit length:     128
Symmetric key:            000000000000000000000000000000000000000000000000000000000000000000000000000000000000000000000000
Plaintext:                10000000000000000000000000000000
Ciphertext:               62b5b23b94cbbdf6579661879deace2eec982c9daa13be74cec89ab1335bce69
Reciphers for ciphertext: 0
Decipheredtext:           10000000000000000000000000000000
RESULT CIPHER-DECIPHER: -----OK-----


Test: 4
Data unit:   0
Start block: 0
Symmetric key bit length: 384
Plaintext bit length:     128
Symmetric key:            000000000000000000000000000000000000000000000000000000000000000000000000000000000000000000000000
Plaintext:                08000000000000000000000000000000
Ciphertext:               62b5b23b94cbbdf6579661879deace2eb05f744785e0b0a851cd375876d0223c
Reciphers for ciphertext: 0
Decipheredtext:           08000000000000000000000000000000
RESULT CIPHER-DECIPHER: -----OK-----


Test: 5
Data unit:   0
Start block: 0
Symmetric key bit length: 384
Plaintext bit length:     128
Symmetric key:            000000000000000000000000000000000000000000000000000000000000000000000000000000000000000000000000
Plaintext:                04000000000000000000000000000000
Ciphertext:               62b5b23b94cbbdf6579661879deace2eb47832b996ad902dbb22fd6c87bf40f3
Reciphers for ciphertext: 0
Decipheredtext:           04000000000000000000000000000000
RESULT CIPHER-DECIPHER: -----OK-----


Test: 6
Data unit:   0
Start block: 0
Symmetric key bit length: 384
Plaintext bit length:     128
Symmetric key:            000000000000000000000000000000000000000000000000000000000000000000000000000000000000000000000000
Plaintext:                02000000000000000000000000000000
Ciphertext:               62b5b23b94cbbdf6579661879deace2e23ed29a7f20c72d4d716f2392a5c9877
Reciphers for ciphertext: 0
Decipheredtext:           02000000000000000000000000000000
RESULT CIPHER-DECIPHER: -----OK-----


Test: 7
Data unit:   0
Start block: 0
Symmetric key bit length: 384
Plaintext bit length:     128
Symmetric key:            000000000000000000000000000000000000000000000000000000000000000000000000000000000000000000000000
Plaintext:                01000000000000000000000000000000
Ciphertext:               62b5b23b94cbbdf6579661879deace2e2c205a162e428d1264727b579152ae93
Reciphers for ciphertext: 0
Decipheredtext:           01000000000000000000000000000000
RESULT CIPHER-DECIPHER: -----OK-----


Test: 8
Data unit:   0
Start block: 0
Symmetric key bit length: 384
Plaintext bit length:     128
Symmetric key:            000000000000000000000000000000000000000000000000000000000000000000000000000000000000000000000000
Plaintext:                00800000000000000000000000000000
Ciphertext:               62b5b23b94cbbdf6579661879deace2e2a3d83cc37b3fb85e6553262824833f4
Reciphers for ciphertext: 0
Decipheredtext:           00800000000000000000000000000000
RESULT CIPHER-DECIPHER: -----OK-----


Test: 9
Data unit:   0
Start block: 0
Symmetric key bit length: 384
Plaintext bit length:     128
Symmetric key:            000000000000000000000000000000000000000000000000000000000000000000000000000000000000000000000000
Plaintext:                00400000000000000000000000000000
Ciphertext:               62b5b23b94cbbdf6579661879deace2e983f7967b27ee85d1dcf350ccf7f7703
Reciphers for ciphertext: 0
Decipheredtext:           00400000000000000000000000000000
RESULT CIPHER-DECIPHER: -----OK-----


Test: 10
Data unit:   0
Start block: 0
Symmetric key bit length: 384
Plaintext bit length:     128
Symmetric key:            000000000000000000000000000000000000000000000000000000000000000000000000000000000000000000000000
Plaintext:                00200000000000000000000000000000
Ciphertext:               2c205a162e428d1264727b579152ae9375c74f8bdf80e8fc3e4d0df0b9e9d614
Reciphers for ciphertext: 1
Decipheredtext:           00200000000000000000000000000000
RESULT CIPHER-DECIPHER: -----OK-----


Test: 11
Data unit:   0
Start block: 0
Symmetric key bit length: 384
Plaintext bit length:     128
Symmetric key:            000000000000000000000000000000000000000000000000000000000000000000000000000000000000000000000000
Plaintext:                00100000000000000000000000000000
Ciphertext:               62b5b23b94cbbdf6579661879deace2ec1180d15640f9f6e43271e587147599d
Reciphers for ciphertext: 0
Decipheredtext:           00100000000000000000000000000000
RESULT CIPHER-DECIPHER: -----OK-----


Test: 12
Data unit:   0
Start block: 0
Symmetric key bit length: 384
Plaintext bit length:     128
Symmetric key:            000000000000000000000000000000000000000000000000000000000000000000000000000000000000000000000000
Plaintext:                00080000000000000000000000000000
Ciphertext:               62b5b23b94cbbdf6579661879deace2e55b6978da54e2e0063049245b8ff30d6
Reciphers for ciphertext: 0
Decipheredtext:           00080000000000000000000000000000
RESULT CIPHER-DECIPHER: -----OK-----


Test: 13
Data unit:   0
Start block: 0
Symmetric key bit length: 384
Plaintext bit length:     128
Symmetric key:            000000000000000000000000000000000000000000000000000000000000000000000000000000000000000000000000
Plaintext:                00040000000000000000000000000000
Ciphertext:               62b5b23b94cbbdf6579661879deace2eba8d305ed8467b51b56d12298dbfe00c
Reciphers for ciphertext: 0
Decipheredtext:           00040000000000000000000000000000
RESULT CIPHER-DECIPHER: -----OK-----


Test: 14
Data unit:   0
Start block: 0
Symmetric key bit length: 384
Plaintext bit length:     128
Symmetric key:            000000000000000000000000000000000000000000000000000000000000000000000000000000000000000000000000
Plaintext:                00020000000000000000000000000000
Ciphertext:               62b5b23b94cbbdf6579661879deace2e0002a475391a42ccb5f2e4e16ee695e6
Reciphers for ciphertext: 0
Decipheredtext:           00020000000000000000000000000000
RESULT CIPHER-DECIPHER: -----OK-----


Test: 15
Data unit:   0
Start block: 0
Symmetric key bit length: 384
Plaintext bit length:     128
Symmetric key:            000000000000000000000000000000000000000000000000000000000000000000000000000000000000000000000000
Plaintext:                00010000000000000000000000000000
Ciphertext:               62b5b23b94cbbdf6579661879deace2ed002f833e7af2a295e6b621f7b862fe3
Reciphers for ciphertext: 0
Decipheredtext:           00010000000000000000000000000000
RESULT CIPHER-DECIPHER: -----OK-----


Test: 16
Data unit:   0
Start block: 0
Symmetric key bit length: 384
Plaintext bit length:     128
Symmetric key:            000000000000000000000000000000000000000000000000000000000000000000000000000000000000000000000000
Plaintext:                00008000000000000000000000000000
Ciphertext:               62b5b23b94cbbdf6579661879deace2e893f2bcaec13e568e1c84ff333035856
Reciphers for ciphertext: 0
Decipheredtext:           00008000000000000000000000000000
RESULT CIPHER-DECIPHER: -----OK-----


Test: 17
Data unit:   0
Start block: 0
Symmetric key bit length: 384
Plaintext bit length:     128
Symmetric key:            000000000000000000000000000000000000000000000000000000000000000000000000000000000000000000000000
Plaintext:                00004000000000000000000000000000
Ciphertext:               62b5b23b94cbbdf6579661879deace2e7581739773fe5aadb3c2bb78b99d6252
Reciphers for ciphertext: 0
Decipheredtext:           00004000000000000000000000000000
RESULT CIPHER-DECIPHER: -----OK-----


Test: 18
Data unit:   0
Start block: 0
Symmetric key bit length: 384
Plaintext bit length:     128
Symmetric key:            000000000000000000000000000000000000000000000000000000000000000000000000000000000000000000000000
Plaintext:                00002000000000000000000000000000
Ciphertext:               62b5b23b94cbbdf6579661879deace2e0e4d8feb8c8e1768e8f37797e3c6ca1e
Reciphers for ciphertext: 0
Decipheredtext:           00002000000000000000000000000000
RESULT CIPHER-DECIPHER: -----OK-----


Test: 19
Data unit:   0
Start block: 0
Symmetric key bit length: 384
Plaintext bit length:     128
Symmetric key:            000000000000000000000000000000000000000000000000000000000000000000000000000000000000000000000000
Plaintext:                00001000000000000000000000000000
Ciphertext:               62b5b23b94cbbdf6579661879deace2e0a73e4860f1693b59eec03bdcab8f9a6
Reciphers for ciphertext: 0
Decipheredtext:           00001000000000000000000000000000
RESULT CIPHER-DECIPHER: -----OK-----


Test: 20
Data unit:   0
Start block: 0
Symmetric key bit length: 384
Plaintext bit length:     128
Symmetric key:            000000000000000000000000000000000000000000000000000000000000000000000000000000000000000000000000
Plaintext:                00000800000000000000000000000000
Ciphertext:               62b5b23b94cbbdf6579661879deace2edea0cd69699291485364f589e7a5e7a4
Reciphers for ciphertext: 0
Decipheredtext:           00000800000000000000000000000000
RESULT CIPHER-DECIPHER: -----OK-----


Test: 21
Data unit:   0
Start block: 0
Symmetric key bit length: 384
Plaintext bit length:     128
Symmetric key:            000000000000000000000000000000000000000000000000000000000000000000000000000000000000000000000000
Plaintext:                00000400000000000000000000000000
Ciphertext:               62b5b23b94cbbdf6579661879deace2eb6c1bfb4e67a8478f197da4e1722d4e3
Reciphers for ciphertext: 0
Decipheredtext:           00000400000000000000000000000000
RESULT CIPHER-DECIPHER: -----OK-----


Test: 22
Data unit:   0
Start block: 0
Symmetric key bit length: 384
Plaintext bit length:     128
Symmetric key:            000000000000000000000000000000000000000000000000000000000000000000000000000000000000000000000000
Plaintext:                00000200000000000000000000000000
Ciphertext:               62b5b23b94cbbdf6579661879deace2efdfb72614dbdcc02d19083c5879849b8
Reciphers for ciphertext: 0
Decipheredtext:           00000200000000000000000000000000
RESULT CIPHER-DECIPHER: -----OK-----


Test: 23
Data unit:   0
Start block: 0
Symmetric key bit length: 384
Plaintext bit length:     128
Symmetric key:            000000000000000000000000000000000000000000000000000000000000000000000000000000000000000000000000
Plaintext:                00000100000000000000000000000000
Ciphertext:               62b5b23b94cbbdf6579661879deace2e8382cf306fb21762bab272e41ea8bfbb
Reciphers for ciphertext: 0
Decipheredtext:           00000100000000000000000000000000
RESULT CIPHER-DECIPHER: -----OK-----


Test: 24
Data unit:   0
Start block: 0
Symmetric key bit length: 384
Plaintext bit length:     128
Symmetric key:            000000000000000000000000000000000000000000000000000000000000000000000000000000000000000000000000
Plaintext:                00000080000000000000000000000000
Ciphertext:               62b5b23b94cbbdf6579661879deace2eee738e8365ab80538c760279045fc125
Reciphers for ciphertext: 0
Decipheredtext:           00000080000000000000000000000000
RESULT CIPHER-DECIPHER: -----OK-----


Test: 25
Data unit:   0
Start block: 0
Symmetric key bit length: 384
Plaintext bit length:     128
Symmetric key:            000000000000000000000000000000000000000000000000000000000000000000000000000000000000000000000000
Plaintext:                00000040000000000000000000000000
Ciphertext:               62b5b23b94cbbdf6579661879deace2e7184a6bcf25e09e7edb36dc082bd059c
Reciphers for ciphertext: 0
Decipheredtext:           00000040000000000000000000000000
RESULT CIPHER-DECIPHER: -----OK-----


Test: 26
Data unit:   0
Start block: 0
Symmetric key bit length: 384
Plaintext bit length:     128
Symmetric key:            000000000000000000000000000000000000000000000000000000000000000000000000000000000000000000000000
Plaintext:                00000020000000000000000000000000
Ciphertext:               62b5b23b94cbbdf6579661879deace2e0c66e79a2d3c485f5b69a7bd145392c7
Reciphers for ciphertext: 0
Decipheredtext:           00000020000000000000000000000000
RESULT CIPHER-DECIPHER: -----OK-----


Test: 27
Data unit:   0
Start block: 0
Symmetric key bit length: 384
Plaintext bit length:     128
Symmetric key:            000000000000000000000000000000000000000000000000000000000000000000000000000000000000000000000000
Plaintext:                00000010000000000000000000000000
Ciphertext:               62b5b23b94cbbdf6579661879deace2e96053f02456c9c094bdcfd7db55f960e
Reciphers for ciphertext: 0
Decipheredtext:           00000010000000000000000000000000
RESULT CIPHER-DECIPHER: -----OK-----


Test: 28
Data unit:   0
Start block: 0
Symmetric key bit length: 384
Plaintext bit length:     128
Symmetric key:            000000000000000000000000000000000000000000000000000000000000000000000000000000000000000000000000
Plaintext:                00000008000000000000000000000000
Ciphertext:               62b5b23b94cbbdf6579661879deace2e00b42d1bec0dbc2ac029676b57efdfbc
Reciphers for ciphertext: 0
Decipheredtext:           00000008000000000000000000000000
RESULT CIPHER-DECIPHER: -----OK-----


Test: 29
Data unit:   0
Start block: 0
Symmetric key bit length: 384
Plaintext bit length:     128
Symmetric key:            000000000000000000000000000000000000000000000000000000000000000000000000000000000000000000000000
Plaintext:                00000004000000000000000000000000
Ciphertext:               62b5b23b94cbbdf6579661879deace2ee5e0d5ebf40f67d94c680a4c8c4a9011
Reciphers for ciphertext: 0
Decipheredtext:           00000004000000000000000000000000
RESULT CIPHER-DECIPHER: -----OK-----


Test: 30
Data unit:   0
Start block: 0
Symmetric key bit length: 384
Plaintext bit length:     128
Symmetric key:            000000000000000000000000000000000000000000000000000000000000000000000000000000000000000000000000
Plaintext:                00000002000000000000000000000000
Ciphertext:               62b5b23b94cbbdf6579661879deace2e588d4e9a0b2acae854c03bd67a42f7c5
Reciphers for ciphertext: 0
Decipheredtext:           00000002000000000000000000000000
RESULT CIPHER-DECIPHER: -----OK-----


Test: 31
Data unit:   0
Start block: 0
Symmetric key bit length: 384
Plaintext bit length:     128
Symmetric key:            000000000000000000000000000000000000000000000000000000000000000000000000000000000000000000000000
Plaintext:                00000001000000000000000000000000
Ciphertext:               62b5b23b94cbbdf6579661879deace2e7d6983c089cc5ca99f7b32ee01ae31e8
Reciphers for ciphertext: 0
Decipheredtext:           00000001000000000000000000000000
RESULT CIPHER-DECIPHER: -----OK-----


Test: 32
Data unit:   0
Start block: 0
Symmetric key bit length: 384
Plaintext bit length:     128
Symmetric key:            000000000000000000000000000000000000000000000000000000000000000000000000000000000000000000000000
Plaintext:                00000000800000000000000000000000
Ciphertext:               62b5b23b94cbbdf6579661879deace2e948bf070dc426bd87d61a9fe0f6c8ade
Reciphers for ciphertext: 0
Decipheredtext:           00000000800000000000000000000000
RESULT CIPHER-DECIPHER: -----OK-----


Test: 33
Data unit:   0
Start block: 0
Symmetric key bit length: 384
Plaintext bit length:     128
Symmetric key:            000000000000000000000000000000000000000000000000000000000000000000000000000000000000000000000000
Plaintext:                00000000400000000000000000000000
Ciphertext:               62b5b23b94cbbdf6579661879deace2ec081d9abed1a40abb5f8b6268bd1f49e
Reciphers for ciphertext: 0
Decipheredtext:           00000000400000000000000000000000
RESULT CIPHER-DECIPHER: -----OK-----


Test: 34
Data unit:   0
Start block: 0
Symmetric key bit length: 384
Plaintext bit length:     128
Symmetric key:            000000000000000000000000000000000000000000000000000000000000000000000000000000000000000000000000
Plaintext:                00000000200000000000000000000000
Ciphertext:               62b5b23b94cbbdf6579661879deace2ecd76f898581f851b3436b3027ae1f6c2
Reciphers for ciphertext: 0
Decipheredtext:           00000000200000000000000000000000
RESULT CIPHER-DECIPHER: -----OK-----


Test: 35
Data unit:   0
Start block: 0
Symmetric key bit length: 384
Plaintext bit length:     128
Symmetric key:            000000000000000000000000000000000000000000000000000000000000000000000000000000000000000000000000
Plaintext:                00000000100000000000000000000000
Ciphertext:               62b5b23b94cbbdf6579661879deace2e30b3779bd5d899b4339dee9fece14246
Reciphers for ciphertext: 0
Decipheredtext:           00000000100000000000000000000000
RESULT CIPHER-DECIPHER: -----OK-----


Test: 36
Data unit:   0
Start block: 0
Symmetric key bit length: 384
Plaintext bit length:     128
Symmetric key:            000000000000000000000000000000000000000000000000000000000000000000000000000000000000000000000000
Plaintext:                00000000080000000000000000000000
Ciphertext:               62b5b23b94cbbdf6579661879deace2eb45802d1475a8e5e8201bfa7c0c66e1e
Reciphers for ciphertext: 0
Decipheredtext:           00000000080000000000000000000000
RESULT CIPHER-DECIPHER: -----OK-----


Test: 37
Data unit:   0
Start block: 0
Symmetric key bit length: 384
Plaintext bit length:     128
Symmetric key:            000000000000000000000000000000000000000000000000000000000000000000000000000000000000000000000000
Plaintext:                00000000040000000000000000000000
Ciphertext:               62b5b23b94cbbdf6579661879deace2ee874d09052d14b6455146386ac1fd1a4
Reciphers for ciphertext: 0
Decipheredtext:           00000000040000000000000000000000
RESULT CIPHER-DECIPHER: -----OK-----


Test: 38
Data unit:   0
Start block: 0
Symmetric key bit length: 384
Plaintext bit length:     128
Symmetric key:            000000000000000000000000000000000000000000000000000000000000000000000000000000000000000000000000
Plaintext:                00000000020000000000000000000000
Ciphertext:               62b5b23b94cbbdf6579661879deace2ed7ae0bdb9b08b80db29caa0be08600e5
Reciphers for ciphertext: 0
Decipheredtext:           00000000020000000000000000000000
RESULT CIPHER-DECIPHER: -----OK-----


Test: 39
Data unit:   0
Start block: 0
Symmetric key bit length: 384
Plaintext bit length:     128
Symmetric key:            000000000000000000000000000000000000000000000000000000000000000000000000000000000000000000000000
Plaintext:                00000000010000000000000000000000
Ciphertext:               62b5b23b94cbbdf6579661879deace2e3a7005d9b4fef5cd55909724b49538fd
Reciphers for ciphertext: 0
Decipheredtext:           00000000010000000000000000000000
RESULT CIPHER-DECIPHER: -----OK-----


Test: 40
Data unit:   0
Start block: 0
Symmetric key bit length: 384
Plaintext bit length:     128
Symmetric key:            000000000000000000000000000000000000000000000000000000000000000000000000000000000000000000000000
Plaintext:                00000000008000000000000000000000
Ciphertext:               62b5b23b94cbbdf6579661879deace2e031336896df13042b8636df29ae40c6f
Reciphers for ciphertext: 0
Decipheredtext:           00000000008000000000000000000000
RESULT CIPHER-DECIPHER: -----OK-----


Test: 41
Data unit:   0
Start block: 0
Symmetric key bit length: 384
Plaintext bit length:     128
Symmetric key:            000000000000000000000000000000000000000000000000000000000000000000000000000000000000000000000000
Plaintext:                00000000004000000000000000000000
Ciphertext:               62b5b23b94cbbdf6579661879deace2e07cfb0d1082de312ed45a8bb560e95d8
Reciphers for ciphertext: 0
Decipheredtext:           00000000004000000000000000000000
RESULT CIPHER-DECIPHER: -----OK-----


Test: 42
Data unit:   0
Start block: 0
Symmetric key bit length: 384
Plaintext bit length:     128
Symmetric key:            000000000000000000000000000000000000000000000000000000000000000000000000000000000000000000000000
Plaintext:                00000000002000000000000000000000
Ciphertext:               62b5b23b94cbbdf6579661879deace2e5e468333be68ce2dfbc6cf2328308223
Reciphers for ciphertext: 0
Decipheredtext:           00000000002000000000000000000000
RESULT CIPHER-DECIPHER: -----OK-----


Test: 43
Data unit:   0
Start block: 0
Symmetric key bit length: 384
Plaintext bit length:     128
Symmetric key:            000000000000000000000000000000000000000000000000000000000000000000000000000000000000000000000000
Plaintext:                00000000001000000000000000000000
Ciphertext:               62b5b23b94cbbdf6579661879deace2e87762245ded74b199fcaadb1f32288e1
Reciphers for ciphertext: 0
Decipheredtext:           00000000001000000000000000000000
RESULT CIPHER-DECIPHER: -----OK-----


Test: 44
Data unit:   0
Start block: 0
Symmetric key bit length: 384
Plaintext bit length:     128
Symmetric key:            000000000000000000000000000000000000000000000000000000000000000000000000000000000000000000000000
Plaintext:                00000000000800000000000000000000
Ciphertext:               62b5b23b94cbbdf6579661879deace2edae32f44a4af7e8dbbccc56270cfbacd
Reciphers for ciphertext: 0
Decipheredtext:           00000000000800000000000000000000
RESULT CIPHER-DECIPHER: -----OK-----


Test: 45
Data unit:   0
Start block: 0
Symmetric key bit length: 384
Plaintext bit length:     128
Symmetric key:            000000000000000000000000000000000000000000000000000000000000000000000000000000000000000000000000
Plaintext:                00000000000400000000000000000000
Ciphertext:               62b5b23b94cbbdf6579661879deace2e4a2c38f52343a9a90d2ba4c7c3677428
Reciphers for ciphertext: 0
Decipheredtext:           00000000000400000000000000000000
RESULT CIPHER-DECIPHER: -----OK-----


Test: 46
Data unit:   0
Start block: 0
Symmetric key bit length: 384
Plaintext bit length:     128
Symmetric key:            000000000000000000000000000000000000000000000000000000000000000000000000000000000000000000000000
Plaintext:                00000000000200000000000000000000
Ciphertext:               62b5b23b94cbbdf6579661879deace2eb43b6706d41a52db28c2a0f58c299a8e
Reciphers for ciphertext: 0
Decipheredtext:           00000000000200000000000000000000
RESULT CIPHER-DECIPHER: -----OK-----


Test: 47
Data unit:   0
Start block: 0
Symmetric key bit length: 384
Plaintext bit length:     128
Symmetric key:            000000000000000000000000000000000000000000000000000000000000000000000000000000000000000000000000
Plaintext:                00000000000100000000000000000000
Ciphertext:               62b5b23b94cbbdf6579661879deace2e1a802feda5d80f523a42f0eb9f1f84d6
Reciphers for ciphertext: 0
Decipheredtext:           00000000000100000000000000000000
RESULT CIPHER-DECIPHER: -----OK-----


Test: 48
Data unit:   0
Start block: 0
Symmetric key bit length: 384
Plaintext bit length:     128
Symmetric key:            000000000000000000000000000000000000000000000000000000000000000000000000000000000000000000000000
Plaintext:                00000000000080000000000000000000
Ciphertext:               62b5b23b94cbbdf6579661879deace2e4e4792a4f76181aae393178805e88e5f
Reciphers for ciphertext: 0
Decipheredtext:           00000000000080000000000000000000
RESULT CIPHER-DECIPHER: -----OK-----


Test: 49
Data unit:   0
Start block: 0
Symmetric key bit length: 384
Plaintext bit length:     128
Symmetric key:            000000000000000000000000000000000000000000000000000000000000000000000000000000000000000000000000
Plaintext:                00000000000040000000000000000000
Ciphertext:               62b5b23b94cbbdf6579661879deace2e6c4a91e40689d418a211cb1d2c2701a1
Reciphers for ciphertext: 0
Decipheredtext:           00000000000040000000000000000000
RESULT CIPHER-DECIPHER: -----OK-----


Test: 50
Data unit:   0
Start block: 0
Symmetric key bit length: 384
Plaintext bit length:     128
Symmetric key:            000000000000000000000000000000000000000000000000000000000000000000000000000000000000000000000000
Plaintext:                00000000000020000000000000000000
Ciphertext:               62b5b23b94cbbdf6579661879deace2e917f66658c8e976461339f56dcdbdb11
Reciphers for ciphertext: 0
Decipheredtext:           00000000000020000000000000000000
RESULT CIPHER-DECIPHER: -----OK-----


Test: 51
Data unit:   0
Start block: 0
Symmetric key bit length: 384
Plaintext bit length:     128
Symmetric key:            000000000000000000000000000000000000000000000000000000000000000000000000000000000000000000000000
Plaintext:                00000000000010000000000000000000
Ciphertext:               62b5b23b94cbbdf6579661879deace2e90e91adb8ff7cca71b66cf89fa29c033
Reciphers for ciphertext: 0
Decipheredtext:           00000000000010000000000000000000
RESULT CIPHER-DECIPHER: -----OK-----


Test: 52
Data unit:   0
Start block: 0
Symmetric key bit length: 384
Plaintext bit length:     128
Symmetric key:            000000000000000000000000000000000000000000000000000000000000000000000000000000000000000000000000
Plaintext:                00000000000008000000000000000000
Ciphertext:               62b5b23b94cbbdf6579661879deace2edee5096861f72883da196e9777abcb9b
Reciphers for ciphertext: 0
Decipheredtext:           00000000000008000000000000000000
RESULT CIPHER-DECIPHER: -----OK-----


Test: 53
Data unit:   0
Start block: 0
Symmetric key bit length: 384
Plaintext bit length:     128
Symmetric key:            000000000000000000000000000000000000000000000000000000000000000000000000000000000000000000000000
Plaintext:                00000000000004000000000000000000
Ciphertext:               62b5b23b94cbbdf6579661879deace2e7fc1a53ee52b6c6e1e7e4c56547e0bdd
Reciphers for ciphertext: 0
Decipheredtext:           00000000000004000000000000000000
RESULT CIPHER-DECIPHER: -----OK-----


Test: 54
Data unit:   0
Start block: 0
Symmetric key bit length: 384
Plaintext bit length:     128
Symmetric key:            000000000000000000000000000000000000000000000000000000000000000000000000000000000000000000000000
Plaintext:                00000000000002000000000000000000
Ciphertext:               62b5b23b94cbbdf6579661879deace2e11ff4c86cb4107c4affde52202a65192
Reciphers for ciphertext: 0
Decipheredtext:           00000000000002000000000000000000
RESULT CIPHER-DECIPHER: -----OK-----


Test: 55
Data unit:   0
Start block: 0
Symmetric key bit length: 384
Plaintext bit length:     128
Symmetric key:            000000000000000000000000000000000000000000000000000000000000000000000000000000000000000000000000
Plaintext:                00000000000001000000000000000000
Ciphertext:               62b5b23b94cbbdf6579661879deace2e35248ebeb69130f8a763da3a85bef867
Reciphers for ciphertext: 0
Decipheredtext:           00000000000001000000000000000000
RESULT CIPHER-DECIPHER: -----OK-----


Test: 56
Data unit:   0
Start block: 0
Symmetric key bit length: 384
Plaintext bit length:     128
Symmetric key:            000000000000000000000000000000000000000000000000000000000000000000000000000000000000000000000000
Plaintext:                00000000000000800000000000000000
Ciphertext:               62b5b23b94cbbdf6579661879deace2ef4c249f5f7d136964716d240f679bac6
Reciphers for ciphertext: 0
Decipheredtext:           00000000000000800000000000000000
RESULT CIPHER-DECIPHER: -----OK-----


Test: 57
Data unit:   0
Start block: 0
Symmetric key bit length: 384
Plaintext bit length:     128
Symmetric key:            000000000000000000000000000000000000000000000000000000000000000000000000000000000000000000000000
Plaintext:                00000000000000400000000000000000
Ciphertext:               62b5b23b94cbbdf6579661879deace2e06e5eb2797f965181886585522a2cf09
Reciphers for ciphertext: 0
Decipheredtext:           00000000000000400000000000000000
RESULT CIPHER-DECIPHER: -----OK-----


Test: 58
Data unit:   0
Start block: 0
Symmetric key bit length: 384
Plaintext bit length:     128
Symmetric key:            000000000000000000000000000000000000000000000000000000000000000000000000000000000000000000000000
Plaintext:                00000000000000200000000000000000
Ciphertext:               62b5b23b94cbbdf6579661879deace2e6acc7eedeccd9292863074b5bc2b6896
Reciphers for ciphertext: 0
Decipheredtext:           00000000000000200000000000000000
RESULT CIPHER-DECIPHER: -----OK-----


Test: 59
Data unit:   0
Start block: 0
Symmetric key bit length: 384
Plaintext bit length:     128
Symmetric key:            000000000000000000000000000000000000000000000000000000000000000000000000000000000000000000000000
Plaintext:                00000000000000100000000000000000
Ciphertext:               62b5b23b94cbbdf6579661879deace2e549b4d62ca6568a0d1b677141230788e
Reciphers for ciphertext: 0
Decipheredtext:           00000000000000100000000000000000
RESULT CIPHER-DECIPHER: -----OK-----


Test: 60
Data unit:   0
Start block: 0
Symmetric key bit length: 384
Plaintext bit length:     128
Symmetric key:            000000000000000000000000000000000000000000000000000000000000000000000000000000000000000000000000
Plaintext:                00000000000000080000000000000000
Ciphertext:               62b5b23b94cbbdf6579661879deace2e07347d5ecf42213585c814f27e8d0269
Reciphers for ciphertext: 0
Decipheredtext:           00000000000000080000000000000000
RESULT CIPHER-DECIPHER: -----OK-----


Test: 61
Data unit:   0
Start block: 0
Symmetric key bit length: 384
Plaintext bit length:     128
Symmetric key:            000000000000000000000000000000000000000000000000000000000000000000000000000000000000000000000000
Plaintext:                00000000000000040000000000000000
Ciphertext:               62b5b23b94cbbdf6579661879deace2e7c5c8b08e9991c0e4a9dbbfde42203fd
Reciphers for ciphertext: 0
Decipheredtext:           00000000000000040000000000000000
RESULT CIPHER-DECIPHER: -----OK-----


Test: 62
Data unit:   0
Start block: 0
Symmetric key bit length: 384
Plaintext bit length:     128
Symmetric key:            000000000000000000000000000000000000000000000000000000000000000000000000000000000000000000000000
Plaintext:                00000000000000020000000000000000
Ciphertext:               62b5b23b94cbbdf6579661879deace2e8f5cc7be582fb0f42f118afd65b955fe
Reciphers for ciphertext: 0
Decipheredtext:           00000000000000020000000000000000
RESULT CIPHER-DECIPHER: -----OK-----


Test: 63
Data unit:   0
Start block: 0
Symmetric key bit length: 384
Plaintext bit length:     128
Symmetric key:            000000000000000000000000000000000000000000000000000000000000000000000000000000000000000000000000
Plaintext:                00000000000000010000000000000000
Ciphertext:               62b5b23b94cbbdf6579661879deace2e9e212dedc44d456da9c59ed5984379e6
Reciphers for ciphertext: 0
Decipheredtext:           00000000000000010000000000000000
RESULT CIPHER-DECIPHER: -----OK-----


Test: 64
Data unit:   0
Start block: 0
Symmetric key bit length: 384
Plaintext bit length:     128
Symmetric key:            000000000000000000000000000000000000000000000000000000000000000000000000000000000000000000000000
Plaintext:                00000000000000008000000000000000
Ciphertext:               62b5b23b94cbbdf6579661879deace2efe1f826791530af86d023d9ecd5acc6a
Reciphers for ciphertext: 0
Decipheredtext:           00000000000000008000000000000000
RESULT CIPHER-DECIPHER: -----OK-----


Test: 65
Data unit:   0
Start block: 0
Symmetric key bit length: 384
Plaintext bit length:     128
Symmetric key:            000000000000000000000000000000000000000000000000000000000000000000000000000000000000000000000000
Plaintext:                00000000000000004000000000000000
Ciphertext:               62b5b23b94cbbdf6579661879deace2eff9b3966c8d642c0f5b08178fa809cbd
Reciphers for ciphertext: 0
Decipheredtext:           00000000000000004000000000000000
RESULT CIPHER-DECIPHER: -----OK-----


Test: 66
Data unit:   0
Start block: 0
Symmetric key bit length: 384
Plaintext bit length:     128
Symmetric key:            000000000000000000000000000000000000000000000000000000000000000000000000000000000000000000000000
Plaintext:                00000000000000002000000000000000
Ciphertext:               62b5b23b94cbbdf6579661879deace2eadd0a956d60022e568c3a9996eebea1a
Reciphers for ciphertext: 0
Decipheredtext:           00000000000000002000000000000000
RESULT CIPHER-DECIPHER: -----OK-----


Test: 67
Data unit:   0
Start block: 0
Symmetric key bit length: 384
Plaintext bit length:     128
Symmetric key:            000000000000000000000000000000000000000000000000000000000000000000000000000000000000000000000000
Plaintext:                00000000000000001000000000000000
Ciphertext:               62b5b23b94cbbdf6579661879deace2ed27108dc2c03f4bd8873de8801cfe037
Reciphers for ciphertext: 0
Decipheredtext:           00000000000000001000000000000000
RESULT CIPHER-DECIPHER: -----OK-----


Test: 68
Data unit:   0
Start block: 0
Symmetric key bit length: 384
Plaintext bit length:     128
Symmetric key:            000000000000000000000000000000000000000000000000000000000000000000000000000000000000000000000000
Plaintext:                00000000000000000800000000000000
Ciphertext:               62b5b23b94cbbdf6579661879deace2e12f628bbc1bfc12ce1e696cacaa33973
Reciphers for ciphertext: 0
Decipheredtext:           00000000000000000800000000000000
RESULT CIPHER-DECIPHER: -----OK-----


Test: 69
Data unit:   0
Start block: 0
Symmetric key bit length: 384
Plaintext bit length:     128
Symmetric key:            000000000000000000000000000000000000000000000000000000000000000000000000000000000000000000000000
Plaintext:                00000000000000000400000000000000
Ciphertext:               62b5b23b94cbbdf6579661879deace2e4423311ade7c7e875e3cb071bf8c0411
Reciphers for ciphertext: 0
Decipheredtext:           00000000000000000400000000000000
RESULT CIPHER-DECIPHER: -----OK-----


Test: 70
Data unit:   0
Start block: 0
Symmetric key bit length: 384
Plaintext bit length:     128
Symmetric key:            000000000000000000000000000000000000000000000000000000000000000000000000000000000000000000000000
Plaintext:                00000000000000000200000000000000
Ciphertext:               62b5b23b94cbbdf6579661879deace2ebe2ffa95c63eba73c31b6226f27d603a
Reciphers for ciphertext: 0
Decipheredtext:           00000000000000000200000000000000
RESULT CIPHER-DECIPHER: -----OK-----


Test: 71
Data unit:   0
Start block: 0
Symmetric key bit length: 384
Plaintext bit length:     128
Symmetric key:            000000000000000000000000000000000000000000000000000000000000000000000000000000000000000000000000
Plaintext:                00000000000000000100000000000000
Ciphertext:               62b5b23b94cbbdf6579661879deace2eabb38450ec8d9661254a863d5fcff491
Reciphers for ciphertext: 0
Decipheredtext:           00000000000000000100000000000000
RESULT CIPHER-DECIPHER: -----OK-----


Test: 72
Data unit:   0
Start block: 0
Symmetric key bit length: 384
Plaintext bit length:     128
Symmetric key:            000000000000000000000000000000000000000000000000000000000000000000000000000000000000000000000000
Plaintext:                00000000000000000080000000000000
Ciphertext:               62b5b23b94cbbdf6579661879deace2ec188e01c9b6c44ddacf450ef250d9fa0
Reciphers for ciphertext: 0
Decipheredtext:           00000000000000000080000000000000
RESULT CIPHER-DECIPHER: -----OK-----


Test: 73
Data unit:   0
Start block: 0
Symmetric key bit length: 384
Plaintext bit length:     128
Symmetric key:            000000000000000000000000000000000000000000000000000000000000000000000000000000000000000000000000
Plaintext:                00000000000000000040000000000000
Ciphertext:               62b5b23b94cbbdf6579661879deace2e80b7d5e844372c3959663e2af70006bb
Reciphers for ciphertext: 0
Decipheredtext:           00000000000000000040000000000000
RESULT CIPHER-DECIPHER: -----OK-----


Test: 74
Data unit:   0
Start block: 0
Symmetric key bit length: 384
Plaintext bit length:     128
Symmetric key:            000000000000000000000000000000000000000000000000000000000000000000000000000000000000000000000000
Plaintext:                00000000000000000020000000000000
Ciphertext:               62b5b23b94cbbdf6579661879deace2e7507f9371dbf3451b0004a96df44dcd1
Reciphers for ciphertext: 0
Decipheredtext:           00000000000000000020000000000000
RESULT CIPHER-DECIPHER: -----OK-----


Test: 75
Data unit:   0
Start block: 0
Symmetric key bit length: 384
Plaintext bit length:     128
Symmetric key:            000000000000000000000000000000000000000000000000000000000000000000000000000000000000000000000000
Plaintext:                00000000000000000010000000000000
Ciphertext:               62b5b23b94cbbdf6579661879deace2e49edab42b6ab5329b030893bf2452fa8
Reciphers for ciphertext: 0
Decipheredtext:           00000000000000000010000000000000
RESULT CIPHER-DECIPHER: -----OK-----


Test: 76
Data unit:   0
Start block: 0
Symmetric key bit length: 384
Plaintext bit length:     128
Symmetric key:            000000000000000000000000000000000000000000000000000000000000000000000000000000000000000000000000
Plaintext:                00000000000000000008000000000000
Ciphertext:               62b5b23b94cbbdf6579661879deace2e2f81cb9b192e796def4479c58a697064
Reciphers for ciphertext: 0
Decipheredtext:           00000000000000000008000000000000
RESULT CIPHER-DECIPHER: -----OK-----


Test: 77
Data unit:   0
Start block: 0
Symmetric key bit length: 384
Plaintext bit length:     128
Symmetric key:            000000000000000000000000000000000000000000000000000000000000000000000000000000000000000000000000
Plaintext:                00000000000000000004000000000000
Ciphertext:               62b5b23b94cbbdf6579661879deace2e114a0031cd1ae5f8ed8a1cfaf9321a8c
Reciphers for ciphertext: 0
Decipheredtext:           00000000000000000004000000000000
RESULT CIPHER-DECIPHER: -----OK-----


Test: 78
Data unit:   0
Start block: 0
Symmetric key bit length: 384
Plaintext bit length:     128
Symmetric key:            000000000000000000000000000000000000000000000000000000000000000000000000000000000000000000000000
Plaintext:                00000000000000000002000000000000
Ciphertext:               62b5b23b94cbbdf6579661879deace2e5d73bc4beb9816154aa7d050f6b20278
Reciphers for ciphertext: 0
Decipheredtext:           00000000000000000002000000000000
RESULT CIPHER-DECIPHER: -----OK-----


Test: 79
Data unit:   0
Start block: 0
Symmetric key bit length: 384
Plaintext bit length:     128
Symmetric key:            000000000000000000000000000000000000000000000000000000000000000000000000000000000000000000000000
Plaintext:                00000000000000000001000000000000
Ciphertext:               62b5b23b94cbbdf6579661879deace2ec827a8ec0c40580e2d03c962cb41a6f7
Reciphers for ciphertext: 0
Decipheredtext:           00000000000000000001000000000000
RESULT CIPHER-DECIPHER: -----OK-----


Test: 80
Data unit:   0
Start block: 0
Symmetric key bit length: 384
Plaintext bit length:     128
Symmetric key:            000000000000000000000000000000000000000000000000000000000000000000000000000000000000000000000000
Plaintext:                00000000000000000000800000000000
Ciphertext:               62b5b23b94cbbdf6579661879deace2efe6a8116f81b5ea89d8b53de0f494070
Reciphers for ciphertext: 0
Decipheredtext:           00000000000000000000800000000000
RESULT CIPHER-DECIPHER: -----OK-----


Test: 81
Data unit:   0
Start block: 0
Symmetric key bit length: 384
Plaintext bit length:     128
Symmetric key:            000000000000000000000000000000000000000000000000000000000000000000000000000000000000000000000000
Plaintext:                00000000000000000000400000000000
Ciphertext:               62b5b23b94cbbdf6579661879deace2ee1393444197e9ace63ca6a688fab763c
Reciphers for ciphertext: 0
Decipheredtext:           00000000000000000000400000000000
RESULT CIPHER-DECIPHER: -----OK-----


Test: 82
Data unit:   0
Start block: 0
Symmetric key bit length: 384
Plaintext bit length:     128
Symmetric key:            000000000000000000000000000000000000000000000000000000000000000000000000000000000000000000000000
Plaintext:                00000000000000000000200000000000
Ciphertext:               62b5b23b94cbbdf6579661879deace2e0a061016a8078f2bff201fae6398781f
Reciphers for ciphertext: 0
Decipheredtext:           00000000000000000000200000000000
RESULT CIPHER-DECIPHER: -----OK-----


Test: 83
Data unit:   0
Start block: 0
Symmetric key bit length: 384
Plaintext bit length:     128
Symmetric key:            000000000000000000000000000000000000000000000000000000000000000000000000000000000000000000000000
Plaintext:                00000000000000000000100000000000
Ciphertext:               62b5b23b94cbbdf6579661879deace2e1ad80f543f1042f3bcb12a09d6dfe51c
Reciphers for ciphertext: 0
Decipheredtext:           00000000000000000000100000000000
RESULT CIPHER-DECIPHER: -----OK-----


Test: 84
Data unit:   0
Start block: 0
Symmetric key bit length: 384
Plaintext bit length:     128
Symmetric key:            000000000000000000000000000000000000000000000000000000000000000000000000000000000000000000000000
Plaintext:                00000000000000000000080000000000
Ciphertext:               62b5b23b94cbbdf6579661879deace2eb7156d1b41ade5fbc451783fe877ad10
Reciphers for ciphertext: 0
Decipheredtext:           00000000000000000000080000000000
RESULT CIPHER-DECIPHER: -----OK-----


Test: 85
Data unit:   0
Start block: 0
Symmetric key bit length: 384
Plaintext bit length:     128
Symmetric key:            000000000000000000000000000000000000000000000000000000000000000000000000000000000000000000000000
Plaintext:                00000000000000000000040000000000
Ciphertext:               62b5b23b94cbbdf6579661879deace2ee4ed9228d440ab6283cd0c8fbfd7479a
Reciphers for ciphertext: 0
Decipheredtext:           00000000000000000000040000000000
RESULT CIPHER-DECIPHER: -----OK-----


Test: 86
Data unit:   0
Start block: 0
Symmetric key bit length: 384
Plaintext bit length:     128
Symmetric key:            000000000000000000000000000000000000000000000000000000000000000000000000000000000000000000000000
Plaintext:                00000000000000000000020000000000
Ciphertext:               62b5b23b94cbbdf6579661879deace2e6df547c634d85519ef77a25cf2537b43
Reciphers for ciphertext: 0
Decipheredtext:           00000000000000000000020000000000
RESULT CIPHER-DECIPHER: -----OK-----


Test: 87
Data unit:   0
Start block: 0
Symmetric key bit length: 384
Plaintext bit length:     128
Symmetric key:            000000000000000000000000000000000000000000000000000000000000000000000000000000000000000000000000
Plaintext:                00000000000000000000010000000000
Ciphertext:               62b5b23b94cbbdf6579661879deace2ecb473c3e5ebe0399e17bafc89b94756f
Reciphers for ciphertext: 0
Decipheredtext:           00000000000000000000010000000000
RESULT CIPHER-DECIPHER: -----OK-----


Test: 88
Data unit:   0
Start block: 0
Symmetric key bit length: 384
Plaintext bit length:     128
Symmetric key:            000000000000000000000000000000000000000000000000000000000000000000000000000000000000000000000000
Plaintext:                00000000000000000000008000000000
Ciphertext:               62b5b23b94cbbdf6579661879deace2e4a317c3095032921c6bf0a3c826e7429
Reciphers for ciphertext: 0
Decipheredtext:           00000000000000000000008000000000
RESULT CIPHER-DECIPHER: -----OK-----


Test: 89
Data unit:   0
Start block: 0
Symmetric key bit length: 384
Plaintext bit length:     128
Symmetric key:            000000000000000000000000000000000000000000000000000000000000000000000000000000000000000000000000
Plaintext:                00000000000000000000004000000000
Ciphertext:               62b5b23b94cbbdf6579661879deace2ec2f0cc7cd04377df5e191824e747157a
Reciphers for ciphertext: 0
Decipheredtext:           00000000000000000000004000000000
RESULT CIPHER-DECIPHER: -----OK-----


Test: 90
Data unit:   0
Start block: 0
Symmetric key bit length: 384
Plaintext bit length:     128
Symmetric key:            000000000000000000000000000000000000000000000000000000000000000000000000000000000000000000000000
Plaintext:                00000000000000000000002000000000
Ciphertext:               62b5b23b94cbbdf6579661879deace2e403b40f5eed6510dd7644b624867d6a3
Reciphers for ciphertext: 0
Decipheredtext:           00000000000000000000002000000000
RESULT CIPHER-DECIPHER: -----OK-----


Test: 91
Data unit:   0
Start block: 0
Symmetric key bit length: 384
Plaintext bit length:     128
Symmetric key:            000000000000000000000000000000000000000000000000000000000000000000000000000000000000000000000000
Plaintext:                00000000000000000000001000000000
Ciphertext:               62b5b23b94cbbdf6579661879deace2e83e9007d506f4dc378759954cf0bb72d
Reciphers for ciphertext: 0
Decipheredtext:           00000000000000000000001000000000
RESULT CIPHER-DECIPHER: -----OK-----


Test: 92
Data unit:   0
Start block: 0
Symmetric key bit length: 384
Plaintext bit length:     128
Symmetric key:            000000000000000000000000000000000000000000000000000000000000000000000000000000000000000000000000
Plaintext:                00000000000000000000000800000000
Ciphertext:               62b5b23b94cbbdf6579661879deace2e827b461625e0aba80bd6afdee1854cfa
Reciphers for ciphertext: 0
Decipheredtext:           00000000000000000000000800000000
RESULT CIPHER-DECIPHER: -----OK-----


Test: 93
Data unit:   0
Start block: 0
Symmetric key bit length: 384
Plaintext bit length:     128
Symmetric key:            000000000000000000000000000000000000000000000000000000000000000000000000000000000000000000000000
Plaintext:                00000000000000000000000400000000
Ciphertext:               62b5b23b94cbbdf6579661879deace2e64bff6e76ad0823ae8f13e578cda7fac
Reciphers for ciphertext: 0
Decipheredtext:           00000000000000000000000400000000
RESULT CIPHER-DECIPHER: -----OK-----


Test: 94
Data unit:   0
Start block: 0
Symmetric key bit length: 384
Plaintext bit length:     128
Symmetric key:            000000000000000000000000000000000000000000000000000000000000000000000000000000000000000000000000
Plaintext:                00000000000000000000000200000000
Ciphertext:               62b5b23b94cbbdf6579661879deace2eedc9919cb85c4804bf453b99d3c10737
Reciphers for ciphertext: 0
Decipheredtext:           00000000000000000000000200000000
RESULT CIPHER-DECIPHER: -----OK-----


Test: 95
Data unit:   0
Start block: 0
Symmetric key bit length: 384
Plaintext bit length:     128
Symmetric key:            000000000000000000000000000000000000000000000000000000000000000000000000000000000000000000000000
Plaintext:                00000000000000000000000100000000
Ciphertext:               62b5b23b94cbbdf6579661879deace2e202f009b5698dfa1ada03b7a74240c70
Reciphers for ciphertext: 0
Decipheredtext:           00000000000000000000000100000000
RESULT CIPHER-DECIPHER: -----OK-----


Test: 96
Data unit:   0
Start block: 0
Symmetric key bit length: 384
Plaintext bit length:     128
Symmetric key:            000000000000000000000000000000000000000000000000000000000000000000000000000000000000000000000000
Plaintext:                00000000000000000000000080000000
Ciphertext:               62b5b23b94cbbdf6579661879deace2e462e47b39355c2f45f55bde0758df791
Reciphers for ciphertext: 0
Decipheredtext:           00000000000000000000000080000000
RESULT CIPHER-DECIPHER: -----OK-----


Test: 97
Data unit:   0
Start block: 0
Symmetric key bit length: 384
Plaintext bit length:     128
Symmetric key:            000000000000000000000000000000000000000000000000000000000000000000000000000000000000000000000000
Plaintext:                00000000000000000000000040000000
Ciphertext:               62b5b23b94cbbdf6579661879deace2ede8d6996e91fbdd8efa6b3d0bce88656
Reciphers for ciphertext: 0
Decipheredtext:           00000000000000000000000040000000
RESULT CIPHER-DECIPHER: -----OK-----


Test: 98
Data unit:   0
Start block: 0
Symmetric key bit length: 384
Plaintext bit length:     128
Symmetric key:            000000000000000000000000000000000000000000000000000000000000000000000000000000000000000000000000
Plaintext:                00000000000000000000000020000000
Ciphertext:               62b5b23b94cbbdf6579661879deace2ed6a250a8accac81ebc28a3274da7ab59
Reciphers for ciphertext: 0
Decipheredtext:           00000000000000000000000020000000
RESULT CIPHER-DECIPHER: -----OK-----


Test: 99
Data unit:   0
Start block: 0
Symmetric key bit length: 384
Plaintext bit length:     128
Symmetric key:            000000000000000000000000000000000000000000000000000000000000000000000000000000000000000000000000
Plaintext:                00000000000000000000000010000000
Ciphertext:               62b5b23b94cbbdf6579661879deace2ecf1564b97910f6cef2d5d5fbbc4a2f36
Reciphers for ciphertext: 0
Decipheredtext:           00000000000000000000000010000000
RESULT CIPHER-DECIPHER: -----OK-----


Test: 100
Data unit:   0
Start block: 0
Symmetric key bit length: 384
Plaintext bit length:     128
Symmetric key:            000000000000000000000000000000000000000000000000000000000000000000000000000000000000000000000000
Plaintext:                00000000000000000000000008000000
Ciphertext:               62b5b23b94cbbdf6579661879deace2e21c0346ad769a1f8c3ec2380b3e0f5aa
Reciphers for ciphertext: 0
Decipheredtext:           00000000000000000000000008000000
RESULT CIPHER-DECIPHER: -----OK-----


Test: 101
Data unit:   0
Start block: 0
Symmetric key bit length: 384
Plaintext bit length:     128
Symmetric key:            000000000000000000000000000000000000000000000000000000000000000000000000000000000000000000000000
Plaintext:                00000000000000000000000004000000
Ciphertext:               62b5b23b94cbbdf6579661879deace2ee850fcf9f78b6032483ed91f202ab362
Reciphers for ciphertext: 0
Decipheredtext:           00000000000000000000000004000000
RESULT CIPHER-DECIPHER: -----OK-----


Test: 102
Data unit:   0
Start block: 0
Symmetric key bit length: 384
Plaintext bit length:     128
Symmetric key:            000000000000000000000000000000000000000000000000000000000000000000000000000000000000000000000000
Plaintext:                00000000000000000000000002000000
Ciphertext:               62b5b23b94cbbdf6579661879deace2e3f8570382c2cbcee3a327778eb7408d6
Reciphers for ciphertext: 0
Decipheredtext:           00000000000000000000000002000000
RESULT CIPHER-DECIPHER: -----OK-----


Test: 103
Data unit:   0
Start block: 0
Symmetric key bit length: 384
Plaintext bit length:     128
Symmetric key:            000000000000000000000000000000000000000000000000000000000000000000000000000000000000000000000000
Plaintext:                00000000000000000000000001000000
Ciphertext:               62b5b23b94cbbdf6579661879deace2eaf0764b7d30ca71235406975002f9633
Reciphers for ciphertext: 0
Decipheredtext:           00000000000000000000000001000000
RESULT CIPHER-DECIPHER: -----OK-----


Test: 104
Data unit:   0
Start block: 0
Symmetric key bit length: 384
Plaintext bit length:     128
Symmetric key:            000000000000000000000000000000000000000000000000000000000000000000000000000000000000000000000000
Plaintext:                00000000000000000000000000800000
Ciphertext:               62b5b23b94cbbdf6579661879deace2e144cfd3f4338389f06a999a523add896
Reciphers for ciphertext: 0
Decipheredtext:           00000000000000000000000000800000
RESULT CIPHER-DECIPHER: -----OK-----


Test: 105
Data unit:   0
Start block: 0
Symmetric key bit length: 384
Plaintext bit length:     128
Symmetric key:            000000000000000000000000000000000000000000000000000000000000000000000000000000000000000000000000
Plaintext:                00000000000000000000000000400000
Ciphertext:               62b5b23b94cbbdf6579661879deace2ea6b22a2f1e677348b2848acdc5a3cdf7
Reciphers for ciphertext: 0
Decipheredtext:           00000000000000000000000000400000
RESULT CIPHER-DECIPHER: -----OK-----


Test: 106
Data unit:   0
Start block: 0
Symmetric key bit length: 384
Plaintext bit length:     128
Symmetric key:            000000000000000000000000000000000000000000000000000000000000000000000000000000000000000000000000
Plaintext:                00000000000000000000000000200000
Ciphertext:               62b5b23b94cbbdf6579661879deace2eeb703be43694179ccfbf7ee56772d0ff
Reciphers for ciphertext: 0
Decipheredtext:           00000000000000000000000000200000
RESULT CIPHER-DECIPHER: -----OK-----


Test: 107
Data unit:   0
Start block: 0
Symmetric key bit length: 384
Plaintext bit length:     128
Symmetric key:            000000000000000000000000000000000000000000000000000000000000000000000000000000000000000000000000
Plaintext:                00000000000000000000000000100000
Ciphertext:               62b5b23b94cbbdf6579661879deace2e55edb3035ca7a3c2a36b9ac9d3d188df
Reciphers for ciphertext: 0
Decipheredtext:           00000000000000000000000000100000
RESULT CIPHER-DECIPHER: -----OK-----


Test: 108
Data unit:   0
Start block: 0
Symmetric key bit length: 384
Plaintext bit length:     128
Symmetric key:            000000000000000000000000000000000000000000000000000000000000000000000000000000000000000000000000
Plaintext:                00000000000000000000000000080000
Ciphertext:               62b5b23b94cbbdf6579661879deace2e68cc338fbe6e279866c0c26dc62c0429
Reciphers for ciphertext: 0
Decipheredtext:           00000000000000000000000000080000
RESULT CIPHER-DECIPHER: -----OK-----


Test: 109
Data unit:   0
Start block: 0
Symmetric key bit length: 384
Plaintext bit length:     128
Symmetric key:            000000000000000000000000000000000000000000000000000000000000000000000000000000000000000000000000
Plaintext:                00000000000000000000000000040000
Ciphertext:               62b5b23b94cbbdf6579661879deace2e9b752235970dab866ed80da6be3ed491
Reciphers for ciphertext: 0
Decipheredtext:           00000000000000000000000000040000
RESULT CIPHER-DECIPHER: -----OK-----


Test: 110
Data unit:   0
Start block: 0
Symmetric key bit length: 384
Plaintext bit length:     128
Symmetric key:            000000000000000000000000000000000000000000000000000000000000000000000000000000000000000000000000
Plaintext:                00000000000000000000000000020000
Ciphertext:               62b5b23b94cbbdf6579661879deace2e6c7f4714833434727c8ef2e2a49c83c7
Reciphers for ciphertext: 0
Decipheredtext:           00000000000000000000000000020000
RESULT CIPHER-DECIPHER: -----OK-----


Test: 111
Data unit:   0
Start block: 0
Symmetric key bit length: 384
Plaintext bit length:     128
Symmetric key:            000000000000000000000000000000000000000000000000000000000000000000000000000000000000000000000000
Plaintext:                00000000000000000000000000010000
Ciphertext:               62b5b23b94cbbdf6579661879deace2e9ca1789f1b87cd910db1a0f01284afce
Reciphers for ciphertext: 0
Decipheredtext:           00000000000000000000000000010000
RESULT CIPHER-DECIPHER: -----OK-----


Test: 112
Data unit:   0
Start block: 0
Symmetric key bit length: 384
Plaintext bit length:     128
Symmetric key:            000000000000000000000000000000000000000000000000000000000000000000000000000000000000000000000000
Plaintext:                00000000000000000000000000008000
Ciphertext:               62b5b23b94cbbdf6579661879deace2ebf1e6069d7a22ba4bec17370f8f99ba4
Reciphers for ciphertext: 0
Decipheredtext:           00000000000000000000000000008000
RESULT CIPHER-DECIPHER: -----OK-----


Test: 113
Data unit:   0
Start block: 0
Symmetric key bit length: 384
Plaintext bit length:     128
Symmetric key:            000000000000000000000000000000000000000000000000000000000000000000000000000000000000000000000000
Plaintext:                00000000000000000000000000004000
Ciphertext:               62b5b23b94cbbdf6579661879deace2e480acb86587fb636a15767adc06c350e
Reciphers for ciphertext: 0
Decipheredtext:           00000000000000000000000000004000
RESULT CIPHER-DECIPHER: -----OK-----


Test: 114
Data unit:   0
Start block: 0
Symmetric key bit length: 384
Plaintext bit length:     128
Symmetric key:            000000000000000000000000000000000000000000000000000000000000000000000000000000000000000000000000
Plaintext:                00000000000000000000000000002000
Ciphertext:               62b5b23b94cbbdf6579661879deace2ecd4b9c231652b4b13797d66a45491b84
Reciphers for ciphertext: 0
Decipheredtext:           00000000000000000000000000002000
RESULT CIPHER-DECIPHER: -----OK-----


Test: 115
Data unit:   0
Start block: 0
Symmetric key bit length: 384
Plaintext bit length:     128
Symmetric key:            000000000000000000000000000000000000000000000000000000000000000000000000000000000000000000000000
Plaintext:                00000000000000000000000000001000
Ciphertext:               62b5b23b94cbbdf6579661879deace2e1a9e0fbc47d1bcd2369dbc18cb3d6674
Reciphers for ciphertext: 0
Decipheredtext:           00000000000000000000000000001000
RESULT CIPHER-DECIPHER: -----OK-----


Test: 116
Data unit:   0
Start block: 0
Symmetric key bit length: 384
Plaintext bit length:     128
Symmetric key:            000000000000000000000000000000000000000000000000000000000000000000000000000000000000000000000000
Plaintext:                00000000000000000000000000000800
Ciphertext:               62b5b23b94cbbdf6579661879deace2e3697c2caee5cae64b8c7de52a07b1623
Reciphers for ciphertext: 0
Decipheredtext:           00000000000000000000000000000800
RESULT CIPHER-DECIPHER: -----OK-----


Test: 117
Data unit:   0
Start block: 0
Symmetric key bit length: 384
Plaintext bit length:     128
Symmetric key:            000000000000000000000000000000000000000000000000000000000000000000000000000000000000000000000000
Plaintext:                00000000000000000000000000000400
Ciphertext:               62b5b23b94cbbdf6579661879deace2e3ffaf871e8473b61d0cac20c3ed57217
Reciphers for ciphertext: 0
Decipheredtext:           00000000000000000000000000000400
RESULT CIPHER-DECIPHER: -----OK-----


Test: 118
Data unit:   0
Start block: 0
Symmetric key bit length: 384
Plaintext bit length:     128
Symmetric key:            000000000000000000000000000000000000000000000000000000000000000000000000000000000000000000000000
Plaintext:                00000000000000000000000000000200
Ciphertext:               62b5b23b94cbbdf6579661879deace2e48f001e0ba5e880ff0149a3e4cd1dee2
Reciphers for ciphertext: 0
Decipheredtext:           00000000000000000000000000000200
RESULT CIPHER-DECIPHER: -----OK-----


Test: 119
Data unit:   0
Start block: 0
Symmetric key bit length: 384
Plaintext bit length:     128
Symmetric key:            000000000000000000000000000000000000000000000000000000000000000000000000000000000000000000000000
Plaintext:                00000000000000000000000000000100
Ciphertext:               62b5b23b94cbbdf6579661879deace2e1084c4434b935e5d902ad3d3d151bd79
Reciphers for ciphertext: 0
Decipheredtext:           00000000000000000000000000000100
RESULT CIPHER-DECIPHER: -----OK-----


Test: 120
Data unit:   0
Start block: 0
Symmetric key bit length: 384
Plaintext bit length:     128
Symmetric key:            000000000000000000000000000000000000000000000000000000000000000000000000000000000000000000000000
Plaintext:                00000000000000000000000000000080
Ciphertext:               62b5b23b94cbbdf6579661879deace2e459f7ce0d75c6e6c3df54b318858f295
Reciphers for ciphertext: 0
Decipheredtext:           00000000000000000000000000000080
RESULT CIPHER-DECIPHER: -----OK-----


Test: 121
Data unit:   0
Start block: 0
Symmetric key bit length: 384
Plaintext bit length:     128
Symmetric key:            000000000000000000000000000000000000000000000000000000000000000000000000000000000000000000000000
Plaintext:                00000000000000000000000000000040
Ciphertext:               62b5b23b94cbbdf6579661879deace2edd1a8dea939ae54aaf72d51f06cbdf3d
Reciphers for ciphertext: 0
Decipheredtext:           00000000000000000000000000000040
RESULT CIPHER-DECIPHER: -----OK-----


Test: 122
Data unit:   0
Start block: 0
Symmetric key bit length: 384
Plaintext bit length:     128
Symmetric key:            000000000000000000000000000000000000000000000000000000000000000000000000000000000000000000000000
Plaintext:                00000000000000000000000000000020
Ciphertext:               62b5b23b94cbbdf6579661879deace2e8271a2ec4c8a643e9a4047e83780cc88
Reciphers for ciphertext: 0
Decipheredtext:           00000000000000000000000000000020
RESULT CIPHER-DECIPHER: -----OK-----


Test: 123
Data unit:   0
Start block: 0
Symmetric key bit length: 384
Plaintext bit length:     128
Symmetric key:            000000000000000000000000000000000000000000000000000000000000000000000000000000000000000000000000
Plaintext:                00000000000000000000000000000010
Ciphertext:               62b5b23b94cbbdf6579661879deace2ebd7fbf8bef0a98455bd9d4f99e72700b
Reciphers for ciphertext: 0
Decipheredtext:           00000000000000000000000000000010
RESULT CIPHER-DECIPHER: -----OK-----


Test: 124
Data unit:   0
Start block: 0
Symmetric key bit length: 384
Plaintext bit length:     128
Symmetric key:            000000000000000000000000000000000000000000000000000000000000000000000000000000000000000000000000
Plaintext:                00000000000000000000000000000008
Ciphertext:               62b5b23b94cbbdf6579661879deace2ec42082ae80c3ed77fecdd28b61760099
Reciphers for ciphertext: 0
Decipheredtext:           00000000000000000000000000000008
RESULT CIPHER-DECIPHER: -----OK-----


Test: 125
Data unit:   0
Start block: 0
Symmetric key bit length: 384
Plaintext bit length:     128
Symmetric key:            000000000000000000000000000000000000000000000000000000000000000000000000000000000000000000000000
Plaintext:                00000000000000000000000000000004
Ciphertext:               62b5b23b94cbbdf6579661879deace2eea9c3ae150840780cfc7fcae39e4f035
Reciphers for ciphertext: 0
Decipheredtext:           00000000000000000000000000000004
RESULT CIPHER-DECIPHER: -----OK-----


Test: 126
Data unit:   0
Start block: 0
Symmetric key bit length: 384
Plaintext bit length:     128
Symmetric key:            000000000000000000000000000000000000000000000000000000000000000000000000000000000000000000000000
Plaintext:                00000000000000000000000000000002
Ciphertext:               62b5b23b94cbbdf6579661879deace2e34d710fa7ccd58ffb674b0592578c6a5
Reciphers for ciphertext: 0
Decipheredtext:           00000000000000000000000000000002
RESULT CIPHER-DECIPHER: -----OK-----


Test: 127
Data unit:   0
Start block: 0
Symmetric key bit length: 384
Plaintext bit length:     128
Symmetric key:            000000000000000000000000000000000000000000000000000000000000000000000000000000000000000000000000
Plaintext:                00000000000000000000000000000001
Ciphertext:               62b5b23b94cbbdf6579661879deace2e575c219cc08115dd71179514cb77f896
Reciphers for ciphertext: 0
Decipheredtext:           00000000000000000000000000000001
RESULT CIPHER-DECIPHER: -----OK-----


 DATA SHA1 (hexadecimal): 6dc9881e6a12ca18d9548bc739e314fb5d9573e6

