
DiceLock 9.0.0.1

 TEST COMPONENTS:
 ----------------
 DiceLock:           DiceLockXTSIndexed class
 Operation Mode:     XTS_Mode class
 Block Cipher:       Serpent192 class
 Key Modifier:       DecreaseBase0IndexModifier_6_0_0_1 class
   Index bit length: 128
 Random tests:       RandomTestSuite class
                     FrequencyTest class
                     BlockFrequencyTest class
                     CumulativeSumForwardTest class
                     LongestRunOfOnesTest class
                     RunsTest class
 Random alpha:       0.001

 VECTOR TEST: Test vector 1 - Changing plaintext, shifting 1 bit set


##### INDIVIDUAL TESTS #####

Number tests: 128


Test: 0
Sector size in bytes: 512
Data unit:   0
Start block: 0
Symmetric key bit length: 384
Plaintext bit length:     136
Symmetric key:            000000000000000000000000000000000000000000000000000000000000000000000000000000000000000000000000
Plaintext:                0080000000000000000000000000000000
Ciphertext:               2429993d67780162f346af4c52a426646ac48eb4ab42b6fee74f81ebdbf6b3c7df
Reciphers for ciphertext: 0
Decipheredtext:           0080000000000000000000000000000000
RESULT CIPHER-DECIPHER: -----OK-----


Test: 1
Sector size in bytes: 512
Data unit:   0
Start block: 0
Symmetric key bit length: 384
Plaintext bit length:     136
Symmetric key:            000000000000000000000000000000000000000000000000000000000000000000000000000000000000000000000000
Plaintext:                0040000000000000000000000000000000
Ciphertext:               2429993d67780162f346af4c52a4266427a6bdb27999d8cd2d5299e690a8d3ae3b
Reciphers for ciphertext: 0
Decipheredtext:           0040000000000000000000000000000000
RESULT CIPHER-DECIPHER: -----OK-----


Test: 2
Sector size in bytes: 512
Data unit:   0
Start block: 0
Symmetric key bit length: 384
Plaintext bit length:     136
Symmetric key:            000000000000000000000000000000000000000000000000000000000000000000000000000000000000000000000000
Plaintext:                0020000000000000000000000000000000
Ciphertext:               2429993d67780162f346af4c52a426646dce796fc1b59793cb06cbddd5232a5ebb
Reciphers for ciphertext: 0
Decipheredtext:           0020000000000000000000000000000000
RESULT CIPHER-DECIPHER: -----OK-----


Test: 3
Sector size in bytes: 512
Data unit:   0
Start block: 0
Symmetric key bit length: 384
Plaintext bit length:     136
Symmetric key:            000000000000000000000000000000000000000000000000000000000000000000000000000000000000000000000000
Plaintext:                0010000000000000000000000000000000
Ciphertext:               2429993d67780162f346af4c52a426643e6e21c8291b4cea965d1c1fddb34deb19
Reciphers for ciphertext: 0
Decipheredtext:           0010000000000000000000000000000000
RESULT CIPHER-DECIPHER: -----OK-----


Test: 4
Sector size in bytes: 512
Data unit:   0
Start block: 0
Symmetric key bit length: 384
Plaintext bit length:     136
Symmetric key:            000000000000000000000000000000000000000000000000000000000000000000000000000000000000000000000000
Plaintext:                0008000000000000000000000000000000
Ciphertext:               2429993d67780162f346af4c52a426648e5f19548ef41bf190ee096533955675d3
Reciphers for ciphertext: 0
Decipheredtext:           0008000000000000000000000000000000
RESULT CIPHER-DECIPHER: -----OK-----


Test: 5
Sector size in bytes: 512
Data unit:   0
Start block: 0
Symmetric key bit length: 384
Plaintext bit length:     136
Symmetric key:            000000000000000000000000000000000000000000000000000000000000000000000000000000000000000000000000
Plaintext:                0004000000000000000000000000000000
Ciphertext:               2429993d67780162f346af4c52a42664a562f07028937af8c431103fee776710bc
Reciphers for ciphertext: 0
Decipheredtext:           0004000000000000000000000000000000
RESULT CIPHER-DECIPHER: -----OK-----


Test: 6
Sector size in bytes: 512
Data unit:   0
Start block: 0
Symmetric key bit length: 384
Plaintext bit length:     136
Symmetric key:            000000000000000000000000000000000000000000000000000000000000000000000000000000000000000000000000
Plaintext:                0002000000000000000000000000000000
Ciphertext:               2429993d67780162f346af4c52a42664e3fbf17a055592a821da91294c42f78cae
Reciphers for ciphertext: 0
Decipheredtext:           0002000000000000000000000000000000
RESULT CIPHER-DECIPHER: -----OK-----


Test: 7
Sector size in bytes: 512
Data unit:   0
Start block: 0
Symmetric key bit length: 384
Plaintext bit length:     136
Symmetric key:            000000000000000000000000000000000000000000000000000000000000000000000000000000000000000000000000
Plaintext:                0001000000000000000000000000000000
Ciphertext:               2429993d67780162f346af4c52a42664e8c833beb283c2ac57e8db4ed40f964b79
Reciphers for ciphertext: 0
Decipheredtext:           0001000000000000000000000000000000
RESULT CIPHER-DECIPHER: -----OK-----


Test: 8
Sector size in bytes: 512
Data unit:   0
Start block: 0
Symmetric key bit length: 384
Plaintext bit length:     136
Symmetric key:            000000000000000000000000000000000000000000000000000000000000000000000000000000000000000000000000
Plaintext:                0000800000000000000000000000000000
Ciphertext:               2429993d67780162f346af4c52a42664c2f7404a6a1302ca96bccb2088c6b57ae1
Reciphers for ciphertext: 0
Decipheredtext:           0000800000000000000000000000000000
RESULT CIPHER-DECIPHER: -----OK-----


Test: 9
Sector size in bytes: 512
Data unit:   0
Start block: 0
Symmetric key bit length: 384
Plaintext bit length:     136
Symmetric key:            000000000000000000000000000000000000000000000000000000000000000000000000000000000000000000000000
Plaintext:                0000400000000000000000000000000000
Ciphertext:               2429993d67780162f346af4c52a4266438205170ca56f3bfbea9022ebd7cd10936
Reciphers for ciphertext: 0
Decipheredtext:           0000400000000000000000000000000000
RESULT CIPHER-DECIPHER: -----OK-----


Test: 10
Sector size in bytes: 1024
Data unit:   0
Start block: 0
Symmetric key bit length: 384
Plaintext bit length:     136
Symmetric key:            000000000000000000000000000000000000000000000000000000000000000000000000000000000000000000000000
Plaintext:                0000200000000000000000000000000000
Ciphertext:               2429993d67780162f346af4c52a4266446f2136e8472140554f84a7d3d14bd6c77
Reciphers for ciphertext: 0
Decipheredtext:           0000200000000000000000000000000000
RESULT CIPHER-DECIPHER: -----OK-----


Test: 11
Sector size in bytes: 1024
Data unit:   0
Start block: 0
Symmetric key bit length: 384
Plaintext bit length:     136
Symmetric key:            000000000000000000000000000000000000000000000000000000000000000000000000000000000000000000000000
Plaintext:                0000100000000000000000000000000000
Ciphertext:               2429993d67780162f346af4c52a42664c0ab453793e8f6b123d45157e24f0505ab
Reciphers for ciphertext: 0
Decipheredtext:           0000100000000000000000000000000000
RESULT CIPHER-DECIPHER: -----OK-----


Test: 12
Sector size in bytes: 1024
Data unit:   0
Start block: 0
Symmetric key bit length: 384
Plaintext bit length:     136
Symmetric key:            000000000000000000000000000000000000000000000000000000000000000000000000000000000000000000000000
Plaintext:                0000080000000000000000000000000000
Ciphertext:               2429993d67780162f346af4c52a42664499c87d1177c0a4fc5e5cc349eed362088
Reciphers for ciphertext: 0
Decipheredtext:           0000080000000000000000000000000000
RESULT CIPHER-DECIPHER: -----OK-----


Test: 13
Sector size in bytes: 1024
Data unit:   0
Start block: 0
Symmetric key bit length: 384
Plaintext bit length:     136
Symmetric key:            000000000000000000000000000000000000000000000000000000000000000000000000000000000000000000000000
Plaintext:                0000040000000000000000000000000000
Ciphertext:               2429993d67780162f346af4c52a42664025d4c4b6259a5042bc9ff548b0ee16012
Reciphers for ciphertext: 0
Decipheredtext:           0000040000000000000000000000000000
RESULT CIPHER-DECIPHER: -----OK-----


Test: 14
Sector size in bytes: 1024
Data unit:   0
Start block: 0
Symmetric key bit length: 384
Plaintext bit length:     136
Symmetric key:            000000000000000000000000000000000000000000000000000000000000000000000000000000000000000000000000
Plaintext:                0000020000000000000000000000000000
Ciphertext:               2429993d67780162f346af4c52a4266423d0de75e4aa29569a3e15f35ea4e563b1
Reciphers for ciphertext: 0
Decipheredtext:           0000020000000000000000000000000000
RESULT CIPHER-DECIPHER: -----OK-----


Test: 15
Sector size in bytes: 1024
Data unit:   0
Start block: 0
Symmetric key bit length: 384
Plaintext bit length:     136
Symmetric key:            000000000000000000000000000000000000000000000000000000000000000000000000000000000000000000000000
Plaintext:                0000010000000000000000000000000000
Ciphertext:               2429993d67780162f346af4c52a42664014c9baadfc35502bb8e5887fbf19035af
Reciphers for ciphertext: 0
Decipheredtext:           0000010000000000000000000000000000
RESULT CIPHER-DECIPHER: -----OK-----


Test: 16
Sector size in bytes: 1024
Data unit:   0
Start block: 0
Symmetric key bit length: 384
Plaintext bit length:     136
Symmetric key:            000000000000000000000000000000000000000000000000000000000000000000000000000000000000000000000000
Plaintext:                0000008000000000000000000000000000
Ciphertext:               2429993d67780162f346af4c52a426645b608d92ab172d20ff54a8cbaa83c9dcc6
Reciphers for ciphertext: 0
Decipheredtext:           0000008000000000000000000000000000
RESULT CIPHER-DECIPHER: -----OK-----


Test: 17
Sector size in bytes: 1024
Data unit:   0
Start block: 0
Symmetric key bit length: 384
Plaintext bit length:     136
Symmetric key:            000000000000000000000000000000000000000000000000000000000000000000000000000000000000000000000000
Plaintext:                0000004000000000000000000000000000
Ciphertext:               2429993d67780162f346af4c52a426646ef58cccae611d223cf5995d6de5499865
Reciphers for ciphertext: 0
Decipheredtext:           0000004000000000000000000000000000
RESULT CIPHER-DECIPHER: -----OK-----


Test: 18
Sector size in bytes: 1024
Data unit:   0
Start block: 0
Symmetric key bit length: 384
Plaintext bit length:     136
Symmetric key:            000000000000000000000000000000000000000000000000000000000000000000000000000000000000000000000000
Plaintext:                0000002000000000000000000000000000
Ciphertext:               2429993d67780162f346af4c52a426643854d6c7400e339b7455f01b7b74dd3120
Reciphers for ciphertext: 0
Decipheredtext:           0000002000000000000000000000000000
RESULT CIPHER-DECIPHER: -----OK-----


Test: 19
Sector size in bytes: 1024
Data unit:   0
Start block: 0
Symmetric key bit length: 384
Plaintext bit length:     136
Symmetric key:            000000000000000000000000000000000000000000000000000000000000000000000000000000000000000000000000
Plaintext:                0000001000000000000000000000000000
Ciphertext:               2429993d67780162f346af4c52a4266426fe2c23c57e2672b466db8bda3e57f1c8
Reciphers for ciphertext: 0
Decipheredtext:           0000001000000000000000000000000000
RESULT CIPHER-DECIPHER: -----OK-----


Test: 20
Sector size in bytes: 1536
Data unit:   0
Start block: 0
Symmetric key bit length: 384
Plaintext bit length:     136
Symmetric key:            000000000000000000000000000000000000000000000000000000000000000000000000000000000000000000000000
Plaintext:                0000000800000000000000000000000000
Ciphertext:               2429993d67780162f346af4c52a42664a3d1d2652c08be91aaa0206b721885eea4
Reciphers for ciphertext: 0
Decipheredtext:           0000000800000000000000000000000000
RESULT CIPHER-DECIPHER: -----OK-----


Test: 21
Sector size in bytes: 1536
Data unit:   0
Start block: 0
Symmetric key bit length: 384
Plaintext bit length:     136
Symmetric key:            000000000000000000000000000000000000000000000000000000000000000000000000000000000000000000000000
Plaintext:                0000000400000000000000000000000000
Ciphertext:               f3335210e378814730abe8e7e8a55cb7351f30aad170e8737a2215d902ee423c37
Reciphers for ciphertext: 1
Decipheredtext:           0000000400000000000000000000000000
RESULT CIPHER-DECIPHER: -----OK-----


Test: 22
Sector size in bytes: 1536
Data unit:   0
Start block: 0
Symmetric key bit length: 384
Plaintext bit length:     136
Symmetric key:            000000000000000000000000000000000000000000000000000000000000000000000000000000000000000000000000
Plaintext:                0000000200000000000000000000000000
Ciphertext:               2429993d67780162f346af4c52a426641dc815e2602a8cbd927fcf2457e6e350da
Reciphers for ciphertext: 0
Decipheredtext:           0000000200000000000000000000000000
RESULT CIPHER-DECIPHER: -----OK-----


Test: 23
Sector size in bytes: 1536
Data unit:   0
Start block: 0
Symmetric key bit length: 384
Plaintext bit length:     136
Symmetric key:            000000000000000000000000000000000000000000000000000000000000000000000000000000000000000000000000
Plaintext:                0000000100000000000000000000000000
Ciphertext:               2429993d67780162f346af4c52a426648d06741987dc01743334175bbfdc5eeb5e
Reciphers for ciphertext: 0
Decipheredtext:           0000000100000000000000000000000000
RESULT CIPHER-DECIPHER: -----OK-----


Test: 24
Sector size in bytes: 1536
Data unit:   0
Start block: 0
Symmetric key bit length: 384
Plaintext bit length:     136
Symmetric key:            000000000000000000000000000000000000000000000000000000000000000000000000000000000000000000000000
Plaintext:                0000000080000000000000000000000000
Ciphertext:               2429993d67780162f346af4c52a4266468897860434cd5997f3c35aa799ac8f23c
Reciphers for ciphertext: 0
Decipheredtext:           0000000080000000000000000000000000
RESULT CIPHER-DECIPHER: -----OK-----


Test: 25
Sector size in bytes: 1536
Data unit:   0
Start block: 0
Symmetric key bit length: 384
Plaintext bit length:     136
Symmetric key:            000000000000000000000000000000000000000000000000000000000000000000000000000000000000000000000000
Plaintext:                0000000040000000000000000000000000
Ciphertext:               2429993d67780162f346af4c52a4266480d077489d8d0dcef89718c4039c09b4a8
Reciphers for ciphertext: 0
Decipheredtext:           0000000040000000000000000000000000
RESULT CIPHER-DECIPHER: -----OK-----


Test: 26
Sector size in bytes: 1536
Data unit:   0
Start block: 0
Symmetric key bit length: 384
Plaintext bit length:     136
Symmetric key:            000000000000000000000000000000000000000000000000000000000000000000000000000000000000000000000000
Plaintext:                0000000020000000000000000000000000
Ciphertext:               2429993d67780162f346af4c52a42664582298d3347d8ed945b93c07308c6d98fb
Reciphers for ciphertext: 0
Decipheredtext:           0000000020000000000000000000000000
RESULT CIPHER-DECIPHER: -----OK-----


Test: 27
Sector size in bytes: 1536
Data unit:   0
Start block: 0
Symmetric key bit length: 384
Plaintext bit length:     136
Symmetric key:            000000000000000000000000000000000000000000000000000000000000000000000000000000000000000000000000
Plaintext:                0000000010000000000000000000000000
Ciphertext:               2429993d67780162f346af4c52a426647130ff99bfdff790b340d5c1a84e807394
Reciphers for ciphertext: 0
Decipheredtext:           0000000010000000000000000000000000
RESULT CIPHER-DECIPHER: -----OK-----


Test: 28
Sector size in bytes: 1536
Data unit:   0
Start block: 0
Symmetric key bit length: 384
Plaintext bit length:     136
Symmetric key:            000000000000000000000000000000000000000000000000000000000000000000000000000000000000000000000000
Plaintext:                0000000008000000000000000000000000
Ciphertext:               2429993d67780162f346af4c52a426642bbbe6174ee6c400972bfe599362c8cf73
Reciphers for ciphertext: 0
Decipheredtext:           0000000008000000000000000000000000
RESULT CIPHER-DECIPHER: -----OK-----


Test: 29
Sector size in bytes: 1536
Data unit:   0
Start block: 0
Symmetric key bit length: 384
Plaintext bit length:     136
Symmetric key:            000000000000000000000000000000000000000000000000000000000000000000000000000000000000000000000000
Plaintext:                0000000004000000000000000000000000
Ciphertext:               2429993d67780162f346af4c52a42664a801e8f52a2418fcf62c4451c35caa99c5
Reciphers for ciphertext: 0
Decipheredtext:           0000000004000000000000000000000000
RESULT CIPHER-DECIPHER: -----OK-----


Test: 30
Sector size in bytes: 2048
Data unit:   0
Start block: 0
Symmetric key bit length: 384
Plaintext bit length:     136
Symmetric key:            000000000000000000000000000000000000000000000000000000000000000000000000000000000000000000000000
Plaintext:                0000000002000000000000000000000000
Ciphertext:               2429993d67780162f346af4c52a42664727cf8dce34f6138b34de5018f84196054
Reciphers for ciphertext: 0
Decipheredtext:           0000000002000000000000000000000000
RESULT CIPHER-DECIPHER: -----OK-----


Test: 31
Sector size in bytes: 2048
Data unit:   0
Start block: 0
Symmetric key bit length: 384
Plaintext bit length:     136
Symmetric key:            000000000000000000000000000000000000000000000000000000000000000000000000000000000000000000000000
Plaintext:                0000000001000000000000000000000000
Ciphertext:               2429993d67780162f346af4c52a426644148a724c4c91f8444287e98b4354b1eb4
Reciphers for ciphertext: 0
Decipheredtext:           0000000001000000000000000000000000
RESULT CIPHER-DECIPHER: -----OK-----


Test: 32
Sector size in bytes: 2048
Data unit:   0
Start block: 0
Symmetric key bit length: 384
Plaintext bit length:     136
Symmetric key:            000000000000000000000000000000000000000000000000000000000000000000000000000000000000000000000000
Plaintext:                0000000000800000000000000000000000
Ciphertext:               2429993d67780162f346af4c52a42664b4d3aeb722572ea0dd35677f246b4c5062
Reciphers for ciphertext: 0
Decipheredtext:           0000000000800000000000000000000000
RESULT CIPHER-DECIPHER: -----OK-----


Test: 33
Sector size in bytes: 2048
Data unit:   0
Start block: 0
Symmetric key bit length: 384
Plaintext bit length:     136
Symmetric key:            000000000000000000000000000000000000000000000000000000000000000000000000000000000000000000000000
Plaintext:                0000000000400000000000000000000000
Ciphertext:               2429993d67780162f346af4c52a4266445f54229fa3920bdb1288e891232ee53d2
Reciphers for ciphertext: 0
Decipheredtext:           0000000000400000000000000000000000
RESULT CIPHER-DECIPHER: -----OK-----


Test: 34
Sector size in bytes: 2048
Data unit:   0
Start block: 0
Symmetric key bit length: 384
Plaintext bit length:     136
Symmetric key:            000000000000000000000000000000000000000000000000000000000000000000000000000000000000000000000000
Plaintext:                0000000000200000000000000000000000
Ciphertext:               2429993d67780162f346af4c52a42664c0c3ceb4b031331505322908661fc098d5
Reciphers for ciphertext: 0
Decipheredtext:           0000000000200000000000000000000000
RESULT CIPHER-DECIPHER: -----OK-----


Test: 35
Sector size in bytes: 2048
Data unit:   0
Start block: 0
Symmetric key bit length: 384
Plaintext bit length:     136
Symmetric key:            000000000000000000000000000000000000000000000000000000000000000000000000000000000000000000000000
Plaintext:                0000000000100000000000000000000000
Ciphertext:               2429993d67780162f346af4c52a426643f522ad03ca398b07bde6b9deee94f545c
Reciphers for ciphertext: 0
Decipheredtext:           0000000000100000000000000000000000
RESULT CIPHER-DECIPHER: -----OK-----


Test: 36
Sector size in bytes: 2048
Data unit:   0
Start block: 0
Symmetric key bit length: 384
Plaintext bit length:     136
Symmetric key:            000000000000000000000000000000000000000000000000000000000000000000000000000000000000000000000000
Plaintext:                0000000000080000000000000000000000
Ciphertext:               2429993d67780162f346af4c52a42664158aa42e1c3db9b325a11f565457bb0d7b
Reciphers for ciphertext: 0
Decipheredtext:           0000000000080000000000000000000000
RESULT CIPHER-DECIPHER: -----OK-----


Test: 37
Sector size in bytes: 2048
Data unit:   0
Start block: 0
Symmetric key bit length: 384
Plaintext bit length:     136
Symmetric key:            000000000000000000000000000000000000000000000000000000000000000000000000000000000000000000000000
Plaintext:                0000000000040000000000000000000000
Ciphertext:               2429993d67780162f346af4c52a42664cfca1cf6789fa8cef0ee096b2f7a7f6f3f
Reciphers for ciphertext: 0
Decipheredtext:           0000000000040000000000000000000000
RESULT CIPHER-DECIPHER: -----OK-----


Test: 38
Sector size in bytes: 2048
Data unit:   0
Start block: 0
Symmetric key bit length: 384
Plaintext bit length:     136
Symmetric key:            000000000000000000000000000000000000000000000000000000000000000000000000000000000000000000000000
Plaintext:                0000000000020000000000000000000000
Ciphertext:               2429993d67780162f346af4c52a42664cc1f6e016d08e88bcc0138f16bfce0f87c
Reciphers for ciphertext: 0
Decipheredtext:           0000000000020000000000000000000000
RESULT CIPHER-DECIPHER: -----OK-----


Test: 39
Sector size in bytes: 2048
Data unit:   0
Start block: 0
Symmetric key bit length: 384
Plaintext bit length:     136
Symmetric key:            000000000000000000000000000000000000000000000000000000000000000000000000000000000000000000000000
Plaintext:                0000000000010000000000000000000000
Ciphertext:               2429993d67780162f346af4c52a42664660bb75effaeb67b98166202e330bd22b3
Reciphers for ciphertext: 0
Decipheredtext:           0000000000010000000000000000000000
RESULT CIPHER-DECIPHER: -----OK-----


Test: 40
Sector size in bytes: 2560
Data unit:   0
Start block: 0
Symmetric key bit length: 384
Plaintext bit length:     136
Symmetric key:            000000000000000000000000000000000000000000000000000000000000000000000000000000000000000000000000
Plaintext:                0000000000008000000000000000000000
Ciphertext:               2429993d67780162f346af4c52a42664522576ddd1c3611e9fd6419e845cfa4924
Reciphers for ciphertext: 0
Decipheredtext:           0000000000008000000000000000000000
RESULT CIPHER-DECIPHER: -----OK-----


Test: 41
Sector size in bytes: 2560
Data unit:   0
Start block: 0
Symmetric key bit length: 384
Plaintext bit length:     136
Symmetric key:            000000000000000000000000000000000000000000000000000000000000000000000000000000000000000000000000
Plaintext:                0000000000004000000000000000000000
Ciphertext:               2429993d67780162f346af4c52a42664a639f30575aee88ea10d3c0c3e71ab4d92
Reciphers for ciphertext: 0
Decipheredtext:           0000000000004000000000000000000000
RESULT CIPHER-DECIPHER: -----OK-----


Test: 42
Sector size in bytes: 2560
Data unit:   0
Start block: 0
Symmetric key bit length: 384
Plaintext bit length:     136
Symmetric key:            000000000000000000000000000000000000000000000000000000000000000000000000000000000000000000000000
Plaintext:                0000000000002000000000000000000000
Ciphertext:               2429993d67780162f346af4c52a42664400c63557af77a8709270e936768bcf063
Reciphers for ciphertext: 0
Decipheredtext:           0000000000002000000000000000000000
RESULT CIPHER-DECIPHER: -----OK-----


Test: 43
Sector size in bytes: 2560
Data unit:   0
Start block: 0
Symmetric key bit length: 384
Plaintext bit length:     136
Symmetric key:            000000000000000000000000000000000000000000000000000000000000000000000000000000000000000000000000
Plaintext:                0000000000001000000000000000000000
Ciphertext:               2429993d67780162f346af4c52a42664f1416373a970f6c0d79c8cf7a37747c2ff
Reciphers for ciphertext: 0
Decipheredtext:           0000000000001000000000000000000000
RESULT CIPHER-DECIPHER: -----OK-----


Test: 44
Sector size in bytes: 2560
Data unit:   0
Start block: 0
Symmetric key bit length: 384
Plaintext bit length:     136
Symmetric key:            000000000000000000000000000000000000000000000000000000000000000000000000000000000000000000000000
Plaintext:                0000000000000800000000000000000000
Ciphertext:               2429993d67780162f346af4c52a4266469de378bcd122889e2b1090c89474b376e
Reciphers for ciphertext: 0
Decipheredtext:           0000000000000800000000000000000000
RESULT CIPHER-DECIPHER: -----OK-----


Test: 45
Sector size in bytes: 2560
Data unit:   0
Start block: 0
Symmetric key bit length: 384
Plaintext bit length:     136
Symmetric key:            000000000000000000000000000000000000000000000000000000000000000000000000000000000000000000000000
Plaintext:                0000000000000400000000000000000000
Ciphertext:               2429993d67780162f346af4c52a42664b67167848a1f989ebf21a5a29987b279f9
Reciphers for ciphertext: 0
Decipheredtext:           0000000000000400000000000000000000
RESULT CIPHER-DECIPHER: -----OK-----


Test: 46
Sector size in bytes: 2560
Data unit:   0
Start block: 0
Symmetric key bit length: 384
Plaintext bit length:     136
Symmetric key:            000000000000000000000000000000000000000000000000000000000000000000000000000000000000000000000000
Plaintext:                0000000000000200000000000000000000
Ciphertext:               2429993d67780162f346af4c52a4266491e3c0f3f57c31618823cb1d7fb5921bd0
Reciphers for ciphertext: 0
Decipheredtext:           0000000000000200000000000000000000
RESULT CIPHER-DECIPHER: -----OK-----


Test: 47
Sector size in bytes: 2560
Data unit:   0
Start block: 0
Symmetric key bit length: 384
Plaintext bit length:     136
Symmetric key:            000000000000000000000000000000000000000000000000000000000000000000000000000000000000000000000000
Plaintext:                0000000000000100000000000000000000
Ciphertext:               2429993d67780162f346af4c52a42664b55ba4eb9a63eaf0bfde9e9a219a5e27b5
Reciphers for ciphertext: 0
Decipheredtext:           0000000000000100000000000000000000
RESULT CIPHER-DECIPHER: -----OK-----


Test: 48
Sector size in bytes: 2560
Data unit:   0
Start block: 0
Symmetric key bit length: 384
Plaintext bit length:     136
Symmetric key:            000000000000000000000000000000000000000000000000000000000000000000000000000000000000000000000000
Plaintext:                0000000000000080000000000000000000
Ciphertext:               2429993d67780162f346af4c52a42664aa322e5bcdd196470feadb1925aa022e56
Reciphers for ciphertext: 0
Decipheredtext:           0000000000000080000000000000000000
RESULT CIPHER-DECIPHER: -----OK-----


Test: 49
Sector size in bytes: 2560
Data unit:   0
Start block: 0
Symmetric key bit length: 384
Plaintext bit length:     136
Symmetric key:            000000000000000000000000000000000000000000000000000000000000000000000000000000000000000000000000
Plaintext:                0000000000000040000000000000000000
Ciphertext:               2429993d67780162f346af4c52a426646e21257b74cf9a3eaaf33046eee513ae40
Reciphers for ciphertext: 0
Decipheredtext:           0000000000000040000000000000000000
RESULT CIPHER-DECIPHER: -----OK-----


Test: 50
Sector size in bytes: 3072
Data unit:   0
Start block: 0
Symmetric key bit length: 384
Plaintext bit length:     136
Symmetric key:            000000000000000000000000000000000000000000000000000000000000000000000000000000000000000000000000
Plaintext:                0000000000000020000000000000000000
Ciphertext:               2429993d67780162f346af4c52a42664c8fbfc65a56aed730e59bc48721a28c0a7
Reciphers for ciphertext: 0
Decipheredtext:           0000000000000020000000000000000000
RESULT CIPHER-DECIPHER: -----OK-----


Test: 51
Sector size in bytes: 3072
Data unit:   0
Start block: 0
Symmetric key bit length: 384
Plaintext bit length:     136
Symmetric key:            000000000000000000000000000000000000000000000000000000000000000000000000000000000000000000000000
Plaintext:                0000000000000010000000000000000000
Ciphertext:               2429993d67780162f346af4c52a426647fe0dd9750919d543e788760d717402179
Reciphers for ciphertext: 0
Decipheredtext:           0000000000000010000000000000000000
RESULT CIPHER-DECIPHER: -----OK-----


Test: 52
Sector size in bytes: 3072
Data unit:   0
Start block: 0
Symmetric key bit length: 384
Plaintext bit length:     136
Symmetric key:            000000000000000000000000000000000000000000000000000000000000000000000000000000000000000000000000
Plaintext:                0000000000000008000000000000000000
Ciphertext:               2429993d67780162f346af4c52a426648ad8df5d1ba311fc52b60324d90d2e5445
Reciphers for ciphertext: 0
Decipheredtext:           0000000000000008000000000000000000
RESULT CIPHER-DECIPHER: -----OK-----


Test: 53
Sector size in bytes: 3072
Data unit:   0
Start block: 0
Symmetric key bit length: 384
Plaintext bit length:     136
Symmetric key:            000000000000000000000000000000000000000000000000000000000000000000000000000000000000000000000000
Plaintext:                0000000000000004000000000000000000
Ciphertext:               2429993d67780162f346af4c52a426648c5095dacedd8342ef2236f1e4e55d1cc7
Reciphers for ciphertext: 0
Decipheredtext:           0000000000000004000000000000000000
RESULT CIPHER-DECIPHER: -----OK-----


Test: 54
Sector size in bytes: 3072
Data unit:   0
Start block: 0
Symmetric key bit length: 384
Plaintext bit length:     136
Symmetric key:            000000000000000000000000000000000000000000000000000000000000000000000000000000000000000000000000
Plaintext:                0000000000000002000000000000000000
Ciphertext:               2429993d67780162f346af4c52a42664c17994b4de2b9e5a5262306e7e60ac016a
Reciphers for ciphertext: 0
Decipheredtext:           0000000000000002000000000000000000
RESULT CIPHER-DECIPHER: -----OK-----


Test: 55
Sector size in bytes: 3072
Data unit:   0
Start block: 0
Symmetric key bit length: 384
Plaintext bit length:     136
Symmetric key:            000000000000000000000000000000000000000000000000000000000000000000000000000000000000000000000000
Plaintext:                0000000000000001000000000000000000
Ciphertext:               2429993d67780162f346af4c52a42664dab4e755d2e7f69615ce9fea36cc7a085b
Reciphers for ciphertext: 0
Decipheredtext:           0000000000000001000000000000000000
RESULT CIPHER-DECIPHER: -----OK-----


Test: 56
Sector size in bytes: 3072
Data unit:   0
Start block: 0
Symmetric key bit length: 384
Plaintext bit length:     136
Symmetric key:            000000000000000000000000000000000000000000000000000000000000000000000000000000000000000000000000
Plaintext:                0000000000000000800000000000000000
Ciphertext:               2429993d67780162f346af4c52a426642c1afad751d3d1c34e26d237864cf61aa8
Reciphers for ciphertext: 0
Decipheredtext:           0000000000000000800000000000000000
RESULT CIPHER-DECIPHER: -----OK-----


Test: 57
Sector size in bytes: 3072
Data unit:   0
Start block: 0
Symmetric key bit length: 384
Plaintext bit length:     136
Symmetric key:            000000000000000000000000000000000000000000000000000000000000000000000000000000000000000000000000
Plaintext:                0000000000000000400000000000000000
Ciphertext:               2429993d67780162f346af4c52a4266427c8beb9bd017933177b848fefc3816413
Reciphers for ciphertext: 0
Decipheredtext:           0000000000000000400000000000000000
RESULT CIPHER-DECIPHER: -----OK-----


Test: 58
Sector size in bytes: 3072
Data unit:   0
Start block: 0
Symmetric key bit length: 384
Plaintext bit length:     136
Symmetric key:            000000000000000000000000000000000000000000000000000000000000000000000000000000000000000000000000
Plaintext:                0000000000000000200000000000000000
Ciphertext:               2429993d67780162f346af4c52a426642f15626f17984c171894dd31c32bcfb812
Reciphers for ciphertext: 0
Decipheredtext:           0000000000000000200000000000000000
RESULT CIPHER-DECIPHER: -----OK-----


Test: 59
Sector size in bytes: 3072
Data unit:   0
Start block: 0
Symmetric key bit length: 384
Plaintext bit length:     136
Symmetric key:            000000000000000000000000000000000000000000000000000000000000000000000000000000000000000000000000
Plaintext:                0000000000000000100000000000000000
Ciphertext:               2429993d67780162f346af4c52a426647575c5a7d0ab81e148b48f77d37e2b7bb2
Reciphers for ciphertext: 0
Decipheredtext:           0000000000000000100000000000000000
RESULT CIPHER-DECIPHER: -----OK-----


Test: 60
Sector size in bytes: 3584
Data unit:   0
Start block: 0
Symmetric key bit length: 384
Plaintext bit length:     136
Symmetric key:            000000000000000000000000000000000000000000000000000000000000000000000000000000000000000000000000
Plaintext:                0000000000000000080000000000000000
Ciphertext:               2429993d67780162f346af4c52a426647f8f24ffa460c0734aef5f279e83fa0cd0
Reciphers for ciphertext: 0
Decipheredtext:           0000000000000000080000000000000000
RESULT CIPHER-DECIPHER: -----OK-----


Test: 61
Sector size in bytes: 3584
Data unit:   0
Start block: 0
Symmetric key bit length: 384
Plaintext bit length:     136
Symmetric key:            000000000000000000000000000000000000000000000000000000000000000000000000000000000000000000000000
Plaintext:                0000000000000000040000000000000000
Ciphertext:               2429993d67780162f346af4c52a426649f68585cecac1129f365ab890302dd4843
Reciphers for ciphertext: 0
Decipheredtext:           0000000000000000040000000000000000
RESULT CIPHER-DECIPHER: -----OK-----


Test: 62
Sector size in bytes: 3584
Data unit:   0
Start block: 0
Symmetric key bit length: 384
Plaintext bit length:     136
Symmetric key:            000000000000000000000000000000000000000000000000000000000000000000000000000000000000000000000000
Plaintext:                0000000000000000020000000000000000
Ciphertext:               2429993d67780162f346af4c52a42664d78bb22d4509044a619cf88593c513dc81
Reciphers for ciphertext: 0
Decipheredtext:           0000000000000000020000000000000000
RESULT CIPHER-DECIPHER: -----OK-----


Test: 63
Sector size in bytes: 3584
Data unit:   0
Start block: 0
Symmetric key bit length: 384
Plaintext bit length:     136
Symmetric key:            000000000000000000000000000000000000000000000000000000000000000000000000000000000000000000000000
Plaintext:                0000000000000000010000000000000000
Ciphertext:               2429993d67780162f346af4c52a42664eb6eccaa04aa50df650ffca24a885b74a4
Reciphers for ciphertext: 0
Decipheredtext:           0000000000000000010000000000000000
RESULT CIPHER-DECIPHER: -----OK-----


Test: 64
Sector size in bytes: 3584
Data unit:   0
Start block: 0
Symmetric key bit length: 384
Plaintext bit length:     136
Symmetric key:            000000000000000000000000000000000000000000000000000000000000000000000000000000000000000000000000
Plaintext:                0000000000000000008000000000000000
Ciphertext:               2429993d67780162f346af4c52a42664c8f4e60fe49bd26fafa23ae64cc3cb7ff2
Reciphers for ciphertext: 0
Decipheredtext:           0000000000000000008000000000000000
RESULT CIPHER-DECIPHER: -----OK-----


Test: 65
Sector size in bytes: 3584
Data unit:   0
Start block: 0
Symmetric key bit length: 384
Plaintext bit length:     136
Symmetric key:            000000000000000000000000000000000000000000000000000000000000000000000000000000000000000000000000
Plaintext:                0000000000000000004000000000000000
Ciphertext:               2429993d67780162f346af4c52a426643e8c952f12bcb8a3225d91898d46ff055e
Reciphers for ciphertext: 0
Decipheredtext:           0000000000000000004000000000000000
RESULT CIPHER-DECIPHER: -----OK-----


Test: 66
Sector size in bytes: 3584
Data unit:   0
Start block: 0
Symmetric key bit length: 384
Plaintext bit length:     136
Symmetric key:            000000000000000000000000000000000000000000000000000000000000000000000000000000000000000000000000
Plaintext:                0000000000000000002000000000000000
Ciphertext:               2429993d67780162f346af4c52a42664e742ca3516f2a2ed97ac9284334c239b97
Reciphers for ciphertext: 0
Decipheredtext:           0000000000000000002000000000000000
RESULT CIPHER-DECIPHER: -----OK-----


Test: 67
Sector size in bytes: 3584
Data unit:   0
Start block: 0
Symmetric key bit length: 384
Plaintext bit length:     136
Symmetric key:            000000000000000000000000000000000000000000000000000000000000000000000000000000000000000000000000
Plaintext:                0000000000000000001000000000000000
Ciphertext:               2429993d67780162f346af4c52a42664a6b4251be7b453a2de7165b7e7058494fb
Reciphers for ciphertext: 0
Decipheredtext:           0000000000000000001000000000000000
RESULT CIPHER-DECIPHER: -----OK-----


Test: 68
Sector size in bytes: 3584
Data unit:   0
Start block: 0
Symmetric key bit length: 384
Plaintext bit length:     136
Symmetric key:            000000000000000000000000000000000000000000000000000000000000000000000000000000000000000000000000
Plaintext:                0000000000000000000800000000000000
Ciphertext:               2429993d67780162f346af4c52a42664f01b5e8c8df479655a7255ceccad095223
Reciphers for ciphertext: 0
Decipheredtext:           0000000000000000000800000000000000
RESULT CIPHER-DECIPHER: -----OK-----


Test: 69
Sector size in bytes: 3584
Data unit:   0
Start block: 0
Symmetric key bit length: 384
Plaintext bit length:     136
Symmetric key:            000000000000000000000000000000000000000000000000000000000000000000000000000000000000000000000000
Plaintext:                0000000000000000000400000000000000
Ciphertext:               2429993d67780162f346af4c52a42664c8edb2b5f8f5954c19f19c26e052dcc27c
Reciphers for ciphertext: 0
Decipheredtext:           0000000000000000000400000000000000
RESULT CIPHER-DECIPHER: -----OK-----


Test: 70
Sector size in bytes: 4096
Data unit:   0
Start block: 0
Symmetric key bit length: 384
Plaintext bit length:     136
Symmetric key:            000000000000000000000000000000000000000000000000000000000000000000000000000000000000000000000000
Plaintext:                0000000000000000000200000000000000
Ciphertext:               2429993d67780162f346af4c52a426645c9afb4f8f71754d01b077487574deea76
Reciphers for ciphertext: 0
Decipheredtext:           0000000000000000000200000000000000
RESULT CIPHER-DECIPHER: -----OK-----


Test: 71
Sector size in bytes: 4096
Data unit:   0
Start block: 0
Symmetric key bit length: 384
Plaintext bit length:     136
Symmetric key:            000000000000000000000000000000000000000000000000000000000000000000000000000000000000000000000000
Plaintext:                0000000000000000000100000000000000
Ciphertext:               2429993d67780162f346af4c52a42664f65890a7b8805e2dff199c24ea861bc76b
Reciphers for ciphertext: 0
Decipheredtext:           0000000000000000000100000000000000
RESULT CIPHER-DECIPHER: -----OK-----


Test: 72
Sector size in bytes: 4096
Data unit:   0
Start block: 0
Symmetric key bit length: 384
Plaintext bit length:     136
Symmetric key:            000000000000000000000000000000000000000000000000000000000000000000000000000000000000000000000000
Plaintext:                0000000000000000000080000000000000
Ciphertext:               2429993d67780162f346af4c52a42664d09f9cd47a0ad670352bbe1f26bbbf1c13
Reciphers for ciphertext: 0
Decipheredtext:           0000000000000000000080000000000000
RESULT CIPHER-DECIPHER: -----OK-----


Test: 73
Sector size in bytes: 4096
Data unit:   0
Start block: 0
Symmetric key bit length: 384
Plaintext bit length:     136
Symmetric key:            000000000000000000000000000000000000000000000000000000000000000000000000000000000000000000000000
Plaintext:                0000000000000000000040000000000000
Ciphertext:               2429993d67780162f346af4c52a42664766cde7ca89a7197ce488c058113620bf3
Reciphers for ciphertext: 0
Decipheredtext:           0000000000000000000040000000000000
RESULT CIPHER-DECIPHER: -----OK-----


Test: 74
Sector size in bytes: 4096
Data unit:   0
Start block: 0
Symmetric key bit length: 384
Plaintext bit length:     136
Symmetric key:            000000000000000000000000000000000000000000000000000000000000000000000000000000000000000000000000
Plaintext:                0000000000000000000020000000000000
Ciphertext:               2429993d67780162f346af4c52a426640ec95e39d3bf01612b04c6d69561a1c34a
Reciphers for ciphertext: 0
Decipheredtext:           0000000000000000000020000000000000
RESULT CIPHER-DECIPHER: -----OK-----


Test: 75
Sector size in bytes: 4096
Data unit:   0
Start block: 0
Symmetric key bit length: 384
Plaintext bit length:     136
Symmetric key:            000000000000000000000000000000000000000000000000000000000000000000000000000000000000000000000000
Plaintext:                0000000000000000000010000000000000
Ciphertext:               2429993d67780162f346af4c52a42664b31242eb469da5528e0d18249ac970d877
Reciphers for ciphertext: 0
Decipheredtext:           0000000000000000000010000000000000
RESULT CIPHER-DECIPHER: -----OK-----


Test: 76
Sector size in bytes: 4096
Data unit:   0
Start block: 0
Symmetric key bit length: 384
Plaintext bit length:     136
Symmetric key:            000000000000000000000000000000000000000000000000000000000000000000000000000000000000000000000000
Plaintext:                0000000000000000000008000000000000
Ciphertext:               2429993d67780162f346af4c52a426649af34316454ff4031ee3b1465153202e1c
Reciphers for ciphertext: 0
Decipheredtext:           0000000000000000000008000000000000
RESULT CIPHER-DECIPHER: -----OK-----


Test: 77
Sector size in bytes: 4096
Data unit:   0
Start block: 0
Symmetric key bit length: 384
Plaintext bit length:     136
Symmetric key:            000000000000000000000000000000000000000000000000000000000000000000000000000000000000000000000000
Plaintext:                0000000000000000000004000000000000
Ciphertext:               2429993d67780162f346af4c52a4266497e49236f8cef780b32eb49a92b32cdb62
Reciphers for ciphertext: 0
Decipheredtext:           0000000000000000000004000000000000
RESULT CIPHER-DECIPHER: -----OK-----


Test: 78
Sector size in bytes: 4096
Data unit:   0
Start block: 0
Symmetric key bit length: 384
Plaintext bit length:     136
Symmetric key:            000000000000000000000000000000000000000000000000000000000000000000000000000000000000000000000000
Plaintext:                0000000000000000000002000000000000
Ciphertext:               2429993d67780162f346af4c52a4266432a1608bba93bad1e29572e88d760459fe
Reciphers for ciphertext: 0
Decipheredtext:           0000000000000000000002000000000000
RESULT CIPHER-DECIPHER: -----OK-----


Test: 79
Sector size in bytes: 4096
Data unit:   0
Start block: 0
Symmetric key bit length: 384
Plaintext bit length:     136
Symmetric key:            000000000000000000000000000000000000000000000000000000000000000000000000000000000000000000000000
Plaintext:                0000000000000000000001000000000000
Ciphertext:               2429993d67780162f346af4c52a426643301c16d3c2c3b7580ccd76030e62bc84c
Reciphers for ciphertext: 0
Decipheredtext:           0000000000000000000001000000000000
RESULT CIPHER-DECIPHER: -----OK-----


Test: 80
Sector size in bytes: 8192
Data unit:   0
Start block: 0
Symmetric key bit length: 384
Plaintext bit length:     136
Symmetric key:            000000000000000000000000000000000000000000000000000000000000000000000000000000000000000000000000
Plaintext:                0000000000000000000000800000000000
Ciphertext:               2429993d67780162f346af4c52a42664ab20f6bd3a46c35fbc1b02d10274d3bca0
Reciphers for ciphertext: 0
Decipheredtext:           0000000000000000000000800000000000
RESULT CIPHER-DECIPHER: -----OK-----


Test: 81
Sector size in bytes: 8192
Data unit:   0
Start block: 0
Symmetric key bit length: 384
Plaintext bit length:     136
Symmetric key:            000000000000000000000000000000000000000000000000000000000000000000000000000000000000000000000000
Plaintext:                0000000000000000000000400000000000
Ciphertext:               2429993d67780162f346af4c52a42664e3125889b401578965ec0de10ff96010cd
Reciphers for ciphertext: 0
Decipheredtext:           0000000000000000000000400000000000
RESULT CIPHER-DECIPHER: -----OK-----


Test: 82
Sector size in bytes: 8192
Data unit:   0
Start block: 0
Symmetric key bit length: 384
Plaintext bit length:     136
Symmetric key:            000000000000000000000000000000000000000000000000000000000000000000000000000000000000000000000000
Plaintext:                0000000000000000000000200000000000
Ciphertext:               2429993d67780162f346af4c52a42664a997cac845aae652d54b7ea37d157dce35
Reciphers for ciphertext: 0
Decipheredtext:           0000000000000000000000200000000000
RESULT CIPHER-DECIPHER: -----OK-----


Test: 83
Sector size in bytes: 8192
Data unit:   0
Start block: 0
Symmetric key bit length: 384
Plaintext bit length:     136
Symmetric key:            000000000000000000000000000000000000000000000000000000000000000000000000000000000000000000000000
Plaintext:                0000000000000000000000100000000000
Ciphertext:               2429993d67780162f346af4c52a42664340a48ecb1e4c950989def15691c97714e
Reciphers for ciphertext: 0
Decipheredtext:           0000000000000000000000100000000000
RESULT CIPHER-DECIPHER: -----OK-----


Test: 84
Sector size in bytes: 8192
Data unit:   0
Start block: 0
Symmetric key bit length: 384
Plaintext bit length:     136
Symmetric key:            000000000000000000000000000000000000000000000000000000000000000000000000000000000000000000000000
Plaintext:                0000000000000000000000080000000000
Ciphertext:               2429993d67780162f346af4c52a42664419d5b916d2980c7d52d935cb77df05d3d
Reciphers for ciphertext: 0
Decipheredtext:           0000000000000000000000080000000000
RESULT CIPHER-DECIPHER: -----OK-----


Test: 85
Sector size in bytes: 8192
Data unit:   0
Start block: 0
Symmetric key bit length: 384
Plaintext bit length:     136
Symmetric key:            000000000000000000000000000000000000000000000000000000000000000000000000000000000000000000000000
Plaintext:                0000000000000000000000040000000000
Ciphertext:               2429993d67780162f346af4c52a4266429c321e5b8c83c02b15bfb712c0bca4063
Reciphers for ciphertext: 0
Decipheredtext:           0000000000000000000000040000000000
RESULT CIPHER-DECIPHER: -----OK-----


Test: 86
Sector size in bytes: 8192
Data unit:   0
Start block: 0
Symmetric key bit length: 384
Plaintext bit length:     136
Symmetric key:            000000000000000000000000000000000000000000000000000000000000000000000000000000000000000000000000
Plaintext:                0000000000000000000000020000000000
Ciphertext:               2429993d67780162f346af4c52a426641a8b99fe7d29cdd332b6d722361a57bc10
Reciphers for ciphertext: 0
Decipheredtext:           0000000000000000000000020000000000
RESULT CIPHER-DECIPHER: -----OK-----


Test: 87
Sector size in bytes: 8192
Data unit:   0
Start block: 0
Symmetric key bit length: 384
Plaintext bit length:     136
Symmetric key:            000000000000000000000000000000000000000000000000000000000000000000000000000000000000000000000000
Plaintext:                0000000000000000000000010000000000
Ciphertext:               2429993d67780162f346af4c52a4266470134d404c65be898c7169b453bc83a310
Reciphers for ciphertext: 0
Decipheredtext:           0000000000000000000000010000000000
RESULT CIPHER-DECIPHER: -----OK-----


Test: 88
Sector size in bytes: 8192
Data unit:   0
Start block: 0
Symmetric key bit length: 384
Plaintext bit length:     136
Symmetric key:            000000000000000000000000000000000000000000000000000000000000000000000000000000000000000000000000
Plaintext:                0000000000000000000000008000000000
Ciphertext:               2429993d67780162f346af4c52a42664d4489e07dd593f3a8c2f08d545b9d8e62e
Reciphers for ciphertext: 0
Decipheredtext:           0000000000000000000000008000000000
RESULT CIPHER-DECIPHER: -----OK-----


Test: 89
Sector size in bytes: 8192
Data unit:   0
Start block: 0
Symmetric key bit length: 384
Plaintext bit length:     136
Symmetric key:            000000000000000000000000000000000000000000000000000000000000000000000000000000000000000000000000
Plaintext:                0000000000000000000000004000000000
Ciphertext:               2429993d67780162f346af4c52a426640e248c7104e60645514aa230d17c0eb191
Reciphers for ciphertext: 0
Decipheredtext:           0000000000000000000000004000000000
RESULT CIPHER-DECIPHER: -----OK-----


Test: 90
Sector size in bytes: 12288
Data unit:   0
Start block: 0
Symmetric key bit length: 384
Plaintext bit length:     136
Symmetric key:            000000000000000000000000000000000000000000000000000000000000000000000000000000000000000000000000
Plaintext:                0000000000000000000000002000000000
Ciphertext:               2429993d67780162f346af4c52a42664f577bfa3184b4a6f3fcf46f05fd665340e
Reciphers for ciphertext: 0
Decipheredtext:           0000000000000000000000002000000000
RESULT CIPHER-DECIPHER: -----OK-----


Test: 91
Sector size in bytes: 12288
Data unit:   0
Start block: 0
Symmetric key bit length: 384
Plaintext bit length:     136
Symmetric key:            000000000000000000000000000000000000000000000000000000000000000000000000000000000000000000000000
Plaintext:                0000000000000000000000001000000000
Ciphertext:               2429993d67780162f346af4c52a4266451e9fd2258aec9737ca16173ec436a21e8
Reciphers for ciphertext: 0
Decipheredtext:           0000000000000000000000001000000000
RESULT CIPHER-DECIPHER: -----OK-----


Test: 92
Sector size in bytes: 12288
Data unit:   0
Start block: 0
Symmetric key bit length: 384
Plaintext bit length:     136
Symmetric key:            000000000000000000000000000000000000000000000000000000000000000000000000000000000000000000000000
Plaintext:                0000000000000000000000000800000000
Ciphertext:               2429993d67780162f346af4c52a42664eb238b4d83600f804470b36079d18a4815
Reciphers for ciphertext: 0
Decipheredtext:           0000000000000000000000000800000000
RESULT CIPHER-DECIPHER: -----OK-----


Test: 93
Sector size in bytes: 12288
Data unit:   0
Start block: 0
Symmetric key bit length: 384
Plaintext bit length:     136
Symmetric key:            000000000000000000000000000000000000000000000000000000000000000000000000000000000000000000000000
Plaintext:                0000000000000000000000000400000000
Ciphertext:               2429993d67780162f346af4c52a42664c710ff47262eebd4d50dad92290c430265
Reciphers for ciphertext: 0
Decipheredtext:           0000000000000000000000000400000000
RESULT CIPHER-DECIPHER: -----OK-----


Test: 94
Sector size in bytes: 12288
Data unit:   0
Start block: 0
Symmetric key bit length: 384
Plaintext bit length:     136
Symmetric key:            000000000000000000000000000000000000000000000000000000000000000000000000000000000000000000000000
Plaintext:                0000000000000000000000000200000000
Ciphertext:               2429993d67780162f346af4c52a4266418c4affad573369b8c08b56177d1382b67
Reciphers for ciphertext: 0
Decipheredtext:           0000000000000000000000000200000000
RESULT CIPHER-DECIPHER: -----OK-----


Test: 95
Sector size in bytes: 12288
Data unit:   0
Start block: 0
Symmetric key bit length: 384
Plaintext bit length:     136
Symmetric key:            000000000000000000000000000000000000000000000000000000000000000000000000000000000000000000000000
Plaintext:                0000000000000000000000000100000000
Ciphertext:               2429993d67780162f346af4c52a4266418fd95b3c03130eea3068103e16f710dec
Reciphers for ciphertext: 0
Decipheredtext:           0000000000000000000000000100000000
RESULT CIPHER-DECIPHER: -----OK-----


Test: 96
Sector size in bytes: 12288
Data unit:   0
Start block: 0
Symmetric key bit length: 384
Plaintext bit length:     136
Symmetric key:            000000000000000000000000000000000000000000000000000000000000000000000000000000000000000000000000
Plaintext:                0000000000000000000000000080000000
Ciphertext:               2429993d67780162f346af4c52a4266467400c7aeb6608edee4abcbf85604b3cd7
Reciphers for ciphertext: 0
Decipheredtext:           0000000000000000000000000080000000
RESULT CIPHER-DECIPHER: -----OK-----


Test: 97
Sector size in bytes: 12288
Data unit:   0
Start block: 0
Symmetric key bit length: 384
Plaintext bit length:     136
Symmetric key:            000000000000000000000000000000000000000000000000000000000000000000000000000000000000000000000000
Plaintext:                0000000000000000000000000040000000
Ciphertext:               2429993d67780162f346af4c52a42664126f85d84266845909436ae9f1e40f78d5
Reciphers for ciphertext: 0
Decipheredtext:           0000000000000000000000000040000000
RESULT CIPHER-DECIPHER: -----OK-----


Test: 98
Sector size in bytes: 12288
Data unit:   0
Start block: 0
Symmetric key bit length: 384
Plaintext bit length:     136
Symmetric key:            000000000000000000000000000000000000000000000000000000000000000000000000000000000000000000000000
Plaintext:                0000000000000000000000000020000000
Ciphertext:               2429993d67780162f346af4c52a42664679b6d53c4c64718b05e43d30c63af182f
Reciphers for ciphertext: 0
Decipheredtext:           0000000000000000000000000020000000
RESULT CIPHER-DECIPHER: -----OK-----


Test: 99
Sector size in bytes: 12288
Data unit:   0
Start block: 0
Symmetric key bit length: 384
Plaintext bit length:     136
Symmetric key:            000000000000000000000000000000000000000000000000000000000000000000000000000000000000000000000000
Plaintext:                0000000000000000000000000010000000
Ciphertext:               2429993d67780162f346af4c52a42664e488f294c52a4bfe7665515e3014a37653
Reciphers for ciphertext: 0
Decipheredtext:           0000000000000000000000000010000000
RESULT CIPHER-DECIPHER: -----OK-----


Test: 100
Sector size in bytes: 16384
Data unit:   0
Start block: 0
Symmetric key bit length: 384
Plaintext bit length:     136
Symmetric key:            000000000000000000000000000000000000000000000000000000000000000000000000000000000000000000000000
Plaintext:                0000000000000000000000000008000000
Ciphertext:               2429993d67780162f346af4c52a42664f5ecc1b9ef4737456ab082a54860a054ab
Reciphers for ciphertext: 0
Decipheredtext:           0000000000000000000000000008000000
RESULT CIPHER-DECIPHER: -----OK-----


Test: 101
Sector size in bytes: 16384
Data unit:   0
Start block: 0
Symmetric key bit length: 384
Plaintext bit length:     136
Symmetric key:            000000000000000000000000000000000000000000000000000000000000000000000000000000000000000000000000
Plaintext:                0000000000000000000000000004000000
Ciphertext:               2429993d67780162f346af4c52a426649ce859f5ad084a6108d7d6b2062fbd59f4
Reciphers for ciphertext: 0
Decipheredtext:           0000000000000000000000000004000000
RESULT CIPHER-DECIPHER: -----OK-----


Test: 102
Sector size in bytes: 16384
Data unit:   0
Start block: 0
Symmetric key bit length: 384
Plaintext bit length:     136
Symmetric key:            000000000000000000000000000000000000000000000000000000000000000000000000000000000000000000000000
Plaintext:                0000000000000000000000000002000000
Ciphertext:               2429993d67780162f346af4c52a426643f3f157fbdce83abcffee2183d31dc43d7
Reciphers for ciphertext: 0
Decipheredtext:           0000000000000000000000000002000000
RESULT CIPHER-DECIPHER: -----OK-----


Test: 103
Sector size in bytes: 16384
Data unit:   0
Start block: 0
Symmetric key bit length: 384
Plaintext bit length:     136
Symmetric key:            000000000000000000000000000000000000000000000000000000000000000000000000000000000000000000000000
Plaintext:                0000000000000000000000000001000000
Ciphertext:               2429993d67780162f346af4c52a42664bb1039b6185a2655404a4e984edaa1f703
Reciphers for ciphertext: 0
Decipheredtext:           0000000000000000000000000001000000
RESULT CIPHER-DECIPHER: -----OK-----


Test: 104
Sector size in bytes: 16384
Data unit:   0
Start block: 0
Symmetric key bit length: 384
Plaintext bit length:     136
Symmetric key:            000000000000000000000000000000000000000000000000000000000000000000000000000000000000000000000000
Plaintext:                0000000000000000000000000000800000
Ciphertext:               2429993d67780162f346af4c52a42664a20314409e71d10b582c2948fcdfb67494
Reciphers for ciphertext: 0
Decipheredtext:           0000000000000000000000000000800000
RESULT CIPHER-DECIPHER: -----OK-----


Test: 105
Sector size in bytes: 16384
Data unit:   0
Start block: 0
Symmetric key bit length: 384
Plaintext bit length:     136
Symmetric key:            000000000000000000000000000000000000000000000000000000000000000000000000000000000000000000000000
Plaintext:                0000000000000000000000000000400000
Ciphertext:               2429993d67780162f346af4c52a42664c43a4b32eb5338bad7c1663b6db8aa4345
Reciphers for ciphertext: 0
Decipheredtext:           0000000000000000000000000000400000
RESULT CIPHER-DECIPHER: -----OK-----


Test: 106
Sector size in bytes: 16384
Data unit:   0
Start block: 0
Symmetric key bit length: 384
Plaintext bit length:     136
Symmetric key:            000000000000000000000000000000000000000000000000000000000000000000000000000000000000000000000000
Plaintext:                0000000000000000000000000000200000
Ciphertext:               2429993d67780162f346af4c52a42664eb8edfeacc703e27b11df5426b1631eecb
Reciphers for ciphertext: 0
Decipheredtext:           0000000000000000000000000000200000
RESULT CIPHER-DECIPHER: -----OK-----


Test: 107
Sector size in bytes: 16384
Data unit:   0
Start block: 0
Symmetric key bit length: 384
Plaintext bit length:     136
Symmetric key:            000000000000000000000000000000000000000000000000000000000000000000000000000000000000000000000000
Plaintext:                0000000000000000000000000000100000
Ciphertext:               2429993d67780162f346af4c52a42664d8aa15df83bc00daa615fe311caad6dd2a
Reciphers for ciphertext: 0
Decipheredtext:           0000000000000000000000000000100000
RESULT CIPHER-DECIPHER: -----OK-----


Test: 108
Sector size in bytes: 16384
Data unit:   0
Start block: 0
Symmetric key bit length: 384
Plaintext bit length:     136
Symmetric key:            000000000000000000000000000000000000000000000000000000000000000000000000000000000000000000000000
Plaintext:                0000000000000000000000000000080000
Ciphertext:               2429993d67780162f346af4c52a42664d6e613681ce9a52d74150cccab689e03a3
Reciphers for ciphertext: 0
Decipheredtext:           0000000000000000000000000000080000
RESULT CIPHER-DECIPHER: -----OK-----


Test: 109
Sector size in bytes: 16384
Data unit:   0
Start block: 0
Symmetric key bit length: 384
Plaintext bit length:     136
Symmetric key:            000000000000000000000000000000000000000000000000000000000000000000000000000000000000000000000000
Plaintext:                0000000000000000000000000000040000
Ciphertext:               2429993d67780162f346af4c52a42664200324a97830a16bad42666846f8d63c22
Reciphers for ciphertext: 0
Decipheredtext:           0000000000000000000000000000040000
RESULT CIPHER-DECIPHER: -----OK-----


Test: 110
Sector size in bytes: 24576
Data unit:   0
Start block: 0
Symmetric key bit length: 384
Plaintext bit length:     136
Symmetric key:            000000000000000000000000000000000000000000000000000000000000000000000000000000000000000000000000
Plaintext:                0000000000000000000000000000020000
Ciphertext:               2429993d67780162f346af4c52a426647ffc63217cb45ab5237cb467d71335cdbc
Reciphers for ciphertext: 0
Decipheredtext:           0000000000000000000000000000020000
RESULT CIPHER-DECIPHER: -----OK-----


Test: 111
Sector size in bytes: 24576
Data unit:   0
Start block: 0
Symmetric key bit length: 384
Plaintext bit length:     136
Symmetric key:            000000000000000000000000000000000000000000000000000000000000000000000000000000000000000000000000
Plaintext:                0000000000000000000000000000010000
Ciphertext:               2429993d67780162f346af4c52a426642b33e5dc2ecc52a926faaf18b1a32a65bb
Reciphers for ciphertext: 0
Decipheredtext:           0000000000000000000000000000010000
RESULT CIPHER-DECIPHER: -----OK-----


Test: 112
Sector size in bytes: 24576
Data unit:   0
Start block: 0
Symmetric key bit length: 384
Plaintext bit length:     136
Symmetric key:            000000000000000000000000000000000000000000000000000000000000000000000000000000000000000000000000
Plaintext:                0000000000000000000000000000008000
Ciphertext:               2429993d67780162f346af4c52a42664e718bcedd4d97f49c27dbc70e07ae5e8a5
Reciphers for ciphertext: 0
Decipheredtext:           0000000000000000000000000000008000
RESULT CIPHER-DECIPHER: -----OK-----


Test: 113
Sector size in bytes: 24576
Data unit:   0
Start block: 0
Symmetric key bit length: 384
Plaintext bit length:     136
Symmetric key:            000000000000000000000000000000000000000000000000000000000000000000000000000000000000000000000000
Plaintext:                0000000000000000000000000000004000
Ciphertext:               2429993d67780162f346af4c52a426647c4b8fe6ecd7111b5e0fe4be34cf55a6d9
Reciphers for ciphertext: 0
Decipheredtext:           0000000000000000000000000000004000
RESULT CIPHER-DECIPHER: -----OK-----


Test: 114
Sector size in bytes: 24576
Data unit:   0
Start block: 0
Symmetric key bit length: 384
Plaintext bit length:     136
Symmetric key:            000000000000000000000000000000000000000000000000000000000000000000000000000000000000000000000000
Plaintext:                0000000000000000000000000000002000
Ciphertext:               2429993d67780162f346af4c52a42664edaf9c7b71629c6d25199103f420378822
Reciphers for ciphertext: 0
Decipheredtext:           0000000000000000000000000000002000
RESULT CIPHER-DECIPHER: -----OK-----


Test: 115
Sector size in bytes: 24576
Data unit:   0
Start block: 0
Symmetric key bit length: 384
Plaintext bit length:     136
Symmetric key:            000000000000000000000000000000000000000000000000000000000000000000000000000000000000000000000000
Plaintext:                0000000000000000000000000000001000
Ciphertext:               2429993d67780162f346af4c52a4266446aab9c8edf1a0f8ef25032fb10dd6e260
Reciphers for ciphertext: 0
Decipheredtext:           0000000000000000000000000000001000
RESULT CIPHER-DECIPHER: -----OK-----


Test: 116
Sector size in bytes: 24576
Data unit:   0
Start block: 0
Symmetric key bit length: 384
Plaintext bit length:     136
Symmetric key:            000000000000000000000000000000000000000000000000000000000000000000000000000000000000000000000000
Plaintext:                0000000000000000000000000000000800
Ciphertext:               2429993d67780162f346af4c52a42664603e8bc92f7e1a911ed001b1fbb599f7f1
Reciphers for ciphertext: 0
Decipheredtext:           0000000000000000000000000000000800
RESULT CIPHER-DECIPHER: -----OK-----


Test: 117
Sector size in bytes: 24576
Data unit:   0
Start block: 0
Symmetric key bit length: 384
Plaintext bit length:     136
Symmetric key:            000000000000000000000000000000000000000000000000000000000000000000000000000000000000000000000000
Plaintext:                0000000000000000000000000000000400
Ciphertext:               2429993d67780162f346af4c52a426643f833bf298c3a4dab5e2420d7210bfa543
Reciphers for ciphertext: 0
Decipheredtext:           0000000000000000000000000000000400
RESULT CIPHER-DECIPHER: -----OK-----


Test: 118
Sector size in bytes: 24576
Data unit:   0
Start block: 0
Symmetric key bit length: 384
Plaintext bit length:     136
Symmetric key:            000000000000000000000000000000000000000000000000000000000000000000000000000000000000000000000000
Plaintext:                0000000000000000000000000000000200
Ciphertext:               2429993d67780162f346af4c52a426644ea44f8ea434bb58180b1739dc383d5186
Reciphers for ciphertext: 0
Decipheredtext:           0000000000000000000000000000000200
RESULT CIPHER-DECIPHER: -----OK-----


Test: 119
Sector size in bytes: 24576
Data unit:   0
Start block: 0
Symmetric key bit length: 384
Plaintext bit length:     136
Symmetric key:            000000000000000000000000000000000000000000000000000000000000000000000000000000000000000000000000
Plaintext:                0000000000000000000000000000000100
Ciphertext:               2429993d67780162f346af4c52a42664ae520872c8d17a73ae53bfde2056a01869
Reciphers for ciphertext: 0
Decipheredtext:           0000000000000000000000000000000100
RESULT CIPHER-DECIPHER: -----OK-----


Test: 120
Sector size in bytes: 32768
Data unit:   0
Start block: 0
Symmetric key bit length: 384
Plaintext bit length:     136
Symmetric key:            000000000000000000000000000000000000000000000000000000000000000000000000000000000000000000000000
Plaintext:                0000000000000000000000000000000080
Ciphertext:               2429993d67780162f346af4c52a426640f80d04f46144fbdb8c346168d10aa7124
Reciphers for ciphertext: 0
Decipheredtext:           0000000000000000000000000000000080
RESULT CIPHER-DECIPHER: -----OK-----


Test: 121
Sector size in bytes: 32768
Data unit:   0
Start block: 0
Symmetric key bit length: 384
Plaintext bit length:     136
Symmetric key:            000000000000000000000000000000000000000000000000000000000000000000000000000000000000000000000000
Plaintext:                0000000000000000000000000000000040
Ciphertext:               2429993d67780162f346af4c52a42664952a8e391d34bde1194a841725f22bb624
Reciphers for ciphertext: 0
Decipheredtext:           0000000000000000000000000000000040
RESULT CIPHER-DECIPHER: -----OK-----


Test: 122
Sector size in bytes: 32768
Data unit:   0
Start block: 0
Symmetric key bit length: 384
Plaintext bit length:     136
Symmetric key:            000000000000000000000000000000000000000000000000000000000000000000000000000000000000000000000000
Plaintext:                0000000000000000000000000000000020
Ciphertext:               2429993d67780162f346af4c52a42664e06e9c636dbf3914d6dbe1fbf6c0086324
Reciphers for ciphertext: 0
Decipheredtext:           0000000000000000000000000000000020
RESULT CIPHER-DECIPHER: -----OK-----


Test: 123
Sector size in bytes: 32768
Data unit:   0
Start block: 0
Symmetric key bit length: 384
Plaintext bit length:     136
Symmetric key:            000000000000000000000000000000000000000000000000000000000000000000000000000000000000000000000000
Plaintext:                0000000000000000000000000000000010
Ciphertext:               2429993d67780162f346af4c52a426645676562922ca1dcca1e8d8aa1b9cda1b24
Reciphers for ciphertext: 0
Decipheredtext:           0000000000000000000000000000000010
RESULT CIPHER-DECIPHER: -----OK-----


Test: 124
Sector size in bytes: 32768
Data unit:   0
Start block: 0
Symmetric key bit length: 384
Plaintext bit length:     136
Symmetric key:            000000000000000000000000000000000000000000000000000000000000000000000000000000000000000000000000
Plaintext:                0000000000000000000000000000000008
Ciphertext:               2429993d67780162f346af4c52a42664d3aa7b70d755ac1b7dc4b0ffc948bace24
Reciphers for ciphertext: 0
Decipheredtext:           0000000000000000000000000000000008
RESULT CIPHER-DECIPHER: -----OK-----


Test: 125
Sector size in bytes: 32768
Data unit:   0
Start block: 0
Symmetric key bit length: 384
Plaintext bit length:     136
Symmetric key:            000000000000000000000000000000000000000000000000000000000000000000000000000000000000000000000000
Plaintext:                0000000000000000000000000000000004
Ciphertext:               2429993d67780162f346af4c52a426644cff08088d185a17764979d6a1b9f8be24
Reciphers for ciphertext: 0
Decipheredtext:           0000000000000000000000000000000004
RESULT CIPHER-DECIPHER: -----OK-----


Test: 126
Sector size in bytes: 32768
Data unit:   0
Start block: 0
Symmetric key bit length: 384
Plaintext bit length:     136
Symmetric key:            000000000000000000000000000000000000000000000000000000000000000000000000000000000000000000000000
Plaintext:                0000000000000000000000000000000002
Ciphertext:               2429993d67780162f346af4c52a42664b86d73064e08bfca36bbe38cf275339a24
Reciphers for ciphertext: 0
Decipheredtext:           0000000000000000000000000000000002
RESULT CIPHER-DECIPHER: -----OK-----


Test: 127
Sector size in bytes: 32768
Data unit:   0
Start block: 0
Symmetric key bit length: 384
Plaintext bit length:     136
Symmetric key:            000000000000000000000000000000000000000000000000000000000000000000000000000000000000000000000000
Plaintext:                0000000000000000000000000000000001
Ciphertext:               2429993d67780162f346af4c52a426642c51114e4ea3b8edf542af7484fb9da424
Reciphers for ciphertext: 0
Decipheredtext:           0000000000000000000000000000000001
RESULT CIPHER-DECIPHER: -----OK-----


 DATA SHA1 (hexadecimal): cc27f9f1004ef8aada1dcb558c35250a016d8be8

