
DiceLock 9.0.0.1

 TEST COMPONENTS:
 ----------------
 DiceLock:           DiceLockXTSIndexed class
 Operation Mode:     XTS_Mode class
 Block Cipher:       Serpent256 class
 Key Modifier:       IncreaseBase0IndexModifier_6_0_0_1 class
   Index bit length: 128
 Random tests:       RandomTestSuite class
                     FrequencyTest class
                     BlockFrequencyTest class
                     CumulativeSumForwardTest class
                     LongestRunOfOnesTest class
                     RunsTest class
 Random alpha:       0.001

 VECTOR TEST: Test vector 3 - Symmetric key all byte value 0xXX


##### INDIVIDUAL TESTS #####

Number tests: 128


Test: 0
Sector size in bytes: 512
Data unit:   0
Start block: 1
Symmetric key bit length: 512
Plaintext bit length:     136
Symmetric key:            00000000000000000000000000000000000000000000000000000000000000000000000000000000000000000000000000000000000000000000000000000000
Plaintext:                0000000000000000000000000000000000
Ciphertext:               e99df18b21f7841a16e7a46edb57ae563f593089c99e56e7885306ba2538d20ee9
Reciphers for ciphertext: 0
Decipheredtext:           0000000000000000000000000000000000
RESULT CIPHER-DECIPHER: -----OK-----


Test: 1
Sector size in bytes: 512
Data unit:   1
Start block: 3
Symmetric key bit length: 512
Plaintext bit length:     136
Symmetric key:            01010101010101010101010101010101010101010101010101010101010101010101010101010101010101010101010101010101010101010101010101010101
Plaintext:                0000000000000000000000000000000000
Ciphertext:               aa76b5404627db03125b6c856cd529e728bf48a57a5a3758a131220850dcf735aa
Reciphers for ciphertext: 0
Decipheredtext:           0000000000000000000000000000000000
RESULT CIPHER-DECIPHER: -----OK-----


Test: 2
Sector size in bytes: 512
Data unit:   2
Start block: 5
Symmetric key bit length: 512
Plaintext bit length:     136
Symmetric key:            02020202020202020202020202020202020202020202020202020202020202020202020202020202020202020202020202020202020202020202020202020202
Plaintext:                0000000000000000000000000000000000
Ciphertext:               8bccb385c4760c370dd108490b0d52598deacfaa809fa6071ccecfa80ec89f748b
Reciphers for ciphertext: 0
Decipheredtext:           0000000000000000000000000000000000
RESULT CIPHER-DECIPHER: -----OK-----


Test: 3
Sector size in bytes: 512
Data unit:   3
Start block: 7
Symmetric key bit length: 512
Plaintext bit length:     136
Symmetric key:            03030303030303030303030303030303030303030303030303030303030303030303030303030303030303030303030303030303030303030303030303030303
Plaintext:                0000000000000000000000000000000000
Ciphertext:               982fee17af229d9b03643ded8ba0676d7b7f6b26fb588a017db6fe0b4ee41bae98
Reciphers for ciphertext: 0
Decipheredtext:           0000000000000000000000000000000000
RESULT CIPHER-DECIPHER: -----OK-----


Test: 4
Sector size in bytes: 512
Data unit:   4
Start block: 9
Symmetric key bit length: 512
Plaintext bit length:     136
Symmetric key:            04040404040404040404040404040404040404040404040404040404040404040404040404040404040404040404040404040404040404040404040404040404
Plaintext:                0000000000000000000000000000000000
Ciphertext:               82b78a1e6e4d9a5397971cf290308e3d41eb95dad951a6273c83c304d89b310482
Reciphers for ciphertext: 0
Decipheredtext:           0000000000000000000000000000000000
RESULT CIPHER-DECIPHER: -----OK-----


Test: 5
Sector size in bytes: 512
Data unit:   5
Start block: 11
Symmetric key bit length: 512
Plaintext bit length:     136
Symmetric key:            05050505050505050505050505050505050505050505050505050505050505050505050505050505050505050505050505050505050505050505050505050505
Plaintext:                0000000000000000000000000000000000
Ciphertext:               5e6f3a38b8c75d911b93b906231a6f76fd33a04af97f4e863aa27a855f5185d75e
Reciphers for ciphertext: 0
Decipheredtext:           0000000000000000000000000000000000
RESULT CIPHER-DECIPHER: -----OK-----


Test: 6
Sector size in bytes: 512
Data unit:   6
Start block: 13
Symmetric key bit length: 512
Plaintext bit length:     136
Symmetric key:            06060606060606060606060606060606060606060606060606060606060606060606060606060606060606060606060606060606060606060606060606060606
Plaintext:                0000000000000000000000000000000000
Ciphertext:               2d15700cee0ee50ccc173aaf3a0d460144a154f0d631ac4366f88434aa8439182d
Reciphers for ciphertext: 0
Decipheredtext:           0000000000000000000000000000000000
RESULT CIPHER-DECIPHER: -----OK-----


Test: 7
Sector size in bytes: 512
Data unit:   7
Start block: 15
Symmetric key bit length: 512
Plaintext bit length:     136
Symmetric key:            07070707070707070707070707070707070707070707070707070707070707070707070707070707070707070707070707070707070707070707070707070707
Plaintext:                0000000000000000000000000000000000
Ciphertext:               ddf38c5e506fd9cac928c230c3576abd63dfa7bc84d9ec828b36d4753ddd1b21dd
Reciphers for ciphertext: 0
Decipheredtext:           0000000000000000000000000000000000
RESULT CIPHER-DECIPHER: -----OK-----


Test: 8
Sector size in bytes: 512
Data unit:   8
Start block: 17
Symmetric key bit length: 512
Plaintext bit length:     136
Symmetric key:            08080808080808080808080808080808080808080808080808080808080808080808080808080808080808080808080808080808080808080808080808080808
Plaintext:                0000000000000000000000000000000000
Ciphertext:               29cba7f482c73d040aee93f01166834e9a362db10c29fa9f7cfd4b9515dcf15e29
Reciphers for ciphertext: 0
Decipheredtext:           0000000000000000000000000000000000
RESULT CIPHER-DECIPHER: -----OK-----


Test: 9
Sector size in bytes: 512
Data unit:   9
Start block: 19
Symmetric key bit length: 512
Plaintext bit length:     136
Symmetric key:            09090909090909090909090909090909090909090909090909090909090909090909090909090909090909090909090909090909090909090909090909090909
Plaintext:                0000000000000000000000000000000000
Ciphertext:               ecef9eaf98841dc4e53d7c4c129c060996975c8957a4a0ef0f31045e12af44daec
Reciphers for ciphertext: 0
Decipheredtext:           0000000000000000000000000000000000
RESULT CIPHER-DECIPHER: -----OK-----


Test: 10
Sector size in bytes: 1024
Data unit:   10
Start block: 21
Symmetric key bit length: 512
Plaintext bit length:     136
Symmetric key:            0a0a0a0a0a0a0a0a0a0a0a0a0a0a0a0a0a0a0a0a0a0a0a0a0a0a0a0a0a0a0a0a0a0a0a0a0a0a0a0a0a0a0a0a0a0a0a0a0a0a0a0a0a0a0a0a0a0a0a0a0a0a0a0a
Plaintext:                0000000000000000000000000000000000
Ciphertext:               682d651faa80b8efcd6f77e6bbc4951f69dce1739939ab40b40c3197ebce2d4f68
Reciphers for ciphertext: 0
Decipheredtext:           0000000000000000000000000000000000
RESULT CIPHER-DECIPHER: -----OK-----


Test: 11
Sector size in bytes: 1024
Data unit:   11
Start block: 23
Symmetric key bit length: 512
Plaintext bit length:     136
Symmetric key:            0b0b0b0b0b0b0b0b0b0b0b0b0b0b0b0b0b0b0b0b0b0b0b0b0b0b0b0b0b0b0b0b0b0b0b0b0b0b0b0b0b0b0b0b0b0b0b0b0b0b0b0b0b0b0b0b0b0b0b0b0b0b0b0b
Plaintext:                0000000000000000000000000000000000
Ciphertext:               c90cf3959a8b766afb5a4f928b0ccafc1009e0af4e02f035112b1357b3d5c9abc9
Reciphers for ciphertext: 0
Decipheredtext:           0000000000000000000000000000000000
RESULT CIPHER-DECIPHER: -----OK-----


Test: 12
Sector size in bytes: 1024
Data unit:   12
Start block: 25
Symmetric key bit length: 512
Plaintext bit length:     136
Symmetric key:            0c0c0c0c0c0c0c0c0c0c0c0c0c0c0c0c0c0c0c0c0c0c0c0c0c0c0c0c0c0c0c0c0c0c0c0c0c0c0c0c0c0c0c0c0c0c0c0c0c0c0c0c0c0c0c0c0c0c0c0c0c0c0c0c
Plaintext:                0000000000000000000000000000000000
Ciphertext:               f2488a9628b3ba6dcf4ec257d094077528cfa66b55d7b9cf52b6d0ec74a6f929f2
Reciphers for ciphertext: 0
Decipheredtext:           0000000000000000000000000000000000
RESULT CIPHER-DECIPHER: -----OK-----


Test: 13
Sector size in bytes: 1024
Data unit:   13
Start block: 27
Symmetric key bit length: 512
Plaintext bit length:     136
Symmetric key:            0d0d0d0d0d0d0d0d0d0d0d0d0d0d0d0d0d0d0d0d0d0d0d0d0d0d0d0d0d0d0d0d0d0d0d0d0d0d0d0d0d0d0d0d0d0d0d0d0d0d0d0d0d0d0d0d0d0d0d0d0d0d0d0d
Plaintext:                0000000000000000000000000000000000
Ciphertext:               128c37879a3fac3b52db7d77a4765e9665fae1d89deb1c4c527acf0c1e5f9ad412
Reciphers for ciphertext: 0
Decipheredtext:           0000000000000000000000000000000000
RESULT CIPHER-DECIPHER: -----OK-----


Test: 14
Sector size in bytes: 1024
Data unit:   14
Start block: 29
Symmetric key bit length: 512
Plaintext bit length:     136
Symmetric key:            0e0e0e0e0e0e0e0e0e0e0e0e0e0e0e0e0e0e0e0e0e0e0e0e0e0e0e0e0e0e0e0e0e0e0e0e0e0e0e0e0e0e0e0e0e0e0e0e0e0e0e0e0e0e0e0e0e0e0e0e0e0e0e0e
Plaintext:                0000000000000000000000000000000000
Ciphertext:               66b197ce1c036c112b28378e89557ed808f7669f7389bdc6d35d5b76c106120166
Reciphers for ciphertext: 0
Decipheredtext:           0000000000000000000000000000000000
RESULT CIPHER-DECIPHER: -----OK-----


Test: 15
Sector size in bytes: 1024
Data unit:   15
Start block: 31
Symmetric key bit length: 512
Plaintext bit length:     136
Symmetric key:            0f0f0f0f0f0f0f0f0f0f0f0f0f0f0f0f0f0f0f0f0f0f0f0f0f0f0f0f0f0f0f0f0f0f0f0f0f0f0f0f0f0f0f0f0f0f0f0f0f0f0f0f0f0f0f0f0f0f0f0f0f0f0f0f
Plaintext:                0000000000000000000000000000000000
Ciphertext:               72e726a68f2b9ffe4fe8454e79e2ec75353e579638647216b17b92be05c80c2d72
Reciphers for ciphertext: 0
Decipheredtext:           0000000000000000000000000000000000
RESULT CIPHER-DECIPHER: -----OK-----


Test: 16
Sector size in bytes: 1024
Data unit:   16
Start block: 33
Symmetric key bit length: 512
Plaintext bit length:     136
Symmetric key:            10101010101010101010101010101010101010101010101010101010101010101010101010101010101010101010101010101010101010101010101010101010
Plaintext:                0000000000000000000000000000000000
Ciphertext:               b6a71ef67cbcdb02d7c4a365cd5c5f6f9c1cd777bfe06b50d12425c9d9c4cdceb6
Reciphers for ciphertext: 0
Decipheredtext:           0000000000000000000000000000000000
RESULT CIPHER-DECIPHER: -----OK-----


Test: 17
Sector size in bytes: 1024
Data unit:   17
Start block: 35
Symmetric key bit length: 512
Plaintext bit length:     136
Symmetric key:            11111111111111111111111111111111111111111111111111111111111111111111111111111111111111111111111111111111111111111111111111111111
Plaintext:                0000000000000000000000000000000000
Ciphertext:               be2b62ea66561a74bc2d7c3a54664bf7068cb28b367fb2041fa0dd4fbe009787be
Reciphers for ciphertext: 0
Decipheredtext:           0000000000000000000000000000000000
RESULT CIPHER-DECIPHER: -----OK-----


Test: 18
Sector size in bytes: 1024
Data unit:   18
Start block: 37
Symmetric key bit length: 512
Plaintext bit length:     136
Symmetric key:            12121212121212121212121212121212121212121212121212121212121212121212121212121212121212121212121212121212121212121212121212121212
Plaintext:                0000000000000000000000000000000000
Ciphertext:               8554f8c0fec3e47286dc118b15f73a6322bd6359e3b584820ac67dbb01474f1185
Reciphers for ciphertext: 0
Decipheredtext:           0000000000000000000000000000000000
RESULT CIPHER-DECIPHER: -----OK-----


Test: 19
Sector size in bytes: 1024
Data unit:   19
Start block: 39
Symmetric key bit length: 512
Plaintext bit length:     136
Symmetric key:            13131313131313131313131313131313131313131313131313131313131313131313131313131313131313131313131313131313131313131313131313131313
Plaintext:                0000000000000000000000000000000000
Ciphertext:               d6064353681d730a8a2ed12217cf84edb877033d300b80cbed6e4c17f08caec5d6
Reciphers for ciphertext: 0
Decipheredtext:           0000000000000000000000000000000000
RESULT CIPHER-DECIPHER: -----OK-----


Test: 20
Sector size in bytes: 1536
Data unit:   20
Start block: 41
Symmetric key bit length: 512
Plaintext bit length:     136
Symmetric key:            14141414141414141414141414141414141414141414141414141414141414141414141414141414141414141414141414141414141414141414141414141414
Plaintext:                0000000000000000000000000000000000
Ciphertext:               6e150e15e0d14dc5717c5531b624d5f281b592f23aa4d09ddcbf75914735b5976e
Reciphers for ciphertext: 0
Decipheredtext:           0000000000000000000000000000000000
RESULT CIPHER-DECIPHER: -----OK-----


Test: 21
Sector size in bytes: 1536
Data unit:   21
Start block: 43
Symmetric key bit length: 512
Plaintext bit length:     136
Symmetric key:            15151515151515151515151515151515151515151515151515151515151515151515151515151515151515151515151515151515151515151515151515151515
Plaintext:                0000000000000000000000000000000000
Ciphertext:               07caf4138cb4305e59304bbbe8c59e9ac6cf8a59b10384fdf958939a4631a99007
Reciphers for ciphertext: 0
Decipheredtext:           0000000000000000000000000000000000
RESULT CIPHER-DECIPHER: -----OK-----


Test: 22
Sector size in bytes: 1536
Data unit:   22
Start block: 45
Symmetric key bit length: 512
Plaintext bit length:     136
Symmetric key:            16161616161616161616161616161616161616161616161616161616161616161616161616161616161616161616161616161616161616161616161616161616
Plaintext:                0000000000000000000000000000000000
Ciphertext:               93849b40abfff1f882b9ed43e6c1e9ba2aacd3b29b24a17fcb45c7354cc25b7f93
Reciphers for ciphertext: 0
Decipheredtext:           0000000000000000000000000000000000
RESULT CIPHER-DECIPHER: -----OK-----


Test: 23
Sector size in bytes: 1536
Data unit:   23
Start block: 47
Symmetric key bit length: 512
Plaintext bit length:     136
Symmetric key:            17171717171717171717171717171717171717171717171717171717171717171717171717171717171717171717171717171717171717171717171717171717
Plaintext:                0000000000000000000000000000000000
Ciphertext:               b19a2395f83ced0fd5c2e8047cd543edee35f88acb20701ef884a7bb77fc72d7b1
Reciphers for ciphertext: 0
Decipheredtext:           0000000000000000000000000000000000
RESULT CIPHER-DECIPHER: -----OK-----


Test: 24
Sector size in bytes: 1536
Data unit:   24
Start block: 49
Symmetric key bit length: 512
Plaintext bit length:     136
Symmetric key:            18181818181818181818181818181818181818181818181818181818181818181818181818181818181818181818181818181818181818181818181818181818
Plaintext:                0000000000000000000000000000000000
Ciphertext:               eac7f5fe86e6592b4d2c7ffdd5f2e477dc15a34c7d1f0397e7b2be6d2afc4adbea
Reciphers for ciphertext: 0
Decipheredtext:           0000000000000000000000000000000000
RESULT CIPHER-DECIPHER: -----OK-----


Test: 25
Sector size in bytes: 1536
Data unit:   25
Start block: 51
Symmetric key bit length: 512
Plaintext bit length:     136
Symmetric key:            19191919191919191919191919191919191919191919191919191919191919191919191919191919191919191919191919191919191919191919191919191919
Plaintext:                0000000000000000000000000000000000
Ciphertext:               a5cc3875c8886b4d5bffa47948967ad767bf342a891270d4096b38c2efc40980a5
Reciphers for ciphertext: 0
Decipheredtext:           0000000000000000000000000000000000
RESULT CIPHER-DECIPHER: -----OK-----


Test: 26
Sector size in bytes: 1536
Data unit:   26
Start block: 53
Symmetric key bit length: 512
Plaintext bit length:     136
Symmetric key:            1a1a1a1a1a1a1a1a1a1a1a1a1a1a1a1a1a1a1a1a1a1a1a1a1a1a1a1a1a1a1a1a1a1a1a1a1a1a1a1a1a1a1a1a1a1a1a1a1a1a1a1a1a1a1a1a1a1a1a1a1a1a1a1a
Plaintext:                0000000000000000000000000000000000
Ciphertext:               8faaff6f43529da3635401cf809661ee97d653ca70cf611d7590c9cbfa4e226b8f
Reciphers for ciphertext: 0
Decipheredtext:           0000000000000000000000000000000000
RESULT CIPHER-DECIPHER: -----OK-----


Test: 27
Sector size in bytes: 1536
Data unit:   27
Start block: 55
Symmetric key bit length: 512
Plaintext bit length:     136
Symmetric key:            1b1b1b1b1b1b1b1b1b1b1b1b1b1b1b1b1b1b1b1b1b1b1b1b1b1b1b1b1b1b1b1b1b1b1b1b1b1b1b1b1b1b1b1b1b1b1b1b1b1b1b1b1b1b1b1b1b1b1b1b1b1b1b1b
Plaintext:                0000000000000000000000000000000000
Ciphertext:               0e425385f447762ccea9817b6b76cd83698f34063cce89e1140d7a33dd8f2f2c0e
Reciphers for ciphertext: 0
Decipheredtext:           0000000000000000000000000000000000
RESULT CIPHER-DECIPHER: -----OK-----


Test: 28
Sector size in bytes: 1536
Data unit:   28
Start block: 57
Symmetric key bit length: 512
Plaintext bit length:     136
Symmetric key:            1c1c1c1c1c1c1c1c1c1c1c1c1c1c1c1c1c1c1c1c1c1c1c1c1c1c1c1c1c1c1c1c1c1c1c1c1c1c1c1c1c1c1c1c1c1c1c1c1c1c1c1c1c1c1c1c1c1c1c1c1c1c1c1c
Plaintext:                0000000000000000000000000000000000
Ciphertext:               05f8a191c2e87af5d097cac1a217ff4abb5018a8a3908f1c46cbe9645208087a05
Reciphers for ciphertext: 0
Decipheredtext:           0000000000000000000000000000000000
RESULT CIPHER-DECIPHER: -----OK-----


Test: 29
Sector size in bytes: 1536
Data unit:   29
Start block: 59
Symmetric key bit length: 512
Plaintext bit length:     136
Symmetric key:            1d1d1d1d1d1d1d1d1d1d1d1d1d1d1d1d1d1d1d1d1d1d1d1d1d1d1d1d1d1d1d1d1d1d1d1d1d1d1d1d1d1d1d1d1d1d1d1d1d1d1d1d1d1d1d1d1d1d1d1d1d1d1d1d
Plaintext:                0000000000000000000000000000000000
Ciphertext:               7dd8546d9675a81dd73c4e5e26f5cc6567659bf63ab0ef1748897c92642850c27d
Reciphers for ciphertext: 0
Decipheredtext:           0000000000000000000000000000000000
RESULT CIPHER-DECIPHER: -----OK-----


Test: 30
Sector size in bytes: 2048
Data unit:   30
Start block: 61
Symmetric key bit length: 512
Plaintext bit length:     136
Symmetric key:            1e1e1e1e1e1e1e1e1e1e1e1e1e1e1e1e1e1e1e1e1e1e1e1e1e1e1e1e1e1e1e1e1e1e1e1e1e1e1e1e1e1e1e1e1e1e1e1e1e1e1e1e1e1e1e1e1e1e1e1e1e1e1e1e
Plaintext:                0000000000000000000000000000000000
Ciphertext:               be94615df302038304edb6b9000fab11c5da840d0c83fdf5ce2652b4954e13f2be
Reciphers for ciphertext: 0
Decipheredtext:           0000000000000000000000000000000000
RESULT CIPHER-DECIPHER: -----OK-----


Test: 31
Sector size in bytes: 2048
Data unit:   31
Start block: 63
Symmetric key bit length: 512
Plaintext bit length:     136
Symmetric key:            1f1f1f1f1f1f1f1f1f1f1f1f1f1f1f1f1f1f1f1f1f1f1f1f1f1f1f1f1f1f1f1f1f1f1f1f1f1f1f1f1f1f1f1f1f1f1f1f1f1f1f1f1f1f1f1f1f1f1f1f1f1f1f1f
Plaintext:                0000000000000000000000000000000000
Ciphertext:               05988095b08de404d25a10c568c8509c70f2d185a948199fe6f0f49c7bfb546305
Reciphers for ciphertext: 0
Decipheredtext:           0000000000000000000000000000000000
RESULT CIPHER-DECIPHER: -----OK-----


Test: 32
Sector size in bytes: 2048
Data unit:   32
Start block: 65
Symmetric key bit length: 512
Plaintext bit length:     136
Symmetric key:            20202020202020202020202020202020202020202020202020202020202020202020202020202020202020202020202020202020202020202020202020202020
Plaintext:                0000000000000000000000000000000000
Ciphertext:               dfb686a7ceed47b4cc1c8b75d01196d2754c95e4879266cc97821c5282cc590adf
Reciphers for ciphertext: 0
Decipheredtext:           0000000000000000000000000000000000
RESULT CIPHER-DECIPHER: -----OK-----


Test: 33
Sector size in bytes: 2048
Data unit:   33
Start block: 67
Symmetric key bit length: 512
Plaintext bit length:     136
Symmetric key:            21212121212121212121212121212121212121212121212121212121212121212121212121212121212121212121212121212121212121212121212121212121
Plaintext:                0000000000000000000000000000000000
Ciphertext:               8cbe1e8c5bf719302cc9fd7880727da3c2bc28dd6cc23d43e0b2ad08515465a28c
Reciphers for ciphertext: 0
Decipheredtext:           0000000000000000000000000000000000
RESULT CIPHER-DECIPHER: -----OK-----


Test: 34
Sector size in bytes: 2048
Data unit:   34
Start block: 69
Symmetric key bit length: 512
Plaintext bit length:     136
Symmetric key:            22222222222222222222222222222222222222222222222222222222222222222222222222222222222222222222222222222222222222222222222222222222
Plaintext:                0000000000000000000000000000000000
Ciphertext:               c165c50e0a8fe2fe067db79aa8b4575888201fa3a72ce64c7d058c6afe292c7dc1
Reciphers for ciphertext: 0
Decipheredtext:           0000000000000000000000000000000000
RESULT CIPHER-DECIPHER: -----OK-----


Test: 35
Sector size in bytes: 2048
Data unit:   35
Start block: 71
Symmetric key bit length: 512
Plaintext bit length:     136
Symmetric key:            23232323232323232323232323232323232323232323232323232323232323232323232323232323232323232323232323232323232323232323232323232323
Plaintext:                0000000000000000000000000000000000
Ciphertext:               a31ab896ed6268b0c01f0a6a479e24d64b620d96d934ae9392651b0eacb472afa3
Reciphers for ciphertext: 0
Decipheredtext:           0000000000000000000000000000000000
RESULT CIPHER-DECIPHER: -----OK-----


Test: 36
Sector size in bytes: 2048
Data unit:   36
Start block: 73
Symmetric key bit length: 512
Plaintext bit length:     136
Symmetric key:            24242424242424242424242424242424242424242424242424242424242424242424242424242424242424242424242424242424242424242424242424242424
Plaintext:                0000000000000000000000000000000000
Ciphertext:               c8a2d7df407327abed957008f9c334a30d1409a248f456e80bf60b2c035518d9c8
Reciphers for ciphertext: 0
Decipheredtext:           0000000000000000000000000000000000
RESULT CIPHER-DECIPHER: -----OK-----


Test: 37
Sector size in bytes: 2048
Data unit:   37
Start block: 75
Symmetric key bit length: 512
Plaintext bit length:     136
Symmetric key:            25252525252525252525252525252525252525252525252525252525252525252525252525252525252525252525252525252525252525252525252525252525
Plaintext:                0000000000000000000000000000000000
Ciphertext:               5d43b69ae2f173b13a717add843184dcc355bfa59eeab5aff1c02b3f3cf77a5b5d
Reciphers for ciphertext: 0
Decipheredtext:           0000000000000000000000000000000000
RESULT CIPHER-DECIPHER: -----OK-----


Test: 38
Sector size in bytes: 2048
Data unit:   38
Start block: 77
Symmetric key bit length: 512
Plaintext bit length:     136
Symmetric key:            26262626262626262626262626262626262626262626262626262626262626262626262626262626262626262626262626262626262626262626262626262626
Plaintext:                0000000000000000000000000000000000
Ciphertext:               7ae4b34b2efbb96d69dfe47d0ec93a8dc2ce2f54f675cdee7d0863b210fd25937a
Reciphers for ciphertext: 0
Decipheredtext:           0000000000000000000000000000000000
RESULT CIPHER-DECIPHER: -----OK-----


Test: 39
Sector size in bytes: 2048
Data unit:   39
Start block: 79
Symmetric key bit length: 512
Plaintext bit length:     136
Symmetric key:            27272727272727272727272727272727272727272727272727272727272727272727272727272727272727272727272727272727272727272727272727272727
Plaintext:                0000000000000000000000000000000000
Ciphertext:               9009c8d64904b1f2c1e0f1161b5675abaf3a2f8cbca9ee563f8e7f706fde18d590
Reciphers for ciphertext: 0
Decipheredtext:           0000000000000000000000000000000000
RESULT CIPHER-DECIPHER: -----OK-----


Test: 40
Sector size in bytes: 2560
Data unit:   40
Start block: 81
Symmetric key bit length: 512
Plaintext bit length:     136
Symmetric key:            28282828282828282828282828282828282828282828282828282828282828282828282828282828282828282828282828282828282828282828282828282828
Plaintext:                0000000000000000000000000000000000
Ciphertext:               ba9b58e15be9752c96a02eb65b161d0216d75025333f6e325dc46f90967c8a64ba
Reciphers for ciphertext: 0
Decipheredtext:           0000000000000000000000000000000000
RESULT CIPHER-DECIPHER: -----OK-----


Test: 41
Sector size in bytes: 2560
Data unit:   41
Start block: 83
Symmetric key bit length: 512
Plaintext bit length:     136
Symmetric key:            29292929292929292929292929292929292929292929292929292929292929292929292929292929292929292929292929292929292929292929292929292929
Plaintext:                0000000000000000000000000000000000
Ciphertext:               1f40181220a44641ef886277fab43dc1db58a7f5d908d48555b42069505c9fc31f
Reciphers for ciphertext: 0
Decipheredtext:           0000000000000000000000000000000000
RESULT CIPHER-DECIPHER: -----OK-----


Test: 42
Sector size in bytes: 2560
Data unit:   42
Start block: 85
Symmetric key bit length: 512
Plaintext bit length:     136
Symmetric key:            2a2a2a2a2a2a2a2a2a2a2a2a2a2a2a2a2a2a2a2a2a2a2a2a2a2a2a2a2a2a2a2a2a2a2a2a2a2a2a2a2a2a2a2a2a2a2a2a2a2a2a2a2a2a2a2a2a2a2a2a2a2a2a2a
Plaintext:                0000000000000000000000000000000000
Ciphertext:               263da5832050b7c93fd70981dedd89ee3e19fb7dbe5cd4f1cf63977c0fcc7d0b26
Reciphers for ciphertext: 0
Decipheredtext:           0000000000000000000000000000000000
RESULT CIPHER-DECIPHER: -----OK-----


Test: 43
Sector size in bytes: 2560
Data unit:   43
Start block: 87
Symmetric key bit length: 512
Plaintext bit length:     136
Symmetric key:            2b2b2b2b2b2b2b2b2b2b2b2b2b2b2b2b2b2b2b2b2b2b2b2b2b2b2b2b2b2b2b2b2b2b2b2b2b2b2b2b2b2b2b2b2b2b2b2b2b2b2b2b2b2b2b2b2b2b2b2b2b2b2b2b
Plaintext:                0000000000000000000000000000000000
Ciphertext:               62e09a8223d7cee2e2b0740e4d853449186e86c845007305cba981a6cd289a5162
Reciphers for ciphertext: 0
Decipheredtext:           0000000000000000000000000000000000
RESULT CIPHER-DECIPHER: -----OK-----


Test: 44
Sector size in bytes: 2560
Data unit:   44
Start block: 89
Symmetric key bit length: 512
Plaintext bit length:     136
Symmetric key:            2c2c2c2c2c2c2c2c2c2c2c2c2c2c2c2c2c2c2c2c2c2c2c2c2c2c2c2c2c2c2c2c2c2c2c2c2c2c2c2c2c2c2c2c2c2c2c2c2c2c2c2c2c2c2c2c2c2c2c2c2c2c2c2c
Plaintext:                0000000000000000000000000000000000
Ciphertext:               1ef82be4e2fae4a91bb79b6a4c79fa7009e30668f8006a6601cf961b152d5bda1e
Reciphers for ciphertext: 0
Decipheredtext:           0000000000000000000000000000000000
RESULT CIPHER-DECIPHER: -----OK-----


Test: 45
Sector size in bytes: 2560
Data unit:   45
Start block: 91
Symmetric key bit length: 512
Plaintext bit length:     136
Symmetric key:            2d2d2d2d2d2d2d2d2d2d2d2d2d2d2d2d2d2d2d2d2d2d2d2d2d2d2d2d2d2d2d2d2d2d2d2d2d2d2d2d2d2d2d2d2d2d2d2d2d2d2d2d2d2d2d2d2d2d2d2d2d2d2d2d
Plaintext:                0000000000000000000000000000000000
Ciphertext:               43b2af32efb18c5001710c0c4ec201acd492922e6a47e9549c8baf35f036c32e43
Reciphers for ciphertext: 0
Decipheredtext:           0000000000000000000000000000000000
RESULT CIPHER-DECIPHER: -----OK-----


Test: 46
Sector size in bytes: 2560
Data unit:   46
Start block: 93
Symmetric key bit length: 512
Plaintext bit length:     136
Symmetric key:            2e2e2e2e2e2e2e2e2e2e2e2e2e2e2e2e2e2e2e2e2e2e2e2e2e2e2e2e2e2e2e2e2e2e2e2e2e2e2e2e2e2e2e2e2e2e2e2e2e2e2e2e2e2e2e2e2e2e2e2e2e2e2e2e
Plaintext:                0000000000000000000000000000000000
Ciphertext:               331618f9b3f3d6be1adb8510c1583f66b7aecab358547b20bcb26bed644da45033
Reciphers for ciphertext: 0
Decipheredtext:           0000000000000000000000000000000000
RESULT CIPHER-DECIPHER: -----OK-----


Test: 47
Sector size in bytes: 2560
Data unit:   47
Start block: 95
Symmetric key bit length: 512
Plaintext bit length:     136
Symmetric key:            2f2f2f2f2f2f2f2f2f2f2f2f2f2f2f2f2f2f2f2f2f2f2f2f2f2f2f2f2f2f2f2f2f2f2f2f2f2f2f2f2f2f2f2f2f2f2f2f2f2f2f2f2f2f2f2f2f2f2f2f2f2f2f2f
Plaintext:                0000000000000000000000000000000000
Ciphertext:               8abaf4ee8ed8ad0767f331c948faac3a502515fcf676b789e438c9e103d313df8a
Reciphers for ciphertext: 0
Decipheredtext:           0000000000000000000000000000000000
RESULT CIPHER-DECIPHER: -----OK-----


Test: 48
Sector size in bytes: 2560
Data unit:   48
Start block: 97
Symmetric key bit length: 512
Plaintext bit length:     136
Symmetric key:            30303030303030303030303030303030303030303030303030303030303030303030303030303030303030303030303030303030303030303030303030303030
Plaintext:                0000000000000000000000000000000000
Ciphertext:               4cbc5930cc76e724c5b19f409ccaf721c238c97ac0b95ad6824c562509ee39d04c
Reciphers for ciphertext: 0
Decipheredtext:           0000000000000000000000000000000000
RESULT CIPHER-DECIPHER: -----OK-----


Test: 49
Sector size in bytes: 2560
Data unit:   49
Start block: 99
Symmetric key bit length: 512
Plaintext bit length:     136
Symmetric key:            31313131313131313131313131313131313131313131313131313131313131313131313131313131313131313131313131313131313131313131313131313131
Plaintext:                0000000000000000000000000000000000
Ciphertext:               01c9638df0489797f8f6676981b428dad22e421897d698b97ebe508f75bc9f5501
Reciphers for ciphertext: 0
Decipheredtext:           0000000000000000000000000000000000
RESULT CIPHER-DECIPHER: -----OK-----


Test: 50
Sector size in bytes: 3072
Data unit:   50
Start block: 101
Symmetric key bit length: 512
Plaintext bit length:     136
Symmetric key:            32323232323232323232323232323232323232323232323232323232323232323232323232323232323232323232323232323232323232323232323232323232
Plaintext:                0000000000000000000000000000000000
Ciphertext:               378aee8c7976a4d7deecddfdbf18f2576f813ebee376aa61611b5e2097d308b737
Reciphers for ciphertext: 0
Decipheredtext:           0000000000000000000000000000000000
RESULT CIPHER-DECIPHER: -----OK-----


Test: 51
Sector size in bytes: 3072
Data unit:   51
Start block: 103
Symmetric key bit length: 512
Plaintext bit length:     136
Symmetric key:            33333333333333333333333333333333333333333333333333333333333333333333333333333333333333333333333333333333333333333333333333333333
Plaintext:                0000000000000000000000000000000000
Ciphertext:               df2045c77ba6e5d1661655418c432da95df871ecc18e0d132fb1daf10830a255df
Reciphers for ciphertext: 0
Decipheredtext:           0000000000000000000000000000000000
RESULT CIPHER-DECIPHER: -----OK-----


Test: 52
Sector size in bytes: 3072
Data unit:   52
Start block: 105
Symmetric key bit length: 512
Plaintext bit length:     136
Symmetric key:            34343434343434343434343434343434343434343434343434343434343434343434343434343434343434343434343434343434343434343434343434343434
Plaintext:                0000000000000000000000000000000000
Ciphertext:               e5886aeb93946832084e9e43dd8afb92aa2d3fe9ac21fa83b23126040ebacd67e5
Reciphers for ciphertext: 0
Decipheredtext:           0000000000000000000000000000000000
RESULT CIPHER-DECIPHER: -----OK-----


Test: 53
Sector size in bytes: 3072
Data unit:   53
Start block: 107
Symmetric key bit length: 512
Plaintext bit length:     136
Symmetric key:            35353535353535353535353535353535353535353535353535353535353535353535353535353535353535353535353535353535353535353535353535353535
Plaintext:                0000000000000000000000000000000000
Ciphertext:               7d5393d36ad85b1b368590255615ca6af33507ed09c651fa701f4e2333be03c17d
Reciphers for ciphertext: 0
Decipheredtext:           0000000000000000000000000000000000
RESULT CIPHER-DECIPHER: -----OK-----


Test: 54
Sector size in bytes: 3072
Data unit:   54
Start block: 109
Symmetric key bit length: 512
Plaintext bit length:     136
Symmetric key:            36363636363636363636363636363636363636363636363636363636363636363636363636363636363636363636363636363636363636363636363636363636
Plaintext:                0000000000000000000000000000000000
Ciphertext:               11c233f8e93eb02e8e73602bf475e5a550d042f0a733600ffc3d2126d1bebc9111
Reciphers for ciphertext: 0
Decipheredtext:           0000000000000000000000000000000000
RESULT CIPHER-DECIPHER: -----OK-----


Test: 55
Sector size in bytes: 3072
Data unit:   55
Start block: 111
Symmetric key bit length: 512
Plaintext bit length:     136
Symmetric key:            37373737373737373737373737373737373737373737373737373737373737373737373737373737373737373737373737373737373737373737373737373737
Plaintext:                0000000000000000000000000000000000
Ciphertext:               3daa823985dfb3a634bcd30c4f5b9299a16b16f74aadb0fd5362a38889c8257b3d
Reciphers for ciphertext: 0
Decipheredtext:           0000000000000000000000000000000000
RESULT CIPHER-DECIPHER: -----OK-----


Test: 56
Sector size in bytes: 3072
Data unit:   56
Start block: 113
Symmetric key bit length: 512
Plaintext bit length:     136
Symmetric key:            38383838383838383838383838383838383838383838383838383838383838383838383838383838383838383838383838383838383838383838383838383838
Plaintext:                0000000000000000000000000000000000
Ciphertext:               62660e1af920de0cd21b2d7206bae851e4879402237c7373f2723f04c5bc814a62
Reciphers for ciphertext: 0
Decipheredtext:           0000000000000000000000000000000000
RESULT CIPHER-DECIPHER: -----OK-----


Test: 57
Sector size in bytes: 3072
Data unit:   57
Start block: 115
Symmetric key bit length: 512
Plaintext bit length:     136
Symmetric key:            39393939393939393939393939393939393939393939393939393939393939393939393939393939393939393939393939393939393939393939393939393939
Plaintext:                0000000000000000000000000000000000
Ciphertext:               bb2e392b860674bb20230d792f43f3b1295827a20485893206a18e70131f2522bb
Reciphers for ciphertext: 0
Decipheredtext:           0000000000000000000000000000000000
RESULT CIPHER-DECIPHER: -----OK-----


Test: 58
Sector size in bytes: 3072
Data unit:   58
Start block: 117
Symmetric key bit length: 512
Plaintext bit length:     136
Symmetric key:            3a3a3a3a3a3a3a3a3a3a3a3a3a3a3a3a3a3a3a3a3a3a3a3a3a3a3a3a3a3a3a3a3a3a3a3a3a3a3a3a3a3a3a3a3a3a3a3a3a3a3a3a3a3a3a3a3a3a3a3a3a3a3a3a
Plaintext:                0000000000000000000000000000000000
Ciphertext:               4f98f044aec4d58d72bf37dea5f6ed9e0d93dbaae3fc9dc5f301db692d99b7744f
Reciphers for ciphertext: 0
Decipheredtext:           0000000000000000000000000000000000
RESULT CIPHER-DECIPHER: -----OK-----


Test: 59
Sector size in bytes: 3072
Data unit:   59
Start block: 119
Symmetric key bit length: 512
Plaintext bit length:     136
Symmetric key:            3b3b3b3b3b3b3b3b3b3b3b3b3b3b3b3b3b3b3b3b3b3b3b3b3b3b3b3b3b3b3b3b3b3b3b3b3b3b3b3b3b3b3b3b3b3b3b3b3b3b3b3b3b3b3b3b3b3b3b3b3b3b3b3b
Plaintext:                0000000000000000000000000000000000
Ciphertext:               ce2f5fbd7dffad2b2623b083edff20a5c27f703eae76bd3341e5e50c2b86d06cce
Reciphers for ciphertext: 0
Decipheredtext:           0000000000000000000000000000000000
RESULT CIPHER-DECIPHER: -----OK-----


Test: 60
Sector size in bytes: 3584
Data unit:   60
Start block: 121
Symmetric key bit length: 512
Plaintext bit length:     136
Symmetric key:            3c3c3c3c3c3c3c3c3c3c3c3c3c3c3c3c3c3c3c3c3c3c3c3c3c3c3c3c3c3c3c3c3c3c3c3c3c3c3c3c3c3c3c3c3c3c3c3c3c3c3c3c3c3c3c3c3c3c3c3c3c3c3c3c
Plaintext:                0000000000000000000000000000000000
Ciphertext:               dafc01a81d6e79083e13bb9ab8e8291cf54330407e605f75a92614948f51636eda
Reciphers for ciphertext: 0
Decipheredtext:           0000000000000000000000000000000000
RESULT CIPHER-DECIPHER: -----OK-----


Test: 61
Sector size in bytes: 3584
Data unit:   61
Start block: 123
Symmetric key bit length: 512
Plaintext bit length:     136
Symmetric key:            3d3d3d3d3d3d3d3d3d3d3d3d3d3d3d3d3d3d3d3d3d3d3d3d3d3d3d3d3d3d3d3d3d3d3d3d3d3d3d3d3d3d3d3d3d3d3d3d3d3d3d3d3d3d3d3d3d3d3d3d3d3d3d3d
Plaintext:                0000000000000000000000000000000000
Ciphertext:               b771cbf82ad04811ae238ebce283cc6482eda343ad1436c23b46a6c23528c1c7b7
Reciphers for ciphertext: 0
Decipheredtext:           0000000000000000000000000000000000
RESULT CIPHER-DECIPHER: -----OK-----


Test: 62
Sector size in bytes: 3584
Data unit:   62
Start block: 125
Symmetric key bit length: 512
Plaintext bit length:     136
Symmetric key:            3e3e3e3e3e3e3e3e3e3e3e3e3e3e3e3e3e3e3e3e3e3e3e3e3e3e3e3e3e3e3e3e3e3e3e3e3e3e3e3e3e3e3e3e3e3e3e3e3e3e3e3e3e3e3e3e3e3e3e3e3e3e3e3e
Plaintext:                0000000000000000000000000000000000
Ciphertext:               d3ff77fee5d30536db495f420013cd2d22bd788594ad69c3ba9d7b199c356c98d3
Reciphers for ciphertext: 0
Decipheredtext:           0000000000000000000000000000000000
RESULT CIPHER-DECIPHER: -----OK-----


Test: 63
Sector size in bytes: 3584
Data unit:   63
Start block: 127
Symmetric key bit length: 512
Plaintext bit length:     136
Symmetric key:            3f3f3f3f3f3f3f3f3f3f3f3f3f3f3f3f3f3f3f3f3f3f3f3f3f3f3f3f3f3f3f3f3f3f3f3f3f3f3f3f3f3f3f3f3f3f3f3f3f3f3f3f3f3f3f3f3f3f3f3f3f3f3f3f
Plaintext:                0000000000000000000000000000000000
Ciphertext:               e6c8c73085d60e2eb979fa934e183c7cf04398da59ec3dca1b5e0c42a97ea350e6
Reciphers for ciphertext: 0
Decipheredtext:           0000000000000000000000000000000000
RESULT CIPHER-DECIPHER: -----OK-----


Test: 64
Sector size in bytes: 3584
Data unit:   64
Start block: 129
Symmetric key bit length: 512
Plaintext bit length:     136
Symmetric key:            40404040404040404040404040404040404040404040404040404040404040404040404040404040404040404040404040404040404040404040404040404040
Plaintext:                0000000000000000000000000000000000
Ciphertext:               7521ba47a0168cc91595eb1f93118da89da980db7171c5210a142aa22e3e709d75
Reciphers for ciphertext: 0
Decipheredtext:           0000000000000000000000000000000000
RESULT CIPHER-DECIPHER: -----OK-----


Test: 65
Sector size in bytes: 3584
Data unit:   65
Start block: 131
Symmetric key bit length: 512
Plaintext bit length:     136
Symmetric key:            41414141414141414141414141414141414141414141414141414141414141414141414141414141414141414141414141414141414141414141414141414141
Plaintext:                0000000000000000000000000000000000
Ciphertext:               b44d56a27b686260243a593a18707c4d3054a8ef098a727cf46684a188953710b4
Reciphers for ciphertext: 0
Decipheredtext:           0000000000000000000000000000000000
RESULT CIPHER-DECIPHER: -----OK-----


Test: 66
Sector size in bytes: 3584
Data unit:   66
Start block: 133
Symmetric key bit length: 512
Plaintext bit length:     136
Symmetric key:            42424242424242424242424242424242424242424242424242424242424242424242424242424242424242424242424242424242424242424242424242424242
Plaintext:                0000000000000000000000000000000000
Ciphertext:               12fea53a4e6a7c781428cf7b36b48b97b709cdba1463843388c4a3ca310bf35112
Reciphers for ciphertext: 0
Decipheredtext:           0000000000000000000000000000000000
RESULT CIPHER-DECIPHER: -----OK-----


Test: 67
Sector size in bytes: 3584
Data unit:   67
Start block: 135
Symmetric key bit length: 512
Plaintext bit length:     136
Symmetric key:            43434343434343434343434343434343434343434343434343434343434343434343434343434343434343434343434343434343434343434343434343434343
Plaintext:                0000000000000000000000000000000000
Ciphertext:               17171d88448235edc75cfba3df202c776c02f187328ff6dfeaac693f3ca0976b17
Reciphers for ciphertext: 0
Decipheredtext:           0000000000000000000000000000000000
RESULT CIPHER-DECIPHER: -----OK-----


Test: 68
Sector size in bytes: 3584
Data unit:   68
Start block: 137
Symmetric key bit length: 512
Plaintext bit length:     136
Symmetric key:            44444444444444444444444444444444444444444444444444444444444444444444444444444444444444444444444444444444444444444444444444444444
Plaintext:                0000000000000000000000000000000000
Ciphertext:               968ee5d5b595a5f48f5cdc83f6db1e2fac0600cc80c98344833bc7524cc57e9996
Reciphers for ciphertext: 0
Decipheredtext:           0000000000000000000000000000000000
RESULT CIPHER-DECIPHER: -----OK-----


Test: 69
Sector size in bytes: 3584
Data unit:   69
Start block: 139
Symmetric key bit length: 512
Plaintext bit length:     136
Symmetric key:            45454545454545454545454545454545454545454545454545454545454545454545454545454545454545454545454545454545454545454545454545454545
Plaintext:                0000000000000000000000000000000000
Ciphertext:               095b492e24312f071940d9962ae33cabddf62fbbd17d83254674e95dcfb44cac09
Reciphers for ciphertext: 0
Decipheredtext:           0000000000000000000000000000000000
RESULT CIPHER-DECIPHER: -----OK-----


Test: 70
Sector size in bytes: 4096
Data unit:   70
Start block: 141
Symmetric key bit length: 512
Plaintext bit length:     136
Symmetric key:            46464646464646464646464646464646464646464646464646464646464646464646464646464646464646464646464646464646464646464646464646464646
Plaintext:                0000000000000000000000000000000000
Ciphertext:               8e21dcf921a6640adea084546006262ecbda0e9197b3ea6c33cb5897617e2b2d8e
Reciphers for ciphertext: 0
Decipheredtext:           0000000000000000000000000000000000
RESULT CIPHER-DECIPHER: -----OK-----


Test: 71
Sector size in bytes: 4096
Data unit:   71
Start block: 143
Symmetric key bit length: 512
Plaintext bit length:     136
Symmetric key:            47474747474747474747474747474747474747474747474747474747474747474747474747474747474747474747474747474747474747474747474747474747
Plaintext:                0000000000000000000000000000000000
Ciphertext:               dc1243d3a3febfb3fa0aeee7fc219d9747219111bc572763de8b5b15d2b4dab9dc
Reciphers for ciphertext: 0
Decipheredtext:           0000000000000000000000000000000000
RESULT CIPHER-DECIPHER: -----OK-----


Test: 72
Sector size in bytes: 4096
Data unit:   72
Start block: 145
Symmetric key bit length: 512
Plaintext bit length:     136
Symmetric key:            48484848484848484848484848484848484848484848484848484848484848484848484848484848484848484848484848484848484848484848484848484848
Plaintext:                0000000000000000000000000000000000
Ciphertext:               40bb010d3fe550b85285f12a1554fa9a1b9dea758ebac003246ca19383f2fffe40
Reciphers for ciphertext: 0
Decipheredtext:           0000000000000000000000000000000000
RESULT CIPHER-DECIPHER: -----OK-----


Test: 73
Sector size in bytes: 4096
Data unit:   73
Start block: 147
Symmetric key bit length: 512
Plaintext bit length:     136
Symmetric key:            49494949494949494949494949494949494949494949494949494949494949494949494949494949494949494949494949494949494949494949494949494949
Plaintext:                0000000000000000000000000000000000
Ciphertext:               ea06178d3df1566be939e93ee0f83a5f290d4465d908791ed47098393f455cc1ea
Reciphers for ciphertext: 0
Decipheredtext:           0000000000000000000000000000000000
RESULT CIPHER-DECIPHER: -----OK-----


Test: 74
Sector size in bytes: 4096
Data unit:   74
Start block: 149
Symmetric key bit length: 512
Plaintext bit length:     136
Symmetric key:            4a4a4a4a4a4a4a4a4a4a4a4a4a4a4a4a4a4a4a4a4a4a4a4a4a4a4a4a4a4a4a4a4a4a4a4a4a4a4a4a4a4a4a4a4a4a4a4a4a4a4a4a4a4a4a4a4a4a4a4a4a4a4a4a
Plaintext:                0000000000000000000000000000000000
Ciphertext:               c6705017a5240fa5c0bb8963a769a742a4c350df4e365055dfd0c9bce74748b8c6
Reciphers for ciphertext: 0
Decipheredtext:           0000000000000000000000000000000000
RESULT CIPHER-DECIPHER: -----OK-----


Test: 75
Sector size in bytes: 4096
Data unit:   75
Start block: 151
Symmetric key bit length: 512
Plaintext bit length:     136
Symmetric key:            4b4b4b4b4b4b4b4b4b4b4b4b4b4b4b4b4b4b4b4b4b4b4b4b4b4b4b4b4b4b4b4b4b4b4b4b4b4b4b4b4b4b4b4b4b4b4b4b4b4b4b4b4b4b4b4b4b4b4b4b4b4b4b4b
Plaintext:                0000000000000000000000000000000000
Ciphertext:               06411d3ef46fa2c274e3ee73d64bffed29648aff4949d6958b038fd3b14c23f906
Reciphers for ciphertext: 0
Decipheredtext:           0000000000000000000000000000000000
RESULT CIPHER-DECIPHER: -----OK-----


Test: 76
Sector size in bytes: 4096
Data unit:   76
Start block: 153
Symmetric key bit length: 512
Plaintext bit length:     136
Symmetric key:            4c4c4c4c4c4c4c4c4c4c4c4c4c4c4c4c4c4c4c4c4c4c4c4c4c4c4c4c4c4c4c4c4c4c4c4c4c4c4c4c4c4c4c4c4c4c4c4c4c4c4c4c4c4c4c4c4c4c4c4c4c4c4c4c
Plaintext:                0000000000000000000000000000000000
Ciphertext:               489b1173dbf754f91bfe88aa312dbf9ed73801ea6b82c97a18f6e7156f92590e48
Reciphers for ciphertext: 0
Decipheredtext:           0000000000000000000000000000000000
RESULT CIPHER-DECIPHER: -----OK-----


Test: 77
Sector size in bytes: 4096
Data unit:   77
Start block: 155
Symmetric key bit length: 512
Plaintext bit length:     136
Symmetric key:            4d4d4d4d4d4d4d4d4d4d4d4d4d4d4d4d4d4d4d4d4d4d4d4d4d4d4d4d4d4d4d4d4d4d4d4d4d4d4d4d4d4d4d4d4d4d4d4d4d4d4d4d4d4d4d4d4d4d4d4d4d4d4d4d
Plaintext:                0000000000000000000000000000000000
Ciphertext:               1cb300585fd1ca247cc0f369f182a6d65b8ffd8fe0813ee01cb6b9936ec6adde1c
Reciphers for ciphertext: 0
Decipheredtext:           0000000000000000000000000000000000
RESULT CIPHER-DECIPHER: -----OK-----


Test: 78
Sector size in bytes: 4096
Data unit:   78
Start block: 157
Symmetric key bit length: 512
Plaintext bit length:     136
Symmetric key:            4e4e4e4e4e4e4e4e4e4e4e4e4e4e4e4e4e4e4e4e4e4e4e4e4e4e4e4e4e4e4e4e4e4e4e4e4e4e4e4e4e4e4e4e4e4e4e4e4e4e4e4e4e4e4e4e4e4e4e4e4e4e4e4e
Plaintext:                0000000000000000000000000000000000
Ciphertext:               24767f2a32d07d66d232a806d9aea9aaf6ac601923b3a3076ccd15a581a5e64124
Reciphers for ciphertext: 0
Decipheredtext:           0000000000000000000000000000000000
RESULT CIPHER-DECIPHER: -----OK-----


Test: 79
Sector size in bytes: 4096
Data unit:   79
Start block: 159
Symmetric key bit length: 512
Plaintext bit length:     136
Symmetric key:            4f4f4f4f4f4f4f4f4f4f4f4f4f4f4f4f4f4f4f4f4f4f4f4f4f4f4f4f4f4f4f4f4f4f4f4f4f4f4f4f4f4f4f4f4f4f4f4f4f4f4f4f4f4f4f4f4f4f4f4f4f4f4f4f
Plaintext:                0000000000000000000000000000000000
Ciphertext:               e3a0c40f4a45ae9bcaa72926c38a7973c840c339d8899b1b1b04a0b874c8f0c7e3
Reciphers for ciphertext: 0
Decipheredtext:           0000000000000000000000000000000000
RESULT CIPHER-DECIPHER: -----OK-----


Test: 80
Sector size in bytes: 8192
Data unit:   80
Start block: 161
Symmetric key bit length: 512
Plaintext bit length:     136
Symmetric key:            50505050505050505050505050505050505050505050505050505050505050505050505050505050505050505050505050505050505050505050505050505050
Plaintext:                0000000000000000000000000000000000
Ciphertext:               97a48f260a092066916cf5e0f168e065251047762e5e4cd99f465d37051ec37697
Reciphers for ciphertext: 0
Decipheredtext:           0000000000000000000000000000000000
RESULT CIPHER-DECIPHER: -----OK-----


Test: 81
Sector size in bytes: 8192
Data unit:   81
Start block: 163
Symmetric key bit length: 512
Plaintext bit length:     136
Symmetric key:            51515151515151515151515151515151515151515151515151515151515151515151515151515151515151515151515151515151515151515151515151515151
Plaintext:                0000000000000000000000000000000000
Ciphertext:               d9e5105f3bce3f8ca197e314530870713fbf6040cd332db85f83bfe5abd92811d9
Reciphers for ciphertext: 0
Decipheredtext:           0000000000000000000000000000000000
RESULT CIPHER-DECIPHER: -----OK-----


Test: 82
Sector size in bytes: 8192
Data unit:   82
Start block: 165
Symmetric key bit length: 512
Plaintext bit length:     136
Symmetric key:            52525252525252525252525252525252525252525252525252525252525252525252525252525252525252525252525252525252525252525252525252525252
Plaintext:                0000000000000000000000000000000000
Ciphertext:               f86508355178587954f0bc640937df0f0711936e12e0c4ede43dcc594b3dbfa0f8
Reciphers for ciphertext: 0
Decipheredtext:           0000000000000000000000000000000000
RESULT CIPHER-DECIPHER: -----OK-----


Test: 83
Sector size in bytes: 8192
Data unit:   83
Start block: 167
Symmetric key bit length: 512
Plaintext bit length:     136
Symmetric key:            53535353535353535353535353535353535353535353535353535353535353535353535353535353535353535353535353535353535353535353535353535353
Plaintext:                0000000000000000000000000000000000
Ciphertext:               a7977c49e7fe86045ae17d6dd8ff12aa05655e46b2eed7af0ed835eb957515e4a7
Reciphers for ciphertext: 0
Decipheredtext:           0000000000000000000000000000000000
RESULT CIPHER-DECIPHER: -----OK-----


Test: 84
Sector size in bytes: 8192
Data unit:   84
Start block: 169
Symmetric key bit length: 512
Plaintext bit length:     136
Symmetric key:            54545454545454545454545454545454545454545454545454545454545454545454545454545454545454545454545454545454545454545454545454545454
Plaintext:                0000000000000000000000000000000000
Ciphertext:               f6fc95dd7b46a0314f30cd90dbc016909938c5a38a77d38b50f06dd5ee803e08f6
Reciphers for ciphertext: 0
Decipheredtext:           0000000000000000000000000000000000
RESULT CIPHER-DECIPHER: -----OK-----


Test: 85
Sector size in bytes: 8192
Data unit:   85
Start block: 171
Symmetric key bit length: 512
Plaintext bit length:     136
Symmetric key:            55555555555555555555555555555555555555555555555555555555555555555555555555555555555555555555555555555555555555555555555555555555
Plaintext:                0000000000000000000000000000000000
Ciphertext:               6f84a594f5073fdfed8468d5e8277f54f2f92db9d0a86d8f93eb050441c5dc496f
Reciphers for ciphertext: 0
Decipheredtext:           0000000000000000000000000000000000
RESULT CIPHER-DECIPHER: -----OK-----


Test: 86
Sector size in bytes: 8192
Data unit:   86
Start block: 173
Symmetric key bit length: 512
Plaintext bit length:     136
Symmetric key:            56565656565656565656565656565656565656565656565656565656565656565656565656565656565656565656565656565656565656565656565656565656
Plaintext:                0000000000000000000000000000000000
Ciphertext:               960664238720ead53ccb9eb7f85a1dabd2721c36aaf721d186d6c2e80d754ad796
Reciphers for ciphertext: 0
Decipheredtext:           0000000000000000000000000000000000
RESULT CIPHER-DECIPHER: -----OK-----


Test: 87
Sector size in bytes: 8192
Data unit:   87
Start block: 175
Symmetric key bit length: 512
Plaintext bit length:     136
Symmetric key:            57575757575757575757575757575757575757575757575757575757575757575757575757575757575757575757575757575757575757575757575757575757
Plaintext:                0000000000000000000000000000000000
Ciphertext:               7277c88a6f466fc9e03339051a0a813089dc60222eae42e945a8c2a701a7fb9772
Reciphers for ciphertext: 0
Decipheredtext:           0000000000000000000000000000000000
RESULT CIPHER-DECIPHER: -----OK-----


Test: 88
Sector size in bytes: 8192
Data unit:   88
Start block: 177
Symmetric key bit length: 512
Plaintext bit length:     136
Symmetric key:            58585858585858585858585858585858585858585858585858585858585858585858585858585858585858585858585858585858585858585858585858585858
Plaintext:                0000000000000000000000000000000000
Ciphertext:               9fa44d257c05791246538f39843d44bd8c114d27217b09744dccb76fb3da64a19f
Reciphers for ciphertext: 0
Decipheredtext:           0000000000000000000000000000000000
RESULT CIPHER-DECIPHER: -----OK-----


Test: 89
Sector size in bytes: 8192
Data unit:   89
Start block: 179
Symmetric key bit length: 512
Plaintext bit length:     136
Symmetric key:            59595959595959595959595959595959595959595959595959595959595959595959595959595959595959595959595959595959595959595959595959595959
Plaintext:                0000000000000000000000000000000000
Ciphertext:               e5ae903965000719570dc1f2c40f319c954208c0dbbd06f1079739b03e728e4ee5
Reciphers for ciphertext: 0
Decipheredtext:           0000000000000000000000000000000000
RESULT CIPHER-DECIPHER: -----OK-----


Test: 90
Sector size in bytes: 12288
Data unit:   90
Start block: 181
Symmetric key bit length: 512
Plaintext bit length:     136
Symmetric key:            5a5a5a5a5a5a5a5a5a5a5a5a5a5a5a5a5a5a5a5a5a5a5a5a5a5a5a5a5a5a5a5a5a5a5a5a5a5a5a5a5a5a5a5a5a5a5a5a5a5a5a5a5a5a5a5a5a5a5a5a5a5a5a5a
Plaintext:                0000000000000000000000000000000000
Ciphertext:               2a7263283e2f856b6b487e9910486473bf20a9566f1fce36cf81498bac8a88912a
Reciphers for ciphertext: 0
Decipheredtext:           0000000000000000000000000000000000
RESULT CIPHER-DECIPHER: -----OK-----


Test: 91
Sector size in bytes: 12288
Data unit:   91
Start block: 183
Symmetric key bit length: 512
Plaintext bit length:     136
Symmetric key:            5b5b5b5b5b5b5b5b5b5b5b5b5b5b5b5b5b5b5b5b5b5b5b5b5b5b5b5b5b5b5b5b5b5b5b5b5b5b5b5b5b5b5b5b5b5b5b5b5b5b5b5b5b5b5b5b5b5b5b5b5b5b5b5b
Plaintext:                0000000000000000000000000000000000
Ciphertext:               bb589536844d199685cf5f1130210c063a7780185cba6cd33b99aefd5be522d4bb
Reciphers for ciphertext: 0
Decipheredtext:           0000000000000000000000000000000000
RESULT CIPHER-DECIPHER: -----OK-----


Test: 92
Sector size in bytes: 12288
Data unit:   92
Start block: 185
Symmetric key bit length: 512
Plaintext bit length:     136
Symmetric key:            5c5c5c5c5c5c5c5c5c5c5c5c5c5c5c5c5c5c5c5c5c5c5c5c5c5c5c5c5c5c5c5c5c5c5c5c5c5c5c5c5c5c5c5c5c5c5c5c5c5c5c5c5c5c5c5c5c5c5c5c5c5c5c5c
Plaintext:                0000000000000000000000000000000000
Ciphertext:               d75bd3d71243ca1a1250dc4cf6fc04084b8848b772ca3654f1bc5b62ef57980bd7
Reciphers for ciphertext: 0
Decipheredtext:           0000000000000000000000000000000000
RESULT CIPHER-DECIPHER: -----OK-----


Test: 93
Sector size in bytes: 12288
Data unit:   93
Start block: 187
Symmetric key bit length: 512
Plaintext bit length:     136
Symmetric key:            5d5d5d5d5d5d5d5d5d5d5d5d5d5d5d5d5d5d5d5d5d5d5d5d5d5d5d5d5d5d5d5d5d5d5d5d5d5d5d5d5d5d5d5d5d5d5d5d5d5d5d5d5d5d5d5d5d5d5d5d5d5d5d5d
Plaintext:                0000000000000000000000000000000000
Ciphertext:               d29b8b1c12c3e1dd81556b2faf9e4df93f40d16578aa4202cda279cc1c38232fd2
Reciphers for ciphertext: 0
Decipheredtext:           0000000000000000000000000000000000
RESULT CIPHER-DECIPHER: -----OK-----


Test: 94
Sector size in bytes: 12288
Data unit:   94
Start block: 189
Symmetric key bit length: 512
Plaintext bit length:     136
Symmetric key:            5e5e5e5e5e5e5e5e5e5e5e5e5e5e5e5e5e5e5e5e5e5e5e5e5e5e5e5e5e5e5e5e5e5e5e5e5e5e5e5e5e5e5e5e5e5e5e5e5e5e5e5e5e5e5e5e5e5e5e5e5e5e5e5e
Plaintext:                0000000000000000000000000000000000
Ciphertext:               1c207bf44aecfee1d3fdfdc25bd8bec95285e941aab358de98d71d0e9107abd01c
Reciphers for ciphertext: 0
Decipheredtext:           0000000000000000000000000000000000
RESULT CIPHER-DECIPHER: -----OK-----


Test: 95
Sector size in bytes: 12288
Data unit:   95
Start block: 191
Symmetric key bit length: 512
Plaintext bit length:     136
Symmetric key:            5f5f5f5f5f5f5f5f5f5f5f5f5f5f5f5f5f5f5f5f5f5f5f5f5f5f5f5f5f5f5f5f5f5f5f5f5f5f5f5f5f5f5f5f5f5f5f5f5f5f5f5f5f5f5f5f5f5f5f5f5f5f5f5f
Plaintext:                0000000000000000000000000000000000
Ciphertext:               c6d36da734472d5296285889bd47f78db3d809041d4210637d186117b276617fc6
Reciphers for ciphertext: 0
Decipheredtext:           0000000000000000000000000000000000
RESULT CIPHER-DECIPHER: -----OK-----


Test: 96
Sector size in bytes: 12288
Data unit:   96
Start block: 193
Symmetric key bit length: 512
Plaintext bit length:     136
Symmetric key:            60606060606060606060606060606060606060606060606060606060606060606060606060606060606060606060606060606060606060606060606060606060
Plaintext:                0000000000000000000000000000000000
Ciphertext:               ee00914f210324e99f6d322f8cb4898217b886918698c1745d2706fce8733b70ee
Reciphers for ciphertext: 0
Decipheredtext:           0000000000000000000000000000000000
RESULT CIPHER-DECIPHER: -----OK-----


Test: 97
Sector size in bytes: 12288
Data unit:   97
Start block: 195
Symmetric key bit length: 512
Plaintext bit length:     136
Symmetric key:            61616161616161616161616161616161616161616161616161616161616161616161616161616161616161616161616161616161616161616161616161616161
Plaintext:                0000000000000000000000000000000000
Ciphertext:               1a294aae736534f642d5e554e6712ff361a88f6607dad0e7ed07453f4bebc72d1a
Reciphers for ciphertext: 0
Decipheredtext:           0000000000000000000000000000000000
RESULT CIPHER-DECIPHER: -----OK-----


Test: 98
Sector size in bytes: 12288
Data unit:   98
Start block: 197
Symmetric key bit length: 512
Plaintext bit length:     136
Symmetric key:            62626262626262626262626262626262626262626262626262626262626262626262626262626262626262626262626262626262626262626262626262626262
Plaintext:                0000000000000000000000000000000000
Ciphertext:               4d92e5a595f1e60dd5aa989e7a6409e60724d9b4c2530477b69668b0359873424d
Reciphers for ciphertext: 0
Decipheredtext:           0000000000000000000000000000000000
RESULT CIPHER-DECIPHER: -----OK-----


Test: 99
Sector size in bytes: 12288
Data unit:   99
Start block: 199
Symmetric key bit length: 512
Plaintext bit length:     136
Symmetric key:            63636363636363636363636363636363636363636363636363636363636363636363636363636363636363636363636363636363636363636363636363636363
Plaintext:                0000000000000000000000000000000000
Ciphertext:               6c43f9c75c91d038f8e3eddea12e47e77a56132501525e1aef5ccde1b25a649d6c
Reciphers for ciphertext: 0
Decipheredtext:           0000000000000000000000000000000000
RESULT CIPHER-DECIPHER: -----OK-----


Test: 100
Sector size in bytes: 16384
Data unit:   100
Start block: 201
Symmetric key bit length: 512
Plaintext bit length:     136
Symmetric key:            64646464646464646464646464646464646464646464646464646464646464646464646464646464646464646464646464646464646464646464646464646464
Plaintext:                0000000000000000000000000000000000
Ciphertext:               b5dd45cb91fd2d8ace9261f3ec8f7a12932b98f08fc082d5c6429827da4eb41ab5
Reciphers for ciphertext: 0
Decipheredtext:           0000000000000000000000000000000000
RESULT CIPHER-DECIPHER: -----OK-----


Test: 101
Sector size in bytes: 16384
Data unit:   101
Start block: 203
Symmetric key bit length: 512
Plaintext bit length:     136
Symmetric key:            65656565656565656565656565656565656565656565656565656565656565656565656565656565656565656565656565656565656565656565656565656565
Plaintext:                0000000000000000000000000000000000
Ciphertext:               3a63891f4c108eced98d77c78d85589edab8b8895b3a47fab001d6ae8aa6aaa03a
Reciphers for ciphertext: 0
Decipheredtext:           0000000000000000000000000000000000
RESULT CIPHER-DECIPHER: -----OK-----


Test: 102
Sector size in bytes: 16384
Data unit:   102
Start block: 205
Symmetric key bit length: 512
Plaintext bit length:     136
Symmetric key:            66666666666666666666666666666666666666666666666666666666666666666666666666666666666666666666666666666666666666666666666666666666
Plaintext:                0000000000000000000000000000000000
Ciphertext:               fae513ea92747a427ecf8d588a1141f097b1adc6614a3492c6612f0ad89f0a4cfa
Reciphers for ciphertext: 0
Decipheredtext:           0000000000000000000000000000000000
RESULT CIPHER-DECIPHER: -----OK-----


Test: 103
Sector size in bytes: 16384
Data unit:   103
Start block: 207
Symmetric key bit length: 512
Plaintext bit length:     136
Symmetric key:            67676767676767676767676767676767676767676767676767676767676767676767676767676767676767676767676767676767676767676767676767676767
Plaintext:                0000000000000000000000000000000000
Ciphertext:               3465a5a6596984334bb4020a96d664a67964ebdd18d1a3e3f6e9f60d2140eab834
Reciphers for ciphertext: 0
Decipheredtext:           0000000000000000000000000000000000
RESULT CIPHER-DECIPHER: -----OK-----


Test: 104
Sector size in bytes: 16384
Data unit:   104
Start block: 209
Symmetric key bit length: 512
Plaintext bit length:     136
Symmetric key:            68686868686868686868686868686868686868686868686868686868686868686868686868686868686868686868686868686868686868686868686868686868
Plaintext:                0000000000000000000000000000000000
Ciphertext:               01b5f0ba2dd4de5b33fb3dcc157373cc1613142c4b2b7d9ab1ec6e3fc55cd1c601
Reciphers for ciphertext: 0
Decipheredtext:           0000000000000000000000000000000000
RESULT CIPHER-DECIPHER: -----OK-----


Test: 105
Sector size in bytes: 16384
Data unit:   105
Start block: 211
Symmetric key bit length: 512
Plaintext bit length:     136
Symmetric key:            69696969696969696969696969696969696969696969696969696969696969696969696969696969696969696969696969696969696969696969696969696969
Plaintext:                0000000000000000000000000000000000
Ciphertext:               76ba323f3ac0ac1326f8ce69d3e9803e629f8cdbc081b5b82baf91bd54427b3c76
Reciphers for ciphertext: 0
Decipheredtext:           0000000000000000000000000000000000
RESULT CIPHER-DECIPHER: -----OK-----


Test: 106
Sector size in bytes: 16384
Data unit:   106
Start block: 213
Symmetric key bit length: 512
Plaintext bit length:     136
Symmetric key:            6a6a6a6a6a6a6a6a6a6a6a6a6a6a6a6a6a6a6a6a6a6a6a6a6a6a6a6a6a6a6a6a6a6a6a6a6a6a6a6a6a6a6a6a6a6a6a6a6a6a6a6a6a6a6a6a6a6a6a6a6a6a6a6a
Plaintext:                0000000000000000000000000000000000
Ciphertext:               26bf2d7b011be5d5fbddb0b9cb59a9bef283708e40c96d70a7d42ab48f02014e26
Reciphers for ciphertext: 0
Decipheredtext:           0000000000000000000000000000000000
RESULT CIPHER-DECIPHER: -----OK-----


Test: 107
Sector size in bytes: 16384
Data unit:   107
Start block: 215
Symmetric key bit length: 512
Plaintext bit length:     136
Symmetric key:            6b6b6b6b6b6b6b6b6b6b6b6b6b6b6b6b6b6b6b6b6b6b6b6b6b6b6b6b6b6b6b6b6b6b6b6b6b6b6b6b6b6b6b6b6b6b6b6b6b6b6b6b6b6b6b6b6b6b6b6b6b6b6b6b
Plaintext:                0000000000000000000000000000000000
Ciphertext:               32dcba10147089c08fde39c8ea3bbd22dfd6de8a22dec990b3b6423ca0b18e1e32
Reciphers for ciphertext: 0
Decipheredtext:           0000000000000000000000000000000000
RESULT CIPHER-DECIPHER: -----OK-----


Test: 108
Sector size in bytes: 16384
Data unit:   108
Start block: 217
Symmetric key bit length: 512
Plaintext bit length:     136
Symmetric key:            6c6c6c6c6c6c6c6c6c6c6c6c6c6c6c6c6c6c6c6c6c6c6c6c6c6c6c6c6c6c6c6c6c6c6c6c6c6c6c6c6c6c6c6c6c6c6c6c6c6c6c6c6c6c6c6c6c6c6c6c6c6c6c6c
Plaintext:                0000000000000000000000000000000000
Ciphertext:               340e54b4412b7230fc55cda5da7596c836763ba2bddc1df6fadbb29f221358b234
Reciphers for ciphertext: 0
Decipheredtext:           0000000000000000000000000000000000
RESULT CIPHER-DECIPHER: -----OK-----


Test: 109
Sector size in bytes: 16384
Data unit:   109
Start block: 219
Symmetric key bit length: 512
Plaintext bit length:     136
Symmetric key:            6d6d6d6d6d6d6d6d6d6d6d6d6d6d6d6d6d6d6d6d6d6d6d6d6d6d6d6d6d6d6d6d6d6d6d6d6d6d6d6d6d6d6d6d6d6d6d6d6d6d6d6d6d6d6d6d6d6d6d6d6d6d6d6d
Plaintext:                0000000000000000000000000000000000
Ciphertext:               00b7911c13fc0806947846d164d10a7e7159beae5a6f5a8c4eb75957c2d9cfbc00
Reciphers for ciphertext: 0
Decipheredtext:           0000000000000000000000000000000000
RESULT CIPHER-DECIPHER: -----OK-----


Test: 110
Sector size in bytes: 24576
Data unit:   110
Start block: 221
Symmetric key bit length: 512
Plaintext bit length:     136
Symmetric key:            6e6e6e6e6e6e6e6e6e6e6e6e6e6e6e6e6e6e6e6e6e6e6e6e6e6e6e6e6e6e6e6e6e6e6e6e6e6e6e6e6e6e6e6e6e6e6e6e6e6e6e6e6e6e6e6e6e6e6e6e6e6e6e6e
Plaintext:                0000000000000000000000000000000000
Ciphertext:               90b456596e36de2f6f146c32541a13772d05e22e7e45fb2e00b41b3b86aa094f90
Reciphers for ciphertext: 0
Decipheredtext:           0000000000000000000000000000000000
RESULT CIPHER-DECIPHER: -----OK-----


Test: 111
Sector size in bytes: 24576
Data unit:   111
Start block: 223
Symmetric key bit length: 512
Plaintext bit length:     136
Symmetric key:            6f6f6f6f6f6f6f6f6f6f6f6f6f6f6f6f6f6f6f6f6f6f6f6f6f6f6f6f6f6f6f6f6f6f6f6f6f6f6f6f6f6f6f6f6f6f6f6f6f6f6f6f6f6f6f6f6f6f6f6f6f6f6f6f
Plaintext:                0000000000000000000000000000000000
Ciphertext:               d9e54fc6c100e1409a3861729d59a0648866694cee64744dc6c8389a0aea452cd9
Reciphers for ciphertext: 0
Decipheredtext:           0000000000000000000000000000000000
RESULT CIPHER-DECIPHER: -----OK-----


Test: 112
Sector size in bytes: 24576
Data unit:   112
Start block: 225
Symmetric key bit length: 512
Plaintext bit length:     136
Symmetric key:            70707070707070707070707070707070707070707070707070707070707070707070707070707070707070707070707070707070707070707070707070707070
Plaintext:                0000000000000000000000000000000000
Ciphertext:               cda426c8a984a12a1ae84afdbc1a3315477f0edcc7cfcf91dcf4ee298197a573cd
Reciphers for ciphertext: 0
Decipheredtext:           0000000000000000000000000000000000
RESULT CIPHER-DECIPHER: -----OK-----


Test: 113
Sector size in bytes: 24576
Data unit:   113
Start block: 227
Symmetric key bit length: 512
Plaintext bit length:     136
Symmetric key:            71717171717171717171717171717171717171717171717171717171717171717171717171717171717171717171717171717171717171717171717171717171
Plaintext:                0000000000000000000000000000000000
Ciphertext:               6c10b4c400ce31d9c9899b9130f5b2d7ba5ff235541a71766d26bac3441d5ea56c
Reciphers for ciphertext: 0
Decipheredtext:           0000000000000000000000000000000000
RESULT CIPHER-DECIPHER: -----OK-----


Test: 114
Sector size in bytes: 24576
Data unit:   114
Start block: 229
Symmetric key bit length: 512
Plaintext bit length:     136
Symmetric key:            72727272727272727272727272727272727272727272727272727272727272727272727272727272727272727272727272727272727272727272727272727272
Plaintext:                0000000000000000000000000000000000
Ciphertext:               e6e2786cd01acdbe2503f50bff7453ba2ba59563982d33bb1d350adb15ebae62e6
Reciphers for ciphertext: 0
Decipheredtext:           0000000000000000000000000000000000
RESULT CIPHER-DECIPHER: -----OK-----


Test: 115
Sector size in bytes: 24576
Data unit:   115
Start block: 231
Symmetric key bit length: 512
Plaintext bit length:     136
Symmetric key:            73737373737373737373737373737373737373737373737373737373737373737373737373737373737373737373737373737373737373737373737373737373
Plaintext:                0000000000000000000000000000000000
Ciphertext:               d6418ac0e27191d314d5a89eb7bc539deafa7ff87629ffc3962ffc6794292f0cd6
Reciphers for ciphertext: 0
Decipheredtext:           0000000000000000000000000000000000
RESULT CIPHER-DECIPHER: -----OK-----


Test: 116
Sector size in bytes: 24576
Data unit:   116
Start block: 233
Symmetric key bit length: 512
Plaintext bit length:     136
Symmetric key:            74747474747474747474747474747474747474747474747474747474747474747474747474747474747474747474747474747474747474747474747474747474
Plaintext:                0000000000000000000000000000000000
Ciphertext:               1b14e537bd75033ce2ebe8be1151c4b92d64723ad8dbff5b4c3aa75ca6a822b21b
Reciphers for ciphertext: 0
Decipheredtext:           0000000000000000000000000000000000
RESULT CIPHER-DECIPHER: -----OK-----


Test: 117
Sector size in bytes: 24576
Data unit:   117
Start block: 235
Symmetric key bit length: 512
Plaintext bit length:     136
Symmetric key:            75757575757575757575757575757575757575757575757575757575757575757575757575757575757575757575757575757575757575757575757575757575
Plaintext:                0000000000000000000000000000000000
Ciphertext:               fe75e5a357d26aaea51b38921d62957dc2242b225b7ab787e70b06a5463c7ba6fe
Reciphers for ciphertext: 0
Decipheredtext:           0000000000000000000000000000000000
RESULT CIPHER-DECIPHER: -----OK-----


Test: 118
Sector size in bytes: 24576
Data unit:   118
Start block: 237
Symmetric key bit length: 512
Plaintext bit length:     136
Symmetric key:            76767676767676767676767676767676767676767676767676767676767676767676767676767676767676767676767676767676767676767676767676767676
Plaintext:                0000000000000000000000000000000000
Ciphertext:               9f05a9b98911880fe7b7a33620447cbe88a60beac1049fa16d5e231b63bc642f9f
Reciphers for ciphertext: 0
Decipheredtext:           0000000000000000000000000000000000
RESULT CIPHER-DECIPHER: -----OK-----


Test: 119
Sector size in bytes: 24576
Data unit:   119
Start block: 239
Symmetric key bit length: 512
Plaintext bit length:     136
Symmetric key:            77777777777777777777777777777777777777777777777777777777777777777777777777777777777777777777777777777777777777777777777777777777
Plaintext:                0000000000000000000000000000000000
Ciphertext:               f2fedb62554331f263d9b9b627e8dd801d5d77e29222ef3028c7900f254ba7dcf2
Reciphers for ciphertext: 0
Decipheredtext:           0000000000000000000000000000000000
RESULT CIPHER-DECIPHER: -----OK-----


Test: 120
Sector size in bytes: 32768
Data unit:   120
Start block: 241
Symmetric key bit length: 512
Plaintext bit length:     136
Symmetric key:            78787878787878787878787878787878787878787878787878787878787878787878787878787878787878787878787878787878787878787878787878787878
Plaintext:                0000000000000000000000000000000000
Ciphertext:               bedcac95d416a2f6d17b724b94199a43d195207fc5ccde87e81b6f9f54358753be
Reciphers for ciphertext: 0
Decipheredtext:           0000000000000000000000000000000000
RESULT CIPHER-DECIPHER: -----OK-----


Test: 121
Sector size in bytes: 32768
Data unit:   121
Start block: 243
Symmetric key bit length: 512
Plaintext bit length:     136
Symmetric key:            79797979797979797979797979797979797979797979797979797979797979797979797979797979797979797979797979797979797979797979797979797979
Plaintext:                0000000000000000000000000000000000
Ciphertext:               b33150b4ccbc8b9f9d33f2e13daf9a513864d284fef6362316aa16aa7444379db3
Reciphers for ciphertext: 0
Decipheredtext:           0000000000000000000000000000000000
RESULT CIPHER-DECIPHER: -----OK-----


Test: 122
Sector size in bytes: 32768
Data unit:   122
Start block: 245
Symmetric key bit length: 512
Plaintext bit length:     136
Symmetric key:            7a7a7a7a7a7a7a7a7a7a7a7a7a7a7a7a7a7a7a7a7a7a7a7a7a7a7a7a7a7a7a7a7a7a7a7a7a7a7a7a7a7a7a7a7a7a7a7a7a7a7a7a7a7a7a7a7a7a7a7a7a7a7a7a
Plaintext:                0000000000000000000000000000000000
Ciphertext:               160458df89a6ee7725d6569ddb3191a293c9bb3b1be4e751da301eea21b6104716
Reciphers for ciphertext: 0
Decipheredtext:           0000000000000000000000000000000000
RESULT CIPHER-DECIPHER: -----OK-----


Test: 123
Sector size in bytes: 32768
Data unit:   123
Start block: 247
Symmetric key bit length: 512
Plaintext bit length:     136
Symmetric key:            7b7b7b7b7b7b7b7b7b7b7b7b7b7b7b7b7b7b7b7b7b7b7b7b7b7b7b7b7b7b7b7b7b7b7b7b7b7b7b7b7b7b7b7b7b7b7b7b7b7b7b7b7b7b7b7b7b7b7b7b7b7b7b7b
Plaintext:                0000000000000000000000000000000000
Ciphertext:               0067df4aeff18309c397b954b6479b0f79802c39b7b893351a4ab64b766ccbdf00
Reciphers for ciphertext: 0
Decipheredtext:           0000000000000000000000000000000000
RESULT CIPHER-DECIPHER: -----OK-----


Test: 124
Sector size in bytes: 32768
Data unit:   124
Start block: 249
Symmetric key bit length: 512
Plaintext bit length:     136
Symmetric key:            7c7c7c7c7c7c7c7c7c7c7c7c7c7c7c7c7c7c7c7c7c7c7c7c7c7c7c7c7c7c7c7c7c7c7c7c7c7c7c7c7c7c7c7c7c7c7c7c7c7c7c7c7c7c7c7c7c7c7c7c7c7c7c7c
Plaintext:                0000000000000000000000000000000000
Ciphertext:               d59bae52cc64daa7c5a26a7fa08f6bf04328dd21bc6e9594137694d09a0ac9e5d5
Reciphers for ciphertext: 0
Decipheredtext:           0000000000000000000000000000000000
RESULT CIPHER-DECIPHER: -----OK-----


Test: 125
Sector size in bytes: 32768
Data unit:   125
Start block: 251
Symmetric key bit length: 512
Plaintext bit length:     136
Symmetric key:            7d7d7d7d7d7d7d7d7d7d7d7d7d7d7d7d7d7d7d7d7d7d7d7d7d7d7d7d7d7d7d7d7d7d7d7d7d7d7d7d7d7d7d7d7d7d7d7d7d7d7d7d7d7d7d7d7d7d7d7d7d7d7d7d
Plaintext:                0000000000000000000000000000000000
Ciphertext:               6367d85911aa8b4fb173f3913beb61d413bb50708550adb64a0c681a90f53ba063
Reciphers for ciphertext: 0
Decipheredtext:           0000000000000000000000000000000000
RESULT CIPHER-DECIPHER: -----OK-----


Test: 126
Sector size in bytes: 32768
Data unit:   126
Start block: 253
Symmetric key bit length: 512
Plaintext bit length:     136
Symmetric key:            7e7e7e7e7e7e7e7e7e7e7e7e7e7e7e7e7e7e7e7e7e7e7e7e7e7e7e7e7e7e7e7e7e7e7e7e7e7e7e7e7e7e7e7e7e7e7e7e7e7e7e7e7e7e7e7e7e7e7e7e7e7e7e7e
Plaintext:                0000000000000000000000000000000000
Ciphertext:               9574e17a4b4d6d42c15a7bf20cc509807d137da35312b5ee55ac3b1123c5fbac95
Reciphers for ciphertext: 0
Decipheredtext:           0000000000000000000000000000000000
RESULT CIPHER-DECIPHER: -----OK-----


Test: 127
Sector size in bytes: 32768
Data unit:   127
Start block: 255
Symmetric key bit length: 512
Plaintext bit length:     136
Symmetric key:            7f7f7f7f7f7f7f7f7f7f7f7f7f7f7f7f7f7f7f7f7f7f7f7f7f7f7f7f7f7f7f7f7f7f7f7f7f7f7f7f7f7f7f7f7f7f7f7f7f7f7f7f7f7f7f7f7f7f7f7f7f7f7f7f
Plaintext:                0000000000000000000000000000000000
Ciphertext:               ffa81c0439ee2b707342e9ead8cc252e0f20b0eadb95fedc1a464ae18763309fff
Reciphers for ciphertext: 0
Decipheredtext:           0000000000000000000000000000000000
RESULT CIPHER-DECIPHER: -----OK-----


 DATA SHA1 (hexadecimal): a6d1ad039b5e52dda80cd3c5f99339f6e1fa39eb

