
DiceLock 9.0.0.1

 TEST COMPONENTS:
 ----------------
 DiceLock:           DiceLockXTSIndexed class
 Operation Mode:     XTS_Mode class
 Block Cipher:       AES192 class
 Key Modifier:       IncreaseBase0IndexModifier_6_0_0_1 class
   Index bit length: 128
 Random tests:       RandomTestSuite class
                     FrequencyTest class
                     BlockFrequencyTest class
                     CumulativeSumForwardTest class
                     LongestRunOfOnesTest class
                     RunsTest class
 Random alpha:       0.001

 VECTOR TEST: Test vector 1 - Changing plaintext, shifting 1 bit set


##### INDIVIDUAL TESTS #####

Number tests: 128


Test: 0
Sector size in bytes: 512
Data unit:   0
Start block: 0
Symmetric key bit length: 384
Plaintext bit length:     136
Symmetric key:            000000000000000000000000000000000000000000000000000000000000000000000000000000000000000000000000
Plaintext:                0080000000000000000000000000000000
Ciphertext:               f8161d2515bc5d7959c9b1b2e87eb8e6ac832f3583603d0b92603213eedc661343
Reciphers for ciphertext: 0
Decipheredtext:           0080000000000000000000000000000000
RESULT CIPHER-DECIPHER: -----OK-----


Test: 1
Sector size in bytes: 512
Data unit:   0
Start block: 0
Symmetric key bit length: 384
Plaintext bit length:     136
Symmetric key:            000000000000000000000000000000000000000000000000000000000000000000000000000000000000000000000000
Plaintext:                0040000000000000000000000000000000
Ciphertext:               f8161d2515bc5d7959c9b1b2e87eb8e6806eaf09f759bfdd52871dece049c4fb59
Reciphers for ciphertext: 0
Decipheredtext:           0040000000000000000000000000000000
RESULT CIPHER-DECIPHER: -----OK-----


Test: 2
Sector size in bytes: 512
Data unit:   0
Start block: 0
Symmetric key bit length: 384
Plaintext bit length:     136
Symmetric key:            000000000000000000000000000000000000000000000000000000000000000000000000000000000000000000000000
Plaintext:                0020000000000000000000000000000000
Ciphertext:               f8161d2515bc5d7959c9b1b2e87eb8e69cf1d3a3e423dcc8852b8ee3686e3311a3
Reciphers for ciphertext: 0
Decipheredtext:           0020000000000000000000000000000000
RESULT CIPHER-DECIPHER: -----OK-----


Test: 3
Sector size in bytes: 512
Data unit:   0
Start block: 0
Symmetric key bit length: 384
Plaintext bit length:     136
Symmetric key:            000000000000000000000000000000000000000000000000000000000000000000000000000000000000000000000000
Plaintext:                0010000000000000000000000000000000
Ciphertext:               f8161d2515bc5d7959c9b1b2e87eb8e63ac90d68a7a390446df35fe17ad5256838
Reciphers for ciphertext: 0
Decipheredtext:           0010000000000000000000000000000000
RESULT CIPHER-DECIPHER: -----OK-----


Test: 4
Sector size in bytes: 512
Data unit:   0
Start block: 0
Symmetric key bit length: 384
Plaintext bit length:     136
Symmetric key:            000000000000000000000000000000000000000000000000000000000000000000000000000000000000000000000000
Plaintext:                0008000000000000000000000000000000
Ciphertext:               f8161d2515bc5d7959c9b1b2e87eb8e649453921728e93b5fd7cf25e54384e7ca0
Reciphers for ciphertext: 0
Decipheredtext:           0008000000000000000000000000000000
RESULT CIPHER-DECIPHER: -----OK-----


Test: 5
Sector size in bytes: 512
Data unit:   0
Start block: 0
Symmetric key bit length: 384
Plaintext bit length:     136
Symmetric key:            000000000000000000000000000000000000000000000000000000000000000000000000000000000000000000000000
Plaintext:                0004000000000000000000000000000000
Ciphertext:               f8161d2515bc5d7959c9b1b2e87eb8e6f43cb25cdf2e95e877a64a1ab10722a745
Reciphers for ciphertext: 0
Decipheredtext:           0004000000000000000000000000000000
RESULT CIPHER-DECIPHER: -----OK-----


Test: 6
Sector size in bytes: 512
Data unit:   0
Start block: 0
Symmetric key bit length: 384
Plaintext bit length:     136
Symmetric key:            000000000000000000000000000000000000000000000000000000000000000000000000000000000000000000000000
Plaintext:                0002000000000000000000000000000000
Ciphertext:               f8161d2515bc5d7959c9b1b2e87eb8e62b3d5dd84911ebdc84bfd5c289f565835d
Reciphers for ciphertext: 0
Decipheredtext:           0002000000000000000000000000000000
RESULT CIPHER-DECIPHER: -----OK-----


Test: 7
Sector size in bytes: 512
Data unit:   0
Start block: 0
Symmetric key bit length: 384
Plaintext bit length:     136
Symmetric key:            000000000000000000000000000000000000000000000000000000000000000000000000000000000000000000000000
Plaintext:                0001000000000000000000000000000000
Ciphertext:               f8161d2515bc5d7959c9b1b2e87eb8e6655af09df2b04f1b305214a4d4ffcde533
Reciphers for ciphertext: 0
Decipheredtext:           0001000000000000000000000000000000
RESULT CIPHER-DECIPHER: -----OK-----


Test: 8
Sector size in bytes: 512
Data unit:   0
Start block: 0
Symmetric key bit length: 384
Plaintext bit length:     136
Symmetric key:            000000000000000000000000000000000000000000000000000000000000000000000000000000000000000000000000
Plaintext:                0000800000000000000000000000000000
Ciphertext:               f8161d2515bc5d7959c9b1b2e87eb8e686072e96b2492982aae739411228bd4b84
Reciphers for ciphertext: 0
Decipheredtext:           0000800000000000000000000000000000
RESULT CIPHER-DECIPHER: -----OK-----


Test: 9
Sector size in bytes: 512
Data unit:   0
Start block: 0
Symmetric key bit length: 384
Plaintext bit length:     136
Symmetric key:            000000000000000000000000000000000000000000000000000000000000000000000000000000000000000000000000
Plaintext:                0000400000000000000000000000000000
Ciphertext:               f8161d2515bc5d7959c9b1b2e87eb8e60d622ac73fa0e5de814f6256336624021e
Reciphers for ciphertext: 0
Decipheredtext:           0000400000000000000000000000000000
RESULT CIPHER-DECIPHER: -----OK-----


Test: 10
Sector size in bytes: 1024
Data unit:   0
Start block: 0
Symmetric key bit length: 384
Plaintext bit length:     136
Symmetric key:            000000000000000000000000000000000000000000000000000000000000000000000000000000000000000000000000
Plaintext:                0000200000000000000000000000000000
Ciphertext:               f8161d2515bc5d7959c9b1b2e87eb8e6b6d6eebcac5b00fcadac13627732d4f1ca
Reciphers for ciphertext: 0
Decipheredtext:           0000200000000000000000000000000000
RESULT CIPHER-DECIPHER: -----OK-----


Test: 11
Sector size in bytes: 1024
Data unit:   0
Start block: 0
Symmetric key bit length: 384
Plaintext bit length:     136
Symmetric key:            000000000000000000000000000000000000000000000000000000000000000000000000000000000000000000000000
Plaintext:                0000100000000000000000000000000000
Ciphertext:               f8161d2515bc5d7959c9b1b2e87eb8e662fdeb6fad718a9f4292107c31da3c0928
Reciphers for ciphertext: 0
Decipheredtext:           0000100000000000000000000000000000
RESULT CIPHER-DECIPHER: -----OK-----


Test: 12
Sector size in bytes: 1024
Data unit:   0
Start block: 0
Symmetric key bit length: 384
Plaintext bit length:     136
Symmetric key:            000000000000000000000000000000000000000000000000000000000000000000000000000000000000000000000000
Plaintext:                0000080000000000000000000000000000
Ciphertext:               f8161d2515bc5d7959c9b1b2e87eb8e6550f41e04b838405838bf280fb0e17f90c
Reciphers for ciphertext: 0
Decipheredtext:           0000080000000000000000000000000000
RESULT CIPHER-DECIPHER: -----OK-----


Test: 13
Sector size in bytes: 1024
Data unit:   0
Start block: 0
Symmetric key bit length: 384
Plaintext bit length:     136
Symmetric key:            000000000000000000000000000000000000000000000000000000000000000000000000000000000000000000000000
Plaintext:                0000040000000000000000000000000000
Ciphertext:               f8161d2515bc5d7959c9b1b2e87eb8e6f85df2b152db539214e073ab66c31cce2c
Reciphers for ciphertext: 0
Decipheredtext:           0000040000000000000000000000000000
RESULT CIPHER-DECIPHER: -----OK-----


Test: 14
Sector size in bytes: 1024
Data unit:   0
Start block: 0
Symmetric key bit length: 384
Plaintext bit length:     136
Symmetric key:            000000000000000000000000000000000000000000000000000000000000000000000000000000000000000000000000
Plaintext:                0000020000000000000000000000000000
Ciphertext:               f8161d2515bc5d7959c9b1b2e87eb8e64a2c2fd0e62a7f4ed02530ea24bb580e71
Reciphers for ciphertext: 0
Decipheredtext:           0000020000000000000000000000000000
RESULT CIPHER-DECIPHER: -----OK-----


Test: 15
Sector size in bytes: 1024
Data unit:   0
Start block: 0
Symmetric key bit length: 384
Plaintext bit length:     136
Symmetric key:            000000000000000000000000000000000000000000000000000000000000000000000000000000000000000000000000
Plaintext:                0000010000000000000000000000000000
Ciphertext:               f8161d2515bc5d7959c9b1b2e87eb8e6f113037e7a095f68143866a5419564ccc9
Reciphers for ciphertext: 0
Decipheredtext:           0000010000000000000000000000000000
RESULT CIPHER-DECIPHER: -----OK-----


Test: 16
Sector size in bytes: 1024
Data unit:   0
Start block: 0
Symmetric key bit length: 384
Plaintext bit length:     136
Symmetric key:            000000000000000000000000000000000000000000000000000000000000000000000000000000000000000000000000
Plaintext:                0000008000000000000000000000000000
Ciphertext:               f8161d2515bc5d7959c9b1b2e87eb8e6173c3aa6c3311b9515d0d2cf55d8db8ccf
Reciphers for ciphertext: 0
Decipheredtext:           0000008000000000000000000000000000
RESULT CIPHER-DECIPHER: -----OK-----


Test: 17
Sector size in bytes: 1024
Data unit:   0
Start block: 0
Symmetric key bit length: 384
Plaintext bit length:     136
Symmetric key:            000000000000000000000000000000000000000000000000000000000000000000000000000000000000000000000000
Plaintext:                0000004000000000000000000000000000
Ciphertext:               f8161d2515bc5d7959c9b1b2e87eb8e6c3559962588b9d14d69c24af0220fc93ba
Reciphers for ciphertext: 0
Decipheredtext:           0000004000000000000000000000000000
RESULT CIPHER-DECIPHER: -----OK-----


Test: 18
Sector size in bytes: 1024
Data unit:   0
Start block: 0
Symmetric key bit length: 384
Plaintext bit length:     136
Symmetric key:            000000000000000000000000000000000000000000000000000000000000000000000000000000000000000000000000
Plaintext:                0000002000000000000000000000000000
Ciphertext:               f8161d2515bc5d7959c9b1b2e87eb8e6f7fc18659c288ed83f9a8b32b8dc96ec0a
Reciphers for ciphertext: 0
Decipheredtext:           0000002000000000000000000000000000
RESULT CIPHER-DECIPHER: -----OK-----


Test: 19
Sector size in bytes: 1024
Data unit:   0
Start block: 0
Symmetric key bit length: 384
Plaintext bit length:     136
Symmetric key:            000000000000000000000000000000000000000000000000000000000000000000000000000000000000000000000000
Plaintext:                0000001000000000000000000000000000
Ciphertext:               f8161d2515bc5d7959c9b1b2e87eb8e622339bcd38a2bba95c2805bf4a669b8d1d
Reciphers for ciphertext: 0
Decipheredtext:           0000001000000000000000000000000000
RESULT CIPHER-DECIPHER: -----OK-----


Test: 20
Sector size in bytes: 1536
Data unit:   0
Start block: 0
Symmetric key bit length: 384
Plaintext bit length:     136
Symmetric key:            000000000000000000000000000000000000000000000000000000000000000000000000000000000000000000000000
Plaintext:                0000000800000000000000000000000000
Ciphertext:               f8161d2515bc5d7959c9b1b2e87eb8e61b897bda449412736baf1cafcf5ca2fa63
Reciphers for ciphertext: 0
Decipheredtext:           0000000800000000000000000000000000
RESULT CIPHER-DECIPHER: -----OK-----


Test: 21
Sector size in bytes: 1536
Data unit:   0
Start block: 0
Symmetric key bit length: 384
Plaintext bit length:     136
Symmetric key:            000000000000000000000000000000000000000000000000000000000000000000000000000000000000000000000000
Plaintext:                0000000400000000000000000000000000
Ciphertext:               f8161d2515bc5d7959c9b1b2e87eb8e658600b73eb98cf7b0e3640b6cf41655561
Reciphers for ciphertext: 0
Decipheredtext:           0000000400000000000000000000000000
RESULT CIPHER-DECIPHER: -----OK-----


Test: 22
Sector size in bytes: 1536
Data unit:   0
Start block: 0
Symmetric key bit length: 384
Plaintext bit length:     136
Symmetric key:            000000000000000000000000000000000000000000000000000000000000000000000000000000000000000000000000
Plaintext:                0000000200000000000000000000000000
Ciphertext:               f8161d2515bc5d7959c9b1b2e87eb8e643cbd9c297107ccda5436e16ce56339671
Reciphers for ciphertext: 0
Decipheredtext:           0000000200000000000000000000000000
RESULT CIPHER-DECIPHER: -----OK-----


Test: 23
Sector size in bytes: 1536
Data unit:   0
Start block: 0
Symmetric key bit length: 384
Plaintext bit length:     136
Symmetric key:            000000000000000000000000000000000000000000000000000000000000000000000000000000000000000000000000
Plaintext:                0000000100000000000000000000000000
Ciphertext:               f8161d2515bc5d7959c9b1b2e87eb8e6d5052e2566adbc1aff5c5f7f0e105fb034
Reciphers for ciphertext: 0
Decipheredtext:           0000000100000000000000000000000000
RESULT CIPHER-DECIPHER: -----OK-----


Test: 24
Sector size in bytes: 1536
Data unit:   0
Start block: 0
Symmetric key bit length: 384
Plaintext bit length:     136
Symmetric key:            000000000000000000000000000000000000000000000000000000000000000000000000000000000000000000000000
Plaintext:                0000000080000000000000000000000000
Ciphertext:               f8161d2515bc5d7959c9b1b2e87eb8e6cd365388fda2bbd89dcb29c44ea170705c
Reciphers for ciphertext: 0
Decipheredtext:           0000000080000000000000000000000000
RESULT CIPHER-DECIPHER: -----OK-----


Test: 25
Sector size in bytes: 1536
Data unit:   0
Start block: 0
Symmetric key bit length: 384
Plaintext bit length:     136
Symmetric key:            000000000000000000000000000000000000000000000000000000000000000000000000000000000000000000000000
Plaintext:                0000000040000000000000000000000000
Ciphertext:               f8161d2515bc5d7959c9b1b2e87eb8e64c57efc567b56ae2b79f2457db8c80deba
Reciphers for ciphertext: 0
Decipheredtext:           0000000040000000000000000000000000
RESULT CIPHER-DECIPHER: -----OK-----


Test: 26
Sector size in bytes: 1536
Data unit:   0
Start block: 0
Symmetric key bit length: 384
Plaintext bit length:     136
Symmetric key:            000000000000000000000000000000000000000000000000000000000000000000000000000000000000000000000000
Plaintext:                0000000020000000000000000000000000
Ciphertext:               f8161d2515bc5d7959c9b1b2e87eb8e62c99d25cad76e5f74f78bd3cfce9868f8a
Reciphers for ciphertext: 0
Decipheredtext:           0000000020000000000000000000000000
RESULT CIPHER-DECIPHER: -----OK-----


Test: 27
Sector size in bytes: 1536
Data unit:   0
Start block: 0
Symmetric key bit length: 384
Plaintext bit length:     136
Symmetric key:            000000000000000000000000000000000000000000000000000000000000000000000000000000000000000000000000
Plaintext:                0000000010000000000000000000000000
Ciphertext:               f8161d2515bc5d7959c9b1b2e87eb8e662199eb06a1ac237ed291fbbd3f67144dc
Reciphers for ciphertext: 0
Decipheredtext:           0000000010000000000000000000000000
RESULT CIPHER-DECIPHER: -----OK-----


Test: 28
Sector size in bytes: 1536
Data unit:   0
Start block: 0
Symmetric key bit length: 384
Plaintext bit length:     136
Symmetric key:            000000000000000000000000000000000000000000000000000000000000000000000000000000000000000000000000
Plaintext:                0000000008000000000000000000000000
Ciphertext:               f8161d2515bc5d7959c9b1b2e87eb8e66d03467e14e7d3849db3894339ad2a4461
Reciphers for ciphertext: 0
Decipheredtext:           0000000008000000000000000000000000
RESULT CIPHER-DECIPHER: -----OK-----


Test: 29
Sector size in bytes: 1536
Data unit:   0
Start block: 0
Symmetric key bit length: 384
Plaintext bit length:     136
Symmetric key:            000000000000000000000000000000000000000000000000000000000000000000000000000000000000000000000000
Plaintext:                0000000004000000000000000000000000
Ciphertext:               f8161d2515bc5d7959c9b1b2e87eb8e6a4945fab99f7ab048695c96b75fbc4676d
Reciphers for ciphertext: 0
Decipheredtext:           0000000004000000000000000000000000
RESULT CIPHER-DECIPHER: -----OK-----


Test: 30
Sector size in bytes: 2048
Data unit:   0
Start block: 0
Symmetric key bit length: 384
Plaintext bit length:     136
Symmetric key:            000000000000000000000000000000000000000000000000000000000000000000000000000000000000000000000000
Plaintext:                0000000002000000000000000000000000
Ciphertext:               f8161d2515bc5d7959c9b1b2e87eb8e6fa1c060212fc0f4ad32151bcdec20f61d4
Reciphers for ciphertext: 0
Decipheredtext:           0000000002000000000000000000000000
RESULT CIPHER-DECIPHER: -----OK-----


Test: 31
Sector size in bytes: 2048
Data unit:   0
Start block: 0
Symmetric key bit length: 384
Plaintext bit length:     136
Symmetric key:            000000000000000000000000000000000000000000000000000000000000000000000000000000000000000000000000
Plaintext:                0000000001000000000000000000000000
Ciphertext:               f8161d2515bc5d7959c9b1b2e87eb8e69004d50281efa9b0fc44459e3d5bad02bb
Reciphers for ciphertext: 0
Decipheredtext:           0000000001000000000000000000000000
RESULT CIPHER-DECIPHER: -----OK-----


Test: 32
Sector size in bytes: 2048
Data unit:   0
Start block: 0
Symmetric key bit length: 384
Plaintext bit length:     136
Symmetric key:            000000000000000000000000000000000000000000000000000000000000000000000000000000000000000000000000
Plaintext:                0000000000800000000000000000000000
Ciphertext:               f8161d2515bc5d7959c9b1b2e87eb8e660fcce5434e19f35cd0d6f25a86ec12cd5
Reciphers for ciphertext: 0
Decipheredtext:           0000000000800000000000000000000000
RESULT CIPHER-DECIPHER: -----OK-----


Test: 33
Sector size in bytes: 2048
Data unit:   0
Start block: 0
Symmetric key bit length: 384
Plaintext bit length:     136
Symmetric key:            000000000000000000000000000000000000000000000000000000000000000000000000000000000000000000000000
Plaintext:                0000000000400000000000000000000000
Ciphertext:               f8161d2515bc5d7959c9b1b2e87eb8e6da3bdee0607620eff3c63ed2ee7a37ee70
Reciphers for ciphertext: 0
Decipheredtext:           0000000000400000000000000000000000
RESULT CIPHER-DECIPHER: -----OK-----


Test: 34
Sector size in bytes: 2048
Data unit:   0
Start block: 0
Symmetric key bit length: 384
Plaintext bit length:     136
Symmetric key:            000000000000000000000000000000000000000000000000000000000000000000000000000000000000000000000000
Plaintext:                0000000000200000000000000000000000
Ciphertext:               f8161d2515bc5d7959c9b1b2e87eb8e6b02bce9703ad94c185d199af9a7c541aba
Reciphers for ciphertext: 0
Decipheredtext:           0000000000200000000000000000000000
RESULT CIPHER-DECIPHER: -----OK-----


Test: 35
Sector size in bytes: 2048
Data unit:   0
Start block: 0
Symmetric key bit length: 384
Plaintext bit length:     136
Symmetric key:            000000000000000000000000000000000000000000000000000000000000000000000000000000000000000000000000
Plaintext:                0000000000100000000000000000000000
Ciphertext:               f8161d2515bc5d7959c9b1b2e87eb8e6c2794ff5ecab0852f78756ba40dbba82f0
Reciphers for ciphertext: 0
Decipheredtext:           0000000000100000000000000000000000
RESULT CIPHER-DECIPHER: -----OK-----


Test: 36
Sector size in bytes: 2048
Data unit:   0
Start block: 0
Symmetric key bit length: 384
Plaintext bit length:     136
Symmetric key:            000000000000000000000000000000000000000000000000000000000000000000000000000000000000000000000000
Plaintext:                0000000000080000000000000000000000
Ciphertext:               f8161d2515bc5d7959c9b1b2e87eb8e6c21c3c22c5de2e5bb8efee7f5ecde5c4c4
Reciphers for ciphertext: 0
Decipheredtext:           0000000000080000000000000000000000
RESULT CIPHER-DECIPHER: -----OK-----


Test: 37
Sector size in bytes: 2048
Data unit:   0
Start block: 0
Symmetric key bit length: 384
Plaintext bit length:     136
Symmetric key:            000000000000000000000000000000000000000000000000000000000000000000000000000000000000000000000000
Plaintext:                0000000000040000000000000000000000
Ciphertext:               f8161d2515bc5d7959c9b1b2e87eb8e673e8502c9516d80f8497fd33aab76f2f5c
Reciphers for ciphertext: 0
Decipheredtext:           0000000000040000000000000000000000
RESULT CIPHER-DECIPHER: -----OK-----


Test: 38
Sector size in bytes: 2048
Data unit:   0
Start block: 0
Symmetric key bit length: 384
Plaintext bit length:     136
Symmetric key:            000000000000000000000000000000000000000000000000000000000000000000000000000000000000000000000000
Plaintext:                0000000000020000000000000000000000
Ciphertext:               f8161d2515bc5d7959c9b1b2e87eb8e6b6ceeb285ec3e03c75ea3bf21cad561853
Reciphers for ciphertext: 0
Decipheredtext:           0000000000020000000000000000000000
RESULT CIPHER-DECIPHER: -----OK-----


Test: 39
Sector size in bytes: 2048
Data unit:   0
Start block: 0
Symmetric key bit length: 384
Plaintext bit length:     136
Symmetric key:            000000000000000000000000000000000000000000000000000000000000000000000000000000000000000000000000
Plaintext:                0000000000010000000000000000000000
Ciphertext:               f8161d2515bc5d7959c9b1b2e87eb8e6f9dd429a6fd0647d303e8fbfa34e42b441
Reciphers for ciphertext: 0
Decipheredtext:           0000000000010000000000000000000000
RESULT CIPHER-DECIPHER: -----OK-----


Test: 40
Sector size in bytes: 2560
Data unit:   0
Start block: 0
Symmetric key bit length: 384
Plaintext bit length:     136
Symmetric key:            000000000000000000000000000000000000000000000000000000000000000000000000000000000000000000000000
Plaintext:                0000000000008000000000000000000000
Ciphertext:               f8161d2515bc5d7959c9b1b2e87eb8e6f8c3ea91f2eee4f632cf7816176829714e
Reciphers for ciphertext: 0
Decipheredtext:           0000000000008000000000000000000000
RESULT CIPHER-DECIPHER: -----OK-----


Test: 41
Sector size in bytes: 2560
Data unit:   0
Start block: 0
Symmetric key bit length: 384
Plaintext bit length:     136
Symmetric key:            000000000000000000000000000000000000000000000000000000000000000000000000000000000000000000000000
Plaintext:                0000000000004000000000000000000000
Ciphertext:               f8161d2515bc5d7959c9b1b2e87eb8e6eb8f0fdb6980b4de9edad03d5bf6ccdb8b
Reciphers for ciphertext: 0
Decipheredtext:           0000000000004000000000000000000000
RESULT CIPHER-DECIPHER: -----OK-----


Test: 42
Sector size in bytes: 2560
Data unit:   0
Start block: 0
Symmetric key bit length: 384
Plaintext bit length:     136
Symmetric key:            000000000000000000000000000000000000000000000000000000000000000000000000000000000000000000000000
Plaintext:                0000000000002000000000000000000000
Ciphertext:               f8161d2515bc5d7959c9b1b2e87eb8e62e2f59447488ea38c9296cdff9886af18a
Reciphers for ciphertext: 0
Decipheredtext:           0000000000002000000000000000000000
RESULT CIPHER-DECIPHER: -----OK-----


Test: 43
Sector size in bytes: 2560
Data unit:   0
Start block: 0
Symmetric key bit length: 384
Plaintext bit length:     136
Symmetric key:            000000000000000000000000000000000000000000000000000000000000000000000000000000000000000000000000
Plaintext:                0000000000001000000000000000000000
Ciphertext:               f8161d2515bc5d7959c9b1b2e87eb8e6f414285d8ec98f514d6a476e34c6d93fe7
Reciphers for ciphertext: 0
Decipheredtext:           0000000000001000000000000000000000
RESULT CIPHER-DECIPHER: -----OK-----


Test: 44
Sector size in bytes: 2560
Data unit:   0
Start block: 0
Symmetric key bit length: 384
Plaintext bit length:     136
Symmetric key:            000000000000000000000000000000000000000000000000000000000000000000000000000000000000000000000000
Plaintext:                0000000000000800000000000000000000
Ciphertext:               f8161d2515bc5d7959c9b1b2e87eb8e6101ee4fc6639e2e9c9b2fdf6d16e4e2fbb
Reciphers for ciphertext: 0
Decipheredtext:           0000000000000800000000000000000000
RESULT CIPHER-DECIPHER: -----OK-----


Test: 45
Sector size in bytes: 2560
Data unit:   0
Start block: 0
Symmetric key bit length: 384
Plaintext bit length:     136
Symmetric key:            000000000000000000000000000000000000000000000000000000000000000000000000000000000000000000000000
Plaintext:                0000000000000400000000000000000000
Ciphertext:               f8161d2515bc5d7959c9b1b2e87eb8e6add9b29bb1b9286b22c4b23da794514b36
Reciphers for ciphertext: 0
Decipheredtext:           0000000000000400000000000000000000
RESULT CIPHER-DECIPHER: -----OK-----


Test: 46
Sector size in bytes: 2560
Data unit:   0
Start block: 0
Symmetric key bit length: 384
Plaintext bit length:     136
Symmetric key:            000000000000000000000000000000000000000000000000000000000000000000000000000000000000000000000000
Plaintext:                0000000000000200000000000000000000
Ciphertext:               f8161d2515bc5d7959c9b1b2e87eb8e6d1599494a41e33c3a00ecdda6a40349266
Reciphers for ciphertext: 0
Decipheredtext:           0000000000000200000000000000000000
RESULT CIPHER-DECIPHER: -----OK-----


Test: 47
Sector size in bytes: 2560
Data unit:   0
Start block: 0
Symmetric key bit length: 384
Plaintext bit length:     136
Symmetric key:            000000000000000000000000000000000000000000000000000000000000000000000000000000000000000000000000
Plaintext:                0000000000000100000000000000000000
Ciphertext:               f8161d2515bc5d7959c9b1b2e87eb8e68be7c421a4ed15164298811fa7eaf83143
Reciphers for ciphertext: 0
Decipheredtext:           0000000000000100000000000000000000
RESULT CIPHER-DECIPHER: -----OK-----


Test: 48
Sector size in bytes: 2560
Data unit:   0
Start block: 0
Symmetric key bit length: 384
Plaintext bit length:     136
Symmetric key:            000000000000000000000000000000000000000000000000000000000000000000000000000000000000000000000000
Plaintext:                0000000000000080000000000000000000
Ciphertext:               f8161d2515bc5d7959c9b1b2e87eb8e60fa832452ae0d686a2ca6f00638a132f47
Reciphers for ciphertext: 0
Decipheredtext:           0000000000000080000000000000000000
RESULT CIPHER-DECIPHER: -----OK-----


Test: 49
Sector size in bytes: 2560
Data unit:   0
Start block: 0
Symmetric key bit length: 384
Plaintext bit length:     136
Symmetric key:            000000000000000000000000000000000000000000000000000000000000000000000000000000000000000000000000
Plaintext:                0000000000000040000000000000000000
Ciphertext:               f8161d2515bc5d7959c9b1b2e87eb8e6ce575e99bf86ebef45d51f10f8a7635291
Reciphers for ciphertext: 0
Decipheredtext:           0000000000000040000000000000000000
RESULT CIPHER-DECIPHER: -----OK-----


Test: 50
Sector size in bytes: 3072
Data unit:   0
Start block: 0
Symmetric key bit length: 384
Plaintext bit length:     136
Symmetric key:            000000000000000000000000000000000000000000000000000000000000000000000000000000000000000000000000
Plaintext:                0000000000000020000000000000000000
Ciphertext:               f8161d2515bc5d7959c9b1b2e87eb8e6f53875863c877b1283d2e337b5e40fc4fe
Reciphers for ciphertext: 0
Decipheredtext:           0000000000000020000000000000000000
RESULT CIPHER-DECIPHER: -----OK-----


Test: 51
Sector size in bytes: 3072
Data unit:   0
Start block: 0
Symmetric key bit length: 384
Plaintext bit length:     136
Symmetric key:            000000000000000000000000000000000000000000000000000000000000000000000000000000000000000000000000
Plaintext:                0000000000000010000000000000000000
Ciphertext:               f8161d2515bc5d7959c9b1b2e87eb8e69600205360b60f8fb09d5927fda4d2c791
Reciphers for ciphertext: 0
Decipheredtext:           0000000000000010000000000000000000
RESULT CIPHER-DECIPHER: -----OK-----


Test: 52
Sector size in bytes: 3072
Data unit:   0
Start block: 0
Symmetric key bit length: 384
Plaintext bit length:     136
Symmetric key:            000000000000000000000000000000000000000000000000000000000000000000000000000000000000000000000000
Plaintext:                0000000000000008000000000000000000
Ciphertext:               f8161d2515bc5d7959c9b1b2e87eb8e621550ce5741af0b237a834f50d4b72634f
Reciphers for ciphertext: 0
Decipheredtext:           0000000000000008000000000000000000
RESULT CIPHER-DECIPHER: -----OK-----


Test: 53
Sector size in bytes: 3072
Data unit:   0
Start block: 0
Symmetric key bit length: 384
Plaintext bit length:     136
Symmetric key:            000000000000000000000000000000000000000000000000000000000000000000000000000000000000000000000000
Plaintext:                0000000000000004000000000000000000
Ciphertext:               f8161d2515bc5d7959c9b1b2e87eb8e62c121e832ea58222be87f36f90c6b1395d
Reciphers for ciphertext: 0
Decipheredtext:           0000000000000004000000000000000000
RESULT CIPHER-DECIPHER: -----OK-----


Test: 54
Sector size in bytes: 3072
Data unit:   0
Start block: 0
Symmetric key bit length: 384
Plaintext bit length:     136
Symmetric key:            000000000000000000000000000000000000000000000000000000000000000000000000000000000000000000000000
Plaintext:                0000000000000002000000000000000000
Ciphertext:               f8161d2515bc5d7959c9b1b2e87eb8e66dd6f5d7dec69e05d98799ebcdf740d931
Reciphers for ciphertext: 0
Decipheredtext:           0000000000000002000000000000000000
RESULT CIPHER-DECIPHER: -----OK-----


Test: 55
Sector size in bytes: 3072
Data unit:   0
Start block: 0
Symmetric key bit length: 384
Plaintext bit length:     136
Symmetric key:            000000000000000000000000000000000000000000000000000000000000000000000000000000000000000000000000
Plaintext:                0000000000000001000000000000000000
Ciphertext:               f8161d2515bc5d7959c9b1b2e87eb8e60b53bc15c67e23f434afa69cd9a9f97a84
Reciphers for ciphertext: 0
Decipheredtext:           0000000000000001000000000000000000
RESULT CIPHER-DECIPHER: -----OK-----


Test: 56
Sector size in bytes: 3072
Data unit:   0
Start block: 0
Symmetric key bit length: 384
Plaintext bit length:     136
Symmetric key:            000000000000000000000000000000000000000000000000000000000000000000000000000000000000000000000000
Plaintext:                0000000000000000800000000000000000
Ciphertext:               f8161d2515bc5d7959c9b1b2e87eb8e6a247e3ecd11146c024398b1d431f0c8aac
Reciphers for ciphertext: 0
Decipheredtext:           0000000000000000800000000000000000
RESULT CIPHER-DECIPHER: -----OK-----


Test: 57
Sector size in bytes: 3072
Data unit:   0
Start block: 0
Symmetric key bit length: 384
Plaintext bit length:     136
Symmetric key:            000000000000000000000000000000000000000000000000000000000000000000000000000000000000000000000000
Plaintext:                0000000000000000400000000000000000
Ciphertext:               f8161d2515bc5d7959c9b1b2e87eb8e66d8b433de0a5606e80b94bfae62e9f19cb
Reciphers for ciphertext: 0
Decipheredtext:           0000000000000000400000000000000000
RESULT CIPHER-DECIPHER: -----OK-----


Test: 58
Sector size in bytes: 3072
Data unit:   0
Start block: 0
Symmetric key bit length: 384
Plaintext bit length:     136
Symmetric key:            000000000000000000000000000000000000000000000000000000000000000000000000000000000000000000000000
Plaintext:                0000000000000000200000000000000000
Ciphertext:               f8161d2515bc5d7959c9b1b2e87eb8e6fa3a601ab8cbe8ce2fa62130aa60c53fd5
Reciphers for ciphertext: 0
Decipheredtext:           0000000000000000200000000000000000
RESULT CIPHER-DECIPHER: -----OK-----


Test: 59
Sector size in bytes: 3072
Data unit:   0
Start block: 0
Symmetric key bit length: 384
Plaintext bit length:     136
Symmetric key:            000000000000000000000000000000000000000000000000000000000000000000000000000000000000000000000000
Plaintext:                0000000000000000100000000000000000
Ciphertext:               f8161d2515bc5d7959c9b1b2e87eb8e6a9312a3dc429868010ff1c00e922086b24
Reciphers for ciphertext: 0
Decipheredtext:           0000000000000000100000000000000000
RESULT CIPHER-DECIPHER: -----OK-----


Test: 60
Sector size in bytes: 3584
Data unit:   0
Start block: 0
Symmetric key bit length: 384
Plaintext bit length:     136
Symmetric key:            000000000000000000000000000000000000000000000000000000000000000000000000000000000000000000000000
Plaintext:                0000000000000000080000000000000000
Ciphertext:               f8161d2515bc5d7959c9b1b2e87eb8e6f20da6f9ea5530ca7612769a25f527708d
Reciphers for ciphertext: 0
Decipheredtext:           0000000000000000080000000000000000
RESULT CIPHER-DECIPHER: -----OK-----


Test: 61
Sector size in bytes: 3584
Data unit:   0
Start block: 0
Symmetric key bit length: 384
Plaintext bit length:     136
Symmetric key:            000000000000000000000000000000000000000000000000000000000000000000000000000000000000000000000000
Plaintext:                0000000000000000040000000000000000
Ciphertext:               f8161d2515bc5d7959c9b1b2e87eb8e63ec4475e3d5ecf222b4f8235fdfe12e7cf
Reciphers for ciphertext: 0
Decipheredtext:           0000000000000000040000000000000000
RESULT CIPHER-DECIPHER: -----OK-----


Test: 62
Sector size in bytes: 3584
Data unit:   0
Start block: 0
Symmetric key bit length: 384
Plaintext bit length:     136
Symmetric key:            000000000000000000000000000000000000000000000000000000000000000000000000000000000000000000000000
Plaintext:                0000000000000000020000000000000000
Ciphertext:               f8161d2515bc5d7959c9b1b2e87eb8e61cb0d12e20523613ed643d7d2b08068115
Reciphers for ciphertext: 0
Decipheredtext:           0000000000000000020000000000000000
RESULT CIPHER-DECIPHER: -----OK-----


Test: 63
Sector size in bytes: 3584
Data unit:   0
Start block: 0
Symmetric key bit length: 384
Plaintext bit length:     136
Symmetric key:            000000000000000000000000000000000000000000000000000000000000000000000000000000000000000000000000
Plaintext:                0000000000000000010000000000000000
Ciphertext:               f8161d2515bc5d7959c9b1b2e87eb8e6c80fe1ba9234979989724958104a867e82
Reciphers for ciphertext: 0
Decipheredtext:           0000000000000000010000000000000000
RESULT CIPHER-DECIPHER: -----OK-----


Test: 64
Sector size in bytes: 3584
Data unit:   0
Start block: 0
Symmetric key bit length: 384
Plaintext bit length:     136
Symmetric key:            000000000000000000000000000000000000000000000000000000000000000000000000000000000000000000000000
Plaintext:                0000000000000000008000000000000000
Ciphertext:               f8161d2515bc5d7959c9b1b2e87eb8e67c851a35b0cda988d80208d958a76f32fa
Reciphers for ciphertext: 0
Decipheredtext:           0000000000000000008000000000000000
RESULT CIPHER-DECIPHER: -----OK-----


Test: 65
Sector size in bytes: 3584
Data unit:   0
Start block: 0
Symmetric key bit length: 384
Plaintext bit length:     136
Symmetric key:            000000000000000000000000000000000000000000000000000000000000000000000000000000000000000000000000
Plaintext:                0000000000000000004000000000000000
Ciphertext:               f8161d2515bc5d7959c9b1b2e87eb8e6aa075c1cd9eb3aee7139a51570ae743c5a
Reciphers for ciphertext: 0
Decipheredtext:           0000000000000000004000000000000000
RESULT CIPHER-DECIPHER: -----OK-----


Test: 66
Sector size in bytes: 3584
Data unit:   0
Start block: 0
Symmetric key bit length: 384
Plaintext bit length:     136
Symmetric key:            000000000000000000000000000000000000000000000000000000000000000000000000000000000000000000000000
Plaintext:                0000000000000000002000000000000000
Ciphertext:               f8161d2515bc5d7959c9b1b2e87eb8e6b106cd6cb07fc71462fedf369fc036e38b
Reciphers for ciphertext: 0
Decipheredtext:           0000000000000000002000000000000000
RESULT CIPHER-DECIPHER: -----OK-----


Test: 67
Sector size in bytes: 3584
Data unit:   0
Start block: 0
Symmetric key bit length: 384
Plaintext bit length:     136
Symmetric key:            000000000000000000000000000000000000000000000000000000000000000000000000000000000000000000000000
Plaintext:                0000000000000000001000000000000000
Ciphertext:               f8161d2515bc5d7959c9b1b2e87eb8e68e9541e28ccb1534d7a925cb9f6fd000d5
Reciphers for ciphertext: 0
Decipheredtext:           0000000000000000001000000000000000
RESULT CIPHER-DECIPHER: -----OK-----


Test: 68
Sector size in bytes: 3584
Data unit:   0
Start block: 0
Symmetric key bit length: 384
Plaintext bit length:     136
Symmetric key:            000000000000000000000000000000000000000000000000000000000000000000000000000000000000000000000000
Plaintext:                0000000000000000000800000000000000
Ciphertext:               f8161d2515bc5d7959c9b1b2e87eb8e6833d78f6a66643547efc9c65dd455b65d5
Reciphers for ciphertext: 0
Decipheredtext:           0000000000000000000800000000000000
RESULT CIPHER-DECIPHER: -----OK-----


Test: 69
Sector size in bytes: 3584
Data unit:   0
Start block: 0
Symmetric key bit length: 384
Plaintext bit length:     136
Symmetric key:            000000000000000000000000000000000000000000000000000000000000000000000000000000000000000000000000
Plaintext:                0000000000000000000400000000000000
Ciphertext:               f8161d2515bc5d7959c9b1b2e87eb8e667353a681423b689e26638b017cb4b4ac3
Reciphers for ciphertext: 0
Decipheredtext:           0000000000000000000400000000000000
RESULT CIPHER-DECIPHER: -----OK-----


Test: 70
Sector size in bytes: 4096
Data unit:   0
Start block: 0
Symmetric key bit length: 384
Plaintext bit length:     136
Symmetric key:            000000000000000000000000000000000000000000000000000000000000000000000000000000000000000000000000
Plaintext:                0000000000000000000200000000000000
Ciphertext:               f8161d2515bc5d7959c9b1b2e87eb8e61b53b4bf3e079b46da2273d7d6c2fd3907
Reciphers for ciphertext: 0
Decipheredtext:           0000000000000000000200000000000000
RESULT CIPHER-DECIPHER: -----OK-----


Test: 71
Sector size in bytes: 4096
Data unit:   0
Start block: 0
Symmetric key bit length: 384
Plaintext bit length:     136
Symmetric key:            000000000000000000000000000000000000000000000000000000000000000000000000000000000000000000000000
Plaintext:                0000000000000000000100000000000000
Ciphertext:               f8161d2515bc5d7959c9b1b2e87eb8e66f00d4b9596fed10cc228e9c33cda5eb6b
Reciphers for ciphertext: 0
Decipheredtext:           0000000000000000000100000000000000
RESULT CIPHER-DECIPHER: -----OK-----


Test: 72
Sector size in bytes: 4096
Data unit:   0
Start block: 0
Symmetric key bit length: 384
Plaintext bit length:     136
Symmetric key:            000000000000000000000000000000000000000000000000000000000000000000000000000000000000000000000000
Plaintext:                0000000000000000000080000000000000
Ciphertext:               f8161d2515bc5d7959c9b1b2e87eb8e6bc74304d56fdefc2f9609d1c8c53dcf882
Reciphers for ciphertext: 0
Decipheredtext:           0000000000000000000080000000000000
RESULT CIPHER-DECIPHER: -----OK-----


Test: 73
Sector size in bytes: 4096
Data unit:   0
Start block: 0
Symmetric key bit length: 384
Plaintext bit length:     136
Symmetric key:            000000000000000000000000000000000000000000000000000000000000000000000000000000000000000000000000
Plaintext:                0000000000000000000040000000000000
Ciphertext:               f8161d2515bc5d7959c9b1b2e87eb8e6a19fcf9425fc78df25acfef1470ef0a61b
Reciphers for ciphertext: 0
Decipheredtext:           0000000000000000000040000000000000
RESULT CIPHER-DECIPHER: -----OK-----


Test: 74
Sector size in bytes: 4096
Data unit:   0
Start block: 0
Symmetric key bit length: 384
Plaintext bit length:     136
Symmetric key:            000000000000000000000000000000000000000000000000000000000000000000000000000000000000000000000000
Plaintext:                0000000000000000000020000000000000
Ciphertext:               f8161d2515bc5d7959c9b1b2e87eb8e61ae843710c9c3e9ac98a495cf4fa1d8749
Reciphers for ciphertext: 0
Decipheredtext:           0000000000000000000020000000000000
RESULT CIPHER-DECIPHER: -----OK-----


Test: 75
Sector size in bytes: 4096
Data unit:   0
Start block: 0
Symmetric key bit length: 384
Plaintext bit length:     136
Symmetric key:            000000000000000000000000000000000000000000000000000000000000000000000000000000000000000000000000
Plaintext:                0000000000000000000010000000000000
Ciphertext:               f8161d2515bc5d7959c9b1b2e87eb8e6d184a2c8a62f022294b326d0df51195de9
Reciphers for ciphertext: 0
Decipheredtext:           0000000000000000000010000000000000
RESULT CIPHER-DECIPHER: -----OK-----


Test: 76
Sector size in bytes: 4096
Data unit:   0
Start block: 0
Symmetric key bit length: 384
Plaintext bit length:     136
Symmetric key:            000000000000000000000000000000000000000000000000000000000000000000000000000000000000000000000000
Plaintext:                0000000000000000000008000000000000
Ciphertext:               f8161d2515bc5d7959c9b1b2e87eb8e643ca9862ec81e7e4226fa568d50ead9958
Reciphers for ciphertext: 0
Decipheredtext:           0000000000000000000008000000000000
RESULT CIPHER-DECIPHER: -----OK-----


Test: 77
Sector size in bytes: 4096
Data unit:   0
Start block: 0
Symmetric key bit length: 384
Plaintext bit length:     136
Symmetric key:            000000000000000000000000000000000000000000000000000000000000000000000000000000000000000000000000
Plaintext:                0000000000000000000004000000000000
Ciphertext:               f8161d2515bc5d7959c9b1b2e87eb8e669f8db428bd82638718e3598af1f8ad29a
Reciphers for ciphertext: 0
Decipheredtext:           0000000000000000000004000000000000
RESULT CIPHER-DECIPHER: -----OK-----


Test: 78
Sector size in bytes: 4096
Data unit:   0
Start block: 0
Symmetric key bit length: 384
Plaintext bit length:     136
Symmetric key:            000000000000000000000000000000000000000000000000000000000000000000000000000000000000000000000000
Plaintext:                0000000000000000000002000000000000
Ciphertext:               f8161d2515bc5d7959c9b1b2e87eb8e6b4ff2245c80fcc43f6889965267e76a548
Reciphers for ciphertext: 0
Decipheredtext:           0000000000000000000002000000000000
RESULT CIPHER-DECIPHER: -----OK-----


Test: 79
Sector size in bytes: 4096
Data unit:   0
Start block: 0
Symmetric key bit length: 384
Plaintext bit length:     136
Symmetric key:            000000000000000000000000000000000000000000000000000000000000000000000000000000000000000000000000
Plaintext:                0000000000000000000001000000000000
Ciphertext:               f8161d2515bc5d7959c9b1b2e87eb8e61d0c14123d3e10325abb8b4b5364f63ada
Reciphers for ciphertext: 0
Decipheredtext:           0000000000000000000001000000000000
RESULT CIPHER-DECIPHER: -----OK-----


Test: 80
Sector size in bytes: 8192
Data unit:   0
Start block: 0
Symmetric key bit length: 384
Plaintext bit length:     136
Symmetric key:            000000000000000000000000000000000000000000000000000000000000000000000000000000000000000000000000
Plaintext:                0000000000000000000000800000000000
Ciphertext:               f8161d2515bc5d7959c9b1b2e87eb8e6dfa19d304813b10039ad379d57a9ddaee5
Reciphers for ciphertext: 0
Decipheredtext:           0000000000000000000000800000000000
RESULT CIPHER-DECIPHER: -----OK-----


Test: 81
Sector size in bytes: 8192
Data unit:   0
Start block: 0
Symmetric key bit length: 384
Plaintext bit length:     136
Symmetric key:            000000000000000000000000000000000000000000000000000000000000000000000000000000000000000000000000
Plaintext:                0000000000000000000000400000000000
Ciphertext:               f8161d2515bc5d7959c9b1b2e87eb8e63582bc2623f9ecea77f454f8fe6f3d2fc3
Reciphers for ciphertext: 0
Decipheredtext:           0000000000000000000000400000000000
RESULT CIPHER-DECIPHER: -----OK-----


Test: 82
Sector size in bytes: 8192
Data unit:   0
Start block: 0
Symmetric key bit length: 384
Plaintext bit length:     136
Symmetric key:            000000000000000000000000000000000000000000000000000000000000000000000000000000000000000000000000
Plaintext:                0000000000000000000000200000000000
Ciphertext:               f8161d2515bc5d7959c9b1b2e87eb8e6b64403697b25750ef6e01bceb962adc4d5
Reciphers for ciphertext: 0
Decipheredtext:           0000000000000000000000200000000000
RESULT CIPHER-DECIPHER: -----OK-----


Test: 83
Sector size in bytes: 8192
Data unit:   0
Start block: 0
Symmetric key bit length: 384
Plaintext bit length:     136
Symmetric key:            000000000000000000000000000000000000000000000000000000000000000000000000000000000000000000000000
Plaintext:                0000000000000000000000100000000000
Ciphertext:               f8161d2515bc5d7959c9b1b2e87eb8e69686ea53959d8998d04cba92a0ccf6aec2
Reciphers for ciphertext: 0
Decipheredtext:           0000000000000000000000100000000000
RESULT CIPHER-DECIPHER: -----OK-----


Test: 84
Sector size in bytes: 8192
Data unit:   0
Start block: 0
Symmetric key bit length: 384
Plaintext bit length:     136
Symmetric key:            000000000000000000000000000000000000000000000000000000000000000000000000000000000000000000000000
Plaintext:                0000000000000000000000080000000000
Ciphertext:               f8161d2515bc5d7959c9b1b2e87eb8e69d13b193b87d777a73c0154df23cabfa23
Reciphers for ciphertext: 0
Decipheredtext:           0000000000000000000000080000000000
RESULT CIPHER-DECIPHER: -----OK-----


Test: 85
Sector size in bytes: 8192
Data unit:   0
Start block: 0
Symmetric key bit length: 384
Plaintext bit length:     136
Symmetric key:            000000000000000000000000000000000000000000000000000000000000000000000000000000000000000000000000
Plaintext:                0000000000000000000000040000000000
Ciphertext:               f8161d2515bc5d7959c9b1b2e87eb8e6fba182c546aa2cecf0c94c643d1f27d4e3
Reciphers for ciphertext: 0
Decipheredtext:           0000000000000000000000040000000000
RESULT CIPHER-DECIPHER: -----OK-----


Test: 86
Sector size in bytes: 8192
Data unit:   0
Start block: 0
Symmetric key bit length: 384
Plaintext bit length:     136
Symmetric key:            000000000000000000000000000000000000000000000000000000000000000000000000000000000000000000000000
Plaintext:                0000000000000000000000020000000000
Ciphertext:               f8161d2515bc5d7959c9b1b2e87eb8e664baf614024cff5376f3165654384b1e81
Reciphers for ciphertext: 0
Decipheredtext:           0000000000000000000000020000000000
RESULT CIPHER-DECIPHER: -----OK-----


Test: 87
Sector size in bytes: 8192
Data unit:   0
Start block: 0
Symmetric key bit length: 384
Plaintext bit length:     136
Symmetric key:            000000000000000000000000000000000000000000000000000000000000000000000000000000000000000000000000
Plaintext:                0000000000000000000000010000000000
Ciphertext:               f8161d2515bc5d7959c9b1b2e87eb8e6ad82d3eeb880a6e88ebcc789cddea0135b
Reciphers for ciphertext: 0
Decipheredtext:           0000000000000000000000010000000000
RESULT CIPHER-DECIPHER: -----OK-----


Test: 88
Sector size in bytes: 8192
Data unit:   0
Start block: 0
Symmetric key bit length: 384
Plaintext bit length:     136
Symmetric key:            000000000000000000000000000000000000000000000000000000000000000000000000000000000000000000000000
Plaintext:                0000000000000000000000008000000000
Ciphertext:               f8161d2515bc5d7959c9b1b2e87eb8e6a41def209b25d9c0c991f80efccab062d3
Reciphers for ciphertext: 0
Decipheredtext:           0000000000000000000000008000000000
RESULT CIPHER-DECIPHER: -----OK-----


Test: 89
Sector size in bytes: 8192
Data unit:   0
Start block: 0
Symmetric key bit length: 384
Plaintext bit length:     136
Symmetric key:            000000000000000000000000000000000000000000000000000000000000000000000000000000000000000000000000
Plaintext:                0000000000000000000000004000000000
Ciphertext:               f8161d2515bc5d7959c9b1b2e87eb8e639ecba22190ad440b243b0bf2158f735f9
Reciphers for ciphertext: 0
Decipheredtext:           0000000000000000000000004000000000
RESULT CIPHER-DECIPHER: -----OK-----


Test: 90
Sector size in bytes: 12288
Data unit:   0
Start block: 0
Symmetric key bit length: 384
Plaintext bit length:     136
Symmetric key:            000000000000000000000000000000000000000000000000000000000000000000000000000000000000000000000000
Plaintext:                0000000000000000000000002000000000
Ciphertext:               f8161d2515bc5d7959c9b1b2e87eb8e67c08988be3a24a978d9df5500decbb21c6
Reciphers for ciphertext: 0
Decipheredtext:           0000000000000000000000002000000000
RESULT CIPHER-DECIPHER: -----OK-----


Test: 91
Sector size in bytes: 12288
Data unit:   0
Start block: 0
Symmetric key bit length: 384
Plaintext bit length:     136
Symmetric key:            000000000000000000000000000000000000000000000000000000000000000000000000000000000000000000000000
Plaintext:                0000000000000000000000001000000000
Ciphertext:               f8161d2515bc5d7959c9b1b2e87eb8e6c183b2277309f9c7072e2a771f82355ef2
Reciphers for ciphertext: 0
Decipheredtext:           0000000000000000000000001000000000
RESULT CIPHER-DECIPHER: -----OK-----


Test: 92
Sector size in bytes: 12288
Data unit:   0
Start block: 0
Symmetric key bit length: 384
Plaintext bit length:     136
Symmetric key:            000000000000000000000000000000000000000000000000000000000000000000000000000000000000000000000000
Plaintext:                0000000000000000000000000800000000
Ciphertext:               f8161d2515bc5d7959c9b1b2e87eb8e69550f90abee4b918c4b7b941b50d4d40f1
Reciphers for ciphertext: 0
Decipheredtext:           0000000000000000000000000800000000
RESULT CIPHER-DECIPHER: -----OK-----


Test: 93
Sector size in bytes: 12288
Data unit:   0
Start block: 0
Symmetric key bit length: 384
Plaintext bit length:     136
Symmetric key:            000000000000000000000000000000000000000000000000000000000000000000000000000000000000000000000000
Plaintext:                0000000000000000000000000400000000
Ciphertext:               f8161d2515bc5d7959c9b1b2e87eb8e6d3cc2abbaf3aa84b5862a69e6878790bfa
Reciphers for ciphertext: 0
Decipheredtext:           0000000000000000000000000400000000
RESULT CIPHER-DECIPHER: -----OK-----


Test: 94
Sector size in bytes: 12288
Data unit:   0
Start block: 0
Symmetric key bit length: 384
Plaintext bit length:     136
Symmetric key:            000000000000000000000000000000000000000000000000000000000000000000000000000000000000000000000000
Plaintext:                0000000000000000000000000200000000
Ciphertext:               f8161d2515bc5d7959c9b1b2e87eb8e68ef59a276981d154f994284b84c030229e
Reciphers for ciphertext: 0
Decipheredtext:           0000000000000000000000000200000000
RESULT CIPHER-DECIPHER: -----OK-----


Test: 95
Sector size in bytes: 12288
Data unit:   0
Start block: 0
Symmetric key bit length: 384
Plaintext bit length:     136
Symmetric key:            000000000000000000000000000000000000000000000000000000000000000000000000000000000000000000000000
Plaintext:                0000000000000000000000000100000000
Ciphertext:               f8161d2515bc5d7959c9b1b2e87eb8e6a8e0e9a7dd69651bb93a3ae6f04a8bf702
Reciphers for ciphertext: 0
Decipheredtext:           0000000000000000000000000100000000
RESULT CIPHER-DECIPHER: -----OK-----


Test: 96
Sector size in bytes: 12288
Data unit:   0
Start block: 0
Symmetric key bit length: 384
Plaintext bit length:     136
Symmetric key:            000000000000000000000000000000000000000000000000000000000000000000000000000000000000000000000000
Plaintext:                0000000000000000000000000080000000
Ciphertext:               f8161d2515bc5d7959c9b1b2e87eb8e6c6373698ef6bf5d8bd5485107b7ef60be0
Reciphers for ciphertext: 0
Decipheredtext:           0000000000000000000000000080000000
RESULT CIPHER-DECIPHER: -----OK-----


Test: 97
Sector size in bytes: 12288
Data unit:   0
Start block: 0
Symmetric key bit length: 384
Plaintext bit length:     136
Symmetric key:            000000000000000000000000000000000000000000000000000000000000000000000000000000000000000000000000
Plaintext:                0000000000000000000000000040000000
Ciphertext:               f8161d2515bc5d7959c9b1b2e87eb8e679aa3626cc881487b2ba8c5ddb51acd2f8
Reciphers for ciphertext: 0
Decipheredtext:           0000000000000000000000000040000000
RESULT CIPHER-DECIPHER: -----OK-----


Test: 98
Sector size in bytes: 12288
Data unit:   0
Start block: 0
Symmetric key bit length: 384
Plaintext bit length:     136
Symmetric key:            000000000000000000000000000000000000000000000000000000000000000000000000000000000000000000000000
Plaintext:                0000000000000000000000000020000000
Ciphertext:               f8161d2515bc5d7959c9b1b2e87eb8e67d6575c1e601e3723e1219d48592a0e1d9
Reciphers for ciphertext: 0
Decipheredtext:           0000000000000000000000000020000000
RESULT CIPHER-DECIPHER: -----OK-----


Test: 99
Sector size in bytes: 12288
Data unit:   0
Start block: 0
Symmetric key bit length: 384
Plaintext bit length:     136
Symmetric key:            000000000000000000000000000000000000000000000000000000000000000000000000000000000000000000000000
Plaintext:                0000000000000000000000000010000000
Ciphertext:               f8161d2515bc5d7959c9b1b2e87eb8e615044b9e18ac340395878ee0051528c2f8
Reciphers for ciphertext: 0
Decipheredtext:           0000000000000000000000000010000000
RESULT CIPHER-DECIPHER: -----OK-----


Test: 100
Sector size in bytes: 16384
Data unit:   0
Start block: 0
Symmetric key bit length: 384
Plaintext bit length:     136
Symmetric key:            000000000000000000000000000000000000000000000000000000000000000000000000000000000000000000000000
Plaintext:                0000000000000000000000000008000000
Ciphertext:               f8161d2515bc5d7959c9b1b2e87eb8e632739f86c9a10a918c516497e8f5e21b3f
Reciphers for ciphertext: 0
Decipheredtext:           0000000000000000000000000008000000
RESULT CIPHER-DECIPHER: -----OK-----


Test: 101
Sector size in bytes: 16384
Data unit:   0
Start block: 0
Symmetric key bit length: 384
Plaintext bit length:     136
Symmetric key:            000000000000000000000000000000000000000000000000000000000000000000000000000000000000000000000000
Plaintext:                0000000000000000000000000004000000
Ciphertext:               f8161d2515bc5d7959c9b1b2e87eb8e6f980da19a631df973d12380149fa346833
Reciphers for ciphertext: 0
Decipheredtext:           0000000000000000000000000004000000
RESULT CIPHER-DECIPHER: -----OK-----


Test: 102
Sector size in bytes: 16384
Data unit:   0
Start block: 0
Symmetric key bit length: 384
Plaintext bit length:     136
Symmetric key:            000000000000000000000000000000000000000000000000000000000000000000000000000000000000000000000000
Plaintext:                0000000000000000000000000002000000
Ciphertext:               f8161d2515bc5d7959c9b1b2e87eb8e68312244e6289cc07a89b19c92aa1c26a42
Reciphers for ciphertext: 0
Decipheredtext:           0000000000000000000000000002000000
RESULT CIPHER-DECIPHER: -----OK-----


Test: 103
Sector size in bytes: 16384
Data unit:   0
Start block: 0
Symmetric key bit length: 384
Plaintext bit length:     136
Symmetric key:            000000000000000000000000000000000000000000000000000000000000000000000000000000000000000000000000
Plaintext:                0000000000000000000000000001000000
Ciphertext:               f8161d2515bc5d7959c9b1b2e87eb8e6ad4824898a44be25b4fb8f329ae3214a23
Reciphers for ciphertext: 0
Decipheredtext:           0000000000000000000000000001000000
RESULT CIPHER-DECIPHER: -----OK-----


Test: 104
Sector size in bytes: 16384
Data unit:   0
Start block: 0
Symmetric key bit length: 384
Plaintext bit length:     136
Symmetric key:            000000000000000000000000000000000000000000000000000000000000000000000000000000000000000000000000
Plaintext:                0000000000000000000000000000800000
Ciphertext:               f8161d2515bc5d7959c9b1b2e87eb8e62ed5477722d96a6fabebb2cf9cdab442c9
Reciphers for ciphertext: 0
Decipheredtext:           0000000000000000000000000000800000
RESULT CIPHER-DECIPHER: -----OK-----


Test: 105
Sector size in bytes: 16384
Data unit:   0
Start block: 0
Symmetric key bit length: 384
Plaintext bit length:     136
Symmetric key:            000000000000000000000000000000000000000000000000000000000000000000000000000000000000000000000000
Plaintext:                0000000000000000000000000000400000
Ciphertext:               f8161d2515bc5d7959c9b1b2e87eb8e6cb52eef4baa130e4420628232a1f0c9f98
Reciphers for ciphertext: 0
Decipheredtext:           0000000000000000000000000000400000
RESULT CIPHER-DECIPHER: -----OK-----


Test: 106
Sector size in bytes: 16384
Data unit:   0
Start block: 0
Symmetric key bit length: 384
Plaintext bit length:     136
Symmetric key:            000000000000000000000000000000000000000000000000000000000000000000000000000000000000000000000000
Plaintext:                0000000000000000000000000000200000
Ciphertext:               f8161d2515bc5d7959c9b1b2e87eb8e6752a4f880bffbc9335ef55afdeb2c1a0fa
Reciphers for ciphertext: 0
Decipheredtext:           0000000000000000000000000000200000
RESULT CIPHER-DECIPHER: -----OK-----


Test: 107
Sector size in bytes: 16384
Data unit:   0
Start block: 0
Symmetric key bit length: 384
Plaintext bit length:     136
Symmetric key:            000000000000000000000000000000000000000000000000000000000000000000000000000000000000000000000000
Plaintext:                0000000000000000000000000000100000
Ciphertext:               f8161d2515bc5d7959c9b1b2e87eb8e61d605fbfae8cd532d586d5763a1194320d
Reciphers for ciphertext: 0
Decipheredtext:           0000000000000000000000000000100000
RESULT CIPHER-DECIPHER: -----OK-----


Test: 108
Sector size in bytes: 16384
Data unit:   0
Start block: 0
Symmetric key bit length: 384
Plaintext bit length:     136
Symmetric key:            000000000000000000000000000000000000000000000000000000000000000000000000000000000000000000000000
Plaintext:                0000000000000000000000000000080000
Ciphertext:               f8161d2515bc5d7959c9b1b2e87eb8e668b846fff0c31a80de84e0ea8e182a40d6
Reciphers for ciphertext: 0
Decipheredtext:           0000000000000000000000000000080000
RESULT CIPHER-DECIPHER: -----OK-----


Test: 109
Sector size in bytes: 16384
Data unit:   0
Start block: 0
Symmetric key bit length: 384
Plaintext bit length:     136
Symmetric key:            000000000000000000000000000000000000000000000000000000000000000000000000000000000000000000000000
Plaintext:                0000000000000000000000000000040000
Ciphertext:               f8161d2515bc5d7959c9b1b2e87eb8e6fb5e2093098f724872cccaca66bc4e0257
Reciphers for ciphertext: 0
Decipheredtext:           0000000000000000000000000000040000
RESULT CIPHER-DECIPHER: -----OK-----


Test: 110
Sector size in bytes: 24576
Data unit:   0
Start block: 0
Symmetric key bit length: 384
Plaintext bit length:     136
Symmetric key:            000000000000000000000000000000000000000000000000000000000000000000000000000000000000000000000000
Plaintext:                0000000000000000000000000000020000
Ciphertext:               f8161d2515bc5d7959c9b1b2e87eb8e6ca01da723b6afce7c8cd6f68421ea128d4
Reciphers for ciphertext: 0
Decipheredtext:           0000000000000000000000000000020000
RESULT CIPHER-DECIPHER: -----OK-----


Test: 111
Sector size in bytes: 24576
Data unit:   0
Start block: 0
Symmetric key bit length: 384
Plaintext bit length:     136
Symmetric key:            000000000000000000000000000000000000000000000000000000000000000000000000000000000000000000000000
Plaintext:                0000000000000000000000000000010000
Ciphertext:               f8161d2515bc5d7959c9b1b2e87eb8e6d05c23ed2fc6195c93d2187913d929f984
Reciphers for ciphertext: 0
Decipheredtext:           0000000000000000000000000000010000
RESULT CIPHER-DECIPHER: -----OK-----


Test: 112
Sector size in bytes: 24576
Data unit:   0
Start block: 0
Symmetric key bit length: 384
Plaintext bit length:     136
Symmetric key:            000000000000000000000000000000000000000000000000000000000000000000000000000000000000000000000000
Plaintext:                0000000000000000000000000000008000
Ciphertext:               f8161d2515bc5d7959c9b1b2e87eb8e6519355d381efc16779698f41b611d68ea1
Reciphers for ciphertext: 0
Decipheredtext:           0000000000000000000000000000008000
RESULT CIPHER-DECIPHER: -----OK-----


Test: 113
Sector size in bytes: 24576
Data unit:   0
Start block: 0
Symmetric key bit length: 384
Plaintext bit length:     136
Symmetric key:            000000000000000000000000000000000000000000000000000000000000000000000000000000000000000000000000
Plaintext:                0000000000000000000000000000004000
Ciphertext:               f8161d2515bc5d7959c9b1b2e87eb8e6112a5b809676343b5535ce4bf8e74fb183
Reciphers for ciphertext: 0
Decipheredtext:           0000000000000000000000000000004000
RESULT CIPHER-DECIPHER: -----OK-----


Test: 114
Sector size in bytes: 24576
Data unit:   0
Start block: 0
Symmetric key bit length: 384
Plaintext bit length:     136
Symmetric key:            000000000000000000000000000000000000000000000000000000000000000000000000000000000000000000000000
Plaintext:                0000000000000000000000000000002000
Ciphertext:               f8161d2515bc5d7959c9b1b2e87eb8e679ae8b97357f2560889f3c3a140e2a61bd
Reciphers for ciphertext: 0
Decipheredtext:           0000000000000000000000000000002000
RESULT CIPHER-DECIPHER: -----OK-----


Test: 115
Sector size in bytes: 24576
Data unit:   0
Start block: 0
Symmetric key bit length: 384
Plaintext bit length:     136
Symmetric key:            000000000000000000000000000000000000000000000000000000000000000000000000000000000000000000000000
Plaintext:                0000000000000000000000000000001000
Ciphertext:               f8161d2515bc5d7959c9b1b2e87eb8e6a517adb479a66514bfee3d65786a50a0b8
Reciphers for ciphertext: 0
Decipheredtext:           0000000000000000000000000000001000
RESULT CIPHER-DECIPHER: -----OK-----


Test: 116
Sector size in bytes: 24576
Data unit:   0
Start block: 0
Symmetric key bit length: 384
Plaintext bit length:     136
Symmetric key:            000000000000000000000000000000000000000000000000000000000000000000000000000000000000000000000000
Plaintext:                0000000000000000000000000000000800
Ciphertext:               f8161d2515bc5d7959c9b1b2e87eb8e6193f1fde19b2704e5fcf9959eeb30f4a0a
Reciphers for ciphertext: 0
Decipheredtext:           0000000000000000000000000000000800
RESULT CIPHER-DECIPHER: -----OK-----


Test: 117
Sector size in bytes: 24576
Data unit:   0
Start block: 0
Symmetric key bit length: 384
Plaintext bit length:     136
Symmetric key:            000000000000000000000000000000000000000000000000000000000000000000000000000000000000000000000000
Plaintext:                0000000000000000000000000000000400
Ciphertext:               f8161d2515bc5d7959c9b1b2e87eb8e6c50b63cae5feb06438e057b42ca2d2fdc2
Reciphers for ciphertext: 0
Decipheredtext:           0000000000000000000000000000000400
RESULT CIPHER-DECIPHER: -----OK-----


Test: 118
Sector size in bytes: 24576
Data unit:   0
Start block: 0
Symmetric key bit length: 384
Plaintext bit length:     136
Symmetric key:            000000000000000000000000000000000000000000000000000000000000000000000000000000000000000000000000
Plaintext:                0000000000000000000000000000000200
Ciphertext:               f8161d2515bc5d7959c9b1b2e87eb8e6385fd11aa6f505083cf733bd65f69b60cc
Reciphers for ciphertext: 0
Decipheredtext:           0000000000000000000000000000000200
RESULT CIPHER-DECIPHER: -----OK-----


Test: 119
Sector size in bytes: 24576
Data unit:   0
Start block: 0
Symmetric key bit length: 384
Plaintext bit length:     136
Symmetric key:            000000000000000000000000000000000000000000000000000000000000000000000000000000000000000000000000
Plaintext:                0000000000000000000000000000000100
Ciphertext:               f8161d2515bc5d7959c9b1b2e87eb8e6f6ff175b88b6896440015369f251692911
Reciphers for ciphertext: 0
Decipheredtext:           0000000000000000000000000000000100
RESULT CIPHER-DECIPHER: -----OK-----


Test: 120
Sector size in bytes: 32768
Data unit:   0
Start block: 0
Symmetric key bit length: 384
Plaintext bit length:     136
Symmetric key:            000000000000000000000000000000000000000000000000000000000000000000000000000000000000000000000000
Plaintext:                0000000000000000000000000000000080
Ciphertext:               f8161d2515bc5d7959c9b1b2e87eb8e6f111cae5eeab0efdc66860f2e4267631f8
Reciphers for ciphertext: 0
Decipheredtext:           0000000000000000000000000000000080
RESULT CIPHER-DECIPHER: -----OK-----


Test: 121
Sector size in bytes: 32768
Data unit:   0
Start block: 0
Symmetric key bit length: 384
Plaintext bit length:     136
Symmetric key:            000000000000000000000000000000000000000000000000000000000000000000000000000000000000000000000000
Plaintext:                0000000000000000000000000000000040
Ciphertext:               f8161d2515bc5d7959c9b1b2e87eb8e66c7b652d0aa70338c75526d1fb09b6f2f8
Reciphers for ciphertext: 0
Decipheredtext:           0000000000000000000000000000000040
RESULT CIPHER-DECIPHER: -----OK-----


Test: 122
Sector size in bytes: 32768
Data unit:   0
Start block: 0
Symmetric key bit length: 384
Plaintext bit length:     136
Symmetric key:            000000000000000000000000000000000000000000000000000000000000000000000000000000000000000000000000
Plaintext:                0000000000000000000000000000000020
Ciphertext:               f8161d2515bc5d7959c9b1b2e87eb8e6aee04665d45446678ed373d7ef001473f8
Reciphers for ciphertext: 0
Decipheredtext:           0000000000000000000000000000000020
RESULT CIPHER-DECIPHER: -----OK-----


Test: 123
Sector size in bytes: 32768
Data unit:   0
Start block: 0
Symmetric key bit length: 384
Plaintext bit length:     136
Symmetric key:            000000000000000000000000000000000000000000000000000000000000000000000000000000000000000000000000
Plaintext:                0000000000000000000000000000000010
Ciphertext:               f8161d2515bc5d7959c9b1b2e87eb8e63d5ea9f3888d06f8f736a4ad0aca55fff8
Reciphers for ciphertext: 0
Decipheredtext:           0000000000000000000000000000000010
RESULT CIPHER-DECIPHER: -----OK-----


Test: 124
Sector size in bytes: 32768
Data unit:   0
Start block: 0
Symmetric key bit length: 384
Plaintext bit length:     136
Symmetric key:            000000000000000000000000000000000000000000000000000000000000000000000000000000000000000000000000
Plaintext:                0000000000000000000000000000000008
Ciphertext:               f8161d2515bc5d7959c9b1b2e87eb8e6d70a592445bb3e836719e055a1833b5cf8
Reciphers for ciphertext: 0
Decipheredtext:           0000000000000000000000000000000008
RESULT CIPHER-DECIPHER: -----OK-----


Test: 125
Sector size in bytes: 32768
Data unit:   0
Start block: 0
Symmetric key bit length: 384
Plaintext bit length:     136
Symmetric key:            000000000000000000000000000000000000000000000000000000000000000000000000000000000000000000000000
Plaintext:                0000000000000000000000000000000004
Ciphertext:               f8161d2515bc5d7959c9b1b2e87eb8e608e2540c89fd0f27f5236a0b626f0270f8
Reciphers for ciphertext: 0
Decipheredtext:           0000000000000000000000000000000004
RESULT CIPHER-DECIPHER: -----OK-----


Test: 126
Sector size in bytes: 32768
Data unit:   0
Start block: 0
Symmetric key bit length: 384
Plaintext bit length:     136
Symmetric key:            000000000000000000000000000000000000000000000000000000000000000000000000000000000000000000000000
Plaintext:                0000000000000000000000000000000002
Ciphertext:               f8161d2515bc5d7959c9b1b2e87eb8e64901a94ca2c91df9dedc1ac3e49e00a5f8
Reciphers for ciphertext: 0
Decipheredtext:           0000000000000000000000000000000002
RESULT CIPHER-DECIPHER: -----OK-----


Test: 127
Sector size in bytes: 32768
Data unit:   0
Start block: 0
Symmetric key bit length: 384
Plaintext bit length:     136
Symmetric key:            000000000000000000000000000000000000000000000000000000000000000000000000000000000000000000000000
Plaintext:                0000000000000000000000000000000001
Ciphertext:               f8161d2515bc5d7959c9b1b2e87eb8e6c7b6cbcd712414ff4bb11925da667fe2f8
Reciphers for ciphertext: 0
Decipheredtext:           0000000000000000000000000000000001
RESULT CIPHER-DECIPHER: -----OK-----


 DATA SHA1 (hexadecimal): 9a5c7a52411af285940325723afd7f33d9c29f19

