
DiceLock 9.0.0.1

 TEST COMPONENTS:
 ----------------
 DiceLock:           DiceLockIVDigested class
 Base Stream Cipher: Sosemanuk256 class
 Hash algorithms:     0 - Sha1 class
                      1 - Sha224 class
                      2 - Sha256 class
                      3 - Sha384 class
                      4 - Sha512 class
                      5 - Sha512_224 class
                      6 - Sha512_256 class
                      7 - Ripemd128 class
                      8 - Ripemd160 class
                      9 - Ripemd256 class
                     10 - Ripemd320 class
                     11 - MD2 class
                     12 - MD4 class
                     13 - MD5 class
 Key Modifier:       IncreaseKeyModifier_6_0_0_1 class
 Random tests:       RandomTestSuite class
                     FrequencyTest class
                     BlockFrequencyTest class
                     CumulativeSumForwardTest class
                     LongestRunOfOnesTest class
                     RunsTest class
 Random alpha:       0.001

 VECTOR TEST: Test vector 5 - IV all byte value 0xXX


##### INDIVIDUAL TESTS #####

Number tests: 128


Test: 0
Hash algorithm: 5
Symmetric key bit length: 256
IV bit length:            128
Plaintext bit length:     136
Symmetric key:            0000000000000000000000000000000000000000000000000000000000000000
IV:                       00000000000000000000000000000000
Plaintext:                0000000000000000000000000000000000
Ciphertext:               494e66132da70c4797448e14af3760913540537247b0bd91ef5cd864bad8106b2fc0cd8fc62991bec17ee40a25
Reciphers for ciphertext: 0
Decipheredtext:           0000000000000000000000000000000000
RESULT CIPHER-DECIPHER: -----OK-----


Test: 1
Hash algorithm: 2
Symmetric key bit length: 256
IV bit length:            128
Plaintext bit length:     136
Symmetric key:            0000000000000000000000000000000000000000000000000000000000000000
IV:                       01010101010101010101010101010101
Plaintext:                0000000000000000000000000000000000
Ciphertext:               d6a7749fe4c32b5e5a7bf15eeb7eab63dd2f2c37627351b21897f54e026acceb7a0ee7ce8be32f62d4de867da688959b83
Reciphers for ciphertext: 0
Decipheredtext:           0000000000000000000000000000000000
RESULT CIPHER-DECIPHER: -----OK-----


Test: 2
Hash algorithm: 1
Symmetric key bit length: 256
IV bit length:            128
Plaintext bit length:     136
Symmetric key:            0000000000000000000000000000000000000000000000000000000000000000
IV:                       02020202020202020202020202020202
Plaintext:                0000000000000000000000000000000000
Ciphertext:               c0ffdb8eeedde063b54610f92ae16de891ca04a766f4456e038276092c92cb3f40a99c1fc9bb4ad9336bdcad58
Reciphers for ciphertext: 0
Decipheredtext:           0000000000000000000000000000000000
RESULT CIPHER-DECIPHER: -----OK-----


Test: 3
Hash algorithm: 0
Symmetric key bit length: 256
IV bit length:            128
Plaintext bit length:     136
Symmetric key:            0000000000000000000000000000000000000000000000000000000000000000
IV:                       03030303030303030303030303030303
Plaintext:                0000000000000000000000000000000000
Ciphertext:               069ad71dd41bb5abd17ffe8fc8069d5352a009345c5918801d8d06b38bb6bf01d19f90ef30
Reciphers for ciphertext: 0
Decipheredtext:           0000000000000000000000000000000000
RESULT CIPHER-DECIPHER: -----OK-----


Test: 4
Hash algorithm: 3
Symmetric key bit length: 256
IV bit length:            128
Plaintext bit length:     136
Symmetric key:            0000000000000000000000000000000000000000000000000000000000000000
IV:                       04040404040404040404040404040404
Plaintext:                0000000000000000000000000000000000
Ciphertext:               34dd81981e0b64afec0a30604bf812347c2aead89cda94f8dbbc383d24f7c8903a024c66b79da74b934a34985ba16d607570559a2f037a780c17e01eaef2e62d1b
Reciphers for ciphertext: 0
Decipheredtext:           0000000000000000000000000000000000
RESULT CIPHER-DECIPHER: -----OK-----


Test: 5
Hash algorithm: 12
Symmetric key bit length: 256
IV bit length:            128
Plaintext bit length:     136
Symmetric key:            0000000000000000000000000000000000000000000000000000000000000000
IV:                       05050505050505050505050505050505
Plaintext:                0000000000000000000000000000000000
Ciphertext:               105ac126885fa27c6ba3b0844dd4c42a06e44b6ef5ac47dd01fb11a45862d4d658
Reciphers for ciphertext: 0
Decipheredtext:           0000000000000000000000000000000000
RESULT CIPHER-DECIPHER: -----OK-----


Test: 6
Hash algorithm: 10
Symmetric key bit length: 256
IV bit length:            128
Plaintext bit length:     136
Symmetric key:            0000000000000000000000000000000000000000000000000000000000000000
IV:                       06060606060606060606060606060606
Plaintext:                0000000000000000000000000000000000
Ciphertext:               ea51f9d8a7889d13ee7a34148b4ad292c14316c449f13197abc20f6ad0e3aea1fa2c83d2a992d5f3a441260e873e67c3fb5de8df54df54bd26
Reciphers for ciphertext: 0
Decipheredtext:           0000000000000000000000000000000000
RESULT CIPHER-DECIPHER: -----OK-----


Test: 7
Hash algorithm: 7
Symmetric key bit length: 256
IV bit length:            128
Plaintext bit length:     136
Symmetric key:            0000000000000000000000000000000000000000000000000000000000000000
IV:                       07070707070707070707070707070707
Plaintext:                0000000000000000000000000000000000
Ciphertext:               b410475b957f6d50eaa2ab058631a3822324d736898ee86254a7718bc4fc165944
Reciphers for ciphertext: 0
Decipheredtext:           0000000000000000000000000000000000
RESULT CIPHER-DECIPHER: -----OK-----


Test: 8
Hash algorithm: 1
Symmetric key bit length: 256
IV bit length:            128
Plaintext bit length:     136
Symmetric key:            0000000000000000000000000000000000000000000000000000000000000000
IV:                       08080808080808080808080808080808
Plaintext:                0000000000000000000000000000000000
Ciphertext:               02718752cc0c2e67216564b4df9a1d2b9b0dc112e4f771d66668f08fc753a3cad9c84ed2ef737404798fd588d5
Reciphers for ciphertext: 0
Decipheredtext:           0000000000000000000000000000000000
RESULT CIPHER-DECIPHER: -----OK-----


Test: 9
Hash algorithm: 13
Symmetric key bit length: 256
IV bit length:            128
Plaintext bit length:     136
Symmetric key:            0000000000000000000000000000000000000000000000000000000000000000
IV:                       09090909090909090909090909090909
Plaintext:                0000000000000000000000000000000000
Ciphertext:               de621c6c40932c37d21875644364bd27f79a1c27f5eea2b8f51538da5a057ae7a3
Reciphers for ciphertext: 0
Decipheredtext:           0000000000000000000000000000000000
RESULT CIPHER-DECIPHER: -----OK-----


Test: 10
Hash algorithm: 8
Symmetric key bit length: 256
IV bit length:            128
Plaintext bit length:     136
Symmetric key:            0000000000000000000000000000000000000000000000000000000000000000
IV:                       0a0a0a0a0a0a0a0a0a0a0a0a0a0a0a0a
Plaintext:                0000000000000000000000000000000000
Ciphertext:               73fd33cd6d69e00aa17aef1c9686f21f3731cdfd51f83506116fdb5064e2324c1101ad3dcd
Reciphers for ciphertext: 0
Decipheredtext:           0000000000000000000000000000000000
RESULT CIPHER-DECIPHER: -----OK-----


Test: 11
Hash algorithm: 11
Symmetric key bit length: 256
IV bit length:            128
Plaintext bit length:     136
Symmetric key:            0000000000000000000000000000000000000000000000000000000000000000
IV:                       0b0b0b0b0b0b0b0b0b0b0b0b0b0b0b0b
Plaintext:                0000000000000000000000000000000000
Ciphertext:               e81838e822b06d49ea30a1341472944036b7d38cd1770829a071f16e7c94e707bc
Reciphers for ciphertext: 0
Decipheredtext:           0000000000000000000000000000000000
RESULT CIPHER-DECIPHER: -----OK-----


Test: 12
Hash algorithm: 12
Symmetric key bit length: 256
IV bit length:            128
Plaintext bit length:     136
Symmetric key:            0000000000000000000000000000000000000000000000000000000000000000
IV:                       0c0c0c0c0c0c0c0c0c0c0c0c0c0c0c0c
Plaintext:                0000000000000000000000000000000000
Ciphertext:               d7511276b1fe95df3a89ee892496d93d50288be098085c1047f7c95e8995cda610
Reciphers for ciphertext: 0
Decipheredtext:           0000000000000000000000000000000000
RESULT CIPHER-DECIPHER: -----OK-----


Test: 13
Hash algorithm: 0
Symmetric key bit length: 256
IV bit length:            128
Plaintext bit length:     136
Symmetric key:            0000000000000000000000000000000000000000000000000000000000000000
IV:                       0d0d0d0d0d0d0d0d0d0d0d0d0d0d0d0d
Plaintext:                0000000000000000000000000000000000
Ciphertext:               60ecf04aa87ae0be1ae083677de15dd1b1876814e3d0e1d1fa92eb543a32b80eface9ce691
Reciphers for ciphertext: 0
Decipheredtext:           0000000000000000000000000000000000
RESULT CIPHER-DECIPHER: -----OK-----


Test: 14
Hash algorithm: 3
Symmetric key bit length: 256
IV bit length:            128
Plaintext bit length:     136
Symmetric key:            0000000000000000000000000000000000000000000000000000000000000000
IV:                       0e0e0e0e0e0e0e0e0e0e0e0e0e0e0e0e
Plaintext:                0000000000000000000000000000000000
Ciphertext:               490c6759bbe68327533b6601f80350f238a82a7233d1e345bea3defc5f36af72cdfb4664357d6c53caa56688b063211eb2429876547333f5d2fb707df7a9a36975
Reciphers for ciphertext: 0
Decipheredtext:           0000000000000000000000000000000000
RESULT CIPHER-DECIPHER: -----OK-----


Test: 15
Hash algorithm: 5
Symmetric key bit length: 256
IV bit length:            128
Plaintext bit length:     136
Symmetric key:            0000000000000000000000000000000000000000000000000000000000000000
IV:                       0f0f0f0f0f0f0f0f0f0f0f0f0f0f0f0f
Plaintext:                0000000000000000000000000000000000
Ciphertext:               cff4bb9f535d93e91cadcf7e636176b9b62c6ad09fd936ffb356898403894f67b3ea8d84bdd01d748935f28e7f
Reciphers for ciphertext: 0
Decipheredtext:           0000000000000000000000000000000000
RESULT CIPHER-DECIPHER: -----OK-----


Test: 16
Hash algorithm: 5
Symmetric key bit length: 256
IV bit length:            128
Plaintext bit length:     136
Symmetric key:            0000000000000000000000000000000000000000000000000000000000000000
IV:                       10101010101010101010101010101010
Plaintext:                0000000000000000000000000000000000
Ciphertext:               d5f79c312e6af21288bd8b2c3577558282f57413fae706e2a80810b05a61d394e7b68bd7f9bb030ee94299be91
Reciphers for ciphertext: 0
Decipheredtext:           0000000000000000000000000000000000
RESULT CIPHER-DECIPHER: -----OK-----


Test: 17
Hash algorithm: 6
Symmetric key bit length: 256
IV bit length:            128
Plaintext bit length:     136
Symmetric key:            0000000000000000000000000000000000000000000000000000000000000000
IV:                       11111111111111111111111111111111
Plaintext:                0000000000000000000000000000000000
Ciphertext:               7d04ee7986b84ce3d3cd9d114a1ef05099e17132c47c616ce334f5acf264aa3375d33651a34a41271b3e1c1bd9f368943d
Reciphers for ciphertext: 0
Decipheredtext:           0000000000000000000000000000000000
RESULT CIPHER-DECIPHER: -----OK-----


Test: 18
Hash algorithm: 2
Symmetric key bit length: 256
IV bit length:            128
Plaintext bit length:     136
Symmetric key:            0000000000000000000000000000000000000000000000000000000000000000
IV:                       12121212121212121212121212121212
Plaintext:                0000000000000000000000000000000000
Ciphertext:               d32945cc27088b672eb22c9c8a1496c2197cca64e76b16ed3a3e3bd8854f94210ce0c01e8ca4fab883d13152e88e0e0d19
Reciphers for ciphertext: 0
Decipheredtext:           0000000000000000000000000000000000
RESULT CIPHER-DECIPHER: -----OK-----


Test: 19
Hash algorithm: 3
Symmetric key bit length: 256
IV bit length:            128
Plaintext bit length:     136
Symmetric key:            0000000000000000000000000000000000000000000000000000000000000000
IV:                       13131313131313131313131313131313
Plaintext:                0000000000000000000000000000000000
Ciphertext:               11931a1c57576feacf07904fb0bf9613186b2387a4bd77494e6e5aeebd022f1199958bf7c8e8554ca2cfdd057d4963ee8988654497625cdedf2ff032839d424173
Reciphers for ciphertext: 0
Decipheredtext:           0000000000000000000000000000000000
RESULT CIPHER-DECIPHER: -----OK-----


Test: 20
Hash algorithm: 10
Symmetric key bit length: 256
IV bit length:            128
Plaintext bit length:     136
Symmetric key:            0000000000000000000000000000000000000000000000000000000000000000
IV:                       14141414141414141414141414141414
Plaintext:                0000000000000000000000000000000000
Ciphertext:               6a689ed1f37999c81d889949373b408313f7bcf3b32338734ccdeddfa7ca84c30e7cfd9da75c79eca5193123e2f0ec3fa0680659a09f86c1db
Reciphers for ciphertext: 0
Decipheredtext:           0000000000000000000000000000000000
RESULT CIPHER-DECIPHER: -----OK-----


Test: 21
Hash algorithm: 10
Symmetric key bit length: 256
IV bit length:            128
Plaintext bit length:     136
Symmetric key:            0000000000000000000000000000000000000000000000000000000000000000
IV:                       15151515151515151515151515151515
Plaintext:                0000000000000000000000000000000000
Ciphertext:               2e95f3ed9e798dac5f5c200cd794337f1d2077341c47c61bf8308ee51580d6ed7f3c991f941d522b0159828976406006749c174a0c01a46eec
Reciphers for ciphertext: 0
Decipheredtext:           0000000000000000000000000000000000
RESULT CIPHER-DECIPHER: -----OK-----


Test: 22
Hash algorithm: 12
Symmetric key bit length: 256
IV bit length:            128
Plaintext bit length:     136
Symmetric key:            0000000000000000000000000000000000000000000000000000000000000000
IV:                       16161616161616161616161616161616
Plaintext:                0000000000000000000000000000000000
Ciphertext:               91007960639ec78eea14260ee1dd8bdff9764ae65ffaf46171a1a952e9df696193
Reciphers for ciphertext: 0
Decipheredtext:           0000000000000000000000000000000000
RESULT CIPHER-DECIPHER: -----OK-----


Test: 23
Hash algorithm: 5
Symmetric key bit length: 256
IV bit length:            128
Plaintext bit length:     136
Symmetric key:            0000000000000000000000000000000000000000000000000000000000000000
IV:                       17171717171717171717171717171717
Plaintext:                0000000000000000000000000000000000
Ciphertext:               aa31dbb7714e9185d70b3ece01c6532ce7e04a1352a0cab1e83fc5d0dfe9e4a868e140a8d9c530b0e09af8b5a4
Reciphers for ciphertext: 0
Decipheredtext:           0000000000000000000000000000000000
RESULT CIPHER-DECIPHER: -----OK-----


Test: 24
Hash algorithm: 11
Symmetric key bit length: 256
IV bit length:            128
Plaintext bit length:     136
Symmetric key:            0000000000000000000000000000000000000000000000000000000000000000
IV:                       18181818181818181818181818181818
Plaintext:                0000000000000000000000000000000000
Ciphertext:               0d0ac7fc528ed410e44376e4bb00ff2f0b07d3416011858b041913e179e83684ca
Reciphers for ciphertext: 0
Decipheredtext:           0000000000000000000000000000000000
RESULT CIPHER-DECIPHER: -----OK-----


Test: 25
Hash algorithm: 8
Symmetric key bit length: 256
IV bit length:            128
Plaintext bit length:     136
Symmetric key:            0000000000000000000000000000000000000000000000000000000000000000
IV:                       19191919191919191919191919191919
Plaintext:                0000000000000000000000000000000000
Ciphertext:               6d4605c29bbcc5f00abe1c4ed7ed72d0307362e2fc82be67d535e1b0331c9d98b0148d370c
Reciphers for ciphertext: 0
Decipheredtext:           0000000000000000000000000000000000
RESULT CIPHER-DECIPHER: -----OK-----


Test: 26
Hash algorithm: 10
Symmetric key bit length: 256
IV bit length:            128
Plaintext bit length:     136
Symmetric key:            0000000000000000000000000000000000000000000000000000000000000000
IV:                       1a1a1a1a1a1a1a1a1a1a1a1a1a1a1a1a
Plaintext:                0000000000000000000000000000000000
Ciphertext:               6e1bcbd92a40ed561dae0dfd2fdbb6d2b88871756c982fddde064cbb0c5974cbae71120865a2618fe8d892d7827bec95c6f12294609601458a
Reciphers for ciphertext: 0
Decipheredtext:           0000000000000000000000000000000000
RESULT CIPHER-DECIPHER: -----OK-----


Test: 27
Hash algorithm: 2
Symmetric key bit length: 256
IV bit length:            128
Plaintext bit length:     136
Symmetric key:            0000000000000000000000000000000000000000000000000000000000000000
IV:                       1b1b1b1b1b1b1b1b1b1b1b1b1b1b1b1b
Plaintext:                0000000000000000000000000000000000
Ciphertext:               04a25729ea9c98c68bbd10c73be66b0762719aec90a1a8da2e91f1b11c4c1da4ee8773deb6cc40e3dbca7209cc7796c95a
Reciphers for ciphertext: 0
Decipheredtext:           0000000000000000000000000000000000
RESULT CIPHER-DECIPHER: -----OK-----


Test: 28
Hash algorithm: 2
Symmetric key bit length: 256
IV bit length:            128
Plaintext bit length:     136
Symmetric key:            0000000000000000000000000000000000000000000000000000000000000000
IV:                       1c1c1c1c1c1c1c1c1c1c1c1c1c1c1c1c
Plaintext:                0000000000000000000000000000000000
Ciphertext:               75f6b44c0fc3b2723048bc17cdc700389a3f3f4c77ae4c1269c78d55c85e968f569f1af3a3c37e0e2f05e9d60d2d497b5b
Reciphers for ciphertext: 0
Decipheredtext:           0000000000000000000000000000000000
RESULT CIPHER-DECIPHER: -----OK-----


Test: 29
Hash algorithm: 2
Symmetric key bit length: 256
IV bit length:            128
Plaintext bit length:     136
Symmetric key:            0000000000000000000000000000000000000000000000000000000000000000
IV:                       1d1d1d1d1d1d1d1d1d1d1d1d1d1d1d1d
Plaintext:                0000000000000000000000000000000000
Ciphertext:               4bcee3c24366ee5f2fb1753da48504bcf59314eecba8926a3f90a8fd9a81092efb98ca1255f738f4f03abd785f8bb6dd22
Reciphers for ciphertext: 0
Decipheredtext:           0000000000000000000000000000000000
RESULT CIPHER-DECIPHER: -----OK-----


Test: 30
Hash algorithm: 10
Symmetric key bit length: 256
IV bit length:            128
Plaintext bit length:     136
Symmetric key:            0000000000000000000000000000000000000000000000000000000000000000
IV:                       1e1e1e1e1e1e1e1e1e1e1e1e1e1e1e1e
Plaintext:                0000000000000000000000000000000000
Ciphertext:               caea76c9c77690fb36e197ce0a0118ea9217345da81163c932f71710881161f5e6eb94f637fb0f86cab173afc940d4ffde52544e6646cc8ae0
Reciphers for ciphertext: 0
Decipheredtext:           0000000000000000000000000000000000
RESULT CIPHER-DECIPHER: -----OK-----


Test: 31
Hash algorithm: 2
Symmetric key bit length: 256
IV bit length:            128
Plaintext bit length:     136
Symmetric key:            0000000000000000000000000000000000000000000000000000000000000000
IV:                       1f1f1f1f1f1f1f1f1f1f1f1f1f1f1f1f
Plaintext:                0000000000000000000000000000000000
Ciphertext:               f257569c10421da34019b8822a2e86f2c46ae8e222c33bf26e0f55b3767f8e23dcc84b0c23d9d9177ebe7c786590ccfe0e
Reciphers for ciphertext: 0
Decipheredtext:           0000000000000000000000000000000000
RESULT CIPHER-DECIPHER: -----OK-----


Test: 32
Hash algorithm: 4
Symmetric key bit length: 256
IV bit length:            128
Plaintext bit length:     136
Symmetric key:            0000000000000000000000000000000000000000000000000000000000000000
IV:                       20202020202020202020202020202020
Plaintext:                0000000000000000000000000000000000
Ciphertext:               2921af1cb67c8de095d35baac65e2fbee1386efc07f665a600c7d1c53fb99433d6c4a963ed301556a3f0b547ef8242c4bd1917bedcad9e6857d98c2cff87c5313e344167782e70e206da74f942ee712ada
Reciphers for ciphertext: 0
Decipheredtext:           0000000000000000000000000000000000
RESULT CIPHER-DECIPHER: -----OK-----


Test: 33
Hash algorithm: 3
Symmetric key bit length: 256
IV bit length:            128
Plaintext bit length:     136
Symmetric key:            0000000000000000000000000000000000000000000000000000000000000000
IV:                       21212121212121212121212121212121
Plaintext:                0000000000000000000000000000000000
Ciphertext:               52c218628c5c0530fe14475aa97ad97e224ed71a111be783d708a47e8de664b806b95a63979badda5c7f5ece98e835670cd815941cd497f865b07a721399d9d238
Reciphers for ciphertext: 0
Decipheredtext:           0000000000000000000000000000000000
RESULT CIPHER-DECIPHER: -----OK-----


Test: 34
Hash algorithm: 1
Symmetric key bit length: 256
IV bit length:            128
Plaintext bit length:     136
Symmetric key:            0000000000000000000000000000000000000000000000000000000000000000
IV:                       22222222222222222222222222222222
Plaintext:                0000000000000000000000000000000000
Ciphertext:               5bae6f8eb8ebfe327d85f6444db4b7f9f1152c94191f3efd697a374f797323e217d997c97f577882606436c9ad
Reciphers for ciphertext: 0
Decipheredtext:           0000000000000000000000000000000000
RESULT CIPHER-DECIPHER: -----OK-----


Test: 35
Hash algorithm: 1
Symmetric key bit length: 256
IV bit length:            128
Plaintext bit length:     136
Symmetric key:            0000000000000000000000000000000000000000000000000000000000000000
IV:                       23232323232323232323232323232323
Plaintext:                0000000000000000000000000000000000
Ciphertext:               bd152d34ba0f9475e2adb5fed1af115b2a0bab643242776c94b2e132680205c26ada96501ac5180f719439a774
Reciphers for ciphertext: 0
Decipheredtext:           0000000000000000000000000000000000
RESULT CIPHER-DECIPHER: -----OK-----


Test: 36
Hash algorithm: 11
Symmetric key bit length: 256
IV bit length:            128
Plaintext bit length:     136
Symmetric key:            0000000000000000000000000000000000000000000000000000000000000000
IV:                       24242424242424242424242424242424
Plaintext:                0000000000000000000000000000000000
Ciphertext:               07ac1e26452bab0bccd5d6d25d2139530ad94e7f67043047b32ea65ec083d33aa1
Reciphers for ciphertext: 0
Decipheredtext:           0000000000000000000000000000000000
RESULT CIPHER-DECIPHER: -----OK-----


Test: 37
Hash algorithm: 12
Symmetric key bit length: 256
IV bit length:            128
Plaintext bit length:     136
Symmetric key:            0000000000000000000000000000000000000000000000000000000000000000
IV:                       25252525252525252525252525252525
Plaintext:                0000000000000000000000000000000000
Ciphertext:               25e46ffa7e6986bd074129f39aea38afa597ef2655b8cc8039ef285635b65f123f
Reciphers for ciphertext: 0
Decipheredtext:           0000000000000000000000000000000000
RESULT CIPHER-DECIPHER: -----OK-----


Test: 38
Hash algorithm: 12
Symmetric key bit length: 256
IV bit length:            128
Plaintext bit length:     136
Symmetric key:            0000000000000000000000000000000000000000000000000000000000000000
IV:                       26262626262626262626262626262626
Plaintext:                0000000000000000000000000000000000
Ciphertext:               7857aabce83cc5c7a60ed69f06548ddc7cbe6fac0ae229e7367a31b8e44a040690
Reciphers for ciphertext: 0
Decipheredtext:           0000000000000000000000000000000000
RESULT CIPHER-DECIPHER: -----OK-----


Test: 39
Hash algorithm: 8
Symmetric key bit length: 256
IV bit length:            128
Plaintext bit length:     136
Symmetric key:            0000000000000000000000000000000000000000000000000000000000000000
IV:                       27272727272727272727272727272727
Plaintext:                0000000000000000000000000000000000
Ciphertext:               bda15f5e3f91cb3eb56c0ba04bbe8b06a32cde3184d90c8f035edc68ae49c4642c83992546
Reciphers for ciphertext: 0
Decipheredtext:           0000000000000000000000000000000000
RESULT CIPHER-DECIPHER: -----OK-----


Test: 40
Hash algorithm: 9
Symmetric key bit length: 256
IV bit length:            128
Plaintext bit length:     136
Symmetric key:            0000000000000000000000000000000000000000000000000000000000000000
IV:                       28282828282828282828282828282828
Plaintext:                0000000000000000000000000000000000
Ciphertext:               ff3e132c3bd198d5fc67efaea6d407ed906530a44f198269db88214935ac4dea86736475b5ba2e21f9f65157650b8f227c
Reciphers for ciphertext: 0
Decipheredtext:           0000000000000000000000000000000000
RESULT CIPHER-DECIPHER: -----OK-----


Test: 41
Hash algorithm: 3
Symmetric key bit length: 256
IV bit length:            128
Plaintext bit length:     136
Symmetric key:            0000000000000000000000000000000000000000000000000000000000000000
IV:                       29292929292929292929292929292929
Plaintext:                0000000000000000000000000000000000
Ciphertext:               c3fb701ded34697d4998b8c19267491394fbc9d9b830883c307af92dcf92c4926723aa37612fd3ce6d2f3939c87c91823b2ea838a7e147be77373eb87b6de6ff78
Reciphers for ciphertext: 0
Decipheredtext:           0000000000000000000000000000000000
RESULT CIPHER-DECIPHER: -----OK-----


Test: 42
Hash algorithm: 3
Symmetric key bit length: 256
IV bit length:            128
Plaintext bit length:     136
Symmetric key:            0000000000000000000000000000000000000000000000000000000000000000
IV:                       2a2a2a2a2a2a2a2a2a2a2a2a2a2a2a2a
Plaintext:                0000000000000000000000000000000000
Ciphertext:               56cba7af6db613221512c15b3b520c6610c97f2654dc6c542add947689b46baddabcd964d4c8726f105404270e057c16267f638490bcb17d5623a0ab05c2c54683
Reciphers for ciphertext: 0
Decipheredtext:           0000000000000000000000000000000000
RESULT CIPHER-DECIPHER: -----OK-----


Test: 43
Hash algorithm: 9
Symmetric key bit length: 256
IV bit length:            128
Plaintext bit length:     136
Symmetric key:            0000000000000000000000000000000000000000000000000000000000000000
IV:                       2b2b2b2b2b2b2b2b2b2b2b2b2b2b2b2b
Plaintext:                0000000000000000000000000000000000
Ciphertext:               0931a2c9d8851dc24550090bce5ca131b5be48e181adc66b97036618cfd23ccfa447eea4b7c5372da23c0197d4ba3b100e
Reciphers for ciphertext: 0
Decipheredtext:           0000000000000000000000000000000000
RESULT CIPHER-DECIPHER: -----OK-----


Test: 44
Hash algorithm: 5
Symmetric key bit length: 256
IV bit length:            128
Plaintext bit length:     136
Symmetric key:            0000000000000000000000000000000000000000000000000000000000000000
IV:                       2c2c2c2c2c2c2c2c2c2c2c2c2c2c2c2c
Plaintext:                0000000000000000000000000000000000
Ciphertext:               7339f3837275062f1ee045a46ccf83be0a3bb2bf20387a24efef8bc8594628ea2b2c7a7c48d3ad2128197b9419
Reciphers for ciphertext: 0
Decipheredtext:           0000000000000000000000000000000000
RESULT CIPHER-DECIPHER: -----OK-----


Test: 45
Hash algorithm: 6
Symmetric key bit length: 256
IV bit length:            128
Plaintext bit length:     136
Symmetric key:            0000000000000000000000000000000000000000000000000000000000000000
IV:                       2d2d2d2d2d2d2d2d2d2d2d2d2d2d2d2d
Plaintext:                0000000000000000000000000000000000
Ciphertext:               78757c96e6a403c07052d0e51f32d2a02f7a7eae8185d23bd9aecc7cc05faeb338a10894322352f54c28b57557e73140d8
Reciphers for ciphertext: 0
Decipheredtext:           0000000000000000000000000000000000
RESULT CIPHER-DECIPHER: -----OK-----


Test: 46
Hash algorithm: 6
Symmetric key bit length: 256
IV bit length:            128
Plaintext bit length:     136
Symmetric key:            0000000000000000000000000000000000000000000000000000000000000000
IV:                       2e2e2e2e2e2e2e2e2e2e2e2e2e2e2e2e
Plaintext:                0000000000000000000000000000000000
Ciphertext:               e266c3a8bf44afbacdd724d70f14a7e20ef263952665e336dd0d08f7f3088f0b679f1d18cfa098d5968f60092e387b7741
Reciphers for ciphertext: 0
Decipheredtext:           0000000000000000000000000000000000
RESULT CIPHER-DECIPHER: -----OK-----


Test: 47
Hash algorithm: 8
Symmetric key bit length: 256
IV bit length:            128
Plaintext bit length:     136
Symmetric key:            0000000000000000000000000000000000000000000000000000000000000000
IV:                       2f2f2f2f2f2f2f2f2f2f2f2f2f2f2f2f
Plaintext:                0000000000000000000000000000000000
Ciphertext:               a9f96dcf128e49f3be0fc145d3e9573966bd5d399252a3685695f03387a8bbf17385149ed9
Reciphers for ciphertext: 0
Decipheredtext:           0000000000000000000000000000000000
RESULT CIPHER-DECIPHER: -----OK-----


Test: 48
Hash algorithm: 2
Symmetric key bit length: 256
IV bit length:            128
Plaintext bit length:     136
Symmetric key:            0000000000000000000000000000000000000000000000000000000000000000
IV:                       30303030303030303030303030303030
Plaintext:                0000000000000000000000000000000000
Ciphertext:               2bac09459054086d05b62a4598e41db8e500878b152084ce288eb2392be5dfe0734e767f4872bb0c6abc3a90364833ca57
Reciphers for ciphertext: 0
Decipheredtext:           0000000000000000000000000000000000
RESULT CIPHER-DECIPHER: -----OK-----


Test: 49
Hash algorithm: 7
Symmetric key bit length: 256
IV bit length:            128
Plaintext bit length:     136
Symmetric key:            0000000000000000000000000000000000000000000000000000000000000000
IV:                       31313131313131313131313131313131
Plaintext:                0000000000000000000000000000000000
Ciphertext:               85b15633bb9da3a0d16face5b4a4587a7f46a0d3c51d48e1a66aca4f3f47a655c3
Reciphers for ciphertext: 0
Decipheredtext:           0000000000000000000000000000000000
RESULT CIPHER-DECIPHER: -----OK-----


Test: 50
Hash algorithm: 3
Symmetric key bit length: 256
IV bit length:            128
Plaintext bit length:     136
Symmetric key:            0000000000000000000000000000000000000000000000000000000000000000
IV:                       32323232323232323232323232323232
Plaintext:                0000000000000000000000000000000000
Ciphertext:               ae6f7459b2e5436ffb7fdc1adc22428320e8cbb78adfe53e9e778e5858bf8660886290f66dfe2c7fff19fb05b46db2fb4f1b5faa12981d031d788cd2d4f9615e86
Reciphers for ciphertext: 0
Decipheredtext:           0000000000000000000000000000000000
RESULT CIPHER-DECIPHER: -----OK-----


Test: 51
Hash algorithm: 12
Symmetric key bit length: 256
IV bit length:            128
Plaintext bit length:     136
Symmetric key:            0000000000000000000000000000000000000000000000000000000000000000
IV:                       33333333333333333333333333333333
Plaintext:                0000000000000000000000000000000000
Ciphertext:               51c4dd4add88be38fdbd1501cdd0804dc139a9e7900838a6d1c73da22ce99a0d89
Reciphers for ciphertext: 0
Decipheredtext:           0000000000000000000000000000000000
RESULT CIPHER-DECIPHER: -----OK-----


Test: 52
Hash algorithm: 6
Symmetric key bit length: 256
IV bit length:            128
Plaintext bit length:     136
Symmetric key:            0000000000000000000000000000000000000000000000000000000000000000
IV:                       34343434343434343434343434343434
Plaintext:                0000000000000000000000000000000000
Ciphertext:               bba934009bf36f9661fd28088ab9f7deda96a81c98c3453e9b86ea9de46affa0e643f950298235418a54d89f22c69b8435
Reciphers for ciphertext: 0
Decipheredtext:           0000000000000000000000000000000000
RESULT CIPHER-DECIPHER: -----OK-----


Test: 53
Hash algorithm: 6
Symmetric key bit length: 256
IV bit length:            128
Plaintext bit length:     136
Symmetric key:            0000000000000000000000000000000000000000000000000000000000000000
IV:                       35353535353535353535353535353535
Plaintext:                0000000000000000000000000000000000
Ciphertext:               8b9053001981725449a5e1188e19a6b89fc3a8f06b1df9e2915ec2d7ccafacbc8dc5931fba5fa6d71f2919c99cfd46fb54
Reciphers for ciphertext: 0
Decipheredtext:           0000000000000000000000000000000000
RESULT CIPHER-DECIPHER: -----OK-----


Test: 54
Hash algorithm: 2
Symmetric key bit length: 256
IV bit length:            128
Plaintext bit length:     136
Symmetric key:            0000000000000000000000000000000000000000000000000000000000000000
IV:                       36363636363636363636363636363636
Plaintext:                0000000000000000000000000000000000
Ciphertext:               8b184f47e6edb717ac1ef4b19bd7f60b8535fcc52f7ece981a4cd7b56293db13e4e91bc685cd87a8281dc6b54ba9da604a
Reciphers for ciphertext: 0
Decipheredtext:           0000000000000000000000000000000000
RESULT CIPHER-DECIPHER: -----OK-----


Test: 55
Hash algorithm: 13
Symmetric key bit length: 256
IV bit length:            128
Plaintext bit length:     136
Symmetric key:            0000000000000000000000000000000000000000000000000000000000000000
IV:                       37373737373737373737373737373737
Plaintext:                0000000000000000000000000000000000
Ciphertext:               2623ed47ea1df261c66e9310000666a8ce0b4e2d6f9354d1146653b8ef9aaddf9c
Reciphers for ciphertext: 0
Decipheredtext:           0000000000000000000000000000000000
RESULT CIPHER-DECIPHER: -----OK-----


Test: 56
Hash algorithm: 11
Symmetric key bit length: 256
IV bit length:            128
Plaintext bit length:     136
Symmetric key:            0000000000000000000000000000000000000000000000000000000000000000
IV:                       38383838383838383838383838383838
Plaintext:                0000000000000000000000000000000000
Ciphertext:               400cafe26c89de8513e79ad3b6a5e26f98360832264f064740ccf10f5875fc14c1
Reciphers for ciphertext: 0
Decipheredtext:           0000000000000000000000000000000000
RESULT CIPHER-DECIPHER: -----OK-----


Test: 57
Hash algorithm: 9
Symmetric key bit length: 256
IV bit length:            128
Plaintext bit length:     136
Symmetric key:            0000000000000000000000000000000000000000000000000000000000000000
IV:                       39393939393939393939393939393939
Plaintext:                0000000000000000000000000000000000
Ciphertext:               a9b637f7a488d2110739b156b4497fca410ec67d9bcc89c7cb9ec5600353b0791bf1091bc9d13b230a7814752f8f5b6acd
Reciphers for ciphertext: 0
Decipheredtext:           0000000000000000000000000000000000
RESULT CIPHER-DECIPHER: -----OK-----


Test: 58
Hash algorithm: 3
Symmetric key bit length: 256
IV bit length:            128
Plaintext bit length:     136
Symmetric key:            0000000000000000000000000000000000000000000000000000000000000000
IV:                       3a3a3a3a3a3a3a3a3a3a3a3a3a3a3a3a
Plaintext:                0000000000000000000000000000000000
Ciphertext:               b727f7660d3d7051aa4c1f0d0e4f5eb4bffb1e536922384f8ad5775f8804a0f17ca8c4b85d3c301a007f0f221c22d90a2a561e6a7df8dc475602d3b2d26616b3e0
Reciphers for ciphertext: 0
Decipheredtext:           0000000000000000000000000000000000
RESULT CIPHER-DECIPHER: -----OK-----


Test: 59
Hash algorithm: 3
Symmetric key bit length: 256
IV bit length:            128
Plaintext bit length:     136
Symmetric key:            0000000000000000000000000000000000000000000000000000000000000000
IV:                       3b3b3b3b3b3b3b3b3b3b3b3b3b3b3b3b
Plaintext:                0000000000000000000000000000000000
Ciphertext:               b41b89c2151a6acd270b32eb6861175543df6a4574787251aa75715c4b65a083afb090ba47a282c32dc5a92d146e86180bbcac814defb3dfad1fd1a47ab460ba3f
Reciphers for ciphertext: 0
Decipheredtext:           0000000000000000000000000000000000
RESULT CIPHER-DECIPHER: -----OK-----


Test: 60
Hash algorithm: 7
Symmetric key bit length: 256
IV bit length:            128
Plaintext bit length:     136
Symmetric key:            0000000000000000000000000000000000000000000000000000000000000000
IV:                       3c3c3c3c3c3c3c3c3c3c3c3c3c3c3c3c
Plaintext:                0000000000000000000000000000000000
Ciphertext:               b5fa8c644303074691e797c5057adc8d452c6634335b17ff530d5c1f8d2990effa
Reciphers for ciphertext: 0
Decipheredtext:           0000000000000000000000000000000000
RESULT CIPHER-DECIPHER: -----OK-----


Test: 61
Hash algorithm: 13
Symmetric key bit length: 256
IV bit length:            128
Plaintext bit length:     136
Symmetric key:            0000000000000000000000000000000000000000000000000000000000000000
IV:                       3d3d3d3d3d3d3d3d3d3d3d3d3d3d3d3d
Plaintext:                0000000000000000000000000000000000
Ciphertext:               0b5e582d016ba278a3033eb9c93fdbae50dd8ac837e73c4bed344059fffed34e34
Reciphers for ciphertext: 0
Decipheredtext:           0000000000000000000000000000000000
RESULT CIPHER-DECIPHER: -----OK-----


Test: 62
Hash algorithm: 6
Symmetric key bit length: 256
IV bit length:            128
Plaintext bit length:     136
Symmetric key:            0000000000000000000000000000000000000000000000000000000000000000
IV:                       3e3e3e3e3e3e3e3e3e3e3e3e3e3e3e3e
Plaintext:                0000000000000000000000000000000000
Ciphertext:               dcd411406eec078f58dfe02bf0f8fb62b743001e63c0e490411c66d5a8a6a5f5098d3412ef2adaf192c3f00649ac6610dc
Reciphers for ciphertext: 0
Decipheredtext:           0000000000000000000000000000000000
RESULT CIPHER-DECIPHER: -----OK-----


Test: 63
Hash algorithm: 0
Symmetric key bit length: 256
IV bit length:            128
Plaintext bit length:     136
Symmetric key:            0000000000000000000000000000000000000000000000000000000000000000
IV:                       3f3f3f3f3f3f3f3f3f3f3f3f3f3f3f3f
Plaintext:                0000000000000000000000000000000000
Ciphertext:               6e7bad126b52cd59da1821f3ec60841b335fb640019740ca2584f6e4539647932f3000da22
Reciphers for ciphertext: 0
Decipheredtext:           0000000000000000000000000000000000
RESULT CIPHER-DECIPHER: -----OK-----


Test: 64
Hash algorithm: 3
Symmetric key bit length: 256
IV bit length:            128
Plaintext bit length:     136
Symmetric key:            0000000000000000000000000000000000000000000000000000000000000000
IV:                       40404040404040404040404040404040
Plaintext:                0000000000000000000000000000000000
Ciphertext:               0d594620bac8f6f65dcfc47a4277464db6c6d3395297a2d1acf40c4beae6a8f18ba42a1068f884825e22d4c53c604e0a2c71f70c84b93edb683448d9ed830e2de6
Reciphers for ciphertext: 0
Decipheredtext:           0000000000000000000000000000000000
RESULT CIPHER-DECIPHER: -----OK-----


Test: 65
Hash algorithm: 0
Symmetric key bit length: 256
IV bit length:            128
Plaintext bit length:     136
Symmetric key:            0000000000000000000000000000000000000000000000000000000000000000
IV:                       41414141414141414141414141414141
Plaintext:                0000000000000000000000000000000000
Ciphertext:               8925043cce74fbd2f1b8faa70ad701644431ca1640038cad76ec2217a4066f4d8dfc0b9676
Reciphers for ciphertext: 0
Decipheredtext:           0000000000000000000000000000000000
RESULT CIPHER-DECIPHER: -----OK-----


Test: 66
Hash algorithm: 10
Symmetric key bit length: 256
IV bit length:            128
Plaintext bit length:     136
Symmetric key:            0000000000000000000000000000000000000000000000000000000000000000
IV:                       42424242424242424242424242424242
Plaintext:                0000000000000000000000000000000000
Ciphertext:               6a64810646e31c50f061abbba39ea05e681303167b59b9a978a17aaace99cb3e346f247aab0f0d39e0865fce4804498fd3b64e09172ad9abb6
Reciphers for ciphertext: 0
Decipheredtext:           0000000000000000000000000000000000
RESULT CIPHER-DECIPHER: -----OK-----


Test: 67
Hash algorithm: 4
Symmetric key bit length: 256
IV bit length:            128
Plaintext bit length:     136
Symmetric key:            0000000000000000000000000000000000000000000000000000000000000000
IV:                       43434343434343434343434343434343
Plaintext:                0000000000000000000000000000000000
Ciphertext:               10bf56e214e04f3fdf3f91107d12ed49b2e1c12ba8d13b92731a90404cad123ffaef5f7f970d998c5a802b7824184fae2652d04d6b23a2349865cfefd037c2430ce83fc214918981730d8af3f9c4c14be3
Reciphers for ciphertext: 0
Decipheredtext:           0000000000000000000000000000000000
RESULT CIPHER-DECIPHER: -----OK-----


Test: 68
Hash algorithm: 1
Symmetric key bit length: 256
IV bit length:            128
Plaintext bit length:     136
Symmetric key:            0000000000000000000000000000000000000000000000000000000000000000
IV:                       44444444444444444444444444444444
Plaintext:                0000000000000000000000000000000000
Ciphertext:               9853a574826e7d632039cd8ff292a79b86ef3e2b1c22c9416d2f9b710068ae28afb4f048dc99afbccbc58da7a7
Reciphers for ciphertext: 0
Decipheredtext:           0000000000000000000000000000000000
RESULT CIPHER-DECIPHER: -----OK-----


Test: 69
Hash algorithm: 12
Symmetric key bit length: 256
IV bit length:            128
Plaintext bit length:     136
Symmetric key:            0000000000000000000000000000000000000000000000000000000000000000
IV:                       45454545454545454545454545454545
Plaintext:                0000000000000000000000000000000000
Ciphertext:               ff3e30a099d80903c583af33db9b4ded284e786a0a489342a7ab344772982c1cb9
Reciphers for ciphertext: 0
Decipheredtext:           0000000000000000000000000000000000
RESULT CIPHER-DECIPHER: -----OK-----


Test: 70
Hash algorithm: 7
Symmetric key bit length: 256
IV bit length:            128
Plaintext bit length:     136
Symmetric key:            0000000000000000000000000000000000000000000000000000000000000000
IV:                       46464646464646464646464646464646
Plaintext:                0000000000000000000000000000000000
Ciphertext:               ce11534422b6f73ebc776cf43a552e92e6f16d712b7c80020afb3a4d81aac92de6
Reciphers for ciphertext: 0
Decipheredtext:           0000000000000000000000000000000000
RESULT CIPHER-DECIPHER: -----OK-----


Test: 71
Hash algorithm: 6
Symmetric key bit length: 256
IV bit length:            128
Plaintext bit length:     136
Symmetric key:            0000000000000000000000000000000000000000000000000000000000000000
IV:                       47474747474747474747474747474747
Plaintext:                0000000000000000000000000000000000
Ciphertext:               70d7a3e421a0c9e542fcd90774204566c71d08b45c882614fba84eb8c04d61e2a5934b78ba2e11b7f519a06a8b41251789
Reciphers for ciphertext: 0
Decipheredtext:           0000000000000000000000000000000000
RESULT CIPHER-DECIPHER: -----OK-----


Test: 72
Hash algorithm: 3
Symmetric key bit length: 256
IV bit length:            128
Plaintext bit length:     136
Symmetric key:            0000000000000000000000000000000000000000000000000000000000000000
IV:                       48484848484848484848484848484848
Plaintext:                0000000000000000000000000000000000
Ciphertext:               dc93e2706c944df0c8a8c9572a43e2abcc210a43b171a69ab083a46cec71a4b9c1c3b99af61f6da0bdde9e9f752e9c8961f3ff2f3ef7133b9445a35350a1517c68
Reciphers for ciphertext: 0
Decipheredtext:           0000000000000000000000000000000000
RESULT CIPHER-DECIPHER: -----OK-----


Test: 73
Hash algorithm: 10
Symmetric key bit length: 256
IV bit length:            128
Plaintext bit length:     136
Symmetric key:            0000000000000000000000000000000000000000000000000000000000000000
IV:                       49494949494949494949494949494949
Plaintext:                0000000000000000000000000000000000
Ciphertext:               1e6a96370f414ff66e354bd59c41a752dfc23ab2e202db0d06c26786c228ac86d5f4c8d7562563147125d15c82d1d3e331acfb54a33b7c5888
Reciphers for ciphertext: 0
Decipheredtext:           0000000000000000000000000000000000
RESULT CIPHER-DECIPHER: -----OK-----


Test: 74
Hash algorithm: 12
Symmetric key bit length: 256
IV bit length:            128
Plaintext bit length:     136
Symmetric key:            0000000000000000000000000000000000000000000000000000000000000000
IV:                       4a4a4a4a4a4a4a4a4a4a4a4a4a4a4a4a
Plaintext:                0000000000000000000000000000000000
Ciphertext:               12c77870cb65d4fac90698532a11ec887a7d8cb7cb0c2a94bff9db990faecfadfa
Reciphers for ciphertext: 0
Decipheredtext:           0000000000000000000000000000000000
RESULT CIPHER-DECIPHER: -----OK-----


Test: 75
Hash algorithm: 2
Symmetric key bit length: 256
IV bit length:            128
Plaintext bit length:     136
Symmetric key:            0000000000000000000000000000000000000000000000000000000000000000
IV:                       4b4b4b4b4b4b4b4b4b4b4b4b4b4b4b4b
Plaintext:                0000000000000000000000000000000000
Ciphertext:               735115c36da4f9631a0f696e409f7b88ecdd27e33bc2d54d652b763da64682a0c2b1a7334604b6b8c28eeacc36ed0aca0a
Reciphers for ciphertext: 0
Decipheredtext:           0000000000000000000000000000000000
RESULT CIPHER-DECIPHER: -----OK-----


Test: 76
Hash algorithm: 13
Symmetric key bit length: 256
IV bit length:            128
Plaintext bit length:     136
Symmetric key:            0000000000000000000000000000000000000000000000000000000000000000
IV:                       4c4c4c4c4c4c4c4c4c4c4c4c4c4c4c4c
Plaintext:                0000000000000000000000000000000000
Ciphertext:               d0b17da9b4a7987ef22a8c1d80689188ed478527f9b0450ed0c8a7f8764143f937
Reciphers for ciphertext: 0
Decipheredtext:           0000000000000000000000000000000000
RESULT CIPHER-DECIPHER: -----OK-----


Test: 77
Hash algorithm: 10
Symmetric key bit length: 256
IV bit length:            128
Plaintext bit length:     136
Symmetric key:            0000000000000000000000000000000000000000000000000000000000000000
IV:                       4d4d4d4d4d4d4d4d4d4d4d4d4d4d4d4d
Plaintext:                0000000000000000000000000000000000
Ciphertext:               0afa7be9277c9b745b2a9eab613154f79f2a94d79641aa15b1dc22470332f877a3ed6f9490e774c059971c6ed81fee1b8c2c0e35bfdabe42c4
Reciphers for ciphertext: 0
Decipheredtext:           0000000000000000000000000000000000
RESULT CIPHER-DECIPHER: -----OK-----


Test: 78
Hash algorithm: 1
Symmetric key bit length: 256
IV bit length:            128
Plaintext bit length:     136
Symmetric key:            0000000000000000000000000000000000000000000000000000000000000000
IV:                       4e4e4e4e4e4e4e4e4e4e4e4e4e4e4e4e
Plaintext:                0000000000000000000000000000000000
Ciphertext:               64c27e43eb1addc280177e60e9d8729412e47d57ca70be3b8a39b8c53e5e3c635c0a84d63bf695fa60fcfa7b32
Reciphers for ciphertext: 0
Decipheredtext:           0000000000000000000000000000000000
RESULT CIPHER-DECIPHER: -----OK-----


Test: 79
Hash algorithm: 11
Symmetric key bit length: 256
IV bit length:            128
Plaintext bit length:     136
Symmetric key:            0000000000000000000000000000000000000000000000000000000000000000
IV:                       4f4f4f4f4f4f4f4f4f4f4f4f4f4f4f4f
Plaintext:                0000000000000000000000000000000000
Ciphertext:               73ff6165173758ed5cdb3ea22f827ade44f0ccfb4f23894c76c8cc4a14d2cdf4c4
Reciphers for ciphertext: 0
Decipheredtext:           0000000000000000000000000000000000
RESULT CIPHER-DECIPHER: -----OK-----


Test: 80
Hash algorithm: 6
Symmetric key bit length: 256
IV bit length:            128
Plaintext bit length:     136
Symmetric key:            0000000000000000000000000000000000000000000000000000000000000000
IV:                       50505050505050505050505050505050
Plaintext:                0000000000000000000000000000000000
Ciphertext:               763a3a954b4d02a9532543d6766584675b70176cfc791dbd6e5ca3837a51794942e783cc2b1e68353e12de9ef315472df1
Reciphers for ciphertext: 0
Decipheredtext:           0000000000000000000000000000000000
RESULT CIPHER-DECIPHER: -----OK-----


Test: 81
Hash algorithm: 5
Symmetric key bit length: 256
IV bit length:            128
Plaintext bit length:     136
Symmetric key:            0000000000000000000000000000000000000000000000000000000000000000
IV:                       51515151515151515151515151515151
Plaintext:                0000000000000000000000000000000000
Ciphertext:               0409c2b2990fa6627eb667447e74b14f9732e697778a9a3140455775225c4f74a7738233dce1ca7ef74a34bddc
Reciphers for ciphertext: 0
Decipheredtext:           0000000000000000000000000000000000
RESULT CIPHER-DECIPHER: -----OK-----


Test: 82
Hash algorithm: 3
Symmetric key bit length: 256
IV bit length:            128
Plaintext bit length:     136
Symmetric key:            0000000000000000000000000000000000000000000000000000000000000000
IV:                       52525252525252525252525252525252
Plaintext:                0000000000000000000000000000000000
Ciphertext:               787bdf3b2729f6d246b8387e3ca204f177c3c2b428d59fc386cde665a05c5dea7bf0de8dff5b04564ae51431cc3f815724d035a93dbbf9e78df5eea17cf560f349
Reciphers for ciphertext: 0
Decipheredtext:           0000000000000000000000000000000000
RESULT CIPHER-DECIPHER: -----OK-----


Test: 83
Hash algorithm: 13
Symmetric key bit length: 256
IV bit length:            128
Plaintext bit length:     136
Symmetric key:            0000000000000000000000000000000000000000000000000000000000000000
IV:                       53535353535353535353535353535353
Plaintext:                0000000000000000000000000000000000
Ciphertext:               f27cc0f54e2aa73cdec4a34b7b0fa23defa49735bd054a5ca09159d5dc6512bb4b
Reciphers for ciphertext: 0
Decipheredtext:           0000000000000000000000000000000000
RESULT CIPHER-DECIPHER: -----OK-----


Test: 84
Hash algorithm: 6
Symmetric key bit length: 256
IV bit length:            128
Plaintext bit length:     136
Symmetric key:            0000000000000000000000000000000000000000000000000000000000000000
IV:                       54545454545454545454545454545454
Plaintext:                0000000000000000000000000000000000
Ciphertext:               ac204fefbed04e740b47ec7a5d1f83939726094932b90e1967a261ec7673c30f708f075cff4c02db562f760adc7ee6e4e8
Reciphers for ciphertext: 0
Decipheredtext:           0000000000000000000000000000000000
RESULT CIPHER-DECIPHER: -----OK-----


Test: 85
Hash algorithm: 8
Symmetric key bit length: 256
IV bit length:            128
Plaintext bit length:     136
Symmetric key:            0000000000000000000000000000000000000000000000000000000000000000
IV:                       55555555555555555555555555555555
Plaintext:                0000000000000000000000000000000000
Ciphertext:               5ec2054d03ecbb38d8b5fafe715eaba3c4b48ffd99f754c54ade8c6861e4c84ed568aaaddd
Reciphers for ciphertext: 0
Decipheredtext:           0000000000000000000000000000000000
RESULT CIPHER-DECIPHER: -----OK-----


Test: 86
Hash algorithm: 2
Symmetric key bit length: 256
IV bit length:            128
Plaintext bit length:     136
Symmetric key:            0000000000000000000000000000000000000000000000000000000000000000
IV:                       56565656565656565656565656565656
Plaintext:                0000000000000000000000000000000000
Ciphertext:               d4fa5a7a48eeea60bc0f65c70fd808eadecab451cef730fe7da6c7d298935b681903e381d152da2234d65aa76a7c41b831
Reciphers for ciphertext: 0
Decipheredtext:           0000000000000000000000000000000000
RESULT CIPHER-DECIPHER: -----OK-----


Test: 87
Hash algorithm: 1
Symmetric key bit length: 256
IV bit length:            128
Plaintext bit length:     136
Symmetric key:            0000000000000000000000000000000000000000000000000000000000000000
IV:                       57575757575757575757575757575757
Plaintext:                0000000000000000000000000000000000
Ciphertext:               f2d77b829556537fb921b0d083b7ce129e0e786c9de77dc84020fe12099fa445e354078155b9ef214c4cb904b0
Reciphers for ciphertext: 0
Decipheredtext:           0000000000000000000000000000000000
RESULT CIPHER-DECIPHER: -----OK-----


Test: 88
Hash algorithm: 13
Symmetric key bit length: 256
IV bit length:            128
Plaintext bit length:     136
Symmetric key:            0000000000000000000000000000000000000000000000000000000000000000
IV:                       58585858585858585858585858585858
Plaintext:                0000000000000000000000000000000000
Ciphertext:               9d49853440953b11d331d3f42403408832fc954bace55cc32972beed914af3ffbc
Reciphers for ciphertext: 0
Decipheredtext:           0000000000000000000000000000000000
RESULT CIPHER-DECIPHER: -----OK-----


Test: 89
Hash algorithm: 2
Symmetric key bit length: 256
IV bit length:            128
Plaintext bit length:     136
Symmetric key:            0000000000000000000000000000000000000000000000000000000000000000
IV:                       59595959595959595959595959595959
Plaintext:                0000000000000000000000000000000000
Ciphertext:               bfa4b5d8908fb8b3f35d68f96d3fd70d52d2af9f69917f06117416af5b92c16518c0f20b2f0fa6ee5f90b06c59a9ad74bd
Reciphers for ciphertext: 0
Decipheredtext:           0000000000000000000000000000000000
RESULT CIPHER-DECIPHER: -----OK-----


Test: 90
Hash algorithm: 12
Symmetric key bit length: 256
IV bit length:            128
Plaintext bit length:     136
Symmetric key:            0000000000000000000000000000000000000000000000000000000000000000
IV:                       5a5a5a5a5a5a5a5a5a5a5a5a5a5a5a5a
Plaintext:                0000000000000000000000000000000000
Ciphertext:               1aea1d42fe7393f92ffff5f2bd6eccfb19c441a4d2187fc97dfd931a285b1cfc2d
Reciphers for ciphertext: 0
Decipheredtext:           0000000000000000000000000000000000
RESULT CIPHER-DECIPHER: -----OK-----


Test: 91
Hash algorithm: 1
Symmetric key bit length: 256
IV bit length:            128
Plaintext bit length:     136
Symmetric key:            0000000000000000000000000000000000000000000000000000000000000000
IV:                       5b5b5b5b5b5b5b5b5b5b5b5b5b5b5b5b
Plaintext:                0000000000000000000000000000000000
Ciphertext:               df35c361e66751bb72310fa2e010fe23ec88b51adaf5c0d486654d2045cdbef84aa1d75046c729c740a3b511d2
Reciphers for ciphertext: 0
Decipheredtext:           0000000000000000000000000000000000
RESULT CIPHER-DECIPHER: -----OK-----


Test: 92
Hash algorithm: 5
Symmetric key bit length: 256
IV bit length:            128
Plaintext bit length:     136
Symmetric key:            0000000000000000000000000000000000000000000000000000000000000000
IV:                       5c5c5c5c5c5c5c5c5c5c5c5c5c5c5c5c
Plaintext:                0000000000000000000000000000000000
Ciphertext:               abe33a6b3daf85d89a1007d2fa8ee9f59c8428317ff5ef3ebea757dea31bd2ee3452748e972685f473595ecf5e
Reciphers for ciphertext: 0
Decipheredtext:           0000000000000000000000000000000000
RESULT CIPHER-DECIPHER: -----OK-----


Test: 93
Hash algorithm: 8
Symmetric key bit length: 256
IV bit length:            128
Plaintext bit length:     136
Symmetric key:            0000000000000000000000000000000000000000000000000000000000000000
IV:                       5d5d5d5d5d5d5d5d5d5d5d5d5d5d5d5d
Plaintext:                0000000000000000000000000000000000
Ciphertext:               1c2a4674a199f28610455af2729340092515cb544434994ad95c58bbf17a44ba40e2ae314b
Reciphers for ciphertext: 0
Decipheredtext:           0000000000000000000000000000000000
RESULT CIPHER-DECIPHER: -----OK-----


Test: 94
Hash algorithm: 10
Symmetric key bit length: 256
IV bit length:            128
Plaintext bit length:     136
Symmetric key:            0000000000000000000000000000000000000000000000000000000000000000
IV:                       5e5e5e5e5e5e5e5e5e5e5e5e5e5e5e5e
Plaintext:                0000000000000000000000000000000000
Ciphertext:               6c2a545669f2e620d899d9db6f1d5c2ce732e6ae96f86b3e6c7890b9cd9b5fd33d6083730d4222f2641b9718557df1c631b683f24791c4cbf3
Reciphers for ciphertext: 0
Decipheredtext:           0000000000000000000000000000000000
RESULT CIPHER-DECIPHER: -----OK-----


Test: 95
Hash algorithm: 1
Symmetric key bit length: 256
IV bit length:            128
Plaintext bit length:     136
Symmetric key:            0000000000000000000000000000000000000000000000000000000000000000
IV:                       5f5f5f5f5f5f5f5f5f5f5f5f5f5f5f5f
Plaintext:                0000000000000000000000000000000000
Ciphertext:               7fde8f81caf0d00732ebbb77a26d2c89b103b7699a5718da584604d8304e741b827336df887168c80cfeab6589
Reciphers for ciphertext: 0
Decipheredtext:           0000000000000000000000000000000000
RESULT CIPHER-DECIPHER: -----OK-----


Test: 96
Hash algorithm: 5
Symmetric key bit length: 256
IV bit length:            128
Plaintext bit length:     136
Symmetric key:            0000000000000000000000000000000000000000000000000000000000000000
IV:                       60606060606060606060606060606060
Plaintext:                0000000000000000000000000000000000
Ciphertext:               408aea5d7bda58596a75af32548478858e17f246d98ec6a5a60ee28abc0f9037031d18da18342057f5017ca9ed
Reciphers for ciphertext: 0
Decipheredtext:           0000000000000000000000000000000000
RESULT CIPHER-DECIPHER: -----OK-----


Test: 97
Hash algorithm: 4
Symmetric key bit length: 256
IV bit length:            128
Plaintext bit length:     136
Symmetric key:            0000000000000000000000000000000000000000000000000000000000000000
IV:                       61616161616161616161616161616161
Plaintext:                0000000000000000000000000000000000
Ciphertext:               964393408b85861786c342579c461dad3e5d1babd9c185f999e9817c3a215064b2f7f0735079b55d089a5f89c813630e027e08b9c51c0bead3d6e141889a07e2511cfef9ef4f025af9aeea040d34eeba65
Reciphers for ciphertext: 0
Decipheredtext:           0000000000000000000000000000000000
RESULT CIPHER-DECIPHER: -----OK-----


Test: 98
Hash algorithm: 11
Symmetric key bit length: 256
IV bit length:            128
Plaintext bit length:     136
Symmetric key:            0000000000000000000000000000000000000000000000000000000000000000
IV:                       62626262626262626262626262626262
Plaintext:                0000000000000000000000000000000000
Ciphertext:               b5ab328e93b3cd784de875c542241ab13ed1f6844408b45a5412bff469291f2b1e
Reciphers for ciphertext: 0
Decipheredtext:           0000000000000000000000000000000000
RESULT CIPHER-DECIPHER: -----OK-----


Test: 99
Hash algorithm: 10
Symmetric key bit length: 256
IV bit length:            128
Plaintext bit length:     136
Symmetric key:            0000000000000000000000000000000000000000000000000000000000000000
IV:                       63636363636363636363636363636363
Plaintext:                0000000000000000000000000000000000
Ciphertext:               de51058071362b58f6db5c45bf041e38830d5b1e61d8c38156bdb5ea0cfae17c36a86116b356fded8179acfb01842d710a9ad5c7d79176dbd0
Reciphers for ciphertext: 0
Decipheredtext:           0000000000000000000000000000000000
RESULT CIPHER-DECIPHER: -----OK-----


Test: 100
Hash algorithm: 5
Symmetric key bit length: 256
IV bit length:            128
Plaintext bit length:     136
Symmetric key:            0000000000000000000000000000000000000000000000000000000000000000
IV:                       64646464646464646464646464646464
Plaintext:                0000000000000000000000000000000000
Ciphertext:               70feee714e0c66f44ef9b12de342fd5f98faf9217be06b1d642ff3cf1ef23ac708acd91f0c96718d7ac177adae
Reciphers for ciphertext: 0
Decipheredtext:           0000000000000000000000000000000000
RESULT CIPHER-DECIPHER: -----OK-----


Test: 101
Hash algorithm: 4
Symmetric key bit length: 256
IV bit length:            128
Plaintext bit length:     136
Symmetric key:            0000000000000000000000000000000000000000000000000000000000000000
IV:                       65656565656565656565656565656565
Plaintext:                0000000000000000000000000000000000
Ciphertext:               ad2b2966b7d03357eb44e95d15e607de94d078534806140f9ee9d8e888bda6b33aed8fb2e9a4e33f0c2e9c4682b6dbfb4bd9114be5f8c7092c1968c7e34f4bfbcbb9257ac6a1356d5b389ea82fe6a2ec5e
Reciphers for ciphertext: 0
Decipheredtext:           0000000000000000000000000000000000
RESULT CIPHER-DECIPHER: -----OK-----


Test: 102
Hash algorithm: 5
Symmetric key bit length: 256
IV bit length:            128
Plaintext bit length:     136
Symmetric key:            0000000000000000000000000000000000000000000000000000000000000000
IV:                       66666666666666666666666666666666
Plaintext:                0000000000000000000000000000000000
Ciphertext:               a70ebbc4188754fdfccc6ecf42cebac1a6518bbfe7b5349f87c75d817f19a6259c0c5413478b5b8c58abb7b130
Reciphers for ciphertext: 0
Decipheredtext:           0000000000000000000000000000000000
RESULT CIPHER-DECIPHER: -----OK-----


Test: 103
Hash algorithm: 0
Symmetric key bit length: 256
IV bit length:            128
Plaintext bit length:     136
Symmetric key:            0000000000000000000000000000000000000000000000000000000000000000
IV:                       67676767676767676767676767676767
Plaintext:                0000000000000000000000000000000000
Ciphertext:               ced8bbe0827e903e733ff9326613b95b5ea96f739efceb8278df480ee0cb29800259d62701
Reciphers for ciphertext: 0
Decipheredtext:           0000000000000000000000000000000000
RESULT CIPHER-DECIPHER: -----OK-----


Test: 104
Hash algorithm: 8
Symmetric key bit length: 256
IV bit length:            128
Plaintext bit length:     136
Symmetric key:            0000000000000000000000000000000000000000000000000000000000000000
IV:                       68686868686868686868686868686868
Plaintext:                0000000000000000000000000000000000
Ciphertext:               99195ac42098ebc2e0f15df2e7f4ec0e1b9e5158e644e164f1813bdc2a9467387fb4191abe
Reciphers for ciphertext: 0
Decipheredtext:           0000000000000000000000000000000000
RESULT CIPHER-DECIPHER: -----OK-----


Test: 105
Hash algorithm: 6
Symmetric key bit length: 256
IV bit length:            128
Plaintext bit length:     136
Symmetric key:            0000000000000000000000000000000000000000000000000000000000000000
IV:                       69696969696969696969696969696969
Plaintext:                0000000000000000000000000000000000
Ciphertext:               ea7c53f12622911f9aeca544aef2d8ff6235cc449df728518ae98bb42d4f1dcf55a5fce5393f20f54a71084d6b270bc0b8
Reciphers for ciphertext: 0
Decipheredtext:           0000000000000000000000000000000000
RESULT CIPHER-DECIPHER: -----OK-----


Test: 106
Hash algorithm: 11
Symmetric key bit length: 256
IV bit length:            128
Plaintext bit length:     136
Symmetric key:            0000000000000000000000000000000000000000000000000000000000000000
IV:                       6a6a6a6a6a6a6a6a6a6a6a6a6a6a6a6a
Plaintext:                0000000000000000000000000000000000
Ciphertext:               61b4ed7ebb2523452c83391849b171eb065ffcbb564361caed5afef36805e11150
Reciphers for ciphertext: 0
Decipheredtext:           0000000000000000000000000000000000
RESULT CIPHER-DECIPHER: -----OK-----


Test: 107
Hash algorithm: 11
Symmetric key bit length: 256
IV bit length:            128
Plaintext bit length:     136
Symmetric key:            0000000000000000000000000000000000000000000000000000000000000000
IV:                       6b6b6b6b6b6b6b6b6b6b6b6b6b6b6b6b
Plaintext:                0000000000000000000000000000000000
Ciphertext:               9c1d4a88db3390e623fe08955171b593934b1e94d141d1943d1acddc92aefd83da
Reciphers for ciphertext: 0
Decipheredtext:           0000000000000000000000000000000000
RESULT CIPHER-DECIPHER: -----OK-----


Test: 108
Hash algorithm: 11
Symmetric key bit length: 256
IV bit length:            128
Plaintext bit length:     136
Symmetric key:            0000000000000000000000000000000000000000000000000000000000000000
IV:                       6c6c6c6c6c6c6c6c6c6c6c6c6c6c6c6c
Plaintext:                0000000000000000000000000000000000
Ciphertext:               da9674db8ee60ac301b6b3a843a4857977188625e403b7d820ade53e02b4ee0928
Reciphers for ciphertext: 0
Decipheredtext:           0000000000000000000000000000000000
RESULT CIPHER-DECIPHER: -----OK-----


Test: 109
Hash algorithm: 4
Symmetric key bit length: 256
IV bit length:            128
Plaintext bit length:     136
Symmetric key:            0000000000000000000000000000000000000000000000000000000000000000
IV:                       6d6d6d6d6d6d6d6d6d6d6d6d6d6d6d6d
Plaintext:                0000000000000000000000000000000000
Ciphertext:               4b39cd2e68aa1a3c78a4a665c5a282ff7152c63d094b9caa363d06272c7d35f297400941e8516e02b65b6888c132e0061963053fa49901142612e67ef63666bdc87957bc1176fb369921b32abf200016b8
Reciphers for ciphertext: 0
Decipheredtext:           0000000000000000000000000000000000
RESULT CIPHER-DECIPHER: -----OK-----


Test: 110
Hash algorithm: 8
Symmetric key bit length: 256
IV bit length:            128
Plaintext bit length:     136
Symmetric key:            0000000000000000000000000000000000000000000000000000000000000000
IV:                       6e6e6e6e6e6e6e6e6e6e6e6e6e6e6e6e
Plaintext:                0000000000000000000000000000000000
Ciphertext:               ad0e7b4efca98add8e8d13c9ccff437633ff670d9501dfae546264fd728de9edcb28d0a975
Reciphers for ciphertext: 0
Decipheredtext:           0000000000000000000000000000000000
RESULT CIPHER-DECIPHER: -----OK-----


Test: 111
Hash algorithm: 2
Symmetric key bit length: 256
IV bit length:            128
Plaintext bit length:     136
Symmetric key:            0000000000000000000000000000000000000000000000000000000000000000
IV:                       6f6f6f6f6f6f6f6f6f6f6f6f6f6f6f6f
Plaintext:                0000000000000000000000000000000000
Ciphertext:               09785a2431ac3b964bab6c376eafcdf941df73770687bbaed9c8220553edb55ee73fdff2d60d410c46fcc8c566000587c4
Reciphers for ciphertext: 0
Decipheredtext:           0000000000000000000000000000000000
RESULT CIPHER-DECIPHER: -----OK-----


Test: 112
Hash algorithm: 0
Symmetric key bit length: 256
IV bit length:            128
Plaintext bit length:     136
Symmetric key:            0000000000000000000000000000000000000000000000000000000000000000
IV:                       70707070707070707070707070707070
Plaintext:                0000000000000000000000000000000000
Ciphertext:               a3f6322c0694264b666fa6471ebfcb386d6d6bbd734a59a3fb485b98507e28c4930cff9e90
Reciphers for ciphertext: 0
Decipheredtext:           0000000000000000000000000000000000
RESULT CIPHER-DECIPHER: -----OK-----


Test: 113
Hash algorithm: 6
Symmetric key bit length: 256
IV bit length:            128
Plaintext bit length:     136
Symmetric key:            0000000000000000000000000000000000000000000000000000000000000000
IV:                       71717171717171717171717171717171
Plaintext:                0000000000000000000000000000000000
Ciphertext:               6563248378d7e09a14ce19d7a67faf8103083833b84e97beff8494081c8c6f98ddf4c54eacad5e2aaa60f576392156b8ce
Reciphers for ciphertext: 0
Decipheredtext:           0000000000000000000000000000000000
RESULT CIPHER-DECIPHER: -----OK-----


Test: 114
Hash algorithm: 6
Symmetric key bit length: 256
IV bit length:            128
Plaintext bit length:     136
Symmetric key:            0000000000000000000000000000000000000000000000000000000000000000
IV:                       72727272727272727272727272727272
Plaintext:                0000000000000000000000000000000000
Ciphertext:               6b48122ba5fe298c16211c3e4988cc7c835d4a1e0a835670167eb195f326a311c43e1d18254d9ffa178515fa1638063dcf
Reciphers for ciphertext: 0
Decipheredtext:           0000000000000000000000000000000000
RESULT CIPHER-DECIPHER: -----OK-----


Test: 115
Hash algorithm: 9
Symmetric key bit length: 256
IV bit length:            128
Plaintext bit length:     136
Symmetric key:            0000000000000000000000000000000000000000000000000000000000000000
IV:                       73737373737373737373737373737373
Plaintext:                0000000000000000000000000000000000
Ciphertext:               ba6c4bf3d279c07d701f5cfd2ce71530c72c4d00a20472baa6769f8513c4cf17fd5c8a6d1961148a6e80813e0333fad5fe
Reciphers for ciphertext: 0
Decipheredtext:           0000000000000000000000000000000000
RESULT CIPHER-DECIPHER: -----OK-----


Test: 116
Hash algorithm: 0
Symmetric key bit length: 256
IV bit length:            128
Plaintext bit length:     136
Symmetric key:            0000000000000000000000000000000000000000000000000000000000000000
IV:                       74747474747474747474747474747474
Plaintext:                0000000000000000000000000000000000
Ciphertext:               1ca95a4872a83fe7bf38095f2d0a3183071ef887dda846cfab1ee9a40ff2f419344500b0aa
Reciphers for ciphertext: 0
Decipheredtext:           0000000000000000000000000000000000
RESULT CIPHER-DECIPHER: -----OK-----


Test: 117
Hash algorithm: 0
Symmetric key bit length: 256
IV bit length:            128
Plaintext bit length:     136
Symmetric key:            0000000000000000000000000000000000000000000000000000000000000000
IV:                       75757575757575757575757575757575
Plaintext:                0000000000000000000000000000000000
Ciphertext:               4973b84201e150a1a5036bd1282b1fa902da3a0bde71d018100c11656cf2c0d3a3506a778a
Reciphers for ciphertext: 0
Decipheredtext:           0000000000000000000000000000000000
RESULT CIPHER-DECIPHER: -----OK-----


Test: 118
Hash algorithm: 10
Symmetric key bit length: 256
IV bit length:            128
Plaintext bit length:     136
Symmetric key:            0000000000000000000000000000000000000000000000000000000000000000
IV:                       76767676767676767676767676767676
Plaintext:                0000000000000000000000000000000000
Ciphertext:               e590629cceff935f3ba172247bef3b1c264805f71cfacc78f0629796d79008be4c5b2c664df234f6f25d67e96cc42995ae6625bb3b8daa587e
Reciphers for ciphertext: 0
Decipheredtext:           0000000000000000000000000000000000
RESULT CIPHER-DECIPHER: -----OK-----


Test: 119
Hash algorithm: 7
Symmetric key bit length: 256
IV bit length:            128
Plaintext bit length:     136
Symmetric key:            0000000000000000000000000000000000000000000000000000000000000000
IV:                       77777777777777777777777777777777
Plaintext:                0000000000000000000000000000000000
Ciphertext:               87dcfc79aceabef2590f517dd65c6461d5d14fc16cd23214d3715c8114782b0ad7
Reciphers for ciphertext: 0
Decipheredtext:           0000000000000000000000000000000000
RESULT CIPHER-DECIPHER: -----OK-----


Test: 120
Hash algorithm: 2
Symmetric key bit length: 256
IV bit length:            128
Plaintext bit length:     136
Symmetric key:            0000000000000000000000000000000000000000000000000000000000000000
IV:                       78787878787878787878787878787878
Plaintext:                0000000000000000000000000000000000
Ciphertext:               e7678b82367f97988ab0d980b1808a95b2a72ccc631f15047972af0e5ebc56190519223de465ea35749d59eb2c2a21e3bb
Reciphers for ciphertext: 0
Decipheredtext:           0000000000000000000000000000000000
RESULT CIPHER-DECIPHER: -----OK-----


Test: 121
Hash algorithm: 13
Symmetric key bit length: 256
IV bit length:            128
Plaintext bit length:     136
Symmetric key:            0000000000000000000000000000000000000000000000000000000000000000
IV:                       79797979797979797979797979797979
Plaintext:                0000000000000000000000000000000000
Ciphertext:               c9ab1ab3b4121761e0abe1c4d1bbf543d6b20858ba8d008b1cc7208a62ef968693
Reciphers for ciphertext: 0
Decipheredtext:           0000000000000000000000000000000000
RESULT CIPHER-DECIPHER: -----OK-----


Test: 122
Hash algorithm: 4
Symmetric key bit length: 256
IV bit length:            128
Plaintext bit length:     136
Symmetric key:            0000000000000000000000000000000000000000000000000000000000000000
IV:                       7a7a7a7a7a7a7a7a7a7a7a7a7a7a7a7a
Plaintext:                0000000000000000000000000000000000
Ciphertext:               d19eec03213d74a11aa3b1f2f33bc3380fbc51c1792d1b1ea47a3180af7f7fe07ffc870ded2e4b3bc008f99dd95a6d3ebe343722616ca383fb67e3d15be0f9e3f411a35fc4e91640f7019982c328ceea22
Reciphers for ciphertext: 0
Decipheredtext:           0000000000000000000000000000000000
RESULT CIPHER-DECIPHER: -----OK-----


Test: 123
Hash algorithm: 9
Symmetric key bit length: 256
IV bit length:            128
Plaintext bit length:     136
Symmetric key:            0000000000000000000000000000000000000000000000000000000000000000
IV:                       7b7b7b7b7b7b7b7b7b7b7b7b7b7b7b7b
Plaintext:                0000000000000000000000000000000000
Ciphertext:               977cb58865c68060f62ea7ba29a81fba6c3bef3483ba84b71361ee8388c4f70b201cb776700c7543a244a60e6c5c629a36
Reciphers for ciphertext: 0
Decipheredtext:           0000000000000000000000000000000000
RESULT CIPHER-DECIPHER: -----OK-----


Test: 124
Hash algorithm: 4
Symmetric key bit length: 256
IV bit length:            128
Plaintext bit length:     136
Symmetric key:            0000000000000000000000000000000000000000000000000000000000000000
IV:                       7c7c7c7c7c7c7c7c7c7c7c7c7c7c7c7c
Plaintext:                0000000000000000000000000000000000
Ciphertext:               aff6edfa145ccc3f0e6305e9a94e8ffd92ee36586f6c34c90b7624369b45a4a4982ded617cc4d609657d774df3cd76a388d363e2cc622764bd10baf9bc7961e25184b9b2cdf26e93e018334fcdbd14735c
Reciphers for ciphertext: 0
Decipheredtext:           0000000000000000000000000000000000
RESULT CIPHER-DECIPHER: -----OK-----


Test: 125
Hash algorithm: 13
Symmetric key bit length: 256
IV bit length:            128
Plaintext bit length:     136
Symmetric key:            0000000000000000000000000000000000000000000000000000000000000000
IV:                       7d7d7d7d7d7d7d7d7d7d7d7d7d7d7d7d
Plaintext:                0000000000000000000000000000000000
Ciphertext:               5e20a278f318f624f6a7c94ec133c0780ee7cd4d85b0c4722e06e2096d8cb37dca
Reciphers for ciphertext: 0
Decipheredtext:           0000000000000000000000000000000000
RESULT CIPHER-DECIPHER: -----OK-----


Test: 126
Hash algorithm: 6
Symmetric key bit length: 256
IV bit length:            128
Plaintext bit length:     136
Symmetric key:            0000000000000000000000000000000000000000000000000000000000000000
IV:                       7e7e7e7e7e7e7e7e7e7e7e7e7e7e7e7e
Plaintext:                0000000000000000000000000000000000
Ciphertext:               2c723be4b8ac585d26f364157eb73616e0757b20e0f3058cb4890ec146cdcafad0598f9b1abd48ce065b2995cdf3a4a0be
Reciphers for ciphertext: 0
Decipheredtext:           0000000000000000000000000000000000
RESULT CIPHER-DECIPHER: -----OK-----


Test: 127
Hash algorithm: 2
Symmetric key bit length: 256
IV bit length:            128
Plaintext bit length:     136
Symmetric key:            0000000000000000000000000000000000000000000000000000000000000000
IV:                       7f7f7f7f7f7f7f7f7f7f7f7f7f7f7f7f
Plaintext:                0000000000000000000000000000000000
Ciphertext:               4ff2c502901abbfe898968645fd636f75dafce10d56210241c10ff97c7af56f5fedb8cc3a3c765532b3dde8ec69c7f552a
Reciphers for ciphertext: 0
Decipheredtext:           0000000000000000000000000000000000
RESULT CIPHER-DECIPHER: -----OK-----


 DATA SHA1 (hexadecimal): 21442cd1b29ba6c4653e4208fb285baae8482c45

