
DiceLock 9.0.0.1

 TEST COMPONENTS:
 ----------------
 DiceLock:           DiceLockIVDigested class
 Base Stream Cipher: Sosemanuk128 class
 Hash algorithms:     0 - Sha1 class
                      1 - Sha224 class
                      2 - Sha256 class
                      3 - Sha384 class
                      4 - Sha512 class
                      5 - Sha512_224 class
                      6 - Sha512_256 class
                      7 - Ripemd128 class
                      8 - Ripemd160 class
                      9 - Ripemd256 class
                     10 - Ripemd320 class
                     11 - MD2 class
                     12 - MD4 class
                     13 - MD5 class
 Key Modifier:       DecreaseKeyModifier_6_0_0_1 class
 Random tests:       RandomTestSuite class
                     FrequencyTest class
                     BlockFrequencyTest class
                     CumulativeSumForwardTest class
                     LongestRunOfOnesTest class
                     RunsTest class
 Random alpha:       0.001

 VECTOR TEST: Test vector 7 - Symmetric key all byte value 0xXX, IV all byte value 0xYY and plaintext all byte value 0xZZ


##### INDIVIDUAL TESTS #####

Number tests: 128


Test: 0
Hash algorithm: 10
Symmetric key bit length: 128
IV bit length:            128
Plaintext bit length:     128
Symmetric key:            00000000000000000000000000000000
IV:                       ffffffffffffffffffffffffffffffff
Plaintext:                ffffffffffffffffffffffffffffffff
Ciphertext:               794aaab60c586951aa086da6f4598eaaf034a443b4d516cd0b1bde12219818a26e8c3532664ab8e3bb3f3fa97e4997819640d5d136467495
Reciphers for ciphertext: 0
Decipheredtext:           ffffffffffffffffffffffffffffffff
RESULT CIPHER-DECIPHER: -----OK-----


Test: 1
Hash algorithm: 12
Symmetric key bit length: 128
IV bit length:            128
Plaintext bit length:     128
Symmetric key:            01010101010101010101010101010101
IV:                       fefefefefefefefefefefefefefefefe
Plaintext:                fefefefefefefefefefefefefefefefe
Ciphertext:               cd95adf6ec3392be1608bab1113e14608d49d67464e522cf078ad5b29627b062
Reciphers for ciphertext: 0
Decipheredtext:           fefefefefefefefefefefefefefefefe
RESULT CIPHER-DECIPHER: -----OK-----


Test: 2
Hash algorithm: 12
Symmetric key bit length: 128
IV bit length:            128
Plaintext bit length:     128
Symmetric key:            02020202020202020202020202020202
IV:                       fdfdfdfdfdfdfdfdfdfdfdfdfdfdfdfd
Plaintext:                fdfdfdfdfdfdfdfdfdfdfdfdfdfdfdfd
Ciphertext:               e9c48b936e20a6c818bd581f7a348c34560e1e02a79963e7875c08e2412628e1
Reciphers for ciphertext: 0
Decipheredtext:           fdfdfdfdfdfdfdfdfdfdfdfdfdfdfdfd
RESULT CIPHER-DECIPHER: -----OK-----


Test: 3
Hash algorithm: 5
Symmetric key bit length: 128
IV bit length:            128
Plaintext bit length:     128
Symmetric key:            03030303030303030303030303030303
IV:                       fcfcfcfcfcfcfcfcfcfcfcfcfcfcfcfc
Plaintext:                fcfcfcfcfcfcfcfcfcfcfcfcfcfcfcfc
Ciphertext:               968a49e5c20f072ac4dbd74a4c23da874f9ca514ad75e23d61e56b7f1a4701f887d3a73d3edce44632a60b6a
Reciphers for ciphertext: 0
Decipheredtext:           fcfcfcfcfcfcfcfcfcfcfcfcfcfcfcfc
RESULT CIPHER-DECIPHER: -----OK-----


Test: 4
Hash algorithm: 2
Symmetric key bit length: 128
IV bit length:            128
Plaintext bit length:     128
Symmetric key:            04040404040404040404040404040404
IV:                       fbfbfbfbfbfbfbfbfbfbfbfbfbfbfbfb
Plaintext:                fbfbfbfbfbfbfbfbfbfbfbfbfbfbfbfb
Ciphertext:               7919ad2d4dcfb063ac2aea06d6682acb0b73f4c92868bcd9c8ee53312428a4ce1032a7eba7a7174f3445bb8ec1150058
Reciphers for ciphertext: 0
Decipheredtext:           fbfbfbfbfbfbfbfbfbfbfbfbfbfbfbfb
RESULT CIPHER-DECIPHER: -----OK-----


Test: 5
Hash algorithm: 6
Symmetric key bit length: 128
IV bit length:            128
Plaintext bit length:     128
Symmetric key:            05050505050505050505050505050505
IV:                       fafafafafafafafafafafafafafafafa
Plaintext:                fafafafafafafafafafafafafafafafa
Ciphertext:               dbc7ea2b316a6967cdb4a2dd80d29d11b154ad8a5fd5608fa6408546e6a9ff92a1de1b9aa2df34e9d5a2de6afc3c0857
Reciphers for ciphertext: 0
Decipheredtext:           fafafafafafafafafafafafafafafafa
RESULT CIPHER-DECIPHER: -----OK-----


Test: 6
Hash algorithm: 13
Symmetric key bit length: 128
IV bit length:            128
Plaintext bit length:     128
Symmetric key:            06060606060606060606060606060606
IV:                       f9f9f9f9f9f9f9f9f9f9f9f9f9f9f9f9
Plaintext:                f9f9f9f9f9f9f9f9f9f9f9f9f9f9f9f9
Ciphertext:               71c350301549dc07b234ffa4b8dce1a34c1554f451d9d83fa5454f61626422e7
Reciphers for ciphertext: 0
Decipheredtext:           f9f9f9f9f9f9f9f9f9f9f9f9f9f9f9f9
RESULT CIPHER-DECIPHER: -----OK-----


Test: 7
Hash algorithm: 1
Symmetric key bit length: 128
IV bit length:            128
Plaintext bit length:     128
Symmetric key:            07070707070707070707070707070707
IV:                       f8f8f8f8f8f8f8f8f8f8f8f8f8f8f8f8
Plaintext:                f8f8f8f8f8f8f8f8f8f8f8f8f8f8f8f8
Ciphertext:               7babc32ea3baca2f4f070e7afc8c09c69568abb495f2869422ab3a35f15d3abb0dea1eccede078b23242cf28
Reciphers for ciphertext: 0
Decipheredtext:           f8f8f8f8f8f8f8f8f8f8f8f8f8f8f8f8
RESULT CIPHER-DECIPHER: -----OK-----


Test: 8
Hash algorithm: 9
Symmetric key bit length: 128
IV bit length:            128
Plaintext bit length:     128
Symmetric key:            08080808080808080808080808080808
IV:                       f7f7f7f7f7f7f7f7f7f7f7f7f7f7f7f7
Plaintext:                f7f7f7f7f7f7f7f7f7f7f7f7f7f7f7f7
Ciphertext:               f46ca94b3231678160a5b6f6b0bd74f55324928d08fe858ab8e977aff40a61bc7d64450ee0719b6ca563bf68ebd8b41f
Reciphers for ciphertext: 0
Decipheredtext:           f7f7f7f7f7f7f7f7f7f7f7f7f7f7f7f7
RESULT CIPHER-DECIPHER: -----OK-----


Test: 9
Hash algorithm: 13
Symmetric key bit length: 128
IV bit length:            128
Plaintext bit length:     128
Symmetric key:            09090909090909090909090909090909
IV:                       f6f6f6f6f6f6f6f6f6f6f6f6f6f6f6f6
Plaintext:                f6f6f6f6f6f6f6f6f6f6f6f6f6f6f6f6
Ciphertext:               f5f31f941d56c122aea50ed5c5b19273e0301e12a7adfb9c1dd710a399760937
Reciphers for ciphertext: 0
Decipheredtext:           f6f6f6f6f6f6f6f6f6f6f6f6f6f6f6f6
RESULT CIPHER-DECIPHER: -----OK-----


Test: 10
Hash algorithm: 11
Symmetric key bit length: 128
IV bit length:            128
Plaintext bit length:     128
Symmetric key:            0a0a0a0a0a0a0a0a0a0a0a0a0a0a0a0a
IV:                       f5f5f5f5f5f5f5f5f5f5f5f5f5f5f5f5
Plaintext:                f5f5f5f5f5f5f5f5f5f5f5f5f5f5f5f5
Ciphertext:               c1322dff01e2a921b4a67b1813590bc0b7be6128ba12e7b9924e3c120a48381e
Reciphers for ciphertext: 0
Decipheredtext:           f5f5f5f5f5f5f5f5f5f5f5f5f5f5f5f5
RESULT CIPHER-DECIPHER: -----OK-----


Test: 11
Hash algorithm: 13
Symmetric key bit length: 128
IV bit length:            128
Plaintext bit length:     128
Symmetric key:            0b0b0b0b0b0b0b0b0b0b0b0b0b0b0b0b
IV:                       f4f4f4f4f4f4f4f4f4f4f4f4f4f4f4f4
Plaintext:                f4f4f4f4f4f4f4f4f4f4f4f4f4f4f4f4
Ciphertext:               095664eba172b39dbe11576f2a65ad6cf85b0d1957ade8e2d4c67da6d75eba7a
Reciphers for ciphertext: 0
Decipheredtext:           f4f4f4f4f4f4f4f4f4f4f4f4f4f4f4f4
RESULT CIPHER-DECIPHER: -----OK-----


Test: 12
Hash algorithm: 12
Symmetric key bit length: 128
IV bit length:            128
Plaintext bit length:     128
Symmetric key:            0c0c0c0c0c0c0c0c0c0c0c0c0c0c0c0c
IV:                       f3f3f3f3f3f3f3f3f3f3f3f3f3f3f3f3
Plaintext:                f3f3f3f3f3f3f3f3f3f3f3f3f3f3f3f3
Ciphertext:               0eb7223afc4a2294e41f25c700324b4c06c9dbc8f8ea04296ac0b99010d04900
Reciphers for ciphertext: 0
Decipheredtext:           f3f3f3f3f3f3f3f3f3f3f3f3f3f3f3f3
RESULT CIPHER-DECIPHER: -----OK-----


Test: 13
Hash algorithm: 2
Symmetric key bit length: 128
IV bit length:            128
Plaintext bit length:     128
Symmetric key:            0d0d0d0d0d0d0d0d0d0d0d0d0d0d0d0d
IV:                       f2f2f2f2f2f2f2f2f2f2f2f2f2f2f2f2
Plaintext:                f2f2f2f2f2f2f2f2f2f2f2f2f2f2f2f2
Ciphertext:               cf40eee9734dc1aafffe6cac117fe17f02ac684a0adea1c09aaee102c37d3136f10eab02bb5cebeba762c89984034f53
Reciphers for ciphertext: 0
Decipheredtext:           f2f2f2f2f2f2f2f2f2f2f2f2f2f2f2f2
RESULT CIPHER-DECIPHER: -----OK-----


Test: 14
Hash algorithm: 0
Symmetric key bit length: 128
IV bit length:            128
Plaintext bit length:     128
Symmetric key:            0e0e0e0e0e0e0e0e0e0e0e0e0e0e0e0e
IV:                       f1f1f1f1f1f1f1f1f1f1f1f1f1f1f1f1
Plaintext:                f1f1f1f1f1f1f1f1f1f1f1f1f1f1f1f1
Ciphertext:               27143476cbaac90eee45ce3f418c0c82550a77f740aae523916491bd494a0ca7e81b2450
Reciphers for ciphertext: 0
Decipheredtext:           f1f1f1f1f1f1f1f1f1f1f1f1f1f1f1f1
RESULT CIPHER-DECIPHER: -----OK-----


Test: 15
Hash algorithm: 2
Symmetric key bit length: 128
IV bit length:            128
Plaintext bit length:     128
Symmetric key:            0f0f0f0f0f0f0f0f0f0f0f0f0f0f0f0f
IV:                       f0f0f0f0f0f0f0f0f0f0f0f0f0f0f0f0
Plaintext:                f0f0f0f0f0f0f0f0f0f0f0f0f0f0f0f0
Ciphertext:               c32a35ec675e013d76e2ae6b0c9cdd6f224d8ad23f5d108f32071afe62101d87fddf0ffc3b4fc7113c350b4ac0b0d9b6
Reciphers for ciphertext: 0
Decipheredtext:           f0f0f0f0f0f0f0f0f0f0f0f0f0f0f0f0
RESULT CIPHER-DECIPHER: -----OK-----


Test: 16
Hash algorithm: 3
Symmetric key bit length: 128
IV bit length:            128
Plaintext bit length:     128
Symmetric key:            10101010101010101010101010101010
IV:                       efefefefefefefefefefefefefefefef
Plaintext:                efefefefefefefefefefefefefefefef
Ciphertext:               c72f48c68ceb189b5c959c4bd1d13452f03da1754a5b8a91a274e5ff1f9f18e7e4f28f478c225c85efd1e3573c1a3cd6740470ba317d74a9e81328bc6056fb36
Reciphers for ciphertext: 0
Decipheredtext:           efefefefefefefefefefefefefefefef
RESULT CIPHER-DECIPHER: -----OK-----


Test: 17
Hash algorithm: 3
Symmetric key bit length: 128
IV bit length:            128
Plaintext bit length:     128
Symmetric key:            11111111111111111111111111111111
IV:                       eeeeeeeeeeeeeeeeeeeeeeeeeeeeeeee
Plaintext:                eeeeeeeeeeeeeeeeeeeeeeeeeeeeeeee
Ciphertext:               2f4acd0b8684a85a553710b16ea75e18223babbca595401bcf3eff1656ca8eb9ac013d0be2a8b0eb14520658f65cd99e4d363a3a8ef744f400a41f2acc573038
Reciphers for ciphertext: 0
Decipheredtext:           eeeeeeeeeeeeeeeeeeeeeeeeeeeeeeee
RESULT CIPHER-DECIPHER: -----OK-----


Test: 18
Hash algorithm: 4
Symmetric key bit length: 128
IV bit length:            128
Plaintext bit length:     128
Symmetric key:            12121212121212121212121212121212
IV:                       edededededededededededededededed
Plaintext:                edededededededededededededededed
Ciphertext:               68ccd74265a2b2aed8a873c6087d234bf3bc8ea834636b61620db4954c2f1d263738acb6a4ecec556dd3f930e91cee3633d10de8e82d6ed414c2686ce1718a549d69dd5a8a93e2ae25392fb1ccd8d58d
Reciphers for ciphertext: 0
Decipheredtext:           edededededededededededededededed
RESULT CIPHER-DECIPHER: -----OK-----


Test: 19
Hash algorithm: 13
Symmetric key bit length: 128
IV bit length:            128
Plaintext bit length:     128
Symmetric key:            13131313131313131313131313131313
IV:                       ecececececececececececececececec
Plaintext:                ecececececececececececececececec
Ciphertext:               53340feeaa57205d00a771a5b79e192f019b7215ea30969b6bf6d6a78b37e8eb
Reciphers for ciphertext: 0
Decipheredtext:           ecececececececececececececececec
RESULT CIPHER-DECIPHER: -----OK-----


Test: 20
Hash algorithm: 6
Symmetric key bit length: 128
IV bit length:            128
Plaintext bit length:     128
Symmetric key:            14141414141414141414141414141414
IV:                       ebebebebebebebebebebebebebebebeb
Plaintext:                ebebebebebebebebebebebebebebebeb
Ciphertext:               351a7394449e4fb21b0444cd9c4fa54fe7fab411a8287d91602a3b6c1abb3056353a4771babf8a99b3a29ec0e6b3f4f3
Reciphers for ciphertext: 0
Decipheredtext:           ebebebebebebebebebebebebebebebeb
RESULT CIPHER-DECIPHER: -----OK-----


Test: 21
Hash algorithm: 6
Symmetric key bit length: 128
IV bit length:            128
Plaintext bit length:     128
Symmetric key:            15151515151515151515151515151515
IV:                       eaeaeaeaeaeaeaeaeaeaeaeaeaeaeaea
Plaintext:                eaeaeaeaeaeaeaeaeaeaeaeaeaeaeaea
Ciphertext:               4c934605111019c30325b0fd683c7dca310e55985b92288cdff7665b56135c34b51ce80c41494f1a36e6fda3763f52d7
Reciphers for ciphertext: 0
Decipheredtext:           eaeaeaeaeaeaeaeaeaeaeaeaeaeaeaea
RESULT CIPHER-DECIPHER: -----OK-----


Test: 22
Hash algorithm: 12
Symmetric key bit length: 128
IV bit length:            128
Plaintext bit length:     128
Symmetric key:            16161616161616161616161616161616
IV:                       e9e9e9e9e9e9e9e9e9e9e9e9e9e9e9e9
Plaintext:                e9e9e9e9e9e9e9e9e9e9e9e9e9e9e9e9
Ciphertext:               4282048989c8539ee318ccf89c5ec2cff8d209e63ce1600ea3f4c3477f27e36c
Reciphers for ciphertext: 0
Decipheredtext:           e9e9e9e9e9e9e9e9e9e9e9e9e9e9e9e9
RESULT CIPHER-DECIPHER: -----OK-----


Test: 23
Hash algorithm: 6
Symmetric key bit length: 128
IV bit length:            128
Plaintext bit length:     128
Symmetric key:            17171717171717171717171717171717
IV:                       e8e8e8e8e8e8e8e8e8e8e8e8e8e8e8e8
Plaintext:                e8e8e8e8e8e8e8e8e8e8e8e8e8e8e8e8
Ciphertext:               4e71c863f14034d8708746a7de9ceae6df792bca51610c579cd49b3a51844b46b49fc639279191c3e9d724d1822b7329
Reciphers for ciphertext: 0
Decipheredtext:           e8e8e8e8e8e8e8e8e8e8e8e8e8e8e8e8
RESULT CIPHER-DECIPHER: -----OK-----


Test: 24
Hash algorithm: 5
Symmetric key bit length: 128
IV bit length:            128
Plaintext bit length:     128
Symmetric key:            18181818181818181818181818181818
IV:                       e7e7e7e7e7e7e7e7e7e7e7e7e7e7e7e7
Plaintext:                e7e7e7e7e7e7e7e7e7e7e7e7e7e7e7e7
Ciphertext:               763c3688cd1ecfd5070b1fead0cf02502dbccdf329838c093796a667d95eeb2e038c230dad5b85867015ab45
Reciphers for ciphertext: 0
Decipheredtext:           e7e7e7e7e7e7e7e7e7e7e7e7e7e7e7e7
RESULT CIPHER-DECIPHER: -----OK-----


Test: 25
Hash algorithm: 4
Symmetric key bit length: 128
IV bit length:            128
Plaintext bit length:     128
Symmetric key:            19191919191919191919191919191919
IV:                       e6e6e6e6e6e6e6e6e6e6e6e6e6e6e6e6
Plaintext:                e6e6e6e6e6e6e6e6e6e6e6e6e6e6e6e6
Ciphertext:               55bf08ce25f6b25d6c728f6838b01e89075dbcba5f7c462e6fa620f2c7a7b42ae08ed5912c13942f135cee5a137e4a28550eac468fc9c8d8ad4dec8474c7d75162c8bb03f7e11ba99649bebab9823de3
Reciphers for ciphertext: 0
Decipheredtext:           e6e6e6e6e6e6e6e6e6e6e6e6e6e6e6e6
RESULT CIPHER-DECIPHER: -----OK-----


Test: 26
Hash algorithm: 11
Symmetric key bit length: 128
IV bit length:            128
Plaintext bit length:     128
Symmetric key:            1a1a1a1a1a1a1a1a1a1a1a1a1a1a1a1a
IV:                       e5e5e5e5e5e5e5e5e5e5e5e5e5e5e5e5
Plaintext:                e5e5e5e5e5e5e5e5e5e5e5e5e5e5e5e5
Ciphertext:               3c65af7949353a50075481a06a55a6eab8d3a40f9af0af2f453a69ba14188c19
Reciphers for ciphertext: 0
Decipheredtext:           e5e5e5e5e5e5e5e5e5e5e5e5e5e5e5e5
RESULT CIPHER-DECIPHER: -----OK-----


Test: 27
Hash algorithm: 7
Symmetric key bit length: 128
IV bit length:            128
Plaintext bit length:     128
Symmetric key:            1b1b1b1b1b1b1b1b1b1b1b1b1b1b1b1b
IV:                       e4e4e4e4e4e4e4e4e4e4e4e4e4e4e4e4
Plaintext:                e4e4e4e4e4e4e4e4e4e4e4e4e4e4e4e4
Ciphertext:               b6eff63aa2ff8110942b986cc9f171fb7743d1f6f5f0cbb788eae683604c13d7
Reciphers for ciphertext: 0
Decipheredtext:           e4e4e4e4e4e4e4e4e4e4e4e4e4e4e4e4
RESULT CIPHER-DECIPHER: -----OK-----


Test: 28
Hash algorithm: 5
Symmetric key bit length: 128
IV bit length:            128
Plaintext bit length:     128
Symmetric key:            1c1c1c1c1c1c1c1c1c1c1c1c1c1c1c1c
IV:                       e3e3e3e3e3e3e3e3e3e3e3e3e3e3e3e3
Plaintext:                e3e3e3e3e3e3e3e3e3e3e3e3e3e3e3e3
Ciphertext:               0cc51dbf13cbcbd74b325e289c24ee69513622faa12569fd7645f857a200ea467e63242e7d95de2bb42ccf44
Reciphers for ciphertext: 0
Decipheredtext:           e3e3e3e3e3e3e3e3e3e3e3e3e3e3e3e3
RESULT CIPHER-DECIPHER: -----OK-----


Test: 29
Hash algorithm: 7
Symmetric key bit length: 128
IV bit length:            128
Plaintext bit length:     128
Symmetric key:            1d1d1d1d1d1d1d1d1d1d1d1d1d1d1d1d
IV:                       e2e2e2e2e2e2e2e2e2e2e2e2e2e2e2e2
Plaintext:                e2e2e2e2e2e2e2e2e2e2e2e2e2e2e2e2
Ciphertext:               4d0933845e7c77d8dc3b54e26bc9ae751fa235cfe3fd3342063ce083d2dfdf83
Reciphers for ciphertext: 0
Decipheredtext:           e2e2e2e2e2e2e2e2e2e2e2e2e2e2e2e2
RESULT CIPHER-DECIPHER: -----OK-----


Test: 30
Hash algorithm: 11
Symmetric key bit length: 128
IV bit length:            128
Plaintext bit length:     128
Symmetric key:            1e1e1e1e1e1e1e1e1e1e1e1e1e1e1e1e
IV:                       e1e1e1e1e1e1e1e1e1e1e1e1e1e1e1e1
Plaintext:                e1e1e1e1e1e1e1e1e1e1e1e1e1e1e1e1
Ciphertext:               2db0eee7111066dceb50b9c0869949499a41531e2671ade4e4c434e347d546c9
Reciphers for ciphertext: 0
Decipheredtext:           e1e1e1e1e1e1e1e1e1e1e1e1e1e1e1e1
RESULT CIPHER-DECIPHER: -----OK-----


Test: 31
Hash algorithm: 6
Symmetric key bit length: 128
IV bit length:            128
Plaintext bit length:     128
Symmetric key:            1f1f1f1f1f1f1f1f1f1f1f1f1f1f1f1f
IV:                       e0e0e0e0e0e0e0e0e0e0e0e0e0e0e0e0
Plaintext:                e0e0e0e0e0e0e0e0e0e0e0e0e0e0e0e0
Ciphertext:               b8942aa9692ef7ae4089ab13de604bae04dde1371247c065a9991f2898333a5c859090862952d498c32f7dafd09768ad
Reciphers for ciphertext: 0
Decipheredtext:           e0e0e0e0e0e0e0e0e0e0e0e0e0e0e0e0
RESULT CIPHER-DECIPHER: -----OK-----


Test: 32
Hash algorithm: 2
Symmetric key bit length: 128
IV bit length:            128
Plaintext bit length:     128
Symmetric key:            20202020202020202020202020202020
IV:                       dfdfdfdfdfdfdfdfdfdfdfdfdfdfdfdf
Plaintext:                dfdfdfdfdfdfdfdfdfdfdfdfdfdfdfdf
Ciphertext:               c8d39e4546fb85beb7134675689ef0db2c4993c610f47474cf475c5cc5406ec001307ab18434e5401a521416639535b1
Reciphers for ciphertext: 0
Decipheredtext:           dfdfdfdfdfdfdfdfdfdfdfdfdfdfdfdf
RESULT CIPHER-DECIPHER: -----OK-----


Test: 33
Hash algorithm: 9
Symmetric key bit length: 128
IV bit length:            128
Plaintext bit length:     128
Symmetric key:            21212121212121212121212121212121
IV:                       dededededededededededededededede
Plaintext:                dededededededededededededededede
Ciphertext:               a3386472104e0c6e61cb70748965c75a6e79839da99524b93476ef10c9443b12f111680433ae5d46e1fa534c03cae839
Reciphers for ciphertext: 0
Decipheredtext:           dededededededededededededededede
RESULT CIPHER-DECIPHER: -----OK-----


Test: 34
Hash algorithm: 12
Symmetric key bit length: 128
IV bit length:            128
Plaintext bit length:     128
Symmetric key:            22222222222222222222222222222222
IV:                       dddddddddddddddddddddddddddddddd
Plaintext:                dddddddddddddddddddddddddddddddd
Ciphertext:               578d05142a9aa75a53b22b1aeb6886d9d18f441cdc1fcaaebf21bf05a39b9f21
Reciphers for ciphertext: 0
Decipheredtext:           dddddddddddddddddddddddddddddddd
RESULT CIPHER-DECIPHER: -----OK-----


Test: 35
Hash algorithm: 0
Symmetric key bit length: 128
IV bit length:            128
Plaintext bit length:     128
Symmetric key:            23232323232323232323232323232323
IV:                       dcdcdcdcdcdcdcdcdcdcdcdcdcdcdcdc
Plaintext:                dcdcdcdcdcdcdcdcdcdcdcdcdcdcdcdc
Ciphertext:               80d9fb4464a2ddbb4745cb1f1aafc869e8c98d43993336fe627530734ae7ee363a8df1e7
Reciphers for ciphertext: 0
Decipheredtext:           dcdcdcdcdcdcdcdcdcdcdcdcdcdcdcdc
RESULT CIPHER-DECIPHER: -----OK-----


Test: 36
Hash algorithm: 10
Symmetric key bit length: 128
IV bit length:            128
Plaintext bit length:     128
Symmetric key:            24242424242424242424242424242424
IV:                       dbdbdbdbdbdbdbdbdbdbdbdbdbdbdbdb
Plaintext:                dbdbdbdbdbdbdbdbdbdbdbdbdbdbdbdb
Ciphertext:               064b077ad8e35dda085de9fb641e707182dc7896b047a5ad6f5509158abca9720640cd39d408dc76ddfc0091c5a0a945144fdd01af2210f5
Reciphers for ciphertext: 0
Decipheredtext:           dbdbdbdbdbdbdbdbdbdbdbdbdbdbdbdb
RESULT CIPHER-DECIPHER: -----OK-----


Test: 37
Hash algorithm: 8
Symmetric key bit length: 128
IV bit length:            128
Plaintext bit length:     128
Symmetric key:            25252525252525252525252525252525
IV:                       dadadadadadadadadadadadadadadada
Plaintext:                dadadadadadadadadadadadadadadada
Ciphertext:               753d952a9387bbad11d51889293435f88556cb189ee65f5b70846f5c7223ee82e6582f74
Reciphers for ciphertext: 0
Decipheredtext:           dadadadadadadadadadadadadadadada
RESULT CIPHER-DECIPHER: -----OK-----


Test: 38
Hash algorithm: 4
Symmetric key bit length: 128
IV bit length:            128
Plaintext bit length:     128
Symmetric key:            26262626262626262626262626262626
IV:                       d9d9d9d9d9d9d9d9d9d9d9d9d9d9d9d9
Plaintext:                d9d9d9d9d9d9d9d9d9d9d9d9d9d9d9d9
Ciphertext:               3d414910664252e1942765b997ae487cdfbd5aece342279a21c8944b407dd55b8055008d2aaaa7c798ce226d38972d789138491ba96e9973539b658a74a03c824b31a66bbd760c8d7087c542fc10962a
Reciphers for ciphertext: 0
Decipheredtext:           d9d9d9d9d9d9d9d9d9d9d9d9d9d9d9d9
RESULT CIPHER-DECIPHER: -----OK-----


Test: 39
Hash algorithm: 11
Symmetric key bit length: 128
IV bit length:            128
Plaintext bit length:     128
Symmetric key:            27272727272727272727272727272727
IV:                       d8d8d8d8d8d8d8d8d8d8d8d8d8d8d8d8
Plaintext:                d8d8d8d8d8d8d8d8d8d8d8d8d8d8d8d8
Ciphertext:               1da74247ae2827a2634b5c62b2696fc02c633bcc64f0bb3d8eb85eecaad97034
Reciphers for ciphertext: 0
Decipheredtext:           d8d8d8d8d8d8d8d8d8d8d8d8d8d8d8d8
RESULT CIPHER-DECIPHER: -----OK-----


Test: 40
Hash algorithm: 1
Symmetric key bit length: 128
IV bit length:            128
Plaintext bit length:     128
Symmetric key:            28282828282828282828282828282828
IV:                       d7d7d7d7d7d7d7d7d7d7d7d7d7d7d7d7
Plaintext:                d7d7d7d7d7d7d7d7d7d7d7d7d7d7d7d7
Ciphertext:               802a5ee03f50b744b2ab8286b19523a781487e0f5a4006f4b20b0d946466d53b28460c2a008c5b76353423cd
Reciphers for ciphertext: 0
Decipheredtext:           d7d7d7d7d7d7d7d7d7d7d7d7d7d7d7d7
RESULT CIPHER-DECIPHER: -----OK-----


Test: 41
Hash algorithm: 4
Symmetric key bit length: 128
IV bit length:            128
Plaintext bit length:     128
Symmetric key:            29292929292929292929292929292929
IV:                       d6d6d6d6d6d6d6d6d6d6d6d6d6d6d6d6
Plaintext:                d6d6d6d6d6d6d6d6d6d6d6d6d6d6d6d6
Ciphertext:               ac26e31042e6ed9a72f725ee9f6031a218144613fb26755d9962a94e464f4ef91e45eb89656a7f8eb84b023860ea4359a18410cfef3254ecacfd5d3afd23a75c07518c139fad5216f812511eedb5024e
Reciphers for ciphertext: 0
Decipheredtext:           d6d6d6d6d6d6d6d6d6d6d6d6d6d6d6d6
RESULT CIPHER-DECIPHER: -----OK-----


Test: 42
Hash algorithm: 2
Symmetric key bit length: 128
IV bit length:            128
Plaintext bit length:     128
Symmetric key:            2a2a2a2a2a2a2a2a2a2a2a2a2a2a2a2a
IV:                       d5d5d5d5d5d5d5d5d5d5d5d5d5d5d5d5
Plaintext:                d5d5d5d5d5d5d5d5d5d5d5d5d5d5d5d5
Ciphertext:               eac2ccfb27ecbed2068fd4794268d82995a29519456e6ec02ec2aadaecb9aead9aea8c73a45735fabdb1dc6494372007
Reciphers for ciphertext: 0
Decipheredtext:           d5d5d5d5d5d5d5d5d5d5d5d5d5d5d5d5
RESULT CIPHER-DECIPHER: -----OK-----


Test: 43
Hash algorithm: 2
Symmetric key bit length: 128
IV bit length:            128
Plaintext bit length:     128
Symmetric key:            2b2b2b2b2b2b2b2b2b2b2b2b2b2b2b2b
IV:                       d4d4d4d4d4d4d4d4d4d4d4d4d4d4d4d4
Plaintext:                d4d4d4d4d4d4d4d4d4d4d4d4d4d4d4d4
Ciphertext:               e394e2f645643cafcd30fb4652108902463d1fafdb5635c9bdf5dfc755642670f0577eb7c6ab9e482c23bcfa849cf02a
Reciphers for ciphertext: 0
Decipheredtext:           d4d4d4d4d4d4d4d4d4d4d4d4d4d4d4d4
RESULT CIPHER-DECIPHER: -----OK-----


Test: 44
Hash algorithm: 10
Symmetric key bit length: 128
IV bit length:            128
Plaintext bit length:     128
Symmetric key:            2c2c2c2c2c2c2c2c2c2c2c2c2c2c2c2c
IV:                       d3d3d3d3d3d3d3d3d3d3d3d3d3d3d3d3
Plaintext:                d3d3d3d3d3d3d3d3d3d3d3d3d3d3d3d3
Ciphertext:               5c3bc09ff19e60b4a34b5b55d7b5a1d610ffce69202be9075f31b0c3f813f5fb333c7a28454b7ba2ac42b55b3013f699c830562469b75157
Reciphers for ciphertext: 0
Decipheredtext:           d3d3d3d3d3d3d3d3d3d3d3d3d3d3d3d3
RESULT CIPHER-DECIPHER: -----OK-----


Test: 45
Hash algorithm: 1
Symmetric key bit length: 128
IV bit length:            128
Plaintext bit length:     128
Symmetric key:            2d2d2d2d2d2d2d2d2d2d2d2d2d2d2d2d
IV:                       d2d2d2d2d2d2d2d2d2d2d2d2d2d2d2d2
Plaintext:                d2d2d2d2d2d2d2d2d2d2d2d2d2d2d2d2
Ciphertext:               56cf81f251289387c2836e00b60b9d9c2ae11e3bb5bee036ec3462a5d14474c8e50b365b69a0bf5bbde0c9d6
Reciphers for ciphertext: 0
Decipheredtext:           d2d2d2d2d2d2d2d2d2d2d2d2d2d2d2d2
RESULT CIPHER-DECIPHER: -----OK-----


Test: 46
Hash algorithm: 0
Symmetric key bit length: 128
IV bit length:            128
Plaintext bit length:     128
Symmetric key:            2e2e2e2e2e2e2e2e2e2e2e2e2e2e2e2e
IV:                       d1d1d1d1d1d1d1d1d1d1d1d1d1d1d1d1
Plaintext:                d1d1d1d1d1d1d1d1d1d1d1d1d1d1d1d1
Ciphertext:               6be3199d093659472928dd90bc522cf30c263dec047263eb12951e3589ec8dad33b57a5d
Reciphers for ciphertext: 0
Decipheredtext:           d1d1d1d1d1d1d1d1d1d1d1d1d1d1d1d1
RESULT CIPHER-DECIPHER: -----OK-----


Test: 47
Hash algorithm: 5
Symmetric key bit length: 128
IV bit length:            128
Plaintext bit length:     128
Symmetric key:            2f2f2f2f2f2f2f2f2f2f2f2f2f2f2f2f
IV:                       d0d0d0d0d0d0d0d0d0d0d0d0d0d0d0d0
Plaintext:                d0d0d0d0d0d0d0d0d0d0d0d0d0d0d0d0
Ciphertext:               7204c4d224192ac5b9f98eaf50bdc6a33a08a03d3a523642c9f55a754022217013eb4fa5fa82bc81452e95ed
Reciphers for ciphertext: 0
Decipheredtext:           d0d0d0d0d0d0d0d0d0d0d0d0d0d0d0d0
RESULT CIPHER-DECIPHER: -----OK-----


Test: 48
Hash algorithm: 9
Symmetric key bit length: 128
IV bit length:            128
Plaintext bit length:     128
Symmetric key:            30303030303030303030303030303030
IV:                       cfcfcfcfcfcfcfcfcfcfcfcfcfcfcfcf
Plaintext:                cfcfcfcfcfcfcfcfcfcfcfcfcfcfcfcf
Ciphertext:               cdcc1a54d48e4f7a0772d5421fa61db25bb6d785869c82427d957a1037d0dd47452159acda60f1fc5860db3473096bb9
Reciphers for ciphertext: 0
Decipheredtext:           cfcfcfcfcfcfcfcfcfcfcfcfcfcfcfcf
RESULT CIPHER-DECIPHER: -----OK-----


Test: 49
Hash algorithm: 12
Symmetric key bit length: 128
IV bit length:            128
Plaintext bit length:     128
Symmetric key:            31313131313131313131313131313131
IV:                       cececececececececececececececece
Plaintext:                cececececececececececececececece
Ciphertext:               f5c12e25af4cf84ab2eee37c75fabacde0fcff96dbd889fa1597e7b5ee6dc3f4
Reciphers for ciphertext: 0
Decipheredtext:           cececececececececececececececece
RESULT CIPHER-DECIPHER: -----OK-----


Test: 50
Hash algorithm: 4
Symmetric key bit length: 128
IV bit length:            128
Plaintext bit length:     128
Symmetric key:            32323232323232323232323232323232
IV:                       cdcdcdcdcdcdcdcdcdcdcdcdcdcdcdcd
Plaintext:                cdcdcdcdcdcdcdcdcdcdcdcdcdcdcdcd
Ciphertext:               80e04199422f3a7614dbbb77d1a21af53d44ae7592c6126d2988883c7f39d25c2a3dccd931616c2f36150b367e2ffde05c63be790dae7d95be9ef90b4ddbbb98444da3e1323b8e0de0273e397c1138be
Reciphers for ciphertext: 0
Decipheredtext:           cdcdcdcdcdcdcdcdcdcdcdcdcdcdcdcd
RESULT CIPHER-DECIPHER: -----OK-----


Test: 51
Hash algorithm: 6
Symmetric key bit length: 128
IV bit length:            128
Plaintext bit length:     128
Symmetric key:            33333333333333333333333333333333
IV:                       cccccccccccccccccccccccccccccccc
Plaintext:                cccccccccccccccccccccccccccccccc
Ciphertext:               a54029aab2e6b13753c845d8c42ec46a4b4cdb2ebb754b568f60f0c41aea9b1893dacb59d7d6bc86e9ead761b79a457a
Reciphers for ciphertext: 0
Decipheredtext:           cccccccccccccccccccccccccccccccc
RESULT CIPHER-DECIPHER: -----OK-----


Test: 52
Hash algorithm: 9
Symmetric key bit length: 128
IV bit length:            128
Plaintext bit length:     128
Symmetric key:            34343434343434343434343434343434
IV:                       cbcbcbcbcbcbcbcbcbcbcbcbcbcbcbcb
Plaintext:                cbcbcbcbcbcbcbcbcbcbcbcbcbcbcbcb
Ciphertext:               e707b28123a9066225651ffda81efce9bca50628eeb8546c16eba6d41b5df3ecb621f2df46e525c10bc0aba6c4c47fbb
Reciphers for ciphertext: 0
Decipheredtext:           cbcbcbcbcbcbcbcbcbcbcbcbcbcbcbcb
RESULT CIPHER-DECIPHER: -----OK-----


Test: 53
Hash algorithm: 3
Symmetric key bit length: 128
IV bit length:            128
Plaintext bit length:     128
Symmetric key:            35353535353535353535353535353535
IV:                       cacacacacacacacacacacacacacacaca
Plaintext:                cacacacacacacacacacacacacacacaca
Ciphertext:               fa74ec535c3384eae19380e9f3b12add18799b72cfb5490bbbe1ebbcd0d312f5f4c1fe90cc70d1a2154b7fabf31e761d42970ddc4a0ec80b47a1949d7cc60585
Reciphers for ciphertext: 0
Decipheredtext:           cacacacacacacacacacacacacacacaca
RESULT CIPHER-DECIPHER: -----OK-----


Test: 54
Hash algorithm: 13
Symmetric key bit length: 128
IV bit length:            128
Plaintext bit length:     128
Symmetric key:            36363636363636363636363636363636
IV:                       c9c9c9c9c9c9c9c9c9c9c9c9c9c9c9c9
Plaintext:                c9c9c9c9c9c9c9c9c9c9c9c9c9c9c9c9
Ciphertext:               fbf0de1f64d31b7d13011628e72958208909de36e183fff50c284525c08de4ef
Reciphers for ciphertext: 0
Decipheredtext:           c9c9c9c9c9c9c9c9c9c9c9c9c9c9c9c9
RESULT CIPHER-DECIPHER: -----OK-----


Test: 55
Hash algorithm: 10
Symmetric key bit length: 128
IV bit length:            128
Plaintext bit length:     128
Symmetric key:            37373737373737373737373737373737
IV:                       c8c8c8c8c8c8c8c8c8c8c8c8c8c8c8c8
Plaintext:                c8c8c8c8c8c8c8c8c8c8c8c8c8c8c8c8
Ciphertext:               f1af222f07ff29ad4c06e527270880417d8acdd8e85715869d30d060bd36d8435d45037bd48ed65b4c2199bd0bbb839febc79613775475de
Reciphers for ciphertext: 0
Decipheredtext:           c8c8c8c8c8c8c8c8c8c8c8c8c8c8c8c8
RESULT CIPHER-DECIPHER: -----OK-----


Test: 56
Hash algorithm: 2
Symmetric key bit length: 128
IV bit length:            128
Plaintext bit length:     128
Symmetric key:            38383838383838383838383838383838
IV:                       c7c7c7c7c7c7c7c7c7c7c7c7c7c7c7c7
Plaintext:                c7c7c7c7c7c7c7c7c7c7c7c7c7c7c7c7
Ciphertext:               4b6013a3ebaad1dcc4df9b1e18f3a2a42b43435bcc74e9defaa3a6ca4c88f49715546cc24c6d6ebff3716e6d26c5e7fa
Reciphers for ciphertext: 0
Decipheredtext:           c7c7c7c7c7c7c7c7c7c7c7c7c7c7c7c7
RESULT CIPHER-DECIPHER: -----OK-----


Test: 57
Hash algorithm: 12
Symmetric key bit length: 128
IV bit length:            128
Plaintext bit length:     128
Symmetric key:            39393939393939393939393939393939
IV:                       c6c6c6c6c6c6c6c6c6c6c6c6c6c6c6c6
Plaintext:                c6c6c6c6c6c6c6c6c6c6c6c6c6c6c6c6
Ciphertext:               0d4b48c42965b6320b401ac85b84d62e402872660c911c02f6dec0c1c6291e09
Reciphers for ciphertext: 0
Decipheredtext:           c6c6c6c6c6c6c6c6c6c6c6c6c6c6c6c6
RESULT CIPHER-DECIPHER: -----OK-----


Test: 58
Hash algorithm: 4
Symmetric key bit length: 128
IV bit length:            128
Plaintext bit length:     128
Symmetric key:            3a3a3a3a3a3a3a3a3a3a3a3a3a3a3a3a
IV:                       c5c5c5c5c5c5c5c5c5c5c5c5c5c5c5c5
Plaintext:                c5c5c5c5c5c5c5c5c5c5c5c5c5c5c5c5
Ciphertext:               06b72c50e7e56da8417028561ddf8d68b04b89723cee322d780df50d6ffddc8ec55606af725be03b7e58633bd91e69b6a76e7808344237de585c6e4c601735fd5e5868806033b23f9ecfa129a87e457e
Reciphers for ciphertext: 0
Decipheredtext:           c5c5c5c5c5c5c5c5c5c5c5c5c5c5c5c5
RESULT CIPHER-DECIPHER: -----OK-----


Test: 59
Hash algorithm: 1
Symmetric key bit length: 128
IV bit length:            128
Plaintext bit length:     128
Symmetric key:            3b3b3b3b3b3b3b3b3b3b3b3b3b3b3b3b
IV:                       c4c4c4c4c4c4c4c4c4c4c4c4c4c4c4c4
Plaintext:                c4c4c4c4c4c4c4c4c4c4c4c4c4c4c4c4
Ciphertext:               690982b4e4d990689257c105ccb06ca605f180bf4ae5dc82ece7732544cad7d9f52b2182b2829f96245d36a8
Reciphers for ciphertext: 0
Decipheredtext:           c4c4c4c4c4c4c4c4c4c4c4c4c4c4c4c4
RESULT CIPHER-DECIPHER: -----OK-----


Test: 60
Hash algorithm: 2
Symmetric key bit length: 128
IV bit length:            128
Plaintext bit length:     128
Symmetric key:            3c3c3c3c3c3c3c3c3c3c3c3c3c3c3c3c
IV:                       c3c3c3c3c3c3c3c3c3c3c3c3c3c3c3c3
Plaintext:                c3c3c3c3c3c3c3c3c3c3c3c3c3c3c3c3
Ciphertext:               95b247d13174897471e98a4a5877281a61345bde7c322105005b52f908f2912bb926b698f8ad9b7cfd4a17c4f9b06792
Reciphers for ciphertext: 0
Decipheredtext:           c3c3c3c3c3c3c3c3c3c3c3c3c3c3c3c3
RESULT CIPHER-DECIPHER: -----OK-----


Test: 61
Hash algorithm: 3
Symmetric key bit length: 128
IV bit length:            128
Plaintext bit length:     128
Symmetric key:            3d3d3d3d3d3d3d3d3d3d3d3d3d3d3d3d
IV:                       c2c2c2c2c2c2c2c2c2c2c2c2c2c2c2c2
Plaintext:                c2c2c2c2c2c2c2c2c2c2c2c2c2c2c2c2
Ciphertext:               e058e8db02b94f1b8e4a3f80ff557bc73797ac2dff5271b65d410aba56e106e8817086e3876308a8486146b6646ac7cc27d1a29cd9c11da08c5c06bb943a3eff
Reciphers for ciphertext: 0
Decipheredtext:           c2c2c2c2c2c2c2c2c2c2c2c2c2c2c2c2
RESULT CIPHER-DECIPHER: -----OK-----


Test: 62
Hash algorithm: 12
Symmetric key bit length: 128
IV bit length:            128
Plaintext bit length:     128
Symmetric key:            3e3e3e3e3e3e3e3e3e3e3e3e3e3e3e3e
IV:                       c1c1c1c1c1c1c1c1c1c1c1c1c1c1c1c1
Plaintext:                c1c1c1c1c1c1c1c1c1c1c1c1c1c1c1c1
Ciphertext:               b1169ede675c0a0a32a4df7c185d30cb0195a23881cfe8acc1ace18dd3f4df9a
Reciphers for ciphertext: 0
Decipheredtext:           c1c1c1c1c1c1c1c1c1c1c1c1c1c1c1c1
RESULT CIPHER-DECIPHER: -----OK-----


Test: 63
Hash algorithm: 12
Symmetric key bit length: 128
IV bit length:            128
Plaintext bit length:     128
Symmetric key:            3f3f3f3f3f3f3f3f3f3f3f3f3f3f3f3f
IV:                       c0c0c0c0c0c0c0c0c0c0c0c0c0c0c0c0
Plaintext:                c0c0c0c0c0c0c0c0c0c0c0c0c0c0c0c0
Ciphertext:               cfd27014c1a0972e460299433e4c2e32addd313645ff2158d6eab8472fe8874e
Reciphers for ciphertext: 0
Decipheredtext:           c0c0c0c0c0c0c0c0c0c0c0c0c0c0c0c0
RESULT CIPHER-DECIPHER: -----OK-----


Test: 64
Hash algorithm: 2
Symmetric key bit length: 128
IV bit length:            128
Plaintext bit length:     128
Symmetric key:            40404040404040404040404040404040
IV:                       bfbfbfbfbfbfbfbfbfbfbfbfbfbfbfbf
Plaintext:                bfbfbfbfbfbfbfbfbfbfbfbfbfbfbfbf
Ciphertext:               e827bbad516b9fd3787b56441178e0e74085a6fae125267e4732975e0849a6a3c5db77c3367f11c3ec0b99336614e5a4
Reciphers for ciphertext: 0
Decipheredtext:           bfbfbfbfbfbfbfbfbfbfbfbfbfbfbfbf
RESULT CIPHER-DECIPHER: -----OK-----


Test: 65
Hash algorithm: 3
Symmetric key bit length: 128
IV bit length:            128
Plaintext bit length:     128
Symmetric key:            41414141414141414141414141414141
IV:                       bebebebebebebebebebebebebebebebe
Plaintext:                bebebebebebebebebebebebebebebebe
Ciphertext:               8194632587c2c3dd5ed5ec6e92ddec07719f2c5959e203007103c373045c95a79509e5677ac42eb90b6d8d2e545caa1e01b851f3fcb8e86ed8cef6547381ee6d
Reciphers for ciphertext: 0
Decipheredtext:           bebebebebebebebebebebebebebebebe
RESULT CIPHER-DECIPHER: -----OK-----


Test: 66
Hash algorithm: 1
Symmetric key bit length: 128
IV bit length:            128
Plaintext bit length:     128
Symmetric key:            42424242424242424242424242424242
IV:                       bdbdbdbdbdbdbdbdbdbdbdbdbdbdbdbd
Plaintext:                bdbdbdbdbdbdbdbdbdbdbdbdbdbdbdbd
Ciphertext:               e051cc4ba11f0b8d9009d154dc195a4050c25a8b3dabc5313467b8f689c32ed558e7519327edfcaf7b044a21
Reciphers for ciphertext: 0
Decipheredtext:           bdbdbdbdbdbdbdbdbdbdbdbdbdbdbdbd
RESULT CIPHER-DECIPHER: -----OK-----


Test: 67
Hash algorithm: 6
Symmetric key bit length: 128
IV bit length:            128
Plaintext bit length:     128
Symmetric key:            43434343434343434343434343434343
IV:                       bcbcbcbcbcbcbcbcbcbcbcbcbcbcbcbc
Plaintext:                bcbcbcbcbcbcbcbcbcbcbcbcbcbcbcbc
Ciphertext:               4ce354c5d0ed6dad968ed02dc9b3b024a89230b4e0e3c7ac34307b57cb913cda5c80b3e3308481e90652587fd7302dbc
Reciphers for ciphertext: 0
Decipheredtext:           bcbcbcbcbcbcbcbcbcbcbcbcbcbcbcbc
RESULT CIPHER-DECIPHER: -----OK-----


Test: 68
Hash algorithm: 4
Symmetric key bit length: 128
IV bit length:            128
Plaintext bit length:     128
Symmetric key:            44444444444444444444444444444444
IV:                       bbbbbbbbbbbbbbbbbbbbbbbbbbbbbbbb
Plaintext:                bbbbbbbbbbbbbbbbbbbbbbbbbbbbbbbb
Ciphertext:               0f85d7521ecfc02744cc967bbab9225b44bb63109ae3882fc4539b4782be037bc29116a688c7f88131e15b8ba97b3dc25183419dde37594702a08dba391a68e8a7f5e25b327387c4541365c1c90c11d5
Reciphers for ciphertext: 0
Decipheredtext:           bbbbbbbbbbbbbbbbbbbbbbbbbbbbbbbb
RESULT CIPHER-DECIPHER: -----OK-----


Test: 69
Hash algorithm: 7
Symmetric key bit length: 128
IV bit length:            128
Plaintext bit length:     128
Symmetric key:            45454545454545454545454545454545
IV:                       babababababababababababababababa
Plaintext:                babababababababababababababababa
Ciphertext:               5c0c5d5222d2400f6e021e1712410ed0f15be2c8cbc56bef05e5321626fc05de
Reciphers for ciphertext: 0
Decipheredtext:           babababababababababababababababa
RESULT CIPHER-DECIPHER: -----OK-----


Test: 70
Hash algorithm: 6
Symmetric key bit length: 128
IV bit length:            128
Plaintext bit length:     128
Symmetric key:            46464646464646464646464646464646
IV:                       b9b9b9b9b9b9b9b9b9b9b9b9b9b9b9b9
Plaintext:                b9b9b9b9b9b9b9b9b9b9b9b9b9b9b9b9
Ciphertext:               a0ef067669d5efbbde4a0db1585e17402afe197726719d27ca0bc0c54130362d496fb6e3f797ee91de7ee5ba3938e820
Reciphers for ciphertext: 0
Decipheredtext:           b9b9b9b9b9b9b9b9b9b9b9b9b9b9b9b9
RESULT CIPHER-DECIPHER: -----OK-----


Test: 71
Hash algorithm: 13
Symmetric key bit length: 128
IV bit length:            128
Plaintext bit length:     128
Symmetric key:            47474747474747474747474747474747
IV:                       b8b8b8b8b8b8b8b8b8b8b8b8b8b8b8b8
Plaintext:                b8b8b8b8b8b8b8b8b8b8b8b8b8b8b8b8
Ciphertext:               64f206714081c9b031476c7a8e0593e379f660fa26f02f4aad0d73fb0731d25e
Reciphers for ciphertext: 0
Decipheredtext:           b8b8b8b8b8b8b8b8b8b8b8b8b8b8b8b8
RESULT CIPHER-DECIPHER: -----OK-----


Test: 72
Hash algorithm: 10
Symmetric key bit length: 128
IV bit length:            128
Plaintext bit length:     128
Symmetric key:            48484848484848484848484848484848
IV:                       b7b7b7b7b7b7b7b7b7b7b7b7b7b7b7b7
Plaintext:                b7b7b7b7b7b7b7b7b7b7b7b7b7b7b7b7
Ciphertext:               314c87dedfdc92ec65b84568aa1342cf3b797b1689ee85890bbbfa3470ad38c1aa4699a1744c94aacb14cea11cc0ceefed81d755fecc8ee6
Reciphers for ciphertext: 0
Decipheredtext:           b7b7b7b7b7b7b7b7b7b7b7b7b7b7b7b7
RESULT CIPHER-DECIPHER: -----OK-----


Test: 73
Hash algorithm: 13
Symmetric key bit length: 128
IV bit length:            128
Plaintext bit length:     128
Symmetric key:            49494949494949494949494949494949
IV:                       b6b6b6b6b6b6b6b6b6b6b6b6b6b6b6b6
Plaintext:                b6b6b6b6b6b6b6b6b6b6b6b6b6b6b6b6
Ciphertext:               17618288d1a6a858c38400cd2db302794cf298821f14441047a4f3bdbb9fee00
Reciphers for ciphertext: 0
Decipheredtext:           b6b6b6b6b6b6b6b6b6b6b6b6b6b6b6b6
RESULT CIPHER-DECIPHER: -----OK-----


Test: 74
Hash algorithm: 2
Symmetric key bit length: 128
IV bit length:            128
Plaintext bit length:     128
Symmetric key:            4a4a4a4a4a4a4a4a4a4a4a4a4a4a4a4a
IV:                       b5b5b5b5b5b5b5b5b5b5b5b5b5b5b5b5
Plaintext:                b5b5b5b5b5b5b5b5b5b5b5b5b5b5b5b5
Ciphertext:               3f401becbd02a28b47d027a8215abe500397411b5dc476581a66785ea546e13212d6bcb4d5549b96fa2982fd47062b59
Reciphers for ciphertext: 0
Decipheredtext:           b5b5b5b5b5b5b5b5b5b5b5b5b5b5b5b5
RESULT CIPHER-DECIPHER: -----OK-----


Test: 75
Hash algorithm: 10
Symmetric key bit length: 128
IV bit length:            128
Plaintext bit length:     128
Symmetric key:            4b4b4b4b4b4b4b4b4b4b4b4b4b4b4b4b
IV:                       b4b4b4b4b4b4b4b4b4b4b4b4b4b4b4b4
Plaintext:                b4b4b4b4b4b4b4b4b4b4b4b4b4b4b4b4
Ciphertext:               5e5f3375bcc2f09d7b9fc1ffeda0cf6d6c84c3339a8fb9a1abda7d61292dc33be000e98ba33d260c3039dd544358743694fa7221f435ee20
Reciphers for ciphertext: 0
Decipheredtext:           b4b4b4b4b4b4b4b4b4b4b4b4b4b4b4b4
RESULT CIPHER-DECIPHER: -----OK-----


Test: 76
Hash algorithm: 3
Symmetric key bit length: 128
IV bit length:            128
Plaintext bit length:     128
Symmetric key:            4c4c4c4c4c4c4c4c4c4c4c4c4c4c4c4c
IV:                       b3b3b3b3b3b3b3b3b3b3b3b3b3b3b3b3
Plaintext:                b3b3b3b3b3b3b3b3b3b3b3b3b3b3b3b3
Ciphertext:               7603c0ec50311a3a50dcb5f8cc1eba969d8f52039c15a52c6707ffd8b1144aa5c4d314472a57334a2068e1484d65b3c971bb1e9bdc0475b73e80ee0692788e06
Reciphers for ciphertext: 0
Decipheredtext:           b3b3b3b3b3b3b3b3b3b3b3b3b3b3b3b3
RESULT CIPHER-DECIPHER: -----OK-----


Test: 77
Hash algorithm: 3
Symmetric key bit length: 128
IV bit length:            128
Plaintext bit length:     128
Symmetric key:            4d4d4d4d4d4d4d4d4d4d4d4d4d4d4d4d
IV:                       b2b2b2b2b2b2b2b2b2b2b2b2b2b2b2b2
Plaintext:                b2b2b2b2b2b2b2b2b2b2b2b2b2b2b2b2
Ciphertext:               b130142294ba021d1b3c92853082ca021b004e5836daccc1680d574a684f6167d425618a1aea2f8cb9eb1acfab262fc8ef96dcfe7cc4bc5a85d48c5e8cae8660
Reciphers for ciphertext: 0
Decipheredtext:           b2b2b2b2b2b2b2b2b2b2b2b2b2b2b2b2
RESULT CIPHER-DECIPHER: -----OK-----


Test: 78
Hash algorithm: 5
Symmetric key bit length: 128
IV bit length:            128
Plaintext bit length:     128
Symmetric key:            4e4e4e4e4e4e4e4e4e4e4e4e4e4e4e4e
IV:                       b1b1b1b1b1b1b1b1b1b1b1b1b1b1b1b1
Plaintext:                b1b1b1b1b1b1b1b1b1b1b1b1b1b1b1b1
Ciphertext:               f24c13a7f1a66310a9991f694fa7bbd619c58075570037a29008e72e904cbe2578fdb447170e5a1030051959
Reciphers for ciphertext: 0
Decipheredtext:           b1b1b1b1b1b1b1b1b1b1b1b1b1b1b1b1
RESULT CIPHER-DECIPHER: -----OK-----


Test: 79
Hash algorithm: 10
Symmetric key bit length: 128
IV bit length:            128
Plaintext bit length:     128
Symmetric key:            4f4f4f4f4f4f4f4f4f4f4f4f4f4f4f4f
IV:                       b0b0b0b0b0b0b0b0b0b0b0b0b0b0b0b0
Plaintext:                b0b0b0b0b0b0b0b0b0b0b0b0b0b0b0b0
Ciphertext:               07d375356cf31074438aeb995014666c6e10af618780660999b108d899d433819165eac169da680e6b5cbfc3e5fe382563c8f597e403f727
Reciphers for ciphertext: 0
Decipheredtext:           b0b0b0b0b0b0b0b0b0b0b0b0b0b0b0b0
RESULT CIPHER-DECIPHER: -----OK-----


Test: 80
Hash algorithm: 4
Symmetric key bit length: 128
IV bit length:            128
Plaintext bit length:     128
Symmetric key:            50505050505050505050505050505050
IV:                       afafafafafafafafafafafafafafafaf
Plaintext:                afafafafafafafafafafafafafafafaf
Ciphertext:               f298f72566e83c60bd49ca18bd4b5615a3cab6ee84a0cc1dc40c6c18b50e143548af4e4747e514039838ebce59f0298034fcd5155eac7eba29e75bac397507514b4c450e99c2987cebe5572623b0f681
Reciphers for ciphertext: 0
Decipheredtext:           afafafafafafafafafafafafafafafaf
RESULT CIPHER-DECIPHER: -----OK-----


Test: 81
Hash algorithm: 13
Symmetric key bit length: 128
IV bit length:            128
Plaintext bit length:     128
Symmetric key:            51515151515151515151515151515151
IV:                       aeaeaeaeaeaeaeaeaeaeaeaeaeaeaeae
Plaintext:                aeaeaeaeaeaeaeaeaeaeaeaeaeaeaeae
Ciphertext:               1c564c1331fba20e102deddc5b80db34b44782b502ae631c399f0368fccd2e84
Reciphers for ciphertext: 0
Decipheredtext:           aeaeaeaeaeaeaeaeaeaeaeaeaeaeaeae
RESULT CIPHER-DECIPHER: -----OK-----


Test: 82
Hash algorithm: 1
Symmetric key bit length: 128
IV bit length:            128
Plaintext bit length:     128
Symmetric key:            52525252525252525252525252525252
IV:                       adadadadadadadadadadadadadadadad
Plaintext:                adadadadadadadadadadadadadadadad
Ciphertext:               5466a787f3f336dcdad48222bd51930dabbfe88be4e0538ab5e24c0b4d94d9f91f12790dc95768ef5bf655ac
Reciphers for ciphertext: 0
Decipheredtext:           adadadadadadadadadadadadadadadad
RESULT CIPHER-DECIPHER: -----OK-----


Test: 83
Hash algorithm: 2
Symmetric key bit length: 128
IV bit length:            128
Plaintext bit length:     128
Symmetric key:            53535353535353535353535353535353
IV:                       acacacacacacacacacacacacacacacac
Plaintext:                acacacacacacacacacacacacacacacac
Ciphertext:               56d51b6070b06129a544ab3161684e49a50cc825f79a59985b270bdbfc142055ec802852f429df9a5bba13b3ce80cd00
Reciphers for ciphertext: 0
Decipheredtext:           acacacacacacacacacacacacacacacac
RESULT CIPHER-DECIPHER: -----OK-----


Test: 84
Hash algorithm: 2
Symmetric key bit length: 128
IV bit length:            128
Plaintext bit length:     128
Symmetric key:            54545454545454545454545454545454
IV:                       abababababababababababababababab
Plaintext:                abababababababababababababababab
Ciphertext:               379325768c8fd7714eeb3bdad67496d3f2362aeaa168f8a8884f8c2a426e540335759c6b5997eca904d5d9629e1a7935
Reciphers for ciphertext: 0
Decipheredtext:           abababababababababababababababab
RESULT CIPHER-DECIPHER: -----OK-----


Test: 85
Hash algorithm: 8
Symmetric key bit length: 128
IV bit length:            128
Plaintext bit length:     128
Symmetric key:            55555555555555555555555555555555
IV:                       aaaaaaaaaaaaaaaaaaaaaaaaaaaaaaaa
Plaintext:                aaaaaaaaaaaaaaaaaaaaaaaaaaaaaaaa
Ciphertext:               9ed9057c2d161e73d8ff90a9bb3a8f9b4bf481239bf259efa29e20eb8372081424178344
Reciphers for ciphertext: 0
Decipheredtext:           aaaaaaaaaaaaaaaaaaaaaaaaaaaaaaaa
RESULT CIPHER-DECIPHER: -----OK-----


Test: 86
Hash algorithm: 4
Symmetric key bit length: 128
IV bit length:            128
Plaintext bit length:     128
Symmetric key:            56565656565656565656565656565656
IV:                       a9a9a9a9a9a9a9a9a9a9a9a9a9a9a9a9
Plaintext:                a9a9a9a9a9a9a9a9a9a9a9a9a9a9a9a9
Ciphertext:               00bf534efbb8232893aa5e6737b7c8a09feaf457aeb35457abe3514b151bdde48b0174cc2ae5486f5949e8a868efc5999460066035efe28cd1c8fbd340069b1dd4b7eabcc9cc08e5b9e19ab17cf1d06a
Reciphers for ciphertext: 0
Decipheredtext:           a9a9a9a9a9a9a9a9a9a9a9a9a9a9a9a9
RESULT CIPHER-DECIPHER: -----OK-----


Test: 87
Hash algorithm: 13
Symmetric key bit length: 128
IV bit length:            128
Plaintext bit length:     128
Symmetric key:            57575757575757575757575757575757
IV:                       a8a8a8a8a8a8a8a8a8a8a8a8a8a8a8a8
Plaintext:                a8a8a8a8a8a8a8a8a8a8a8a8a8a8a8a8
Ciphertext:               b34899788d1e27fe92bc67560ce7c3c0f350eabe50058117f95089c0125347b9
Reciphers for ciphertext: 0
Decipheredtext:           a8a8a8a8a8a8a8a8a8a8a8a8a8a8a8a8
RESULT CIPHER-DECIPHER: -----OK-----


Test: 88
Hash algorithm: 13
Symmetric key bit length: 128
IV bit length:            128
Plaintext bit length:     128
Symmetric key:            58585858585858585858585858585858
IV:                       a7a7a7a7a7a7a7a7a7a7a7a7a7a7a7a7
Plaintext:                a7a7a7a7a7a7a7a7a7a7a7a7a7a7a7a7
Ciphertext:               3529095b61cfeacc5db46124b522f21e0d8fbc6fb73d8d762da176f44fa429bb
Reciphers for ciphertext: 0
Decipheredtext:           a7a7a7a7a7a7a7a7a7a7a7a7a7a7a7a7
RESULT CIPHER-DECIPHER: -----OK-----


Test: 89
Hash algorithm: 8
Symmetric key bit length: 128
IV bit length:            128
Plaintext bit length:     128
Symmetric key:            59595959595959595959595959595959
IV:                       a6a6a6a6a6a6a6a6a6a6a6a6a6a6a6a6
Plaintext:                a6a6a6a6a6a6a6a6a6a6a6a6a6a6a6a6
Ciphertext:               5427e9f9cfbaf31b2c8127d2cf51910c13e52010e7e2f53ca9833d96c28d6bc85b20afb1
Reciphers for ciphertext: 0
Decipheredtext:           a6a6a6a6a6a6a6a6a6a6a6a6a6a6a6a6
RESULT CIPHER-DECIPHER: -----OK-----


Test: 90
Hash algorithm: 10
Symmetric key bit length: 128
IV bit length:            128
Plaintext bit length:     128
Symmetric key:            5a5a5a5a5a5a5a5a5a5a5a5a5a5a5a5a
IV:                       a5a5a5a5a5a5a5a5a5a5a5a5a5a5a5a5
Plaintext:                a5a5a5a5a5a5a5a5a5a5a5a5a5a5a5a5
Ciphertext:               f91b597bc5e1a29536a8b1aa87c9fd2a3b6e7017a8691db4887a723882b450f2909e3e3689e0ed930d23db27636d194e5fe7bf9b73367839
Reciphers for ciphertext: 0
Decipheredtext:           a5a5a5a5a5a5a5a5a5a5a5a5a5a5a5a5
RESULT CIPHER-DECIPHER: -----OK-----


Test: 91
Hash algorithm: 13
Symmetric key bit length: 128
IV bit length:            128
Plaintext bit length:     128
Symmetric key:            5b5b5b5b5b5b5b5b5b5b5b5b5b5b5b5b
IV:                       a4a4a4a4a4a4a4a4a4a4a4a4a4a4a4a4
Plaintext:                a4a4a4a4a4a4a4a4a4a4a4a4a4a4a4a4
Ciphertext:               529520f460cc1873f1214c757c46bee272946385d60cad8b698b60fb6bba165b
Reciphers for ciphertext: 0
Decipheredtext:           a4a4a4a4a4a4a4a4a4a4a4a4a4a4a4a4
RESULT CIPHER-DECIPHER: -----OK-----


Test: 92
Hash algorithm: 9
Symmetric key bit length: 128
IV bit length:            128
Plaintext bit length:     128
Symmetric key:            5c5c5c5c5c5c5c5c5c5c5c5c5c5c5c5c
IV:                       a3a3a3a3a3a3a3a3a3a3a3a3a3a3a3a3
Plaintext:                a3a3a3a3a3a3a3a3a3a3a3a3a3a3a3a3
Ciphertext:               9c69ffeebe0e5e5b0659cacb1fb16f2aea8e5f48092163d25c0fdc52b5c3473baa9485abc84a747950691ab928da8907
Reciphers for ciphertext: 0
Decipheredtext:           a3a3a3a3a3a3a3a3a3a3a3a3a3a3a3a3
RESULT CIPHER-DECIPHER: -----OK-----


Test: 93
Hash algorithm: 0
Symmetric key bit length: 128
IV bit length:            128
Plaintext bit length:     128
Symmetric key:            5d5d5d5d5d5d5d5d5d5d5d5d5d5d5d5d
IV:                       a2a2a2a2a2a2a2a2a2a2a2a2a2a2a2a2
Plaintext:                a2a2a2a2a2a2a2a2a2a2a2a2a2a2a2a2
Ciphertext:               5428096000f0047aa16622b35cd1079e5e40d06ba39f3e6ba648410ad336b4cf15e7cc42
Reciphers for ciphertext: 0
Decipheredtext:           a2a2a2a2a2a2a2a2a2a2a2a2a2a2a2a2
RESULT CIPHER-DECIPHER: -----OK-----


Test: 94
Hash algorithm: 7
Symmetric key bit length: 128
IV bit length:            128
Plaintext bit length:     128
Symmetric key:            5e5e5e5e5e5e5e5e5e5e5e5e5e5e5e5e
IV:                       a1a1a1a1a1a1a1a1a1a1a1a1a1a1a1a1
Plaintext:                a1a1a1a1a1a1a1a1a1a1a1a1a1a1a1a1
Ciphertext:               adc44d62ec4bb364b13a9c88299f433450a2f471ad03318fe89c180c82ff7466
Reciphers for ciphertext: 0
Decipheredtext:           a1a1a1a1a1a1a1a1a1a1a1a1a1a1a1a1
RESULT CIPHER-DECIPHER: -----OK-----


Test: 95
Hash algorithm: 2
Symmetric key bit length: 128
IV bit length:            128
Plaintext bit length:     128
Symmetric key:            5f5f5f5f5f5f5f5f5f5f5f5f5f5f5f5f
IV:                       a0a0a0a0a0a0a0a0a0a0a0a0a0a0a0a0
Plaintext:                a0a0a0a0a0a0a0a0a0a0a0a0a0a0a0a0
Ciphertext:               6b10dab30b7d048c85783addcc279dde4fb67ee17ba47d4685e3f858aa29125ef4aa2de557dfda23098131f17867d20a
Reciphers for ciphertext: 0
Decipheredtext:           a0a0a0a0a0a0a0a0a0a0a0a0a0a0a0a0
RESULT CIPHER-DECIPHER: -----OK-----


Test: 96
Hash algorithm: 12
Symmetric key bit length: 128
IV bit length:            128
Plaintext bit length:     128
Symmetric key:            60606060606060606060606060606060
IV:                       9f9f9f9f9f9f9f9f9f9f9f9f9f9f9f9f
Plaintext:                9f9f9f9f9f9f9f9f9f9f9f9f9f9f9f9f
Ciphertext:               f8dc37e51e431a86fdb0cd7948db28717e81260ff3b0526f16546f9376aa07d7
Reciphers for ciphertext: 0
Decipheredtext:           9f9f9f9f9f9f9f9f9f9f9f9f9f9f9f9f
RESULT CIPHER-DECIPHER: -----OK-----


Test: 97
Hash algorithm: 4
Symmetric key bit length: 128
IV bit length:            128
Plaintext bit length:     128
Symmetric key:            61616161616161616161616161616161
IV:                       9e9e9e9e9e9e9e9e9e9e9e9e9e9e9e9e
Plaintext:                9e9e9e9e9e9e9e9e9e9e9e9e9e9e9e9e
Ciphertext:               d807c2fa344ffae3c621195a50110998c5fe510c258da6b1ab56cda66e3b871e683425bf49a5233a6045c0374ba89632775046995e2f9a1ec5672121a1a0aaad1cf297b27894510e52094f5b13802431
Reciphers for ciphertext: 0
Decipheredtext:           9e9e9e9e9e9e9e9e9e9e9e9e9e9e9e9e
RESULT CIPHER-DECIPHER: -----OK-----


Test: 98
Hash algorithm: 6
Symmetric key bit length: 128
IV bit length:            128
Plaintext bit length:     128
Symmetric key:            62626262626262626262626262626262
IV:                       9d9d9d9d9d9d9d9d9d9d9d9d9d9d9d9d
Plaintext:                9d9d9d9d9d9d9d9d9d9d9d9d9d9d9d9d
Ciphertext:               1cbcf83e41a8566c80e4ef6a2686dd57642db2e6b2dd0068e82cd51900b605bf2383443e77592299913599573d6d6556
Reciphers for ciphertext: 0
Decipheredtext:           9d9d9d9d9d9d9d9d9d9d9d9d9d9d9d9d
RESULT CIPHER-DECIPHER: -----OK-----


Test: 99
Hash algorithm: 2
Symmetric key bit length: 128
IV bit length:            128
Plaintext bit length:     128
Symmetric key:            63636363636363636363636363636363
IV:                       9c9c9c9c9c9c9c9c9c9c9c9c9c9c9c9c
Plaintext:                9c9c9c9c9c9c9c9c9c9c9c9c9c9c9c9c
Ciphertext:               d2b9754440c411be163a67f772ae687d3b484e95f5e9cc91a9b61052a763a3095ce2f5376235a8be06ea7c83b7452439
Reciphers for ciphertext: 0
Decipheredtext:           9c9c9c9c9c9c9c9c9c9c9c9c9c9c9c9c
RESULT CIPHER-DECIPHER: -----OK-----


Test: 100
Hash algorithm: 12
Symmetric key bit length: 128
IV bit length:            128
Plaintext bit length:     128
Symmetric key:            64646464646464646464646464646464
IV:                       9b9b9b9b9b9b9b9b9b9b9b9b9b9b9b9b
Plaintext:                9b9b9b9b9b9b9b9b9b9b9b9b9b9b9b9b
Ciphertext:               5453e4bf16eb903afc6cd01208d1310a807af915ef52132ada3e00bace890998
Reciphers for ciphertext: 0
Decipheredtext:           9b9b9b9b9b9b9b9b9b9b9b9b9b9b9b9b
RESULT CIPHER-DECIPHER: -----OK-----


Test: 101
Hash algorithm: 7
Symmetric key bit length: 128
IV bit length:            128
Plaintext bit length:     128
Symmetric key:            65656565656565656565656565656565
IV:                       9a9a9a9a9a9a9a9a9a9a9a9a9a9a9a9a
Plaintext:                9a9a9a9a9a9a9a9a9a9a9a9a9a9a9a9a
Ciphertext:               f71f2e654955349b10441d1018ee5824dc5908c4254d73ebdf8c72669a7cff5f
Reciphers for ciphertext: 0
Decipheredtext:           9a9a9a9a9a9a9a9a9a9a9a9a9a9a9a9a
RESULT CIPHER-DECIPHER: -----OK-----


Test: 102
Hash algorithm: 11
Symmetric key bit length: 128
IV bit length:            128
Plaintext bit length:     128
Symmetric key:            66666666666666666666666666666666
IV:                       99999999999999999999999999999999
Plaintext:                99999999999999999999999999999999
Ciphertext:               5db067e889964c390e77502cd69da298ca3a2ccb596600758858b38b6cbe82f9
Reciphers for ciphertext: 0
Decipheredtext:           99999999999999999999999999999999
RESULT CIPHER-DECIPHER: -----OK-----


Test: 103
Hash algorithm: 4
Symmetric key bit length: 128
IV bit length:            128
Plaintext bit length:     128
Symmetric key:            67676767676767676767676767676767
IV:                       98989898989898989898989898989898
Plaintext:                98989898989898989898989898989898
Ciphertext:               ae900df93e1dbe5e5e434eb9583f6bfb2539368f61ebfae4a6d30e9d8b1cb3fd9391278ab494f596c7bbc8d0b154ced882d6e96ee8036c686a5cec1479841b1fad575f2c687d7078ee380b23282cdda4
Reciphers for ciphertext: 0
Decipheredtext:           98989898989898989898989898989898
RESULT CIPHER-DECIPHER: -----OK-----


Test: 104
Hash algorithm: 0
Symmetric key bit length: 128
IV bit length:            128
Plaintext bit length:     128
Symmetric key:            68686868686868686868686868686868
IV:                       97979797979797979797979797979797
Plaintext:                97979797979797979797979797979797
Ciphertext:               9ac0bf64480dd176205ac2958a59ff4edefe3a42f3a9735853c0b75171aff33d3609bb88
Reciphers for ciphertext: 0
Decipheredtext:           97979797979797979797979797979797
RESULT CIPHER-DECIPHER: -----OK-----


Test: 105
Hash algorithm: 11
Symmetric key bit length: 128
IV bit length:            128
Plaintext bit length:     128
Symmetric key:            69696969696969696969696969696969
IV:                       96969696969696969696969696969696
Plaintext:                96969696969696969696969696969696
Ciphertext:               edabb3341c58ae6dd5c05977a24184400516324d2132ac2b1226bf17a2185078
Reciphers for ciphertext: 0
Decipheredtext:           96969696969696969696969696969696
RESULT CIPHER-DECIPHER: -----OK-----


Test: 106
Hash algorithm: 12
Symmetric key bit length: 128
IV bit length:            128
Plaintext bit length:     128
Symmetric key:            6a6a6a6a6a6a6a6a6a6a6a6a6a6a6a6a
IV:                       95959595959595959595959595959595
Plaintext:                95959595959595959595959595959595
Ciphertext:               ed6fa7e80bee6b88e6b89594210713e37b517305587b03c8b930cd028bcdfe1e
Reciphers for ciphertext: 0
Decipheredtext:           95959595959595959595959595959595
RESULT CIPHER-DECIPHER: -----OK-----


Test: 107
Hash algorithm: 13
Symmetric key bit length: 128
IV bit length:            128
Plaintext bit length:     128
Symmetric key:            6b6b6b6b6b6b6b6b6b6b6b6b6b6b6b6b
IV:                       94949494949494949494949494949494
Plaintext:                94949494949494949494949494949494
Ciphertext:               a0ae9bd0d74263406281c5130f3ff8206989de611fdbb652a0663760e0c0acd6
Reciphers for ciphertext: 0
Decipheredtext:           94949494949494949494949494949494
RESULT CIPHER-DECIPHER: -----OK-----


Test: 108
Hash algorithm: 8
Symmetric key bit length: 128
IV bit length:            128
Plaintext bit length:     128
Symmetric key:            6c6c6c6c6c6c6c6c6c6c6c6c6c6c6c6c
IV:                       93939393939393939393939393939393
Plaintext:                93939393939393939393939393939393
Ciphertext:               dce609ef91ef7f316b61b6716329118366cba36a766aa299501d26c43b3d9a0935498247
Reciphers for ciphertext: 0
Decipheredtext:           93939393939393939393939393939393
RESULT CIPHER-DECIPHER: -----OK-----


Test: 109
Hash algorithm: 13
Symmetric key bit length: 128
IV bit length:            128
Plaintext bit length:     128
Symmetric key:            6d6d6d6d6d6d6d6d6d6d6d6d6d6d6d6d
IV:                       92929292929292929292929292929292
Plaintext:                92929292929292929292929292929292
Ciphertext:               9e48012ab60ecbc808ce02c1d65a17792d38dd1cf26320694bd21579f9c45ddb
Reciphers for ciphertext: 0
Decipheredtext:           92929292929292929292929292929292
RESULT CIPHER-DECIPHER: -----OK-----


Test: 110
Hash algorithm: 2
Symmetric key bit length: 128
IV bit length:            128
Plaintext bit length:     128
Symmetric key:            6e6e6e6e6e6e6e6e6e6e6e6e6e6e6e6e
IV:                       91919191919191919191919191919191
Plaintext:                91919191919191919191919191919191
Ciphertext:               5db5f78999e6547bbf3e7a9bfe7d78730a464d9425494ce7f43dd522bcb4a8756cd2ab373a7574538c9bb91fe82207f9
Reciphers for ciphertext: 0
Decipheredtext:           91919191919191919191919191919191
RESULT CIPHER-DECIPHER: -----OK-----


Test: 111
Hash algorithm: 10
Symmetric key bit length: 128
IV bit length:            128
Plaintext bit length:     128
Symmetric key:            6f6f6f6f6f6f6f6f6f6f6f6f6f6f6f6f
IV:                       90909090909090909090909090909090
Plaintext:                90909090909090909090909090909090
Ciphertext:               4dfe020ee91fcaa61603b6066ceb96f602b2ef8324202668aff2d57e41b876b4136a10fd1e73cd24d43278c24b7eeaaf96ba975ee5faa8a2
Reciphers for ciphertext: 0
Decipheredtext:           90909090909090909090909090909090
RESULT CIPHER-DECIPHER: -----OK-----


Test: 112
Hash algorithm: 5
Symmetric key bit length: 128
IV bit length:            128
Plaintext bit length:     128
Symmetric key:            70707070707070707070707070707070
IV:                       8f8f8f8f8f8f8f8f8f8f8f8f8f8f8f8f
Plaintext:                8f8f8f8f8f8f8f8f8f8f8f8f8f8f8f8f
Ciphertext:               a36d45678ae3fe33f9a2ac34798ca677d558f1b11375f7db99a334d995ea679618fb578ba4e43f02ec7cb591
Reciphers for ciphertext: 0
Decipheredtext:           8f8f8f8f8f8f8f8f8f8f8f8f8f8f8f8f
RESULT CIPHER-DECIPHER: -----OK-----


Test: 113
Hash algorithm: 13
Symmetric key bit length: 128
IV bit length:            128
Plaintext bit length:     128
Symmetric key:            71717171717171717171717171717171
IV:                       8e8e8e8e8e8e8e8e8e8e8e8e8e8e8e8e
Plaintext:                8e8e8e8e8e8e8e8e8e8e8e8e8e8e8e8e
Ciphertext:               aeea03c1d712f6ea50472acf2e2ab2834cf7b31a6be6d63f8f6e6710aaf78b1f
Reciphers for ciphertext: 0
Decipheredtext:           8e8e8e8e8e8e8e8e8e8e8e8e8e8e8e8e
RESULT CIPHER-DECIPHER: -----OK-----


Test: 114
Hash algorithm: 12
Symmetric key bit length: 128
IV bit length:            128
Plaintext bit length:     128
Symmetric key:            72727272727272727272727272727272
IV:                       8d8d8d8d8d8d8d8d8d8d8d8d8d8d8d8d
Plaintext:                8d8d8d8d8d8d8d8d8d8d8d8d8d8d8d8d
Ciphertext:               e3a627c852bd2976c6cd9ede21af9d784db9183f6c6dab29da9e04b53072a8b5
Reciphers for ciphertext: 0
Decipheredtext:           8d8d8d8d8d8d8d8d8d8d8d8d8d8d8d8d
RESULT CIPHER-DECIPHER: -----OK-----


Test: 115
Hash algorithm: 13
Symmetric key bit length: 128
IV bit length:            128
Plaintext bit length:     128
Symmetric key:            73737373737373737373737373737373
IV:                       8c8c8c8c8c8c8c8c8c8c8c8c8c8c8c8c
Plaintext:                8c8c8c8c8c8c8c8c8c8c8c8c8c8c8c8c
Ciphertext:               aa6953832ab58304e140e0e007cdc8d00eb25d454845cb463bd09376f7f6ec2e
Reciphers for ciphertext: 0
Decipheredtext:           8c8c8c8c8c8c8c8c8c8c8c8c8c8c8c8c
RESULT CIPHER-DECIPHER: -----OK-----


Test: 116
Hash algorithm: 5
Symmetric key bit length: 128
IV bit length:            128
Plaintext bit length:     128
Symmetric key:            74747474747474747474747474747474
IV:                       8b8b8b8b8b8b8b8b8b8b8b8b8b8b8b8b
Plaintext:                8b8b8b8b8b8b8b8b8b8b8b8b8b8b8b8b
Ciphertext:               f952cb1a8fd65902ab95786808e52011bbcba9e61eba7b68f851bb62aa85163d66112d6687f9f65f1108fd12
Reciphers for ciphertext: 0
Decipheredtext:           8b8b8b8b8b8b8b8b8b8b8b8b8b8b8b8b
RESULT CIPHER-DECIPHER: -----OK-----


Test: 117
Hash algorithm: 6
Symmetric key bit length: 128
IV bit length:            128
Plaintext bit length:     128
Symmetric key:            75757575757575757575757575757575
IV:                       8a8a8a8a8a8a8a8a8a8a8a8a8a8a8a8a
Plaintext:                8a8a8a8a8a8a8a8a8a8a8a8a8a8a8a8a
Ciphertext:               aee9419221b0d097728066b69f77eb5b384ae9b5ccf78305defc86774ca08fde6c4e8d0ad2d9175f691fe2f40310da71
Reciphers for ciphertext: 0
Decipheredtext:           8a8a8a8a8a8a8a8a8a8a8a8a8a8a8a8a
RESULT CIPHER-DECIPHER: -----OK-----


Test: 118
Hash algorithm: 8
Symmetric key bit length: 128
IV bit length:            128
Plaintext bit length:     128
Symmetric key:            76767676767676767676767676767676
IV:                       89898989898989898989898989898989
Plaintext:                89898989898989898989898989898989
Ciphertext:               272389683306039608435f5f9cda894d450c45a7b9102d2b6176508e6916011f966d7d1b
Reciphers for ciphertext: 0
Decipheredtext:           89898989898989898989898989898989
RESULT CIPHER-DECIPHER: -----OK-----


Test: 119
Hash algorithm: 9
Symmetric key bit length: 128
IV bit length:            128
Plaintext bit length:     128
Symmetric key:            77777777777777777777777777777777
IV:                       88888888888888888888888888888888
Plaintext:                88888888888888888888888888888888
Ciphertext:               96dd630140919bc019c9625808f98405073fd9b81c53c97bf59cd5083de7c752e2443acbdf586cd8eeccd4328bdde707
Reciphers for ciphertext: 0
Decipheredtext:           88888888888888888888888888888888
RESULT CIPHER-DECIPHER: -----OK-----


Test: 120
Hash algorithm: 4
Symmetric key bit length: 128
IV bit length:            128
Plaintext bit length:     128
Symmetric key:            78787878787878787878787878787878
IV:                       87878787878787878787878787878787
Plaintext:                87878787878787878787878787878787
Ciphertext:               d0b52681f3088f69601ebffa8c4a20febff15e2932fd9f18f3e143e2eb318ed85bf7d5a443e30caac324149a4892857ceec8fb5c747096269946c1096a7d6dd77f7aa87455a27f3b4810ed6181e0949e
Reciphers for ciphertext: 0
Decipheredtext:           87878787878787878787878787878787
RESULT CIPHER-DECIPHER: -----OK-----


Test: 121
Hash algorithm: 1
Symmetric key bit length: 128
IV bit length:            128
Plaintext bit length:     128
Symmetric key:            79797979797979797979797979797979
IV:                       86868686868686868686868686868686
Plaintext:                86868686868686868686868686868686
Ciphertext:               d0866bb37e5eb129fc07aa6af46535f2b28ea256019c72f65c8bfcd955ce8619ba8736d3da068b9047aefd8b
Reciphers for ciphertext: 0
Decipheredtext:           86868686868686868686868686868686
RESULT CIPHER-DECIPHER: -----OK-----


Test: 122
Hash algorithm: 13
Symmetric key bit length: 128
IV bit length:            128
Plaintext bit length:     128
Symmetric key:            7a7a7a7a7a7a7a7a7a7a7a7a7a7a7a7a
IV:                       85858585858585858585858585858585
Plaintext:                85858585858585858585858585858585
Ciphertext:               1416f25acaae50d449c6252366235cd7b57be9b3b6c1239a7d129b773f9a5924
Reciphers for ciphertext: 0
Decipheredtext:           85858585858585858585858585858585
RESULT CIPHER-DECIPHER: -----OK-----


Test: 123
Hash algorithm: 3
Symmetric key bit length: 128
IV bit length:            128
Plaintext bit length:     128
Symmetric key:            7b7b7b7b7b7b7b7b7b7b7b7b7b7b7b7b
IV:                       84848484848484848484848484848484
Plaintext:                84848484848484848484848484848484
Ciphertext:               75eb55813bff0aa89cb5593b7f3cca1a294ad10379ff39019b9a14dbe0d524b141ec2ba25bab44817a3e460c98cff51c673c242a3f40c1385c74e05d4d74b543
Reciphers for ciphertext: 0
Decipheredtext:           84848484848484848484848484848484
RESULT CIPHER-DECIPHER: -----OK-----


Test: 124
Hash algorithm: 8
Symmetric key bit length: 128
IV bit length:            128
Plaintext bit length:     128
Symmetric key:            7c7c7c7c7c7c7c7c7c7c7c7c7c7c7c7c
IV:                       83838383838383838383838383838383
Plaintext:                83838383838383838383838383838383
Ciphertext:               5704d4186238a3fd1a3522fa433f11d17ceec172c357b0dc0cb8ed6b41cc9d845dfae29e
Reciphers for ciphertext: 0
Decipheredtext:           83838383838383838383838383838383
RESULT CIPHER-DECIPHER: -----OK-----


Test: 125
Hash algorithm: 11
Symmetric key bit length: 128
IV bit length:            128
Plaintext bit length:     128
Symmetric key:            7d7d7d7d7d7d7d7d7d7d7d7d7d7d7d7d
IV:                       82828282828282828282828282828282
Plaintext:                82828282828282828282828282828282
Ciphertext:               fcac2e16ebf3cc7813835abfcf2a0be3a24e8b6eecdacd33f3b759103cf319c7
Reciphers for ciphertext: 0
Decipheredtext:           82828282828282828282828282828282
RESULT CIPHER-DECIPHER: -----OK-----


Test: 126
Hash algorithm: 9
Symmetric key bit length: 128
IV bit length:            128
Plaintext bit length:     128
Symmetric key:            7e7e7e7e7e7e7e7e7e7e7e7e7e7e7e7e
IV:                       81818181818181818181818181818181
Plaintext:                81818181818181818181818181818181
Ciphertext:               7667825e5c6b96b5f47229d51fc06b22f48469f0b812006da76bf14ed320af560c533035c806296654c781dc25a39bf3
Reciphers for ciphertext: 0
Decipheredtext:           81818181818181818181818181818181
RESULT CIPHER-DECIPHER: -----OK-----


Test: 127
Hash algorithm: 6
Symmetric key bit length: 128
IV bit length:            128
Plaintext bit length:     128
Symmetric key:            7f7f7f7f7f7f7f7f7f7f7f7f7f7f7f7f
IV:                       80808080808080808080808080808080
Plaintext:                80808080808080808080808080808080
Ciphertext:               24eac68032b366a75f76c17d0e97c82465dd15ced0c7310c989f92f93340693d313175b31df00c493636cbbfa8860a93
Reciphers for ciphertext: 0
Decipheredtext:           80808080808080808080808080808080
RESULT CIPHER-DECIPHER: -----OK-----


 DATA SHA1 (hexadecimal): 05e5efde58f92f2e4ec4d1784a0eccdaed4f4ee8

