
DiceLock 9.0.0.1

 TEST COMPONENTS:
 ----------------
 DiceLock:           DiceLockIVDigested class
 Operation Mode:     CBC_Mode class
 Crypto pads:        0 - ANSI_X_923 class
                     1 - ISO_IEC_9797_1 class
                     2 - PKCS7 class
 Block Cipher:       AES128 class
 Hash algorithms:     0 - Sha1 class
                      1 - Sha224 class
                      2 - Sha256 class
                      3 - Sha384 class
                      4 - Sha512 class
                      5 - Sha512_224 class
                      6 - Sha512_256 class
                      7 - Ripemd128 class
                      8 - Ripemd160 class
                      9 - Ripemd256 class
                     10 - Ripemd320 class
                     11 - MD2 class
                     12 - MD4 class
                     13 - MD5 class
 Key Modifier:       DecreaseKeyModifier_6_0_0_1 class
 Random tests:       RandomTestSuite class
                     FrequencyTest class
                     BlockFrequencyTest class
                     CumulativeSumForwardTest class
                     LongestRunOfOnesTest class
                     RunsTest class
 Random alpha:       0.001

 VECTOR TEST: Test vector 5 - IV all byte value 0xXX


##### INDIVIDUAL TESTS #####

Number tests: 128


Test: 0
Hash algorithm: 9
Crypto pad: 1
Symmetric key bit length: 128
IV bit length:            128
Plaintext bit length:     136
Symmetric key:            00000000000000000000000000000000
IV:                       00000000000000000000000000000000
Plaintext:                0000000000000000000000000000000000
Ciphertext:               66e94bd4ef8a2c3b884cfa59ca342b2ed6b6ecc26e14e0a141d7b0229fb62edbe329c3f87ee864061861e5f6e5bb9e771610a4504afc3cb4c0295825ea4b76c39e2e1efa2bae38bcfbb25c49a9074bc7
Reciphers for ciphertext: 0
Decipheredtext:           0000000000000000000000000000000000
RESULT CIPHER-DECIPHER: -----OK-----


Test: 1
Hash algorithm: 7
Crypto pad: 1
Symmetric key bit length: 128
IV bit length:            128
Plaintext bit length:     136
Symmetric key:            00000000000000000000000000000000
IV:                       01010101010101010101010101010101
Plaintext:                0000000000000000000000000000000000
Ciphertext:               e14d5d0ee27715df08b4152ba23da8e05ae1ee1851e1835354e39e7919d9f55102d64aeeccd42bd442019014872df4ec1764d5573839b434706cd9785c2894ec
Reciphers for ciphertext: 0
Decipheredtext:           0000000000000000000000000000000000
RESULT CIPHER-DECIPHER: -----OK-----


Test: 2
Hash algorithm: 6
Crypto pad: 1
Symmetric key bit length: 128
IV bit length:            128
Plaintext bit length:     136
Symmetric key:            00000000000000000000000000000000
IV:                       02020202020202020202020202020202
Plaintext:                0000000000000000000000000000000000
Ciphertext:               5eba73f89142c54880f68594373c5c377f18c67f3422bc83c7ec84e6e2b00cda500b1be592236ad35d4a7ac17ccf54d31abdeb6776b36b88807072d8562e6dd5eefc4e866baebddd75ea5b49704a71fb
Reciphers for ciphertext: 0
Decipheredtext:           0000000000000000000000000000000000
RESULT CIPHER-DECIPHER: -----OK-----


Test: 3
Hash algorithm: 9
Crypto pad: 0
Symmetric key bit length: 128
IV bit length:            128
Plaintext bit length:     136
Symmetric key:            00000000000000000000000000000000
IV:                       03030303030303030303030303030303
Plaintext:                0000000000000000000000000000000000
Ciphertext:               8d34efcb3bd545ca062aecdfef7c0bfaaa4e42f465ae6fa9b3bf2feb7e51166205dfc4eccac1730a1c3936a8c7dbe9bf11557e7734af0468882c83e0d934d1e46a7d017077958e68ddd383017bee70d8
Reciphers for ciphertext: 0
Decipheredtext:           0000000000000000000000000000000000
RESULT CIPHER-DECIPHER: -----OK-----


Test: 4
Hash algorithm: 9
Crypto pad: 1
Symmetric key bit length: 128
IV bit length:            128
Plaintext bit length:     136
Symmetric key:            00000000000000000000000000000000
IV:                       04040404040404040404040404040404
Plaintext:                0000000000000000000000000000000000
Ciphertext:               4a94230cc509e46257838c074a34c04381a3abab1c4ba6dfd25c56dec5602217596d3b4b1f07d60ee8ec2f19fa982584d97c26876654f1f3605a7cb6f64fc844d1afee13cb7461c4944149d4481b1070
Reciphers for ciphertext: 0
Decipheredtext:           0000000000000000000000000000000000
RESULT CIPHER-DECIPHER: -----OK-----


Test: 5
Hash algorithm: 7
Crypto pad: 1
Symmetric key bit length: 128
IV bit length:            128
Plaintext bit length:     136
Symmetric key:            00000000000000000000000000000000
IV:                       05050505050505050505050505050505
Plaintext:                0000000000000000000000000000000000
Ciphertext:               fec12de012c25f0566b47da56e0323e82290c60ca34cf6da69bfb372a562649c7de9cffb0cf33ca558e53ef5012c936af8d732424e20779bb475b55022b9caee
Reciphers for ciphertext: 0
Decipheredtext:           0000000000000000000000000000000000
RESULT CIPHER-DECIPHER: -----OK-----


Test: 6
Hash algorithm: 5
Crypto pad: 0
Symmetric key bit length: 128
IV bit length:            128
Plaintext bit length:     136
Symmetric key:            00000000000000000000000000000000
IV:                       06060606060606060606060606060606
Plaintext:                0000000000000000000000000000000000
Ciphertext:               5e4587c86652eaf4e5869f0c1fb33dd00a58c5bd3ff40eb3592f56ab236bedf44ab21c6110e933bf6ec04a53895aa93b283a9173f4c5cbbad42abd522983f9bb
Reciphers for ciphertext: 0
Decipheredtext:           0000000000000000000000000000000000
RESULT CIPHER-DECIPHER: -----OK-----


Test: 7
Hash algorithm: 4
Crypto pad: 0
Symmetric key bit length: 128
IV bit length:            128
Plaintext bit length:     136
Symmetric key:            00000000000000000000000000000000
IV:                       07070707070707070707070707070707
Plaintext:                0000000000000000000000000000000000
Ciphertext:               9341d4e375825846e4296bacf246489ac11b6389ea271d7905a4db5842b69ffa7371e82cbaec3df9724082bccf184ec23033c63dbc7ccd3dc56250c309bc83c98a40fbb74477b2637e08fb1d904ce92a51a8111bfcc62135f51cd54e0ef29cdb03ebb0d4c2488c6e4bdad8020d3e7d8b
Reciphers for ciphertext: 0
Decipheredtext:           0000000000000000000000000000000000
RESULT CIPHER-DECIPHER: -----OK-----


Test: 8
Hash algorithm: 3
Crypto pad: 2
Symmetric key bit length: 128
IV bit length:            128
Plaintext bit length:     136
Symmetric key:            00000000000000000000000000000000
IV:                       08080808080808080808080808080808
Plaintext:                0000000000000000000000000000000000
Ciphertext:               0ac08f91333993d14ec940de349b245832276e3f0116081b4580bf5c98c072ba61cc8d54af463c7e467381c3933d5bed67419f698e6376b87ab3576ae861cde7514d25841a6a0be0ffb50dde8d051d4de337b9baea8c464b807014533d1abe01
Reciphers for ciphertext: 0
Decipheredtext:           0000000000000000000000000000000000
RESULT CIPHER-DECIPHER: -----OK-----


Test: 9
Hash algorithm: 7
Crypto pad: 1
Symmetric key bit length: 128
IV bit length:            128
Plaintext bit length:     136
Symmetric key:            00000000000000000000000000000000
IV:                       09090909090909090909090909090909
Plaintext:                0000000000000000000000000000000000
Ciphertext:               ed66f4f85ca4c7d2955de53f4769929344e565fddccdc9ab9ef258677e5e8e29a2bf66011e6d1b6bbef1e7085575647ca1575725b319adfea3d3f64f5088969b
Reciphers for ciphertext: 0
Decipheredtext:           0000000000000000000000000000000000
RESULT CIPHER-DECIPHER: -----OK-----


Test: 10
Hash algorithm: 0
Crypto pad: 2
Symmetric key bit length: 128
IV bit length:            128
Plaintext bit length:     136
Symmetric key:            00000000000000000000000000000000
IV:                       0a0a0a0a0a0a0a0a0a0a0a0a0a0a0a0a
Plaintext:                0000000000000000000000000000000000
Ciphertext:               6f428f820f3ef9a61586f31768dc360adb787f015f4c663f26b605b4081a4f89ef1372fb41b9188ccef8d161bb9734967e192a607132923f82b5a3a7f5355983
Reciphers for ciphertext: 0
Decipheredtext:           0000000000000000000000000000000000
RESULT CIPHER-DECIPHER: -----OK-----


Test: 11
Hash algorithm: 1
Crypto pad: 1
Symmetric key bit length: 128
IV bit length:            128
Plaintext bit length:     136
Symmetric key:            00000000000000000000000000000000
IV:                       0b0b0b0b0b0b0b0b0b0b0b0b0b0b0b0b
Plaintext:                0000000000000000000000000000000000
Ciphertext:               9c1df7643ee9fbb4273bdda2793deed47af368c77b5d5be34062d05f65775197eca722a8b653cd7e2af211a4b9e29f94533f2d3f84c9b5eccf700183de596d86
Reciphers for ciphertext: 0
Decipheredtext:           0000000000000000000000000000000000
RESULT CIPHER-DECIPHER: -----OK-----


Test: 12
Hash algorithm: 1
Crypto pad: 2
Symmetric key bit length: 128
IV bit length:            128
Plaintext bit length:     136
Symmetric key:            00000000000000000000000000000000
IV:                       0c0c0c0c0c0c0c0c0c0c0c0c0c0c0c0c
Plaintext:                0000000000000000000000000000000000
Ciphertext:               a4cecc4eb748f1d2990243707ef773c85b668fa5f855ac7b723d3a152f1e1265c523496de7b8e958dd4bb29ae83af9fe454a269c26f8b7069f15668f6d049a56
Reciphers for ciphertext: 0
Decipheredtext:           0000000000000000000000000000000000
RESULT CIPHER-DECIPHER: -----OK-----


Test: 13
Hash algorithm: 7
Crypto pad: 1
Symmetric key bit length: 128
IV bit length:            128
Plaintext bit length:     136
Symmetric key:            00000000000000000000000000000000
IV:                       0d0d0d0d0d0d0d0d0d0d0d0d0d0d0d0d
Plaintext:                0000000000000000000000000000000000
Ciphertext:               45425505dc200399e2dd4bfdf7cad259847ac7df3ffd73d928b0f4ab0da88ce81fbadc08f70d6e312c82e307931a61d53af328202cc6087a00e0da9ae59c5f08
Reciphers for ciphertext: 0
Decipheredtext:           0000000000000000000000000000000000
RESULT CIPHER-DECIPHER: -----OK-----


Test: 14
Hash algorithm: 8
Crypto pad: 2
Symmetric key bit length: 128
IV bit length:            128
Plaintext bit length:     136
Symmetric key:            00000000000000000000000000000000
IV:                       0e0e0e0e0e0e0e0e0e0e0e0e0e0e0e0e
Plaintext:                0000000000000000000000000000000000
Ciphertext:               866a044f4e12669a8b11487529d582d39baa1c354ef9f273a32869d2422db35532adae6a7be36d695fbb2fd607badc642037f5922d8bc3fdf9f9dbc5efade11a
Reciphers for ciphertext: 0
Decipheredtext:           0000000000000000000000000000000000
RESULT CIPHER-DECIPHER: -----OK-----


Test: 15
Hash algorithm: 3
Crypto pad: 0
Symmetric key bit length: 128
IV bit length:            128
Plaintext bit length:     136
Symmetric key:            00000000000000000000000000000000
IV:                       0f0f0f0f0f0f0f0f0f0f0f0f0f0f0f0f
Plaintext:                0000000000000000000000000000000000
Ciphertext:               0fdb7da46c238c5f37b19d310a7bc35a73d21586e58dc93e3bb45be144a2df92f7d6bf54cf0438e80f60d96323d3d015aa4c03b5649a6796835399e334db814ddf5316d84548b53ab73dec8009fbb47d40b223fb513bcb8387c8b0471a49289f
Reciphers for ciphertext: 0
Decipheredtext:           0000000000000000000000000000000000
RESULT CIPHER-DECIPHER: -----OK-----


Test: 16
Hash algorithm: 7
Crypto pad: 2
Symmetric key bit length: 128
IV bit length:            128
Plaintext bit length:     136
Symmetric key:            00000000000000000000000000000000
IV:                       10101010101010101010101010101010
Plaintext:                0000000000000000000000000000000000
Ciphertext:               0143db63ee66b0cdff9f69917680151ef2dd105ba1533be54afbf155d5189625283c4c951bc7a7f42a83fbb997fd46e589fc4c92c24348f0e391f1f7fb57137f
Reciphers for ciphertext: 0
Decipheredtext:           0000000000000000000000000000000000
RESULT CIPHER-DECIPHER: -----OK-----


Test: 17
Hash algorithm: 4
Crypto pad: 0
Symmetric key bit length: 128
IV bit length:            128
Plaintext bit length:     136
Symmetric key:            00000000000000000000000000000000
IV:                       11111111111111111111111111111111
Plaintext:                0000000000000000000000000000000000
Ciphertext:               ffa3c7ed04710b98067dae6815e2751fa34d981423b6887c18d77eb0597b6d6b41e3e698a26aeb49ced5c04b28efb4d2be45a4c9d12b5850c02096ee586a81b5dc1d88c7830eba5d259ae548b325e8a58f5a99ed8ee4f24305c802285e0daaf717db808cb5b8e73fce2b008356e45763
Reciphers for ciphertext: 0
Decipheredtext:           0000000000000000000000000000000000
RESULT CIPHER-DECIPHER: -----OK-----


Test: 18
Hash algorithm: 10
Crypto pad: 0
Symmetric key bit length: 128
IV bit length:            128
Plaintext bit length:     136
Symmetric key:            00000000000000000000000000000000
IV:                       12121212121212121212121212121212
Plaintext:                0000000000000000000000000000000000
Ciphertext:               5d6e8c72c1b4f95d87bfe2d6e7e04600b20bc590045a8a4319e0a1e4d21964a58afc01b3f8dac286732b1e414ceec71c519fda8d502cf5226b4cbb81c8311eb173c30b4b8d4efc8771a2a96d0df97cde
Reciphers for ciphertext: 0
Decipheredtext:           0000000000000000000000000000000000
RESULT CIPHER-DECIPHER: -----OK-----


Test: 19
Hash algorithm: 0
Crypto pad: 0
Symmetric key bit length: 128
IV bit length:            128
Plaintext bit length:     136
Symmetric key:            00000000000000000000000000000000
IV:                       13131313131313131313131313131313
Plaintext:                0000000000000000000000000000000000
Ciphertext:               76e6d5f702546b7e4465c6be919c8d894dc64e73118c80297dedca7d5f04a31ad0a5f06f899a1aec5c716d2034c5138ebb1e3536c681da3cabcb9d10bc8232f1
Reciphers for ciphertext: 0
Decipheredtext:           0000000000000000000000000000000000
RESULT CIPHER-DECIPHER: -----OK-----


Test: 20
Hash algorithm: 6
Crypto pad: 1
Symmetric key bit length: 128
IV bit length:            128
Plaintext bit length:     136
Symmetric key:            00000000000000000000000000000000
IV:                       14141414141414141414141414141414
Plaintext:                0000000000000000000000000000000000
Ciphertext:               65f4fbf24a0c559914cd741e8a1c5c574a5de5465d370b5a08c96786840735e73e351381b4ddc35a664031515714ee9167f65c0b13dc60cb37f6d88b30103b25cc7a834d439a617c4d25e74d399ecda0
Reciphers for ciphertext: 0
Decipheredtext:           0000000000000000000000000000000000
RESULT CIPHER-DECIPHER: -----OK-----


Test: 21
Hash algorithm: 11
Crypto pad: 1
Symmetric key bit length: 128
IV bit length:            128
Plaintext bit length:     136
Symmetric key:            00000000000000000000000000000000
IV:                       15151515151515151515151515151515
Plaintext:                0000000000000000000000000000000000
Ciphertext:               62fa50caa964499d51ed2c88c9cad98f7b699787cb256cb4867ea0320176c0767d242673c3ea9288443161c471ab9e1ac9d1148f7b23bdb7a90b8a3a9361b575
Reciphers for ciphertext: 0
Decipheredtext:           0000000000000000000000000000000000
RESULT CIPHER-DECIPHER: -----OK-----


Test: 22
Hash algorithm: 11
Crypto pad: 0
Symmetric key bit length: 128
IV bit length:            128
Plaintext bit length:     136
Symmetric key:            00000000000000000000000000000000
IV:                       16161616161616161616161616161616
Plaintext:                0000000000000000000000000000000000
Ciphertext:               f0cebabde20ab54b516fe671c87a7855677ce3a708e93e0d15c74370c076b066698736729f0ac00e623dfe5182e47c771da570dabf1cc66452a7ff23cde2b451
Reciphers for ciphertext: 0
Decipheredtext:           0000000000000000000000000000000000
RESULT CIPHER-DECIPHER: -----OK-----


Test: 23
Hash algorithm: 0
Crypto pad: 2
Symmetric key bit length: 128
IV bit length:            128
Plaintext bit length:     136
Symmetric key:            00000000000000000000000000000000
IV:                       17171717171717171717171717171717
Plaintext:                0000000000000000000000000000000000
Ciphertext:               ff26bc5be0c37c6d03f45f48a9b428bd44b284c2ca4cd8b2ba76cd8efec4362b6d7bff8fdbe93e6828c115f3ebf831296209e3d02aff27492ca8757356481bfa
Reciphers for ciphertext: 0
Decipheredtext:           0000000000000000000000000000000000
RESULT CIPHER-DECIPHER: -----OK-----


Test: 24
Hash algorithm: 0
Crypto pad: 0
Symmetric key bit length: 128
IV bit length:            128
Plaintext bit length:     136
Symmetric key:            00000000000000000000000000000000
IV:                       18181818181818181818181818181818
Plaintext:                0000000000000000000000000000000000
Ciphertext:               bafdfd8194c03ce5dc1de125e0faaeb4b8d89af4afb45d18eb24d6d75749852ffe51686de2aff407fc512fb7c56ca46ef081cf95ebf067425fdffc05d72bdd0d
Reciphers for ciphertext: 0
Decipheredtext:           0000000000000000000000000000000000
RESULT CIPHER-DECIPHER: -----OK-----


Test: 25
Hash algorithm: 11
Crypto pad: 2
Symmetric key bit length: 128
IV bit length:            128
Plaintext bit length:     136
Symmetric key:            00000000000000000000000000000000
IV:                       19191919191919191919191919191919
Plaintext:                0000000000000000000000000000000000
Ciphertext:               5cbd5bf3596b06b04aff80be294e44a7de09535b609fa5749605b45b1f9850296fc5e7fdd8ef5f948fdaed4643e85415c5c8e5926fa4f62a6a52073afd95982b
Reciphers for ciphertext: 0
Decipheredtext:           0000000000000000000000000000000000
RESULT CIPHER-DECIPHER: -----OK-----


Test: 26
Hash algorithm: 9
Crypto pad: 1
Symmetric key bit length: 128
IV bit length:            128
Plaintext bit length:     136
Symmetric key:            00000000000000000000000000000000
IV:                       1a1a1a1a1a1a1a1a1a1a1a1a1a1a1a1a
Plaintext:                0000000000000000000000000000000000
Ciphertext:               22d4de49e73bbf9c005fd0d3f5ff2c6aeabb97aa13685b8ce11ee91b79fc56b8cbe23c9e398625df495e46a3b4e6a8355f94315a0a3ef8967a1ad7788b0aeb5bbf5ff818bfc2a1f7b47165dfdae3cddc
Reciphers for ciphertext: 0
Decipheredtext:           0000000000000000000000000000000000
RESULT CIPHER-DECIPHER: -----OK-----


Test: 27
Hash algorithm: 6
Crypto pad: 1
Symmetric key bit length: 128
IV bit length:            128
Plaintext bit length:     136
Symmetric key:            00000000000000000000000000000000
IV:                       1b1b1b1b1b1b1b1b1b1b1b1b1b1b1b1b
Plaintext:                0000000000000000000000000000000000
Ciphertext:               fdad55586093f58e5c97c8f8f0e8955b56cef1d03e14bcb382b12eb3d227d7aa72b0d7deb8d4f1cea2fff6a903f28e7bbece4097c31a1c6e187cb06b85e5751ee1e2e161fcfa88bf3377718b4ad44a4e
Reciphers for ciphertext: 0
Decipheredtext:           0000000000000000000000000000000000
RESULT CIPHER-DECIPHER: -----OK-----


Test: 28
Hash algorithm: 8
Crypto pad: 1
Symmetric key bit length: 128
IV bit length:            128
Plaintext bit length:     136
Symmetric key:            00000000000000000000000000000000
IV:                       1c1c1c1c1c1c1c1c1c1c1c1c1c1c1c1c
Plaintext:                0000000000000000000000000000000000
Ciphertext:               a6e35f625a9e97f9c4bc6c30b0bbb522f99aafcfe120d8bcb90be701527489e47ae192764d3134b30ff5001651be0ba88b247a48ac2d30b07bc55bcbd7b1d49b
Reciphers for ciphertext: 0
Decipheredtext:           0000000000000000000000000000000000
RESULT CIPHER-DECIPHER: -----OK-----


Test: 29
Hash algorithm: 7
Crypto pad: 1
Symmetric key bit length: 128
IV bit length:            128
Plaintext bit length:     136
Symmetric key:            00000000000000000000000000000000
IV:                       1d1d1d1d1d1d1d1d1d1d1d1d1d1d1d1d
Plaintext:                0000000000000000000000000000000000
Ciphertext:               89b09769ee545e7671474f6349a5ac8df021a058fbfed124ccaa411ea9113e80501be94bc462aa15598b11f342f04b818a3266efef1bd128617516dc0ace9a61
Reciphers for ciphertext: 0
Decipheredtext:           0000000000000000000000000000000000
RESULT CIPHER-DECIPHER: -----OK-----


Test: 30
Hash algorithm: 0
Crypto pad: 1
Symmetric key bit length: 128
IV bit length:            128
Plaintext bit length:     136
Symmetric key:            00000000000000000000000000000000
IV:                       1e1e1e1e1e1e1e1e1e1e1e1e1e1e1e1e
Plaintext:                0000000000000000000000000000000000
Ciphertext:               e568d8f92c4b1b3003713f38e476436dcf7a3bea3f739e19111970a0b2a198036cee4e88ebd3a2d5762bb3b18d0a046ed1b407dc1d03df600b8683ba6a235704
Reciphers for ciphertext: 0
Decipheredtext:           0000000000000000000000000000000000
RESULT CIPHER-DECIPHER: -----OK-----


Test: 31
Hash algorithm: 4
Crypto pad: 1
Symmetric key bit length: 128
IV bit length:            128
Plaintext bit length:     136
Symmetric key:            00000000000000000000000000000000
IV:                       1f1f1f1f1f1f1f1f1f1f1f1f1f1f1f1f
Plaintext:                0000000000000000000000000000000000
Ciphertext:               c853b5317032155f601f7139cfaa46c61e2956fd0d2a21ff12cc22917aec6bd6c72496d34ee1477624eeda65ced7d04a425775438d470e564d485a12e2f66fbb65da18c15247f668fb2fe0e218b5fc08e6f75c6457b988b91c7a3c10e44913e45e55bf853c128b20f3186d4d8550709f
Reciphers for ciphertext: 0
Decipheredtext:           0000000000000000000000000000000000
RESULT CIPHER-DECIPHER: -----OK-----


Test: 32
Hash algorithm: 0
Crypto pad: 2
Symmetric key bit length: 128
IV bit length:            128
Plaintext bit length:     136
Symmetric key:            00000000000000000000000000000000
IV:                       20202020202020202020202020202020
Plaintext:                0000000000000000000000000000000000
Ciphertext:               c6ce5fd95b845219f9f2155773f4bf873f69ae8b5db1d62509d132659b20ccfff92cf3dbc6750792918e0a3a79b670cf56b2340b146dceb4089a275f3ec22cac
Reciphers for ciphertext: 0
Decipheredtext:           0000000000000000000000000000000000
RESULT CIPHER-DECIPHER: -----OK-----


Test: 33
Hash algorithm: 2
Crypto pad: 2
Symmetric key bit length: 128
IV bit length:            128
Plaintext bit length:     136
Symmetric key:            00000000000000000000000000000000
IV:                       21212121212121212121212121212121
Plaintext:                0000000000000000000000000000000000
Ciphertext:               453cc24f7c5b0eb4b7c33d0c49b0d98027d5931be4ca1e01ff2c5400dbd1aafd2024a8da6a380f2a943043d754f87d3d66b1a329b93e9efaa963bf2b96756c0fb5fa8d6fcbd8c324967eb7178b4dd820
Reciphers for ciphertext: 0
Decipheredtext:           0000000000000000000000000000000000
RESULT CIPHER-DECIPHER: -----OK-----


Test: 34
Hash algorithm: 6
Crypto pad: 2
Symmetric key bit length: 128
IV bit length:            128
Plaintext bit length:     136
Symmetric key:            00000000000000000000000000000000
IV:                       22222222222222222222222222222222
Plaintext:                0000000000000000000000000000000000
Ciphertext:               6c9b42e8357788c5627b8c8da65399f5d1d754057bb095957e68553abda271f36d7f7c23ffa1f55d2e487b5513d0addb8645aa80b0a85e50893831d59d1ee374342daa0578a613fadb19c3cc5bab8989
Reciphers for ciphertext: 0
Decipheredtext:           0000000000000000000000000000000000
RESULT CIPHER-DECIPHER: -----OK-----


Test: 35
Hash algorithm: 6
Crypto pad: 1
Symmetric key bit length: 128
IV bit length:            128
Plaintext bit length:     136
Symmetric key:            00000000000000000000000000000000
IV:                       23232323232323232323232323232323
Plaintext:                0000000000000000000000000000000000
Ciphertext:               805ca9d11aa6163a596d1f0be24bffd1c4b13bcf67038a17fb87a2151453c4c2fa6b1a233402901bcf511164cddfeb07b08e2d8f4559e3dd42c4856671f3bbd93a5536627081f2848a1d8e44eaf0b147
Reciphers for ciphertext: 0
Decipheredtext:           0000000000000000000000000000000000
RESULT CIPHER-DECIPHER: -----OK-----


Test: 36
Hash algorithm: 6
Crypto pad: 0
Symmetric key bit length: 128
IV bit length:            128
Plaintext bit length:     136
Symmetric key:            00000000000000000000000000000000
IV:                       24242424242424242424242424242424
Plaintext:                0000000000000000000000000000000000
Ciphertext:               30de2252b48f58f33246d330145d11a6eca8929906018df2ee3da19e32178efa6715e7ccbd3d64c5d25869c9a66c0ebe0d807e365cfc2e75692b7968f61b13052993974e9995a327980455074f73d8b4
Reciphers for ciphertext: 0
Decipheredtext:           0000000000000000000000000000000000
RESULT CIPHER-DECIPHER: -----OK-----


Test: 37
Hash algorithm: 12
Crypto pad: 2
Symmetric key bit length: 128
IV bit length:            128
Plaintext bit length:     136
Symmetric key:            00000000000000000000000000000000
IV:                       25252525252525252525252525252525
Plaintext:                0000000000000000000000000000000000
Ciphertext:               1f6b309817c75b3e49e988533ec79adf3d7c7eb54763ae1b6e19feed3b6b202564be66ee8cd0449068e431c2d81267bbdf67a7aad83214927a0d79320f898369
Reciphers for ciphertext: 0
Decipheredtext:           0000000000000000000000000000000000
RESULT CIPHER-DECIPHER: -----OK-----


Test: 38
Hash algorithm: 2
Crypto pad: 0
Symmetric key bit length: 128
IV bit length:            128
Plaintext bit length:     136
Symmetric key:            00000000000000000000000000000000
IV:                       26262626262626262626262626262626
Plaintext:                0000000000000000000000000000000000
Ciphertext:               1cd52e904a9d5b1af9e71719a06498a2aa2a1ada03043fc4bab9cbce4d59de1a56ff720effdc6fcaa1bcfe859df24eac8b9f9240ff2304933787a667ce90b629402052c33d3f322cc3ce0a4236fc6310
Reciphers for ciphertext: 0
Decipheredtext:           0000000000000000000000000000000000
RESULT CIPHER-DECIPHER: -----OK-----


Test: 39
Hash algorithm: 2
Crypto pad: 2
Symmetric key bit length: 128
IV bit length:            128
Plaintext bit length:     136
Symmetric key:            00000000000000000000000000000000
IV:                       27272727272727272727272727272727
Plaintext:                0000000000000000000000000000000000
Ciphertext:               08903f62ce25436ab56cf944ecd8a372b6e71537215f7117e3eeef2523cca428227cb7a40a9460767ce92ea3b12c3209ffa170531ccbc650d9ea1c8caf5ee537932b8cbdd0ea1bd26ee31b22d638ab32
Reciphers for ciphertext: 0
Decipheredtext:           0000000000000000000000000000000000
RESULT CIPHER-DECIPHER: -----OK-----


Test: 40
Hash algorithm: 4
Crypto pad: 2
Symmetric key bit length: 128
IV bit length:            128
Plaintext bit length:     136
Symmetric key:            00000000000000000000000000000000
IV:                       28282828282828282828282828282828
Plaintext:                0000000000000000000000000000000000
Ciphertext:               43ca03eed13dd8a0bc5f4851c82854c3f98f4e31264c233dd388d06ee42df8f6b382c5ff8794c971f66edfcd7f18ddf1aeb66e769e29e05559e2a712ceb1448821dee48a1a98c3ba198cd06bcbe0129527e5fe6f1c4e079afe1732928839b581a09c07f7a359e477bb1d30076a766648
Reciphers for ciphertext: 0
Decipheredtext:           0000000000000000000000000000000000
RESULT CIPHER-DECIPHER: -----OK-----


Test: 41
Hash algorithm: 6
Crypto pad: 0
Symmetric key bit length: 128
IV bit length:            128
Plaintext bit length:     136
Symmetric key:            00000000000000000000000000000000
IV:                       29292929292929292929292929292929
Plaintext:                0000000000000000000000000000000000
Ciphertext:               6c1ae9759f6b069d45186f07974536a77f2ce9fa644b74aa216a173114c0a48f34c781325df846ebc99c1a55f5c675b4aa251878f4af1e8d4865b980c1c1abbf3542f5d40c259fe79419e6ae5086257d
Reciphers for ciphertext: 0
Decipheredtext:           0000000000000000000000000000000000
RESULT CIPHER-DECIPHER: -----OK-----


Test: 42
Hash algorithm: 0
Crypto pad: 0
Symmetric key bit length: 128
IV bit length:            128
Plaintext bit length:     136
Symmetric key:            00000000000000000000000000000000
IV:                       2a2a2a2a2a2a2a2a2a2a2a2a2a2a2a2a
Plaintext:                0000000000000000000000000000000000
Ciphertext:               d12e6b214afc96779d35428dba7ef40d24839e7bf9ac8658c60e3db58c33153cb4a9916076876a39215a645b40e51ef3b3c2a98f0fec2f9da15276d8a7e5b8fb
Reciphers for ciphertext: 0
Decipheredtext:           0000000000000000000000000000000000
RESULT CIPHER-DECIPHER: -----OK-----


Test: 43
Hash algorithm: 1
Crypto pad: 1
Symmetric key bit length: 128
IV bit length:            128
Plaintext bit length:     136
Symmetric key:            00000000000000000000000000000000
IV:                       2b2b2b2b2b2b2b2b2b2b2b2b2b2b2b2b
Plaintext:                0000000000000000000000000000000000
Ciphertext:               f7eb139850e20b7a869a775209dacfc7bef54dcb4cc9d479d0660dacae24e583b79e80c28481f3ffe179de39fdd8308426ec69c333caf4cd34011b5e091d5cd0
Reciphers for ciphertext: 0
Decipheredtext:           0000000000000000000000000000000000
RESULT CIPHER-DECIPHER: -----OK-----


Test: 44
Hash algorithm: 12
Crypto pad: 2
Symmetric key bit length: 128
IV bit length:            128
Plaintext bit length:     136
Symmetric key:            00000000000000000000000000000000
IV:                       2c2c2c2c2c2c2c2c2c2c2c2c2c2c2c2c
Plaintext:                0000000000000000000000000000000000
Ciphertext:               0feba9d28915072b363be732ab8e873fb1a2f5568f1988a209f9ccd04ecdc4d781bf43be84cc8f642643d4e3f9a1d7ff4a12f1b1a261be86dee399665a12b92d
Reciphers for ciphertext: 0
Decipheredtext:           0000000000000000000000000000000000
RESULT CIPHER-DECIPHER: -----OK-----


Test: 45
Hash algorithm: 11
Crypto pad: 0
Symmetric key bit length: 128
IV bit length:            128
Plaintext bit length:     136
Symmetric key:            00000000000000000000000000000000
IV:                       2d2d2d2d2d2d2d2d2d2d2d2d2d2d2d2d
Plaintext:                0000000000000000000000000000000000
Ciphertext:               8c0b772699c7a6d0e533eb6828920cc905fab771009ac9f4e4e79f3328626d6df786b6eff9a92a57dbcd48d5831052d2f3f2d3587bab10f421a1e3d05de0025c
Reciphers for ciphertext: 0
Decipheredtext:           0000000000000000000000000000000000
RESULT CIPHER-DECIPHER: -----OK-----


Test: 46
Hash algorithm: 8
Crypto pad: 1
Symmetric key bit length: 128
IV bit length:            128
Plaintext bit length:     136
Symmetric key:            00000000000000000000000000000000
IV:                       2e2e2e2e2e2e2e2e2e2e2e2e2e2e2e2e
Plaintext:                0000000000000000000000000000000000
Ciphertext:               e07139d37ae7a3dff6cb05846b04e55673829d2f07ae37b9c4f8e772180664129910d4253bbc95e2730a16641ace3807abb65360e01e90869d48c0fc81b42f45
Reciphers for ciphertext: 0
Decipheredtext:           0000000000000000000000000000000000
RESULT CIPHER-DECIPHER: -----OK-----


Test: 47
Hash algorithm: 10
Crypto pad: 1
Symmetric key bit length: 128
IV bit length:            128
Plaintext bit length:     136
Symmetric key:            00000000000000000000000000000000
IV:                       2f2f2f2f2f2f2f2f2f2f2f2f2f2f2f2f
Plaintext:                0000000000000000000000000000000000
Ciphertext:               dc3bc8f0df6302ca34bc452229565ab54b482eedf4c2bad9f12633969b4f5d9a8bf4cf31a629ee8d135d7ec1d8343639a1e97c56c6df0b128035fe7e7cf861431644f6589c8830aeacbfd8b13ed34dc4
Reciphers for ciphertext: 0
Decipheredtext:           0000000000000000000000000000000000
RESULT CIPHER-DECIPHER: -----OK-----


Test: 48
Hash algorithm: 5
Crypto pad: 0
Symmetric key bit length: 128
IV bit length:            128
Plaintext bit length:     136
Symmetric key:            00000000000000000000000000000000
IV:                       30303030303030303030303030303030
Plaintext:                0000000000000000000000000000000000
Ciphertext:               e08682be5f2b18a6e8437a15b110d418bda9fef493784df9ea897bac0e12192d94e4f84c6315bae5d8576645a39fdb1c0fb6c6167e4cc6a9ad2d8053c5625aba
Reciphers for ciphertext: 0
Decipheredtext:           0000000000000000000000000000000000
RESULT CIPHER-DECIPHER: -----OK-----


Test: 49
Hash algorithm: 10
Crypto pad: 0
Symmetric key bit length: 128
IV bit length:            128
Plaintext bit length:     136
Symmetric key:            00000000000000000000000000000000
IV:                       31313131313131313131313131313131
Plaintext:                0000000000000000000000000000000000
Ciphertext:               b6de54f9a78637d1eb523ca7201589f42a284fd6f61e465e40603c8ac4892661f3ccf47abc53b730330e5069e0cc0f2b7ab3986283776fa50dd235fb92ac1170f0cdaa58ba53fb297662f6f271b2ee7f
Reciphers for ciphertext: 0
Decipheredtext:           0000000000000000000000000000000000
RESULT CIPHER-DECIPHER: -----OK-----


Test: 50
Hash algorithm: 12
Crypto pad: 1
Symmetric key bit length: 128
IV bit length:            128
Plaintext bit length:     136
Symmetric key:            00000000000000000000000000000000
IV:                       32323232323232323232323232323232
Plaintext:                0000000000000000000000000000000000
Ciphertext:               9406b79d9f1733ac15ad53b66671ac0fed53850e0c10bfad0e32507864c09795a542508f3840d399ce819ea30a26de7750a0b1b8a71df0dc0817635a07e1923b
Reciphers for ciphertext: 0
Decipheredtext:           0000000000000000000000000000000000
RESULT CIPHER-DECIPHER: -----OK-----


Test: 51
Hash algorithm: 0
Crypto pad: 1
Symmetric key bit length: 128
IV bit length:            128
Plaintext bit length:     136
Symmetric key:            00000000000000000000000000000000
IV:                       33333333333333333333333333333333
Plaintext:                0000000000000000000000000000000000
Ciphertext:               2e3a7007e0696fed74cdf0e5d2e4651dbb580f75b3121188a72c4b09e540e9464992b11eab270be19412d43017c9b1d9b690b1855aab4d93b520ebe353147000
Reciphers for ciphertext: 0
Decipheredtext:           0000000000000000000000000000000000
RESULT CIPHER-DECIPHER: -----OK-----


Test: 52
Hash algorithm: 8
Crypto pad: 2
Symmetric key bit length: 128
IV bit length:            128
Plaintext bit length:     136
Symmetric key:            00000000000000000000000000000000
IV:                       34343434343434343434343434343434
Plaintext:                0000000000000000000000000000000000
Ciphertext:               b9c3bec826e9594a10878413773bcce3739bc95732e394ffb3a73647b697644ebf08576ebeb99c21f9b491543c60bfc009798f7495b641b56ee5b20b5bb0bb54
Reciphers for ciphertext: 0
Decipheredtext:           0000000000000000000000000000000000
RESULT CIPHER-DECIPHER: -----OK-----


Test: 53
Hash algorithm: 2
Crypto pad: 2
Symmetric key bit length: 128
IV bit length:            128
Plaintext bit length:     136
Symmetric key:            00000000000000000000000000000000
IV:                       35353535353535353535353535353535
Plaintext:                0000000000000000000000000000000000
Ciphertext:               9c041158671909d6e27cdec190905ec87f9bf1d5ecc53e4c992db782a051e4e0a4cdff0014af8fd73a27bdef03f8378cff54c2b41865938e550cba96ce699c46e5a727c25e5c844b440ff0fb993e6f67
Reciphers for ciphertext: 0
Decipheredtext:           0000000000000000000000000000000000
RESULT CIPHER-DECIPHER: -----OK-----


Test: 54
Hash algorithm: 12
Crypto pad: 2
Symmetric key bit length: 128
IV bit length:            128
Plaintext bit length:     136
Symmetric key:            00000000000000000000000000000000
IV:                       36363636363636363636363636363636
Plaintext:                0000000000000000000000000000000000
Ciphertext:               b268d4f22cfb940e61db58419d67d2c713deeb14d9f4a6ffe164217eef13f6e9444d65d6af547df348b879928e2fffdc8b2674cc442e3d2c0e482ad7f22ec0a4
Reciphers for ciphertext: 0
Decipheredtext:           0000000000000000000000000000000000
RESULT CIPHER-DECIPHER: -----OK-----


Test: 55
Hash algorithm: 13
Crypto pad: 2
Symmetric key bit length: 128
IV bit length:            128
Plaintext bit length:     136
Symmetric key:            00000000000000000000000000000000
IV:                       37373737373737373737373737373737
Plaintext:                0000000000000000000000000000000000
Ciphertext:               012e001e37b4a059c31d6de9b652e65998976b9e7df64e0eba2f590b847e794f2890945355fc563747c9a57ec0481a16a67116d477501244ec0c8f1923834bc5
Reciphers for ciphertext: 0
Decipheredtext:           0000000000000000000000000000000000
RESULT CIPHER-DECIPHER: -----OK-----


Test: 56
Hash algorithm: 3
Crypto pad: 1
Symmetric key bit length: 128
IV bit length:            128
Plaintext bit length:     136
Symmetric key:            00000000000000000000000000000000
IV:                       38383838383838383838383838383838
Plaintext:                0000000000000000000000000000000000
Ciphertext:               1c84bc596ee4f7bdfef72c248d252b988b2d20fe8a28a8c24a62a48d129e599a33a1a4310946114c5850194e2fa0b212c61498452d5f11f12c841035220c61f2a121b6bb8bbaaca4df799227acdf74e1c2c0043fcf589702223cd9828d28bc0c
Reciphers for ciphertext: 0
Decipheredtext:           0000000000000000000000000000000000
RESULT CIPHER-DECIPHER: -----OK-----


Test: 57
Hash algorithm: 5
Crypto pad: 2
Symmetric key bit length: 128
IV bit length:            128
Plaintext bit length:     136
Symmetric key:            00000000000000000000000000000000
IV:                       39393939393939393939393939393939
Plaintext:                0000000000000000000000000000000000
Ciphertext:               2108f2fceaf9f3eda3f302c84a8528cfbc4d09c169e1a974054ce8383f0df73b3f92670788164589ae5805cdb3b758e7b0a329d7ecc050d3fe57500a6999f6b3
Reciphers for ciphertext: 0
Decipheredtext:           0000000000000000000000000000000000
RESULT CIPHER-DECIPHER: -----OK-----


Test: 58
Hash algorithm: 5
Crypto pad: 0
Symmetric key bit length: 128
IV bit length:            128
Plaintext bit length:     136
Symmetric key:            00000000000000000000000000000000
IV:                       3a3a3a3a3a3a3a3a3a3a3a3a3a3a3a3a
Plaintext:                0000000000000000000000000000000000
Ciphertext:               97d582aba78ce627eb0f36533bbd14f7549925448507ec3bb25a0474db58fbf9708f661b954f7f72ef20cf290486314536a52b0dba8af75b82728f51116cd792
Reciphers for ciphertext: 0
Decipheredtext:           0000000000000000000000000000000000
RESULT CIPHER-DECIPHER: -----OK-----


Test: 59
Hash algorithm: 13
Crypto pad: 2
Symmetric key bit length: 128
IV bit length:            128
Plaintext bit length:     136
Symmetric key:            00000000000000000000000000000000
IV:                       3b3b3b3b3b3b3b3b3b3b3b3b3b3b3b3b
Plaintext:                0000000000000000000000000000000000
Ciphertext:               a6a28d3d8ae0dfd8994f5e1f8e1db45a0dfbda20ee77cd27f0bfd6c048f80792825ae1dec6e33137d3055b73698cbe2e2d94352c2eb0f1e3a39a5d728cc4a3e6
Reciphers for ciphertext: 0
Decipheredtext:           0000000000000000000000000000000000
RESULT CIPHER-DECIPHER: -----OK-----


Test: 60
Hash algorithm: 11
Crypto pad: 2
Symmetric key bit length: 128
IV bit length:            128
Plaintext bit length:     136
Symmetric key:            00000000000000000000000000000000
IV:                       3c3c3c3c3c3c3c3c3c3c3c3c3c3c3c3c
Plaintext:                0000000000000000000000000000000000
Ciphertext:               3c503fc1749a61be9ecd65dbf53a102df62cd3180858edc321c0eb8866958a7a0f8abd9e39c21f22f9e14cad0a5974564c9e703c160567560a980e92e9a7a11a
Reciphers for ciphertext: 0
Decipheredtext:           0000000000000000000000000000000000
RESULT CIPHER-DECIPHER: -----OK-----


Test: 61
Hash algorithm: 2
Crypto pad: 2
Symmetric key bit length: 128
IV bit length:            128
Plaintext bit length:     136
Symmetric key:            00000000000000000000000000000000
IV:                       3d3d3d3d3d3d3d3d3d3d3d3d3d3d3d3d
Plaintext:                0000000000000000000000000000000000
Ciphertext:               353b99205837c2da354ed65225af1bb76cc6ee527f43c98c1a9467af196752d98f888309073bf4cfe3600f512357fbf117ff38f21da557323f0b3927468343c731a90effff3ce8ee613b2605e8db5e17
Reciphers for ciphertext: 0
Decipheredtext:           0000000000000000000000000000000000
RESULT CIPHER-DECIPHER: -----OK-----


Test: 62
Hash algorithm: 8
Crypto pad: 2
Symmetric key bit length: 128
IV bit length:            128
Plaintext bit length:     136
Symmetric key:            00000000000000000000000000000000
IV:                       3e3e3e3e3e3e3e3e3e3e3e3e3e3e3e3e
Plaintext:                0000000000000000000000000000000000
Ciphertext:               a1892a40e523bcc3e0b0a3c2eabaadf2c5d3f750c0cc92cc9a2408f4488c4399aca7d6710d0aba5a004e10259a8919ffa0ab073e44bc77d2a0905f0353965ece
Reciphers for ciphertext: 0
Decipheredtext:           0000000000000000000000000000000000
RESULT CIPHER-DECIPHER: -----OK-----


Test: 63
Hash algorithm: 0
Crypto pad: 1
Symmetric key bit length: 128
IV bit length:            128
Plaintext bit length:     136
Symmetric key:            00000000000000000000000000000000
IV:                       3f3f3f3f3f3f3f3f3f3f3f3f3f3f3f3f
Plaintext:                0000000000000000000000000000000000
Ciphertext:               00e94befd4e8b8da0cc77bba5f1e0cc9faa0e6840edddfa330d354f38ef24b92dda41418bcff91d9173767f3f578461be920eeee5669b4770aaba1ca3d7568fd
Reciphers for ciphertext: 0
Decipheredtext:           0000000000000000000000000000000000
RESULT CIPHER-DECIPHER: -----OK-----


Test: 64
Hash algorithm: 12
Crypto pad: 2
Symmetric key bit length: 128
IV bit length:            128
Plaintext bit length:     136
Symmetric key:            00000000000000000000000000000000
IV:                       40404040404040404040404040404040
Plaintext:                0000000000000000000000000000000000
Ciphertext:               403d815d71c227bd1a233751235c6f2837e06ee591a968ed375d23e6024e77a0f0f77b2e4840b6afce6ffd2c4d5f2299a3d6fd8cf773aa10f2655b2b91fbcd52
Reciphers for ciphertext: 0
Decipheredtext:           0000000000000000000000000000000000
RESULT CIPHER-DECIPHER: -----OK-----


Test: 65
Hash algorithm: 12
Crypto pad: 2
Symmetric key bit length: 128
IV bit length:            128
Plaintext bit length:     136
Symmetric key:            00000000000000000000000000000000
IV:                       41414141414141414141414141414141
Plaintext:                0000000000000000000000000000000000
Ciphertext:               b49cbf19d357e6e1f6845c30fd5b63e3541cd94640df9cbcbb65884620e222d6808393449a6eff3a81ec63b0548779903e32d4e10df87854180ebf3181579283
Reciphers for ciphertext: 0
Decipheredtext:           0000000000000000000000000000000000
RESULT CIPHER-DECIPHER: -----OK-----


Test: 66
Hash algorithm: 12
Crypto pad: 1
Symmetric key bit length: 128
IV bit length:            128
Plaintext bit length:     136
Symmetric key:            00000000000000000000000000000000
IV:                       42424242424242424242424242424242
Plaintext:                0000000000000000000000000000000000
Ciphertext:               bfdaa57cb812189713a950ad994788797a7ed44da9f652bc832a0e858e5cca6cd3c34d9bb16d2e328945cff1a4515d2ad4187afe02b49a165e8a8f32899449d9
Reciphers for ciphertext: 0
Decipheredtext:           0000000000000000000000000000000000
RESULT CIPHER-DECIPHER: -----OK-----


Test: 67
Hash algorithm: 0
Crypto pad: 1
Symmetric key bit length: 128
IV bit length:            128
Plaintext bit length:     136
Symmetric key:            00000000000000000000000000000000
IV:                       43434343434343434343434343434343
Plaintext:                0000000000000000000000000000000000
Ciphertext:               7ad53ebdb19a1e1ffbde1c9faf59ad591367414cc9f66aad929979ff11790aa7519154f92ccdcc7804d2f5cbfa3c015b58e1707dc15cea5c96b238f940d21c05
Reciphers for ciphertext: 0
Decipheredtext:           0000000000000000000000000000000000
RESULT CIPHER-DECIPHER: -----OK-----


Test: 68
Hash algorithm: 6
Crypto pad: 0
Symmetric key bit length: 128
IV bit length:            128
Plaintext bit length:     136
Symmetric key:            00000000000000000000000000000000
IV:                       44444444444444444444444444444444
Plaintext:                0000000000000000000000000000000000
Ciphertext:               1f4d180108a2bc733fce3a408ea81d03e6ec54b76e9b3f9b0ef894ff58271d9080b44031900f2bb0ee7975826c7b9c2878499628c51788a4e1d7625743420660bf19bbd85ac12fe8ec68552fc16fbfac
Reciphers for ciphertext: 0
Decipheredtext:           0000000000000000000000000000000000
RESULT CIPHER-DECIPHER: -----OK-----


Test: 69
Hash algorithm: 10
Crypto pad: 0
Symmetric key bit length: 128
IV bit length:            128
Plaintext bit length:     136
Symmetric key:            00000000000000000000000000000000
IV:                       45454545454545454545454545454545
Plaintext:                0000000000000000000000000000000000
Ciphertext:               13c37af5c8157630c9fbdcb2585590194db610359804ec82c147b85b6aa062dccab422cd58519dede93021fdab922c2e4dc0b615fbad6f82b0baaf06ba2e8e8194d5bc21673764ee86628015691a6e57
Reciphers for ciphertext: 0
Decipheredtext:           0000000000000000000000000000000000
RESULT CIPHER-DECIPHER: -----OK-----


Test: 70
Hash algorithm: 6
Crypto pad: 0
Symmetric key bit length: 128
IV bit length:            128
Plaintext bit length:     136
Symmetric key:            00000000000000000000000000000000
IV:                       46464646464646464646464646464646
Plaintext:                0000000000000000000000000000000000
Ciphertext:               72b563154a8ea9eb60328ca2a44e29cc5f64da2b15684fe59176bb6efcc82791931e16b39da7076715114f00edcc2888e5447e25a248844f268c02cd13b95268b060f172a197e0df178da86fa37ec013
Reciphers for ciphertext: 0
Decipheredtext:           0000000000000000000000000000000000
RESULT CIPHER-DECIPHER: -----OK-----


Test: 71
Hash algorithm: 4
Crypto pad: 2
Symmetric key bit length: 128
IV bit length:            128
Plaintext bit length:     136
Symmetric key:            00000000000000000000000000000000
IV:                       47474747474747474747474747474747
Plaintext:                0000000000000000000000000000000000
Ciphertext:               e4e077519484d17dc8c0725a06e449a70ea4b9094dd9a69136d43e9e489c80b6b5ba0aa507d720decfa175f54d823181cf9d8daf09c0f1013c799e11a9bdb5754647a7ad51a8993072f69184a1d3a95ec3414712984445f89cffa8e458db422bcdbb33c5e545d530bd90d945cb91946d
Reciphers for ciphertext: 0
Decipheredtext:           0000000000000000000000000000000000
RESULT CIPHER-DECIPHER: -----OK-----


Test: 72
Hash algorithm: 8
Crypto pad: 1
Symmetric key bit length: 128
IV bit length:            128
Plaintext bit length:     136
Symmetric key:            00000000000000000000000000000000
IV:                       48484848484848484848484848484848
Plaintext:                0000000000000000000000000000000000
Ciphertext:               d0dd87c780eb51b9a3bfa578bed37cf47bf07b567d2205615ef549bbd0d62f1aa4bd2430a12a18718df9cdb7926df1f5c98270ec597bfae1ae972eddcd8723bd
Reciphers for ciphertext: 0
Decipheredtext:           0000000000000000000000000000000000
RESULT CIPHER-DECIPHER: -----OK-----


Test: 73
Hash algorithm: 4
Crypto pad: 1
Symmetric key bit length: 128
IV bit length:            128
Plaintext bit length:     136
Symmetric key:            00000000000000000000000000000000
IV:                       49494949494949494949494949494949
Plaintext:                0000000000000000000000000000000000
Ciphertext:               d979653824ff7ed5cf96d9936e05b0dc21d47eb1224ede1dc7917cc6ffbaf6a8e8fb18788a878ae3c744b19059fa31375b7e87f9a3ec4600487685debb61089d1a96467ad5b9e961264d8bcfd9a20b1a22182e45e3b82ec3ac69304755bfb3aff46a926766839a70855c3863863443dd
Reciphers for ciphertext: 0
Decipheredtext:           0000000000000000000000000000000000
RESULT CIPHER-DECIPHER: -----OK-----


Test: 74
Hash algorithm: 4
Crypto pad: 2
Symmetric key bit length: 128
IV bit length:            128
Plaintext bit length:     136
Symmetric key:            00000000000000000000000000000000
IV:                       4a4a4a4a4a4a4a4a4a4a4a4a4a4a4a4a
Plaintext:                0000000000000000000000000000000000
Ciphertext:               e7872bbd4fe2c1b008931041b3dc7739cf4d2e329c67f7d08e36be149eb6e04cc05fb6ba7dbe0bc2ab22459c9d6c4fdd9372a719ffc5176474fcc1f85a794f3170addceef87273cc04e49c46d8605843a174387ecf567c2c2ff985859d61326d131e03bdf65e11075213c7a0ba2454b1
Reciphers for ciphertext: 0
Decipheredtext:           0000000000000000000000000000000000
RESULT CIPHER-DECIPHER: -----OK-----


Test: 75
Hash algorithm: 10
Crypto pad: 2
Symmetric key bit length: 128
IV bit length:            128
Plaintext bit length:     136
Symmetric key:            00000000000000000000000000000000
IV:                       4b4b4b4b4b4b4b4b4b4b4b4b4b4b4b4b
Plaintext:                0000000000000000000000000000000000
Ciphertext:               29b706226d44eb8e9c8535b544c80521ff2e785373bf99abf4241c24955ebc36428c387ddb2b6b5c22fdf80f37bd1d770b224e846365dd0908240dfff0b60f39f5514ce43b0b9282935eef3bc9acac31
Reciphers for ciphertext: 0
Decipheredtext:           0000000000000000000000000000000000
RESULT CIPHER-DECIPHER: -----OK-----


Test: 76
Hash algorithm: 9
Crypto pad: 2
Symmetric key bit length: 128
IV bit length:            128
Plaintext bit length:     136
Symmetric key:            00000000000000000000000000000000
IV:                       4c4c4c4c4c4c4c4c4c4c4c4c4c4c4c4c
Plaintext:                0000000000000000000000000000000000
Ciphertext:               1d983819e4212f50292694f1d3d534a9d474b22f033cdd82cfa64d221774d7c6a4eee2ae97937cc9141eb6edd87654313b817c3310b5aca00ef55d985c926b10797941f13a5bacf09791cfbf50a8b13c
Reciphers for ciphertext: 0
Decipheredtext:           0000000000000000000000000000000000
RESULT CIPHER-DECIPHER: -----OK-----


Test: 77
Hash algorithm: 12
Crypto pad: 0
Symmetric key bit length: 128
IV bit length:            128
Plaintext bit length:     136
Symmetric key:            00000000000000000000000000000000
IV:                       4d4d4d4d4d4d4d4d4d4d4d4d4d4d4d4d
Plaintext:                0000000000000000000000000000000000
Ciphertext:               b565e8d9c866438d2e1c54f42504f32f3ea2e36e7651d7d8d43a631ffa7225aadd128b99cb48a662f8a428e73a77e42a59c73cea180b74f3c632275e051b9918
Reciphers for ciphertext: 0
Decipheredtext:           0000000000000000000000000000000000
RESULT CIPHER-DECIPHER: -----OK-----


Test: 78
Hash algorithm: 13
Crypto pad: 0
Symmetric key bit length: 128
IV bit length:            128
Plaintext bit length:     136
Symmetric key:            00000000000000000000000000000000
IV:                       4e4e4e4e4e4e4e4e4e4e4e4e4e4e4e4e
Plaintext:                0000000000000000000000000000000000
Ciphertext:               c2f7b8ff2e98fd47b196afeaba4c87d9cd3ac1004347a663532ccc9d4cc606bd2c075d294da912753b4182302ad27f3bd907277516a793daa1d738276469ff72
Reciphers for ciphertext: 0
Decipheredtext:           0000000000000000000000000000000000
RESULT CIPHER-DECIPHER: -----OK-----


Test: 79
Hash algorithm: 2
Crypto pad: 0
Symmetric key bit length: 128
IV bit length:            128
Plaintext bit length:     136
Symmetric key:            00000000000000000000000000000000
IV:                       4f4f4f4f4f4f4f4f4f4f4f4f4f4f4f4f
Plaintext:                0000000000000000000000000000000000
Ciphertext:               e52b12881030ec384bc39261136b6a954c75af0849ad8132eaa7c841593be6905ec2309078e068039aad8306541aebbf1d5c9c5587e81b4bc262e5bd63b22661c765ba26340977f5be0c37b181d361ad
Reciphers for ciphertext: 0
Decipheredtext:           0000000000000000000000000000000000
RESULT CIPHER-DECIPHER: -----OK-----


Test: 80
Hash algorithm: 9
Crypto pad: 1
Symmetric key bit length: 128
IV bit length:            128
Plaintext bit length:     136
Symmetric key:            00000000000000000000000000000000
IV:                       50505050505050505050505050505050
Plaintext:                0000000000000000000000000000000000
Ciphertext:               97718caafe27a5d1497b79f732d93708a77056b023ee5f873371d4bbf52905879a06b15eb37fe77a606e4bf94ef55cc0e8e6555710613e55335249db730402186a45207d9a542be6d0ac2c7a732c0e8d
Reciphers for ciphertext: 0
Decipheredtext:           0000000000000000000000000000000000
RESULT CIPHER-DECIPHER: -----OK-----


Test: 81
Hash algorithm: 11
Crypto pad: 0
Symmetric key bit length: 128
IV bit length:            128
Plaintext bit length:     136
Symmetric key:            00000000000000000000000000000000
IV:                       51515151515151515151515151515151
Plaintext:                0000000000000000000000000000000000
Ciphertext:               25f609479a00cb059c554e7190bc9d63f0e0b22e380fce4417f587d78bd70be83945a93cb81d202fc413f36a05243ac7a5fd26aa75d20de39357ea4919ccacd8
Reciphers for ciphertext: 0
Decipheredtext:           0000000000000000000000000000000000
RESULT CIPHER-DECIPHER: -----OK-----


Test: 82
Hash algorithm: 13
Crypto pad: 1
Symmetric key bit length: 128
IV bit length:            128
Plaintext bit length:     136
Symmetric key:            00000000000000000000000000000000
IV:                       52525252525252525252525252525252
Plaintext:                0000000000000000000000000000000000
Ciphertext:               87591de1a5f33bed2c8422561481180669cad15ea11ec0199973a104362dccaa5475dd9ab1f0caf4bf9f0f479ae81933184c7bee05e9633f008c203528e5df72
Reciphers for ciphertext: 0
Decipheredtext:           0000000000000000000000000000000000
RESULT CIPHER-DECIPHER: -----OK-----


Test: 83
Hash algorithm: 2
Crypto pad: 0
Symmetric key bit length: 128
IV bit length:            128
Plaintext bit length:     136
Symmetric key:            00000000000000000000000000000000
IV:                       53535353535353535353535353535353
Plaintext:                0000000000000000000000000000000000
Ciphertext:               4bfcd942ec4cfc609520a89109c293030cbd7b2461700cbff5266e1e10bb706a67c0bc841ba2b6cf249c25f4135843535c0f27bbb2f143e52d75401522b65b65c542b0fe83f0134f05dc4f3325b37588
Reciphers for ciphertext: 0
Decipheredtext:           0000000000000000000000000000000000
RESULT CIPHER-DECIPHER: -----OK-----


Test: 84
Hash algorithm: 2
Crypto pad: 1
Symmetric key bit length: 128
IV bit length:            128
Plaintext bit length:     136
Symmetric key:            00000000000000000000000000000000
IV:                       54545454545454545454545454545454
Plaintext:                0000000000000000000000000000000000
Ciphertext:               b2c1f39fbdb1497c571cb223cf2201439dc1b33d2e98c7fb3b2366669a2f39ac6b4ba7cb238a9775148c4de0cbf33375a19085fc4a2f071daa45aad91572bbf9be867359da58f2752fc15667b7157978
Reciphers for ciphertext: 0
Decipheredtext:           0000000000000000000000000000000000
RESULT CIPHER-DECIPHER: -----OK-----


Test: 85
Hash algorithm: 7
Crypto pad: 2
Symmetric key bit length: 128
IV bit length:            128
Plaintext bit length:     136
Symmetric key:            00000000000000000000000000000000
IV:                       55555555555555555555555555555555
Plaintext:                0000000000000000000000000000000000
Ciphertext:               9adae054f63dfaff5ea18e45edf6ea6f66f8b0dc798c118ed89cb9455c90b66deb40c884e5a272e8847e0684fd906e703123efb7dc937440433bd5c3558e4976
Reciphers for ciphertext: 0
Decipheredtext:           0000000000000000000000000000000000
RESULT CIPHER-DECIPHER: -----OK-----


Test: 86
Hash algorithm: 13
Crypto pad: 2
Symmetric key bit length: 128
IV bit length:            128
Plaintext bit length:     136
Symmetric key:            00000000000000000000000000000000
IV:                       56565656565656565656565656565656
Plaintext:                0000000000000000000000000000000000
Ciphertext:               c4978173bda102ca2cff03c5bb21237113c4f1f9d67e835a8a071d24d33f14c3505357ba70fee2ef195c30c18cee4c5a31a7b6ad32172eec5277b671eb0b34b8
Reciphers for ciphertext: 0
Decipheredtext:           0000000000000000000000000000000000
RESULT CIPHER-DECIPHER: -----OK-----


Test: 87
Hash algorithm: 5
Crypto pad: 0
Symmetric key bit length: 128
IV bit length:            128
Plaintext bit length:     136
Symmetric key:            00000000000000000000000000000000
IV:                       57575757575757575757575757575757
Plaintext:                0000000000000000000000000000000000
Ciphertext:               a2a0090b3eaf42171d9b4ccb42128286c4a34612bb01b5ea7cea1f96f82582f6d0692b4de51af1098220ee3c33422edb8d6ecc4f02a916e76e20425823816cf6
Reciphers for ciphertext: 0
Decipheredtext:           0000000000000000000000000000000000
RESULT CIPHER-DECIPHER: -----OK-----


Test: 88
Hash algorithm: 3
Crypto pad: 2
Symmetric key bit length: 128
IV bit length:            128
Plaintext bit length:     136
Symmetric key:            00000000000000000000000000000000
IV:                       58585858585858585858585858585858
Plaintext:                0000000000000000000000000000000000
Ciphertext:               b17dba7290137d5ef55d2ed6dd2f72cb54c4eb38c03c1ae792d473d8a5493b3c5983baa18295b35bcf37e140c29ec65c05b9bf82ffff91a526fa524e1c452de71b7bd4ee613cac033e793b411fc754cbac51b6510fe8ae6200ce3c1a3631269c
Reciphers for ciphertext: 0
Decipheredtext:           0000000000000000000000000000000000
RESULT CIPHER-DECIPHER: -----OK-----


Test: 89
Hash algorithm: 12
Crypto pad: 0
Symmetric key bit length: 128
IV bit length:            128
Plaintext bit length:     136
Symmetric key:            00000000000000000000000000000000
IV:                       59595959595959595959595959595959
Plaintext:                0000000000000000000000000000000000
Ciphertext:               1c1999d0a6c796f79f4dc2b27aee2b2634986fc0aa86fc4163cd065dfe0c69df220302cca09c131ffcc54232a964cb4f339798dd6b7fee954ad6dcf7e91f24de
Reciphers for ciphertext: 0
Decipheredtext:           0000000000000000000000000000000000
RESULT CIPHER-DECIPHER: -----OK-----


Test: 90
Hash algorithm: 3
Crypto pad: 0
Symmetric key bit length: 128
IV bit length:            128
Plaintext bit length:     136
Symmetric key:            00000000000000000000000000000000
IV:                       5a5a5a5a5a5a5a5a5a5a5a5a5a5a5a5a
Plaintext:                0000000000000000000000000000000000
Ciphertext:               d1e0bb58f1d9a5ee3fe5ed3b49fef59d1af6b959de5014fa078d91b0c513b4eee418955f3edaf1ca4075626e74285e49dbd30bf561058701a9b85c7db74e33297e3e02251aa62631e41384ecf6ca79236e1249a0c7a0a9370d625026c6367f87
Reciphers for ciphertext: 0
Decipheredtext:           0000000000000000000000000000000000
RESULT CIPHER-DECIPHER: -----OK-----


Test: 91
Hash algorithm: 12
Crypto pad: 0
Symmetric key bit length: 128
IV bit length:            128
Plaintext bit length:     136
Symmetric key:            00000000000000000000000000000000
IV:                       5b5b5b5b5b5b5b5b5b5b5b5b5b5b5b5b
Plaintext:                0000000000000000000000000000000000
Ciphertext:               c1deb6e129e60abbe2c17778eb8ef81a927caf75e2cdad2bc5bc35ed0f781bc76435e4afac9a3f33df5222fcc5727cbbed74612ef97acdecf3a7956ae6e7edd4
Reciphers for ciphertext: 0
Decipheredtext:           0000000000000000000000000000000000
RESULT CIPHER-DECIPHER: -----OK-----


Test: 92
Hash algorithm: 12
Crypto pad: 0
Symmetric key bit length: 128
IV bit length:            128
Plaintext bit length:     136
Symmetric key:            00000000000000000000000000000000
IV:                       5c5c5c5c5c5c5c5c5c5c5c5c5c5c5c5c
Plaintext:                0000000000000000000000000000000000
Ciphertext:               a97f1ba4cf60fd58c1b06d6d142975255c140c3d094a8e440e9c25ea37efdd03a81cb38ed4a8db3f8959ecca7dc2bd57028eb7e0e34607f5fffc61c28da6e3be
Reciphers for ciphertext: 0
Decipheredtext:           0000000000000000000000000000000000
RESULT CIPHER-DECIPHER: -----OK-----


Test: 93
Hash algorithm: 13
Crypto pad: 1
Symmetric key bit length: 128
IV bit length:            128
Plaintext bit length:     136
Symmetric key:            00000000000000000000000000000000
IV:                       5d5d5d5d5d5d5d5d5d5d5d5d5d5d5d5d
Plaintext:                0000000000000000000000000000000000
Ciphertext:               b0aa369a2833cddfc4003f377b6bf7e4f4bdf0a52e2f1e8687f545db622223118d9d250915f38953bb3cbfa6e32b7f76db58e09730d99df9494763c8e2fe7ff6
Reciphers for ciphertext: 0
Decipheredtext:           0000000000000000000000000000000000
RESULT CIPHER-DECIPHER: -----OK-----


Test: 94
Hash algorithm: 5
Crypto pad: 0
Symmetric key bit length: 128
IV bit length:            128
Plaintext bit length:     136
Symmetric key:            00000000000000000000000000000000
IV:                       5e5e5e5e5e5e5e5e5e5e5e5e5e5e5e5e
Plaintext:                0000000000000000000000000000000000
Ciphertext:               a7a42c50de75f784f07c0f905c768d9e7c4fddae706eb97b679877cbc9ee5cfe3a45b66c3e7e69093ea9234b98ddbe636d04f70fc720982f0d7f8514b42bed8b
Reciphers for ciphertext: 0
Decipheredtext:           0000000000000000000000000000000000
RESULT CIPHER-DECIPHER: -----OK-----


Test: 95
Hash algorithm: 8
Crypto pad: 2
Symmetric key bit length: 128
IV bit length:            128
Plaintext bit length:     136
Symmetric key:            00000000000000000000000000000000
IV:                       5f5f5f5f5f5f5f5f5f5f5f5f5f5f5f5f
Plaintext:                0000000000000000000000000000000000
Ciphertext:               be5d21a228b8bb3384cf560e61219ee026907b12c8a82cc3293bea63007ecd43110b93dab02bbe9c2257278c9aa9a18000f9634fe80036a00cf2c0a4ca83417f
Reciphers for ciphertext: 0
Decipheredtext:           0000000000000000000000000000000000
RESULT CIPHER-DECIPHER: -----OK-----


Test: 96
Hash algorithm: 8
Crypto pad: 1
Symmetric key bit length: 128
IV bit length:            128
Plaintext bit length:     136
Symmetric key:            00000000000000000000000000000000
IV:                       60606060606060606060606060606060
Plaintext:                0000000000000000000000000000000000
Ciphertext:               b4ec7574f4bbc75a1efe32f4bfa6eb9181d4d2d6996bead3c3d1bfa8d54e62c99ab9d43a7995f1b30e18f629c624a93057a8e453309e60197780d87c08ec82d4
Reciphers for ciphertext: 0
Decipheredtext:           0000000000000000000000000000000000
RESULT CIPHER-DECIPHER: -----OK-----


Test: 97
Hash algorithm: 4
Crypto pad: 1
Symmetric key bit length: 128
IV bit length:            128
Plaintext bit length:     136
Symmetric key:            00000000000000000000000000000000
IV:                       61616161616161616161616161616161
Plaintext:                0000000000000000000000000000000000
Ciphertext:               926c0fea05afd65f5931d29a9c6b3f9c51339d70f9f90dd0968327088b89ed91e483b992220272bbd44eb139bec68078f1a0fbafa20fc9d3e74e7ee222f61e74a62855b8d78d36aaa3cfb35beba7dbed75d476069c32a607bf9f0fe10612e5d3282d010ea76bcac6660702d8d87cafd2
Reciphers for ciphertext: 0
Decipheredtext:           0000000000000000000000000000000000
RESULT CIPHER-DECIPHER: -----OK-----


Test: 98
Hash algorithm: 9
Crypto pad: 0
Symmetric key bit length: 128
IV bit length:            128
Plaintext bit length:     136
Symmetric key:            00000000000000000000000000000000
IV:                       62626262626262626262626262626262
Plaintext:                0000000000000000000000000000000000
Ciphertext:               90aa2c65e83d81912f28210d1185a16777b52f28ae3cf0642edf8c35db33b7cb1d34036e3e67a8b78dfc7bd52e534335907b8d6e3f02a777cdcb082c5045da17c7c0cf08d4bc5af2ec0e47b7222847a4
Reciphers for ciphertext: 0
Decipheredtext:           0000000000000000000000000000000000
RESULT CIPHER-DECIPHER: -----OK-----


Test: 99
Hash algorithm: 3
Crypto pad: 1
Symmetric key bit length: 128
IV bit length:            128
Plaintext bit length:     136
Symmetric key:            00000000000000000000000000000000
IV:                       63636363636363636363636363636363
Plaintext:                0000000000000000000000000000000000
Ciphertext:               9d9a5cf8e4f0d187d305de9de48aaa3591314146ced0e7d1891f554cd72e84766642a46ef39c99712b9ba0370907d73d5625a0935f27fba4c528d51a00366e06eb62128a8601496b391b47cc856e6ef201d6af55afa918de69a059ab9acd18a8
Reciphers for ciphertext: 0
Decipheredtext:           0000000000000000000000000000000000
RESULT CIPHER-DECIPHER: -----OK-----


Test: 100
Hash algorithm: 4
Crypto pad: 2
Symmetric key bit length: 128
IV bit length:            128
Plaintext bit length:     136
Symmetric key:            00000000000000000000000000000000
IV:                       64646464646464646464646464646464
Plaintext:                0000000000000000000000000000000000
Ciphertext:               2529fe06f4999d7ffa831ef286028b2bba0d93e586b8d3bec90c5a99a2cdba354284c130bb7867b9666ac088a1ec2cdd6391cb1d8eebd18102c7defcd11a0894e8219da7d027960585af23438f0744c9f6a8a9b5bb31a77197268f059997bcfc1ea859d58807fe140bfe413be9c6eefe
Reciphers for ciphertext: 0
Decipheredtext:           0000000000000000000000000000000000
RESULT CIPHER-DECIPHER: -----OK-----


Test: 101
Hash algorithm: 11
Crypto pad: 1
Symmetric key bit length: 128
IV bit length:            128
Plaintext bit length:     136
Symmetric key:            00000000000000000000000000000000
IV:                       65656565656565656565656565656565
Plaintext:                0000000000000000000000000000000000
Ciphertext:               5e5816da962a31ba08d177a383f7af1e9e3d55507cf9574bf3bc05e3ecf264ec25c0da8e3b179b13c7820c9f113a75c38ae69db06f2a6e9d137303e5af1fe61e
Reciphers for ciphertext: 0
Decipheredtext:           0000000000000000000000000000000000
RESULT CIPHER-DECIPHER: -----OK-----


Test: 102
Hash algorithm: 1
Crypto pad: 2
Symmetric key bit length: 128
IV bit length:            128
Plaintext bit length:     136
Symmetric key:            00000000000000000000000000000000
IV:                       66666666666666666666666666666666
Plaintext:                0000000000000000000000000000000000
Ciphertext:               9760fa565ca9242db4337142d02e2a37ad3cd1aba583c5a8e341f6e0aaea6472345454f2724369c8d477fc0fee6054ba1e31f022c1350b09a632e469fcf6d4c7
Reciphers for ciphertext: 0
Decipheredtext:           0000000000000000000000000000000000
RESULT CIPHER-DECIPHER: -----OK-----


Test: 103
Hash algorithm: 2
Crypto pad: 0
Symmetric key bit length: 128
IV bit length:            128
Plaintext bit length:     136
Symmetric key:            00000000000000000000000000000000
IV:                       67676767676767676767676767676767
Plaintext:                0000000000000000000000000000000000
Ciphertext:               e8f605047bf04c36532995a562154ceaa435cd096d86eb0639e8d8598fe2ce7753884f2d93171f697c374cd3d0fa886ae4e9d4b2b1a01b938288c74ccd2696637ed3c92322c3bfa64290c6e8c68f1139
Reciphers for ciphertext: 0
Decipheredtext:           0000000000000000000000000000000000
RESULT CIPHER-DECIPHER: -----OK-----


Test: 104
Hash algorithm: 0
Crypto pad: 0
Symmetric key bit length: 128
IV bit length:            128
Plaintext bit length:     136
Symmetric key:            00000000000000000000000000000000
IV:                       68686868686868686868686868686868
Plaintext:                0000000000000000000000000000000000
Ciphertext:               204cbf15031f670405f16de142746f55b0a47a2fb270136a6d11a8dda9184eda6e4a25251a1d64a0604c58ff8c28df4dfc1c1fcaf6b1c77a7db7b43a2d69a901
Reciphers for ciphertext: 0
Decipheredtext:           0000000000000000000000000000000000
RESULT CIPHER-DECIPHER: -----OK-----


Test: 105
Hash algorithm: 13
Crypto pad: 1
Symmetric key bit length: 128
IV bit length:            128
Plaintext bit length:     136
Symmetric key:            00000000000000000000000000000000
IV:                       69696969696969696969696969696969
Plaintext:                0000000000000000000000000000000000
Ciphertext:               90fae13ffc88140c10a54428c22b2ce19085be2801a26010c1dd336dfc63ee1efcbc84471b79a80236869a7c414b162bf32bf72c4d4f5f7b22f77b36dc8946d3
Reciphers for ciphertext: 0
Decipheredtext:           0000000000000000000000000000000000
RESULT CIPHER-DECIPHER: -----OK-----


Test: 106
Hash algorithm: 10
Crypto pad: 2
Symmetric key bit length: 128
IV bit length:            128
Plaintext bit length:     136
Symmetric key:            00000000000000000000000000000000
IV:                       6a6a6a6a6a6a6a6a6a6a6a6a6a6a6a6a
Plaintext:                0000000000000000000000000000000000
Ciphertext:               5607477660d45c790d733afab28b73eea44b97164bf4b5215c9dfd09a9ccafe8e584912414397ef763accf357e15ee04864afb5fe38d6316d8390dec2934adecbd3f21508e00b6773a3842558d2cef5e
Reciphers for ciphertext: 0
Decipheredtext:           0000000000000000000000000000000000
RESULT CIPHER-DECIPHER: -----OK-----


Test: 107
Hash algorithm: 11
Crypto pad: 2
Symmetric key bit length: 128
IV bit length:            128
Plaintext bit length:     136
Symmetric key:            00000000000000000000000000000000
IV:                       6b6b6b6b6b6b6b6b6b6b6b6b6b6b6b6b
Plaintext:                0000000000000000000000000000000000
Ciphertext:               c145f1b8ff7767d3a93311fd031d045e44b32086ff21fa0502311dc4acd49f9b6192cacf9034f36cf94303481f3c7765f357a507366a276fe2c587c7f424e3f4
Reciphers for ciphertext: 0
Decipheredtext:           0000000000000000000000000000000000
RESULT CIPHER-DECIPHER: -----OK-----


Test: 108
Hash algorithm: 2
Crypto pad: 1
Symmetric key bit length: 128
IV bit length:            128
Plaintext bit length:     136
Symmetric key:            00000000000000000000000000000000
IV:                       6c6c6c6c6c6c6c6c6c6c6c6c6c6c6c6c
Plaintext:                0000000000000000000000000000000000
Ciphertext:               23ce1281a61744b877892c5ff8668fe109a4d7d0454544d429b5a80ce41fc0448f8fcc559ea29adf339350a3efe0625db954969cce34d36a59427d60f809798ca1eb77860b3ded389fc52579e6553c6a
Reciphers for ciphertext: 0
Decipheredtext:           0000000000000000000000000000000000
RESULT CIPHER-DECIPHER: -----OK-----


Test: 109
Hash algorithm: 8
Crypto pad: 2
Symmetric key bit length: 128
IV bit length:            128
Plaintext bit length:     136
Symmetric key:            00000000000000000000000000000000
IV:                       6d6d6d6d6d6d6d6d6d6d6d6d6d6d6d6d
Plaintext:                0000000000000000000000000000000000
Ciphertext:               ec18cc592305d35cb67989ed572fea5b4c980ea0bf0f25ae695c66c1da0ecd957a089240cf50b27502ea154f977f96b0aa76f319c156534afbab1f4c377facc9
Reciphers for ciphertext: 0
Decipheredtext:           0000000000000000000000000000000000
RESULT CIPHER-DECIPHER: -----OK-----


Test: 110
Hash algorithm: 0
Crypto pad: 1
Symmetric key bit length: 128
IV bit length:            128
Plaintext bit length:     136
Symmetric key:            00000000000000000000000000000000
IV:                       6e6e6e6e6e6e6e6e6e6e6e6e6e6e6e6e
Plaintext:                0000000000000000000000000000000000
Ciphertext:               256a93d3c48cfa92f2f9f5fa5b318a908d7948258b01d40a98aa338ebec2448b2c4f11c3e6456a4d13b9b4ecb8d0453a7fbfb2a3bcfa37608d1bfad84192874e
Reciphers for ciphertext: 0
Decipheredtext:           0000000000000000000000000000000000
RESULT CIPHER-DECIPHER: -----OK-----


Test: 111
Hash algorithm: 13
Crypto pad: 0
Symmetric key bit length: 128
IV bit length:            128
Plaintext bit length:     136
Symmetric key:            00000000000000000000000000000000
IV:                       6f6f6f6f6f6f6f6f6f6f6f6f6f6f6f6f
Plaintext:                0000000000000000000000000000000000
Ciphertext:               75738ebb52633fc2ecbac6f98cfe8dc9cc8b0f1837fd9fe68199aa4f70546751cde7a7e0c9fbfc839aed07f28f0ec6bd2fb192ad0c65c13cfefba3cd1b488080
Reciphers for ciphertext: 0
Decipheredtext:           0000000000000000000000000000000000
RESULT CIPHER-DECIPHER: -----OK-----


Test: 112
Hash algorithm: 13
Crypto pad: 1
Symmetric key bit length: 128
IV bit length:            128
Plaintext bit length:     136
Symmetric key:            00000000000000000000000000000000
IV:                       70707070707070707070707070707070
Plaintext:                0000000000000000000000000000000000
Ciphertext:               1f12cf60d35d0d6f821e66fdd79a721852429023586fba1baee0d2d42aefca165dec824edc4d76f159c350d8cccd53f638c5ad7fba7e2b154a6bfed33425656b
Reciphers for ciphertext: 0
Decipheredtext:           0000000000000000000000000000000000
RESULT CIPHER-DECIPHER: -----OK-----


Test: 113
Hash algorithm: 12
Crypto pad: 2
Symmetric key bit length: 128
IV bit length:            128
Plaintext bit length:     136
Symmetric key:            00000000000000000000000000000000
IV:                       71717171717171717171717171717171
Plaintext:                0000000000000000000000000000000000
Ciphertext:               c16a063936ba5ea3824221959926022610e73c8654f30c0add538070018e09b4f8563d2063cfce83794243ecf7b890bbc85e064ba5e367c80f3ca39aaf1d1409
Reciphers for ciphertext: 0
Decipheredtext:           0000000000000000000000000000000000
RESULT CIPHER-DECIPHER: -----OK-----


Test: 114
Hash algorithm: 1
Crypto pad: 1
Symmetric key bit length: 128
IV bit length:            128
Plaintext bit length:     136
Symmetric key:            00000000000000000000000000000000
IV:                       72727272727272727272727272727272
Plaintext:                0000000000000000000000000000000000
Ciphertext:               b305319bdb3e696e75570d54f3da33eada91e18942b94470e99a466d74de577323232caf974ab731d54f53d89fde325aed3817a0c2f756931b747e0257cb9a89
Reciphers for ciphertext: 0
Decipheredtext:           0000000000000000000000000000000000
RESULT CIPHER-DECIPHER: -----OK-----


Test: 115
Hash algorithm: 9
Crypto pad: 1
Symmetric key bit length: 128
IV bit length:            128
Plaintext bit length:     136
Symmetric key:            00000000000000000000000000000000
IV:                       73737373737373737373737373737373
Plaintext:                0000000000000000000000000000000000
Ciphertext:               fb2094822b411c51a4e09e14e3bcebc24953abf1ca872dfb70c06ea4df204f2f4c812c91a2bd74bbfef0423932d56de14013ede33ecf31f02bc34d48e64b67c37ff2a6398a10fff190d345acfa24a38e
Reciphers for ciphertext: 0
Decipheredtext:           0000000000000000000000000000000000
RESULT CIPHER-DECIPHER: -----OK-----


Test: 116
Hash algorithm: 12
Crypto pad: 2
Symmetric key bit length: 128
IV bit length:            128
Plaintext bit length:     136
Symmetric key:            00000000000000000000000000000000
IV:                       74747474747474747474747474747474
Plaintext:                0000000000000000000000000000000000
Ciphertext:               8f421cd507ede077115442e48dace6cd6c6d77383e7169c67b3a89f91dd75386c6f0261d19d7fcb927824bafcfba9111918435b75ac0f578dfe3e9bf5692a169
Reciphers for ciphertext: 0
Decipheredtext:           0000000000000000000000000000000000
RESULT CIPHER-DECIPHER: -----OK-----


Test: 117
Hash algorithm: 0
Crypto pad: 0
Symmetric key bit length: 128
IV bit length:            128
Plaintext bit length:     136
Symmetric key:            00000000000000000000000000000000
IV:                       75757575757575757575757575757575
Plaintext:                0000000000000000000000000000000000
Ciphertext:               a4a4e35344c9fc6d8bf07e62b420bb8e4da855e9bf5bc6507f9fbb27da2047f5dad12bd75f108cc9314e44a9ccaa323dba646e86a116a14887354a29cb04e4ed
Reciphers for ciphertext: 0
Decipheredtext:           0000000000000000000000000000000000
RESULT CIPHER-DECIPHER: -----OK-----


Test: 118
Hash algorithm: 10
Crypto pad: 1
Symmetric key bit length: 128
IV bit length:            128
Plaintext bit length:     136
Symmetric key:            00000000000000000000000000000000
IV:                       76767676767676767676767676767676
Plaintext:                0000000000000000000000000000000000
Ciphertext:               937f3dce41a2c24852156903e73329af6e405b597429eda266b6b869e1128a9a80ab86bef2bd9c03bcf6adb2d7efbcc31ec9e023637a9d02d9f69fc2506cbc57c6655a2a21a8060ed867fcc8430a26be
Reciphers for ciphertext: 0
Decipheredtext:           0000000000000000000000000000000000
RESULT CIPHER-DECIPHER: -----OK-----


Test: 119
Hash algorithm: 2
Crypto pad: 1
Symmetric key bit length: 128
IV bit length:            128
Plaintext bit length:     136
Symmetric key:            00000000000000000000000000000000
IV:                       77777777777777777777777777777777
Plaintext:                0000000000000000000000000000000000
Ciphertext:               4dc30bd90edc538e7c1fbe2cf8d1ee7855ce848181dce498b5f8650ddd61007c93211da74232dd2a84929a28b0696f99172001a439f1db5e3becd9de4d352994e665598f3b0dc53032d233a24e5f1141
Reciphers for ciphertext: 0
Decipheredtext:           0000000000000000000000000000000000
RESULT CIPHER-DECIPHER: -----OK-----


Test: 120
Hash algorithm: 1
Crypto pad: 0
Symmetric key bit length: 128
IV bit length:            128
Plaintext bit length:     136
Symmetric key:            00000000000000000000000000000000
IV:                       78787878787878787878787878787878
Plaintext:                0000000000000000000000000000000000
Ciphertext:               f1a709887ef4228cdaca975b4f3047403bdccbf4e57a3277d1b245e869173074bbcac3394851b48b8b6ede7c0411ccfa6c3fede68bd1ef2c65603a712fca8306
Reciphers for ciphertext: 0
Decipheredtext:           0000000000000000000000000000000000
RESULT CIPHER-DECIPHER: -----OK-----


Test: 121
Hash algorithm: 8
Crypto pad: 2
Symmetric key bit length: 128
IV bit length:            128
Plaintext bit length:     136
Symmetric key:            00000000000000000000000000000000
IV:                       79797979797979797979797979797979
Plaintext:                0000000000000000000000000000000000
Ciphertext:               16b0cafe570d5ab6866581ac2b1c15d8c8bf01f40420ea64c621c3838f93b8d2bef3449743ee594744929e49df692f32bf6dddc46a1b5f070c244f7b6c2dd2d9
Reciphers for ciphertext: 0
Decipheredtext:           0000000000000000000000000000000000
RESULT CIPHER-DECIPHER: -----OK-----


Test: 122
Hash algorithm: 4
Crypto pad: 2
Symmetric key bit length: 128
IV bit length:            128
Plaintext bit length:     136
Symmetric key:            00000000000000000000000000000000
IV:                       7a7a7a7a7a7a7a7a7a7a7a7a7a7a7a7a
Plaintext:                0000000000000000000000000000000000
Ciphertext:               404fe644cb7fddae77a31297a6f91b76116a8e8bc3be99fa8bb3e46699966302c25b133060e3654bc4a307b06130b248bbf21e852e34249d234516f393ef79a6e0ccab1dc08a5a867dc498909d96ef51c515b5a948aea85c5a13f216149baa9d99e98a0e86d67f577374bd4e4a1ccc0b
Reciphers for ciphertext: 0
Decipheredtext:           0000000000000000000000000000000000
RESULT CIPHER-DECIPHER: -----OK-----


Test: 123
Hash algorithm: 7
Crypto pad: 2
Symmetric key bit length: 128
IV bit length:            128
Plaintext bit length:     136
Symmetric key:            00000000000000000000000000000000
IV:                       7b7b7b7b7b7b7b7b7b7b7b7b7b7b7b7b
Plaintext:                0000000000000000000000000000000000
Ciphertext:               de63ed75feedd3f1c4c5a788b77488b21228a1761d7ed8682e4fac09c236dba09eeb3588015027d70797b4ef5d11bef493ad964ead337a14b8d491296943b62b
Reciphers for ciphertext: 0
Decipheredtext:           0000000000000000000000000000000000
RESULT CIPHER-DECIPHER: -----OK-----


Test: 124
Hash algorithm: 1
Crypto pad: 1
Symmetric key bit length: 128
IV bit length:            128
Plaintext bit length:     136
Symmetric key:            00000000000000000000000000000000
IV:                       7c7c7c7c7c7c7c7c7c7c7c7c7c7c7c7c
Plaintext:                0000000000000000000000000000000000
Ciphertext:               7be6a76665328d8c7d021d074ad1d2726a494485e74f319409f249a21258f0720da4c28b6777b675668baa002144d345aae5862227070bf68206c538260476f9
Reciphers for ciphertext: 0
Decipheredtext:           0000000000000000000000000000000000
RESULT CIPHER-DECIPHER: -----OK-----


Test: 125
Hash algorithm: 2
Crypto pad: 2
Symmetric key bit length: 128
IV bit length:            128
Plaintext bit length:     136
Symmetric key:            00000000000000000000000000000000
IV:                       7d7d7d7d7d7d7d7d7d7d7d7d7d7d7d7d
Plaintext:                0000000000000000000000000000000000
Ciphertext:               85c1aa07d165a83476dc12983d49db50bfe65dc323e796637c5383f0ca63343141a6139ace1cd2badc10dcf2d27a5e768d692abcb02cfb686046539ff5fd47f67b3d0a41eeeebf184ac2f6dee895a506
Reciphers for ciphertext: 0
Decipheredtext:           0000000000000000000000000000000000
RESULT CIPHER-DECIPHER: -----OK-----


Test: 126
Hash algorithm: 6
Crypto pad: 1
Symmetric key bit length: 128
IV bit length:            128
Plaintext bit length:     136
Symmetric key:            00000000000000000000000000000000
IV:                       7e7e7e7e7e7e7e7e7e7e7e7e7e7e7e7e
Plaintext:                0000000000000000000000000000000000
Ciphertext:               a03413f97973c78197cc4d7d56df1d2ffe9c042661e0e6db6a1d7bf29f64113c1c994065e0d11cdcbc7cf0517f7b23b83fd554c7629f5c2db7a9268d2983d4f1b81df6b1ebd1ee3d84bdc702204ac3bb
Reciphers for ciphertext: 0
Decipheredtext:           0000000000000000000000000000000000
RESULT CIPHER-DECIPHER: -----OK-----


Test: 127
Hash algorithm: 8
Crypto pad: 0
Symmetric key bit length: 128
IV bit length:            128
Plaintext bit length:     136
Symmetric key:            00000000000000000000000000000000
IV:                       7f7f7f7f7f7f7f7f7f7f7f7f7f7f7f7f
Plaintext:                0000000000000000000000000000000000
Ciphertext:               ecd04cf03dd607b6e41a389896c8b58e785c4b2074ccade9cca3357d82c32edf88236559c444567dc880dcfd1cd6cdc1dc483d9f90047e2d775bb973c9dfb1a0
Reciphers for ciphertext: 0
Decipheredtext:           0000000000000000000000000000000000
RESULT CIPHER-DECIPHER: -----OK-----


 DATA SHA1 (hexadecimal): d9276c493abb51f133ef14dbc9322c1869e06137

