
DiceLock 9.0.0.1

 TEST COMPONENTS:
 ----------------
 DiceLock:           DiceLockIVDigested class
 Operation Mode:     CBC_Mode class
 Crypto pads:        0 - ANSI_X_923 class
                     1 - ISO_IEC_9797_1 class
                     2 - PKCS7 class
 Block Cipher:       Twofish128 class
 Hash algorithms:     0 - Sha1 class
                      1 - Sha224 class
                      2 - Sha256 class
                      3 - Sha384 class
                      4 - Sha512 class
                      5 - Sha512_224 class
                      6 - Sha512_256 class
                      7 - Ripemd128 class
                      8 - Ripemd160 class
                      9 - Ripemd256 class
                     10 - Ripemd320 class
                     11 - MD2 class
                     12 - MD4 class
                     13 - MD5 class
 Key Modifier:       IncreaseKeyModifier_6_0_0_1 class
 Random tests:       RandomTestSuite class
                     FrequencyTest class
                     BlockFrequencyTest class
                     CumulativeSumForwardTest class
                     LongestRunOfOnesTest class
                     RunsTest class
 Random alpha:       0.001

 VECTOR TEST: Test vector 7 - Symmetric key all byte value 0xXX, IV all byte value 0xYY and plaintext all byte value 0xZZ


##### INDIVIDUAL TESTS #####

Number tests: 128


Test: 0
Hash algorithm: 11
Crypto pad: 1
Symmetric key bit length: 128
IV bit length:            128
Plaintext bit length:     136
Symmetric key:            00000000000000000000000000000000
IV:                       ffffffffffffffffffffffffffffffff
Plaintext:                ffffffffffffffffffffffffffffffffff
Ciphertext:               9f589f5cf6122c32b6bfec2f2ae8c35a373f43a0daf2e6ffa31d6a167dfc3490af55fa28a6c0b27f14e79f9c701f656ebb56353152f550c35a6b351c8bf31c4e
Reciphers for ciphertext: 0
Decipheredtext:           ffffffffffffffffffffffffffffffffff
RESULT CIPHER-DECIPHER: -----OK-----


Test: 1
Hash algorithm: 1
Crypto pad: 0
Symmetric key bit length: 128
IV bit length:            128
Plaintext bit length:     136
Symmetric key:            01010101010101010101010101010101
IV:                       fefefefefefefefefefefefefefefefe
Plaintext:                fefefefefefefefefefefefefefefefefe
Ciphertext:               370f0d59de31f151043494b81997ab9f4feb7b970f513556624b31ea974a997f70ef9fb919be6b4c4f79d4eb910b7b16e0275e3d2197810606b1eb93d30f8094
Reciphers for ciphertext: 0
Decipheredtext:           fefefefefefefefefefefefefefefefefe
RESULT CIPHER-DECIPHER: -----OK-----


Test: 2
Hash algorithm: 5
Crypto pad: 2
Symmetric key bit length: 128
IV bit length:            128
Plaintext bit length:     136
Symmetric key:            02020202020202020202020202020202
IV:                       fdfdfdfdfdfdfdfdfdfdfdfdfdfdfdfd
Plaintext:                fdfdfdfdfdfdfdfdfdfdfdfdfdfdfdfdfd
Ciphertext:               1d3948b670dc4f5d792e38b5a18d844399a3426296720b99d0bc82d65dcf3e5317c2c429fd54f31aa00fd448fd6a908f037df740e9928637d9ea05035f8f44c7
Reciphers for ciphertext: 0
Decipheredtext:           fdfdfdfdfdfdfdfdfdfdfdfdfdfdfdfdfd
RESULT CIPHER-DECIPHER: -----OK-----


Test: 3
Hash algorithm: 10
Crypto pad: 1
Symmetric key bit length: 128
IV bit length:            128
Plaintext bit length:     136
Symmetric key:            03030303030303030303030303030303
IV:                       fcfcfcfcfcfcfcfcfcfcfcfcfcfcfcfc
Plaintext:                fcfcfcfcfcfcfcfcfcfcfcfcfcfcfcfcfc
Ciphertext:               b42765405f557e74ef6931fe75ce27de946514755056c9e57858be38b0dc3b9b1a215792607c5688914a416e0fbd656c71834e4224822ab700b8c4218f8e9e171a13581a8034085a1ffcae2df301566f
Reciphers for ciphertext: 0
Decipheredtext:           fcfcfcfcfcfcfcfcfcfcfcfcfcfcfcfcfc
RESULT CIPHER-DECIPHER: -----OK-----


Test: 4
Hash algorithm: 6
Crypto pad: 1
Symmetric key bit length: 128
IV bit length:            128
Plaintext bit length:     136
Symmetric key:            04040404040404040404040404040404
IV:                       fbfbfbfbfbfbfbfbfbfbfbfbfbfbfbfb
Plaintext:                fbfbfbfbfbfbfbfbfbfbfbfbfbfbfbfbfb
Ciphertext:               5c265629a0089a81641a103f50e9d266217066ef46fc3be0887bfa9cf48a1f6da20fdbad71c576400baa7f9374487a67ec134121a3ba465ff3866ce3e8235cf53d0fff70ade217f73dde8dfc5f07a674
Reciphers for ciphertext: 0
Decipheredtext:           fbfbfbfbfbfbfbfbfbfbfbfbfbfbfbfbfb
RESULT CIPHER-DECIPHER: -----OK-----


Test: 5
Hash algorithm: 0
Crypto pad: 2
Symmetric key bit length: 128
IV bit length:            128
Plaintext bit length:     136
Symmetric key:            05050505050505050505050505050505
IV:                       fafafafafafafafafafafafafafafafa
Plaintext:                fafafafafafafafafafafafafafafafafa
Ciphertext:               2216feb10b4f2b50e623399efcc962d3f4fcdff455165fdc144f75da2045f0dc0800b7a10413a1d57825aa6902b1ded0f99e3c363870cb193f7e4ce6ac4161a6
Reciphers for ciphertext: 0
Decipheredtext:           fafafafafafafafafafafafafafafafafa
RESULT CIPHER-DECIPHER: -----OK-----


Test: 6
Hash algorithm: 2
Crypto pad: 2
Symmetric key bit length: 128
IV bit length:            128
Plaintext bit length:     136
Symmetric key:            06060606060606060606060606060606
IV:                       f9f9f9f9f9f9f9f9f9f9f9f9f9f9f9f9
Plaintext:                f9f9f9f9f9f9f9f9f9f9f9f9f9f9f9f9f9
Ciphertext:               782c4c037d7878eb535b58fb0fa581b98e9a280c9a4fb70e6dbb5b4638fec4bfa8db561767ce15046d888fe8620e00e0f6f3fed7fadcc92ccfd2ca798f7fdf412b7995b39375e4a1eab0f1cb9644d386
Reciphers for ciphertext: 0
Decipheredtext:           f9f9f9f9f9f9f9f9f9f9f9f9f9f9f9f9f9
RESULT CIPHER-DECIPHER: -----OK-----


Test: 7
Hash algorithm: 0
Crypto pad: 0
Symmetric key bit length: 128
IV bit length:            128
Plaintext bit length:     136
Symmetric key:            07070707070707070707070707070707
IV:                       f8f8f8f8f8f8f8f8f8f8f8f8f8f8f8f8
Plaintext:                f8f8f8f8f8f8f8f8f8f8f8f8f8f8f8f8f8
Ciphertext:               9d373de6b5159926c70b4d5330e277b1d6f59c802db9fe368bc1d0a7f45e33127a01b083adfd36f592a3fedf91f9007423ca6d49b0b6707c32af28bf10ce5111
Reciphers for ciphertext: 0
Decipheredtext:           f8f8f8f8f8f8f8f8f8f8f8f8f8f8f8f8f8
RESULT CIPHER-DECIPHER: -----OK-----


Test: 8
Hash algorithm: 6
Crypto pad: 0
Symmetric key bit length: 128
IV bit length:            128
Plaintext bit length:     136
Symmetric key:            08080808080808080808080808080808
IV:                       f7f7f7f7f7f7f7f7f7f7f7f7f7f7f7f7
Plaintext:                f7f7f7f7f7f7f7f7f7f7f7f7f7f7f7f7f7
Ciphertext:               12e0ce75e6922eec7ffda2201284a14a281ab7e0f935bba9a30c45f483e873491e4c1397244fc8dd2815525e86d53cbcbb9511196b05af0c858f71f1d91986a962e6c426e3491294c5e16560d55d039d
Reciphers for ciphertext: 0
Decipheredtext:           f7f7f7f7f7f7f7f7f7f7f7f7f7f7f7f7f7
RESULT CIPHER-DECIPHER: -----OK-----


Test: 9
Hash algorithm: 1
Crypto pad: 1
Symmetric key bit length: 128
IV bit length:            128
Plaintext bit length:     136
Symmetric key:            09090909090909090909090909090909
IV:                       f6f6f6f6f6f6f6f6f6f6f6f6f6f6f6f6
Plaintext:                f6f6f6f6f6f6f6f6f6f6f6f6f6f6f6f6f6
Ciphertext:               c7514959628c031eba870e410751161638c670bc5bad90eb5ccf2d095bf90a024be1de9c972c2cd4adae7af9fbc3d4c6a77fa83fcb543b5479a8b7418d17937f
Reciphers for ciphertext: 0
Decipheredtext:           f6f6f6f6f6f6f6f6f6f6f6f6f6f6f6f6f6
RESULT CIPHER-DECIPHER: -----OK-----


Test: 10
Hash algorithm: 9
Crypto pad: 1
Symmetric key bit length: 128
IV bit length:            128
Plaintext bit length:     136
Symmetric key:            0a0a0a0a0a0a0a0a0a0a0a0a0a0a0a0a
IV:                       f5f5f5f5f5f5f5f5f5f5f5f5f5f5f5f5
Plaintext:                f5f5f5f5f5f5f5f5f5f5f5f5f5f5f5f5f5
Ciphertext:               3f6a99833dd61e6a92ce8bcefebaa635c2babfdca98ce96d83b9c7243697d9186f00478b2da7c26f05ac04ce591c47236b6a9ce959fdc8024a9e2eb1829a3459531cd42f061baa41c7b375ff6f2a0714
Reciphers for ciphertext: 0
Decipheredtext:           f5f5f5f5f5f5f5f5f5f5f5f5f5f5f5f5f5
RESULT CIPHER-DECIPHER: -----OK-----


Test: 11
Hash algorithm: 7
Crypto pad: 0
Symmetric key bit length: 128
IV bit length:            128
Plaintext bit length:     136
Symmetric key:            0b0b0b0b0b0b0b0b0b0b0b0b0b0b0b0b
IV:                       f4f4f4f4f4f4f4f4f4f4f4f4f4f4f4f4
Plaintext:                f4f4f4f4f4f4f4f4f4f4f4f4f4f4f4f4f4
Ciphertext:               e8b9c1392e6979ea663e8f2edbede22c87a19a62ad110bcdfbd01f6a0b77095831d611e27056ee9f4a6fdd96c82ffbae91abe8265af203a342c0d47923b21899
Reciphers for ciphertext: 0
Decipheredtext:           f4f4f4f4f4f4f4f4f4f4f4f4f4f4f4f4f4
RESULT CIPHER-DECIPHER: -----OK-----


Test: 12
Hash algorithm: 10
Crypto pad: 0
Symmetric key bit length: 128
IV bit length:            128
Plaintext bit length:     136
Symmetric key:            0c0c0c0c0c0c0c0c0c0c0c0c0c0c0c0c
IV:                       f3f3f3f3f3f3f3f3f3f3f3f3f3f3f3f3
Plaintext:                f3f3f3f3f3f3f3f3f3f3f3f3f3f3f3f3f3
Ciphertext:               ebcb39235852d05c48612384c21ef61bbe6c7197c8f8a5f221011f9deed3a52603b870bd9821dc17643573807b671e88c9fd7c8fb2cc7559f0c9e3018ab0ff1964a4563b31c1068c78a3a5ce6741c90a
Reciphers for ciphertext: 0
Decipheredtext:           f3f3f3f3f3f3f3f3f3f3f3f3f3f3f3f3f3
RESULT CIPHER-DECIPHER: -----OK-----


Test: 13
Hash algorithm: 2
Crypto pad: 1
Symmetric key bit length: 128
IV bit length:            128
Plaintext bit length:     136
Symmetric key:            0d0d0d0d0d0d0d0d0d0d0d0d0d0d0d0d
IV:                       f2f2f2f2f2f2f2f2f2f2f2f2f2f2f2f2
Plaintext:                f2f2f2f2f2f2f2f2f2f2f2f2f2f2f2f2f2
Ciphertext:               792ebdb4da0c243607ed995449123c21167f47ca239fcab87f53d7955a5affb8f1b7d32f8bdf351c86bd0dbd3f24e014f86627066082bb313cacc56133b29ed2641741df8c972aacea21d7558f407b71
Reciphers for ciphertext: 0
Decipheredtext:           f2f2f2f2f2f2f2f2f2f2f2f2f2f2f2f2f2
RESULT CIPHER-DECIPHER: -----OK-----


Test: 14
Hash algorithm: 4
Crypto pad: 1
Symmetric key bit length: 128
IV bit length:            128
Plaintext bit length:     136
Symmetric key:            0e0e0e0e0e0e0e0e0e0e0e0e0e0e0e0e
IV:                       f1f1f1f1f1f1f1f1f1f1f1f1f1f1f1f1
Plaintext:                f1f1f1f1f1f1f1f1f1f1f1f1f1f1f1f1f1
Ciphertext:               bcc73cc241f481f0faaed2e17124675160e4d2c6327a8027e494bc8127d8ef81a03dc0586c7663129b3b7afd9eb30c8803c8ac7326e19e1d99fd96ca131e7b69362ae5e07fab24d113d9c83e61bc34e560879459efb19c62fbd8ebcafb91bfef24c13e2b33c8da643bd9dcdf301b2ec2
Reciphers for ciphertext: 0
Decipheredtext:           f1f1f1f1f1f1f1f1f1f1f1f1f1f1f1f1f1
RESULT CIPHER-DECIPHER: -----OK-----


Test: 15
Hash algorithm: 1
Crypto pad: 0
Symmetric key bit length: 128
IV bit length:            128
Plaintext bit length:     136
Symmetric key:            0f0f0f0f0f0f0f0f0f0f0f0f0f0f0f0f
IV:                       f0f0f0f0f0f0f0f0f0f0f0f0f0f0f0f0
Plaintext:                f0f0f0f0f0f0f0f0f0f0f0f0f0f0f0f0f0
Ciphertext:               f62a5bdcbb3da0f7e602342ef86b31cc4073282770a863da4388aaf1832dd21b3904998af167432ad38c5cc0ad07ab63348b856156d8230fb0ff4678a5d19776
Reciphers for ciphertext: 0
Decipheredtext:           f0f0f0f0f0f0f0f0f0f0f0f0f0f0f0f0f0
RESULT CIPHER-DECIPHER: -----OK-----


Test: 16
Hash algorithm: 13
Crypto pad: 1
Symmetric key bit length: 128
IV bit length:            128
Plaintext bit length:     136
Symmetric key:            10101010101010101010101010101010
IV:                       efefefefefefefefefefefefefefefef
Plaintext:                efefefefefefefefefefefefefefefefef
Ciphertext:               e065605bcc1625d4cdbdb5f38a9f2b38bb2fec5c13f9550f41b2d75483d0db161c6678eb067f047abe7001648f9e79c210f0bf0d0628fd1e56694338a29fe825
Reciphers for ciphertext: 0
Decipheredtext:           efefefefefefefefefefefefefefefefef
RESULT CIPHER-DECIPHER: -----OK-----


Test: 17
Hash algorithm: 13
Crypto pad: 1
Symmetric key bit length: 128
IV bit length:            128
Plaintext bit length:     136
Symmetric key:            11111111111111111111111111111111
IV:                       eeeeeeeeeeeeeeeeeeeeeeeeeeeeeeee
Plaintext:                eeeeeeeeeeeeeeeeeeeeeeeeeeeeeeeeee
Ciphertext:               1b9a3f8568a3aa3d56f57b575fba5bd06f82932aeb72b63687ad716db6e8b2dd49ee1bb513f9f8b214e10e58f625edcc2f0b04a19cffa5643d902f76a438382e
Reciphers for ciphertext: 0
Decipheredtext:           eeeeeeeeeeeeeeeeeeeeeeeeeeeeeeeeee
RESULT CIPHER-DECIPHER: -----OK-----


Test: 18
Hash algorithm: 4
Crypto pad: 1
Symmetric key bit length: 128
IV bit length:            128
Plaintext bit length:     136
Symmetric key:            12121212121212121212121212121212
IV:                       edededededededededededededededed
Plaintext:                ededededededededededededededededed
Ciphertext:               e1d32a3ba6e9d2454cbf31e195c6f470cdad506277edceb527a0b73f28bb27dd166dd04ca19bac0521d3602d49a0555171b03cddf419e098ae67f5032019e2a299f24bfceedb3eb85bc73f29478cb8239cc1931fd9de6b26428a98f506d176d82a7f2b48439193ee135d71b7c8aff373
Reciphers for ciphertext: 0
Decipheredtext:           ededededededededededededededededed
RESULT CIPHER-DECIPHER: -----OK-----


Test: 19
Hash algorithm: 1
Crypto pad: 0
Symmetric key bit length: 128
IV bit length:            128
Plaintext bit length:     136
Symmetric key:            13131313131313131313131313131313
IV:                       ecececececececececececececececec
Plaintext:                ececececececececececececececececec
Ciphertext:               97d1e3282d7dfa2be6fb92f1d14a7441fe079ff1a508e8d14c1d2e80325caf572fa238781910fa169f3ce0ec0fde03d85d09786d5a6a21c45a1b9a710bb0c388
Reciphers for ciphertext: 0
Decipheredtext:           ececececececececececececececececec
RESULT CIPHER-DECIPHER: -----OK-----


Test: 20
Hash algorithm: 3
Crypto pad: 0
Symmetric key bit length: 128
IV bit length:            128
Plaintext bit length:     136
Symmetric key:            14141414141414141414141414141414
IV:                       ebebebebebebebebebebebebebebebeb
Plaintext:                ebebebebebebebebebebebebebebebebeb
Ciphertext:               2be38257a3e54570e5d3e9618a4b0ba8859a8f0ec444ab028fc0698d81bd0ddae06d9608d9350a71b7e12961853c0a264b6f76b7901e2314bb6abdcf57e8afd757dbfbeedee87b17504f3ce9c8e807209b3779be9f3d9b06ecc8067a16575791
Reciphers for ciphertext: 0
Decipheredtext:           ebebebebebebebebebebebebebebebebeb
RESULT CIPHER-DECIPHER: -----OK-----


Test: 21
Hash algorithm: 6
Crypto pad: 0
Symmetric key bit length: 128
IV bit length:            128
Plaintext bit length:     136
Symmetric key:            15151515151515151515151515151515
IV:                       eaeaeaeaeaeaeaeaeaeaeaeaeaeaeaea
Plaintext:                eaeaeaeaeaeaeaeaeaeaeaeaeaeaeaeaea
Ciphertext:               4c1b6db95c84ffe77f74c86ac298bfcaf7cfaf9ae3b5e7a7956c5dc4a125b0eb4600d7bb445c1472bc70b60495de0bab9b45db53ef40a0c76d183df5ef6186fb2ee521fe76f94ff03c7120a4398c521c
Reciphers for ciphertext: 0
Decipheredtext:           eaeaeaeaeaeaeaeaeaeaeaeaeaeaeaeaea
RESULT CIPHER-DECIPHER: -----OK-----


Test: 22
Hash algorithm: 2
Crypto pad: 1
Symmetric key bit length: 128
IV bit length:            128
Plaintext bit length:     136
Symmetric key:            16161616161616161616161616161616
IV:                       e9e9e9e9e9e9e9e9e9e9e9e9e9e9e9e9
Plaintext:                e9e9e9e9e9e9e9e9e9e9e9e9e9e9e9e9e9
Ciphertext:               b2b80295f7abcd41f828aa33d0093f82d47e865aacf3ec50ad9406e287b54a9f05d421594e6111accfc95a0fe08527b5337369318002dcd8827b8e29113aa7794bac9087daa46da18f3ecf6e8b624f6d
Reciphers for ciphertext: 0
Decipheredtext:           e9e9e9e9e9e9e9e9e9e9e9e9e9e9e9e9e9
RESULT CIPHER-DECIPHER: -----OK-----


Test: 23
Hash algorithm: 12
Crypto pad: 2
Symmetric key bit length: 128
IV bit length:            128
Plaintext bit length:     136
Symmetric key:            17171717171717171717171717171717
IV:                       e8e8e8e8e8e8e8e8e8e8e8e8e8e8e8e8
Plaintext:                e8e8e8e8e8e8e8e8e8e8e8e8e8e8e8e8e8
Ciphertext:               fe42f32a2781844d55e92f7b58879dc582e045a3e16e8f3fe2532f20dd57d3d1519254101edb8fe47aaccbde7b2c04175fcff22e5d4fa49ab067514e02a7026b
Reciphers for ciphertext: 0
Decipheredtext:           e8e8e8e8e8e8e8e8e8e8e8e8e8e8e8e8e8
RESULT CIPHER-DECIPHER: -----OK-----


Test: 24
Hash algorithm: 11
Crypto pad: 0
Symmetric key bit length: 128
IV bit length:            128
Plaintext bit length:     136
Symmetric key:            18181818181818181818181818181818
IV:                       e7e7e7e7e7e7e7e7e7e7e7e7e7e7e7e7
Plaintext:                e7e7e7e7e7e7e7e7e7e7e7e7e7e7e7e7e7
Ciphertext:               d7bef0d1680826a4b54ac004ea91a498147485dbeb68661b58342d6cc98cc3d8cc910fe78a1b72bc3300670cf026b13ee7c415e8d3173631ef1e359ad964724a
Reciphers for ciphertext: 0
Decipheredtext:           e7e7e7e7e7e7e7e7e7e7e7e7e7e7e7e7e7
RESULT CIPHER-DECIPHER: -----OK-----


Test: 25
Hash algorithm: 7
Crypto pad: 2
Symmetric key bit length: 128
IV bit length:            128
Plaintext bit length:     136
Symmetric key:            19191919191919191919191919191919
IV:                       e6e6e6e6e6e6e6e6e6e6e6e6e6e6e6e6
Plaintext:                e6e6e6e6e6e6e6e6e6e6e6e6e6e6e6e6e6
Ciphertext:               6ba4a33f2ba2b0f0ba34fbb01d12031bf095241be893c61804f24a1ca81b3f8d47644cbd9909c07d80bb3e4d044e7a2a11bbf5b5818736c4dad3eb5daaad0b03
Reciphers for ciphertext: 0
Decipheredtext:           e6e6e6e6e6e6e6e6e6e6e6e6e6e6e6e6e6
RESULT CIPHER-DECIPHER: -----OK-----


Test: 26
Hash algorithm: 2
Crypto pad: 1
Symmetric key bit length: 128
IV bit length:            128
Plaintext bit length:     136
Symmetric key:            1a1a1a1a1a1a1a1a1a1a1a1a1a1a1a1a
IV:                       e5e5e5e5e5e5e5e5e5e5e5e5e5e5e5e5
Plaintext:                e5e5e5e5e5e5e5e5e5e5e5e5e5e5e5e5e5
Ciphertext:               9a62a9953a5b51653c5e38f938de89d875537dd8e38dc82ae9ad505b6846c38712590f34eb02fac910e6ab0d14412438a3075e28301c4b05dc6b0ba4ac40e05a21c7e1d61c271e530dc21f72026a6163
Reciphers for ciphertext: 0
Decipheredtext:           e5e5e5e5e5e5e5e5e5e5e5e5e5e5e5e5e5
RESULT CIPHER-DECIPHER: -----OK-----


Test: 27
Hash algorithm: 6
Crypto pad: 2
Symmetric key bit length: 128
IV bit length:            128
Plaintext bit length:     136
Symmetric key:            1b1b1b1b1b1b1b1b1b1b1b1b1b1b1b1b
IV:                       e4e4e4e4e4e4e4e4e4e4e4e4e4e4e4e4
Plaintext:                e4e4e4e4e4e4e4e4e4e4e4e4e4e4e4e4e4
Ciphertext:               afa0f35bf6e036e5f63f4f7106101083550c7ef4862206dcdf319fa0a107e636d582ac83a5c616f4d72d6828fd3995f27806b79009d24174cebe455e4fb819a479dcfbefd43c12985599a50aee9a38df
Reciphers for ciphertext: 0
Decipheredtext:           e4e4e4e4e4e4e4e4e4e4e4e4e4e4e4e4e4
RESULT CIPHER-DECIPHER: -----OK-----


Test: 28
Hash algorithm: 7
Crypto pad: 2
Symmetric key bit length: 128
IV bit length:            128
Plaintext bit length:     136
Symmetric key:            1c1c1c1c1c1c1c1c1c1c1c1c1c1c1c1c
IV:                       e3e3e3e3e3e3e3e3e3e3e3e3e3e3e3e3
Plaintext:                e3e3e3e3e3e3e3e3e3e3e3e3e3e3e3e3e3
Ciphertext:               a9e8df37997ad16df5c1b2b5cd3d77cdc27e7079188bdf00a9ebc5305a97bcc3310d217d14c65e24f773f1328f2c12ae1c65a21d6b5d3d108d6e16a26a8d4de2
Reciphers for ciphertext: 0
Decipheredtext:           e3e3e3e3e3e3e3e3e3e3e3e3e3e3e3e3e3
RESULT CIPHER-DECIPHER: -----OK-----


Test: 29
Hash algorithm: 6
Crypto pad: 2
Symmetric key bit length: 128
IV bit length:            128
Plaintext bit length:     136
Symmetric key:            1d1d1d1d1d1d1d1d1d1d1d1d1d1d1d1d
IV:                       e2e2e2e2e2e2e2e2e2e2e2e2e2e2e2e2
Plaintext:                e2e2e2e2e2e2e2e2e2e2e2e2e2e2e2e2e2
Ciphertext:               31914abfbf81efee19776a306153e9425c6e495262e61567802405f56480867860aa788778371f6b7d3bba496b974c9e6e343f971108ddbfbe60e72bb2acc1691699ffa2bb86799f849b93da715f62a3
Reciphers for ciphertext: 0
Decipheredtext:           e2e2e2e2e2e2e2e2e2e2e2e2e2e2e2e2e2
RESULT CIPHER-DECIPHER: -----OK-----


Test: 30
Hash algorithm: 3
Crypto pad: 0
Symmetric key bit length: 128
IV bit length:            128
Plaintext bit length:     136
Symmetric key:            1e1e1e1e1e1e1e1e1e1e1e1e1e1e1e1e
IV:                       e1e1e1e1e1e1e1e1e1e1e1e1e1e1e1e1
Plaintext:                e1e1e1e1e1e1e1e1e1e1e1e1e1e1e1e1e1
Ciphertext:               538d23aed88a47fe65c234f1825957ec41311e57ea2233c7ad469e277f54f46623fc632753a24c91d0ef440f803b243ec829d5c6258dddbb2023ffc8dd5965112aa1499c5f44989b57851f9b35cbd5310f906b61b68c6c493b33256a11697af5
Reciphers for ciphertext: 0
Decipheredtext:           e1e1e1e1e1e1e1e1e1e1e1e1e1e1e1e1e1
RESULT CIPHER-DECIPHER: -----OK-----


Test: 31
Hash algorithm: 12
Crypto pad: 2
Symmetric key bit length: 128
IV bit length:            128
Plaintext bit length:     136
Symmetric key:            1f1f1f1f1f1f1f1f1f1f1f1f1f1f1f1f
IV:                       e0e0e0e0e0e0e0e0e0e0e0e0e0e0e0e0
Plaintext:                e0e0e0e0e0e0e0e0e0e0e0e0e0e0e0e0e0
Ciphertext:               2502e35503fb1745cd76507bf91e3b21df8c44a8c4db72bb15f55a310664a9e5174f55dacff7ad92780702af577478f17cc5737139cb63f9d22d61740a8f5d70
Reciphers for ciphertext: 0
Decipheredtext:           e0e0e0e0e0e0e0e0e0e0e0e0e0e0e0e0e0
RESULT CIPHER-DECIPHER: -----OK-----


Test: 32
Hash algorithm: 13
Crypto pad: 1
Symmetric key bit length: 128
IV bit length:            128
Plaintext bit length:     136
Symmetric key:            20202020202020202020202020202020
IV:                       dfdfdfdfdfdfdfdfdfdfdfdfdfdfdfdf
Plaintext:                dfdfdfdfdfdfdfdfdfdfdfdfdfdfdfdfdf
Ciphertext:               4721cc17bcbfc6c68dc44939970d4561c6ef69bc1db47b3204134975bc103bd728bf6397cb6522e7693dd44c39d962bfcc9027470335592aeb04e7c2e68ded6d
Reciphers for ciphertext: 0
Decipheredtext:           dfdfdfdfdfdfdfdfdfdfdfdfdfdfdfdfdf
RESULT CIPHER-DECIPHER: -----OK-----


Test: 33
Hash algorithm: 6
Crypto pad: 2
Symmetric key bit length: 128
IV bit length:            128
Plaintext bit length:     136
Symmetric key:            21212121212121212121212121212121
IV:                       dededededededededededededededede
Plaintext:                dedededededededededededededededede
Ciphertext:               75f7be7e2e79d38129073a6148df69a21d6787dc97655c449dd7bf6191e8b58204371fd72f327475f2867091ee70c98caa9f0c4c41899c6a1c99394537dc58622be7af5e38701f2a118a0d78cae8bf32
Reciphers for ciphertext: 0
Decipheredtext:           dedededededededededededededededede
RESULT CIPHER-DECIPHER: -----OK-----


Test: 34
Hash algorithm: 11
Crypto pad: 1
Symmetric key bit length: 128
IV bit length:            128
Plaintext bit length:     136
Symmetric key:            22222222222222222222222222222222
IV:                       dddddddddddddddddddddddddddddddd
Plaintext:                dddddddddddddddddddddddddddddddddd
Ciphertext:               ef31be0253576890522b537a2a69fb997ab090dc4a75c755ef9dce301efaba41b789fa01e8a8981308cf5ff05fbbba1da74622c405ab2bf10201163951214cc5
Reciphers for ciphertext: 0
Decipheredtext:           dddddddddddddddddddddddddddddddddd
RESULT CIPHER-DECIPHER: -----OK-----


Test: 35
Hash algorithm: 12
Crypto pad: 1
Symmetric key bit length: 128
IV bit length:            128
Plaintext bit length:     136
Symmetric key:            23232323232323232323232323232323
IV:                       dcdcdcdcdcdcdcdcdcdcdcdcdcdcdcdc
Plaintext:                dcdcdcdcdcdcdcdcdcdcdcdcdcdcdcdcdc
Ciphertext:               0759e9f857b116eb0cf38fafc2093e27b213b54c436a7e52de47fd209c8a3395d3bd69638cbd1d9a4051b54e3813ca595e0318ac757c6d472bd4159ceead6963
Reciphers for ciphertext: 0
Decipheredtext:           dcdcdcdcdcdcdcdcdcdcdcdcdcdcdcdcdc
RESULT CIPHER-DECIPHER: -----OK-----


Test: 36
Hash algorithm: 4
Crypto pad: 0
Symmetric key bit length: 128
IV bit length:            128
Plaintext bit length:     136
Symmetric key:            24242424242424242424242424242424
IV:                       dbdbdbdbdbdbdbdbdbdbdbdbdbdbdbdb
Plaintext:                dbdbdbdbdbdbdbdbdbdbdbdbdbdbdbdbdb
Ciphertext:               fd9fe41e8f6b6179103974a9081ae0972fb27d6375a175e0a967d486175d6ef60ced662984b4f68f258ff07fe6fa2d6676325d06e42c693428e9ec53009b377c23fb4286a5e57b515e221265324a85c2d8c76c8e73ba37e7bf8a846a6cd98d13a2d867035cdc1842008a08e352d034e0
Reciphers for ciphertext: 0
Decipheredtext:           dbdbdbdbdbdbdbdbdbdbdbdbdbdbdbdbdb
RESULT CIPHER-DECIPHER: -----OK-----


Test: 37
Hash algorithm: 11
Crypto pad: 1
Symmetric key bit length: 128
IV bit length:            128
Plaintext bit length:     136
Symmetric key:            25252525252525252525252525252525
IV:                       dadadadadadadadadadadadadadadada
Plaintext:                dadadadadadadadadadadadadadadadada
Ciphertext:               f052338d426f7016654bd28b111d1180259ecf04d65aee8a762a046bfa53f5bc6be6b682ef82cb8342ecf1cfec41344a9b799500f47fa58bbf8952153c78c80a
Reciphers for ciphertext: 0
Decipheredtext:           dadadadadadadadadadadadadadadadada
RESULT CIPHER-DECIPHER: -----OK-----


Test: 38
Hash algorithm: 13
Crypto pad: 1
Symmetric key bit length: 128
IV bit length:            128
Plaintext bit length:     136
Symmetric key:            26262626262626262626262626262626
IV:                       d9d9d9d9d9d9d9d9d9d9d9d9d9d9d9d9
Plaintext:                d9d9d9d9d9d9d9d9d9d9d9d9d9d9d9d9d9
Ciphertext:               e6cc3bd98355442fb34a541586f268fa23b1ee97500fc88b865b34621b3d105b4befe6e05459cfc28a2760e1d1f3b31179c113fb616ca2f497eeb2fb705902fb
Reciphers for ciphertext: 0
Decipheredtext:           d9d9d9d9d9d9d9d9d9d9d9d9d9d9d9d9d9
RESULT CIPHER-DECIPHER: -----OK-----


Test: 39
Hash algorithm: 0
Crypto pad: 0
Symmetric key bit length: 128
IV bit length:            128
Plaintext bit length:     136
Symmetric key:            27272727272727272727272727272727
IV:                       d8d8d8d8d8d8d8d8d8d8d8d8d8d8d8d8
Plaintext:                d8d8d8d8d8d8d8d8d8d8d8d8d8d8d8d8d8
Ciphertext:               237be3d7a54a898130cb8ac9efa0bd2c739822aed6262fa0cada51007c963a47ff24058daa6fcb09e5b9813f2498ff687df96ce2c315254d2a7d1baf6eb50b6d
Reciphers for ciphertext: 0
Decipheredtext:           d8d8d8d8d8d8d8d8d8d8d8d8d8d8d8d8d8
RESULT CIPHER-DECIPHER: -----OK-----


Test: 40
Hash algorithm: 1
Crypto pad: 1
Symmetric key bit length: 128
IV bit length:            128
Plaintext bit length:     136
Symmetric key:            28282828282828282828282828282828
IV:                       d7d7d7d7d7d7d7d7d7d7d7d7d7d7d7d7
Plaintext:                d7d7d7d7d7d7d7d7d7d7d7d7d7d7d7d7d7
Ciphertext:               4eac110fb101abcd157acea8a34094b7d1e1b1aea7c6d9643caa35ea8debd201a5253e68bdbb8a4073d26148ec7d497a3ea2060d6098c0004efaf4008dc79fdc
Reciphers for ciphertext: 0
Decipheredtext:           d7d7d7d7d7d7d7d7d7d7d7d7d7d7d7d7d7
RESULT CIPHER-DECIPHER: -----OK-----


Test: 41
Hash algorithm: 6
Crypto pad: 0
Symmetric key bit length: 128
IV bit length:            128
Plaintext bit length:     136
Symmetric key:            29292929292929292929292929292929
IV:                       d6d6d6d6d6d6d6d6d6d6d6d6d6d6d6d6
Plaintext:                d6d6d6d6d6d6d6d6d6d6d6d6d6d6d6d6d6
Ciphertext:               86a2572ae998ea44a6d2fe6fa74f13e78e7c09c9fd7f7eeebbbca443834404af408c76158cc3d1094c02523ea50bbf140610949b7ba25be85243ad743619d6d2efdc66d098e6192997ee78e37c896445
Reciphers for ciphertext: 0
Decipheredtext:           d6d6d6d6d6d6d6d6d6d6d6d6d6d6d6d6d6
RESULT CIPHER-DECIPHER: -----OK-----


Test: 42
Hash algorithm: 12
Crypto pad: 2
Symmetric key bit length: 128
IV bit length:            128
Plaintext bit length:     136
Symmetric key:            2a2a2a2a2a2a2a2a2a2a2a2a2a2a2a2a
IV:                       d5d5d5d5d5d5d5d5d5d5d5d5d5d5d5d5
Plaintext:                d5d5d5d5d5d5d5d5d5d5d5d5d5d5d5d5d5
Ciphertext:               4fbfe4a4452cac80111f0eb20ea2627bbdf6dc6c8899421829676cc3082e6be4baaf0317348edafec6e32f52da3df3dabcfb592da5ee73a765431e629f739a81
Reciphers for ciphertext: 0
Decipheredtext:           d5d5d5d5d5d5d5d5d5d5d5d5d5d5d5d5d5
RESULT CIPHER-DECIPHER: -----OK-----


Test: 43
Hash algorithm: 9
Crypto pad: 0
Symmetric key bit length: 128
IV bit length:            128
Plaintext bit length:     136
Symmetric key:            2b2b2b2b2b2b2b2b2b2b2b2b2b2b2b2b
IV:                       d4d4d4d4d4d4d4d4d4d4d4d4d4d4d4d4
Plaintext:                d4d4d4d4d4d4d4d4d4d4d4d4d4d4d4d4d4
Ciphertext:               d1a31e521155b825e6c7f38af815c5d3367f2c87435088589f057d301b5b3adb5f2e6c50e6fc0beccedc50a696f693ad88acd5afc3a65ff14842339c5d04060f909f8cca8c8929e6780f75688d15fd1b
Reciphers for ciphertext: 0
Decipheredtext:           d4d4d4d4d4d4d4d4d4d4d4d4d4d4d4d4d4
RESULT CIPHER-DECIPHER: -----OK-----


Test: 44
Hash algorithm: 2
Crypto pad: 0
Symmetric key bit length: 128
IV bit length:            128
Plaintext bit length:     136
Symmetric key:            2c2c2c2c2c2c2c2c2c2c2c2c2c2c2c2c
IV:                       d3d3d3d3d3d3d3d3d3d3d3d3d3d3d3d3
Plaintext:                d3d3d3d3d3d3d3d3d3d3d3d3d3d3d3d3d3
Ciphertext:               f2b9d4288cc11819e9542c5beb0589f2527a414c9f5d9b4e398ae9c1d4cf449e032247190d938a714aa3a3cca65acd38d9b4d9dfebb76fc8361965046986bbb3edb52807c347851602d51e5ea5951129
Reciphers for ciphertext: 0
Decipheredtext:           d3d3d3d3d3d3d3d3d3d3d3d3d3d3d3d3d3
RESULT CIPHER-DECIPHER: -----OK-----


Test: 45
Hash algorithm: 10
Crypto pad: 2
Symmetric key bit length: 128
IV bit length:            128
Plaintext bit length:     136
Symmetric key:            2d2d2d2d2d2d2d2d2d2d2d2d2d2d2d2d
IV:                       d2d2d2d2d2d2d2d2d2d2d2d2d2d2d2d2
Plaintext:                d2d2d2d2d2d2d2d2d2d2d2d2d2d2d2d2d2
Ciphertext:               d8af9b6359f934f4ca41d029c18b81b2aa37342d6a304c357c5aeb0496ca5bb459bcc83ff001b767254ee90f5524690b05345a9dc51555de6095247c3293511e5b9a69899d738869c1314d4e3a06031b
Reciphers for ciphertext: 0
Decipheredtext:           d2d2d2d2d2d2d2d2d2d2d2d2d2d2d2d2d2
RESULT CIPHER-DECIPHER: -----OK-----


Test: 46
Hash algorithm: 6
Crypto pad: 1
Symmetric key bit length: 128
IV bit length:            128
Plaintext bit length:     136
Symmetric key:            2e2e2e2e2e2e2e2e2e2e2e2e2e2e2e2e
IV:                       d1d1d1d1d1d1d1d1d1d1d1d1d1d1d1d1
Plaintext:                d1d1d1d1d1d1d1d1d1d1d1d1d1d1d1d1d1
Ciphertext:               4846d23e644fa2d9c7bb470701f84f9a4cbb0a79011f48bfad7c98ee3ed91be704e7e845601d84d708882e047e4976b6aadbb1bd9d458f4eea9a405a214f7c3a859f24d1f5f4972ca2e8e48b4dce2900
Reciphers for ciphertext: 0
Decipheredtext:           d1d1d1d1d1d1d1d1d1d1d1d1d1d1d1d1d1
RESULT CIPHER-DECIPHER: -----OK-----


Test: 47
Hash algorithm: 9
Crypto pad: 2
Symmetric key bit length: 128
IV bit length:            128
Plaintext bit length:     136
Symmetric key:            2f2f2f2f2f2f2f2f2f2f2f2f2f2f2f2f
IV:                       d0d0d0d0d0d0d0d0d0d0d0d0d0d0d0d0
Plaintext:                d0d0d0d0d0d0d0d0d0d0d0d0d0d0d0d0d0
Ciphertext:               618845896cb7325e468246f3cca6ced6d2d7b6c6aa2e999eb6c301ad3c3b0cd962a7016a833762451fe8c8c3e34c0c382de57cd4029cd35752727fc7850997ac217af7f97c4eec39482451d8653d0efe
Reciphers for ciphertext: 0
Decipheredtext:           d0d0d0d0d0d0d0d0d0d0d0d0d0d0d0d0d0
RESULT CIPHER-DECIPHER: -----OK-----


Test: 48
Hash algorithm: 6
Crypto pad: 0
Symmetric key bit length: 128
IV bit length:            128
Plaintext bit length:     136
Symmetric key:            30303030303030303030303030303030
IV:                       cfcfcfcfcfcfcfcfcfcfcfcfcfcfcfcf
Plaintext:                cfcfcfcfcfcfcfcfcfcfcfcfcfcfcfcfcf
Ciphertext:               141c0645af3796363591a6e04737db1de4af7b99cc0708557d5ba42dc58657d6c952ccee597bbe28a29f13a7b493b80fcb15deb73dda379893afa6cb934e67f9abec77f18ff40598a0eb4aa29f593e5a
Reciphers for ciphertext: 0
Decipheredtext:           cfcfcfcfcfcfcfcfcfcfcfcfcfcfcfcfcf
RESULT CIPHER-DECIPHER: -----OK-----


Test: 49
Hash algorithm: 3
Crypto pad: 1
Symmetric key bit length: 128
IV bit length:            128
Plaintext bit length:     136
Symmetric key:            31313131313131313131313131313131
IV:                       cececececececececececececececece
Plaintext:                cecececececececececececececececece
Ciphertext:               254e8fbc13ac4d6238eaab089b45b3aa6cbf6882d1b86c0e7d1b3e7d9a2199cfa7e635f67f3900df9e0db1e75e31790bc878c59437dc8d1d28539efe9e4bc9e4420ff53797e80bf84673647ed12b1b936dd012a63d8dadf9abbd90b379bd88bd
Reciphers for ciphertext: 0
Decipheredtext:           cecececececececececececececececece
RESULT CIPHER-DECIPHER: -----OK-----


Test: 50
Hash algorithm: 2
Crypto pad: 1
Symmetric key bit length: 128
IV bit length:            128
Plaintext bit length:     136
Symmetric key:            32323232323232323232323232323232
IV:                       cdcdcdcdcdcdcdcdcdcdcdcdcdcdcdcd
Plaintext:                cdcdcdcdcdcdcdcdcdcdcdcdcdcdcdcdcd
Ciphertext:               67e99152d2efaa355fe74d14dc173eba4e57bf046b9d7eecbe984dfb19adc14362248a631369ae593fcd02eafe55f5b39ba08b5a11776c9541f718512b01468b9d29742cb31e6e389e484a472b5f097a
Reciphers for ciphertext: 0
Decipheredtext:           cdcdcdcdcdcdcdcdcdcdcdcdcdcdcdcdcd
RESULT CIPHER-DECIPHER: -----OK-----


Test: 51
Hash algorithm: 1
Crypto pad: 1
Symmetric key bit length: 128
IV bit length:            128
Plaintext bit length:     136
Symmetric key:            33333333333333333333333333333333
IV:                       cccccccccccccccccccccccccccccccc
Plaintext:                cccccccccccccccccccccccccccccccccc
Ciphertext:               52cae7f2406f203319ce3104d31464ce69c7972231497f86a77f090a4297c1c9bfa9f356d0d26d79ccf4041df5425adc901885f82f819d2b7e3d85202d58ab3e
Reciphers for ciphertext: 0
Decipheredtext:           cccccccccccccccccccccccccccccccccc
RESULT CIPHER-DECIPHER: -----OK-----


Test: 52
Hash algorithm: 13
Crypto pad: 2
Symmetric key bit length: 128
IV bit length:            128
Plaintext bit length:     136
Symmetric key:            34343434343434343434343434343434
IV:                       cbcbcbcbcbcbcbcbcbcbcbcbcbcbcbcb
Plaintext:                cbcbcbcbcbcbcbcbcbcbcbcbcbcbcbcbcb
Ciphertext:               fdeaa2b00c39fa5277b648b5016a8b82b0e5052ffca106c516e4bb0ab671f1727675abb3857e5cd64b7ef090c9bf7521ac716d92bdf266fde69e4b48170219e4
Reciphers for ciphertext: 0
Decipheredtext:           cbcbcbcbcbcbcbcbcbcbcbcbcbcbcbcbcb
RESULT CIPHER-DECIPHER: -----OK-----


Test: 53
Hash algorithm: 1
Crypto pad: 2
Symmetric key bit length: 128
IV bit length:            128
Plaintext bit length:     136
Symmetric key:            35353535353535353535353535353535
IV:                       cacacacacacacacacacacacacacacaca
Plaintext:                cacacacacacacacacacacacacacacacaca
Ciphertext:               8cc7e936c3f82d14ee6f353011ca3342987a4fa95b2c31ad89863575a0e10023973a35dfcf72da934e13158f0a816dc6a88661497a6cb4d9dfdc2f671666e46b
Reciphers for ciphertext: 0
Decipheredtext:           cacacacacacacacacacacacacacacacaca
RESULT CIPHER-DECIPHER: -----OK-----


Test: 54
Hash algorithm: 9
Crypto pad: 1
Symmetric key bit length: 128
IV bit length:            128
Plaintext bit length:     136
Symmetric key:            36363636363636363636363636363636
IV:                       c9c9c9c9c9c9c9c9c9c9c9c9c9c9c9c9
Plaintext:                c9c9c9c9c9c9c9c9c9c9c9c9c9c9c9c9c9
Ciphertext:               43564ab536360739e1f02c27d47cb9e19c5f5995d6956050d8bd1f29df29272fe4195f165ea1e88eafb9f37fc9df62a711d0d6e81bcd0d09ebf47717a27673b23d250a2ce2b17ee4b444576ee831a63a
Reciphers for ciphertext: 0
Decipheredtext:           c9c9c9c9c9c9c9c9c9c9c9c9c9c9c9c9c9
RESULT CIPHER-DECIPHER: -----OK-----


Test: 55
Hash algorithm: 2
Crypto pad: 2
Symmetric key bit length: 128
IV bit length:            128
Plaintext bit length:     136
Symmetric key:            37373737373737373737373737373737
IV:                       c8c8c8c8c8c8c8c8c8c8c8c8c8c8c8c8
Plaintext:                c8c8c8c8c8c8c8c8c8c8c8c8c8c8c8c8c8
Ciphertext:               3316e275b9b7c08ccfaaf8f7bb7622e40c67dc6ca27a908d9744450ace2518b6ae1a70853c29390afdd8b97ae50afef5a7496217bb36e8c9fdc358f74824bf38aaa104775735a425baf6d124b8636f73
Reciphers for ciphertext: 0
Decipheredtext:           c8c8c8c8c8c8c8c8c8c8c8c8c8c8c8c8c8
RESULT CIPHER-DECIPHER: -----OK-----


Test: 56
Hash algorithm: 2
Crypto pad: 1
Symmetric key bit length: 128
IV bit length:            128
Plaintext bit length:     136
Symmetric key:            38383838383838383838383838383838
IV:                       c7c7c7c7c7c7c7c7c7c7c7c7c7c7c7c7
Plaintext:                c7c7c7c7c7c7c7c7c7c7c7c7c7c7c7c7c7
Ciphertext:               73bba450710c34d8998b966050e4b85628eaca013b81392b1430c84d509b6e031ad9021bdc7696a5995fa74c70d4d94eb557d16c715d171aa47068a5daff8430b330dcad2c0ec0cbd839c86d828733ff
Reciphers for ciphertext: 0
Decipheredtext:           c7c7c7c7c7c7c7c7c7c7c7c7c7c7c7c7c7
RESULT CIPHER-DECIPHER: -----OK-----


Test: 57
Hash algorithm: 4
Crypto pad: 2
Symmetric key bit length: 128
IV bit length:            128
Plaintext bit length:     136
Symmetric key:            39393939393939393939393939393939
IV:                       c6c6c6c6c6c6c6c6c6c6c6c6c6c6c6c6
Plaintext:                c6c6c6c6c6c6c6c6c6c6c6c6c6c6c6c6c6
Ciphertext:               6cd0a6396d1487bd6020c17cb3331d82976d9804ca52440c235e8da0e6e6fab9642149c84531e3793a4af69f01562a7f7cf387948659ba8f90f80a4d774cc644312ce5a1ad8904b8592491c95f5be988bd12ceca7d9abd0d18451c9ce8a2a07da045e6797732f419548ddf8fe9133e07
Reciphers for ciphertext: 0
Decipheredtext:           c6c6c6c6c6c6c6c6c6c6c6c6c6c6c6c6c6
RESULT CIPHER-DECIPHER: -----OK-----


Test: 58
Hash algorithm: 5
Crypto pad: 0
Symmetric key bit length: 128
IV bit length:            128
Plaintext bit length:     136
Symmetric key:            3a3a3a3a3a3a3a3a3a3a3a3a3a3a3a3a
IV:                       c5c5c5c5c5c5c5c5c5c5c5c5c5c5c5c5
Plaintext:                c5c5c5c5c5c5c5c5c5c5c5c5c5c5c5c5c5
Ciphertext:               012a1923dcea1eb7bf4a3c08d242f3c80e817423d34a5300f46d5f1794b34cd07630f420e187aa9af98f8b6990353af660bc61b2ccbe47189afb9806626adb73
Reciphers for ciphertext: 0
Decipheredtext:           c5c5c5c5c5c5c5c5c5c5c5c5c5c5c5c5c5
RESULT CIPHER-DECIPHER: -----OK-----


Test: 59
Hash algorithm: 1
Crypto pad: 0
Symmetric key bit length: 128
IV bit length:            128
Plaintext bit length:     136
Symmetric key:            3b3b3b3b3b3b3b3b3b3b3b3b3b3b3b3b
IV:                       c4c4c4c4c4c4c4c4c4c4c4c4c4c4c4c4
Plaintext:                c4c4c4c4c4c4c4c4c4c4c4c4c4c4c4c4c4
Ciphertext:               db244458c96ef9f5698953e33c846c4e16558e4275e214bb2493dfa9f81eea2f5ea7122fe59bd7157fe3026e05327c98a934720d3154f7bd6cbbe26ed22fbb35
Reciphers for ciphertext: 0
Decipheredtext:           c4c4c4c4c4c4c4c4c4c4c4c4c4c4c4c4c4
RESULT CIPHER-DECIPHER: -----OK-----


Test: 60
Hash algorithm: 9
Crypto pad: 0
Symmetric key bit length: 128
IV bit length:            128
Plaintext bit length:     136
Symmetric key:            3c3c3c3c3c3c3c3c3c3c3c3c3c3c3c3c
IV:                       c3c3c3c3c3c3c3c3c3c3c3c3c3c3c3c3
Plaintext:                c3c3c3c3c3c3c3c3c3c3c3c3c3c3c3c3c3
Ciphertext:               bf4e662c0f1f77a5e6b19884db4b3854903926e6fcf940f89dede0e15c46e686f709523c519a95e594fb0445718009437a519736c41e3b30b956f35b7c8f06cd72e1c52252e84a6333459e0aa502e788
Reciphers for ciphertext: 0
Decipheredtext:           c3c3c3c3c3c3c3c3c3c3c3c3c3c3c3c3c3
RESULT CIPHER-DECIPHER: -----OK-----


Test: 61
Hash algorithm: 12
Crypto pad: 0
Symmetric key bit length: 128
IV bit length:            128
Plaintext bit length:     136
Symmetric key:            3d3d3d3d3d3d3d3d3d3d3d3d3d3d3d3d
IV:                       c2c2c2c2c2c2c2c2c2c2c2c2c2c2c2c2
Plaintext:                c2c2c2c2c2c2c2c2c2c2c2c2c2c2c2c2c2
Ciphertext:               f16562f29c6086b0c6c63c2ce5d9555751edee14c0eff7a2807f09a2cd49e00d96a5cdcdfee6edadede3971c85f97b36f61c198a80447b1164970a81968a509b
Reciphers for ciphertext: 0
Decipheredtext:           c2c2c2c2c2c2c2c2c2c2c2c2c2c2c2c2c2
RESULT CIPHER-DECIPHER: -----OK-----


Test: 62
Hash algorithm: 7
Crypto pad: 0
Symmetric key bit length: 128
IV bit length:            128
Plaintext bit length:     136
Symmetric key:            3e3e3e3e3e3e3e3e3e3e3e3e3e3e3e3e
IV:                       c1c1c1c1c1c1c1c1c1c1c1c1c1c1c1c1
Plaintext:                c1c1c1c1c1c1c1c1c1c1c1c1c1c1c1c1c1
Ciphertext:               6f180b54f96fd7ee03d5b7f2b9bdec2cbc2256d44040560afa7ce4044a0e9fe1db6c8093390496653f81cd596677247ac582658aaf510a88bcbf34f70959bc8e
Reciphers for ciphertext: 0
Decipheredtext:           c1c1c1c1c1c1c1c1c1c1c1c1c1c1c1c1c1
RESULT CIPHER-DECIPHER: -----OK-----


Test: 63
Hash algorithm: 7
Crypto pad: 0
Symmetric key bit length: 128
IV bit length:            128
Plaintext bit length:     136
Symmetric key:            3f3f3f3f3f3f3f3f3f3f3f3f3f3f3f3f
IV:                       c0c0c0c0c0c0c0c0c0c0c0c0c0c0c0c0
Plaintext:                c0c0c0c0c0c0c0c0c0c0c0c0c0c0c0c0c0
Ciphertext:               9af8f292f6761512dfcd02e9cb0bdb1d668c4d968a2d0cd538dbb84716e8f1fb859ab63af1f140a70d4777a2539d87f5061435804127534ee8188882037dbdc1
Reciphers for ciphertext: 0
Decipheredtext:           c0c0c0c0c0c0c0c0c0c0c0c0c0c0c0c0c0
RESULT CIPHER-DECIPHER: -----OK-----


Test: 64
Hash algorithm: 8
Crypto pad: 2
Symmetric key bit length: 128
IV bit length:            128
Plaintext bit length:     136
Symmetric key:            40404040404040404040404040404040
IV:                       bfbfbfbfbfbfbfbfbfbfbfbfbfbfbfbf
Plaintext:                bfbfbfbfbfbfbfbfbfbfbfbfbfbfbfbfbf
Ciphertext:               f0555337a460c75040ca3c3874a7fcaa3deca6bf123d6472ef9df03e777adee9a213b9c6f02153b3ba1487f8304485cfcf15cce104fe5783bc297b8fea73d65a
Reciphers for ciphertext: 0
Decipheredtext:           bfbfbfbfbfbfbfbfbfbfbfbfbfbfbfbfbf
RESULT CIPHER-DECIPHER: -----OK-----


Test: 65
Hash algorithm: 3
Crypto pad: 1
Symmetric key bit length: 128
IV bit length:            128
Plaintext bit length:     136
Symmetric key:            41414141414141414141414141414141
IV:                       bebebebebebebebebebebebebebebebe
Plaintext:                bebebebebebebebebebebebebebebebebe
Ciphertext:               b945b366f0439b2d8936b32f4e47a17e09cf9ff8142062e70ae335ce670d6bb69ef18d663ad16eb5dfd3fd1a27f30e1a5eeae3a7e403ce178fc8d8ea5ceee2107e4e508b0bb4def7f6152fffe053958e8e73eecb7ef6cb3613a57506de65d2e7
Reciphers for ciphertext: 0
Decipheredtext:           bebebebebebebebebebebebebebebebebe
RESULT CIPHER-DECIPHER: -----OK-----


Test: 66
Hash algorithm: 7
Crypto pad: 2
Symmetric key bit length: 128
IV bit length:            128
Plaintext bit length:     136
Symmetric key:            42424242424242424242424242424242
IV:                       bdbdbdbdbdbdbdbdbdbdbdbdbdbdbdbd
Plaintext:                bdbdbdbdbdbdbdbdbdbdbdbdbdbdbdbdbd
Ciphertext:               3c486f98808920852b0ac15d2b8b1c73403a801b9b6c28df410a17596a5a4f025c64feae99609772c1d0c49ed5096cfac59dbc6e205f199742d7ef95bade144f
Reciphers for ciphertext: 0
Decipheredtext:           bdbdbdbdbdbdbdbdbdbdbdbdbdbdbdbdbd
RESULT CIPHER-DECIPHER: -----OK-----


Test: 67
Hash algorithm: 3
Crypto pad: 2
Symmetric key bit length: 128
IV bit length:            128
Plaintext bit length:     136
Symmetric key:            43434343434343434343434343434343
IV:                       bcbcbcbcbcbcbcbcbcbcbcbcbcbcbcbc
Plaintext:                bcbcbcbcbcbcbcbcbcbcbcbcbcbcbcbcbc
Ciphertext:               8baa800371b917aed11f082014e974b74d00a113462782fd819e22285e1d0ed6860b370c2a06fa39f60844f05b62f37b98f342613037c263346189b92b2aa9577595c926d097abe120c08ba119f1b6c445b82acf4df518437f5ca39cccf670ff
Reciphers for ciphertext: 0
Decipheredtext:           bcbcbcbcbcbcbcbcbcbcbcbcbcbcbcbcbc
RESULT CIPHER-DECIPHER: -----OK-----


Test: 68
Hash algorithm: 12
Crypto pad: 1
Symmetric key bit length: 128
IV bit length:            128
Plaintext bit length:     136
Symmetric key:            44444444444444444444444444444444
IV:                       bbbbbbbbbbbbbbbbbbbbbbbbbbbbbbbb
Plaintext:                bbbbbbbbbbbbbbbbbbbbbbbbbbbbbbbbbb
Ciphertext:               7da065becc349de8e85c7bc653f67aa45225e5f08b246ce04941556d36731c2c4b9b0201f12ca9e2457ea56961a9e789d8d1bb55397374ddbef642ee33582bbf
Reciphers for ciphertext: 0
Decipheredtext:           bbbbbbbbbbbbbbbbbbbbbbbbbbbbbbbbbb
RESULT CIPHER-DECIPHER: -----OK-----


Test: 69
Hash algorithm: 9
Crypto pad: 2
Symmetric key bit length: 128
IV bit length:            128
Plaintext bit length:     136
Symmetric key:            45454545454545454545454545454545
IV:                       babababababababababababababababa
Plaintext:                bababababababababababababababababa
Ciphertext:               45850e9b40d84873178e71817c8f80c53c740ca26aec422437f8b948887f6ed15fcb8a27bff258aca07a5229254f091baa234acda7551f8d143e732a64a83118e74a08a52b78022e7952b45b17100e34
Reciphers for ciphertext: 0
Decipheredtext:           bababababababababababababababababa
RESULT CIPHER-DECIPHER: -----OK-----


Test: 70
Hash algorithm: 6
Crypto pad: 2
Symmetric key bit length: 128
IV bit length:            128
Plaintext bit length:     136
Symmetric key:            46464646464646464646464646464646
IV:                       b9b9b9b9b9b9b9b9b9b9b9b9b9b9b9b9
Plaintext:                b9b9b9b9b9b9b9b9b9b9b9b9b9b9b9b9b9
Ciphertext:               a0de0fc7bcde3cc5b69bda88ac631a797660a47be642f3459c373452a08ab496e370bf28dcf92e4b4c8a70066aa9361a47b322398ffa0fc9833013b6295cc8c2b8287fd5acd39f4408043ea8f2989292
Reciphers for ciphertext: 0
Decipheredtext:           b9b9b9b9b9b9b9b9b9b9b9b9b9b9b9b9b9
RESULT CIPHER-DECIPHER: -----OK-----


Test: 71
Hash algorithm: 4
Crypto pad: 0
Symmetric key bit length: 128
IV bit length:            128
Plaintext bit length:     136
Symmetric key:            47474747474747474747474747474747
IV:                       b8b8b8b8b8b8b8b8b8b8b8b8b8b8b8b8
Plaintext:                b8b8b8b8b8b8b8b8b8b8b8b8b8b8b8b8b8
Ciphertext:               507f763d6ee7b38b20a48ab2ca8d1c43c401616f3f667c7b4001ccd864a8b6e3bcb209875b065f4848acfea7463a66c6bb80bbd1a43ef03bbee9ce3429bf88f394eeec1d32226a9f337b2814c145d883326b16fbcd1d12f57e7014efa6fbcb45b36ad4ab9b36ea2964780b76f8d47fd9
Reciphers for ciphertext: 0
Decipheredtext:           b8b8b8b8b8b8b8b8b8b8b8b8b8b8b8b8b8
RESULT CIPHER-DECIPHER: -----OK-----


Test: 72
Hash algorithm: 3
Crypto pad: 0
Symmetric key bit length: 128
IV bit length:            128
Plaintext bit length:     136
Symmetric key:            48484848484848484848484848484848
IV:                       b7b7b7b7b7b7b7b7b7b7b7b7b7b7b7b7
Plaintext:                b7b7b7b7b7b7b7b7b7b7b7b7b7b7b7b7b7
Ciphertext:               ed50468a3dd1ed3946b8d35a531780b68b06d851173a6d8c9811b65c7b8b1538297c7659929d177720447ce965ecbaf4fa441dca4b8c2d7ae116d42a1070f6bfae72c8d81d89541b8f1aa4e81655817f980b89de35da80c69e91d50ee93a51d5
Reciphers for ciphertext: 0
Decipheredtext:           b7b7b7b7b7b7b7b7b7b7b7b7b7b7b7b7b7
RESULT CIPHER-DECIPHER: -----OK-----


Test: 73
Hash algorithm: 0
Crypto pad: 1
Symmetric key bit length: 128
IV bit length:            128
Plaintext bit length:     136
Symmetric key:            49494949494949494949494949494949
IV:                       b6b6b6b6b6b6b6b6b6b6b6b6b6b6b6b6
Plaintext:                b6b6b6b6b6b6b6b6b6b6b6b6b6b6b6b6b6
Ciphertext:               2481b69107ba0fafc061ef9810a8bd55cb1d78566130fd3eb6c7fac9191bf9a8137023440d6a3e93a3159c3df6d215742a473b96281b4ce26cdc026517de4c5d
Reciphers for ciphertext: 0
Decipheredtext:           b6b6b6b6b6b6b6b6b6b6b6b6b6b6b6b6b6
RESULT CIPHER-DECIPHER: -----OK-----


Test: 74
Hash algorithm: 1
Crypto pad: 2
Symmetric key bit length: 128
IV bit length:            128
Plaintext bit length:     136
Symmetric key:            4a4a4a4a4a4a4a4a4a4a4a4a4a4a4a4a
IV:                       b5b5b5b5b5b5b5b5b5b5b5b5b5b5b5b5
Plaintext:                b5b5b5b5b5b5b5b5b5b5b5b5b5b5b5b5b5
Ciphertext:               b77114d69886a3d98c1098a46d3ad4856b9bf4c515b053b3b0645b2a471c8a50e56920737f1369f899471cd235e67e3c94df13b27671b852c7fbfd896e6fb806
Reciphers for ciphertext: 0
Decipheredtext:           b5b5b5b5b5b5b5b5b5b5b5b5b5b5b5b5b5
RESULT CIPHER-DECIPHER: -----OK-----


Test: 75
Hash algorithm: 13
Crypto pad: 2
Symmetric key bit length: 128
IV bit length:            128
Plaintext bit length:     136
Symmetric key:            4b4b4b4b4b4b4b4b4b4b4b4b4b4b4b4b
IV:                       b4b4b4b4b4b4b4b4b4b4b4b4b4b4b4b4
Plaintext:                b4b4b4b4b4b4b4b4b4b4b4b4b4b4b4b4b4
Ciphertext:               cba1056e7d0f246bf44329556a45e67e3c7884b4304d7edd15c2e9c4a3083d599eb21b7eec9107304ddd7ff96a8c35d4435da12461b1a9d42dd5b3835ced0dd4
Reciphers for ciphertext: 0
Decipheredtext:           b4b4b4b4b4b4b4b4b4b4b4b4b4b4b4b4b4
RESULT CIPHER-DECIPHER: -----OK-----


Test: 76
Hash algorithm: 10
Crypto pad: 0
Symmetric key bit length: 128
IV bit length:            128
Plaintext bit length:     136
Symmetric key:            4c4c4c4c4c4c4c4c4c4c4c4c4c4c4c4c
IV:                       b3b3b3b3b3b3b3b3b3b3b3b3b3b3b3b3
Plaintext:                b3b3b3b3b3b3b3b3b3b3b3b3b3b3b3b3b3
Ciphertext:               0b32d781ae9dbe5c3f511e44d1aadb9b09a96edad588edb7688202cc64395b4e2363494d2c0036649f8ba37a6bbd4f61913ca58b3d978bb84d1e1841d47f7453ba444f1d16832466b42d31cacf912100
Reciphers for ciphertext: 0
Decipheredtext:           b3b3b3b3b3b3b3b3b3b3b3b3b3b3b3b3b3
RESULT CIPHER-DECIPHER: -----OK-----


Test: 77
Hash algorithm: 2
Crypto pad: 1
Symmetric key bit length: 128
IV bit length:            128
Plaintext bit length:     136
Symmetric key:            4d4d4d4d4d4d4d4d4d4d4d4d4d4d4d4d
IV:                       b2b2b2b2b2b2b2b2b2b2b2b2b2b2b2b2
Plaintext:                b2b2b2b2b2b2b2b2b2b2b2b2b2b2b2b2b2
Ciphertext:               6b85fbbb007a47ff7068e8811fdd893cbd462a6f3f8c57d98cf6fc481c8e80ce77af01bce6b30d587cdcbe47e33d0db19bc8b5a37fdc8e059f1f94044534997fb00050b38dbd7aba6da69c211c1af264
Reciphers for ciphertext: 0
Decipheredtext:           b2b2b2b2b2b2b2b2b2b2b2b2b2b2b2b2b2
RESULT CIPHER-DECIPHER: -----OK-----


Test: 78
Hash algorithm: 10
Crypto pad: 0
Symmetric key bit length: 128
IV bit length:            128
Plaintext bit length:     136
Symmetric key:            4e4e4e4e4e4e4e4e4e4e4e4e4e4e4e4e
IV:                       b1b1b1b1b1b1b1b1b1b1b1b1b1b1b1b1
Plaintext:                b1b1b1b1b1b1b1b1b1b1b1b1b1b1b1b1b1
Ciphertext:               0aa46e6f2692df3728cb30c49ce9595ffb8e9c197b408f8fd54703868d8a3984cf912c22b18c285d1ac90e753b3c5d9ca7cfadff14b10b3eaa26d7d85f36fefcc5e1efd35d92061c7dd2b8cb1235b177
Reciphers for ciphertext: 0
Decipheredtext:           b1b1b1b1b1b1b1b1b1b1b1b1b1b1b1b1b1
RESULT CIPHER-DECIPHER: -----OK-----


Test: 79
Hash algorithm: 1
Crypto pad: 2
Symmetric key bit length: 128
IV bit length:            128
Plaintext bit length:     136
Symmetric key:            4f4f4f4f4f4f4f4f4f4f4f4f4f4f4f4f
IV:                       b0b0b0b0b0b0b0b0b0b0b0b0b0b0b0b0
Plaintext:                b0b0b0b0b0b0b0b0b0b0b0b0b0b0b0b0b0
Ciphertext:               986682afa48e121cf2d2783f505d499b2a3a24258fbd038e6f886799694a7f066fb9b3a06e3c641df5417a6c880eecd545b902632f6630e6d2b72b692bed09f4
Reciphers for ciphertext: 0
Decipheredtext:           b0b0b0b0b0b0b0b0b0b0b0b0b0b0b0b0b0
RESULT CIPHER-DECIPHER: -----OK-----


Test: 80
Hash algorithm: 0
Crypto pad: 0
Symmetric key bit length: 128
IV bit length:            128
Plaintext bit length:     136
Symmetric key:            50505050505050505050505050505050
IV:                       afafafafafafafafafafafafafafafaf
Plaintext:                afafafafafafafafafafafafafafafafaf
Ciphertext:               8841b65ac409f2d08dbe3443e136c130cc19fd3ea578c674c981c571d0d8a1d34feeb0defd7b747c628c267415a2337668a11b319f1e0cf8ff8419a4ad321f65
Reciphers for ciphertext: 0
Decipheredtext:           afafafafafafafafafafafafafafafafaf
RESULT CIPHER-DECIPHER: -----OK-----


Test: 81
Hash algorithm: 5
Crypto pad: 0
Symmetric key bit length: 128
IV bit length:            128
Plaintext bit length:     136
Symmetric key:            51515151515151515151515151515151
IV:                       aeaeaeaeaeaeaeaeaeaeaeaeaeaeaeae
Plaintext:                aeaeaeaeaeaeaeaeaeaeaeaeaeaeaeaeae
Ciphertext:               6f2a480a03acd48dd34ab2ac8b64baa768b05817bd0ed5b8b81bb84577dcb284662ea8b42e0ce248112c5f2b1c7dfdef4a81beb02fb8c7ee21e2e04773a7b455
Reciphers for ciphertext: 0
Decipheredtext:           aeaeaeaeaeaeaeaeaeaeaeaeaeaeaeaeae
RESULT CIPHER-DECIPHER: -----OK-----


Test: 82
Hash algorithm: 3
Crypto pad: 0
Symmetric key bit length: 128
IV bit length:            128
Plaintext bit length:     136
Symmetric key:            52525252525252525252525252525252
IV:                       adadadadadadadadadadadadadadadad
Plaintext:                adadadadadadadadadadadadadadadadad
Ciphertext:               f9601dcedd4ce841e770f268dead5a95aaab83d764fc26dc7c240faed2fb9df9358fedf124a09899f44baf797eb6e1da3cdc042b2b27c853bc7c04b4ba2ed2be2bfbce48eb4fd91547ddd9c276ceb2b2ee096ca6d1b4ab4c3afc4a9032af1b75
Reciphers for ciphertext: 0
Decipheredtext:           adadadadadadadadadadadadadadadadad
RESULT CIPHER-DECIPHER: -----OK-----


Test: 83
Hash algorithm: 9
Crypto pad: 0
Symmetric key bit length: 128
IV bit length:            128
Plaintext bit length:     136
Symmetric key:            53535353535353535353535353535353
IV:                       acacacacacacacacacacacacacacacac
Plaintext:                acacacacacacacacacacacacacacacacac
Ciphertext:               0ededdfb5abef005855e30bc940fcbbc42bf2d0773dc7c2a8deb6d6123eb72dd6a81064d4f7c08aca9dea4b5aa92c08833507023efa6a964e4a2ce734fd4103ae56fc51c35644498023665699f8801af
Reciphers for ciphertext: 0
Decipheredtext:           acacacacacacacacacacacacacacacacac
RESULT CIPHER-DECIPHER: -----OK-----


Test: 84
Hash algorithm: 13
Crypto pad: 1
Symmetric key bit length: 128
IV bit length:            128
Plaintext bit length:     136
Symmetric key:            54545454545454545454545454545454
IV:                       abababababababababababababababab
Plaintext:                ababababababababababababababababab
Ciphertext:               aa0bf3633c839a653d95c68b2a91a241435f1f0d99494eb9403b7f359b98f89f1fca26d0c2ba32b86f42ee2ea534c6aad30c142c19dca6d3c74dffdac3052683
Reciphers for ciphertext: 0
Decipheredtext:           ababababababababababababababababab
RESULT CIPHER-DECIPHER: -----OK-----


Test: 85
Hash algorithm: 12
Crypto pad: 2
Symmetric key bit length: 128
IV bit length:            128
Plaintext bit length:     136
Symmetric key:            55555555555555555555555555555555
IV:                       aaaaaaaaaaaaaaaaaaaaaaaaaaaaaaaa
Plaintext:                aaaaaaaaaaaaaaaaaaaaaaaaaaaaaaaaaa
Ciphertext:               03c54eb0450e4215322d05144ad578ba3459b194580f12bd7745c8cd43637bfbda6388e54ceb9038d367e7237355a1ddfe5e1f58441a7c5d5aadc38b52f6a084
Reciphers for ciphertext: 0
Decipheredtext:           aaaaaaaaaaaaaaaaaaaaaaaaaaaaaaaaaa
RESULT CIPHER-DECIPHER: -----OK-----


Test: 86
Hash algorithm: 0
Crypto pad: 0
Symmetric key bit length: 128
IV bit length:            128
Plaintext bit length:     136
Symmetric key:            56565656565656565656565656565656
IV:                       a9a9a9a9a9a9a9a9a9a9a9a9a9a9a9a9
Plaintext:                a9a9a9a9a9a9a9a9a9a9a9a9a9a9a9a9a9
Ciphertext:               259901e5db8c96590631365c71398b053720674919fccfca123ad7d4559271ef5cf6a809d11999d0c08ec53cb8e4bc0b324e7520aabf1e40a93786ef34c334f1
Reciphers for ciphertext: 0
Decipheredtext:           a9a9a9a9a9a9a9a9a9a9a9a9a9a9a9a9a9
RESULT CIPHER-DECIPHER: -----OK-----


Test: 87
Hash algorithm: 11
Crypto pad: 1
Symmetric key bit length: 128
IV bit length:            128
Plaintext bit length:     136
Symmetric key:            57575757575757575757575757575757
IV:                       a8a8a8a8a8a8a8a8a8a8a8a8a8a8a8a8
Plaintext:                a8a8a8a8a8a8a8a8a8a8a8a8a8a8a8a8a8
Ciphertext:               71461e9afa1e07b63966a868556268b5333810aa8c076e593f6531033d9acaaaff5fb01406205fa221092cf8522627caeb159d1f5c604c08f523d6939bd2e482
Reciphers for ciphertext: 0
Decipheredtext:           a8a8a8a8a8a8a8a8a8a8a8a8a8a8a8a8a8
RESULT CIPHER-DECIPHER: -----OK-----


Test: 88
Hash algorithm: 0
Crypto pad: 1
Symmetric key bit length: 128
IV bit length:            128
Plaintext bit length:     136
Symmetric key:            58585858585858585858585858585858
IV:                       a7a7a7a7a7a7a7a7a7a7a7a7a7a7a7a7
Plaintext:                a7a7a7a7a7a7a7a7a7a7a7a7a7a7a7a7a7
Ciphertext:               3b13442852586a3daafba08152c7396ff60565b90bfe0cd38845e036717dc89acee210d4aa467856b0597de2ccb98dc05031b0107957e4216b12f1cb10ec8efc
Reciphers for ciphertext: 0
Decipheredtext:           a7a7a7a7a7a7a7a7a7a7a7a7a7a7a7a7a7
RESULT CIPHER-DECIPHER: -----OK-----


Test: 89
Hash algorithm: 13
Crypto pad: 1
Symmetric key bit length: 128
IV bit length:            128
Plaintext bit length:     136
Symmetric key:            59595959595959595959595959595959
IV:                       a6a6a6a6a6a6a6a6a6a6a6a6a6a6a6a6
Plaintext:                a6a6a6a6a6a6a6a6a6a6a6a6a6a6a6a6a6
Ciphertext:               2bad77515ebbebb6aab423795a4f17fd4d810473dcd59ea5a710b9dae6b8c76cb991e3d0a60157c71efb84ec3deffae4182ff2383d29dbc9966bd3b95963e3b5
Reciphers for ciphertext: 0
Decipheredtext:           a6a6a6a6a6a6a6a6a6a6a6a6a6a6a6a6a6
RESULT CIPHER-DECIPHER: -----OK-----


Test: 90
Hash algorithm: 0
Crypto pad: 0
Symmetric key bit length: 128
IV bit length:            128
Plaintext bit length:     136
Symmetric key:            5a5a5a5a5a5a5a5a5a5a5a5a5a5a5a5a
IV:                       a5a5a5a5a5a5a5a5a5a5a5a5a5a5a5a5
Plaintext:                a5a5a5a5a5a5a5a5a5a5a5a5a5a5a5a5a5
Ciphertext:               a68d891e15361fcdec5051db12a8f797930b25b55e13b3a2a97d7791d1a9853b13de735bdc7b0da918be5551deefc674b1c576d8c917adc8fbe63211ef44a279
Reciphers for ciphertext: 0
Decipheredtext:           a5a5a5a5a5a5a5a5a5a5a5a5a5a5a5a5a5
RESULT CIPHER-DECIPHER: -----OK-----


Test: 91
Hash algorithm: 7
Crypto pad: 1
Symmetric key bit length: 128
IV bit length:            128
Plaintext bit length:     136
Symmetric key:            5b5b5b5b5b5b5b5b5b5b5b5b5b5b5b5b
IV:                       a4a4a4a4a4a4a4a4a4a4a4a4a4a4a4a4
Plaintext:                a4a4a4a4a4a4a4a4a4a4a4a4a4a4a4a4a4
Ciphertext:               2241101a784a30b33158f255a5d2ed7c76ab77a46660b3b6e36e7c27a8c96778897f30edcb519b25ba543f615148a22644c6ab3b3c3ce5fbcca3f1907eacb74a
Reciphers for ciphertext: 0
Decipheredtext:           a4a4a4a4a4a4a4a4a4a4a4a4a4a4a4a4a4
RESULT CIPHER-DECIPHER: -----OK-----


Test: 92
Hash algorithm: 13
Crypto pad: 1
Symmetric key bit length: 128
IV bit length:            128
Plaintext bit length:     136
Symmetric key:            5c5c5c5c5c5c5c5c5c5c5c5c5c5c5c5c
IV:                       a3a3a3a3a3a3a3a3a3a3a3a3a3a3a3a3
Plaintext:                a3a3a3a3a3a3a3a3a3a3a3a3a3a3a3a3a3
Ciphertext:               c30983ab2fe07d616f6d20c5fa9ac042c88ef780295e5781dc228b421266be97ceeec0705e22831a4fa48dba41646a74c83ab65c5d358125ab2e78c8a5b1ffa4
Reciphers for ciphertext: 0
Decipheredtext:           a3a3a3a3a3a3a3a3a3a3a3a3a3a3a3a3a3
RESULT CIPHER-DECIPHER: -----OK-----


Test: 93
Hash algorithm: 13
Crypto pad: 2
Symmetric key bit length: 128
IV bit length:            128
Plaintext bit length:     136
Symmetric key:            5d5d5d5d5d5d5d5d5d5d5d5d5d5d5d5d
IV:                       a2a2a2a2a2a2a2a2a2a2a2a2a2a2a2a2
Plaintext:                a2a2a2a2a2a2a2a2a2a2a2a2a2a2a2a2a2
Ciphertext:               b505ed815c62a894af314cc8290ab238aac61a174fd7a20eae6b46a3d5c48adc2245fa0f8c4af83bdf4b78536e384207bf655dc264962acbed6f2f4645c39dfd
Reciphers for ciphertext: 0
Decipheredtext:           a2a2a2a2a2a2a2a2a2a2a2a2a2a2a2a2a2
RESULT CIPHER-DECIPHER: -----OK-----


Test: 94
Hash algorithm: 1
Crypto pad: 1
Symmetric key bit length: 128
IV bit length:            128
Plaintext bit length:     136
Symmetric key:            5e5e5e5e5e5e5e5e5e5e5e5e5e5e5e5e
IV:                       a1a1a1a1a1a1a1a1a1a1a1a1a1a1a1a1
Plaintext:                a1a1a1a1a1a1a1a1a1a1a1a1a1a1a1a1a1
Ciphertext:               67b43cf677c6b0ab81cae6217c8290ac9a67bf23833582a1aafe509c63e2693889a598fa2fa96c9bcdd753db3569abacad6eb13bd94fc90edba42305f4f2f1c9
Reciphers for ciphertext: 0
Decipheredtext:           a1a1a1a1a1a1a1a1a1a1a1a1a1a1a1a1a1
RESULT CIPHER-DECIPHER: -----OK-----


Test: 95
Hash algorithm: 0
Crypto pad: 0
Symmetric key bit length: 128
IV bit length:            128
Plaintext bit length:     136
Symmetric key:            5f5f5f5f5f5f5f5f5f5f5f5f5f5f5f5f
IV:                       a0a0a0a0a0a0a0a0a0a0a0a0a0a0a0a0
Plaintext:                a0a0a0a0a0a0a0a0a0a0a0a0a0a0a0a0a0
Ciphertext:               6b88b707c211b26e6d33090f2219ca2deda95e0838ea3f7f25f376e9f2dd9422e6a1380670cdc7684c6341df5276c2e3ebbd70163e0b0cc28c27ceac8651e624
Reciphers for ciphertext: 0
Decipheredtext:           a0a0a0a0a0a0a0a0a0a0a0a0a0a0a0a0a0
RESULT CIPHER-DECIPHER: -----OK-----


Test: 96
Hash algorithm: 6
Crypto pad: 1
Symmetric key bit length: 128
IV bit length:            128
Plaintext bit length:     136
Symmetric key:            60606060606060606060606060606060
IV:                       9f9f9f9f9f9f9f9f9f9f9f9f9f9f9f9f
Plaintext:                9f9f9f9f9f9f9f9f9f9f9f9f9f9f9f9f9f
Ciphertext:               5f072aab4ec55264eb57e2207766adfd0922e64d4ec9941b105aa6cf12afcfdb37518cf0fa335d29c4ef92c007e964c4fb66e41569d425aa818fc2a1b637d93300513b0cb0b9fa98ede47b9182884b10
Reciphers for ciphertext: 0
Decipheredtext:           9f9f9f9f9f9f9f9f9f9f9f9f9f9f9f9f9f
RESULT CIPHER-DECIPHER: -----OK-----


Test: 97
Hash algorithm: 11
Crypto pad: 2
Symmetric key bit length: 128
IV bit length:            128
Plaintext bit length:     136
Symmetric key:            61616161616161616161616161616161
IV:                       9e9e9e9e9e9e9e9e9e9e9e9e9e9e9e9e
Plaintext:                9e9e9e9e9e9e9e9e9e9e9e9e9e9e9e9e9e
Ciphertext:               15730b9d01c26948f1dcc80febff3b4b07ad2d5aa4e16d15f8d7ab6cd17230de6dfdd09894f565cebc52698b0b95abb373e39360d83480a2b5369332d6824a6f
Reciphers for ciphertext: 0
Decipheredtext:           9e9e9e9e9e9e9e9e9e9e9e9e9e9e9e9e9e
RESULT CIPHER-DECIPHER: -----OK-----


Test: 98
Hash algorithm: 5
Crypto pad: 1
Symmetric key bit length: 128
IV bit length:            128
Plaintext bit length:     136
Symmetric key:            62626262626262626262626262626262
IV:                       9d9d9d9d9d9d9d9d9d9d9d9d9d9d9d9d
Plaintext:                9d9d9d9d9d9d9d9d9d9d9d9d9d9d9d9d9d
Ciphertext:               c723a7e3adcd1ef0b3cf7ab7eee5453f5e12a930b0e2c57ce7a31fe57f9aad73a151f5698a7b454c0e6709ea770a37d352602f3678e3fec18915094fc5231259
Reciphers for ciphertext: 0
Decipheredtext:           9d9d9d9d9d9d9d9d9d9d9d9d9d9d9d9d9d
RESULT CIPHER-DECIPHER: -----OK-----


Test: 99
Hash algorithm: 2
Crypto pad: 2
Symmetric key bit length: 128
IV bit length:            128
Plaintext bit length:     136
Symmetric key:            63636363636363636363636363636363
IV:                       9c9c9c9c9c9c9c9c9c9c9c9c9c9c9c9c
Plaintext:                9c9c9c9c9c9c9c9c9c9c9c9c9c9c9c9c9c
Ciphertext:               ecb2e83c3e06e67898e918d9c1397987b197fce4cb854581bc4871f0eabbc9c01cd93c6400e762c30112280ac37c06d2cbb9ddf1bb1aa09ed632ebf84d549b0ff6d7209163e70519268834367aeb85bd
Reciphers for ciphertext: 0
Decipheredtext:           9c9c9c9c9c9c9c9c9c9c9c9c9c9c9c9c9c
RESULT CIPHER-DECIPHER: -----OK-----


Test: 100
Hash algorithm: 4
Crypto pad: 1
Symmetric key bit length: 128
IV bit length:            128
Plaintext bit length:     136
Symmetric key:            64646464646464646464646464646464
IV:                       9b9b9b9b9b9b9b9b9b9b9b9b9b9b9b9b
Plaintext:                9b9b9b9b9b9b9b9b9b9b9b9b9b9b9b9b9b
Ciphertext:               b4b50ec7a79ca078a74678956971d00999388e728ca83aeb9406b7fce0025a43dbdcc6ca1e1ffe2abb50817c1b69f4999abae0c8a37e075124083d545322d8154231ee2a3fa74b5b9c29de544fbbfcf6b3ee4f37d56073a4e618e7cc9b9620a621c8ad9dfd4825652ce40cdf44febfa4
Reciphers for ciphertext: 0
Decipheredtext:           9b9b9b9b9b9b9b9b9b9b9b9b9b9b9b9b9b
RESULT CIPHER-DECIPHER: -----OK-----


Test: 101
Hash algorithm: 3
Crypto pad: 2
Symmetric key bit length: 128
IV bit length:            128
Plaintext bit length:     136
Symmetric key:            65656565656565656565656565656565
IV:                       9a9a9a9a9a9a9a9a9a9a9a9a9a9a9a9a
Plaintext:                9a9a9a9a9a9a9a9a9a9a9a9a9a9a9a9a9a
Ciphertext:               ebeb34e11d216e794651c39564318d61dd9137c412f53830923fa48c05ec90d7686090d8628cb00834a84ccdf3fc8bef43a7d2391fbdfa6644fea7f9c389a3ee52b38dec4e86f4b71e4641f2f95324ba700606d81cdfe63d482e23ece6b26e54
Reciphers for ciphertext: 0
Decipheredtext:           9a9a9a9a9a9a9a9a9a9a9a9a9a9a9a9a9a
RESULT CIPHER-DECIPHER: -----OK-----


Test: 102
Hash algorithm: 1
Crypto pad: 2
Symmetric key bit length: 128
IV bit length:            128
Plaintext bit length:     136
Symmetric key:            66666666666666666666666666666666
IV:                       99999999999999999999999999999999
Plaintext:                9999999999999999999999999999999999
Ciphertext:               19ed57eb9104c9d88e06eaa215861840776f1e1621f20184503f0ea304e215fa131bc3b6594abf0a2389238daa2ca967a0c5e506e59d19b9ad50ce1392126fbf
Reciphers for ciphertext: 0
Decipheredtext:           9999999999999999999999999999999999
RESULT CIPHER-DECIPHER: -----OK-----


Test: 103
Hash algorithm: 7
Crypto pad: 1
Symmetric key bit length: 128
IV bit length:            128
Plaintext bit length:     136
Symmetric key:            67676767676767676767676767676767
IV:                       98989898989898989898989898989898
Plaintext:                9898989898989898989898989898989898
Ciphertext:               2e5a91856a08aff5de1a95840bcd93f7c661c1459b8136ac3a20ce94718e0499c6e69a24a4cf55f924e5c5eff6bf030976b6a62eb8b15e603a6559595ee2226b
Reciphers for ciphertext: 0
Decipheredtext:           9898989898989898989898989898989898
RESULT CIPHER-DECIPHER: -----OK-----


Test: 104
Hash algorithm: 11
Crypto pad: 2
Symmetric key bit length: 128
IV bit length:            128
Plaintext bit length:     136
Symmetric key:            68686868686868686868686868686868
IV:                       97979797979797979797979797979797
Plaintext:                9797979797979797979797979797979797
Ciphertext:               a89a110e646617959e86f85859d3f2b59161c33ee54581ce105a3ba06c484a7f64e649bf22f5c537f44f264366394011a60d0a571c446ea098a0b45146b54330
Reciphers for ciphertext: 0
Decipheredtext:           9797979797979797979797979797979797
RESULT CIPHER-DECIPHER: -----OK-----


Test: 105
Hash algorithm: 2
Crypto pad: 1
Symmetric key bit length: 128
IV bit length:            128
Plaintext bit length:     136
Symmetric key:            69696969696969696969696969696969
IV:                       96969696969696969696969696969696
Plaintext:                9696969696969696969696969696969696
Ciphertext:               7251951e6882edb13aa5631e1441bec73321ef70da65a25eb393c4ef1333a45ce2198eb4a67183248640d98d3fd89ea081bf5e023e0f482eb9bf652b5685c0da549d83d138feb971acadeddcdc5234ce
Reciphers for ciphertext: 0
Decipheredtext:           9696969696969696969696969696969696
RESULT CIPHER-DECIPHER: -----OK-----


Test: 106
Hash algorithm: 11
Crypto pad: 2
Symmetric key bit length: 128
IV bit length:            128
Plaintext bit length:     136
Symmetric key:            6a6a6a6a6a6a6a6a6a6a6a6a6a6a6a6a
IV:                       95959595959595959595959595959595
Plaintext:                9595959595959595959595959595959595
Ciphertext:               24b459bb631c9a5aeeb9a084b65948a698825d9daafe75a9b7b95942b47ff01eee85808006d722eaf2956658ad75c61f417e658892e6ccfd3e2e03c1b3727207
Reciphers for ciphertext: 0
Decipheredtext:           9595959595959595959595959595959595
RESULT CIPHER-DECIPHER: -----OK-----


Test: 107
Hash algorithm: 10
Crypto pad: 2
Symmetric key bit length: 128
IV bit length:            128
Plaintext bit length:     136
Symmetric key:            6b6b6b6b6b6b6b6b6b6b6b6b6b6b6b6b
IV:                       94949494949494949494949494949494
Plaintext:                9494949494949494949494949494949494
Ciphertext:               6b56b68fd028c38518ce11523ef572589c9d727cbeb951d94151d16f2e0ab5b629b104292750ed627d27deb68860f50dab44522c82e7c199af743b5bd55795efd9d56474a989214a3ee90a0d2d1ec044
Reciphers for ciphertext: 0
Decipheredtext:           9494949494949494949494949494949494
RESULT CIPHER-DECIPHER: -----OK-----


Test: 108
Hash algorithm: 0
Crypto pad: 1
Symmetric key bit length: 128
IV bit length:            128
Plaintext bit length:     136
Symmetric key:            6c6c6c6c6c6c6c6c6c6c6c6c6c6c6c6c
IV:                       93939393939393939393939393939393
Plaintext:                9393939393939393939393939393939393
Ciphertext:               d25275d0cc0644d05ba37e1df0864f320b7c212742401d4b9b0e7e5cfd0d9a682aeae36f5c2e582ceb95982def2106d9f94bf4152b8f927ec4443a146c6dc4bb
Reciphers for ciphertext: 0
Decipheredtext:           9393939393939393939393939393939393
RESULT CIPHER-DECIPHER: -----OK-----


Test: 109
Hash algorithm: 3
Crypto pad: 0
Symmetric key bit length: 128
IV bit length:            128
Plaintext bit length:     136
Symmetric key:            6d6d6d6d6d6d6d6d6d6d6d6d6d6d6d6d
IV:                       92929292929292929292929292929292
Plaintext:                9292929292929292929292929292929292
Ciphertext:               78f8167eae9a6b229eb92f2b833430ad5314713971a92319359067a7c8d75b0021e9a10fbd3c6f198a774a60ce8bfb6c00ab589c7ff5776360f7fc6b2f5c53a7f0fc690aedc7af2e8c3bdea6a0ad59dadeb39fd52fdfbc96479b791a91e1c767
Reciphers for ciphertext: 0
Decipheredtext:           9292929292929292929292929292929292
RESULT CIPHER-DECIPHER: -----OK-----


Test: 110
Hash algorithm: 1
Crypto pad: 1
Symmetric key bit length: 128
IV bit length:            128
Plaintext bit length:     136
Symmetric key:            6e6e6e6e6e6e6e6e6e6e6e6e6e6e6e6e
IV:                       91919191919191919191919191919191
Plaintext:                9191919191919191919191919191919191
Ciphertext:               cfaac2819848aa20084c4288939ade2c2d05eaa7c67557190952d846f1d2d22d7884d32216229ef519ad8b70bf56592e56cea0256539b897c0d947b04aacacc8
Reciphers for ciphertext: 0
Decipheredtext:           9191919191919191919191919191919191
RESULT CIPHER-DECIPHER: -----OK-----


Test: 111
Hash algorithm: 13
Crypto pad: 0
Symmetric key bit length: 128
IV bit length:            128
Plaintext bit length:     136
Symmetric key:            6f6f6f6f6f6f6f6f6f6f6f6f6f6f6f6f
IV:                       90909090909090909090909090909090
Plaintext:                9090909090909090909090909090909090
Ciphertext:               c0f566f8b6b513d986d4d1a85d61b96d44a6b4c6e13f9c68f0e81fc112da59f15e41c65131839bbb29b75b51e2b1ee71c5fb29dc9d6e2f3946e24b1a06d72459
Reciphers for ciphertext: 0
Decipheredtext:           9090909090909090909090909090909090
RESULT CIPHER-DECIPHER: -----OK-----


Test: 112
Hash algorithm: 4
Crypto pad: 1
Symmetric key bit length: 128
IV bit length:            128
Plaintext bit length:     136
Symmetric key:            70707070707070707070707070707070
IV:                       8f8f8f8f8f8f8f8f8f8f8f8f8f8f8f8f
Plaintext:                8f8f8f8f8f8f8f8f8f8f8f8f8f8f8f8f8f
Ciphertext:               473cbfbaccb2cd7b5c7f120a45bce6a8ff001b62e6a68dfc85269a132516ac9b3a1486328486ac4b6639f42c1596dd22f8140dfc9f25c6d338d7143c01c28704499202a89dd9bba6ab48be63dccd425d8b7405154aa2a933437f3dc9f8e8085ef6e41af7a40ddcefb0c25fdddd61b590
Reciphers for ciphertext: 0
Decipheredtext:           8f8f8f8f8f8f8f8f8f8f8f8f8f8f8f8f8f
RESULT CIPHER-DECIPHER: -----OK-----


Test: 113
Hash algorithm: 3
Crypto pad: 0
Symmetric key bit length: 128
IV bit length:            128
Plaintext bit length:     136
Symmetric key:            71717171717171717171717171717171
IV:                       8e8e8e8e8e8e8e8e8e8e8e8e8e8e8e8e
Plaintext:                8e8e8e8e8e8e8e8e8e8e8e8e8e8e8e8e8e
Ciphertext:               f85b1d1fe7d349d8c4e8790fef3f82861bc4418072c9acf9757396f3a76403ac8d587984e11a96880bfbf8f9bde7451350b48860ee277e0f99059bfa334a27252b75f329e580844dee5676a46450604a8018a5879449e1573998f52c4f9dd0e4
Reciphers for ciphertext: 0
Decipheredtext:           8e8e8e8e8e8e8e8e8e8e8e8e8e8e8e8e8e
RESULT CIPHER-DECIPHER: -----OK-----


Test: 114
Hash algorithm: 13
Crypto pad: 0
Symmetric key bit length: 128
IV bit length:            128
Plaintext bit length:     136
Symmetric key:            72727272727272727272727272727272
IV:                       8d8d8d8d8d8d8d8d8d8d8d8d8d8d8d8d
Plaintext:                8d8d8d8d8d8d8d8d8d8d8d8d8d8d8d8d8d
Ciphertext:               175ffe7b15f37d838cf4f9b4a41df0f2d886abe7c4b10ce093ef25cf1fabe4c27fccb1547f32b2658fb802afedfc9dab7b2d6700f413fd5745f8e315149b822d
Reciphers for ciphertext: 0
Decipheredtext:           8d8d8d8d8d8d8d8d8d8d8d8d8d8d8d8d8d
RESULT CIPHER-DECIPHER: -----OK-----


Test: 115
Hash algorithm: 5
Crypto pad: 2
Symmetric key bit length: 128
IV bit length:            128
Plaintext bit length:     136
Symmetric key:            73737373737373737373737373737373
IV:                       8c8c8c8c8c8c8c8c8c8c8c8c8c8c8c8c
Plaintext:                8c8c8c8c8c8c8c8c8c8c8c8c8c8c8c8c8c
Ciphertext:               afa4efe7676df97b906632d2123c8a9abf9471c074ed7a5cb83c2126c3670c014ed5fc537c2cb71f1004927a057324b9eec6655500b7ee5b1539b77285ee58f6
Reciphers for ciphertext: 0
Decipheredtext:           8c8c8c8c8c8c8c8c8c8c8c8c8c8c8c8c8c
RESULT CIPHER-DECIPHER: -----OK-----


Test: 116
Hash algorithm: 5
Crypto pad: 0
Symmetric key bit length: 128
IV bit length:            128
Plaintext bit length:     136
Symmetric key:            74747474747474747474747474747474
IV:                       8b8b8b8b8b8b8b8b8b8b8b8b8b8b8b8b
Plaintext:                8b8b8b8b8b8b8b8b8b8b8b8b8b8b8b8b8b
Ciphertext:               626f1385e81650c2659bedb61a46c678a7817649585f27505419545b31e193378b8ce1230b1cf9d78103ce3c954adf69503f9be6abde320848ceed4f275a6c96
Reciphers for ciphertext: 0
Decipheredtext:           8b8b8b8b8b8b8b8b8b8b8b8b8b8b8b8b8b
RESULT CIPHER-DECIPHER: -----OK-----


Test: 117
Hash algorithm: 13
Crypto pad: 2
Symmetric key bit length: 128
IV bit length:            128
Plaintext bit length:     136
Symmetric key:            75757575757575757575757575757575
IV:                       8a8a8a8a8a8a8a8a8a8a8a8a8a8a8a8a
Plaintext:                8a8a8a8a8a8a8a8a8a8a8a8a8a8a8a8a8a
Ciphertext:               6828a12257abd3eb7ac53e3cd9d8439b6e401ac4a3e1665f46f51be721a20ed3e6f0c66dc441b7b344bf0495264ee81dbdc5e1b4ffc2df97ec075f868b73e087
Reciphers for ciphertext: 0
Decipheredtext:           8a8a8a8a8a8a8a8a8a8a8a8a8a8a8a8a8a
RESULT CIPHER-DECIPHER: -----OK-----


Test: 118
Hash algorithm: 6
Crypto pad: 2
Symmetric key bit length: 128
IV bit length:            128
Plaintext bit length:     136
Symmetric key:            76767676767676767676767676767676
IV:                       89898989898989898989898989898989
Plaintext:                8989898989898989898989898989898989
Ciphertext:               7052b7f117a35c1217aded3b72eb76ba2fd8423cd9362efcc5d6be1e46e8d50d31a06d6f623258b36a6c9f21952d4ff046302adc3236bc16e16ac3810d822429236e78343194716b106324f0737f9ada
Reciphers for ciphertext: 0
Decipheredtext:           8989898989898989898989898989898989
RESULT CIPHER-DECIPHER: -----OK-----


Test: 119
Hash algorithm: 4
Crypto pad: 0
Symmetric key bit length: 128
IV bit length:            128
Plaintext bit length:     136
Symmetric key:            77777777777777777777777777777777
IV:                       88888888888888888888888888888888
Plaintext:                8888888888888888888888888888888888
Ciphertext:               195e380e5722eb03186ac449f958eed0676a5d132d437498b066d4ab852e0b82bd17f84a84bc56166bc3631f8fd7c9f237a3b5695f590a247c81af16a25f51975336150eeddfb5c7ec25ab3efd3b85509c07ed1d4d3353c5c56191b6a6f897f7f8cd5e6cc92520a6ba3b6404277cc65e
Reciphers for ciphertext: 0
Decipheredtext:           8888888888888888888888888888888888
RESULT CIPHER-DECIPHER: -----OK-----


Test: 120
Hash algorithm: 0
Crypto pad: 2
Symmetric key bit length: 128
IV bit length:            128
Plaintext bit length:     136
Symmetric key:            78787878787878787878787878787878
IV:                       87878787878787878787878787878787
Plaintext:                8787878787878787878787878787878787
Ciphertext:               891c8ed4b8a8dbb20d3c777dab23065a57e86b972ecb3a2db02cb0236dc75988656cd911e10fd528a5ff153112dddbc052f09c893a6bd2e555d3d02020d32dfb
Reciphers for ciphertext: 0
Decipheredtext:           8787878787878787878787878787878787
RESULT CIPHER-DECIPHER: -----OK-----


Test: 121
Hash algorithm: 6
Crypto pad: 2
Symmetric key bit length: 128
IV bit length:            128
Plaintext bit length:     136
Symmetric key:            79797979797979797979797979797979
IV:                       86868686868686868686868686868686
Plaintext:                8686868686868686868686868686868686
Ciphertext:               792934b0ddfbfc627b2baa00bde1ef6068940409ab4d1fd7068adbf544e4a11600e245dc01f3e05c44cd3aee55fc1a4f6bcc7589de584346de3defe83af4771cf2bfaa6a35618840f53f277a6773df5d
Reciphers for ciphertext: 0
Decipheredtext:           8686868686868686868686868686868686
RESULT CIPHER-DECIPHER: -----OK-----


Test: 122
Hash algorithm: 10
Crypto pad: 2
Symmetric key bit length: 128
IV bit length:            128
Plaintext bit length:     136
Symmetric key:            7a7a7a7a7a7a7a7a7a7a7a7a7a7a7a7a
IV:                       85858585858585858585858585858585
Plaintext:                8585858585858585858585858585858585
Ciphertext:               df39e849917894d4ee9fc38245b4cf1d8f91750687b2c8e15f311ef3cdbec2841d2df219fa41300eebdc9c43305dbc5cfd687bd5f531bf55f3087ff5d0a5a9bdbc0de5f350791eb726394342d7a8b4fb
Reciphers for ciphertext: 0
Decipheredtext:           8585858585858585858585858585858585
RESULT CIPHER-DECIPHER: -----OK-----


Test: 123
Hash algorithm: 3
Crypto pad: 2
Symmetric key bit length: 128
IV bit length:            128
Plaintext bit length:     136
Symmetric key:            7b7b7b7b7b7b7b7b7b7b7b7b7b7b7b7b
IV:                       84848484848484848484848484848484
Plaintext:                8484848484848484848484848484848484
Ciphertext:               4ba5e2a841909dadcd9d4238c21baebf405b6eb271fd33fc35c5a6d23dff6ec0b82342463567c728c1479ab967d43df46d4612b3955484958af6f0bc52b2419d5288b2ffe6513d3dd4412d0704d5c340a9ba6b7ff414200a115f0b42e1c74f4b
Reciphers for ciphertext: 0
Decipheredtext:           8484848484848484848484848484848484
RESULT CIPHER-DECIPHER: -----OK-----


Test: 124
Hash algorithm: 1
Crypto pad: 1
Symmetric key bit length: 128
IV bit length:            128
Plaintext bit length:     136
Symmetric key:            7c7c7c7c7c7c7c7c7c7c7c7c7c7c7c7c
IV:                       83838383838383838383838383838383
Plaintext:                8383838383838383838383838383838383
Ciphertext:               91f3bed9c8c5a61560cfefcadd137bd8ba540c26c301986385071e8dbf8847e9b6e92c2745a1479d55b9fca66d27be6a227a9ee952c19abbef87dc6f4550ac96
Reciphers for ciphertext: 0
Decipheredtext:           8383838383838383838383838383838383
RESULT CIPHER-DECIPHER: -----OK-----


Test: 125
Hash algorithm: 1
Crypto pad: 2
Symmetric key bit length: 128
IV bit length:            128
Plaintext bit length:     136
Symmetric key:            7d7d7d7d7d7d7d7d7d7d7d7d7d7d7d7d
IV:                       82828282828282828282828282828282
Plaintext:                8282828282828282828282828282828282
Ciphertext:               a3ba54973168cd40e3bd34cc909a7c3759df1d0e245fcdc6b7a33cc80028c145078a10f0fa7970d74ee81b6e048d24280ed59f406838cc9d208cff3581f65458
Reciphers for ciphertext: 0
Decipheredtext:           8282828282828282828282828282828282
RESULT CIPHER-DECIPHER: -----OK-----


Test: 126
Hash algorithm: 1
Crypto pad: 1
Symmetric key bit length: 128
IV bit length:            128
Plaintext bit length:     136
Symmetric key:            7e7e7e7e7e7e7e7e7e7e7e7e7e7e7e7e
IV:                       81818181818181818181818181818181
Plaintext:                8181818181818181818181818181818181
Ciphertext:               30b9c77c80b738a522a8dc46964aee2f293f9f559fe311d918dda2b6da875a37034fe508a1606ae2932d496a0921008d83e73ce2d02cce3b88f8238d0cc0d50e
Reciphers for ciphertext: 0
Decipheredtext:           8181818181818181818181818181818181
RESULT CIPHER-DECIPHER: -----OK-----


Test: 127
Hash algorithm: 3
Crypto pad: 2
Symmetric key bit length: 128
IV bit length:            128
Plaintext bit length:     136
Symmetric key:            7f7f7f7f7f7f7f7f7f7f7f7f7f7f7f7f
IV:                       80808080808080808080808080808080
Plaintext:                8080808080808080808080808080808080
Ciphertext:               fd4db7b0622e6fe9072c4a8e49d26a8e10dda19496b982cb6104b15d3558247cd206cdbfe6dfda36395d8944129aa48063eac38e0d0e21f9551864eecaffee6a73e37f6e144d6b83b65f0b0ff176034f8d6c5dfaa46cf71bbccd43f900f2a071
Reciphers for ciphertext: 0
Decipheredtext:           8080808080808080808080808080808080
RESULT CIPHER-DECIPHER: -----OK-----


 DATA SHA1 (hexadecimal): ceed9b9167d32ec8317311ba20e847ab7583310b

