
DiceLock 9.0.0.1

 TEST COMPONENTS:
 ----------------
 DiceLock:           DiceLockIVDigested class
 Operation Mode:     CBC_Mode class
 Crypto pads:        0 - ANSI_X_923 class
                     1 - ISO_IEC_9797_1 class
                     2 - PKCS7 class
 Block Cipher:       Serpent128 class
 Hash algorithms:     0 - Sha1 class
                      1 - Sha224 class
                      2 - Sha256 class
                      3 - Sha384 class
                      4 - Sha512 class
                      5 - Sha512_224 class
                      6 - Sha512_256 class
                      7 - Ripemd128 class
                      8 - Ripemd160 class
                      9 - Ripemd256 class
                     10 - Ripemd320 class
                     11 - MD2 class
                     12 - MD4 class
                     13 - MD5 class
 Key Modifier:       IncreaseKeyModifier_6_0_0_1 class
 Random tests:       RandomTestSuite class
                     FrequencyTest class
                     BlockFrequencyTest class
                     CumulativeSumForwardTest class
                     LongestRunOfOnesTest class
                     RunsTest class
 Random alpha:       0.001

 VECTOR TEST: Test vector 3 - Changing symmetric key, IV and plaintext, shifting 1 bit set


##### INDIVIDUAL TESTS #####

Number tests: 128


Test: 0
Hash algorithm: 6
Crypto pad: 0
Symmetric key bit length: 128
IV bit length:            128
Plaintext bit length:     128
Symmetric key:            80000000000000000000000000000000
IV:                       80000000000000000000000000000000
Plaintext:                80000000000000000000000000000000
Ciphertext:               49afbfad9d5a34052cd8ffa5986bd2dd9f103e28c9b6ddb50558c12400542083110870086986285938b37c116621443851fb4758ce4dd1137a3d1693e3292ea743b42969dba37a08c7991a291463c714
Reciphers for ciphertext: 0
Decipheredtext:           80000000000000000000000000000000
RESULT CIPHER-DECIPHER: -----OK-----


Test: 1
Hash algorithm: 9
Crypto pad: 0
Symmetric key bit length: 128
IV bit length:            128
Plaintext bit length:     128
Symmetric key:            40000000000000000000000000000000
IV:                       40000000000000000000000000000000
Plaintext:                40000000000000000000000000000000
Ciphertext:               0c1e2e4e79bd02c2501096e79b5e73fae6041ab756f85268ce3485d49a4cbc240bcc3439fcf9ea091ccb52ecc301e8a074a9b32ba043f635b3764af32e4dd00b44e6859af253399c27db35e924c97f81
Reciphers for ciphertext: 0
Decipheredtext:           40000000000000000000000000000000
RESULT CIPHER-DECIPHER: -----OK-----


Test: 2
Hash algorithm: 1
Crypto pad: 1
Symmetric key bit length: 128
IV bit length:            128
Plaintext bit length:     128
Symmetric key:            20000000000000000000000000000000
IV:                       20000000000000000000000000000000
Plaintext:                20000000000000000000000000000000
Ciphertext:               d769e71b31f4ae12e14cdc48238d2d7b5db9fd2b995032922110a489ff88ce9387a328edcf94cd82de688504e5bd21e8c5287ce59bd04073419ebebeecfcceae
Reciphers for ciphertext: 0
Decipheredtext:           20000000000000000000000000000000
RESULT CIPHER-DECIPHER: -----OK-----


Test: 3
Hash algorithm: 8
Crypto pad: 2
Symmetric key bit length: 128
IV bit length:            128
Plaintext bit length:     128
Symmetric key:            10000000000000000000000000000000
IV:                       10000000000000000000000000000000
Plaintext:                10000000000000000000000000000000
Ciphertext:               bd0276d6be072cc00b3d426130bf355f173bf7bdabfc117277bf4a0973bbc9b057c2c52170e7cc5d854d888314268ae85b61db13b2e7e84f6956f509636f526c
Reciphers for ciphertext: 0
Decipheredtext:           10000000000000000000000000000000
RESULT CIPHER-DECIPHER: -----OK-----


Test: 4
Hash algorithm: 8
Crypto pad: 2
Symmetric key bit length: 128
IV bit length:            128
Plaintext bit length:     128
Symmetric key:            08000000000000000000000000000000
IV:                       08000000000000000000000000000000
Plaintext:                08000000000000000000000000000000
Ciphertext:               c191e2121daea18ec30957bbce199a8c5ef6c0c5489b5d20de7cc0ff02a218b7aa7d89cc0f75eb21e970759858d98e54688e6c5edb22ef35ec6bc5dc96c58973
Reciphers for ciphertext: 0
Decipheredtext:           08000000000000000000000000000000
RESULT CIPHER-DECIPHER: -----OK-----


Test: 5
Hash algorithm: 7
Crypto pad: 1
Symmetric key bit length: 128
IV bit length:            128
Plaintext bit length:     128
Symmetric key:            04000000000000000000000000000000
IV:                       04000000000000000000000000000000
Plaintext:                04000000000000000000000000000000
Ciphertext:               afdffc707b4c6890fa9eec5dcf8c9cd6a4cba76e3f49bbd05b90bd0d068f54b084d601ee7be33f84bb897a3944d58e7e7572d2f2cfd29c1f7b9029c36273b0fc
Reciphers for ciphertext: 0
Decipheredtext:           04000000000000000000000000000000
RESULT CIPHER-DECIPHER: -----OK-----


Test: 6
Hash algorithm: 9
Crypto pad: 1
Symmetric key bit length: 128
IV bit length:            128
Plaintext bit length:     128
Symmetric key:            02000000000000000000000000000000
IV:                       02000000000000000000000000000000
Plaintext:                02000000000000000000000000000000
Ciphertext:               7ed064ab9270ede51862d2a4775eb6398c36dbe503005d4e4f1feb4cd21142bf30983fd62d36d2ad30e6a6ebf2b9500be6e3171136e70d35df880aea2b96e655236d8fe3005b450b4254d4bcd5038873
Reciphers for ciphertext: 0
Decipheredtext:           02000000000000000000000000000000
RESULT CIPHER-DECIPHER: -----OK-----


Test: 7
Hash algorithm: 1
Crypto pad: 1
Symmetric key bit length: 128
IV bit length:            128
Plaintext bit length:     128
Symmetric key:            01000000000000000000000000000000
IV:                       01000000000000000000000000000000
Plaintext:                01000000000000000000000000000000
Ciphertext:               e108b719d47da77d82b2811f09c768f692a2d8fb99ce831fbd924b2bdcdccbbb118f57be1dd8f20988afba112697a2771101cc5a273b11263bac1dc994eaa0ed
Reciphers for ciphertext: 0
Decipheredtext:           01000000000000000000000000000000
RESULT CIPHER-DECIPHER: -----OK-----


Test: 8
Hash algorithm: 6
Crypto pad: 2
Symmetric key bit length: 128
IV bit length:            128
Plaintext bit length:     128
Symmetric key:            00800000000000000000000000000000
IV:                       00800000000000000000000000000000
Plaintext:                00800000000000000000000000000000
Ciphertext:               46d78ac926c7fd72aeb6e662d6be06715b941d5df74f75e9f1303159de5711b56be8077f56b25847e4979b4de3d632ddffcfbe0c1a8e0e4b2aad9ff156985374ad88d6a070c8272062116afa1b5abb03
Reciphers for ciphertext: 0
Decipheredtext:           00800000000000000000000000000000
RESULT CIPHER-DECIPHER: -----OK-----


Test: 9
Hash algorithm: 10
Crypto pad: 0
Symmetric key bit length: 128
IV bit length:            128
Plaintext bit length:     128
Symmetric key:            00400000000000000000000000000000
IV:                       00400000000000000000000000000000
Plaintext:                00400000000000000000000000000000
Ciphertext:               b86ddb30f8bacec337679bb112a33a043eb5a3d4114856211ceedff88d5d49d4c7969d24ed1d665e568f91d132a98b69987d8b97350f12db9bb13879cc68b43b05728be3a6a70a9479dad16ae2fe16c4
Reciphers for ciphertext: 0
Decipheredtext:           00400000000000000000000000000000
RESULT CIPHER-DECIPHER: -----OK-----


Test: 10
Hash algorithm: 12
Crypto pad: 2
Symmetric key bit length: 128
IV bit length:            128
Plaintext bit length:     128
Symmetric key:            00200000000000000000000000000000
IV:                       00200000000000000000000000000000
Plaintext:                00200000000000000000000000000000
Ciphertext:               d55f0d5779c68cb6db174f85006f5ef99812c4af29583b8e70567f098c615450134e6248b24d73d8df1bbbfccfece134bac89167f640ff0ae8b9947e78a5539f
Reciphers for ciphertext: 0
Decipheredtext:           00200000000000000000000000000000
RESULT CIPHER-DECIPHER: -----OK-----


Test: 11
Hash algorithm: 1
Crypto pad: 0
Symmetric key bit length: 128
IV bit length:            128
Plaintext bit length:     128
Symmetric key:            00100000000000000000000000000000
IV:                       00100000000000000000000000000000
Plaintext:                00100000000000000000000000000000
Ciphertext:               9cce4fe5fc2c3f58007049ff81ae3fd2b56a5e72c05196a2990f069062782316a11962767f47b88d3525450c4dc3f7345c59ff9c89636ba2cfa0c7db3017b3b1
Reciphers for ciphertext: 0
Decipheredtext:           00100000000000000000000000000000
RESULT CIPHER-DECIPHER: -----OK-----


Test: 12
Hash algorithm: 8
Crypto pad: 2
Symmetric key bit length: 128
IV bit length:            128
Plaintext bit length:     128
Symmetric key:            00080000000000000000000000000000
IV:                       00080000000000000000000000000000
Plaintext:                00080000000000000000000000000000
Ciphertext:               e8db9396961180f9515acedbc47d5ceff08559fe3cf05237143995f95acb04deecdeb63e36447bcea70f395cc2768bec7a6a7742206d5290508870bae8bf7e7a
Reciphers for ciphertext: 0
Decipheredtext:           00080000000000000000000000000000
RESULT CIPHER-DECIPHER: -----OK-----


Test: 13
Hash algorithm: 13
Crypto pad: 2
Symmetric key bit length: 128
IV bit length:            128
Plaintext bit length:     128
Symmetric key:            00040000000000000000000000000000
IV:                       00040000000000000000000000000000
Plaintext:                00040000000000000000000000000000
Ciphertext:               abcc122ccc4b2b00a40e266c54f0d2346fbe7fe844190fac984fa9b5a50b6f9ac5d339fc3fb1aed090d6cbf55f0541173bb5719daca113f6de458bc958720865
Reciphers for ciphertext: 0
Decipheredtext:           00040000000000000000000000000000
RESULT CIPHER-DECIPHER: -----OK-----


Test: 14
Hash algorithm: 7
Crypto pad: 0
Symmetric key bit length: 128
IV bit length:            128
Plaintext bit length:     128
Symmetric key:            00020000000000000000000000000000
IV:                       00020000000000000000000000000000
Plaintext:                00020000000000000000000000000000
Ciphertext:               137ef0814dc6171858a93557e97b78b33858bfb8c0eda9e8dc10dc0490e2500b3cf3425220a6677665cee516a90e6f8a907e16b06896af9d99214fcb80971d5f
Reciphers for ciphertext: 0
Decipheredtext:           00020000000000000000000000000000
RESULT CIPHER-DECIPHER: -----OK-----


Test: 15
Hash algorithm: 0
Crypto pad: 2
Symmetric key bit length: 128
IV bit length:            128
Plaintext bit length:     128
Symmetric key:            00010000000000000000000000000000
IV:                       00010000000000000000000000000000
Plaintext:                00010000000000000000000000000000
Ciphertext:               1aeddc72581c90d87f6f01e431dc31eb7554601227b99eecbc86386e834d7507cf4e072c210ee4ceb7161cd372278c42479dbc7ab4213446e549a97c3a325b8a
Reciphers for ciphertext: 0
Decipheredtext:           00010000000000000000000000000000
RESULT CIPHER-DECIPHER: -----OK-----


Test: 16
Hash algorithm: 6
Crypto pad: 1
Symmetric key bit length: 128
IV bit length:            128
Plaintext bit length:     128
Symmetric key:            00008000000000000000000000000000
IV:                       00008000000000000000000000000000
Plaintext:                00008000000000000000000000000000
Ciphertext:               9543bc267111fbdb019c00d0d907d6439668b5bbd829ee4293707f7d4acd7be4ff2be0c7291bd54ca40e7ce0089c05d50c917d6ab1e9ce5b5f5c4d340f1599efdbdad0db7de1519de15a44b5e12e1e25
Reciphers for ciphertext: 0
Decipheredtext:           00008000000000000000000000000000
RESULT CIPHER-DECIPHER: -----OK-----


Test: 17
Hash algorithm: 9
Crypto pad: 2
Symmetric key bit length: 128
IV bit length:            128
Plaintext bit length:     128
Symmetric key:            00004000000000000000000000000000
IV:                       00004000000000000000000000000000
Plaintext:                00004000000000000000000000000000
Ciphertext:               2269c1f5dbeb2ced1932a60dcf273b468c12548f92169bef37d9d34786113ef92a673304fe5dc8c458852f3992908c4a714736fe3aaba186c33796c0d946484bd49f2a6e47fe8b08fe10eb2171d87b2f
Reciphers for ciphertext: 0
Decipheredtext:           00004000000000000000000000000000
RESULT CIPHER-DECIPHER: -----OK-----


Test: 18
Hash algorithm: 8
Crypto pad: 2
Symmetric key bit length: 128
IV bit length:            128
Plaintext bit length:     128
Symmetric key:            00002000000000000000000000000000
IV:                       00002000000000000000000000000000
Plaintext:                00002000000000000000000000000000
Ciphertext:               bb49509c9b79d012cb04ab565534df905b2a8d8b45a7f6d49036dfc6fd44cd87e93aff517d7fe8658d106b699202866a1467efebe041bd1930060529413f5a53
Reciphers for ciphertext: 0
Decipheredtext:           00002000000000000000000000000000
RESULT CIPHER-DECIPHER: -----OK-----


Test: 19
Hash algorithm: 9
Crypto pad: 1
Symmetric key bit length: 128
IV bit length:            128
Plaintext bit length:     128
Symmetric key:            00001000000000000000000000000000
IV:                       00001000000000000000000000000000
Plaintext:                00001000000000000000000000000000
Ciphertext:               4d0f02eb268acfaec89115f7f761c805d13acc358d77f56f1999819fbbeae670519a13418e01a858c1bea75eed45c1056e8f23136141182200a0486e902f4f3eb27132e03a1b81f06a160192373a4483
Reciphers for ciphertext: 0
Decipheredtext:           00001000000000000000000000000000
RESULT CIPHER-DECIPHER: -----OK-----


Test: 20
Hash algorithm: 13
Crypto pad: 0
Symmetric key bit length: 128
IV bit length:            128
Plaintext bit length:     128
Symmetric key:            00000800000000000000000000000000
IV:                       00000800000000000000000000000000
Plaintext:                00000800000000000000000000000000
Ciphertext:               9288439abb3beb346b7fafadb897dd114893be76f82d933a3185fc5ab6fff2ce406a4a21aed800a12cb68eb13eb582a46d4b4b45feb94cee71156b07199b8f3f
Reciphers for ciphertext: 0
Decipheredtext:           00000800000000000000000000000000
RESULT CIPHER-DECIPHER: -----OK-----


Test: 21
Hash algorithm: 9
Crypto pad: 1
Symmetric key bit length: 128
IV bit length:            128
Plaintext bit length:     128
Symmetric key:            00000400000000000000000000000000
IV:                       00000400000000000000000000000000
Plaintext:                00000400000000000000000000000000
Ciphertext:               dc348afd3ee54b134f8f9f5045e871717232131d68925230c6c78656aab727ba837e52d235d20e08c0bc4b3d2a0fc0f706af8913e98e107b006bdda78b1b43c68e2d729527b7e7f5c2ba3da2e5cabde3
Reciphers for ciphertext: 0
Decipheredtext:           00000400000000000000000000000000
RESULT CIPHER-DECIPHER: -----OK-----


Test: 22
Hash algorithm: 4
Crypto pad: 1
Symmetric key bit length: 128
IV bit length:            128
Plaintext bit length:     128
Symmetric key:            00000200000000000000000000000000
IV:                       00000200000000000000000000000000
Plaintext:                00000200000000000000000000000000
Ciphertext:               52d8aa93f95a76980a42960a407b4e864783014e9c9982b2ebedd7845507aba153bf68ab2cd04a3977dfa4a3ad02f48c9be5d3f53d3427f8b80dfeab8ddd9e2cc93413410a4d75ed2a125a42ad51bf9cd46d31aca4188e8eae54c139e21ac14b5da872398fbd08de9428f2cf5b60ae9c
Reciphers for ciphertext: 0
Decipheredtext:           00000200000000000000000000000000
RESULT CIPHER-DECIPHER: -----OK-----


Test: 23
Hash algorithm: 12
Crypto pad: 1
Symmetric key bit length: 128
IV bit length:            128
Plaintext bit length:     128
Symmetric key:            00000100000000000000000000000000
IV:                       00000100000000000000000000000000
Plaintext:                00000100000000000000000000000000
Ciphertext:               ea977f02d0f2b330dc33aa53055af7b80810caa0cc3c69ed4f8311ad6e966e60e1d2a8c4621ffa8bc6ef76cd79b35f930d96cd3c0d7b8060c34cadb815db30a1
Reciphers for ciphertext: 0
Decipheredtext:           00000100000000000000000000000000
RESULT CIPHER-DECIPHER: -----OK-----


Test: 24
Hash algorithm: 7
Crypto pad: 1
Symmetric key bit length: 128
IV bit length:            128
Plaintext bit length:     128
Symmetric key:            00000080000000000000000000000000
IV:                       00000080000000000000000000000000
Plaintext:                00000080000000000000000000000000
Ciphertext:               8dd4bdf3874ed531036747e0b1b93f57d42c915e32f7934c7fef19a6e0ceefc4475644520ddbcb470f4f932d365fd8e4227b45862b576b8c0d57fc771ff08a30
Reciphers for ciphertext: 0
Decipheredtext:           00000080000000000000000000000000
RESULT CIPHER-DECIPHER: -----OK-----


Test: 25
Hash algorithm: 4
Crypto pad: 1
Symmetric key bit length: 128
IV bit length:            128
Plaintext bit length:     128
Symmetric key:            00000040000000000000000000000000
IV:                       00000040000000000000000000000000
Plaintext:                00000040000000000000000000000000
Ciphertext:               b8dba7c86499bff611935cede230cf03937f174e91530a62d0a692beb6be2ddf066f850c50247b9b521d018dbe531940ec10bd1259d5aaa0caba84480180628350c67d4f0377ef6f37387d4c63e3e19a6fd56bf272e31a0338ec0bb8f276e600f689510aec522801d64f8c886b9c702c
Reciphers for ciphertext: 0
Decipheredtext:           00000040000000000000000000000000
RESULT CIPHER-DECIPHER: -----OK-----


Test: 26
Hash algorithm: 13
Crypto pad: 2
Symmetric key bit length: 128
IV bit length:            128
Plaintext bit length:     128
Symmetric key:            00000020000000000000000000000000
IV:                       00000020000000000000000000000000
Plaintext:                00000020000000000000000000000000
Ciphertext:               32cce0726492e1afbc3a001f655c73edfe0c02cf20dd5803adfbec3c9a52cfe412f64b68b60e0e46909987fbe0e517e4728db8ce88c4a3689cbf3ed547137b1a
Reciphers for ciphertext: 0
Decipheredtext:           00000020000000000000000000000000
RESULT CIPHER-DECIPHER: -----OK-----


Test: 27
Hash algorithm: 7
Crypto pad: 0
Symmetric key bit length: 128
IV bit length:            128
Plaintext bit length:     128
Symmetric key:            00000010000000000000000000000000
IV:                       00000010000000000000000000000000
Plaintext:                00000010000000000000000000000000
Ciphertext:               807570b6677b0fbdf7e7cabcd5dd0c9760b0e42efa773bfac41635f7696398c852f232e293c0084a3569d444300d8f253c5f2e7813904df5e0d19740258d5ed4
Reciphers for ciphertext: 0
Decipheredtext:           00000010000000000000000000000000
RESULT CIPHER-DECIPHER: -----OK-----


Test: 28
Hash algorithm: 6
Crypto pad: 1
Symmetric key bit length: 128
IV bit length:            128
Plaintext bit length:     128
Symmetric key:            00000008000000000000000000000000
IV:                       00000008000000000000000000000000
Plaintext:                00000008000000000000000000000000
Ciphertext:               26381f839c8d92efe1c29df688571c6d000ecccbd0e13c1dfc6b6c7f866bfddd7fc9ce7307d637a9178ccc8a3310da50a1a2c61ce4e6ebbc82545cf36449f4cc027b490c8ea6463ae185c71bd33db36a
Reciphers for ciphertext: 0
Decipheredtext:           00000008000000000000000000000000
RESULT CIPHER-DECIPHER: -----OK-----


Test: 29
Hash algorithm: 4
Crypto pad: 2
Symmetric key bit length: 128
IV bit length:            128
Plaintext bit length:     128
Symmetric key:            00000004000000000000000000000000
IV:                       00000004000000000000000000000000
Plaintext:                00000004000000000000000000000000
Ciphertext:               da6e8ca3ec924a0a6c7b704b56c467835ad8d850e18928417051f86e3aca7a693b623ccea6dfee2784fe74389a0c8eb68ea5ab77713da584d880f6ab9d98137de61a20a4eb6ea322d89571e33f78f5a01f523b66c58f789bc84074a98bbf0c8cf787f2b822e888bcd9b2a12b9f67c948
Reciphers for ciphertext: 0
Decipheredtext:           00000004000000000000000000000000
RESULT CIPHER-DECIPHER: -----OK-----


Test: 30
Hash algorithm: 2
Crypto pad: 0
Symmetric key bit length: 128
IV bit length:            128
Plaintext bit length:     128
Symmetric key:            00000002000000000000000000000000
IV:                       00000002000000000000000000000000
Plaintext:                00000002000000000000000000000000
Ciphertext:               cc6e7070e5ac70cd9664fda7bb505df2c07b13a3a07f12f223e8057dc3a8a9477d29cf3a565a9b2a2716137df991db2f620d8f2873d0978781cfcf9c11ae13deb5c99346781d1aee6faf94feea145a8e
Reciphers for ciphertext: 0
Decipheredtext:           00000002000000000000000000000000
RESULT CIPHER-DECIPHER: -----OK-----


Test: 31
Hash algorithm: 12
Crypto pad: 0
Symmetric key bit length: 128
IV bit length:            128
Plaintext bit length:     128
Symmetric key:            00000001000000000000000000000000
IV:                       00000001000000000000000000000000
Plaintext:                00000001000000000000000000000000
Ciphertext:               8c41cd11c3dc2333dc96ddf74d85430c71f6286cd6a5bf907175e5ac553c9fa0cc8d465083a139945062913e55e449cbf7261c84fb1f82e6d78e05e87d6b2ff7
Reciphers for ciphertext: 0
Decipheredtext:           00000001000000000000000000000000
RESULT CIPHER-DECIPHER: -----OK-----


Test: 32
Hash algorithm: 6
Crypto pad: 1
Symmetric key bit length: 128
IV bit length:            128
Plaintext bit length:     128
Symmetric key:            00000000800000000000000000000000
IV:                       00000000800000000000000000000000
Plaintext:                00000000800000000000000000000000
Ciphertext:               a006685e857f4c2a70fcea63ed27888ff34e06641b6acf7763cbbf345c87fe809323e1b9f1414622b057f4452246c06557258aa61fd607bcc437da2d7a6f1afaa5c291543c257521ef66798d1a081a32
Reciphers for ciphertext: 0
Decipheredtext:           00000000800000000000000000000000
RESULT CIPHER-DECIPHER: -----OK-----


Test: 33
Hash algorithm: 10
Crypto pad: 0
Symmetric key bit length: 128
IV bit length:            128
Plaintext bit length:     128
Symmetric key:            00000000400000000000000000000000
IV:                       00000000400000000000000000000000
Plaintext:                00000000400000000000000000000000
Ciphertext:               f6e94cd2ef8eb4886893458d49f84fdd122dbbe3546d3b351a217f53516810151207a95b7e3ae07134c460b468a7d97a026352765345da9ea3f7334fe7be480042ad2410aa1e3a06bb3f7de9fce2eebe
Reciphers for ciphertext: 0
Decipheredtext:           00000000400000000000000000000000
RESULT CIPHER-DECIPHER: -----OK-----


Test: 34
Hash algorithm: 9
Crypto pad: 2
Symmetric key bit length: 128
IV bit length:            128
Plaintext bit length:     128
Symmetric key:            00000000200000000000000000000000
IV:                       00000000200000000000000000000000
Plaintext:                00000000200000000000000000000000
Ciphertext:               1f654042740ca63ad906c1b7bcf18bde1c4675d33d25982950b547189ed784e454cbc7f77d8fed8fe9cb7235a0c060f75828babbc1c5e1664efddb241c66787da9b86158db5d1e656e612097b6b55dd6
Reciphers for ciphertext: 0
Decipheredtext:           00000000200000000000000000000000
RESULT CIPHER-DECIPHER: -----OK-----


Test: 35
Hash algorithm: 2
Crypto pad: 2
Symmetric key bit length: 128
IV bit length:            128
Plaintext bit length:     128
Symmetric key:            00000000100000000000000000000000
IV:                       00000000100000000000000000000000
Plaintext:                00000000100000000000000000000000
Ciphertext:               340fbc9913fc30b3a867921b6acb45fcf0a36a66f99cb7bd43ed0ba7ef3aefa08e7db167234af87f236a5825ba07dfb76f17d566e6eb3c86333a0c55ff0f3ffa11e0bc5f08c38e3c544fae749a7df490
Reciphers for ciphertext: 0
Decipheredtext:           00000000100000000000000000000000
RESULT CIPHER-DECIPHER: -----OK-----


Test: 36
Hash algorithm: 5
Crypto pad: 0
Symmetric key bit length: 128
IV bit length:            128
Plaintext bit length:     128
Symmetric key:            00000000080000000000000000000000
IV:                       00000000080000000000000000000000
Plaintext:                00000000080000000000000000000000
Ciphertext:               b2b0488b1c9dfa4d66fcaeeb4c29ec9ee2048fdbd37e5aa032441ea54ff06284852f454433b64b7d448fce11f354793ff6196bd1b98d940eabe9305c8db56e87
Reciphers for ciphertext: 0
Decipheredtext:           00000000080000000000000000000000
RESULT CIPHER-DECIPHER: -----OK-----


Test: 37
Hash algorithm: 2
Crypto pad: 1
Symmetric key bit length: 128
IV bit length:            128
Plaintext bit length:     128
Symmetric key:            00000000040000000000000000000000
IV:                       00000000040000000000000000000000
Plaintext:                00000000040000000000000000000000
Ciphertext:               a35d40c8cfe4b26d0047e1661d5bfbca8dbdc4762a3d517c93c216e9a29ae2663e10968aff7f7da03a1e6fbfe422c3f1ba337b4de4650f1f5fa9bd5081560311c9193c90d34b560e8c40baa0225d3ca8
Reciphers for ciphertext: 0
Decipheredtext:           00000000040000000000000000000000
RESULT CIPHER-DECIPHER: -----OK-----


Test: 38
Hash algorithm: 2
Crypto pad: 2
Symmetric key bit length: 128
IV bit length:            128
Plaintext bit length:     128
Symmetric key:            00000000020000000000000000000000
IV:                       00000000020000000000000000000000
Plaintext:                00000000020000000000000000000000
Ciphertext:               97f91ad53e32fd33198ccb9c553cf4b9b12e8fef9c75ef4da142be62d6c6d1649059a8caec56708349bbb3f47ad877306259942f8d99435c4540c877fc4cee5e7ff58a1a4c8dd91ed709541018e0dc09
Reciphers for ciphertext: 0
Decipheredtext:           00000000020000000000000000000000
RESULT CIPHER-DECIPHER: -----OK-----


Test: 39
Hash algorithm: 8
Crypto pad: 2
Symmetric key bit length: 128
IV bit length:            128
Plaintext bit length:     128
Symmetric key:            00000000010000000000000000000000
IV:                       00000000010000000000000000000000
Plaintext:                00000000010000000000000000000000
Ciphertext:               7adeec246ef1a8b16caa7aeb85441dd1a6a4ba12bb2b42f3da3eb426ab6cd11dd0527505fbf5134e3687da2a4a873fde8c3486f65a43a45083266e77bb65cf25
Reciphers for ciphertext: 0
Decipheredtext:           00000000010000000000000000000000
RESULT CIPHER-DECIPHER: -----OK-----


Test: 40
Hash algorithm: 5
Crypto pad: 0
Symmetric key bit length: 128
IV bit length:            128
Plaintext bit length:     128
Symmetric key:            00000000008000000000000000000000
IV:                       00000000008000000000000000000000
Plaintext:                00000000008000000000000000000000
Ciphertext:               12e12c07623a87b76100474804b4f7a4d672bd85b0b23125d322cfbd8f48e01d5229983ff49cc049dc5b9e8d4a432c78ac34ac7eeb9d6c818c8889a2a010559d
Reciphers for ciphertext: 0
Decipheredtext:           00000000008000000000000000000000
RESULT CIPHER-DECIPHER: -----OK-----


Test: 41
Hash algorithm: 10
Crypto pad: 2
Symmetric key bit length: 128
IV bit length:            128
Plaintext bit length:     128
Symmetric key:            00000000004000000000000000000000
IV:                       00000000004000000000000000000000
Plaintext:                00000000004000000000000000000000
Ciphertext:               d24a5c39b10157c7f957f51bd35adf80c58945115b28ca1fd2ef38c8aac056640d441091645047b5d5493cf254600c0637f43f92a09491918cdbcb465456d11e11f983195a92ca909be2c81fcdac83eb
Reciphers for ciphertext: 0
Decipheredtext:           00000000004000000000000000000000
RESULT CIPHER-DECIPHER: -----OK-----


Test: 42
Hash algorithm: 0
Crypto pad: 0
Symmetric key bit length: 128
IV bit length:            128
Plaintext bit length:     128
Symmetric key:            00000000002000000000000000000000
IV:                       00000000002000000000000000000000
Plaintext:                00000000002000000000000000000000
Ciphertext:               54593378469cea645783a4ab0847ce46bfd2173d2e47adcee75442cea2c7d1385850ad4732b8805df6e93f19d250ade6a48d8dde6a6f8cddeb1734672c4c84ce
Reciphers for ciphertext: 0
Decipheredtext:           00000000002000000000000000000000
RESULT CIPHER-DECIPHER: -----OK-----


Test: 43
Hash algorithm: 6
Crypto pad: 2
Symmetric key bit length: 128
IV bit length:            128
Plaintext bit length:     128
Symmetric key:            00000000001000000000000000000000
IV:                       00000000001000000000000000000000
Plaintext:                00000000001000000000000000000000
Ciphertext:               3ac3fce2fbdd176ff7f659ee19bcba72eab305048db43dea9721b8f7962f7921ec3db4c3ee5602089908807033f1588663d633f2065618fbfaa04f9dd1116c826a99d94d5a48d0fe4ff194f8ac1ffc7d
Reciphers for ciphertext: 0
Decipheredtext:           00000000001000000000000000000000
RESULT CIPHER-DECIPHER: -----OK-----


Test: 44
Hash algorithm: 1
Crypto pad: 1
Symmetric key bit length: 128
IV bit length:            128
Plaintext bit length:     128
Symmetric key:            00000000000800000000000000000000
IV:                       00000000000800000000000000000000
Plaintext:                00000000000800000000000000000000
Ciphertext:               82c4c432a703271e6f4bda3f174063e72232de37592de544a7c6cd711abf3f4b14ef993bb39d320329e09a2e5343d78662835af1f8f266206e2b213c30642a59
Reciphers for ciphertext: 0
Decipheredtext:           00000000000800000000000000000000
RESULT CIPHER-DECIPHER: -----OK-----


Test: 45
Hash algorithm: 10
Crypto pad: 2
Symmetric key bit length: 128
IV bit length:            128
Plaintext bit length:     128
Symmetric key:            00000000000400000000000000000000
IV:                       00000000000400000000000000000000
Plaintext:                00000000000400000000000000000000
Ciphertext:               58d9b1ac0a6dad03ede51d30ac77c5792b8fef52aef6a7652ec6b056221dd39304d94f687393abf942397740a754222b20216ececc9af97ac9eb7a9a84e094eb8920fc1bc943a32983f4fbd14c89eb13
Reciphers for ciphertext: 0
Decipheredtext:           00000000000400000000000000000000
RESULT CIPHER-DECIPHER: -----OK-----


Test: 46
Hash algorithm: 12
Crypto pad: 2
Symmetric key bit length: 128
IV bit length:            128
Plaintext bit length:     128
Symmetric key:            00000000000200000000000000000000
IV:                       00000000000200000000000000000000
Plaintext:                00000000000200000000000000000000
Ciphertext:               8a8f0c4f316232a05eb611358fd7a8a286ba14c2a481b272a6c361e76c62e3461777f18dadc36c06abb46dae1db3635a13485fb3b313a666e88cfa8450ce7483
Reciphers for ciphertext: 0
Decipheredtext:           00000000000200000000000000000000
RESULT CIPHER-DECIPHER: -----OK-----


Test: 47
Hash algorithm: 2
Crypto pad: 0
Symmetric key bit length: 128
IV bit length:            128
Plaintext bit length:     128
Symmetric key:            00000000000100000000000000000000
IV:                       00000000000100000000000000000000
Plaintext:                00000000000100000000000000000000
Ciphertext:               afae1db5edb3f7203577b37ce8e4876cf5e13f8e28a12975ad15569bdc237b06cd8fdfd61ba3cf388f7715fd5bf0cd7e83407caf4f3e3a55c02d65a8dfc92577e9d12c52a6c4beea12b88241dfb068fa
Reciphers for ciphertext: 0
Decipheredtext:           00000000000100000000000000000000
RESULT CIPHER-DECIPHER: -----OK-----


Test: 48
Hash algorithm: 9
Crypto pad: 1
Symmetric key bit length: 128
IV bit length:            128
Plaintext bit length:     128
Symmetric key:            00000000000080000000000000000000
IV:                       00000000000080000000000000000000
Plaintext:                00000000000080000000000000000000
Ciphertext:               07112de84d0759a816f620dc786e648d66574d8dd18f1047ff74eb96e6b914cff9abb70d0c046b9eab5fd8a9f2963d217d0a10d327432c6622134d5f3f0b8e8bb89c44758917daebd15553d77cf62ac5
Reciphers for ciphertext: 0
Decipheredtext:           00000000000080000000000000000000
RESULT CIPHER-DECIPHER: -----OK-----


Test: 49
Hash algorithm: 4
Crypto pad: 0
Symmetric key bit length: 128
IV bit length:            128
Plaintext bit length:     128
Symmetric key:            00000000000040000000000000000000
IV:                       00000000000040000000000000000000
Plaintext:                00000000000040000000000000000000
Ciphertext:               c3f4922db4541025e4c162acaae48de9c4a5803bd3d9f2fdabc08500cf8fc056befa920906ab7a9b4d3df10749f166d09813fb50546f64296ed12f035301194e432bafb2a0a9b689823d842b55a8e4c673046448d7eb4fd667dce45189d5d4933e4f781655f2a58e0952c53f1f2e921e
Reciphers for ciphertext: 0
Decipheredtext:           00000000000040000000000000000000
RESULT CIPHER-DECIPHER: -----OK-----


Test: 50
Hash algorithm: 3
Crypto pad: 1
Symmetric key bit length: 128
IV bit length:            128
Plaintext bit length:     128
Symmetric key:            00000000000020000000000000000000
IV:                       00000000000020000000000000000000
Plaintext:                00000000000020000000000000000000
Ciphertext:               47836c92ed4fa66f1c6459478f45fcb02c705cb690093f212b367eb8c5e3a9119a2ae1a349cac4094f759383192808269018b542e0af92fc962e40dc219fe1b97839d66784fe6aaddf6c2b129a3a9f12f302d8ada9c11ba25aeb8054d0f5148c
Reciphers for ciphertext: 0
Decipheredtext:           00000000000020000000000000000000
RESULT CIPHER-DECIPHER: -----OK-----


Test: 51
Hash algorithm: 7
Crypto pad: 1
Symmetric key bit length: 128
IV bit length:            128
Plaintext bit length:     128
Symmetric key:            00000000000010000000000000000000
IV:                       00000000000010000000000000000000
Plaintext:                00000000000010000000000000000000
Ciphertext:               d25965deadcbeb3c9b8ee599fa81f3619a914cb3727dedd39cdcccf0ff69d260f191512b97a35201cded66046fa266af27de88f1cdc33833b81415f1894eb07a
Reciphers for ciphertext: 0
Decipheredtext:           00000000000010000000000000000000
RESULT CIPHER-DECIPHER: -----OK-----


Test: 52
Hash algorithm: 5
Crypto pad: 0
Symmetric key bit length: 128
IV bit length:            128
Plaintext bit length:     128
Symmetric key:            00000000000008000000000000000000
IV:                       00000000000008000000000000000000
Plaintext:                00000000000008000000000000000000
Ciphertext:               7d86a4cd06353c4a73022b2e75af7e2c39903c8b072f7b849f177a9ba5af668daaabcf514b4d6332a1d5831fab921664c8f4dd0e30ea050f9a4d32d324d115a7
Reciphers for ciphertext: 0
Decipheredtext:           00000000000008000000000000000000
RESULT CIPHER-DECIPHER: -----OK-----


Test: 53
Hash algorithm: 6
Crypto pad: 2
Symmetric key bit length: 128
IV bit length:            128
Plaintext bit length:     128
Symmetric key:            00000000000004000000000000000000
IV:                       00000000000004000000000000000000
Plaintext:                00000000000004000000000000000000
Ciphertext:               bf1bdfdb65e06f4d19c8b11a4e280f606c56bc08f878c8630acb0778111cff08a73a9954700457a1399448d8fc9b430048330cb7609aded0ee9d1b71500d8212a1bc05e08034e52df0a07dad1e5bcdc1
Reciphers for ciphertext: 0
Decipheredtext:           00000000000004000000000000000000
RESULT CIPHER-DECIPHER: -----OK-----


Test: 54
Hash algorithm: 1
Crypto pad: 2
Symmetric key bit length: 128
IV bit length:            128
Plaintext bit length:     128
Symmetric key:            00000000000002000000000000000000
IV:                       00000000000002000000000000000000
Plaintext:                00000000000002000000000000000000
Ciphertext:               6845080536e71bd50c9db865bac484dbc1f83abfa106a1a5107e47886977c97fa583521d7322337e4c7314554cddf7802cbce89f0000f3468035d67a4822f6e8
Reciphers for ciphertext: 0
Decipheredtext:           00000000000002000000000000000000
RESULT CIPHER-DECIPHER: -----OK-----


Test: 55
Hash algorithm: 12
Crypto pad: 1
Symmetric key bit length: 128
IV bit length:            128
Plaintext bit length:     128
Symmetric key:            00000000000001000000000000000000
IV:                       00000000000001000000000000000000
Plaintext:                00000000000001000000000000000000
Ciphertext:               37004f392802c0ade017bc4a1ac4754c522cb09c87fc68a72dd4fb7f560bb6cc3d751a0cd383e1cd5ca895e658197439499da972a396ed0d7f9a378deffc69cd
Reciphers for ciphertext: 0
Decipheredtext:           00000000000001000000000000000000
RESULT CIPHER-DECIPHER: -----OK-----


Test: 56
Hash algorithm: 9
Crypto pad: 0
Symmetric key bit length: 128
IV bit length:            128
Plaintext bit length:     128
Symmetric key:            00000000000000800000000000000000
IV:                       00000000000000800000000000000000
Plaintext:                00000000000000800000000000000000
Ciphertext:               501f9de66d9b8048c9a2657bee7503233b95c1c91d0b83c6a555481be6263550157a5fbab876439916ab17f68b0012484a17147874cb1cea0bdce8234e75548f1ac26e06ed66fbdba90f4a5144944aef
Reciphers for ciphertext: 0
Decipheredtext:           00000000000000800000000000000000
RESULT CIPHER-DECIPHER: -----OK-----


Test: 57
Hash algorithm: 4
Crypto pad: 1
Symmetric key bit length: 128
IV bit length:            128
Plaintext bit length:     128
Symmetric key:            00000000000000400000000000000000
IV:                       00000000000000400000000000000000
Plaintext:                00000000000000400000000000000000
Ciphertext:               edffad56dbd99444dbf01f5d347fef94bea81c20ddb54b4c4b7fc64c72279f78b02dc44de8afb673b5eca99288576872e3abce0a8e7846394187f6c0d8a8f9749150e480c29a3a3537e78badf2838d6e3605e3c40d847b325fe20533434929dd4b5d95596bf8cbfe12b381d6359dd101
Reciphers for ciphertext: 0
Decipheredtext:           00000000000000400000000000000000
RESULT CIPHER-DECIPHER: -----OK-----


Test: 58
Hash algorithm: 1
Crypto pad: 0
Symmetric key bit length: 128
IV bit length:            128
Plaintext bit length:     128
Symmetric key:            00000000000000200000000000000000
IV:                       00000000000000200000000000000000
Plaintext:                00000000000000200000000000000000
Ciphertext:               afe80d1a72308a41a10bc463507a27cefd6f0183e5292cd1c51b875e3417e2eff487c7e6258cc01af834d88fb6c01caddcf6b11ca51a2e01afa9c3bdf02d2f91
Reciphers for ciphertext: 0
Decipheredtext:           00000000000000200000000000000000
RESULT CIPHER-DECIPHER: -----OK-----


Test: 59
Hash algorithm: 12
Crypto pad: 2
Symmetric key bit length: 128
IV bit length:            128
Plaintext bit length:     128
Symmetric key:            00000000000000100000000000000000
IV:                       00000000000000100000000000000000
Plaintext:                00000000000000100000000000000000
Ciphertext:               c848af4b9d8eef03e085ea6331e14fbf5ba548815dd3705d5d370067724e25b1a1acc1fb6832c2478c347b3ad27dfd8714077953a4351161984218f329a99e49
Reciphers for ciphertext: 0
Decipheredtext:           00000000000000100000000000000000
RESULT CIPHER-DECIPHER: -----OK-----


Test: 60
Hash algorithm: 8
Crypto pad: 0
Symmetric key bit length: 128
IV bit length:            128
Plaintext bit length:     128
Symmetric key:            00000000000000080000000000000000
IV:                       00000000000000080000000000000000
Plaintext:                00000000000000080000000000000000
Ciphertext:               5c0547e4ca27c23506eb54dbf1f9f9c8da062da9f4f5f912a06b68b65f2ae46fa048cf95bf579ed9fe9d252eacda9f3dc4b9b7e50f80cd5f0ec27cc4dc03fddc
Reciphers for ciphertext: 0
Decipheredtext:           00000000000000080000000000000000
RESULT CIPHER-DECIPHER: -----OK-----


Test: 61
Hash algorithm: 8
Crypto pad: 2
Symmetric key bit length: 128
IV bit length:            128
Plaintext bit length:     128
Symmetric key:            00000000000000040000000000000000
IV:                       00000000000000040000000000000000
Plaintext:                00000000000000040000000000000000
Ciphertext:               9eea58726c084358c80beace0ba9316f40db72c2a1381d8c95f657bb095290823a3a1fb1ece73e3094690783338d153d534a6681d501dc45b250ff3c53a8ce47
Reciphers for ciphertext: 0
Decipheredtext:           00000000000000040000000000000000
RESULT CIPHER-DECIPHER: -----OK-----


Test: 62
Hash algorithm: 0
Crypto pad: 1
Symmetric key bit length: 128
IV bit length:            128
Plaintext bit length:     128
Symmetric key:            00000000000000020000000000000000
IV:                       00000000000000020000000000000000
Plaintext:                00000000000000020000000000000000
Ciphertext:               c3f8221b5e849c830bbc30697cfc4e3303ec4404c7eecfd53c73cfe3684737911b75153fa02ec314874fc2e36c486cfe421ed5d637fe3aa5d072e9b227dda84c
Reciphers for ciphertext: 0
Decipheredtext:           00000000000000020000000000000000
RESULT CIPHER-DECIPHER: -----OK-----


Test: 63
Hash algorithm: 11
Crypto pad: 2
Symmetric key bit length: 128
IV bit length:            128
Plaintext bit length:     128
Symmetric key:            00000000000000010000000000000000
IV:                       00000000000000010000000000000000
Plaintext:                00000000000000010000000000000000
Ciphertext:               7d10842f40364fa264c876e5f2f9921e329977fcbad1c257807bb64e0b2bc0a7c7ac19922e0adab11909c6790805aa99fd30d8b39ae1eb760c3011ed2acf76ad
Reciphers for ciphertext: 0
Decipheredtext:           00000000000000010000000000000000
RESULT CIPHER-DECIPHER: -----OK-----


Test: 64
Hash algorithm: 9
Crypto pad: 0
Symmetric key bit length: 128
IV bit length:            128
Plaintext bit length:     128
Symmetric key:            00000000000000008000000000000000
IV:                       00000000000000008000000000000000
Plaintext:                00000000000000008000000000000000
Ciphertext:               e25769f083838d9ba05dbabd0adfb8a5c6ef5590730f3df220819c5c1b12d94e06c07ae7b216541086208adf3b8a2be60123bb8b7d62e1ce351d0521cee749c2adec2649181764f5ab924ba58c97f09b
Reciphers for ciphertext: 0
Decipheredtext:           00000000000000008000000000000000
RESULT CIPHER-DECIPHER: -----OK-----


Test: 65
Hash algorithm: 10
Crypto pad: 0
Symmetric key bit length: 128
IV bit length:            128
Plaintext bit length:     128
Symmetric key:            00000000000000004000000000000000
IV:                       00000000000000004000000000000000
Plaintext:                00000000000000004000000000000000
Ciphertext:               08cb3d4622c7974eff08da8a346f4b34070bd99eb6ede93030bb6f30bf319ae2da5de5dc0196a6e59acfde0804aba2552b1a5d225568360736c3d4e2f82a1bd6cf76e4ca88b43721b93e9393eee756e2
Reciphers for ciphertext: 0
Decipheredtext:           00000000000000004000000000000000
RESULT CIPHER-DECIPHER: -----OK-----


Test: 66
Hash algorithm: 2
Crypto pad: 2
Symmetric key bit length: 128
IV bit length:            128
Plaintext bit length:     128
Symmetric key:            00000000000000002000000000000000
IV:                       00000000000000002000000000000000
Plaintext:                00000000000000002000000000000000
Ciphertext:               3ff6bcf81372f04eb8a1e082042ab5aabb0bfc62b2f03c9b6a068186b21204e8afd9773ee588a22f6487f8f0314350b71469b04084bef7be7ffd7fcb03ea56fc19c33f7bba728925cc051781cb702b2d
Reciphers for ciphertext: 0
Decipheredtext:           00000000000000002000000000000000
RESULT CIPHER-DECIPHER: -----OK-----


Test: 67
Hash algorithm: 2
Crypto pad: 1
Symmetric key bit length: 128
IV bit length:            128
Plaintext bit length:     128
Symmetric key:            00000000000000001000000000000000
IV:                       00000000000000001000000000000000
Plaintext:                00000000000000001000000000000000
Ciphertext:               0198c38d19e4579133178aa8e4dd77e4bb80784efeed0673af00324d1dff0ab6d8c787e8c215940ea11ae9991a1d376402c74cbf0b19b660ade151e5f2fb7850e5946ad4b07e76401346d97fdf2034e7
Reciphers for ciphertext: 0
Decipheredtext:           00000000000000001000000000000000
RESULT CIPHER-DECIPHER: -----OK-----


Test: 68
Hash algorithm: 1
Crypto pad: 2
Symmetric key bit length: 128
IV bit length:            128
Plaintext bit length:     128
Symmetric key:            00000000000000000800000000000000
IV:                       00000000000000000800000000000000
Plaintext:                00000000000000000800000000000000
Ciphertext:               dffdd86a4c6b22b399f4ccbedf1c4033fa40bd3aee06eb7ba3ff6d4445407325b8dd01bfc5e07c73a0844a79426aa7f0de5f11a73978a26695c5a86c90b987a4
Reciphers for ciphertext: 0
Decipheredtext:           00000000000000000800000000000000
RESULT CIPHER-DECIPHER: -----OK-----


Test: 69
Hash algorithm: 3
Crypto pad: 2
Symmetric key bit length: 128
IV bit length:            128
Plaintext bit length:     128
Symmetric key:            00000000000000000400000000000000
IV:                       00000000000000000400000000000000
Plaintext:                00000000000000000400000000000000
Ciphertext:               b10b0e2bde47b1129c75b5838627062c846269c479bc209d6a92622d3dd9201c32787ea115babc5a08abf29bdfd39a78389d4154eb33831e1b254deda9bce42a9fc2701f0a629bbd04c2dde4f6c1a8fe3f5e5b6d76fd339122f1aef1177a00c4
Reciphers for ciphertext: 0
Decipheredtext:           00000000000000000400000000000000
RESULT CIPHER-DECIPHER: -----OK-----


Test: 70
Hash algorithm: 6
Crypto pad: 0
Symmetric key bit length: 128
IV bit length:            128
Plaintext bit length:     128
Symmetric key:            00000000000000000200000000000000
IV:                       00000000000000000200000000000000
Plaintext:                00000000000000000200000000000000
Ciphertext:               ec608bdd3f215e9f73b57183dc7cb6b2ae7003625aa62b3172bac972112c6a9634f60e1e4abeeaf43b2d9d60c3cdad550129a1c4c84755af28ca3687ad1d2590d5d5366b79e96d99e39fc68f6eaf47a0
Reciphers for ciphertext: 0
Decipheredtext:           00000000000000000200000000000000
RESULT CIPHER-DECIPHER: -----OK-----


Test: 71
Hash algorithm: 12
Crypto pad: 0
Symmetric key bit length: 128
IV bit length:            128
Plaintext bit length:     128
Symmetric key:            00000000000000000100000000000000
IV:                       00000000000000000100000000000000
Plaintext:                00000000000000000100000000000000
Ciphertext:               ee7b79d43681851ba43510b25fedac83a29b4404f1d1392cabc390c3002b8ecfb08e4df807170cdae42ed148f46a3cc189a925a4eafe9570e67ad166557fd137
Reciphers for ciphertext: 0
Decipheredtext:           00000000000000000100000000000000
RESULT CIPHER-DECIPHER: -----OK-----


Test: 72
Hash algorithm: 7
Crypto pad: 0
Symmetric key bit length: 128
IV bit length:            128
Plaintext bit length:     128
Symmetric key:            00000000000000000080000000000000
IV:                       00000000000000000080000000000000
Plaintext:                00000000000000000080000000000000
Ciphertext:               1906141e04ad2a584cef3a93dc13621f58b2e94161503431ab018a5cd15e9e83f96d0949d4101a0a95c9dc709c5e80b487b7a25e70318e663015c98357ab7a7f
Reciphers for ciphertext: 0
Decipheredtext:           00000000000000000080000000000000
RESULT CIPHER-DECIPHER: -----OK-----


Test: 73
Hash algorithm: 7
Crypto pad: 2
Symmetric key bit length: 128
IV bit length:            128
Plaintext bit length:     128
Symmetric key:            00000000000000000040000000000000
IV:                       00000000000000000040000000000000
Plaintext:                00000000000000000040000000000000
Ciphertext:               7590c1bb23c24da9cd0f10040ee1b7324985dedc965f961ae07a93ac704ef95fe5807d05a6e249484943e69c3e64a08d205b2bda6a639248529c803cfe5a40d3
Reciphers for ciphertext: 0
Decipheredtext:           00000000000000000040000000000000
RESULT CIPHER-DECIPHER: -----OK-----


Test: 74
Hash algorithm: 9
Crypto pad: 2
Symmetric key bit length: 128
IV bit length:            128
Plaintext bit length:     128
Symmetric key:            00000000000000000020000000000000
IV:                       00000000000000000020000000000000
Plaintext:                00000000000000000020000000000000
Ciphertext:               c581396fbdfecf75f55ce431879cfa7255208209feef1709c673cac2cf2654ea8b834c9b64e5d79c1557e19e438c36466e7a10db5e7714c646d6dd7a2c19b06ff91bee0fa851cacf5c4c23903426acd3
Reciphers for ciphertext: 0
Decipheredtext:           00000000000000000020000000000000
RESULT CIPHER-DECIPHER: -----OK-----


Test: 75
Hash algorithm: 1
Crypto pad: 2
Symmetric key bit length: 128
IV bit length:            128
Plaintext bit length:     128
Symmetric key:            00000000000000000010000000000000
IV:                       00000000000000000010000000000000
Plaintext:                00000000000000000010000000000000
Ciphertext:               93e88288dc748f6fa096bd2f5b35e9ae609f732d26017ee0299e823866dccd6ad77efa36754f3ff9d4dad6d3db1ace7dbcaf033270045cee525a4fc8976736d7
Reciphers for ciphertext: 0
Decipheredtext:           00000000000000000010000000000000
RESULT CIPHER-DECIPHER: -----OK-----


Test: 76
Hash algorithm: 8
Crypto pad: 0
Symmetric key bit length: 128
IV bit length:            128
Plaintext bit length:     128
Symmetric key:            00000000000000000008000000000000
IV:                       00000000000000000008000000000000
Plaintext:                00000000000000000008000000000000
Ciphertext:               b1f29150a0c4c5fdb8d20d2dc52661b57822bd862274a9c56e5d6f58adfff5ff96778d6268b2688dc55dcf274ba9ef058ddf52779f7a2e9e4c6fc5c846a91bb7
Reciphers for ciphertext: 0
Decipheredtext:           00000000000000000008000000000000
RESULT CIPHER-DECIPHER: -----OK-----


Test: 77
Hash algorithm: 11
Crypto pad: 2
Symmetric key bit length: 128
IV bit length:            128
Plaintext bit length:     128
Symmetric key:            00000000000000000004000000000000
IV:                       00000000000000000004000000000000
Plaintext:                00000000000000000004000000000000
Ciphertext:               e5ee3a9b5f38d0dd5db7be33f1b6f56f68da1d7b186c996b7b4e1a171bbba064ac7d0d38d25fa71a3e72a1290624c16ec023c58d8643c38be8f0e6f345039f9f
Reciphers for ciphertext: 0
Decipheredtext:           00000000000000000004000000000000
RESULT CIPHER-DECIPHER: -----OK-----


Test: 78
Hash algorithm: 12
Crypto pad: 2
Symmetric key bit length: 128
IV bit length:            128
Plaintext bit length:     128
Symmetric key:            00000000000000000002000000000000
IV:                       00000000000000000002000000000000
Plaintext:                00000000000000000002000000000000
Ciphertext:               db980feddfe7c14e3ff9b3e4bcc54165f28919ae33a8cf132c2167c84a79da90ac5384756612a10ffbdb63b1b3e90324f10a913a106614c25d11d25f859141a2
Reciphers for ciphertext: 0
Decipheredtext:           00000000000000000002000000000000
RESULT CIPHER-DECIPHER: -----OK-----


Test: 79
Hash algorithm: 3
Crypto pad: 2
Symmetric key bit length: 128
IV bit length:            128
Plaintext bit length:     128
Symmetric key:            00000000000000000001000000000000
IV:                       00000000000000000001000000000000
Plaintext:                00000000000000000001000000000000
Ciphertext:               1d085c7a534503011e3f248a0dd69ebf208fb9c4a71dcd09381ffc99febdfe6843da01bac0dd9c423606642cfa8efa493d6518b8156ced40389f32681ef66ae7ad88713964c95df1ccf3a0df48598c83e09ef03ec72fca455925d0ff932a337e
Reciphers for ciphertext: 0
Decipheredtext:           00000000000000000001000000000000
RESULT CIPHER-DECIPHER: -----OK-----


Test: 80
Hash algorithm: 2
Crypto pad: 1
Symmetric key bit length: 128
IV bit length:            128
Plaintext bit length:     128
Symmetric key:            00000000000000000000800000000000
IV:                       00000000000000000000800000000000
Plaintext:                00000000000000000000800000000000
Ciphertext:               578aa13f4284049cf77ddb639e9d67774d7e9439e1075581164def1f723489da944fbfdffacb04aac3dda1c54098b84f480ccc29bd48347ebcb6abcbf577b18642cc197b9a5d919b3149da20cb0b334b
Reciphers for ciphertext: 0
Decipheredtext:           00000000000000000000800000000000
RESULT CIPHER-DECIPHER: -----OK-----


Test: 81
Hash algorithm: 10
Crypto pad: 2
Symmetric key bit length: 128
IV bit length:            128
Plaintext bit length:     128
Symmetric key:            00000000000000000000400000000000
IV:                       00000000000000000000400000000000
Plaintext:                00000000000000000000400000000000
Ciphertext:               7f725360786ca59b82bf2673b091805446b315932aed98eadb7b12e239fc34d30d07ecafb4fc7ad0081925981264316195e717886c0de7f85151ede226ebeee68b19c16d3de00751c05aa2de70097711
Reciphers for ciphertext: 0
Decipheredtext:           00000000000000000000400000000000
RESULT CIPHER-DECIPHER: -----OK-----


Test: 82
Hash algorithm: 12
Crypto pad: 1
Symmetric key bit length: 128
IV bit length:            128
Plaintext bit length:     128
Symmetric key:            00000000000000000000200000000000
IV:                       00000000000000000000200000000000
Plaintext:                00000000000000000000200000000000
Ciphertext:               fb21f98e591af7f7d6ee6ee04e70faa8e41fb18727c44749ee9c4f3c71e80f97abd6ebf741c468f5815595c347be2bb2112329a699652e709fa89168535bc2c7
Reciphers for ciphertext: 0
Decipheredtext:           00000000000000000000200000000000
RESULT CIPHER-DECIPHER: -----OK-----


Test: 83
Hash algorithm: 7
Crypto pad: 2
Symmetric key bit length: 128
IV bit length:            128
Plaintext bit length:     128
Symmetric key:            00000000000000000000100000000000
IV:                       00000000000000000000100000000000
Plaintext:                00000000000000000000100000000000
Ciphertext:               dc73336c2d3056fb56c11a09ca147f621b2fba4fc33833bbf71ab7431c5842627c08ff61988da42bb948d4139278ae73f6e058bcd21fb32c68149d255c64bcc4
Reciphers for ciphertext: 0
Decipheredtext:           00000000000000000000100000000000
RESULT CIPHER-DECIPHER: -----OK-----


Test: 84
Hash algorithm: 2
Crypto pad: 1
Symmetric key bit length: 128
IV bit length:            128
Plaintext bit length:     128
Symmetric key:            00000000000000000000080000000000
IV:                       00000000000000000000080000000000
Plaintext:                00000000000000000000080000000000
Ciphertext:               f51c58c6fe6a0ebc9c9109eb97ab2cbc8ef280fb8c88ad38814be980b16789873a9e510fd18b062e05d2745a49f8b1be2c188e3dad36285751be5943f97dbd90100ee635a8649db619e8e426cca6c287
Reciphers for ciphertext: 0
Decipheredtext:           00000000000000000000080000000000
RESULT CIPHER-DECIPHER: -----OK-----


Test: 85
Hash algorithm: 8
Crypto pad: 1
Symmetric key bit length: 128
IV bit length:            128
Plaintext bit length:     128
Symmetric key:            00000000000000000000040000000000
IV:                       00000000000000000000040000000000
Plaintext:                00000000000000000000040000000000
Ciphertext:               081d42e412311642222b52cff05d7fcce76268c7549912e430d6499f4ec1c150ee175ab0fad9fad5af355c1e31fc595c4001bf22645c3c146a65fa0ece977d78
Reciphers for ciphertext: 0
Decipheredtext:           00000000000000000000040000000000
RESULT CIPHER-DECIPHER: -----OK-----


Test: 86
Hash algorithm: 6
Crypto pad: 1
Symmetric key bit length: 128
IV bit length:            128
Plaintext bit length:     128
Symmetric key:            00000000000000000000020000000000
IV:                       00000000000000000000020000000000
Plaintext:                00000000000000000000020000000000
Ciphertext:               e50c69c214a093004fe6f107bfc34a08e7ecdf44edadf85ccd35a244aa244eba2d29882f2655d11133e9e1c8fc3d9912046a3f8a4ab517bb5bfa430f74e39ba57dcdf414d6568e5bf530733b13a0632a
Reciphers for ciphertext: 0
Decipheredtext:           00000000000000000000020000000000
RESULT CIPHER-DECIPHER: -----OK-----


Test: 87
Hash algorithm: 0
Crypto pad: 0
Symmetric key bit length: 128
IV bit length:            128
Plaintext bit length:     128
Symmetric key:            00000000000000000000010000000000
IV:                       00000000000000000000010000000000
Plaintext:                00000000000000000000010000000000
Ciphertext:               c5b57a240a095310ba40b7747459c6d33c98cb3803bdd85a6e1c22b25e9017eb67a148e861be8828a6877fdc4e5fdd59eb7b560051161e218acccf6436786b9b
Reciphers for ciphertext: 0
Decipheredtext:           00000000000000000000010000000000
RESULT CIPHER-DECIPHER: -----OK-----


Test: 88
Hash algorithm: 10
Crypto pad: 1
Symmetric key bit length: 128
IV bit length:            128
Plaintext bit length:     128
Symmetric key:            00000000000000000000008000000000
IV:                       00000000000000000000008000000000
Plaintext:                00000000000000000000008000000000
Ciphertext:               b1110d1bc986bfa5acdbf1231b913574190b4b9f1dcfe68f53adef3869f4f54eba243cda0154b3fa032ee56d4d7119d4854a99eff7d90de947ed60e978e82ad46870ae24e0b318cf1981152a1b502283
Reciphers for ciphertext: 0
Decipheredtext:           00000000000000000000008000000000
RESULT CIPHER-DECIPHER: -----OK-----


Test: 89
Hash algorithm: 0
Crypto pad: 1
Symmetric key bit length: 128
IV bit length:            128
Plaintext bit length:     128
Symmetric key:            00000000000000000000004000000000
IV:                       00000000000000000000004000000000
Plaintext:                00000000000000000000004000000000
Ciphertext:               23f5505f1badb259826d8ab7e59ce579d0dea75e924b81703ccafaca9738775413f152e2f60d66568666243f40ad13e7728b60fd3971484848cbe59ace3b3a56
Reciphers for ciphertext: 0
Decipheredtext:           00000000000000000000004000000000
RESULT CIPHER-DECIPHER: -----OK-----


Test: 90
Hash algorithm: 8
Crypto pad: 0
Symmetric key bit length: 128
IV bit length:            128
Plaintext bit length:     128
Symmetric key:            00000000000000000000002000000000
IV:                       00000000000000000000002000000000
Plaintext:                00000000000000000000002000000000
Ciphertext:               e5ddaabeaf6cae289174d9839165f372fc59fd538e45b4291ca0e6d2e8147d6fda3c470a9a42d7e3aa0c01b7b65057ec636fe9e058221fa8f18c94d0c0e63ab8
Reciphers for ciphertext: 0
Decipheredtext:           00000000000000000000002000000000
RESULT CIPHER-DECIPHER: -----OK-----


Test: 91
Hash algorithm: 1
Crypto pad: 1
Symmetric key bit length: 128
IV bit length:            128
Plaintext bit length:     128
Symmetric key:            00000000000000000000001000000000
IV:                       00000000000000000000001000000000
Plaintext:                00000000000000000000001000000000
Ciphertext:               c44e60a86495404c6ea369d6a26edd77937663eab5040e7dd27cb5622ef5878ef61f26ef85f24ef890fde35bbe696174969e11a3cd0726a3b5e7e52b35f62e47
Reciphers for ciphertext: 0
Decipheredtext:           00000000000000000000001000000000
RESULT CIPHER-DECIPHER: -----OK-----


Test: 92
Hash algorithm: 12
Crypto pad: 0
Symmetric key bit length: 128
IV bit length:            128
Plaintext bit length:     128
Symmetric key:            00000000000000000000000800000000
IV:                       00000000000000000000000800000000
Plaintext:                00000000000000000000000800000000
Ciphertext:               273d4e769fceb754be0ce32a7eecd427db06c81b96fb4cb4d17764c87a3707ceea4e0d74c20f7f6d6e1311211842f52b785ba25080b122f8a429b09ae77a837d
Reciphers for ciphertext: 0
Decipheredtext:           00000000000000000000000800000000
RESULT CIPHER-DECIPHER: -----OK-----


Test: 93
Hash algorithm: 7
Crypto pad: 1
Symmetric key bit length: 128
IV bit length:            128
Plaintext bit length:     128
Symmetric key:            00000000000000000000000400000000
IV:                       00000000000000000000000400000000
Plaintext:                00000000000000000000000400000000
Ciphertext:               239d65850b45fafe8bd0982492c4680da3fe483aa74216e71bda980eb949da71ba22671f6a1f1a1f2233e446c2ed105f1fefa33964f61cb07f66bb93a84157dd
Reciphers for ciphertext: 0
Decipheredtext:           00000000000000000000000400000000
RESULT CIPHER-DECIPHER: -----OK-----


Test: 94
Hash algorithm: 1
Crypto pad: 1
Symmetric key bit length: 128
IV bit length:            128
Plaintext bit length:     128
Symmetric key:            00000000000000000000000200000000
IV:                       00000000000000000000000200000000
Plaintext:                00000000000000000000000200000000
Ciphertext:               5db91003c20f59ea498576f2efce4f6cbce6566defa836e9e5867f8de7ab2f288475677b4e3a1e7469533e91ecaee15c9faea9ea819bb06f6041cca9f4b6a960
Reciphers for ciphertext: 0
Decipheredtext:           00000000000000000000000200000000
RESULT CIPHER-DECIPHER: -----OK-----


Test: 95
Hash algorithm: 3
Crypto pad: 0
Symmetric key bit length: 128
IV bit length:            128
Plaintext bit length:     128
Symmetric key:            00000000000000000000000100000000
IV:                       00000000000000000000000100000000
Plaintext:                00000000000000000000000100000000
Ciphertext:               3bc4e9986a9576474f947ee49b9046fcc313e9a6147683673c926de20ccf9856cad623fc68145bfcaf26f6c38f7bce0e1023a8afefaf664e656afed62611c683fd40e94356ab06dbca827e4d98106d15b57c02c9257ae635581cecfcdd6f3543
Reciphers for ciphertext: 0
Decipheredtext:           00000000000000000000000100000000
RESULT CIPHER-DECIPHER: -----OK-----


Test: 96
Hash algorithm: 1
Crypto pad: 2
Symmetric key bit length: 128
IV bit length:            128
Plaintext bit length:     128
Symmetric key:            00000000000000000000000080000000
IV:                       00000000000000000000000080000000
Plaintext:                00000000000000000000000080000000
Ciphertext:               2aa67c0d7f134c3ee48b5a945a94aa50c7a1f962096c5e37d6cfa16f9f7e30cfaac2b9348c23de702d577e697c12126f1ffe855c4a51edee44e4cbb43e2c2a41
Reciphers for ciphertext: 0
Decipheredtext:           00000000000000000000000080000000
RESULT CIPHER-DECIPHER: -----OK-----


Test: 97
Hash algorithm: 12
Crypto pad: 1
Symmetric key bit length: 128
IV bit length:            128
Plaintext bit length:     128
Symmetric key:            00000000000000000000000040000000
IV:                       00000000000000000000000040000000
Plaintext:                00000000000000000000000040000000
Ciphertext:               7b1c47afe3e8a8ba3eeaeab5bcf3422f6259b6c6e61997d354b79c22ab01aa95bf4e105c147fa992d4e390e3c6c8db97bb26c4d651347ac3921d98b5daaa4552
Reciphers for ciphertext: 1
Decipheredtext:           00000000000000000000000040000000
RESULT CIPHER-DECIPHER: -----OK-----


Test: 98
Hash algorithm: 4
Crypto pad: 1
Symmetric key bit length: 128
IV bit length:            128
Plaintext bit length:     128
Symmetric key:            00000000000000000000000020000000
IV:                       00000000000000000000000020000000
Plaintext:                00000000000000000000000020000000
Ciphertext:               0d3313cbc0c84fc2747900009ba06bd4be99bb5e1176c83c5ee8c471ad9fd45434a36014c8221da7609088006949f44eecd6c773b8548151d584f6c5236d3f5db1e527092f413f9e3dfc52ac9e6b77aec00d73a28cf7de2b58b7750aab1a860fc9f3bf51d254dd084529049e124f5de5
Reciphers for ciphertext: 0
Decipheredtext:           00000000000000000000000020000000
RESULT CIPHER-DECIPHER: -----OK-----


Test: 99
Hash algorithm: 12
Crypto pad: 1
Symmetric key bit length: 128
IV bit length:            128
Plaintext bit length:     128
Symmetric key:            00000000000000000000000010000000
IV:                       00000000000000000000000010000000
Plaintext:                00000000000000000000000010000000
Ciphertext:               7385cbac63b11c5adaf763c9c652e31786043b4229ac15f0bdf2b36458ff09cef974d3538bd25ff02144a4f8260bac650a7902d412a51bea854cd2dbdfa8f592
Reciphers for ciphertext: 0
Decipheredtext:           00000000000000000000000010000000
RESULT CIPHER-DECIPHER: -----OK-----


Test: 100
Hash algorithm: 1
Crypto pad: 1
Symmetric key bit length: 128
IV bit length:            128
Plaintext bit length:     128
Symmetric key:            00000000000000000000000008000000
IV:                       00000000000000000000000008000000
Plaintext:                00000000000000000000000008000000
Ciphertext:               80a74048515d7162287b0f4d991ced6c496aa1b9f3468108bfae9698331b617a5b472619c7572c0372c8512bc1b588cf8388865441e5cce771610b88ca0e1020
Reciphers for ciphertext: 0
Decipheredtext:           00000000000000000000000008000000
RESULT CIPHER-DECIPHER: -----OK-----


Test: 101
Hash algorithm: 3
Crypto pad: 2
Symmetric key bit length: 128
IV bit length:            128
Plaintext bit length:     128
Symmetric key:            00000000000000000000000004000000
IV:                       00000000000000000000000004000000
Plaintext:                00000000000000000000000004000000
Ciphertext:               7d3abfdd15cfd8c0a989fc7a151e35ad0c05c6f79ffd1b30bfb83e8417405aa73d489943c79c487b2328582bf65c61036886292eb298387cb99cc3e88ebaca4a4cb24a077b2bc766e211c440a3708ee2fe13321563d604508ecef99b94f02427
Reciphers for ciphertext: 0
Decipheredtext:           00000000000000000000000004000000
RESULT CIPHER-DECIPHER: -----OK-----


Test: 102
Hash algorithm: 3
Crypto pad: 2
Symmetric key bit length: 128
IV bit length:            128
Plaintext bit length:     128
Symmetric key:            00000000000000000000000002000000
IV:                       00000000000000000000000002000000
Plaintext:                00000000000000000000000002000000
Ciphertext:               0336740082e8c5a85d32dcba80b0af7983ade4f244911d4dd606a12352b98f77feebe6e777becd4c56e654341cd340def7796465e8825b724ddde83a06d54474819beab5ea946698b2534f6621309002ac17f1eb92d605c5bb67501d48a2c117
Reciphers for ciphertext: 0
Decipheredtext:           00000000000000000000000002000000
RESULT CIPHER-DECIPHER: -----OK-----


Test: 103
Hash algorithm: 4
Crypto pad: 2
Symmetric key bit length: 128
IV bit length:            128
Plaintext bit length:     128
Symmetric key:            00000000000000000000000001000000
IV:                       00000000000000000000000001000000
Plaintext:                00000000000000000000000001000000
Ciphertext:               fdaa7495db62ec0c22cae25fa2fe26d3d4455932afb7f0ec270b16e3e5e2ed20ec53718fe4de67fbc2ede6daa2a51f6652717081ccc8e82d12343e7764d381df825486f134d744b9c7b472633793fa5b996bcc843ed6e8bdaa0f31a55f9cd77c17eabf53eabda600e4550229de631b60
Reciphers for ciphertext: 0
Decipheredtext:           00000000000000000000000001000000
RESULT CIPHER-DECIPHER: -----OK-----


Test: 104
Hash algorithm: 13
Crypto pad: 1
Symmetric key bit length: 128
IV bit length:            128
Plaintext bit length:     128
Symmetric key:            00000000000000000000000000800000
IV:                       00000000000000000000000000800000
Plaintext:                00000000000000000000000000800000
Ciphertext:               da10538ff08a81323b8e0bdab580c9a3cf25ac7577c8b212fb2527e9c81be064283113b1af3efda42fd686709f58418103f880f5deec04e1ace523eb36604c0f
Reciphers for ciphertext: 0
Decipheredtext:           00000000000000000000000000800000
RESULT CIPHER-DECIPHER: -----OK-----


Test: 105
Hash algorithm: 10
Crypto pad: 2
Symmetric key bit length: 128
IV bit length:            128
Plaintext bit length:     128
Symmetric key:            00000000000000000000000000400000
IV:                       00000000000000000000000000400000
Plaintext:                00000000000000000000000000400000
Ciphertext:               3aa421d16db303cd32c58261d71f6512a25b2aba6031d71dbf58c425db3d1fa64d4f171132601aaeac647714349ca7229e23efba9853295f3665da93f7ac1cbae6bcf619bbe39997e7ff9c802d6a81d0
Reciphers for ciphertext: 0
Decipheredtext:           00000000000000000000000000400000
RESULT CIPHER-DECIPHER: -----OK-----


Test: 106
Hash algorithm: 4
Crypto pad: 1
Symmetric key bit length: 128
IV bit length:            128
Plaintext bit length:     128
Symmetric key:            00000000000000000000000000200000
IV:                       00000000000000000000000000200000
Plaintext:                00000000000000000000000000200000
Ciphertext:               90f78d5b05e1ca8e0b34220760a4916db22ef0a0174e736c72053001e0e4e8eaca26cffe91f24d542b94c1e3ef5f5675d7cd960498f2fd43fc8791e6d44c8763d169a2092b2440dee8f7af7639f7e36609013ab2c14872eaeb36cdd2bd2ca47c4a9a53a6cb748e028cbb60bf6bc0df4f
Reciphers for ciphertext: 0
Decipheredtext:           00000000000000000000000000200000
RESULT CIPHER-DECIPHER: -----OK-----


Test: 107
Hash algorithm: 4
Crypto pad: 2
Symmetric key bit length: 128
IV bit length:            128
Plaintext bit length:     128
Symmetric key:            00000000000000000000000000100000
IV:                       00000000000000000000000000100000
Plaintext:                00000000000000000000000000100000
Ciphertext:               03a35d1b2758a91907430778c9491f2b4f855c9667b5b531c2700a70147e3858fac40e30d6e9679befacfe65fb512ff75299e2e7a9adff505cb1f417b2a96330a1f1a304cb1839c9aaa9c86f5f6176e4d22ac4f3808a8450e9915f1feac3dff9ff20181b32f4ebe2a1564710236f15ee
Reciphers for ciphertext: 0
Decipheredtext:           00000000000000000000000000100000
RESULT CIPHER-DECIPHER: -----OK-----


Test: 108
Hash algorithm: 1
Crypto pad: 0
Symmetric key bit length: 128
IV bit length:            128
Plaintext bit length:     128
Symmetric key:            00000000000000000000000000080000
IV:                       00000000000000000000000000080000
Plaintext:                00000000000000000000000000080000
Ciphertext:               b729c8708dc7cd28d21eaa12dcda299eb2456ebbdffcd78e9d8b16028b567a50d402cebda5a74a4a8a377cbd900581a3b363c0a40fd4564a45c9841d41eb28ef
Reciphers for ciphertext: 0
Decipheredtext:           00000000000000000000000000080000
RESULT CIPHER-DECIPHER: -----OK-----


Test: 109
Hash algorithm: 9
Crypto pad: 2
Symmetric key bit length: 128
IV bit length:            128
Plaintext bit length:     128
Symmetric key:            00000000000000000000000000040000
IV:                       00000000000000000000000000040000
Plaintext:                00000000000000000000000000040000
Ciphertext:               4b30d94af1cb3be76fb98ef878f68f5bbbf03faf3570d35a6e07a45b54a5d632f65323dc80e3c101cb454334269b0ecbfc1b09f32cd3165369eee02772960cef9ef2e248ea0004f835c80a0f5a1297a1
Reciphers for ciphertext: 0
Decipheredtext:           00000000000000000000000000040000
RESULT CIPHER-DECIPHER: -----OK-----


Test: 110
Hash algorithm: 11
Crypto pad: 2
Symmetric key bit length: 128
IV bit length:            128
Plaintext bit length:     128
Symmetric key:            00000000000000000000000000020000
IV:                       00000000000000000000000000020000
Plaintext:                00000000000000000000000000020000
Ciphertext:               5b3eef9c55455e7347e533bb6c5f8b1549e004f6e04835e9e698abf74fe7f6a64148240f0496be89a93bdc87e59515f371c3603402a14294c3daaecc7da497ca
Reciphers for ciphertext: 0
Decipheredtext:           00000000000000000000000000020000
RESULT CIPHER-DECIPHER: -----OK-----


Test: 111
Hash algorithm: 11
Crypto pad: 0
Symmetric key bit length: 128
IV bit length:            128
Plaintext bit length:     128
Symmetric key:            00000000000000000000000000010000
IV:                       00000000000000000000000000010000
Plaintext:                00000000000000000000000000010000
Ciphertext:               8e01b7823aacf4f23552ac40c03afa8ebbef990e0e2e164ef88e295c262064f3eaa41c4387a86616fef68f87f63ef6a8b6622652cd7f29cd956c70886d3a4fe2
Reciphers for ciphertext: 0
Decipheredtext:           00000000000000000000000000010000
RESULT CIPHER-DECIPHER: -----OK-----


Test: 112
Hash algorithm: 2
Crypto pad: 1
Symmetric key bit length: 128
IV bit length:            128
Plaintext bit length:     128
Symmetric key:            00000000000000000000000000008000
IV:                       00000000000000000000000000008000
Plaintext:                00000000000000000000000000008000
Ciphertext:               f9d23961d0661eebde0f824e47ceba979a1075735492dee72843108125b70e96662716d780514e23822a7444cfa3baa17caffb5a3b404e3fac09763d75a53bad20a5d9219a9ca5994c59ebe3da4bda25
Reciphers for ciphertext: 0
Decipheredtext:           00000000000000000000000000008000
RESULT CIPHER-DECIPHER: -----OK-----


Test: 113
Hash algorithm: 12
Crypto pad: 0
Symmetric key bit length: 128
IV bit length:            128
Plaintext bit length:     128
Symmetric key:            00000000000000000000000000004000
IV:                       00000000000000000000000000004000
Plaintext:                00000000000000000000000000004000
Ciphertext:               385ac4a1512edbecae3527ec49b84c1161ee968bb7cb727a0a52620ab088eb9f7723a418b6cf8be84d26bf4d8918305a18c6418cb9aa5b734a042afbcbf1ee4d
Reciphers for ciphertext: 0
Decipheredtext:           00000000000000000000000000004000
RESULT CIPHER-DECIPHER: -----OK-----


Test: 114
Hash algorithm: 8
Crypto pad: 2
Symmetric key bit length: 128
IV bit length:            128
Plaintext bit length:     128
Symmetric key:            00000000000000000000000000002000
IV:                       00000000000000000000000000002000
Plaintext:                00000000000000000000000000002000
Ciphertext:               4561dab55aa5b7625a6961fed1ab261492a15b7816dccbfcc00e43f890ce615d697c7f1deac6835b6403e83d2b62ae345ea1ff0846aa9beb9bbe5dcfc1253746
Reciphers for ciphertext: 0
Decipheredtext:           00000000000000000000000000002000
RESULT CIPHER-DECIPHER: -----OK-----


Test: 115
Hash algorithm: 5
Crypto pad: 2
Symmetric key bit length: 128
IV bit length:            128
Plaintext bit length:     128
Symmetric key:            00000000000000000000000000001000
IV:                       00000000000000000000000000001000
Plaintext:                00000000000000000000000000001000
Ciphertext:               40778dfdd63cbe86812440519715c680966806244136bf74e63f429c8c8c41222f259baabac8bdce8942bfb6c196057e92a168a65c1c7eb297dabf65a7b51295
Reciphers for ciphertext: 0
Decipheredtext:           00000000000000000000000000001000
RESULT CIPHER-DECIPHER: -----OK-----


Test: 116
Hash algorithm: 11
Crypto pad: 1
Symmetric key bit length: 128
IV bit length:            128
Plaintext bit length:     128
Symmetric key:            00000000000000000000000000000800
IV:                       00000000000000000000000000000800
Plaintext:                00000000000000000000000000000800
Ciphertext:               93c6789d563e3df7d74ea3523333bdcf0e26b3c5445debdaf1b0f0d8e70ee839d0d0caa880410cdeeff7d11956fe1b85c3d88d7409ebfeef6d71937f2f484ab2
Reciphers for ciphertext: 0
Decipheredtext:           00000000000000000000000000000800
RESULT CIPHER-DECIPHER: -----OK-----


Test: 117
Hash algorithm: 1
Crypto pad: 1
Symmetric key bit length: 128
IV bit length:            128
Plaintext bit length:     128
Symmetric key:            00000000000000000000000000000400
IV:                       00000000000000000000000000000400
Plaintext:                00000000000000000000000000000400
Ciphertext:               7f47b8dbe11e385f07b6efb20a35045f2570b3584875df0ad6d953c14c3ab71d0835f841eedf0cd63a03c70061a4d958916929fae40a7e730e267d51eb126926
Reciphers for ciphertext: 0
Decipheredtext:           00000000000000000000000000000400
RESULT CIPHER-DECIPHER: -----OK-----


Test: 118
Hash algorithm: 10
Crypto pad: 1
Symmetric key bit length: 128
IV bit length:            128
Plaintext bit length:     128
Symmetric key:            00000000000000000000000000000200
IV:                       00000000000000000000000000000200
Plaintext:                00000000000000000000000000000200
Ciphertext:               66ea39db24ed91686ead33208de35ccf56121fb8e4301667213fb92a41512b153ba7b4802cfd15f7da1f4968ae63d41ea39535b7e90d3d9fa112821ee9bbfd3c9b86686ef2fb88591e6df22294374622
Reciphers for ciphertext: 0
Decipheredtext:           00000000000000000000000000000200
RESULT CIPHER-DECIPHER: -----OK-----


Test: 119
Hash algorithm: 2
Crypto pad: 0
Symmetric key bit length: 128
IV bit length:            128
Plaintext bit length:     128
Symmetric key:            00000000000000000000000000000100
IV:                       00000000000000000000000000000100
Plaintext:                00000000000000000000000000000100
Ciphertext:               4c42473dcc65b14088257f8744af633ee0835b6ae73dd0d7c1c8e6d40fcbd73ff15cabffd7d6e42dcd034f613e1a9ceacfc743e1e1c56221dd0bbe1ef9eb43653ac2eba8826819bc9f0e500692334fa7
Reciphers for ciphertext: 0
Decipheredtext:           00000000000000000000000000000100
RESULT CIPHER-DECIPHER: -----OK-----


Test: 120
Hash algorithm: 9
Crypto pad: 1
Symmetric key bit length: 128
IV bit length:            128
Plaintext bit length:     128
Symmetric key:            00000000000000000000000000000080
IV:                       00000000000000000000000000000080
Plaintext:                00000000000000000000000000000080
Ciphertext:               3ddabfc006daab06462af4ef81544e26a84851bb77249740d08e55bb423ad57bb5efd605b5708d58118f1d58f6be9dfc346b26674f296001d236cbfbf694af7096f7f4ba469297422dca6d9b36e856cd
Reciphers for ciphertext: 0
Decipheredtext:           00000000000000000000000000000080
RESULT CIPHER-DECIPHER: -----OK-----


Test: 121
Hash algorithm: 2
Crypto pad: 0
Symmetric key bit length: 128
IV bit length:            128
Plaintext bit length:     128
Symmetric key:            00000000000000000000000000000040
IV:                       00000000000000000000000000000040
Plaintext:                00000000000000000000000000000040
Ciphertext:               24850e35c86eac07349927c73b1b234a96965741941d8437095f00ae95fbe5e61dab1068c60e705b81347aabaf4ed2c77afaab21c34b8678436af8c33c638eab5e871a10de143cd2ac6d3f6a136ba2ed
Reciphers for ciphertext: 0
Decipheredtext:           00000000000000000000000000000040
RESULT CIPHER-DECIPHER: -----OK-----


Test: 122
Hash algorithm: 3
Crypto pad: 0
Symmetric key bit length: 128
IV bit length:            128
Plaintext bit length:     128
Symmetric key:            00000000000000000000000000000020
IV:                       00000000000000000000000000000020
Plaintext:                00000000000000000000000000000020
Ciphertext:               568db914df56817d3c85fde9f96932e0b9a465c4f519341dfd8e3f226c5385d19b916e4769f235f46d4320fec4c86e633f42b8959b6d5dab7e938943076777e570368a06a88eb2a5ee57c117c7237098e6c6fd4210600e62f73a417a84907b82
Reciphers for ciphertext: 0
Decipheredtext:           00000000000000000000000000000020
RESULT CIPHER-DECIPHER: -----OK-----


Test: 123
Hash algorithm: 2
Crypto pad: 2
Symmetric key bit length: 128
IV bit length:            128
Plaintext bit length:     128
Symmetric key:            00000000000000000000000000000010
IV:                       00000000000000000000000000000010
Plaintext:                00000000000000000000000000000010
Ciphertext:               8fc4ac4d7589bad559ac81301c1898a7815270499e6907de0536d3861ee77cc639cce9c7c9b8f8fc0fde65a8fd4839ab6cbbafd9fee17b313142996df5494f20bf98380ae2ae89ef30c236959a67a9f8
Reciphers for ciphertext: 0
Decipheredtext:           00000000000000000000000000000010
RESULT CIPHER-DECIPHER: -----OK-----


Test: 124
Hash algorithm: 8
Crypto pad: 2
Symmetric key bit length: 128
IV bit length:            128
Plaintext bit length:     128
Symmetric key:            00000000000000000000000000000008
IV:                       00000000000000000000000000000008
Plaintext:                00000000000000000000000000000008
Ciphertext:               15dafb79236ac6f5f361f80d5255b334595129655b3f700c5be07f61437c7042718af0b9fa8d3f531818bcb03cee92059be6575e514a83bf8bd6cf3f662d500b
Reciphers for ciphertext: 0
Decipheredtext:           00000000000000000000000000000008
RESULT CIPHER-DECIPHER: -----OK-----


Test: 125
Hash algorithm: 3
Crypto pad: 0
Symmetric key bit length: 128
IV bit length:            128
Plaintext bit length:     128
Symmetric key:            00000000000000000000000000000004
IV:                       00000000000000000000000000000004
Plaintext:                00000000000000000000000000000004
Ciphertext:               4ab0a08142246b0c5175116b8fbb865ef7c42f954f90675c5739b069a23c6c24c9827ad1a401cd0c114a3da785573cae88d7e2ae8fa8fa335f1642724098723728e89869630c0d9c864c3d33cf6d9bfefb67aef43d1f5ea35e622c26dca62d0e
Reciphers for ciphertext: 0
Decipheredtext:           00000000000000000000000000000004
RESULT CIPHER-DECIPHER: -----OK-----


Test: 126
Hash algorithm: 5
Crypto pad: 1
Symmetric key bit length: 128
IV bit length:            128
Plaintext bit length:     128
Symmetric key:            00000000000000000000000000000002
IV:                       00000000000000000000000000000002
Plaintext:                00000000000000000000000000000002
Ciphertext:               a143e86d9bd26437f1c5a9c7903121b91334d0413e6f4864db42309426d76af4ad412075c11e56c3ec19c708a94556e393c3fac30635456c722bf3a5900ed309
Reciphers for ciphertext: 0
Decipheredtext:           00000000000000000000000000000002
RESULT CIPHER-DECIPHER: -----OK-----


Test: 127
Hash algorithm: 4
Crypto pad: 2
Symmetric key bit length: 128
IV bit length:            128
Plaintext bit length:     128
Symmetric key:            00000000000000000000000000000001
IV:                       00000000000000000000000000000001
Plaintext:                00000000000000000000000000000001
Ciphertext:               c8466045b204026fffd194320355ca4e26d3a487032ae7f6fb8753e9ea5f50ca2895b35526e2f97f41b70f9e35f577c21a1db3381a6efe00b9ca8c7230156f2775990053c48e01a83e9ec936a65e0ba5d304a0336fed7a2f099613ef840d96a97f0c2154cf83c58004914b25740068dc
Reciphers for ciphertext: 0
Decipheredtext:           00000000000000000000000000000001
RESULT CIPHER-DECIPHER: -----OK-----


 DATA SHA1 (hexadecimal): 7aff0a23c7c5cb5f9910903247b2125b6da911c2

