
DiceLock 9.0.0.1

 TEST COMPONENTS:
 ----------------
 DiceLock:           DiceLockIVDigested class
 Operation Mode:     CBC_Mode class
 Crypto pads:        0 - ANSI_X_923 class
                     1 - ISO_IEC_9797_1 class
                     2 - PKCS7 class
 Block Cipher:       AES256 class
 Hash algorithms:     0 - Sha1 class
                      1 - Sha224 class
                      2 - Sha256 class
                      3 - Sha384 class
                      4 - Sha512 class
                      5 - Sha512_224 class
                      6 - Sha512_256 class
                      7 - Ripemd128 class
                      8 - Ripemd160 class
                      9 - Ripemd256 class
                     10 - Ripemd320 class
                     11 - MD2 class
                     12 - MD4 class
                     13 - MD5 class
 Key Modifier:       DecreaseKeyModifier_6_0_0_1 class
 Random tests:       RandomTestSuite class
                     FrequencyTest class
                     BlockFrequencyTest class
                     CumulativeSumForwardTest class
                     LongestRunOfOnesTest class
                     RunsTest class
 Random alpha:       0.001

 VECTOR TEST: Test vector 3 - Changing symmetric key, IV and plaintext, shifting 1 bit set


##### INDIVIDUAL TESTS #####

Number tests: 128


Test: 0
Hash algorithm: 13
Crypto pad: 0
Symmetric key bit length: 256
IV bit length:            128
Plaintext bit length:     136
Symmetric key:            0000000000000000000000000000000080000000000000000000000000000000
IV:                       80000000000000000000000000000000
Plaintext:                0080000000000000000000000000000000
Ciphertext:               23c1af6edd0fc6b789f7e3e6995ffbf8b95304c03f7d833a12bd02ad9689fb9372d9968d39b922730efbedef5b5ef967bf9fca315b1fbe52558431f1d12eb74d
Reciphers for ciphertext: 0
Decipheredtext:           0080000000000000000000000000000000
RESULT CIPHER-DECIPHER: -----OK-----


Test: 1
Hash algorithm: 0
Crypto pad: 2
Symmetric key bit length: 256
IV bit length:            128
Plaintext bit length:     136
Symmetric key:            0000000000000000000000000000000040000000000000000000000000000000
IV:                       40000000000000000000000000000000
Plaintext:                0040000000000000000000000000000000
Ciphertext:               36d2329ef77bb6b0278ff9d831e9ea62d79185142ca77a7df36c4bb4f9ee7d56612fedfac893206c5af855e0cc6f0f8ae3a69d7a1003964ad4cf9cfc49d88d14
Reciphers for ciphertext: 0
Decipheredtext:           0040000000000000000000000000000000
RESULT CIPHER-DECIPHER: -----OK-----


Test: 2
Hash algorithm: 8
Crypto pad: 0
Symmetric key bit length: 256
IV bit length:            128
Plaintext bit length:     136
Symmetric key:            0000000000000000000000000000000020000000000000000000000000000000
IV:                       20000000000000000000000000000000
Plaintext:                0020000000000000000000000000000000
Ciphertext:               8ff716d5a349ff4c6e8674d1ec2abdadeea29fbdd502951f58d81d08b4dca26abc34d7c47a0ab513624d33e97c8fc1ba713e6f15e1a0923725012cb8727b296a
Reciphers for ciphertext: 0
Decipheredtext:           0020000000000000000000000000000000
RESULT CIPHER-DECIPHER: -----OK-----


Test: 3
Hash algorithm: 10
Crypto pad: 0
Symmetric key bit length: 256
IV bit length:            128
Plaintext bit length:     136
Symmetric key:            0000000000000000000000000000000010000000000000000000000000000000
IV:                       10000000000000000000000000000000
Plaintext:                0010000000000000000000000000000000
Ciphertext:               1c3f70e2481e2d404105206cf024fe870d0910e9b1eb326d4c9433f68685e02b8360790b7ebc907a030b258153ee15a72155fa8bfa750b6741e28f7ffcb3041ef3b1b309aa180d2d35b9f9be0ad98a66
Reciphers for ciphertext: 0
Decipheredtext:           0010000000000000000000000000000000
RESULT CIPHER-DECIPHER: -----OK-----


Test: 4
Hash algorithm: 8
Crypto pad: 1
Symmetric key bit length: 256
IV bit length:            128
Plaintext bit length:     136
Symmetric key:            0000000000000000000000000000000008000000000000000000000000000000
IV:                       08000000000000000000000000000000
Plaintext:                0008000000000000000000000000000000
Ciphertext:               15f5f01b8d7dfe7d777b074761abf6b667df672080fe3be8a638204e2a10d610ad9308aae17071db814a59bb4a85c5012965b7fa3ec66a91e3e7600d26a4b6ae
Reciphers for ciphertext: 0
Decipheredtext:           0008000000000000000000000000000000
RESULT CIPHER-DECIPHER: -----OK-----


Test: 5
Hash algorithm: 3
Crypto pad: 2
Symmetric key bit length: 256
IV bit length:            128
Plaintext bit length:     136
Symmetric key:            0000000000000000000000000000000004000000000000000000000000000000
IV:                       04000000000000000000000000000000
Plaintext:                0004000000000000000000000000000000
Ciphertext:               bde779d9c68b2a2877474180bac89fa161865cae55cdc5b21d6b6a273504237098dd47525c83558ca580682213f8345ecb619c5884e7db6eb06b484f963c7788067f57c452b7507ec243d13b638a39092f8dbecdc3d0f899744b3f42eb31b257
Reciphers for ciphertext: 0
Decipheredtext:           0004000000000000000000000000000000
RESULT CIPHER-DECIPHER: -----OK-----


Test: 6
Hash algorithm: 7
Crypto pad: 1
Symmetric key bit length: 256
IV bit length:            128
Plaintext bit length:     136
Symmetric key:            0000000000000000000000000000000002000000000000000000000000000000
IV:                       02000000000000000000000000000000
Plaintext:                0002000000000000000000000000000000
Ciphertext:               c73c9a11bad3713c61d30e52d754bb8f2e7fb02fa50c43a506557e0a2ab6416fc94610961cf930645d3dc4c8ff68fb833474210a9197e9c9a519a49410adc8ba
Reciphers for ciphertext: 0
Decipheredtext:           0002000000000000000000000000000000
RESULT CIPHER-DECIPHER: -----OK-----


Test: 7
Hash algorithm: 7
Crypto pad: 0
Symmetric key bit length: 256
IV bit length:            128
Plaintext bit length:     136
Symmetric key:            0000000000000000000000000000000001000000000000000000000000000000
IV:                       01000000000000000000000000000000
Plaintext:                0001000000000000000000000000000000
Ciphertext:               07117cb57712869abf86ed852aa6726081be6fe8e3818ab7cda5fe314db8f3141c5b9ddbcb460f64ec03584ae202ff089ea13d3e945ddfeb5bbb3a7a54f64c47
Reciphers for ciphertext: 0
Decipheredtext:           0001000000000000000000000000000000
RESULT CIPHER-DECIPHER: -----OK-----


Test: 8
Hash algorithm: 4
Crypto pad: 0
Symmetric key bit length: 256
IV bit length:            128
Plaintext bit length:     136
Symmetric key:            0000000000000000000000000000000000800000000000000000000000000000
IV:                       00800000000000000000000000000000
Plaintext:                0000800000000000000000000000000000
Ciphertext:               1cbb9678bc5eac5453abf9f7722b50d96a55046fad0a4248f26266d794625cdc7a6297cef9d73ae985b7768f89fbc153a00f79382c1070e971e5cbdcb8d58038d3587c0d377e20e7201c25ba4e3b2195c0ee18f3262de119855d741a8cf9936fbc6063b16de2cb6debc633439f97979a
Reciphers for ciphertext: 0
Decipheredtext:           0000800000000000000000000000000000
RESULT CIPHER-DECIPHER: -----OK-----


Test: 9
Hash algorithm: 8
Crypto pad: 2
Symmetric key bit length: 256
IV bit length:            128
Plaintext bit length:     136
Symmetric key:            0000000000000000000000000000000000400000000000000000000000000000
IV:                       00400000000000000000000000000000
Plaintext:                0000400000000000000000000000000000
Ciphertext:               bdafb89037cc7471d07fc1985719493a1989b2b8422ff5896e9ea7484e6fb55354a86e8e3ade0baa6c7bfd45168ab2666f726b632515e6c418189138542214d3
Reciphers for ciphertext: 0
Decipheredtext:           0000400000000000000000000000000000
RESULT CIPHER-DECIPHER: -----OK-----


Test: 10
Hash algorithm: 10
Crypto pad: 1
Symmetric key bit length: 256
IV bit length:            128
Plaintext bit length:     136
Symmetric key:            0000000000000000000000000000000000200000000000000000000000000000
IV:                       00200000000000000000000000000000
Plaintext:                0000200000000000000000000000000000
Ciphertext:               c53d7b6484cb4169e4e4519b1cd96224afe333d00b6334f7c41da61a7c477faf346d98cb94d67052b5d52344acab27e2bc22152fd5ab818fbe502d32a07275d93cc6a987e9b1c3e07bc16d0d4057e0b7
Reciphers for ciphertext: 0
Decipheredtext:           0000200000000000000000000000000000
RESULT CIPHER-DECIPHER: -----OK-----


Test: 11
Hash algorithm: 7
Crypto pad: 1
Symmetric key bit length: 256
IV bit length:            128
Plaintext bit length:     136
Symmetric key:            0000000000000000000000000000000000100000000000000000000000000000
IV:                       00100000000000000000000000000000
Plaintext:                0000100000000000000000000000000000
Ciphertext:               0f91e1580646dc62db569d593bbf79ae03acbfc15403081655710f061097cb6000bb87e573686c99753612df4a18b9da121a5594b7139050dec6d940c034c990
Reciphers for ciphertext: 0
Decipheredtext:           0000100000000000000000000000000000
RESULT CIPHER-DECIPHER: -----OK-----


Test: 12
Hash algorithm: 0
Crypto pad: 1
Symmetric key bit length: 256
IV bit length:            128
Plaintext bit length:     136
Symmetric key:            0000000000000000000000000000000000080000000000000000000000000000
IV:                       00080000000000000000000000000000
Plaintext:                0000080000000000000000000000000000
Ciphertext:               436d28e7db7d5fee30ee9cb0779d4c0d6b4f3acad206e0788a0676b56f8faf76a259efe5368ca31a89485a9141adb17fa639008d91b7ee0ab13a02777490092d
Reciphers for ciphertext: 0
Decipheredtext:           0000080000000000000000000000000000
RESULT CIPHER-DECIPHER: -----OK-----


Test: 13
Hash algorithm: 0
Crypto pad: 0
Symmetric key bit length: 256
IV bit length:            128
Plaintext bit length:     136
Symmetric key:            0000000000000000000000000000000000040000000000000000000000000000
IV:                       00040000000000000000000000000000
Plaintext:                0000040000000000000000000000000000
Ciphertext:               7b9fb83eeabfa1abeefbbebfecbabe20530f557656b02a616b7b766b5f6c311b16c89e32628053050b10ca5534771e373430f3b3f7011acac9dc857e1c024649
Reciphers for ciphertext: 0
Decipheredtext:           0000040000000000000000000000000000
RESULT CIPHER-DECIPHER: -----OK-----


Test: 14
Hash algorithm: 13
Crypto pad: 2
Symmetric key bit length: 256
IV bit length:            128
Plaintext bit length:     136
Symmetric key:            0000000000000000000000000000000000020000000000000000000000000000
IV:                       00020000000000000000000000000000
Plaintext:                0000020000000000000000000000000000
Ciphertext:               d9a561e80304bb3c3c44bbae8b6e4a620ca869f9b83649a6408bb572f78fdaff788ba6af7c41a4dff2e7adedee8745ddf7dc3d1afef5fe31819c519e698661c2
Reciphers for ciphertext: 0
Decipheredtext:           0000020000000000000000000000000000
RESULT CIPHER-DECIPHER: -----OK-----


Test: 15
Hash algorithm: 11
Crypto pad: 2
Symmetric key bit length: 256
IV bit length:            128
Plaintext bit length:     136
Symmetric key:            0000000000000000000000000000000000010000000000000000000000000000
IV:                       00010000000000000000000000000000
Plaintext:                0000010000000000000000000000000000
Ciphertext:               f05e444697f0f5142dfa832d46f4dd4bf111c2f64b52312715ff6203912ff4871b5c1d0f467841b16d25188972c42d2cf9239e5987c8dd30bfd366ef04e08719
Reciphers for ciphertext: 0
Decipheredtext:           0000010000000000000000000000000000
RESULT CIPHER-DECIPHER: -----OK-----


Test: 16
Hash algorithm: 11
Crypto pad: 2
Symmetric key bit length: 256
IV bit length:            128
Plaintext bit length:     136
Symmetric key:            0000000000000000000000000000000000008000000000000000000000000000
IV:                       00008000000000000000000000000000
Plaintext:                0000008000000000000000000000000000
Ciphertext:               41f53a3b4a3b8f2ed4d4ddb13407066b87c0dcb814a32aec66727b691f47d7b819f29883197781bbc3faa93470ecdf6fb4e565993355c515058821618972cbe8
Reciphers for ciphertext: 0
Decipheredtext:           0000008000000000000000000000000000
RESULT CIPHER-DECIPHER: -----OK-----


Test: 17
Hash algorithm: 3
Crypto pad: 1
Symmetric key bit length: 256
IV bit length:            128
Plaintext bit length:     136
Symmetric key:            0000000000000000000000000000000000004000000000000000000000000000
IV:                       00004000000000000000000000000000
Plaintext:                0000004000000000000000000000000000
Ciphertext:               3c2fd58fc92b04b49cfc0959d8534140c2eb63ab2b4be63def65558600c40901333aa0e1242e4d92d9c3abd0b6733fdcf94512b9ddb5c357b0c07ea009e31515eea505a4b9f05489288acb005c24795a9b43510f6bf28be5a271750e4346f2c0
Reciphers for ciphertext: 0
Decipheredtext:           0000004000000000000000000000000000
RESULT CIPHER-DECIPHER: -----OK-----


Test: 18
Hash algorithm: 7
Crypto pad: 2
Symmetric key bit length: 256
IV bit length:            128
Plaintext bit length:     136
Symmetric key:            0000000000000000000000000000000000002000000000000000000000000000
IV:                       00002000000000000000000000000000
Plaintext:                0000002000000000000000000000000000
Ciphertext:               a1b3fecf1298668fc91a58c2fd9f9baab63af47f17c4e23056f4a74ea58354124cd67d25e6258b1f2d656fbdb59416617edf52de464878722c65ae4316348d3a
Reciphers for ciphertext: 0
Decipheredtext:           0000002000000000000000000000000000
RESULT CIPHER-DECIPHER: -----OK-----


Test: 19
Hash algorithm: 11
Crypto pad: 1
Symmetric key bit length: 256
IV bit length:            128
Plaintext bit length:     136
Symmetric key:            0000000000000000000000000000000000001000000000000000000000000000
IV:                       00001000000000000000000000000000
Plaintext:                0000001000000000000000000000000000
Ciphertext:               42096c1eb0069a580ea28d7186b586268844d618f1bbdba3cecde1149f4d650a71335ca624caa40c4fb4c5036757af87eac3d329a8e3f3351d605db1dc6ce071
Reciphers for ciphertext: 0
Decipheredtext:           0000001000000000000000000000000000
RESULT CIPHER-DECIPHER: -----OK-----


Test: 20
Hash algorithm: 4
Crypto pad: 2
Symmetric key bit length: 256
IV bit length:            128
Plaintext bit length:     136
Symmetric key:            0000000000000000000000000000000000000800000000000000000000000000
IV:                       00000800000000000000000000000000
Plaintext:                0000000800000000000000000000000000
Ciphertext:               40c9f51a73fe81668ed4fd9cbeddb83756c2756f4f8ba0461ab588f1ddec2bc43412e37773bd4091215b4e22017a0e847f0a62acfc5f8a296b20dfc0efa84c29c2684c06f91b632045377163d4f6ba158f0d06597ef19029e07a9ea0835c5f0a0e25de21d6e981129e9239f2e079badc
Reciphers for ciphertext: 0
Decipheredtext:           0000000800000000000000000000000000
RESULT CIPHER-DECIPHER: -----OK-----


Test: 21
Hash algorithm: 11
Crypto pad: 2
Symmetric key bit length: 256
IV bit length:            128
Plaintext bit length:     136
Symmetric key:            0000000000000000000000000000000000000400000000000000000000000000
IV:                       00000400000000000000000000000000
Plaintext:                0000000400000000000000000000000000
Ciphertext:               429f43ea1375bde0a092bed63e31daa0038c9e160e1a80ec20b6fac785ac0e2449d1d672ac14ba885f80792ad96aefa1c413e623ccb3350248e4815a42eb2608
Reciphers for ciphertext: 0
Decipheredtext:           0000000400000000000000000000000000
RESULT CIPHER-DECIPHER: -----OK-----


Test: 22
Hash algorithm: 8
Crypto pad: 0
Symmetric key bit length: 256
IV bit length:            128
Plaintext bit length:     136
Symmetric key:            0000000000000000000000000000000000000200000000000000000000000000
IV:                       00000200000000000000000000000000
Plaintext:                0000000200000000000000000000000000
Ciphertext:               05adfe4b599cf16494daff81017870e46973f7eab90a03ebbec30b6586f8c8c1188dc7b793edb1c9625dbcd1f5c59c76c2f0d6bb2267f6e9c54a1a80870a8a83
Reciphers for ciphertext: 0
Decipheredtext:           0000000200000000000000000000000000
RESULT CIPHER-DECIPHER: -----OK-----


Test: 23
Hash algorithm: 10
Crypto pad: 2
Symmetric key bit length: 256
IV bit length:            128
Plaintext bit length:     136
Symmetric key:            0000000000000000000000000000000000000100000000000000000000000000
IV:                       00000100000000000000000000000000
Plaintext:                0000000100000000000000000000000000
Ciphertext:               6b90a4c29e95c672206f4944e7f92ce921b7412cdf6d6cecbda1897ddef1c3f5ab04c2bd336c3327d45233538b63975b26fd0baca3de7b97e027098106b820ee73cf6f8a24aefba52e5a62d780a93d43
Reciphers for ciphertext: 0
Decipheredtext:           0000000100000000000000000000000000
RESULT CIPHER-DECIPHER: -----OK-----


Test: 24
Hash algorithm: 2
Crypto pad: 1
Symmetric key bit length: 256
IV bit length:            128
Plaintext bit length:     136
Symmetric key:            0000000000000000000000000000000000000080000000000000000000000000
IV:                       00000080000000000000000000000000
Plaintext:                0000000080000000000000000000000000
Ciphertext:               d05b022b7935799735d1ad0c916bc1625e930164a72897cd3576340c55bff4f69f2c01eed9b38151d63c60a83e1a2d6653ebd65cdaa8e717cdb2d63ef3c0021cf9fba69d0922f40eb8d21af7b987f7c1
Reciphers for ciphertext: 0
Decipheredtext:           0000000080000000000000000000000000
RESULT CIPHER-DECIPHER: -----OK-----


Test: 25
Hash algorithm: 3
Crypto pad: 2
Symmetric key bit length: 256
IV bit length:            128
Plaintext bit length:     136
Symmetric key:            0000000000000000000000000000000000000040000000000000000000000000
IV:                       00000040000000000000000000000000
Plaintext:                0000000040000000000000000000000000
Ciphertext:               b218833541c098c364e5fb2d259fc2380dae6be52272cb8404ef03b0667acfc7c6a747c60edb5ab930f3f7c7f5192d927a6e1c1b6e29fef0131556db27f44b329c968a2b58e3c0d332afb83901faa90b97bde13136d59b50a200a71d14bb4133
Reciphers for ciphertext: 0
Decipheredtext:           0000000040000000000000000000000000
RESULT CIPHER-DECIPHER: -----OK-----


Test: 26
Hash algorithm: 2
Crypto pad: 0
Symmetric key bit length: 256
IV bit length:            128
Plaintext bit length:     136
Symmetric key:            0000000000000000000000000000000000000020000000000000000000000000
IV:                       00000020000000000000000000000000
Plaintext:                0000000020000000000000000000000000
Ciphertext:               111bf816b38aaebc4d518f4e0ab11b021fc6b5fd7e861adcbb7412d5100b1c44da92435d3f1eb739784ba1c4a19f1c8bda281a76351e2df11edcfb4285b613c17ff66690d4a2410b55657265baadbb69
Reciphers for ciphertext: 0
Decipheredtext:           0000000020000000000000000000000000
RESULT CIPHER-DECIPHER: -----OK-----


Test: 27
Hash algorithm: 7
Crypto pad: 1
Symmetric key bit length: 256
IV bit length:            128
Plaintext bit length:     136
Symmetric key:            0000000000000000000000000000000000000010000000000000000000000000
IV:                       00000010000000000000000000000000
Plaintext:                0000000010000000000000000000000000
Ciphertext:               a0fafa3b45b73ca87f3ac721d89ddf394b6f4eca1126ced6bc5f9c52dbc869c409668f01c672e722bb0578e1485314d9890fd93e4d2f7549590880f7e703127a
Reciphers for ciphertext: 0
Decipheredtext:           0000000010000000000000000000000000
RESULT CIPHER-DECIPHER: -----OK-----


Test: 28
Hash algorithm: 3
Crypto pad: 0
Symmetric key bit length: 256
IV bit length:            128
Plaintext bit length:     136
Symmetric key:            0000000000000000000000000000000000000008000000000000000000000000
IV:                       00000008000000000000000000000000
Plaintext:                0000000008000000000000000000000000
Ciphertext:               22c460dcb18356591b84d55792b1de5d739263f3eab212ae9eb91f59fc5e6df745bd4813326af8b879a9601f4a053ab016e65c0c345604724d18fec24f67640c209924d5fc7e3e492ede443503cde2ec4de2fd54aa05072bc730c68d67a8ed84
Reciphers for ciphertext: 0
Decipheredtext:           0000000008000000000000000000000000
RESULT CIPHER-DECIPHER: -----OK-----


Test: 29
Hash algorithm: 6
Crypto pad: 1
Symmetric key bit length: 256
IV bit length:            128
Plaintext bit length:     136
Symmetric key:            0000000000000000000000000000000000000004000000000000000000000000
IV:                       00000004000000000000000000000000
Plaintext:                0000000004000000000000000000000000
Ciphertext:               289c23d376d2ed80fbca3c1021805a1137f2829db3455ab3bb89bcb610893071fb35d14fa216b12dd72bfb6873dd03fa0fcc3882bb3e2741b14210ab3a7a7775350ffc0cdbef154a8aab235afb458721
Reciphers for ciphertext: 0
Decipheredtext:           0000000004000000000000000000000000
RESULT CIPHER-DECIPHER: -----OK-----


Test: 30
Hash algorithm: 5
Crypto pad: 2
Symmetric key bit length: 256
IV bit length:            128
Plaintext bit length:     136
Symmetric key:            0000000000000000000000000000000000000002000000000000000000000000
IV:                       00000002000000000000000000000000
Plaintext:                0000000002000000000000000000000000
Ciphertext:               a66cf59ff534e92d84fb1160cf86c65c58c78d7f202c3542f099578f0a92fd35d0acfe596d7ffaf4fca21f91aa3c6270a0068cb092b673a51908d4663ee72471
Reciphers for ciphertext: 0
Decipheredtext:           0000000002000000000000000000000000
RESULT CIPHER-DECIPHER: -----OK-----


Test: 31
Hash algorithm: 11
Crypto pad: 2
Symmetric key bit length: 256
IV bit length:            128
Plaintext bit length:     136
Symmetric key:            0000000000000000000000000000000000000001000000000000000000000000
IV:                       00000001000000000000000000000000
Plaintext:                0000000001000000000000000000000000
Ciphertext:               0a4ddbf6ad3c4727bbc14b3297301d549c7cc6210947f4e7c3735823caaf50124cc12b0d85d9333ff77f7b67c87309f801fef239c1f49c77df738c2331e9ec7f
Reciphers for ciphertext: 0
Decipheredtext:           0000000001000000000000000000000000
RESULT CIPHER-DECIPHER: -----OK-----


Test: 32
Hash algorithm: 13
Crypto pad: 1
Symmetric key bit length: 256
IV bit length:            128
Plaintext bit length:     136
Symmetric key:            0000000000000000000000000000000000000000800000000000000000000000
IV:                       00000000800000000000000000000000
Plaintext:                0000000000800000000000000000000000
Ciphertext:               aa3aab1f1139629684b91b51cb4abf473c76ab28ef5d2bb122ea007d0bff8e5ca9962f690c7e96208725945887f0798b82c4724a431123d780c7363afe83ccad
Reciphers for ciphertext: 0
Decipheredtext:           0000000000800000000000000000000000
RESULT CIPHER-DECIPHER: -----OK-----


Test: 33
Hash algorithm: 13
Crypto pad: 1
Symmetric key bit length: 256
IV bit length:            128
Plaintext bit length:     136
Symmetric key:            0000000000000000000000000000000000000000400000000000000000000000
IV:                       00000000400000000000000000000000
Plaintext:                0000000000400000000000000000000000
Ciphertext:               8a91b070bd3be33bff298b8490338b2802c7de00d0b719e087048b64fbabea59bb9fcd4c7a366c325cfa165a212cdbf446cc520fc199d76751a07b9f6f4fb321
Reciphers for ciphertext: 0
Decipheredtext:           0000000000400000000000000000000000
RESULT CIPHER-DECIPHER: -----OK-----


Test: 34
Hash algorithm: 7
Crypto pad: 0
Symmetric key bit length: 256
IV bit length:            128
Plaintext bit length:     136
Symmetric key:            0000000000000000000000000000000000000000200000000000000000000000
IV:                       00000000200000000000000000000000
Plaintext:                0000000000200000000000000000000000
Ciphertext:               a7c029dd886b76a2e469525eafa6e448118d4895a268b219e547cb78f65344472586430c4483edfb3cb0ddc5204ab13f0c8993c4296455b620bff2f928ac9ecd
Reciphers for ciphertext: 0
Decipheredtext:           0000000000200000000000000000000000
RESULT CIPHER-DECIPHER: -----OK-----


Test: 35
Hash algorithm: 12
Crypto pad: 0
Symmetric key bit length: 256
IV bit length:            128
Plaintext bit length:     136
Symmetric key:            0000000000000000000000000000000000000000100000000000000000000000
IV:                       00000000100000000000000000000000
Plaintext:                0000000000100000000000000000000000
Ciphertext:               738fdeb40ccd3b89f25f7ba1b4a3fa77abe77e0fbf447b3fd8ad1d1c4f00bb9a9c39194d1ea99e2e0419a0df5cd04533f804f35979153043f34b89624a6d55ed
Reciphers for ciphertext: 0
Decipheredtext:           0000000000100000000000000000000000
RESULT CIPHER-DECIPHER: -----OK-----


Test: 36
Hash algorithm: 4
Crypto pad: 2
Symmetric key bit length: 256
IV bit length:            128
Plaintext bit length:     136
Symmetric key:            0000000000000000000000000000000000000000080000000000000000000000
IV:                       00000000080000000000000000000000
Plaintext:                0000000000080000000000000000000000
Ciphertext:               444148d6fcd171bc66e41c265cb39a48aad4a71f7fa298d69c7fbbe434b4aeeac3399139c787db4171fd8f65baa3500b2b52a0d957e93a647125b27c6b6049da61e56119bf1c523636bd621d1ca20bcd8d40dadcf64e5c1974ef2995326d1fb41303d6ce4ed5064cabcf5b2e2f5fd18f
Reciphers for ciphertext: 0
Decipheredtext:           0000000000080000000000000000000000
RESULT CIPHER-DECIPHER: -----OK-----


Test: 37
Hash algorithm: 5
Crypto pad: 2
Symmetric key bit length: 256
IV bit length:            128
Plaintext bit length:     136
Symmetric key:            0000000000000000000000000000000000000000040000000000000000000000
IV:                       00000000040000000000000000000000
Plaintext:                0000000000040000000000000000000000
Ciphertext:               85324b1495430cc760a9417a858dca5d9a70166b288b1cf281f8c68049f49b393c6af5f1c73418193dd6f79cb9ba9ed69092a18d37b686637a4f826267d4d92c
Reciphers for ciphertext: 0
Decipheredtext:           0000000000040000000000000000000000
RESULT CIPHER-DECIPHER: -----OK-----


Test: 38
Hash algorithm: 6
Crypto pad: 1
Symmetric key bit length: 256
IV bit length:            128
Plaintext bit length:     136
Symmetric key:            0000000000000000000000000000000000000000020000000000000000000000
IV:                       00000000020000000000000000000000
Plaintext:                0000000000020000000000000000000000
Ciphertext:               17f5f4783f1097a58cdd2b20e5ee51b80f70bd66c36bb04fc366030545769cd1ef35606ddea18dcfc143d9bec09970e8153b1fa6e76d81f8e836f8bc3b9f2f0734b4cee4068f9b27dee41df8b6a468ec
Reciphers for ciphertext: 0
Decipheredtext:           0000000000020000000000000000000000
RESULT CIPHER-DECIPHER: -----OK-----


Test: 39
Hash algorithm: 7
Crypto pad: 2
Symmetric key bit length: 256
IV bit length:            128
Plaintext bit length:     136
Symmetric key:            0000000000000000000000000000000000000000010000000000000000000000
IV:                       00000000010000000000000000000000
Plaintext:                0000000000010000000000000000000000
Ciphertext:               645077d50af60c38044ae71d88ee6a25cc125553255ab56ba451e9b7c091a1c26cbce720c7015ace0c436f62fe7ac40267e92aef1f6e3afe13c5baa179404ddc
Reciphers for ciphertext: 0
Decipheredtext:           0000000000010000000000000000000000
RESULT CIPHER-DECIPHER: -----OK-----


Test: 40
Hash algorithm: 1
Crypto pad: 2
Symmetric key bit length: 256
IV bit length:            128
Plaintext bit length:     136
Symmetric key:            0000000000000000000000000000000000000000008000000000000000000000
IV:                       00000000008000000000000000000000
Plaintext:                0000000000008000000000000000000000
Ciphertext:               9792a06e3055a8aebf6417748972be129c9290f3af6e311fd2556bdd976469920e80df7fd96e4aba9195b60f8251c8f2e3cc686c31ad21a7aa961350421d98f0
Reciphers for ciphertext: 0
Decipheredtext:           0000000000008000000000000000000000
RESULT CIPHER-DECIPHER: -----OK-----


Test: 41
Hash algorithm: 8
Crypto pad: 0
Symmetric key bit length: 256
IV bit length:            128
Plaintext bit length:     136
Symmetric key:            0000000000000000000000000000000000000000004000000000000000000000
IV:                       00000000004000000000000000000000
Plaintext:                0000000000004000000000000000000000
Ciphertext:               fac872cb5aade8477c2f495a3cf435438bb022f33e18b4e8a8b051c2569665ffdf52be60f6f49347fddf2ade3cd341bb98e3b56e58f92396ab9cce24f8d2b339
Reciphers for ciphertext: 0
Decipheredtext:           0000000000004000000000000000000000
RESULT CIPHER-DECIPHER: -----OK-----


Test: 42
Hash algorithm: 10
Crypto pad: 2
Symmetric key bit length: 256
IV bit length:            128
Plaintext bit length:     136
Symmetric key:            0000000000000000000000000000000000000000002000000000000000000000
IV:                       00000000002000000000000000000000
Plaintext:                0000000000002000000000000000000000
Ciphertext:               1ed6972c9adfdceaf0cd44b85b9ba7fe40c983a1e27387c972bea777bfbfdd64cd766de4b739cb0eeace34812b01f15023ba0a4f9dc2345340c0549ac33d9dfab4154a4c3bd7fc762439c22b26362b89
Reciphers for ciphertext: 0
Decipheredtext:           0000000000002000000000000000000000
RESULT CIPHER-DECIPHER: -----OK-----


Test: 43
Hash algorithm: 6
Crypto pad: 1
Symmetric key bit length: 256
IV bit length:            128
Plaintext bit length:     136
Symmetric key:            0000000000000000000000000000000000000000001000000000000000000000
IV:                       00000000001000000000000000000000
Plaintext:                0000000000001000000000000000000000
Ciphertext:               160ecf990f70e24e20679f5d92067dd6fa814577537e688c59f6025c6e2790eaa1d6a7c5132d6ff0353681d6e14621d907094850777b7380cb4bdd2cc262a702a8f263a53e8fa5534e78e00929151af9
Reciphers for ciphertext: 0
Decipheredtext:           0000000000001000000000000000000000
RESULT CIPHER-DECIPHER: -----OK-----


Test: 44
Hash algorithm: 6
Crypto pad: 0
Symmetric key bit length: 256
IV bit length:            128
Plaintext bit length:     136
Symmetric key:            0000000000000000000000000000000000000000000800000000000000000000
IV:                       00000000000800000000000000000000
Plaintext:                0000000000000800000000000000000000
Ciphertext:               ccaead39e40c5ed8ca8abf15ce1e186e9efaa2bf848973bf95da5889895c7b51155d038787969efcfa699c6c4203e86ec2b8b1d3b29b2cc584bf0c20d90f50047f5b69fe9f98b7d59edbcbe0d72f6894
Reciphers for ciphertext: 0
Decipheredtext:           0000000000000800000000000000000000
RESULT CIPHER-DECIPHER: -----OK-----


Test: 45
Hash algorithm: 10
Crypto pad: 0
Symmetric key bit length: 256
IV bit length:            128
Plaintext bit length:     136
Symmetric key:            0000000000000000000000000000000000000000000400000000000000000000
IV:                       00000000000400000000000000000000
Plaintext:                0000000000000400000000000000000000
Ciphertext:               b4e7c419192035d2a27b712ff635b4f1d7b6c167edacc518c0ca3e57f72eaf55c3c6ee68137affbcf9c53554fa863d9f2d5daac3c8cc30e70dc4b21fd00640ca7748860be5d96d1779ee8f67d7037267
Reciphers for ciphertext: 0
Decipheredtext:           0000000000000400000000000000000000
RESULT CIPHER-DECIPHER: -----OK-----


Test: 46
Hash algorithm: 7
Crypto pad: 1
Symmetric key bit length: 256
IV bit length:            128
Plaintext bit length:     136
Symmetric key:            0000000000000000000000000000000000000000000200000000000000000000
IV:                       00000000000200000000000000000000
Plaintext:                0000000000000200000000000000000000
Ciphertext:               0f3c8bc618f9e3ed5afcdb5cfb593b621e1f35e062154f3f3812cfa71052b3c8e85fda5b11c2bc52c92da2ff6cc1d7ac39e6968c67b41ac0c04b2b1aa6470311
Reciphers for ciphertext: 0
Decipheredtext:           0000000000000200000000000000000000
RESULT CIPHER-DECIPHER: -----OK-----


Test: 47
Hash algorithm: 13
Crypto pad: 1
Symmetric key bit length: 256
IV bit length:            128
Plaintext bit length:     136
Symmetric key:            0000000000000000000000000000000000000000000100000000000000000000
IV:                       00000000000100000000000000000000
Plaintext:                0000000000000100000000000000000000
Ciphertext:               626d057e4baf510263f1293d15c59f06586c8360c0606f972fbb50291d26964252653c5ac8c00bc7fd810575e914baf2fcf92a39b82137456544484ea371d9e1
Reciphers for ciphertext: 0
Decipheredtext:           0000000000000100000000000000000000
RESULT CIPHER-DECIPHER: -----OK-----


Test: 48
Hash algorithm: 2
Crypto pad: 0
Symmetric key bit length: 256
IV bit length:            128
Plaintext bit length:     136
Symmetric key:            0000000000000000000000000000000000000000000080000000000000000000
IV:                       00000000000080000000000000000000
Plaintext:                0000000000000080000000000000000000
Ciphertext:               e14ae1283810fb627d730b9425d41939a224b71fcb390822b2f24b817ac25fb49f30fdf842ea545df771f485d217069a45c6a9b2c22c174018a85dc6a92695a72921d896564e80ac03cc747325b3f5e0
Reciphers for ciphertext: 0
Decipheredtext:           0000000000000080000000000000000000
RESULT CIPHER-DECIPHER: -----OK-----


Test: 49
Hash algorithm: 7
Crypto pad: 2
Symmetric key bit length: 256
IV bit length:            128
Plaintext bit length:     136
Symmetric key:            0000000000000000000000000000000000000000000040000000000000000000
IV:                       00000000000040000000000000000000
Plaintext:                0000000000000040000000000000000000
Ciphertext:               e8371c01a1ddf5910ebb12a8c0f7da6cc4e85339b0b6a350b996b6b44fd872e01a608a95d74e2d3a88178a5fb5428c05de91e54210af66f0990b302b1f65a481
Reciphers for ciphertext: 0
Decipheredtext:           0000000000000040000000000000000000
RESULT CIPHER-DECIPHER: -----OK-----


Test: 50
Hash algorithm: 8
Crypto pad: 0
Symmetric key bit length: 256
IV bit length:            128
Plaintext bit length:     136
Symmetric key:            0000000000000000000000000000000000000000000020000000000000000000
IV:                       00000000000020000000000000000000
Plaintext:                0000000000000020000000000000000000
Ciphertext:               84ec7e144743b4c1a510ecc1801e4e6b7e73d47eb665ea6ece29814fa3d1cb5ecc1a03903b7ccde1600d5eaa2f972de20b96e7481c5961f11809ed7d863bce5f
Reciphers for ciphertext: 0
Decipheredtext:           0000000000000020000000000000000000
RESULT CIPHER-DECIPHER: -----OK-----


Test: 51
Hash algorithm: 2
Crypto pad: 1
Symmetric key bit length: 256
IV bit length:            128
Plaintext bit length:     136
Symmetric key:            0000000000000000000000000000000000000000000010000000000000000000
IV:                       00000000000010000000000000000000
Plaintext:                0000000000000010000000000000000000
Ciphertext:               19967d57bf5b06a6c0721a87b48ef906fb3301ccb5df231273e357e989e6ed1354d7cf3e82faa91435d276a353112f4bfa1748740a8617039e5f540ba8873d87a93cb97ebd9f8c39f1861af465c54f86
Reciphers for ciphertext: 0
Decipheredtext:           0000000000000010000000000000000000
RESULT CIPHER-DECIPHER: -----OK-----


Test: 52
Hash algorithm: 6
Crypto pad: 2
Symmetric key bit length: 256
IV bit length:            128
Plaintext bit length:     136
Symmetric key:            0000000000000000000000000000000000000000000008000000000000000000
IV:                       00000000000008000000000000000000
Plaintext:                0000000000000008000000000000000000
Ciphertext:               621d32e0dc58bc015f7e63498898718e020653ab04dd1c8d4b57dc2285436017d10dde04fb3ebabfda943b138456803001d8c059c0715af3945f98e28a7f69a85d180e9a9bc36ef4c60c523010bc902e
Reciphers for ciphertext: 0
Decipheredtext:           0000000000000008000000000000000000
RESULT CIPHER-DECIPHER: -----OK-----


Test: 53
Hash algorithm: 2
Crypto pad: 1
Symmetric key bit length: 256
IV bit length:            128
Plaintext bit length:     136
Symmetric key:            0000000000000000000000000000000000000000000004000000000000000000
IV:                       00000000000004000000000000000000
Plaintext:                0000000000000004000000000000000000
Ciphertext:               e2a589ddb3333081d609270ef37af01a74b31cc7f3632ab1739c45c7d248d1a3de44c616a4080efc2ece7e6f73d0863d24eff0481b83c0734538479dc03c8aacef97758e63cc379a51550f15cdd5f59a
Reciphers for ciphertext: 0
Decipheredtext:           0000000000000004000000000000000000
RESULT CIPHER-DECIPHER: -----OK-----


Test: 54
Hash algorithm: 11
Crypto pad: 0
Symmetric key bit length: 256
IV bit length:            128
Plaintext bit length:     136
Symmetric key:            0000000000000000000000000000000000000000000002000000000000000000
IV:                       00000000000002000000000000000000
Plaintext:                0000000000000002000000000000000000
Ciphertext:               049069a318763f3035b5b5f316b3eb6a300c3ed62f9dc52398fca1d872564d70f547362bc9539defaadf535c2532c2ddeb6e0664dd9478074e5191ff1206638b
Reciphers for ciphertext: 0
Decipheredtext:           0000000000000002000000000000000000
RESULT CIPHER-DECIPHER: -----OK-----


Test: 55
Hash algorithm: 2
Crypto pad: 0
Symmetric key bit length: 256
IV bit length:            128
Plaintext bit length:     136
Symmetric key:            0000000000000000000000000000000000000000000001000000000000000000
IV:                       00000000000001000000000000000000
Plaintext:                0000000000000001000000000000000000
Ciphertext:               09587e7815108f7e685ae82ae6d5e69537624cee4144cb71c0c2f5b9257f2258ce7d4c8e98211fd3ea8062ba6517e4c83df44caadb4d632cfac6a5249ab3720109834907f5d5be834ddb48e664645814
Reciphers for ciphertext: 0
Decipheredtext:           0000000000000001000000000000000000
RESULT CIPHER-DECIPHER: -----OK-----


Test: 56
Hash algorithm: 11
Crypto pad: 1
Symmetric key bit length: 256
IV bit length:            128
Plaintext bit length:     136
Symmetric key:            0000000000000000000000000000000000000000000000800000000000000000
IV:                       00000000000000800000000000000000
Plaintext:                0000000000000000800000000000000000
Ciphertext:               fe87a5bc7c1e2e575dd09155fd0c0acac4ceadf5422a3e8c8b7d2d2c06e52c5581389caa02f1f245632aea9041a77d482c8eb6279268e14fd716be3648e033bb
Reciphers for ciphertext: 0
Decipheredtext:           0000000000000000800000000000000000
RESULT CIPHER-DECIPHER: -----OK-----


Test: 57
Hash algorithm: 2
Crypto pad: 2
Symmetric key bit length: 256
IV bit length:            128
Plaintext bit length:     136
Symmetric key:            0000000000000000000000000000000000000000000000400000000000000000
IV:                       00000000000000400000000000000000
Plaintext:                0000000000000000400000000000000000
Ciphertext:               12ec95590d43059d8ab8864121fabae585c1204f8e3e13720c7c798a8b4472eae45703232b0669e6fce14e7127c87ed16db5ebd087c244ea3b194ac1041795f2553d2b81176c0255cdd70a9b24d22a31
Reciphers for ciphertext: 0
Decipheredtext:           0000000000000000400000000000000000
RESULT CIPHER-DECIPHER: -----OK-----


Test: 58
Hash algorithm: 12
Crypto pad: 0
Symmetric key bit length: 256
IV bit length:            128
Plaintext bit length:     136
Symmetric key:            0000000000000000000000000000000000000000000000200000000000000000
IV:                       00000000000000200000000000000000
Plaintext:                0000000000000000200000000000000000
Ciphertext:               96b9970c50cf1095cf8a2d1c36edbf6434f8b1131fa1a2404f61a613eb98edae5349d892d2bcedf3b976413623d8d177c146d5232a325a78621c7bb9103cd9ff
Reciphers for ciphertext: 0
Decipheredtext:           0000000000000000200000000000000000
RESULT CIPHER-DECIPHER: -----OK-----


Test: 59
Hash algorithm: 2
Crypto pad: 1
Symmetric key bit length: 256
IV bit length:            128
Plaintext bit length:     136
Symmetric key:            0000000000000000000000000000000000000000000000100000000000000000
IV:                       00000000000000100000000000000000
Plaintext:                0000000000000000100000000000000000
Ciphertext:               ed739466abb7493f68a69a6e75bcbc1761cbc35f9708459ea497cea5e4fc14e8444f6071975bfb12512b3b42906762747b04f725638183ccd698e682f505c14fa0534d583d13bcd5f8e236a218bed504
Reciphers for ciphertext: 0
Decipheredtext:           0000000000000000100000000000000000
RESULT CIPHER-DECIPHER: -----OK-----


Test: 60
Hash algorithm: 7
Crypto pad: 1
Symmetric key bit length: 256
IV bit length:            128
Plaintext bit length:     136
Symmetric key:            0000000000000000000000000000000000000000000000080000000000000000
IV:                       00000000000000080000000000000000
Plaintext:                0000000000000000080000000000000000
Ciphertext:               21c276353dab90ec031db515e76a43effaf8b002951b40451df2649b4ed41fbb2fe62d85f24e7597b9188ac17916586c5cf807d8791c35db6b7e994a19fd73cd
Reciphers for ciphertext: 0
Decipheredtext:           0000000000000000080000000000000000
RESULT CIPHER-DECIPHER: -----OK-----


Test: 61
Hash algorithm: 8
Crypto pad: 0
Symmetric key bit length: 256
IV bit length:            128
Plaintext bit length:     136
Symmetric key:            0000000000000000000000000000000000000000000000040000000000000000
IV:                       00000000000000040000000000000000
Plaintext:                0000000000000000040000000000000000
Ciphertext:               fac8226d7476ae62fd4fa0549b60fa96b387a5acc2a8b28a994df614a0e645e6e16fe31772791eaaaddc65453b035a4a0ad638055b092527dfcd558c21d40a53
Reciphers for ciphertext: 0
Decipheredtext:           0000000000000000040000000000000000
RESULT CIPHER-DECIPHER: -----OK-----


Test: 62
Hash algorithm: 2
Crypto pad: 0
Symmetric key bit length: 256
IV bit length:            128
Plaintext bit length:     136
Symmetric key:            0000000000000000000000000000000000000000000000020000000000000000
IV:                       00000000000000020000000000000000
Plaintext:                0000000000000000020000000000000000
Ciphertext:               6779f35b78801e50e4f12b9013f7365cb9ed60a2ac8b02eee4797b431875685b980a52614e5f2d0f9f338915d3056a6e3fa46152be765650880b7e11bc96802267c712a18440a7960157e7c94c0a4dce
Reciphers for ciphertext: 0
Decipheredtext:           0000000000000000020000000000000000
RESULT CIPHER-DECIPHER: -----OK-----


Test: 63
Hash algorithm: 5
Crypto pad: 1
Symmetric key bit length: 256
IV bit length:            128
Plaintext bit length:     136
Symmetric key:            0000000000000000000000000000000000000000000000010000000000000000
IV:                       00000000000000010000000000000000
Plaintext:                0000000000000000010000000000000000
Ciphertext:               8d2890f0ec03107f20473406ef110f0132a3800d36f42c502a6c734391a1685c9d0f8dc5a5adc8bb454efacb77f7ad19b5f8b614748cd3934f34dd1156bc6763
Reciphers for ciphertext: 0
Decipheredtext:           0000000000000000010000000000000000
RESULT CIPHER-DECIPHER: -----OK-----


Test: 64
Hash algorithm: 8
Crypto pad: 1
Symmetric key bit length: 256
IV bit length:            128
Plaintext bit length:     136
Symmetric key:            0000000000000000000000000000000000000000000000008000000000000000
IV:                       00000000000000008000000000000000
Plaintext:                0000000000000000008000000000000000
Ciphertext:               fdaffe80d0464ac21ece62e356b1934f3d739113d6eff8a3bd32bf973b223caa79745325e80313c182d492bba504f86b60646776efb8640c4c02ae8fea2e4fd7
Reciphers for ciphertext: 0
Decipheredtext:           0000000000000000008000000000000000
RESULT CIPHER-DECIPHER: -----OK-----


Test: 65
Hash algorithm: 1
Crypto pad: 1
Symmetric key bit length: 256
IV bit length:            128
Plaintext bit length:     136
Symmetric key:            0000000000000000000000000000000000000000000000004000000000000000
IV:                       00000000000000004000000000000000
Plaintext:                0000000000000000004000000000000000
Ciphertext:               7d3c44bb1b37b7c7340e885fad81ff307e13206e20be74b2e606d7e931cd1cb87399e7483441da77198fbe17b9419ff27e1dc30152347a99f2b43b6666b87de0
Reciphers for ciphertext: 0
Decipheredtext:           0000000000000000004000000000000000
RESULT CIPHER-DECIPHER: -----OK-----


Test: 66
Hash algorithm: 4
Crypto pad: 1
Symmetric key bit length: 256
IV bit length:            128
Plaintext bit length:     136
Symmetric key:            0000000000000000000000000000000000000000000000002000000000000000
IV:                       00000000000000002000000000000000
Plaintext:                0000000000000000002000000000000000
Ciphertext:               c43247b78fa5ce6191eebfd6f15498130ba304d184a1a9098ca860587e1e5b046ce9c71600d239d3593ba88a472926b2e000c5c242736dca4b23b338250193067825b7d83c55aab25b0677f421694b6522fe6f591e341db6059fcd3252859adaeb0876e0b7b1789a5b20ae63769dfecb
Reciphers for ciphertext: 0
Decipheredtext:           0000000000000000002000000000000000
RESULT CIPHER-DECIPHER: -----OK-----


Test: 67
Hash algorithm: 8
Crypto pad: 1
Symmetric key bit length: 256
IV bit length:            128
Plaintext bit length:     136
Symmetric key:            0000000000000000000000000000000000000000000000001000000000000000
IV:                       00000000000000001000000000000000
Plaintext:                0000000000000000001000000000000000
Ciphertext:               47fcabf39031a239f8abcb5efefbf7fd78d3cf617139005b660f99edd6dd3794e8dcff83978f7885c2467b3b3d03ebff3887ea49a2f21b7cd575266cb2249673
Reciphers for ciphertext: 0
Decipheredtext:           0000000000000000001000000000000000
RESULT CIPHER-DECIPHER: -----OK-----


Test: 68
Hash algorithm: 6
Crypto pad: 2
Symmetric key bit length: 256
IV bit length:            128
Plaintext bit length:     136
Symmetric key:            0000000000000000000000000000000000000000000000000800000000000000
IV:                       00000000000000000800000000000000
Plaintext:                0000000000000000000800000000000000
Ciphertext:               afb78eb867b46ba4067481eb249acc436f7c8f1c0200326f5a624cac8d0c24dd065faa7f588a3002ef62f120c65661379f8c8dcfc48f402b78bea9c1df6c1eff60f3739da5145f91286a30dccbda22f1
Reciphers for ciphertext: 0
Decipheredtext:           0000000000000000000800000000000000
RESULT CIPHER-DECIPHER: -----OK-----


Test: 69
Hash algorithm: 2
Crypto pad: 2
Symmetric key bit length: 256
IV bit length:            128
Plaintext bit length:     136
Symmetric key:            0000000000000000000000000000000000000000000000000400000000000000
IV:                       00000000000000000400000000000000
Plaintext:                0000000000000000000400000000000000
Ciphertext:               0b433566de3d3f76563add39d95cefff4c6625b849f9d2ff74d91d25fa2f0d92d2c841d8c97e68933f86940163670ab68ca209dd354f7c1b5feac93b7f2654986307a3225787ade9f34eab0473280c70
Reciphers for ciphertext: 0
Decipheredtext:           0000000000000000000400000000000000
RESULT CIPHER-DECIPHER: -----OK-----


Test: 70
Hash algorithm: 8
Crypto pad: 2
Symmetric key bit length: 256
IV bit length:            128
Plaintext bit length:     136
Symmetric key:            0000000000000000000000000000000000000000000000000200000000000000
IV:                       00000000000000000200000000000000
Plaintext:                0000000000000000000200000000000000
Ciphertext:               2b6a1139cbc267360e6ebff9326e04c7ba6402f7b6c419dc3637a6083e90db226be000033cc34c675e6384611cec4cd5553d4db3b362b4b3d814ef885e23226a
Reciphers for ciphertext: 0
Decipheredtext:           0000000000000000000200000000000000
RESULT CIPHER-DECIPHER: -----OK-----


Test: 71
Hash algorithm: 1
Crypto pad: 2
Symmetric key bit length: 256
IV bit length:            128
Plaintext bit length:     136
Symmetric key:            0000000000000000000000000000000000000000000000000100000000000000
IV:                       00000000000000000100000000000000
Plaintext:                0000000000000000000100000000000000
Ciphertext:               a22998192b33dd304f94a63980d4e9ea95d3b0ee4d4e91884b175921178c5f324786a1a836f7836dc51b7023a95d252f12a0e8725c5c850e546ca358da2b53e3
Reciphers for ciphertext: 1
Decipheredtext:           0000000000000000000100000000000000
RESULT CIPHER-DECIPHER: -----OK-----


Test: 72
Hash algorithm: 12
Crypto pad: 1
Symmetric key bit length: 256
IV bit length:            128
Plaintext bit length:     136
Symmetric key:            0000000000000000000000000000000000000000000000000080000000000000
IV:                       00000000000000000080000000000000
Plaintext:                0000000000000000000080000000000000
Ciphertext:               dc1de3d9b328de2127150e152b17c1778697b88b3518fcc491977c62d29e5421918fb5315140e6d8d6d26172b1e81c52e703eb9f20442464fc1d000599d69e52
Reciphers for ciphertext: 0
Decipheredtext:           0000000000000000000080000000000000
RESULT CIPHER-DECIPHER: -----OK-----


Test: 73
Hash algorithm: 5
Crypto pad: 1
Symmetric key bit length: 256
IV bit length:            128
Plaintext bit length:     136
Symmetric key:            0000000000000000000000000000000000000000000000000040000000000000
IV:                       00000000000000000040000000000000
Plaintext:                0000000000000000000040000000000000
Ciphertext:               8f593d552a3bb10f05a2de7d8e76f6703b1d333902e3feb1efe542b523e7d46c11dd1c20d0f1f675e74a82efe4c07cfea3b70fce76f08cd2639462c11ada4ecb
Reciphers for ciphertext: 0
Decipheredtext:           0000000000000000000040000000000000
RESULT CIPHER-DECIPHER: -----OK-----


Test: 74
Hash algorithm: 3
Crypto pad: 0
Symmetric key bit length: 256
IV bit length:            128
Plaintext bit length:     136
Symmetric key:            0000000000000000000000000000000000000000000000000020000000000000
IV:                       00000000000000000020000000000000
Plaintext:                0000000000000000000020000000000000
Ciphertext:               d8a9fd8998b72163a24dc1888f88a497d0d36eaa64e3507ad5c365238b4b8cf3cda51c538d9690ddf2e7152390898b79b4730115d751dd143ac61c38a1c86ce0890461e15601c7fa2d178c53e5552ea5ae9050228955098500f56c31a3ffdf7c
Reciphers for ciphertext: 0
Decipheredtext:           0000000000000000000020000000000000
RESULT CIPHER-DECIPHER: -----OK-----


Test: 75
Hash algorithm: 8
Crypto pad: 0
Symmetric key bit length: 256
IV bit length:            128
Plaintext bit length:     136
Symmetric key:            0000000000000000000000000000000000000000000000000010000000000000
IV:                       00000000000000000010000000000000
Plaintext:                0000000000000000000010000000000000
Ciphertext:               b1b151e94b250e155179debd5af1256e65eb1a44a52706766bbcaeba746f900567abb01bb04e8e0f439cc7405a77590f8a9299c74edbde7f3fa63519343b0b90
Reciphers for ciphertext: 0
Decipheredtext:           0000000000000000000010000000000000
RESULT CIPHER-DECIPHER: -----OK-----


Test: 76
Hash algorithm: 1
Crypto pad: 2
Symmetric key bit length: 256
IV bit length:            128
Plaintext bit length:     136
Symmetric key:            0000000000000000000000000000000000000000000000000008000000000000
IV:                       00000000000000000008000000000000
Plaintext:                0000000000000000000008000000000000
Ciphertext:               02a9e54cfb20042d445d02545d81843593f625b932a0ece83d59590d135a42590276453cbf8b642f5eda4767cc7c0a57344f94681f1bd4c27650b99c4e52edbf
Reciphers for ciphertext: 0
Decipheredtext:           0000000000000000000008000000000000
RESULT CIPHER-DECIPHER: -----OK-----


Test: 77
Hash algorithm: 4
Crypto pad: 2
Symmetric key bit length: 256
IV bit length:            128
Plaintext bit length:     136
Symmetric key:            0000000000000000000000000000000000000000000000000004000000000000
IV:                       00000000000000000004000000000000
Plaintext:                0000000000000000000004000000000000
Ciphertext:               8eb01260ac290fe44628de78131e18eec59111baafdfd6f0b56fc9609a768d4aef09a3868d1fb70d4fe21679dbb56b7314a421a27111a05707c71a19bf4f3bb77edc4243f12081064d9516e147107f48669250cf4aa7c81b6daec48a7fc22bd595d5099b7bb9be5bc42c441bffc113ae
Reciphers for ciphertext: 0
Decipheredtext:           0000000000000000000004000000000000
RESULT CIPHER-DECIPHER: -----OK-----


Test: 78
Hash algorithm: 10
Crypto pad: 1
Symmetric key bit length: 256
IV bit length:            128
Plaintext bit length:     136
Symmetric key:            0000000000000000000000000000000000000000000000000002000000000000
IV:                       00000000000000000002000000000000
Plaintext:                0000000000000000000002000000000000
Ciphertext:               d89d806e75e62618acef4820e53cf0c0a88bf3c31cac275d8e2428b2a33503058dd3a6c250e5d6d21db41a4aa51dc5687978fccbedd2cbf86e7cc16678582e3d50cc8d41fd146cac21ad6bc63d5b59c8
Reciphers for ciphertext: 0
Decipheredtext:           0000000000000000000002000000000000
RESULT CIPHER-DECIPHER: -----OK-----


Test: 79
Hash algorithm: 5
Crypto pad: 0
Symmetric key bit length: 256
IV bit length:            128
Plaintext bit length:     136
Symmetric key:            0000000000000000000000000000000000000000000000000001000000000000
IV:                       00000000000000000001000000000000
Plaintext:                0000000000000000000001000000000000
Ciphertext:               66b8ea972abff454a752dad9fd6f52603d1216ca6c9f799a0289d06d2b2cd9ae4c9535b959ee4a4c9edd5232dd1ccc30b83f3d64a48da577a522864f6a0e605e
Reciphers for ciphertext: 0
Decipheredtext:           0000000000000000000001000000000000
RESULT CIPHER-DECIPHER: -----OK-----


Test: 80
Hash algorithm: 9
Crypto pad: 0
Symmetric key bit length: 256
IV bit length:            128
Plaintext bit length:     136
Symmetric key:            0000000000000000000000000000000000000000000000000000800000000000
IV:                       00000000000000000000800000000000
Plaintext:                0000000000000000000000800000000000
Ciphertext:               b00e11b37dbf1959cf085b47848005bf685170ee41bc3ad71dc4f85d1ba38a89d84e3fa188f8d0ced6d2d8a7755799ccbdc25e9847644c089d57d3efdcdeac362f29f2811468836eaab6901384166446
Reciphers for ciphertext: 0
Decipheredtext:           0000000000000000000000800000000000
RESULT CIPHER-DECIPHER: -----OK-----


Test: 81
Hash algorithm: 9
Crypto pad: 1
Symmetric key bit length: 256
IV bit length:            128
Plaintext bit length:     136
Symmetric key:            0000000000000000000000000000000000000000000000000000400000000000
IV:                       00000000000000000000400000000000
Plaintext:                0000000000000000000000400000000000
Ciphertext:               378f84510e1bc7eccfd7ee3d667486de2de310c06942a893e2bb118318808505c47dcf5070281ca870d0a9bff2c806565172d948679b5ef4ee81b0ff741fa9f9206cc63f9f0b79dc2ada9412b51b0fac
Reciphers for ciphertext: 0
Decipheredtext:           0000000000000000000000400000000000
RESULT CIPHER-DECIPHER: -----OK-----


Test: 82
Hash algorithm: 4
Crypto pad: 0
Symmetric key bit length: 256
IV bit length:            128
Plaintext bit length:     136
Symmetric key:            0000000000000000000000000000000000000000000000000000200000000000
IV:                       00000000000000000000200000000000
Plaintext:                0000000000000000000000200000000000
Ciphertext:               1ea26f4e53a32c1b0e1805904d100b25a840a7d7e716458a01d3f31467a1c55e74b1aa9444cf9e3f9001fe85fa681e8c7d643d50d26d57ad98348a061135c8d74a7423fc36e8298d941cd701b07f2340f5ac606dbf61d940e3cc9f49f399cfbfe41592f87c01b01f19a7abbe8052b113
Reciphers for ciphertext: 0
Decipheredtext:           0000000000000000000000200000000000
RESULT CIPHER-DECIPHER: -----OK-----


Test: 83
Hash algorithm: 4
Crypto pad: 2
Symmetric key bit length: 256
IV bit length:            128
Plaintext bit length:     136
Symmetric key:            0000000000000000000000000000000000000000000000000000100000000000
IV:                       00000000000000000000100000000000
Plaintext:                0000000000000000000000100000000000
Ciphertext:               e79965169dd921ea7c2bb4e9bdc33bc8f4386b56bf8edbfcda14be7c40475b1f8f425b533aecec5643488cb034356e557149ba0a82afbb28a8ee4b19aecb3b53233dbad38d2b5d3b36b9a80a6fe9f48789a7648d3c5bf2240e0d87616ab46807693626f814a78b2dc4dd79b9bd53ce48
Reciphers for ciphertext: 0
Decipheredtext:           0000000000000000000000100000000000
RESULT CIPHER-DECIPHER: -----OK-----


Test: 84
Hash algorithm: 11
Crypto pad: 0
Symmetric key bit length: 256
IV bit length:            128
Plaintext bit length:     136
Symmetric key:            0000000000000000000000000000000000000000000000000000080000000000
IV:                       00000000000000000000080000000000
Plaintext:                0000000000000000000000080000000000
Ciphertext:               db817363826e599f375826022598ccdcd7786db3067f83b6fd5b678714ed412ed223fd37451d3b50b9efb12fc40e34d81db0b966a039d7d981411b72739abd1f
Reciphers for ciphertext: 0
Decipheredtext:           0000000000000000000000080000000000
RESULT CIPHER-DECIPHER: -----OK-----


Test: 85
Hash algorithm: 13
Crypto pad: 1
Symmetric key bit length: 256
IV bit length:            128
Plaintext bit length:     136
Symmetric key:            0000000000000000000000000000000000000000000000000000040000000000
IV:                       00000000000000000000040000000000
Plaintext:                0000000000000000000000040000000000
Ciphertext:               d5a89725660037c4695e568cfc3c11d25ce74da236ac95a80795ab71a518d93fd349cd6ac19f5746e4fc915866c193757c49c32b3933868eda4802adf322be2a
Reciphers for ciphertext: 0
Decipheredtext:           0000000000000000000000040000000000
RESULT CIPHER-DECIPHER: -----OK-----


Test: 86
Hash algorithm: 2
Crypto pad: 0
Symmetric key bit length: 256
IV bit length:            128
Plaintext bit length:     136
Symmetric key:            0000000000000000000000000000000000000000000000000000020000000000
IV:                       00000000000000000000020000000000
Plaintext:                0000000000000000000000020000000000
Ciphertext:               07ba771bdb9b83a88fa5ac5b570b0e5cbbfa6b0b0d72843b8a59f4b56daff44c6ab378a3ca424880e00253e68e1d1d98a1b368aa038273029baf327be0720ea107e897f5e61200370313aaa49183f14c
Reciphers for ciphertext: 0
Decipheredtext:           0000000000000000000000020000000000
RESULT CIPHER-DECIPHER: -----OK-----


Test: 87
Hash algorithm: 12
Crypto pad: 1
Symmetric key bit length: 256
IV bit length:            128
Plaintext bit length:     136
Symmetric key:            0000000000000000000000000000000000000000000000000000010000000000
IV:                       00000000000000000000010000000000
Plaintext:                0000000000000000000000010000000000
Ciphertext:               6c053c84cb4dc13740299ccb499a72c662b88aede407f5205cf4abdd4e68110b2905bd58756e9b3e5a010c2a2fa7d74fb0d646c1ce8390d9e96e0e9ccfa0b5a1
Reciphers for ciphertext: 0
Decipheredtext:           0000000000000000000000010000000000
RESULT CIPHER-DECIPHER: -----OK-----


Test: 88
Hash algorithm: 9
Crypto pad: 0
Symmetric key bit length: 256
IV bit length:            128
Plaintext bit length:     136
Symmetric key:            0000000000000000000000000000000000000000000000000000008000000000
IV:                       00000000000000000000008000000000
Plaintext:                0000000000000000000000008000000000
Ciphertext:               187a049bcca995d66b7ae06021e4f645d73b90db6efa81c1e5041009b37b8e22d39f3f5f2251c6e1840c8aa16cf175abb458e6e66635980b073df5af700d9781b1bde972768d91cef521ff240f115c72
Reciphers for ciphertext: 0
Decipheredtext:           0000000000000000000000008000000000
RESULT CIPHER-DECIPHER: -----OK-----


Test: 89
Hash algorithm: 5
Crypto pad: 0
Symmetric key bit length: 256
IV bit length:            128
Plaintext bit length:     136
Symmetric key:            0000000000000000000000000000000000000000000000000000004000000000
IV:                       00000000000000000000004000000000
Plaintext:                0000000000000000000000004000000000
Ciphertext:               2f5b2e1f628d7e10951cfa4621732fae65147beee2e4bbfa4db0b0d57fbfc2c040ac4120bd86aefa7bb4a2494695492c9bbf123f2c59f721f4715dcb02b84ddc
Reciphers for ciphertext: 0
Decipheredtext:           0000000000000000000000004000000000
RESULT CIPHER-DECIPHER: -----OK-----


Test: 90
Hash algorithm: 12
Crypto pad: 0
Symmetric key bit length: 256
IV bit length:            128
Plaintext bit length:     136
Symmetric key:            0000000000000000000000000000000000000000000000000000002000000000
IV:                       00000000000000000000002000000000
Plaintext:                0000000000000000000000002000000000
Ciphertext:               64f56cc0604e75013e8e6a212119c243afd2a16de3f470af79044d061e69ec994bda3e35aa39d4188b968815dfeecb7fab647968325597a0d56f6c5e3ef1fcda
Reciphers for ciphertext: 0
Decipheredtext:           0000000000000000000000002000000000
RESULT CIPHER-DECIPHER: -----OK-----


Test: 91
Hash algorithm: 8
Crypto pad: 0
Symmetric key bit length: 256
IV bit length:            128
Plaintext bit length:     136
Symmetric key:            0000000000000000000000000000000000000000000000000000001000000000
IV:                       00000000000000000000001000000000
Plaintext:                0000000000000000000000001000000000
Ciphertext:               10ce6ee1fef2d76ffde6e88024ef83e1f1ea0a2e265aaf7ce40127d2af3648d5da5b6ef190530022ad1bf37511073ddfe130582c049d9a665b7df239ab65010f
Reciphers for ciphertext: 0
Decipheredtext:           0000000000000000000000001000000000
RESULT CIPHER-DECIPHER: -----OK-----


Test: 92
Hash algorithm: 7
Crypto pad: 2
Symmetric key bit length: 256
IV bit length:            128
Plaintext bit length:     136
Symmetric key:            0000000000000000000000000000000000000000000000000000000800000000
IV:                       00000000000000000000000800000000
Plaintext:                0000000000000000000000000800000000
Ciphertext:               f351293c782dd349649c67e99c43a3ecab755cde5e998df681133627a3cef304536e15f5dbbb1d296ea83e507bb3382180db9373a6c4d5f6e594d19807927765
Reciphers for ciphertext: 0
Decipheredtext:           0000000000000000000000000800000000
RESULT CIPHER-DECIPHER: -----OK-----


Test: 93
Hash algorithm: 13
Crypto pad: 0
Symmetric key bit length: 256
IV bit length:            128
Plaintext bit length:     136
Symmetric key:            0000000000000000000000000000000000000000000000000000000400000000
IV:                       00000000000000000000000400000000
Plaintext:                0000000000000000000000000400000000
Ciphertext:               d8166cbfead36befa1af3d61ba0176cbf260197b9b3516cb7ea70dace8c4eaf68a0a5d7f55c8e48e1a72f57526078fb9482136e8f811c2f9527f55659e98a9ff
Reciphers for ciphertext: 0
Decipheredtext:           0000000000000000000000000400000000
RESULT CIPHER-DECIPHER: -----OK-----


Test: 94
Hash algorithm: 2
Crypto pad: 2
Symmetric key bit length: 256
IV bit length:            128
Plaintext bit length:     136
Symmetric key:            0000000000000000000000000000000000000000000000000000000200000000
IV:                       00000000000000000000000200000000
Plaintext:                0000000000000000000000000200000000
Ciphertext:               d7c170c42cfc88977242a44b1649e9c327e8a55b6714a5f5afb1f0622bffd8f9dd22a4aef2b173b7bb4891c8c73883668fc2790e9d1aa8d71315f8bd6be4294b2c02072614692fd8fa8046785e4fa55e
Reciphers for ciphertext: 0
Decipheredtext:           0000000000000000000000000200000000
RESULT CIPHER-DECIPHER: -----OK-----


Test: 95
Hash algorithm: 5
Crypto pad: 2
Symmetric key bit length: 256
IV bit length:            128
Plaintext bit length:     136
Symmetric key:            0000000000000000000000000000000000000000000000000000000100000000
IV:                       00000000000000000000000100000000
Plaintext:                0000000000000000000000000100000000
Ciphertext:               9e47587336965f345d11ea876ff33a181f13c30031409ffd998665cd1623fff8e8779d51d892eb192b941e312bb77fbac4c6a6bf86809a876fbd3095985f8698
Reciphers for ciphertext: 0
Decipheredtext:           0000000000000000000000000100000000
RESULT CIPHER-DECIPHER: -----OK-----


Test: 96
Hash algorithm: 13
Crypto pad: 0
Symmetric key bit length: 256
IV bit length:            128
Plaintext bit length:     136
Symmetric key:            0000000000000000000000000000000000000000000000000000000080000000
IV:                       00000000000000000000000080000000
Plaintext:                0000000000000000000000000080000000
Ciphertext:               4f233c2643186666d2ca6f63c98862564693a943f50916ae2aef4a868e81b4f6a8cac09e7a7ac14ff0ee4c7986e17f0ffe74ee64bab03142ce3b5917347cdb0b
Reciphers for ciphertext: 0
Decipheredtext:           0000000000000000000000000080000000
RESULT CIPHER-DECIPHER: -----OK-----


Test: 97
Hash algorithm: 2
Crypto pad: 2
Symmetric key bit length: 256
IV bit length:            128
Plaintext bit length:     136
Symmetric key:            0000000000000000000000000000000000000000000000000000000040000000
IV:                       00000000000000000000000040000000
Plaintext:                0000000000000000000000000040000000
Ciphertext:               c628cd7ef6df0d37f6e33bda2d88c0c8acd90c91bdd5c808b168b5fc5f32124120ff0c76bc05a7b20a98bb3de2606911d61369ca0210adc453ea2ade8cfd50841e59e5e1b440d61f299fb2978637aa2d
Reciphers for ciphertext: 0
Decipheredtext:           0000000000000000000000000040000000
RESULT CIPHER-DECIPHER: -----OK-----


Test: 98
Hash algorithm: 10
Crypto pad: 1
Symmetric key bit length: 256
IV bit length:            128
Plaintext bit length:     136
Symmetric key:            0000000000000000000000000000000000000000000000000000000020000000
IV:                       00000000000000000000000020000000
Plaintext:                0000000000000000000000000020000000
Ciphertext:               4da8d1bb798618c42e3068fea6cd7592cdb7b914cb7a5a98d056356c16c14436a8ac7e854a641588216e435b4af30bb9a775d86ab37290cc2c3e49d2978b7400e90dcbda1916774ebb9a9020fea911be
Reciphers for ciphertext: 0
Decipheredtext:           0000000000000000000000000020000000
RESULT CIPHER-DECIPHER: -----OK-----


Test: 99
Hash algorithm: 10
Crypto pad: 2
Symmetric key bit length: 256
IV bit length:            128
Plaintext bit length:     136
Symmetric key:            0000000000000000000000000000000000000000000000000000000010000000
IV:                       00000000000000000000000010000000
Plaintext:                0000000000000000000000000010000000
Ciphertext:               27932540ea2f1f968f1ae31e0ea6cea7e69f1d986cfd596b181f84ebfdb4777c6dc5b606e782d6d5b79b5031b4906209552b7969f3c02a6ea3c68da4df1721d211ac95362df91dbd2055168f1770d519
Reciphers for ciphertext: 0
Decipheredtext:           0000000000000000000000000010000000
RESULT CIPHER-DECIPHER: -----OK-----


Test: 100
Hash algorithm: 13
Crypto pad: 2
Symmetric key bit length: 256
IV bit length:            128
Plaintext bit length:     136
Symmetric key:            0000000000000000000000000000000000000000000000000000000008000000
IV:                       00000000000000000000000008000000
Plaintext:                0000000000000000000000000008000000
Ciphertext:               0d2f1acba407394272693be51b9d2e0c14f4ba321a33959e89163c674c0a2110aba6961bdda304bf303f2ca55455a68f620941124f9b1782350e826764eab078
Reciphers for ciphertext: 0
Decipheredtext:           0000000000000000000000000008000000
RESULT CIPHER-DECIPHER: -----OK-----


Test: 101
Hash algorithm: 11
Crypto pad: 1
Symmetric key bit length: 256
IV bit length:            128
Plaintext bit length:     136
Symmetric key:            0000000000000000000000000000000000000000000000000000000004000000
IV:                       00000000000000000000000004000000
Plaintext:                0000000000000000000000000004000000
Ciphertext:               de0509ad8e6c3da0a323d1468d6a8513440cb39150195c6bc0b1b57c85864a6d42e6aaff2d65b60d504d274a1a6d025e051a7d99da0a004262c6beba732c8b1d
Reciphers for ciphertext: 0
Decipheredtext:           0000000000000000000000000004000000
RESULT CIPHER-DECIPHER: -----OK-----


Test: 102
Hash algorithm: 7
Crypto pad: 0
Symmetric key bit length: 256
IV bit length:            128
Plaintext bit length:     136
Symmetric key:            0000000000000000000000000000000000000000000000000000000002000000
IV:                       00000000000000000000000002000000
Plaintext:                0000000000000000000000000002000000
Ciphertext:               b0993a43e756775dba74476cdadaaebb59fa590e407edec0f49e68629a0e6075ebfccc71f8cab3f8d0bdeeeb4c88a88bf177bde873a855494de3ba3938c17598
Reciphers for ciphertext: 0
Decipheredtext:           0000000000000000000000000002000000
RESULT CIPHER-DECIPHER: -----OK-----


Test: 103
Hash algorithm: 5
Crypto pad: 1
Symmetric key bit length: 256
IV bit length:            128
Plaintext bit length:     136
Symmetric key:            0000000000000000000000000000000000000000000000000000000001000000
IV:                       00000000000000000000000001000000
Plaintext:                0000000000000000000000000001000000
Ciphertext:               27bb671db6157ff2e214212cad63e5a2deb2875688f8ba57fe175764c0427f2de10349e34a32b403e7247490af198d07a79d4fd265c9f210377250756959c768
Reciphers for ciphertext: 0
Decipheredtext:           0000000000000000000000000001000000
RESULT CIPHER-DECIPHER: -----OK-----


Test: 104
Hash algorithm: 1
Crypto pad: 1
Symmetric key bit length: 256
IV bit length:            128
Plaintext bit length:     136
Symmetric key:            0000000000000000000000000000000000000000000000000000000000800000
IV:                       00000000000000000000000000800000
Plaintext:                0000000000000000000000000000800000
Ciphertext:               a3e9219deb67977214031569e63ec96bd574c4a9866e0cd2d5f00cca89f2cc83d8795c7e0c1dd39364012fe278fcba9204dbcaa8405232e6d90b582f17280c66
Reciphers for ciphertext: 0
Decipheredtext:           0000000000000000000000000000800000
RESULT CIPHER-DECIPHER: -----OK-----


Test: 105
Hash algorithm: 13
Crypto pad: 2
Symmetric key bit length: 256
IV bit length:            128
Plaintext bit length:     136
Symmetric key:            0000000000000000000000000000000000000000000000000000000000400000
IV:                       00000000000000000000000000400000
Plaintext:                0000000000000000000000000000400000
Ciphertext:               ab1cc83cd2871e7aa211828ec9eb84e3b1b41b1d6e7d80c17b1631c6f748f9dc92312c40ab2bf9e9aae819aaefd26410837e167b25fe75c8efebf38385e90067
Reciphers for ciphertext: 0
Decipheredtext:           0000000000000000000000000000400000
RESULT CIPHER-DECIPHER: -----OK-----


Test: 106
Hash algorithm: 8
Crypto pad: 2
Symmetric key bit length: 256
IV bit length:            128
Plaintext bit length:     136
Symmetric key:            0000000000000000000000000000000000000000000000000000000000200000
IV:                       00000000000000000000000000200000
Plaintext:                0000000000000000000000000000200000
Ciphertext:               a48c340345674e7cf6d069af1b9131ef272466b5dacab20ea519b2603397e2b6c7575455fe8940fe9578d1cf2f60bc8be50dc5d48d1e27d4b55e229279c84a06
Reciphers for ciphertext: 0
Decipheredtext:           0000000000000000000000000000200000
RESULT CIPHER-DECIPHER: -----OK-----


Test: 107
Hash algorithm: 0
Crypto pad: 0
Symmetric key bit length: 256
IV bit length:            128
Plaintext bit length:     136
Symmetric key:            0000000000000000000000000000000000000000000000000000000000100000
IV:                       00000000000000000000000000100000
Plaintext:                0000000000000000000000000000100000
Ciphertext:               3457ea4966d53b20de368e1b3f6406b609f4f079e961763b8c50e3542b43ad9faed0d5916408909187f329140534e14652c4312a44d26b64e5b60dba896bf2bf
Reciphers for ciphertext: 0
Decipheredtext:           0000000000000000000000000000100000
RESULT CIPHER-DECIPHER: -----OK-----


Test: 108
Hash algorithm: 13
Crypto pad: 0
Symmetric key bit length: 256
IV bit length:            128
Plaintext bit length:     136
Symmetric key:            0000000000000000000000000000000000000000000000000000000000080000
IV:                       00000000000000000000000000080000
Plaintext:                0000000000000000000000000000080000
Ciphertext:               07c722d64e0778bec578096d3048f6698c3e66c1830d57b8c4add7945a9c9040fee562c45a9c9dd89ab4922bafbcfd9d14e8f7a8cce9a35f08405f2cf852fddf
Reciphers for ciphertext: 0
Decipheredtext:           0000000000000000000000000000080000
RESULT CIPHER-DECIPHER: -----OK-----


Test: 109
Hash algorithm: 7
Crypto pad: 2
Symmetric key bit length: 256
IV bit length:            128
Plaintext bit length:     136
Symmetric key:            0000000000000000000000000000000000000000000000000000000000040000
IV:                       00000000000000000000000000040000
Plaintext:                0000000000000000000000000000040000
Ciphertext:               e1918feffbc6f6060f5828c6bfdc8446ff9d805a9931df68548755c10ffc0ea397a750fce07c563ea90fa5c8167f73f4668f117f1f9feaad3b52766d7e64c1c1
Reciphers for ciphertext: 0
Decipheredtext:           0000000000000000000000000000040000
RESULT CIPHER-DECIPHER: -----OK-----


Test: 110
Hash algorithm: 7
Crypto pad: 2
Symmetric key bit length: 256
IV bit length:            128
Plaintext bit length:     136
Symmetric key:            0000000000000000000000000000000000000000000000000000000000020000
IV:                       00000000000000000000000000020000
Plaintext:                0000000000000000000000000000020000
Ciphertext:               f63948dc1178c55288f27ea5b387e62197f0dd7d60713dbe5a7e286d1efbf9139ab40d33cfd07c899fad45b7cbbb80960a59dbf3c7b55bddce52d2eebd30c624
Reciphers for ciphertext: 0
Decipheredtext:           0000000000000000000000000000020000
RESULT CIPHER-DECIPHER: -----OK-----


Test: 111
Hash algorithm: 0
Crypto pad: 0
Symmetric key bit length: 256
IV bit length:            128
Plaintext bit length:     136
Symmetric key:            0000000000000000000000000000000000000000000000000000000000010000
IV:                       00000000000000000000000000010000
Plaintext:                0000000000000000000000000000010000
Ciphertext:               fab12b7c010cbac7f19f81b0212278143444d335a6e15b10af272bc523b74b81bc717560d7503d5eb925b197b41cfd39ea00433c5e05261001462587de11835e
Reciphers for ciphertext: 0
Decipheredtext:           0000000000000000000000000000010000
RESULT CIPHER-DECIPHER: -----OK-----


Test: 112
Hash algorithm: 10
Crypto pad: 2
Symmetric key bit length: 256
IV bit length:            128
Plaintext bit length:     136
Symmetric key:            0000000000000000000000000000000000000000000000000000000000008000
IV:                       00000000000000000000000000008000
Plaintext:                0000000000000000000000000000008000
Ciphertext:               5a3dc46d20a3b314d39d673b1a6b4e262cd179dfaa690da0e391da44d52a1ec77282726cafba83edf2590cd6db4f90d4353ba896c1ba127c11bee53f459f6be809db716d8906bb2e9244f5f12ce4266a
Reciphers for ciphertext: 0
Decipheredtext:           0000000000000000000000000000008000
RESULT CIPHER-DECIPHER: -----OK-----


Test: 113
Hash algorithm: 12
Crypto pad: 0
Symmetric key bit length: 256
IV bit length:            128
Plaintext bit length:     136
Symmetric key:            0000000000000000000000000000000000000000000000000000000000004000
IV:                       00000000000000000000000000004000
Plaintext:                0000000000000000000000000000004000
Ciphertext:               17e655f6d06514c39963e616c09564fefeb0c45458e6bf249b7b98d26cdbe73e4befcc9c4de5e571918ddb2adee15913c0ba6057241426e8f3b20da22fa01da9
Reciphers for ciphertext: 0
Decipheredtext:           0000000000000000000000000000004000
RESULT CIPHER-DECIPHER: -----OK-----


Test: 114
Hash algorithm: 4
Crypto pad: 1
Symmetric key bit length: 256
IV bit length:            128
Plaintext bit length:     136
Symmetric key:            0000000000000000000000000000000000000000000000000000000000002000
IV:                       00000000000000000000000000002000
Plaintext:                0000000000000000000000000000002000
Ciphertext:               842b1cd53f0648d1508d99c865a1e30b4ee2eb457a7789ac276b470064b84a223710a3cd4c2e80c57cf078431af66d4f812ec5f0d49883abce58dcd8f78ffa1971e37f922a53c65567dbc74cbde6f14cd7f4daeedbdeef412a91ca18c6b1c2d8899cd4cc419625cf69ece3fa311eb8c7
Reciphers for ciphertext: 0
Decipheredtext:           0000000000000000000000000000002000
RESULT CIPHER-DECIPHER: -----OK-----


Test: 115
Hash algorithm: 4
Crypto pad: 2
Symmetric key bit length: 256
IV bit length:            128
Plaintext bit length:     136
Symmetric key:            0000000000000000000000000000000000000000000000000000000000001000
IV:                       00000000000000000000000000001000
Plaintext:                0000000000000000000000000000001000
Ciphertext:               097bbc6c811a7a177f309a983b4b5bdd8082337903612b7a5807373d27dc3f27c5ea49bdc40c6f1f9bb68e09ed06b3b82ca41c3c86d28a386ac77f9c1b678d88d99e9ff7ac9af06d57a0f8183ff5ae11037435fd67b45498445b1a2c0c61710bf2a16dcc615b2779828f43e3a1b5798d
Reciphers for ciphertext: 0
Decipheredtext:           0000000000000000000000000000001000
RESULT CIPHER-DECIPHER: -----OK-----


Test: 116
Hash algorithm: 4
Crypto pad: 1
Symmetric key bit length: 256
IV bit length:            128
Plaintext bit length:     136
Symmetric key:            0000000000000000000000000000000000000000000000000000000000000800
IV:                       00000000000000000000000000000800
Plaintext:                0000000000000000000000000000000800
Ciphertext:               17750c3cda937fcca477c43643026e0d1109300355318673cd59dad1e47e052313220da0e80e979cfc96d5efcab4f8644e910745733a1547c3f688a3d35160c4aec2e6a03fe6f1fffc66761541de6b0f154ed62c71ba197a12865ad23605c71eeff1b75fbb6e930e8865d25267bd34e2
Reciphers for ciphertext: 0
Decipheredtext:           0000000000000000000000000000000800
RESULT CIPHER-DECIPHER: -----OK-----


Test: 117
Hash algorithm: 3
Crypto pad: 0
Symmetric key bit length: 256
IV bit length:            128
Plaintext bit length:     136
Symmetric key:            0000000000000000000000000000000000000000000000000000000000000400
IV:                       00000000000000000000000000000400
Plaintext:                0000000000000000000000000000000400
Ciphertext:               21c702c47a60bc17af4998b8b1daeff8b8ed2bd3f717de062380517bde746fa3f446287da7762fd73d45a3e04a10bf53cd523f8f912d4672070f95d39497099a474ea1052974082cf8b41ccff84fb5dde18e1380258562a5214dd7b7c6f5ad0f
Reciphers for ciphertext: 0
Decipheredtext:           0000000000000000000000000000000400
RESULT CIPHER-DECIPHER: -----OK-----


Test: 118
Hash algorithm: 11
Crypto pad: 2
Symmetric key bit length: 256
IV bit length:            128
Plaintext bit length:     136
Symmetric key:            0000000000000000000000000000000000000000000000000000000000000200
IV:                       00000000000000000000000000000200
Plaintext:                0000000000000000000000000000000200
Ciphertext:               294f0d2cf1a153ee75932baa16a44d34b80bf6d98dcc301762e77183064997a476546725ced9ed671103242be35fc999b1a715e6966e8aaa6662cd74c1a764fd
Reciphers for ciphertext: 0
Decipheredtext:           0000000000000000000000000000000200
RESULT CIPHER-DECIPHER: -----OK-----


Test: 119
Hash algorithm: 7
Crypto pad: 2
Symmetric key bit length: 256
IV bit length:            128
Plaintext bit length:     136
Symmetric key:            0000000000000000000000000000000000000000000000000000000000000100
IV:                       00000000000000000000000000000100
Plaintext:                0000000000000000000000000000000100
Ciphertext:               0d4c049d0ca49c151d5914f0ce20a118c8f416aef605a64c7d04b040d61ed99ff7cb6f1716a1efa7d80eb668f05a4161eb0ee7a48ad0d933313607327874c044
Reciphers for ciphertext: 0
Decipheredtext:           0000000000000000000000000000000100
RESULT CIPHER-DECIPHER: -----OK-----


Test: 120
Hash algorithm: 13
Crypto pad: 1
Symmetric key bit length: 256
IV bit length:            128
Plaintext bit length:     136
Symmetric key:            0000000000000000000000000000000000000000000000000000000000000080
IV:                       00000000000000000000000000000080
Plaintext:                0000000000000000000000000000000080
Ciphertext:               329578bfe050aff6bd3b01e7a8e374e5cb86686b3b38188469bbb099fee26dbe1b65fa915290d3e23c45868f75dda7fd2c3aa34fc0c4a3052a43f7254bdf7884
Reciphers for ciphertext: 0
Decipheredtext:           0000000000000000000000000000000080
RESULT CIPHER-DECIPHER: -----OK-----


Test: 121
Hash algorithm: 5
Crypto pad: 2
Symmetric key bit length: 256
IV bit length:            128
Plaintext bit length:     136
Symmetric key:            0000000000000000000000000000000000000000000000000000000000000040
IV:                       00000000000000000000000000000040
Plaintext:                0000000000000000000000000000000040
Ciphertext:               af8208e9205bf9ec3b854c47547ef38a9eed7639f46d8b5f2a6341e179014de1d72d4d37d07d48a67f1ac591a85e5c1390f47428e50085c8de8753fbc3e52bd1
Reciphers for ciphertext: 0
Decipheredtext:           0000000000000000000000000000000040
RESULT CIPHER-DECIPHER: -----OK-----


Test: 122
Hash algorithm: 7
Crypto pad: 2
Symmetric key bit length: 256
IV bit length:            128
Plaintext bit length:     136
Symmetric key:            0000000000000000000000000000000000000000000000000000000000000020
IV:                       00000000000000000000000000000020
Plaintext:                0000000000000000000000000000000020
Ciphertext:               8606391dc4b48cc41b36b6d8d7b1b0cdf2fcc1c1c9b7dd8f2b6e1f8685005983f883bc956ed3ca9c31c145932b3801c118ee6b00c7fb8dd0a37a5640b80291be
Reciphers for ciphertext: 0
Decipheredtext:           0000000000000000000000000000000020
RESULT CIPHER-DECIPHER: -----OK-----


Test: 123
Hash algorithm: 7
Crypto pad: 0
Symmetric key bit length: 256
IV bit length:            128
Plaintext bit length:     136
Symmetric key:            0000000000000000000000000000000000000000000000000000000000000010
IV:                       00000000000000000000000000000010
Plaintext:                0000000000000000000000000000000010
Ciphertext:               d1fa2b32660a903be915bb43b40f2bcdda510d00a8e8996b84258014c2df15e0dac9622a4663b21b4968c12a4abf1480268bb49d6f281d6f52898bd81d7dd9da
Reciphers for ciphertext: 0
Decipheredtext:           0000000000000000000000000000000010
RESULT CIPHER-DECIPHER: -----OK-----


Test: 124
Hash algorithm: 2
Crypto pad: 0
Symmetric key bit length: 256
IV bit length:            128
Plaintext bit length:     136
Symmetric key:            0000000000000000000000000000000000000000000000000000000000000008
IV:                       00000000000000000000000000000008
Plaintext:                0000000000000000000000000000000008
Ciphertext:               e1dfb1e09150a86a7e5eff9e9e8fe1f7ad0a0c13c09cff5aa2cdce06f3fb28b8f459be77159c174b29a96a6d54a1c63f4507c316f4920e12a3d6fb5944106443ba0b25d1951d52c63e2ea3916eada922
Reciphers for ciphertext: 0
Decipheredtext:           0000000000000000000000000000000008
RESULT CIPHER-DECIPHER: -----OK-----


Test: 125
Hash algorithm: 12
Crypto pad: 0
Symmetric key bit length: 256
IV bit length:            128
Plaintext bit length:     136
Symmetric key:            0000000000000000000000000000000000000000000000000000000000000004
IV:                       00000000000000000000000000000004
Plaintext:                0000000000000000000000000000000004
Ciphertext:               a4ed00c883052cf4bfaadb466819ee6274467d6086c5a7edad039e1d0ba5d287ebcc16b2abc43add9937250047f9607f3a84e75229ff3d2d633b930d053a59da
Reciphers for ciphertext: 0
Decipheredtext:           0000000000000000000000000000000004
RESULT CIPHER-DECIPHER: -----OK-----


Test: 126
Hash algorithm: 5
Crypto pad: 0
Symmetric key bit length: 256
IV bit length:            128
Plaintext bit length:     136
Symmetric key:            0000000000000000000000000000000000000000000000000000000000000002
IV:                       00000000000000000000000000000002
Plaintext:                0000000000000000000000000000000002
Ciphertext:               3386c37d97490db60459a741775de705dfe22c2fe2a70a1bd2a959730270385260e285dded51383303ccd62241715abd83939ee26e7f51c4601b35e4f431bfc4
Reciphers for ciphertext: 0
Decipheredtext:           0000000000000000000000000000000002
RESULT CIPHER-DECIPHER: -----OK-----


Test: 127
Hash algorithm: 3
Crypto pad: 0
Symmetric key bit length: 256
IV bit length:            128
Plaintext bit length:     136
Symmetric key:            0000000000000000000000000000000000000000000000000000000000000001
IV:                       00000000000000000000000000000001
Plaintext:                0000000000000000000000000000000001
Ciphertext:               c9d2b5db15fd8902a6ebf478c3b78014edd6cd2631556925a69664462c019109d6bea9b4faa6071cd11a907cda019c507482cbb1b012d1fec2d5b12c3b9e3afde5595aec8f5245a4f06fb1baae668a85cb09e9d90676943dd14015082d9c1770
Reciphers for ciphertext: 0
Decipheredtext:           0000000000000000000000000000000001
RESULT CIPHER-DECIPHER: -----OK-----


 DATA SHA1 (hexadecimal): 2802cced607e5dbf453de4dd307b4a2cf7a9e490

