
DiceLock 9.0.0.1

 TEST COMPONENTS:
 ----------------
 DiceLock:           DiceLockIVDigested class
 Operation Mode:     CBC_Mode class
 Crypto pads:        0 - ANSI_X_923 class
                     1 - ISO_IEC_9797_1 class
                     2 - PKCS7 class
 Block Cipher:       Serpent192 class
 Hash algorithms:     0 - Sha1 class
                      1 - Sha224 class
                      2 - Sha256 class
                      3 - Sha384 class
                      4 - Sha512 class
                      5 - Sha512_224 class
                      6 - Sha512_256 class
                      7 - Ripemd128 class
                      8 - Ripemd160 class
                      9 - Ripemd256 class
                     10 - Ripemd320 class
                     11 - MD2 class
                     12 - MD4 class
                     13 - MD5 class
 Key Modifier:       IncreaseKeyModifier_6_0_0_1 class
 Random tests:       RandomTestSuite class
                     FrequencyTest class
                     BlockFrequencyTest class
                     CumulativeSumForwardTest class
                     LongestRunOfOnesTest class
                     RunsTest class
 Random alpha:       0.001

 VECTOR TEST: Test vector 1 - Changing IV, shifting 1 bit set


##### INDIVIDUAL TESTS #####

Number tests: 128


Test: 0
Hash algorithm: 8
Crypto pad: 2
Symmetric key bit length: 192
IV bit length:            128
Plaintext bit length:     128
Symmetric key:            000000000000000000000000000000000000000000000000
IV:                       80000000000000000000000000000000
Plaintext:                00000000000000000000000000000000
Ciphertext:               b10b271ba25257e1294f2b51f076d0d9a4c3474146c33156f02cbafba084f3f7541eaa335e264a135ce01adfc7c0bc9d9f7d60f05fe1c46ce9acbcda3eda81ba
Reciphers for ciphertext: 0
Decipheredtext:           00000000000000000000000000000000
RESULT CIPHER-DECIPHER: -----OK-----


Test: 1
Hash algorithm: 0
Crypto pad: 1
Symmetric key bit length: 192
IV bit length:            128
Plaintext bit length:     128
Symmetric key:            000000000000000000000000000000000000000000000000
IV:                       40000000000000000000000000000000
Plaintext:                00000000000000000000000000000000
Ciphertext:               d522a3b8d6d89d4d2a124fdd88f368963c010edebe3a4ff60e96d276724ea7d2dedcddbff92eef2739c7f8fa2df6210a37693cbb88b9cccfae0383c6cb88cd68
Reciphers for ciphertext: 0
Decipheredtext:           00000000000000000000000000000000
RESULT CIPHER-DECIPHER: -----OK-----


Test: 2
Hash algorithm: 3
Crypto pad: 2
Symmetric key bit length: 192
IV bit length:            128
Plaintext bit length:     128
Symmetric key:            000000000000000000000000000000000000000000000000
IV:                       20000000000000000000000000000000
Plaintext:                00000000000000000000000000000000
Ciphertext:               6faefee5f5255d5465c1befa672af1d3746f9d77fed5d91b9b9211f420a36213a5754fab2f0d4e3f6fe060c332a751f1463e36b9a488191fcd43b0345048330d8a4eca47af59feb94be460df35fe729f2da114ceee9bfbc4a55ebc248ea8d9e8
Reciphers for ciphertext: 0
Decipheredtext:           00000000000000000000000000000000
RESULT CIPHER-DECIPHER: -----OK-----


Test: 3
Hash algorithm: 10
Crypto pad: 2
Symmetric key bit length: 192
IV bit length:            128
Plaintext bit length:     128
Symmetric key:            000000000000000000000000000000000000000000000000
IV:                       10000000000000000000000000000000
Plaintext:                00000000000000000000000000000000
Ciphertext:               409e1d63bc71eb0d6f7eceaa03025897088d0de0f44d1505d0f0ef32f0e51c10feb985838de650c55c824c86fa66fc9c90d05e5d17569f187ead047704c2d67644f8be48d573d558b6f8dd88ea57fec9
Reciphers for ciphertext: 0
Decipheredtext:           00000000000000000000000000000000
RESULT CIPHER-DECIPHER: -----OK-----


Test: 4
Hash algorithm: 4
Crypto pad: 0
Symmetric key bit length: 192
IV bit length:            128
Plaintext bit length:     128
Symmetric key:            000000000000000000000000000000000000000000000000
IV:                       08000000000000000000000000000000
Plaintext:                00000000000000000000000000000000
Ciphertext:               8a7e9feb4300a2a265f4a14e52011be184006d8e3d2198dee64294d60e4fb1e6de6db2178c8e69ba7db42dcfef8b4c78b421da4842b7c82947065fb75db91cb96fa9b97f404a5f8d0e4481950bbcc9c6a35bdfdaed0a644330138cb5b2bba79d6d0c64ee8384d0e705f3972084c98034
Reciphers for ciphertext: 0
Decipheredtext:           00000000000000000000000000000000
RESULT CIPHER-DECIPHER: -----OK-----


Test: 5
Hash algorithm: 11
Crypto pad: 2
Symmetric key bit length: 192
IV bit length:            128
Plaintext bit length:     128
Symmetric key:            000000000000000000000000000000000000000000000000
IV:                       04000000000000000000000000000000
Plaintext:                00000000000000000000000000000000
Ciphertext:               c1b3fb68eef9e0eb6d3df001e57eac9bc0bb20bd211c6b1ba01e21015edfdbb455235b3b6e88a21f2511d128ab9b0fb1faac2598fee367621ebfbe009f209f55
Reciphers for ciphertext: 0
Decipheredtext:           00000000000000000000000000000000
RESULT CIPHER-DECIPHER: -----OK-----


Test: 6
Hash algorithm: 10
Crypto pad: 0
Symmetric key bit length: 192
IV bit length:            128
Plaintext bit length:     128
Symmetric key:            000000000000000000000000000000000000000000000000
IV:                       02000000000000000000000000000000
Plaintext:                00000000000000000000000000000000
Ciphertext:               9dcaabb7839129739d1c6f5501624e448c1a8c9232709ab935f131f522d356fcdf9712b5e5eca3a5cd025b70a67aa17e72601f34550b16fa8f048f4b35d77e7320b01a8e072782104d983fcaedf327bd
Reciphers for ciphertext: 0
Decipheredtext:           00000000000000000000000000000000
RESULT CIPHER-DECIPHER: -----OK-----


Test: 7
Hash algorithm: 3
Crypto pad: 0
Symmetric key bit length: 192
IV bit length:            128
Plaintext bit length:     128
Symmetric key:            000000000000000000000000000000000000000000000000
IV:                       01000000000000000000000000000000
Plaintext:                00000000000000000000000000000000
Ciphertext:               47402e1c09e0c315b13cab5a5aa17e4991c4f5a3b7487f7a833a5601c068f27865a0508234d5cf38fb2ebe64e5eeb4607de7c7267b2ce0976e33a1ac10772fd1f1b1a8220c2adeb00b905bc15dbf43a5468f85c8185aab0a7b322989ce97db67
Reciphers for ciphertext: 0
Decipheredtext:           00000000000000000000000000000000
RESULT CIPHER-DECIPHER: -----OK-----


Test: 8
Hash algorithm: 4
Crypto pad: 1
Symmetric key bit length: 192
IV bit length:            128
Plaintext bit length:     128
Symmetric key:            000000000000000000000000000000000000000000000000
IV:                       00800000000000000000000000000000
Plaintext:                00000000000000000000000000000000
Ciphertext:               cde5ff61bb5659952a8c5cfedacf06a3e60ec85f7f20a54c027bdffde507acdc43234b1b9b812572ef2198ac5a8c5e75acb101b3ced7a4bc6f73a51adcf3a13f8cfb0ddbd13428489af732aed3fbe518d42785f14ebcdc7fd03ceeda474b99e71772c8bb50c849402b4d50968b41d4dd
Reciphers for ciphertext: 0
Decipheredtext:           00000000000000000000000000000000
RESULT CIPHER-DECIPHER: -----OK-----


Test: 9
Hash algorithm: 13
Crypto pad: 0
Symmetric key bit length: 192
IV bit length:            128
Plaintext bit length:     128
Symmetric key:            000000000000000000000000000000000000000000000000
IV:                       00400000000000000000000000000000
Plaintext:                00000000000000000000000000000000
Ciphertext:               b26502ac2100f53bed68f2454563154849bc299b28b5c1b4928c76c0422f4ba97290a42fbb7a3e0828a892ddc57e80b635d215ba6196425ec6fb59ef0fe4e0db
Reciphers for ciphertext: 0
Decipheredtext:           00000000000000000000000000000000
RESULT CIPHER-DECIPHER: -----OK-----


Test: 10
Hash algorithm: 1
Crypto pad: 0
Symmetric key bit length: 192
IV bit length:            128
Plaintext bit length:     128
Symmetric key:            000000000000000000000000000000000000000000000000
IV:                       00200000000000000000000000000000
Plaintext:                00000000000000000000000000000000
Ciphertext:               b607bf21517dbec46d95758fff5a073b1b4811d427189b647554465e78606a31176a40a5ef30a5445f69a1eef0a97583c73ef8083f6c84372e47420f970dd96d
Reciphers for ciphertext: 0
Decipheredtext:           00000000000000000000000000000000
RESULT CIPHER-DECIPHER: -----OK-----


Test: 11
Hash algorithm: 4
Crypto pad: 2
Symmetric key bit length: 192
IV bit length:            128
Plaintext bit length:     128
Symmetric key:            000000000000000000000000000000000000000000000000
IV:                       00100000000000000000000000000000
Plaintext:                00000000000000000000000000000000
Ciphertext:               d4d07ee9ba4512d2985453a0ae16aa8ec20bbcf09d55ff6625872dbe5ceb3d23f62caa6f89bcc122e80118a159d7a2f4b4c1d5811c14cdabe3afce7170ad19fdef9725a4077cb7625ea4b493a038066614f30a98a1e260c323501b56231c91777845885c82e08d8244d1fe7d3789b344
Reciphers for ciphertext: 0
Decipheredtext:           00000000000000000000000000000000
RESULT CIPHER-DECIPHER: -----OK-----


Test: 12
Hash algorithm: 2
Crypto pad: 2
Symmetric key bit length: 192
IV bit length:            128
Plaintext bit length:     128
Symmetric key:            000000000000000000000000000000000000000000000000
IV:                       00080000000000000000000000000000
Plaintext:                00000000000000000000000000000000
Ciphertext:               139b2bf2f5f28c014a6c2f9aea71faafaf1326fbe4dd0b84bccac8adea1e757e14eb2780c64f600cb3ced4c70915d3758a4a333630faa6b954105d1d29c690742dd9039dcb6b243177efb9b0699c2437
Reciphers for ciphertext: 0
Decipheredtext:           00000000000000000000000000000000
RESULT CIPHER-DECIPHER: -----OK-----


Test: 13
Hash algorithm: 10
Crypto pad: 2
Symmetric key bit length: 192
IV bit length:            128
Plaintext bit length:     128
Symmetric key:            000000000000000000000000000000000000000000000000
IV:                       00040000000000000000000000000000
Plaintext:                00000000000000000000000000000000
Ciphertext:               4c35a2015688b03192dd599a3fddb893a91775392f49da40688c8039538d7cf7b5c46d549c85abd630c8d34699ded07ece11e193499ea08b9c0a59932671848b67502a6097003ec3c183c3b166cd0b99
Reciphers for ciphertext: 0
Decipheredtext:           00000000000000000000000000000000
RESULT CIPHER-DECIPHER: -----OK-----


Test: 14
Hash algorithm: 3
Crypto pad: 0
Symmetric key bit length: 192
IV bit length:            128
Plaintext bit length:     128
Symmetric key:            000000000000000000000000000000000000000000000000
IV:                       00020000000000000000000000000000
Plaintext:                00000000000000000000000000000000
Ciphertext:               24def3618142e83ba5124d914edb23ee70c2089e2268e533142fadcc648e67c8d7ff042d54a2162c8a44868f45bdf3f8b7029e3d80cc2055db7b46831a659b4bf2b372280e2bd09e47e72c57ad7f202800ecc8b29f973cf09ea8da208fd4e2eb
Reciphers for ciphertext: 0
Decipheredtext:           00000000000000000000000000000000
RESULT CIPHER-DECIPHER: -----OK-----


Test: 15
Hash algorithm: 7
Crypto pad: 1
Symmetric key bit length: 192
IV bit length:            128
Plaintext bit length:     128
Symmetric key:            000000000000000000000000000000000000000000000000
IV:                       00010000000000000000000000000000
Plaintext:                00000000000000000000000000000000
Ciphertext:               4ba48c16fa165c322614a94b0f236ee7b95058146bbbd4211403afad58a1174a2454063101ad69eaa01cd210f8f2b0f1d32c86f1d0d09575c0424c0956c51ebf
Reciphers for ciphertext: 0
Decipheredtext:           00000000000000000000000000000000
RESULT CIPHER-DECIPHER: -----OK-----


Test: 16
Hash algorithm: 12
Crypto pad: 1
Symmetric key bit length: 192
IV bit length:            128
Plaintext bit length:     128
Symmetric key:            000000000000000000000000000000000000000000000000
IV:                       00008000000000000000000000000000
Plaintext:                00000000000000000000000000000000
Ciphertext:               251d642123ee51ac09e02026228c1414bb13ef5e25b1cabb698d8beca4bc1691dc63740f308b8857804e2653bcdd31795caa1aba882be7c9b69f053166ff476c
Reciphers for ciphertext: 0
Decipheredtext:           00000000000000000000000000000000
RESULT CIPHER-DECIPHER: -----OK-----


Test: 17
Hash algorithm: 12
Crypto pad: 0
Symmetric key bit length: 192
IV bit length:            128
Plaintext bit length:     128
Symmetric key:            000000000000000000000000000000000000000000000000
IV:                       00004000000000000000000000000000
Plaintext:                00000000000000000000000000000000
Ciphertext:               35604c5d7589b042c9a2e2550b439d31976e30b07dd4f7e6d9208c496b5bd083f7d0d77bca02ebfdabf8d3433db8b303a9166726f0259b74e37220998cfbdc7e
Reciphers for ciphertext: 0
Decipheredtext:           00000000000000000000000000000000
RESULT CIPHER-DECIPHER: -----OK-----


Test: 18
Hash algorithm: 6
Crypto pad: 0
Symmetric key bit length: 192
IV bit length:            128
Plaintext bit length:     128
Symmetric key:            000000000000000000000000000000000000000000000000
IV:                       00002000000000000000000000000000
Plaintext:                00000000000000000000000000000000
Ciphertext:               a921c70d25df86916bafcb0d99834d774f4391020b2ebdcdd94167e24ed42019845b1837062dfc99899c75fb05cc04fb298b0c8d85c6f16dc89d41ba27a18c832c3a43f39c37fb7a08771aec34956522
Reciphers for ciphertext: 0
Decipheredtext:           00000000000000000000000000000000
RESULT CIPHER-DECIPHER: -----OK-----


Test: 19
Hash algorithm: 3
Crypto pad: 0
Symmetric key bit length: 192
IV bit length:            128
Plaintext bit length:     128
Symmetric key:            000000000000000000000000000000000000000000000000
IV:                       00001000000000000000000000000000
Plaintext:                00000000000000000000000000000000
Ciphertext:               ffc85ec27dbcedfd7f7265878967ca81124f86340a3914a67fdcf9f303deab396c6d9753e1774032421a92e0cb7452c9ac1199bb316d38fb6222d417e6dfefb0ee91fc7dc96a06cad22f78771565a3eb9981eb21b1832ff062fcb92b73a7ee22
Reciphers for ciphertext: 0
Decipheredtext:           00000000000000000000000000000000
RESULT CIPHER-DECIPHER: -----OK-----


Test: 20
Hash algorithm: 12
Crypto pad: 0
Symmetric key bit length: 192
IV bit length:            128
Plaintext bit length:     128
Symmetric key:            000000000000000000000000000000000000000000000000
IV:                       00000800000000000000000000000000
Plaintext:                00000000000000000000000000000000
Ciphertext:               2281b03c4aad92683b10418afd19fcbe21e53e2aea05bd61f392b70320487601ffaf411a9708b7de79fd33dd064fb164cb7157f5f2fda63d6006764898cc0635
Reciphers for ciphertext: 0
Decipheredtext:           00000000000000000000000000000000
RESULT CIPHER-DECIPHER: -----OK-----


Test: 21
Hash algorithm: 5
Crypto pad: 0
Symmetric key bit length: 192
IV bit length:            128
Plaintext bit length:     128
Symmetric key:            000000000000000000000000000000000000000000000000
IV:                       00000400000000000000000000000000
Plaintext:                00000000000000000000000000000000
Ciphertext:               5df5f94a1760883ca1e80ba88fe02dcc2b4f6035245736ca2aac5083eb7e274242013f79ab764a7390b47534f403c1e41a411f06c3f5d85d0c6d63c27642de2c
Reciphers for ciphertext: 0
Decipheredtext:           00000000000000000000000000000000
RESULT CIPHER-DECIPHER: -----OK-----


Test: 22
Hash algorithm: 2
Crypto pad: 1
Symmetric key bit length: 192
IV bit length:            128
Plaintext bit length:     128
Symmetric key:            000000000000000000000000000000000000000000000000
IV:                       00000200000000000000000000000000
Plaintext:                00000000000000000000000000000000
Ciphertext:               fb2a57edd5cf3d2d38ec0f185ae33549adbda5c1c36ae3ddac13007d7ebb9b4eecf54076a137fe5c10fe113928d6ffaac1f82d8078157eb2330b0ddc1090562017d3bdadcce6cd42423bd4a0264c8d1c
Reciphers for ciphertext: 0
Decipheredtext:           00000000000000000000000000000000
RESULT CIPHER-DECIPHER: -----OK-----


Test: 23
Hash algorithm: 13
Crypto pad: 2
Symmetric key bit length: 192
IV bit length:            128
Plaintext bit length:     128
Symmetric key:            000000000000000000000000000000000000000000000000
IV:                       00000100000000000000000000000000
Plaintext:                00000000000000000000000000000000
Ciphertext:               0fa7045d04878611ba1ee1b89ae48fd744f66c51634d08a8e6c0a2523b4aa0061aecc37f3a6722db4cc1dcad12cd83dae6dc5a9c4f883784b56094a1b3fec099
Reciphers for ciphertext: 0
Decipheredtext:           00000000000000000000000000000000
RESULT CIPHER-DECIPHER: -----OK-----


Test: 24
Hash algorithm: 6
Crypto pad: 1
Symmetric key bit length: 192
IV bit length:            128
Plaintext bit length:     128
Symmetric key:            000000000000000000000000000000000000000000000000
IV:                       00000080000000000000000000000000
Plaintext:                00000000000000000000000000000000
Ciphertext:               d4bccb77a50cba2a5d3e19c39b10a95d960a4689b26a5ad4efb33d3a2d710eccb803f0e9c459797a407847ade239feaae29a2dda0e3ca02e1db9becd2f4d490267259babeda8e5bdb7e8a53da6c4351b
Reciphers for ciphertext: 0
Decipheredtext:           00000000000000000000000000000000
RESULT CIPHER-DECIPHER: -----OK-----


Test: 25
Hash algorithm: 9
Crypto pad: 1
Symmetric key bit length: 192
IV bit length:            128
Plaintext bit length:     128
Symmetric key:            000000000000000000000000000000000000000000000000
IV:                       00000040000000000000000000000000
Plaintext:                00000000000000000000000000000000
Ciphertext:               0c673c63c42f40cc9c547e8ffec646bc62c79d263cd160ae1230c761a7e4d5b9284c4dede4c769836c8d43598c71827f7dca87d9c9decbfe992b8c8e6adc8b630cfe87b57d5dbd3cbf00e6fbea8857da
Reciphers for ciphertext: 0
Decipheredtext:           00000000000000000000000000000000
RESULT CIPHER-DECIPHER: -----OK-----


Test: 26
Hash algorithm: 12
Crypto pad: 2
Symmetric key bit length: 192
IV bit length:            128
Plaintext bit length:     128
Symmetric key:            000000000000000000000000000000000000000000000000
IV:                       00000020000000000000000000000000
Plaintext:                00000000000000000000000000000000
Ciphertext:               914cf9c7744a56d5d5e4beabff1aa160da04352b232d8faa138031e3da888b573aae433e33a3974528573b42a3ea805da9d05774fda8276c761750ee0663a6a5
Reciphers for ciphertext: 0
Decipheredtext:           00000000000000000000000000000000
RESULT CIPHER-DECIPHER: -----OK-----


Test: 27
Hash algorithm: 2
Crypto pad: 2
Symmetric key bit length: 192
IV bit length:            128
Plaintext bit length:     128
Symmetric key:            000000000000000000000000000000000000000000000000
IV:                       00000010000000000000000000000000
Plaintext:                00000000000000000000000000000000
Ciphertext:               073e2f69a01ef426c14ade8f0a30dd8450d8337095b396a9c56efcf336be01f2e38f3b8ac585553ff4369842da0271b1b7ba040b11dddb649cf920e297a75d6558eaae5b33beda4711766d043c568226
Reciphers for ciphertext: 0
Decipheredtext:           00000000000000000000000000000000
RESULT CIPHER-DECIPHER: -----OK-----


Test: 28
Hash algorithm: 13
Crypto pad: 2
Symmetric key bit length: 192
IV bit length:            128
Plaintext bit length:     128
Symmetric key:            000000000000000000000000000000000000000000000000
IV:                       00000008000000000000000000000000
Plaintext:                00000000000000000000000000000000
Ciphertext:               5f0cf0ae5a8bc4d1fb37cf8f2f063437c5d660c7d9f7fdd6912161ea5f09fcadb03ccead772a8c78ab78ba1a4c7e7c794a292a46970633ce2f33bdfa51ab2095
Reciphers for ciphertext: 0
Decipheredtext:           00000000000000000000000000000000
RESULT CIPHER-DECIPHER: -----OK-----


Test: 29
Hash algorithm: 12
Crypto pad: 1
Symmetric key bit length: 192
IV bit length:            128
Plaintext bit length:     128
Symmetric key:            000000000000000000000000000000000000000000000000
IV:                       00000004000000000000000000000000
Plaintext:                00000000000000000000000000000000
Ciphertext:               c3e16559538c35da71d6a9f5c79144eae6b61c35aa6063ecdd0de7c71becdcb534fe76f521d8f423904ffaf857ef44fdafce633e55be5f965254b812980022d5
Reciphers for ciphertext: 0
Decipheredtext:           00000000000000000000000000000000
RESULT CIPHER-DECIPHER: -----OK-----


Test: 30
Hash algorithm: 9
Crypto pad: 1
Symmetric key bit length: 192
IV bit length:            128
Plaintext bit length:     128
Symmetric key:            000000000000000000000000000000000000000000000000
IV:                       00000002000000000000000000000000
Plaintext:                00000000000000000000000000000000
Ciphertext:               3a154b0a7eab802c082a4a96cc9968d4f66ae27b9889c373c28279dfb53c5a7ae360a76c25c7d6998e3074ebbd9f71c21f8b1e18151b25d1b9d9c9e4a5947bb063884ebca9fe36aa500f8acac4f6e954
Reciphers for ciphertext: 0
Decipheredtext:           00000000000000000000000000000000
RESULT CIPHER-DECIPHER: -----OK-----


Test: 31
Hash algorithm: 6
Crypto pad: 1
Symmetric key bit length: 192
IV bit length:            128
Plaintext bit length:     128
Symmetric key:            000000000000000000000000000000000000000000000000
IV:                       00000001000000000000000000000000
Plaintext:                00000000000000000000000000000000
Ciphertext:               205f88404d8c02bcc7c68a064c74a545468ea0314a066def8ad36f035c190af50c52e761a2e49b8b78f70de26f5a947bd32d667c40c239717ea7a5cecd305a77104ede31de244447b0ba4f0c96fe6217
Reciphers for ciphertext: 0
Decipheredtext:           00000000000000000000000000000000
RESULT CIPHER-DECIPHER: -----OK-----


Test: 32
Hash algorithm: 11
Crypto pad: 1
Symmetric key bit length: 192
IV bit length:            128
Plaintext bit length:     128
Symmetric key:            000000000000000000000000000000000000000000000000
IV:                       00000000800000000000000000000000
Plaintext:                00000000000000000000000000000000
Ciphertext:               27d5c66ef07bff1f9f2789205ef6f54fbbff385cba5c8daeb9537bd3346a3082225da95b7b48e8d0cb790b411bfc7d4f4876b496f6b7af7a627556c28f9326d1
Reciphers for ciphertext: 0
Decipheredtext:           00000000000000000000000000000000
RESULT CIPHER-DECIPHER: -----OK-----


Test: 33
Hash algorithm: 0
Crypto pad: 0
Symmetric key bit length: 192
IV bit length:            128
Plaintext bit length:     128
Symmetric key:            000000000000000000000000000000000000000000000000
IV:                       00000000400000000000000000000000
Plaintext:                00000000000000000000000000000000
Ciphertext:               7adfdd145251206f5eef7206f718c8b0426e99fed20a9c4e1020e9ab335d4a1980f06648735ea095c811c08039077b7375d274a4e9207010133a25af08def957
Reciphers for ciphertext: 0
Decipheredtext:           00000000000000000000000000000000
RESULT CIPHER-DECIPHER: -----OK-----


Test: 34
Hash algorithm: 3
Crypto pad: 1
Symmetric key bit length: 192
IV bit length:            128
Plaintext bit length:     128
Symmetric key:            000000000000000000000000000000000000000000000000
IV:                       00000000200000000000000000000000
Plaintext:                00000000000000000000000000000000
Ciphertext:               971a2283f2d786efceed19ca000f4d2a9292ae4b99a17b264f70ca6a47a848da0433acc0f03e1eb5453bdafd20bc6966efa2f78fede9441ffc5d8295d46b9184dca176358e10946187a1634424e4dc75a3d4e2b41aa89492b75aecce5833aa6f
Reciphers for ciphertext: 0
Decipheredtext:           00000000000000000000000000000000
RESULT CIPHER-DECIPHER: -----OK-----


Test: 35
Hash algorithm: 3
Crypto pad: 2
Symmetric key bit length: 192
IV bit length:            128
Plaintext bit length:     128
Symmetric key:            000000000000000000000000000000000000000000000000
IV:                       00000000100000000000000000000000
Plaintext:                00000000000000000000000000000000
Ciphertext:               59ed88f7ee96e19469c0d5604da0e6f9967f7714f73e20441a98e84a9558918f01dbf549858e03977419775beb72281f4c690b8549b397d6c45a09dad38066f186f6287eeed20a1850587ed48e3d1b7102e20ddaf8aa35284fc0196aa9f82943
Reciphers for ciphertext: 0
Decipheredtext:           00000000000000000000000000000000
RESULT CIPHER-DECIPHER: -----OK-----


Test: 36
Hash algorithm: 6
Crypto pad: 2
Symmetric key bit length: 192
IV bit length:            128
Plaintext bit length:     128
Symmetric key:            000000000000000000000000000000000000000000000000
IV:                       00000000080000000000000000000000
Plaintext:                00000000000000000000000000000000
Ciphertext:               d970cba6992074c2f5bea1952ee82b607ae5779b1abf14285afc55b9fc797e584102fa23870e5be791f080e7c71c96dde0bceace0b6ab500f9a365e525d6f8fcb370c610a6baf14909ee114e4d0b0d75
Reciphers for ciphertext: 0
Decipheredtext:           00000000000000000000000000000000
RESULT CIPHER-DECIPHER: -----OK-----


Test: 37
Hash algorithm: 5
Crypto pad: 0
Symmetric key bit length: 192
IV bit length:            128
Plaintext bit length:     128
Symmetric key:            000000000000000000000000000000000000000000000000
IV:                       00000000040000000000000000000000
Plaintext:                00000000000000000000000000000000
Ciphertext:               6de2a3c48a416d9b679112fe54133fb57999310b083c0de505fb8a82483e1e2814c28533c2b98ce8bf3e4dc02f6c93c40e9c5640e64b108039b1daf690dab261
Reciphers for ciphertext: 0
Decipheredtext:           00000000000000000000000000000000
RESULT CIPHER-DECIPHER: -----OK-----


Test: 38
Hash algorithm: 1
Crypto pad: 0
Symmetric key bit length: 192
IV bit length:            128
Plaintext bit length:     128
Symmetric key:            000000000000000000000000000000000000000000000000
IV:                       00000000020000000000000000000000
Plaintext:                00000000000000000000000000000000
Ciphertext:               a85b4fcf07c08c7d99fab5ffc1f7680fcebd5100e86ea6fa481ee2b4d18eb5d43168f3b9ee2daafda749d73e28e297e66c5bc164b71f8f1ebd564f9c8ebb5597
Reciphers for ciphertext: 0
Decipheredtext:           00000000000000000000000000000000
RESULT CIPHER-DECIPHER: -----OK-----


Test: 39
Hash algorithm: 8
Crypto pad: 2
Symmetric key bit length: 192
IV bit length:            128
Plaintext bit length:     128
Symmetric key:            000000000000000000000000000000000000000000000000
IV:                       00000000010000000000000000000000
Plaintext:                00000000000000000000000000000000
Ciphertext:               c4d174f3a6489b334a612ddf4c01903b17d623a888a613b2a7ea5a7c121c55ddb1f7c7f2b91a8a014b5815a914fec2bbd0434c7f2e956a41bafda2352d4d26a1
Reciphers for ciphertext: 0
Decipheredtext:           00000000000000000000000000000000
RESULT CIPHER-DECIPHER: -----OK-----


Test: 40
Hash algorithm: 9
Crypto pad: 1
Symmetric key bit length: 192
IV bit length:            128
Plaintext bit length:     128
Symmetric key:            000000000000000000000000000000000000000000000000
IV:                       00000000008000000000000000000000
Plaintext:                00000000000000000000000000000000
Ciphertext:               f428ce9715b50860eb9dac15b475803ddd4ce18aacd36cf731bddcbae32f3e46a0cfffa34c6c6d8a8bf10870afff6d3d95595cce0ffaf696d010978237fd5474a65baa2f8284e0b75fb8aefa584b15ab
Reciphers for ciphertext: 0
Decipheredtext:           00000000000000000000000000000000
RESULT CIPHER-DECIPHER: -----OK-----


Test: 41
Hash algorithm: 13
Crypto pad: 0
Symmetric key bit length: 192
IV bit length:            128
Plaintext bit length:     128
Symmetric key:            000000000000000000000000000000000000000000000000
IV:                       00000000004000000000000000000000
Plaintext:                00000000000000000000000000000000
Ciphertext:               15a4c8c2ec76338fd7f4ccbc22335a67ff2b5c96c1781944f9cc270702216f3d33a91521d37a03fce701c4798fc20a91e008b56fbab7e3cd7c9307b2507820ec
Reciphers for ciphertext: 0
Decipheredtext:           00000000000000000000000000000000
RESULT CIPHER-DECIPHER: -----OK-----


Test: 42
Hash algorithm: 11
Crypto pad: 2
Symmetric key bit length: 192
IV bit length:            128
Plaintext bit length:     128
Symmetric key:            000000000000000000000000000000000000000000000000
IV:                       00000000002000000000000000000000
Plaintext:                00000000000000000000000000000000
Ciphertext:               78782ca4652234a2b363d8da766ccdb85ca29c2e30cfd907d69ddd78cd01d1493d87e1719cca0d8536c373c9c5e078e867a1b06a4d7e1f6e28c401c276d74818
Reciphers for ciphertext: 0
Decipheredtext:           00000000000000000000000000000000
RESULT CIPHER-DECIPHER: -----OK-----


Test: 43
Hash algorithm: 11
Crypto pad: 0
Symmetric key bit length: 192
IV bit length:            128
Plaintext bit length:     128
Symmetric key:            000000000000000000000000000000000000000000000000
IV:                       00000000001000000000000000000000
Plaintext:                00000000000000000000000000000000
Ciphertext:               b9ac015cc263572caee0e34683b3f6e0f1e6eb9fe2fc843f7a17b0b800cef4655af682a7699d37c2280ae23ca592052408af91e210de282290c325731bdf776f
Reciphers for ciphertext: 0
Decipheredtext:           00000000000000000000000000000000
RESULT CIPHER-DECIPHER: -----OK-----


Test: 44
Hash algorithm: 0
Crypto pad: 0
Symmetric key bit length: 192
IV bit length:            128
Plaintext bit length:     128
Symmetric key:            000000000000000000000000000000000000000000000000
IV:                       00000000000800000000000000000000
Plaintext:                00000000000000000000000000000000
Ciphertext:               7990673b85f6a31660293f4b7295e2968d6c2885cde9cd1000bcc351a840cb9cd424efb1e342912f5750c6aca7c324a51115423b4079b6a29f86e2257b875ac8
Reciphers for ciphertext: 0
Decipheredtext:           00000000000000000000000000000000
RESULT CIPHER-DECIPHER: -----OK-----


Test: 45
Hash algorithm: 3
Crypto pad: 0
Symmetric key bit length: 192
IV bit length:            128
Plaintext bit length:     128
Symmetric key:            000000000000000000000000000000000000000000000000
IV:                       00000000000400000000000000000000
Plaintext:                00000000000000000000000000000000
Ciphertext:               32210034b38a6810f1623bdc777a5e30b3716eddb954a8c486f5857a89eebcca267932a4877892c3f8b6c756b8e506d81302eb510abd3b34dd269bc43adb7a5c17ba975ccb73009ad295922311ab7d0752b7b7c0b914c08e47ce7cc602223f88
Reciphers for ciphertext: 0
Decipheredtext:           00000000000000000000000000000000
RESULT CIPHER-DECIPHER: -----OK-----


Test: 46
Hash algorithm: 12
Crypto pad: 2
Symmetric key bit length: 192
IV bit length:            128
Plaintext bit length:     128
Symmetric key:            000000000000000000000000000000000000000000000000
IV:                       00000000000200000000000000000000
Plaintext:                00000000000000000000000000000000
Ciphertext:               189b8ec3470085b3da97e82ca8964e32e84efd0b1d14b3da9bd15f073a1f7a7afc1a676151de44f223a2bedb720e2daef949c73fdb1586a1ad2b7205bff1f7a5
Reciphers for ciphertext: 0
Decipheredtext:           00000000000000000000000000000000
RESULT CIPHER-DECIPHER: -----OK-----


Test: 47
Hash algorithm: 5
Crypto pad: 2
Symmetric key bit length: 192
IV bit length:            128
Plaintext bit length:     128
Symmetric key:            000000000000000000000000000000000000000000000000
IV:                       00000000000100000000000000000000
Plaintext:                00000000000000000000000000000000
Ciphertext:               1e5c3b6e60715a4ee2397d86128feb23eb6b1256990e49a74f2da8e6560c5025fdf98b376f152e080f95994b9bd38720f20111353ee8e1717144841b7ec8d762
Reciphers for ciphertext: 0
Decipheredtext:           00000000000000000000000000000000
RESULT CIPHER-DECIPHER: -----OK-----


Test: 48
Hash algorithm: 8
Crypto pad: 2
Symmetric key bit length: 192
IV bit length:            128
Plaintext bit length:     128
Symmetric key:            000000000000000000000000000000000000000000000000
IV:                       00000000000080000000000000000000
Plaintext:                00000000000000000000000000000000
Ciphertext:               209e0c925c6eba5ee377b3fd99dc74ecbbb1857ed11d487098100ee7399b0b81bebad0524744f3e2406bfc6161bc3b5de8fa658db8ef3712eea01f801f5be8c5
Reciphers for ciphertext: 0
Decipheredtext:           00000000000000000000000000000000
RESULT CIPHER-DECIPHER: -----OK-----


Test: 49
Hash algorithm: 2
Crypto pad: 1
Symmetric key bit length: 192
IV bit length:            128
Plaintext bit length:     128
Symmetric key:            000000000000000000000000000000000000000000000000
IV:                       00000000000040000000000000000000
Plaintext:                00000000000000000000000000000000
Ciphertext:               d6d11ea627c1fe32e1ff75f69f2ef9126b2539a26d4e39cd6a25d22a3823b13a4d871e6eb1eb6e8d655a1afb4a600c50d5d8a788e79284797ea8893434dc5ff7539bb711757dbb02f75784e1169b1ddc
Reciphers for ciphertext: 0
Decipheredtext:           00000000000000000000000000000000
RESULT CIPHER-DECIPHER: -----OK-----


Test: 50
Hash algorithm: 1
Crypto pad: 2
Symmetric key bit length: 192
IV bit length:            128
Plaintext bit length:     128
Symmetric key:            000000000000000000000000000000000000000000000000
IV:                       00000000000020000000000000000000
Plaintext:                00000000000000000000000000000000
Ciphertext:               330fa8dafe4a31dd83168f9a81c6bff83e0633351f276f1c8e7a4263e1395ac3a490ab2d3700ae9c19b3875c22f410d63c0a30d6de56d48fdaeec7f731f497a3
Reciphers for ciphertext: 0
Decipheredtext:           00000000000000000000000000000000
RESULT CIPHER-DECIPHER: -----OK-----


Test: 51
Hash algorithm: 0
Crypto pad: 0
Symmetric key bit length: 192
IV bit length:            128
Plaintext bit length:     128
Symmetric key:            000000000000000000000000000000000000000000000000
IV:                       00000000000010000000000000000000
Plaintext:                00000000000000000000000000000000
Ciphertext:               733b41f6263c4669ae05eba35924552856e0c159740737eb3087bc0c75277c550db856d8c3791cb54983c55419d8807a8e10c29aa6f28e54714ee4253ccc368b
Reciphers for ciphertext: 0
Decipheredtext:           00000000000000000000000000000000
RESULT CIPHER-DECIPHER: -----OK-----


Test: 52
Hash algorithm: 1
Crypto pad: 2
Symmetric key bit length: 192
IV bit length:            128
Plaintext bit length:     128
Symmetric key:            000000000000000000000000000000000000000000000000
IV:                       00000000000008000000000000000000
Plaintext:                00000000000000000000000000000000
Ciphertext:               462d605055949e84e16ffcc1d8ce18e05d1aca60042a4160eed6628016b4516736024e508f32cc7d146956785957954575ee92c115fad57260efd6cae1283635
Reciphers for ciphertext: 0
Decipheredtext:           00000000000000000000000000000000
RESULT CIPHER-DECIPHER: -----OK-----


Test: 53
Hash algorithm: 13
Crypto pad: 0
Symmetric key bit length: 192
IV bit length:            128
Plaintext bit length:     128
Symmetric key:            000000000000000000000000000000000000000000000000
IV:                       00000000000004000000000000000000
Plaintext:                00000000000000000000000000000000
Ciphertext:               eba12bd6b1bf6e263037e89a34b1468aef3fd1268e3a63881ff8bdb02af5549240418f6f2fe6e785ba04a659227e00e3429313e9af1bba118bac6e72550c72e9
Reciphers for ciphertext: 0
Decipheredtext:           00000000000000000000000000000000
RESULT CIPHER-DECIPHER: -----OK-----


Test: 54
Hash algorithm: 3
Crypto pad: 2
Symmetric key bit length: 192
IV bit length:            128
Plaintext bit length:     128
Symmetric key:            000000000000000000000000000000000000000000000000
IV:                       00000000000002000000000000000000
Plaintext:                00000000000000000000000000000000
Ciphertext:               cfb0119561a328e22fdaac332097a0ae56343066cf67dc4dc7dca42d1d2c304b93fe07f5602fdc5503f352c1037ae78cf75e4605ecc4f44efb5a2594792dea708ba33b678bb3bef521c7490da37c1454dc76b037c7e14f0ec935b343cf3d222b
Reciphers for ciphertext: 0
Decipheredtext:           00000000000000000000000000000000
RESULT CIPHER-DECIPHER: -----OK-----


Test: 55
Hash algorithm: 6
Crypto pad: 1
Symmetric key bit length: 192
IV bit length:            128
Plaintext bit length:     128
Symmetric key:            000000000000000000000000000000000000000000000000
IV:                       00000000000001000000000000000000
Plaintext:                00000000000000000000000000000000
Ciphertext:               65477c9404927a19a24dcb813012cd6b13f5167f1c854cd8b8061d3a09362f3eb97fc91b9441ef432a326be3a6de96491892f781092d2a66d3d5af7cd8643c969bee4ff5b962104d30f46dffae3fba7c
Reciphers for ciphertext: 0
Decipheredtext:           00000000000000000000000000000000
RESULT CIPHER-DECIPHER: -----OK-----


Test: 56
Hash algorithm: 13
Crypto pad: 2
Symmetric key bit length: 192
IV bit length:            128
Plaintext bit length:     128
Symmetric key:            000000000000000000000000000000000000000000000000
IV:                       00000000000000800000000000000000
Plaintext:                00000000000000000000000000000000
Ciphertext:               71c538be7c7c25ac9c9bf433c439a81c5224a0e0df5641f77e3a209ae365e07e038a17aec089abe7765726962efe64433171f35925cd4bb2a222e3b80ab00bd1
Reciphers for ciphertext: 0
Decipheredtext:           00000000000000000000000000000000
RESULT CIPHER-DECIPHER: -----OK-----


Test: 57
Hash algorithm: 7
Crypto pad: 2
Symmetric key bit length: 192
IV bit length:            128
Plaintext bit length:     128
Symmetric key:            000000000000000000000000000000000000000000000000
IV:                       00000000000000400000000000000000
Plaintext:                00000000000000000000000000000000
Ciphertext:               43ff9632b748a0e5bb93c80b7a72d1e639f8a18d761f511d85ea8f30cf2e029c534198e678bd8ddbd554b6b503b3afb52b64ec1bf2ace5b8ab72910292268295
Reciphers for ciphertext: 0
Decipheredtext:           00000000000000000000000000000000
RESULT CIPHER-DECIPHER: -----OK-----


Test: 58
Hash algorithm: 4
Crypto pad: 0
Symmetric key bit length: 192
IV bit length:            128
Plaintext bit length:     128
Symmetric key:            000000000000000000000000000000000000000000000000
IV:                       00000000000000200000000000000000
Plaintext:                00000000000000000000000000000000
Ciphertext:               958934c3731793b6501508488515386baaf8d796f36a4f52eccc7545718ff04b9e307a9d5312aedcd8a8820372e032ef26e92779742d3e6acb593c24e9c7553d96bfe709cd942f09a033f016254b8d58118fda4c16a0fe4346c3d3b24de6604858c72186d3dc59af9d964e76e523cf15
Reciphers for ciphertext: 0
Decipheredtext:           00000000000000000000000000000000
RESULT CIPHER-DECIPHER: -----OK-----


Test: 59
Hash algorithm: 0
Crypto pad: 2
Symmetric key bit length: 192
IV bit length:            128
Plaintext bit length:     128
Symmetric key:            000000000000000000000000000000000000000000000000
IV:                       00000000000000100000000000000000
Plaintext:                00000000000000000000000000000000
Ciphertext:               74e629f351506259f0e5ba5616195941db1886aa67cd2da3fc46ebe474790774afd90e8497483b3a45892f0fde4db3df1dc61c4f2586c0b72894e9ad2a7ac55e
Reciphers for ciphertext: 0
Decipheredtext:           00000000000000000000000000000000
RESULT CIPHER-DECIPHER: -----OK-----


Test: 60
Hash algorithm: 12
Crypto pad: 0
Symmetric key bit length: 192
IV bit length:            128
Plaintext bit length:     128
Symmetric key:            000000000000000000000000000000000000000000000000
IV:                       00000000000000080000000000000000
Plaintext:                00000000000000000000000000000000
Ciphertext:               c12671b5543b37ee8045e21738b484566a5fb32283359008de6a2724f4e9451ec7514c34b042699eb503e41fe94d282e56b17ffffd69955793e1c2ab777d583d
Reciphers for ciphertext: 0
Decipheredtext:           00000000000000000000000000000000
RESULT CIPHER-DECIPHER: -----OK-----


Test: 61
Hash algorithm: 2
Crypto pad: 0
Symmetric key bit length: 192
IV bit length:            128
Plaintext bit length:     128
Symmetric key:            000000000000000000000000000000000000000000000000
IV:                       00000000000000040000000000000000
Plaintext:                00000000000000000000000000000000
Ciphertext:               efeb1397a75a6d11b76c5aa522c01dd3a8e59775d723f559707d5b343ce5cd3c5e9e683c201396bf664ebbe22ae8d6151394f498bd0af5d181eeb67261e2e2cb3b7e4a2e7e7f1392913769346c284af1
Reciphers for ciphertext: 0
Decipheredtext:           00000000000000000000000000000000
RESULT CIPHER-DECIPHER: -----OK-----


Test: 62
Hash algorithm: 9
Crypto pad: 1
Symmetric key bit length: 192
IV bit length:            128
Plaintext bit length:     128
Symmetric key:            000000000000000000000000000000000000000000000000
IV:                       00000000000000020000000000000000
Plaintext:                00000000000000000000000000000000
Ciphertext:               40fcf95ce176d4c0614d49836af9b7b915516dabe959d5555c63077d93fda0af9df68c71cca0671e23476e7605379bc1808c85c1d6d48cb3f2eec2f4ae302503565be577f548a8a8fdbd10f6495ecb29
Reciphers for ciphertext: 0
Decipheredtext:           00000000000000000000000000000000
RESULT CIPHER-DECIPHER: -----OK-----


Test: 63
Hash algorithm: 8
Crypto pad: 0
Symmetric key bit length: 192
IV bit length:            128
Plaintext bit length:     128
Symmetric key:            000000000000000000000000000000000000000000000000
IV:                       00000000000000010000000000000000
Plaintext:                00000000000000000000000000000000
Ciphertext:               800532e2359c581ab7375a0023e5619f1993b04ab6b8c36211b13a2f7277a27b938a08f1a815860cec1685f59662f0857d52ea5699bb2010aa2f2e4898f1c86a
Reciphers for ciphertext: 0
Decipheredtext:           00000000000000000000000000000000
RESULT CIPHER-DECIPHER: -----OK-----


Test: 64
Hash algorithm: 10
Crypto pad: 1
Symmetric key bit length: 192
IV bit length:            128
Plaintext bit length:     128
Symmetric key:            000000000000000000000000000000000000000000000000
IV:                       00000000000000008000000000000000
Plaintext:                00000000000000000000000000000000
Ciphertext:               02f4ee73fff08f688c534b8db1cf192f9cd1d05402d659730aab5b1dd6e23c2a7b80f1b06b5a41640420f61c995b0ff65ef2173457046145a4dcf16208fd995c802038db93b398c692830e121142363c
Reciphers for ciphertext: 0
Decipheredtext:           00000000000000000000000000000000
RESULT CIPHER-DECIPHER: -----OK-----


Test: 65
Hash algorithm: 10
Crypto pad: 0
Symmetric key bit length: 192
IV bit length:            128
Plaintext bit length:     128
Symmetric key:            000000000000000000000000000000000000000000000000
IV:                       00000000000000004000000000000000
Plaintext:                00000000000000000000000000000000
Ciphertext:               703e4282110f7d27a6571abd98152d2b91999bd50ba6ca418e1d098ac7d40b43c6d52b021e94ce9d57cb9b2270c3708310ac06b9476dfb9477f46f240ba34f5b9643be2d6c52491d507444ec9f79454e
Reciphers for ciphertext: 0
Decipheredtext:           00000000000000000000000000000000
RESULT CIPHER-DECIPHER: -----OK-----


Test: 66
Hash algorithm: 5
Crypto pad: 2
Symmetric key bit length: 192
IV bit length:            128
Plaintext bit length:     128
Symmetric key:            000000000000000000000000000000000000000000000000
IV:                       00000000000000002000000000000000
Plaintext:                00000000000000000000000000000000
Ciphertext:               f93b8b96d84d6457c2def803789e58fb51e6ec2fa24a43070c21b62bbc981987da9a4ea7c8e8d9517543337d6b71462e63e53ded7be402b7ae2d0fb712d9ece0
Reciphers for ciphertext: 0
Decipheredtext:           00000000000000000000000000000000
RESULT CIPHER-DECIPHER: -----OK-----


Test: 67
Hash algorithm: 8
Crypto pad: 0
Symmetric key bit length: 192
IV bit length:            128
Plaintext bit length:     128
Symmetric key:            000000000000000000000000000000000000000000000000
IV:                       00000000000000001000000000000000
Plaintext:                00000000000000000000000000000000
Ciphertext:               3291f29dc7a8fa6bfbab3080d46c8f4e9b7e7ad55e2eb0f9895cf9ac7cffb4ab8e540a2bfb5352e2ff36ce093d1bb1119359f3cc0a3d6a9e562f06ca21948fb2
Reciphers for ciphertext: 0
Decipheredtext:           00000000000000000000000000000000
RESULT CIPHER-DECIPHER: -----OK-----


Test: 68
Hash algorithm: 4
Crypto pad: 0
Symmetric key bit length: 192
IV bit length:            128
Plaintext bit length:     128
Symmetric key:            000000000000000000000000000000000000000000000000
IV:                       00000000000000000800000000000000
Plaintext:                00000000000000000000000000000000
Ciphertext:               48a880f8db4317311f7fc7c534734c59a9182f02b447f068763b3b8436e49f2410ebd6330edad5b2bc7bc07c75db7dbd4cb74e633fab375072a639e43780763fec4bb8fca4d2b1c162c3e622798e8a6f3ab06d99b9b99da78fb739c4deb0a7a2ab9745b3b13fea3323aea4990e922c2f
Reciphers for ciphertext: 0
Decipheredtext:           00000000000000000000000000000000
RESULT CIPHER-DECIPHER: -----OK-----


Test: 69
Hash algorithm: 0
Crypto pad: 0
Symmetric key bit length: 192
IV bit length:            128
Plaintext bit length:     128
Symmetric key:            000000000000000000000000000000000000000000000000
IV:                       00000000000000000400000000000000
Plaintext:                00000000000000000000000000000000
Ciphertext:               056ee1a0611b70d8b476a926a260908bf6b51ba8518e3f16a4b64359bdeed1c6b76d5d31e8771a9232ce9d166de84b5463508bef88f41e1e0aa92155ec3ec3db
Reciphers for ciphertext: 0
Decipheredtext:           00000000000000000000000000000000
RESULT CIPHER-DECIPHER: -----OK-----


Test: 70
Hash algorithm: 5
Crypto pad: 0
Symmetric key bit length: 192
IV bit length:            128
Plaintext bit length:     128
Symmetric key:            000000000000000000000000000000000000000000000000
IV:                       00000000000000000200000000000000
Plaintext:                00000000000000000000000000000000
Ciphertext:               0b22b4f0679776283a545ea4827f5d9d49cdeb5f9862441e6b5ea188400702f4a39f5dcd5dc90056e730a6f4c218337ca1cf266046cd6761e86abcfda8f11f16
Reciphers for ciphertext: 0
Decipheredtext:           00000000000000000000000000000000
RESULT CIPHER-DECIPHER: -----OK-----


Test: 71
Hash algorithm: 11
Crypto pad: 1
Symmetric key bit length: 192
IV bit length:            128
Plaintext bit length:     128
Symmetric key:            000000000000000000000000000000000000000000000000
IV:                       00000000000000000100000000000000
Plaintext:                00000000000000000000000000000000
Ciphertext:               b4983ccdb7953ea334fdb51232dd607fea36f3a137611c77fdbfea82ac5c2eb27ff9c454990dd26b337858bd438eb68ad9c6cf3a2e782940f244779fcf75633e
Reciphers for ciphertext: 0
Decipheredtext:           00000000000000000000000000000000
RESULT CIPHER-DECIPHER: -----OK-----


Test: 72
Hash algorithm: 7
Crypto pad: 1
Symmetric key bit length: 192
IV bit length:            128
Plaintext bit length:     128
Symmetric key:            000000000000000000000000000000000000000000000000
IV:                       00000000000000000080000000000000
Plaintext:                00000000000000000000000000000000
Ciphertext:               84c360cdb59408fbff6c1d98b633a1670216106677689150af167b9e8a27a603e0eff6a9b4f64e367f01526baf9c4c3afd0c3c6794807df36163189c04fc6a01
Reciphers for ciphertext: 0
Decipheredtext:           00000000000000000000000000000000
RESULT CIPHER-DECIPHER: -----OK-----


Test: 73
Hash algorithm: 8
Crypto pad: 2
Symmetric key bit length: 192
IV bit length:            128
Plaintext bit length:     128
Symmetric key:            000000000000000000000000000000000000000000000000
IV:                       00000000000000000040000000000000
Plaintext:                00000000000000000000000000000000
Ciphertext:               99370507d1c662282477ee90fa4e72b9d39aebd3b0e7d21b516aeca0788290d7e5d92930b0f23526b5441a4c14095b52d71792f74cd5dab401fe60cfb657126e
Reciphers for ciphertext: 0
Decipheredtext:           00000000000000000000000000000000
RESULT CIPHER-DECIPHER: -----OK-----


Test: 74
Hash algorithm: 10
Crypto pad: 2
Symmetric key bit length: 192
IV bit length:            128
Plaintext bit length:     128
Symmetric key:            000000000000000000000000000000000000000000000000
IV:                       00000000000000000020000000000000
Plaintext:                00000000000000000000000000000000
Ciphertext:               71f8ee3b5575730281c6826d80b4c46c7c2774a7e5edc7083346403c06053ea0ef361ad58bd68538987c5c125799adb163682f94c87dfae54fc5a7a81a199e3157e7d4068bed53537892bb4cf217fed5
Reciphers for ciphertext: 0
Decipheredtext:           00000000000000000000000000000000
RESULT CIPHER-DECIPHER: -----OK-----


Test: 75
Hash algorithm: 1
Crypto pad: 1
Symmetric key bit length: 192
IV bit length:            128
Plaintext bit length:     128
Symmetric key:            000000000000000000000000000000000000000000000000
IV:                       00000000000000000010000000000000
Plaintext:                00000000000000000000000000000000
Ciphertext:               33a80e4a9d495bfe8f76e07a1ea05ed077a8404e7f18bde7ebc069fdd1f747b2055993fdf76f9243489d27e3b1d4cc8a6e4f2b7b76691a5dc7dfc59f2c9f7dc8
Reciphers for ciphertext: 0
Decipheredtext:           00000000000000000000000000000000
RESULT CIPHER-DECIPHER: -----OK-----


Test: 76
Hash algorithm: 10
Crypto pad: 1
Symmetric key bit length: 192
IV bit length:            128
Plaintext bit length:     128
Symmetric key:            000000000000000000000000000000000000000000000000
IV:                       00000000000000000008000000000000
Plaintext:                00000000000000000000000000000000
Ciphertext:               3db3dbf045c4023b584e8568d25952ebc98b92fa430016cd407506e31827b381ff1da9454e3bab1fd832232071b15165d409491c6566a4ecf538b26731bce5d747192f3f68e53cc34622b6b3338cf789
Reciphers for ciphertext: 0
Decipheredtext:           00000000000000000000000000000000
RESULT CIPHER-DECIPHER: -----OK-----


Test: 77
Hash algorithm: 7
Crypto pad: 0
Symmetric key bit length: 192
IV bit length:            128
Plaintext bit length:     128
Symmetric key:            000000000000000000000000000000000000000000000000
IV:                       00000000000000000004000000000000
Plaintext:                00000000000000000000000000000000
Ciphertext:               a7a9058c51ceb88f05e6cb97a492372706a3a50c686ab493b2043845dc6fec53a459a2752370de6ef6bb0dd0336641da9d99e107eb65a74e7f819728e2f9cb02
Reciphers for ciphertext: 0
Decipheredtext:           00000000000000000000000000000000
RESULT CIPHER-DECIPHER: -----OK-----


Test: 78
Hash algorithm: 6
Crypto pad: 2
Symmetric key bit length: 192
IV bit length:            128
Plaintext bit length:     128
Symmetric key:            000000000000000000000000000000000000000000000000
IV:                       00000000000000000002000000000000
Plaintext:                00000000000000000000000000000000
Ciphertext:               1e977f546daae78f553861f420e89e62c087366ce1268be47611cedac15d120af3ef20d76db32b357995e5a75db8aa8360a755f7f0f214bfa73bdd9f0400e1ffcad1ccd7a13121bc288bccf304423195
Reciphers for ciphertext: 0
Decipheredtext:           00000000000000000000000000000000
RESULT CIPHER-DECIPHER: -----OK-----


Test: 79
Hash algorithm: 5
Crypto pad: 0
Symmetric key bit length: 192
IV bit length:            128
Plaintext bit length:     128
Symmetric key:            000000000000000000000000000000000000000000000000
IV:                       00000000000000000001000000000000
Plaintext:                00000000000000000000000000000000
Ciphertext:               9f47bea3e662ca502341f727ecf64ff0e3b053e029cde20520c9b497086a34eea8c5188b438e6a246a31b7be6379cb8193a423aced9209a79ea3110b745c65fd
Reciphers for ciphertext: 0
Decipheredtext:           00000000000000000000000000000000
RESULT CIPHER-DECIPHER: -----OK-----


Test: 80
Hash algorithm: 0
Crypto pad: 2
Symmetric key bit length: 192
IV bit length:            128
Plaintext bit length:     128
Symmetric key:            000000000000000000000000000000000000000000000000
IV:                       00000000000000000000800000000000
Plaintext:                00000000000000000000000000000000
Ciphertext:               723c52ca0635fc08c4818a8d386bf2caf940f379223f561ff7b9795a7e3bf78ad486334db5906f234247a21059b425cecabfb23eb523b18543010ba6f1665fb6
Reciphers for ciphertext: 0
Decipheredtext:           00000000000000000000000000000000
RESULT CIPHER-DECIPHER: -----OK-----


Test: 81
Hash algorithm: 4
Crypto pad: 2
Symmetric key bit length: 192
IV bit length:            128
Plaintext bit length:     128
Symmetric key:            000000000000000000000000000000000000000000000000
IV:                       00000000000000000000400000000000
Plaintext:                00000000000000000000000000000000
Ciphertext:               562ad986fc63064fed5b8e77a575a079d446e1a3322bc2f100d90273a96eed7fe533ac9f0395e5c09cb7c9e9d950315ac92d952f660089dd6229edbb8d5ca5e0e8cca7738fbde750e65d6083b2112dc0c70ccef3f5748f6ee59cad5edcf8cb28a72bdafc97551c079376ea22a1cea9be
Reciphers for ciphertext: 0
Decipheredtext:           00000000000000000000000000000000
RESULT CIPHER-DECIPHER: -----OK-----


Test: 82
Hash algorithm: 8
Crypto pad: 2
Symmetric key bit length: 192
IV bit length:            128
Plaintext bit length:     128
Symmetric key:            000000000000000000000000000000000000000000000000
IV:                       00000000000000000000200000000000
Plaintext:                00000000000000000000000000000000
Ciphertext:               3209896941454c0d59e17df9e99ee590c0ce0304e39fc8e4d2abc14adf55e98a843c97462381264253d2d84e228057c866d28fe7f13f1ebadf55fc6b9f48134b
Reciphers for ciphertext: 0
Decipheredtext:           00000000000000000000000000000000
RESULT CIPHER-DECIPHER: -----OK-----


Test: 83
Hash algorithm: 0
Crypto pad: 2
Symmetric key bit length: 192
IV bit length:            128
Plaintext bit length:     128
Symmetric key:            000000000000000000000000000000000000000000000000
IV:                       00000000000000000000100000000000
Plaintext:                00000000000000000000000000000000
Ciphertext:               afa1d3a3a7c49544ecd0f005fe4adf30cef857dc0435c039199f5e3a2f7b782277643a1975b27ff14a6d6d0305654a8cb6792d47dfcb470824c0dcf66ef39924
Reciphers for ciphertext: 0
Decipheredtext:           00000000000000000000000000000000
RESULT CIPHER-DECIPHER: -----OK-----


Test: 84
Hash algorithm: 7
Crypto pad: 1
Symmetric key bit length: 192
IV bit length:            128
Plaintext bit length:     128
Symmetric key:            000000000000000000000000000000000000000000000000
IV:                       00000000000000000000080000000000
Plaintext:                00000000000000000000000000000000
Ciphertext:               d0c15dbaa5f877a191e7ed56d1546dbf2a8b89fe65d8a94fa27b1ec13d71875cfabadaca46b3807e4cfada73dfbb1ad74af9871adbc32d7ec3961ddb7953df91
Reciphers for ciphertext: 0
Decipheredtext:           00000000000000000000000000000000
RESULT CIPHER-DECIPHER: -----OK-----


Test: 85
Hash algorithm: 10
Crypto pad: 1
Symmetric key bit length: 192
IV bit length:            128
Plaintext bit length:     128
Symmetric key:            000000000000000000000000000000000000000000000000
IV:                       00000000000000000000040000000000
Plaintext:                00000000000000000000000000000000
Ciphertext:               467e0e629df57e2af5fd7a53b286222c3a14da23c0f7a440b539cd6d1d22dc5f8f3201a7ff0f7ff6500371d5ba906e5aabc4c5f416e906d0df0996f241b575bc49ef57b17efb28e72e0cc9180728b3e5
Reciphers for ciphertext: 0
Decipheredtext:           00000000000000000000000000000000
RESULT CIPHER-DECIPHER: -----OK-----


Test: 86
Hash algorithm: 6
Crypto pad: 1
Symmetric key bit length: 192
IV bit length:            128
Plaintext bit length:     128
Symmetric key:            000000000000000000000000000000000000000000000000
IV:                       00000000000000000000020000000000
Plaintext:                00000000000000000000000000000000
Ciphertext:               8097e51df87b86a1756436f5ec835f546b3f5571a29bf4cdc34db1d1240ef3f7c223c44663cbd1084b6a2b437d24e803aec4c380e0b6208252197a664f0786749dc916bbd63720088c50e51fcb4b56c0
Reciphers for ciphertext: 0
Decipheredtext:           00000000000000000000000000000000
RESULT CIPHER-DECIPHER: -----OK-----


Test: 87
Hash algorithm: 0
Crypto pad: 2
Symmetric key bit length: 192
IV bit length:            128
Plaintext bit length:     128
Symmetric key:            000000000000000000000000000000000000000000000000
IV:                       00000000000000000000010000000000
Plaintext:                00000000000000000000000000000000
Ciphertext:               bc06ed199ac6a8be027a5b57e348765e6aa661b6a031ed37525b71f0322ce5f8adf6f1623a042cf74bdd964847e8247377f75fda9540cd477b372c59de0048a3
Reciphers for ciphertext: 0
Decipheredtext:           00000000000000000000000000000000
RESULT CIPHER-DECIPHER: -----OK-----


Test: 88
Hash algorithm: 5
Crypto pad: 1
Symmetric key bit length: 192
IV bit length:            128
Plaintext bit length:     128
Symmetric key:            000000000000000000000000000000000000000000000000
IV:                       00000000000000000000008000000000
Plaintext:                00000000000000000000000000000000
Ciphertext:               f77d868cf760b9143a89809510ccb0991759415cdc05379aa94037e02c9dcc3290230e00ce3d4fdb6d19d8ad9718f12b168d8d29dfe5494ca97e434203b85896
Reciphers for ciphertext: 0
Decipheredtext:           00000000000000000000000000000000
RESULT CIPHER-DECIPHER: -----OK-----


Test: 89
Hash algorithm: 10
Crypto pad: 1
Symmetric key bit length: 192
IV bit length:            128
Plaintext bit length:     128
Symmetric key:            000000000000000000000000000000000000000000000000
IV:                       00000000000000000000004000000000
Plaintext:                00000000000000000000000000000000
Ciphertext:               6ac27194ccb8b8c5a9ef91c460babc4f572ed284e0510a30b6b4e63a03556aed17ec2e8d47f9b38fba01ff1834cd542cdafcd87056319a247fb80e948449eb7ff72543e2dee8ce273b34a1bdc8f8b9a1
Reciphers for ciphertext: 0
Decipheredtext:           00000000000000000000000000000000
RESULT CIPHER-DECIPHER: -----OK-----


Test: 90
Hash algorithm: 9
Crypto pad: 2
Symmetric key bit length: 192
IV bit length:            128
Plaintext bit length:     128
Symmetric key:            000000000000000000000000000000000000000000000000
IV:                       00000000000000000000002000000000
Plaintext:                00000000000000000000000000000000
Ciphertext:               90ecb7adf91e1664d96ddfa84f3e3b7a2655060785478a6de364f0c040c57a9f77fa0600adb9b868db63e81a1f687c037244cb502d1be5a7a82a2b6b644eec28d1cab6f2145344fb0b3fa8ed28946dec
Reciphers for ciphertext: 0
Decipheredtext:           00000000000000000000000000000000
RESULT CIPHER-DECIPHER: -----OK-----


Test: 91
Hash algorithm: 9
Crypto pad: 2
Symmetric key bit length: 192
IV bit length:            128
Plaintext bit length:     128
Symmetric key:            000000000000000000000000000000000000000000000000
IV:                       00000000000000000000001000000000
Plaintext:                00000000000000000000000000000000
Ciphertext:               c9344eaead5b2d403df0b0e23edda5db41a50be27dea123ab31cee17a76eff4989eacd1747ff557e3ec104582a217c8d2a73fd72100cafbe2f821148bd8d5b08cf848072686d49304dcc1799975c557b
Reciphers for ciphertext: 0
Decipheredtext:           00000000000000000000000000000000
RESULT CIPHER-DECIPHER: -----OK-----


Test: 92
Hash algorithm: 5
Crypto pad: 1
Symmetric key bit length: 192
IV bit length:            128
Plaintext bit length:     128
Symmetric key:            000000000000000000000000000000000000000000000000
IV:                       00000000000000000000000800000000
Plaintext:                00000000000000000000000000000000
Ciphertext:               7b1e6b2e84a5fa629825f60885f73423fca148decea2c0f60f7bd1b31d1198bdc0fc77f2bfd11dd2bd13264f99eca2c021052daaab9f246999f8fc581e60151b
Reciphers for ciphertext: 0
Decipheredtext:           00000000000000000000000000000000
RESULT CIPHER-DECIPHER: -----OK-----


Test: 93
Hash algorithm: 12
Crypto pad: 1
Symmetric key bit length: 192
IV bit length:            128
Plaintext bit length:     128
Symmetric key:            000000000000000000000000000000000000000000000000
IV:                       00000000000000000000000400000000
Plaintext:                00000000000000000000000000000000
Ciphertext:               730f3bab94156e5835bd741bb8d85ef169e3ac170eb76ca11072d774ce2ec16c8417c4b8ec7ed3cf81f9a2027d1e5095703b249178507bc7a99a172ff62ee354
Reciphers for ciphertext: 0
Decipheredtext:           00000000000000000000000000000000
RESULT CIPHER-DECIPHER: -----OK-----


Test: 94
Hash algorithm: 8
Crypto pad: 2
Symmetric key bit length: 192
IV bit length:            128
Plaintext bit length:     128
Symmetric key:            000000000000000000000000000000000000000000000000
IV:                       00000000000000000000000200000000
Plaintext:                00000000000000000000000000000000
Ciphertext:               6685abc072c2dc93354a623446ee54a6f9144b46c07fd110870c0f09eadd442491935bd1465cf57f31fb88c02e83f6d98ac145754005960324e8b8af082cfe85
Reciphers for ciphertext: 0
Decipheredtext:           00000000000000000000000000000000
RESULT CIPHER-DECIPHER: -----OK-----


Test: 95
Hash algorithm: 1
Crypto pad: 0
Symmetric key bit length: 192
IV bit length:            128
Plaintext bit length:     128
Symmetric key:            000000000000000000000000000000000000000000000000
IV:                       00000000000000000000000100000000
Plaintext:                00000000000000000000000000000000
Ciphertext:               c350186035a00e5802ceda6ae90615e72f2773f7294a45842ec62066678e3f5e4418e31f981793a980d29ecb0d588cded17b9516d62bfd250e703a0a140d0b28
Reciphers for ciphertext: 0
Decipheredtext:           00000000000000000000000000000000
RESULT CIPHER-DECIPHER: -----OK-----


Test: 96
Hash algorithm: 5
Crypto pad: 1
Symmetric key bit length: 192
IV bit length:            128
Plaintext bit length:     128
Symmetric key:            000000000000000000000000000000000000000000000000
IV:                       00000000000000000000000080000000
Plaintext:                00000000000000000000000000000000
Ciphertext:               38f0bee5d234428ab287939be63bd400800beb842349ff4600056948bf2fc980d34675bb41f653bc82da32b18fc16802231aae56bc82d92145f1617651c912f2
Reciphers for ciphertext: 0
Decipheredtext:           00000000000000000000000000000000
RESULT CIPHER-DECIPHER: -----OK-----


Test: 97
Hash algorithm: 12
Crypto pad: 1
Symmetric key bit length: 192
IV bit length:            128
Plaintext bit length:     128
Symmetric key:            000000000000000000000000000000000000000000000000
IV:                       00000000000000000000000040000000
Plaintext:                00000000000000000000000000000000
Ciphertext:               59c13cf6b6608aa743a57e580a8d82bb8fd5cdd7f9ca528a8e9ad158a7c918750c1a5ea6e062cc5de7a6c8ef875009fb0a548bf9df1b84389e174962a3d5dfb6
Reciphers for ciphertext: 0
Decipheredtext:           00000000000000000000000000000000
RESULT CIPHER-DECIPHER: -----OK-----


Test: 98
Hash algorithm: 9
Crypto pad: 1
Symmetric key bit length: 192
IV bit length:            128
Plaintext bit length:     128
Symmetric key:            000000000000000000000000000000000000000000000000
IV:                       00000000000000000000000020000000
Plaintext:                00000000000000000000000000000000
Ciphertext:               60e6f6290fc3e9dc2c656bfacb387342721472a53e954af061a19536e8f574b5eb8f99a3a885260e2fe9f222ecb1cebe90bff45d8c372d1f1c68979f97ea797a3bd9c474e91592da8caf59ba11d15859
Reciphers for ciphertext: 0
Decipheredtext:           00000000000000000000000000000000
RESULT CIPHER-DECIPHER: -----OK-----


Test: 99
Hash algorithm: 8
Crypto pad: 1
Symmetric key bit length: 192
IV bit length:            128
Plaintext bit length:     128
Symmetric key:            000000000000000000000000000000000000000000000000
IV:                       00000000000000000000000010000000
Plaintext:                00000000000000000000000000000000
Ciphertext:               dd49442c7ab7443bd7e41b4b848662d2f01276f3341839b390f7cc959f320b6fe044a4c5811ece097264adbacb3015fb2b4f6e31cc1c48f8c0f370692e6cae72
Reciphers for ciphertext: 0
Decipheredtext:           00000000000000000000000000000000
RESULT CIPHER-DECIPHER: -----OK-----


Test: 100
Hash algorithm: 5
Crypto pad: 1
Symmetric key bit length: 192
IV bit length:            128
Plaintext bit length:     128
Symmetric key:            000000000000000000000000000000000000000000000000
IV:                       00000000000000000000000008000000
Plaintext:                00000000000000000000000000000000
Ciphertext:               3a18f3904cd710c501784b44b7bed928843675ebcca569256d5860cc483cd166a90b4e69b270beecdd670dcf84ee9f3efb7cb1bd11f2f8b42ea4de467d6ccd57
Reciphers for ciphertext: 0
Decipheredtext:           00000000000000000000000000000000
RESULT CIPHER-DECIPHER: -----OK-----


Test: 101
Hash algorithm: 8
Crypto pad: 2
Symmetric key bit length: 192
IV bit length:            128
Plaintext bit length:     128
Symmetric key:            000000000000000000000000000000000000000000000000
IV:                       00000000000000000000000004000000
Plaintext:                00000000000000000000000000000000
Ciphertext:               8afb4f1591681cfd0ff331f5e749899dcc129e2eb6fb2ced7c5703969277f551ea7c0ea2c1cee6527b2f0422ca6f5d7ef521b6df976bddf58a5c3b1ad4bc7c3c
Reciphers for ciphertext: 0
Decipheredtext:           00000000000000000000000000000000
RESULT CIPHER-DECIPHER: -----OK-----


Test: 102
Hash algorithm: 1
Crypto pad: 1
Symmetric key bit length: 192
IV bit length:            128
Plaintext bit length:     128
Symmetric key:            000000000000000000000000000000000000000000000000
IV:                       00000000000000000000000002000000
Plaintext:                00000000000000000000000000000000
Ciphertext:               24093cf425ca447b76edbfc957a529b3e889c1e073fa25d9449dcd1354180537cf762db5f6c93d1b60ae001bf9b51edf580cec1fb6c044851bb072dca13f90b6
Reciphers for ciphertext: 0
Decipheredtext:           00000000000000000000000000000000
RESULT CIPHER-DECIPHER: -----OK-----


Test: 103
Hash algorithm: 3
Crypto pad: 2
Symmetric key bit length: 192
IV bit length:            128
Plaintext bit length:     128
Symmetric key:            000000000000000000000000000000000000000000000000
IV:                       00000000000000000000000001000000
Plaintext:                00000000000000000000000000000000
Ciphertext:               f5734b1089880f05e728cb07b4b509191069a70d31dc4b08b260c5421e4bc9f4e955bb4274d3a02d760febed58bb616ef281f0fd4bbc1067e2506e38771da183cb9a6161e494207819ac702a9a3f6e8032cacef8d734c5ec7d5078a55a23e64f
Reciphers for ciphertext: 0
Decipheredtext:           00000000000000000000000000000000
RESULT CIPHER-DECIPHER: -----OK-----


Test: 104
Hash algorithm: 4
Crypto pad: 2
Symmetric key bit length: 192
IV bit length:            128
Plaintext bit length:     128
Symmetric key:            000000000000000000000000000000000000000000000000
IV:                       00000000000000000000000000800000
Plaintext:                00000000000000000000000000000000
Ciphertext:               e53a9ff4cdf0c76a9e5d3031e8b151da7b49cc792f9f96f7cd6b76deb7467e3caf05d13777f6c7f83305731ecbcfa06efcca225c566f5fbb7ecd5d382085911a5d1104c91ce8723487def98fa498b43de0a66aada1f83be4db8e9499a8bb99541b2ec5374a6d6223cd6771d6da05dc01
Reciphers for ciphertext: 0
Decipheredtext:           00000000000000000000000000000000
RESULT CIPHER-DECIPHER: -----OK-----


Test: 105
Hash algorithm: 2
Crypto pad: 2
Symmetric key bit length: 192
IV bit length:            128
Plaintext bit length:     128
Symmetric key:            000000000000000000000000000000000000000000000000
IV:                       00000000000000000000000000400000
Plaintext:                00000000000000000000000000000000
Ciphertext:               a59d4bfa111ac6f33624aac45518094a8295f8f8b793ef979525cf9b443a16d39190d403d949d998d0e0a7e6b4aa29f1bcc0141c3f6b2cccc552074f06fbda3c92a720d639c1c21d16ec5c4892a636e8
Reciphers for ciphertext: 0
Decipheredtext:           00000000000000000000000000000000
RESULT CIPHER-DECIPHER: -----OK-----


Test: 106
Hash algorithm: 1
Crypto pad: 0
Symmetric key bit length: 192
IV bit length:            128
Plaintext bit length:     128
Symmetric key:            000000000000000000000000000000000000000000000000
IV:                       00000000000000000000000000200000
Plaintext:                00000000000000000000000000000000
Ciphertext:               46949a5758b3b4184f684358915083dba1dd2fb17a7aeb05adc64ca53e3dd94e142dbad013364bc9de5472ab69ca16088202c9f117c436b9886329e160ea2099
Reciphers for ciphertext: 0
Decipheredtext:           00000000000000000000000000000000
RESULT CIPHER-DECIPHER: -----OK-----


Test: 107
Hash algorithm: 6
Crypto pad: 1
Symmetric key bit length: 192
IV bit length:            128
Plaintext bit length:     128
Symmetric key:            000000000000000000000000000000000000000000000000
IV:                       00000000000000000000000000100000
Plaintext:                00000000000000000000000000000000
Ciphertext:               4b3dd9621bedd5f7f54f53606737a11326637ef235a617bcb9cc2c6709ec55f91aab56114d1d4d4b0f6d350db8ef243f07c5c481db8ae2ea89e800e67a4c7a3ed51c7d3b1573043f3c420617ac67917e
Reciphers for ciphertext: 0
Decipheredtext:           00000000000000000000000000000000
RESULT CIPHER-DECIPHER: -----OK-----


Test: 108
Hash algorithm: 4
Crypto pad: 1
Symmetric key bit length: 192
IV bit length:            128
Plaintext bit length:     128
Symmetric key:            000000000000000000000000000000000000000000000000
IV:                       00000000000000000000000000080000
Plaintext:                00000000000000000000000000000000
Ciphertext:               958e939d24b0d7c9b1c237891d3b61c27302bf97789c1c353d18efdb2510005d3d434e3518a8a117af262edd4bad4096ae930126954276954f3a04f2a2a1f0d343450ac6d96b4a6636051a5afc6792ec27001e139c006f8002ef79e1acb5ddb2717d5596c6dabc388573b4d8060ae14c
Reciphers for ciphertext: 0
Decipheredtext:           00000000000000000000000000000000
RESULT CIPHER-DECIPHER: -----OK-----


Test: 109
Hash algorithm: 7
Crypto pad: 2
Symmetric key bit length: 192
IV bit length:            128
Plaintext bit length:     128
Symmetric key:            000000000000000000000000000000000000000000000000
IV:                       00000000000000000000000000040000
Plaintext:                00000000000000000000000000000000
Ciphertext:               6930b05005417f71db709b617888b43f1e4c3221d15b0f001be01f286462a82cba553ff36016a46e8c1f3ab864d7d8717c7d50939c4c41e59cf0385ab97f13c4
Reciphers for ciphertext: 0
Decipheredtext:           00000000000000000000000000000000
RESULT CIPHER-DECIPHER: -----OK-----


Test: 110
Hash algorithm: 11
Crypto pad: 2
Symmetric key bit length: 192
IV bit length:            128
Plaintext bit length:     128
Symmetric key:            000000000000000000000000000000000000000000000000
IV:                       00000000000000000000000000020000
Plaintext:                00000000000000000000000000000000
Ciphertext:               ebc7f36e81c8abece7aacd8e5dbd8905b713947f74513d4d7cbf9610f3286cf04d06666639a82edf6bb41fdf011d8b045451515790f2e1a6bf23663cdcffc658
Reciphers for ciphertext: 0
Decipheredtext:           00000000000000000000000000000000
RESULT CIPHER-DECIPHER: -----OK-----


Test: 111
Hash algorithm: 6
Crypto pad: 1
Symmetric key bit length: 192
IV bit length:            128
Plaintext bit length:     128
Symmetric key:            000000000000000000000000000000000000000000000000
IV:                       00000000000000000000000000010000
Plaintext:                00000000000000000000000000000000
Ciphertext:               a8cc6bba06b7aa9806819d7830c0c95a76963bb6d602a8b001027af6bb4774d18800a4b24b31510344a539837eb6a91aabfc43f04722aa25cead61c5c2864fced295f580df5637a4c81f48d62f4e8ba5
Reciphers for ciphertext: 0
Decipheredtext:           00000000000000000000000000000000
RESULT CIPHER-DECIPHER: -----OK-----


Test: 112
Hash algorithm: 13
Crypto pad: 2
Symmetric key bit length: 192
IV bit length:            128
Plaintext bit length:     128
Symmetric key:            000000000000000000000000000000000000000000000000
IV:                       00000000000000000000000000008000
Plaintext:                00000000000000000000000000000000
Ciphertext:               6921097106f0f151bf767e897e6bd64b0c84ccb7d9429d82058a240dbe408c0cc6b2ab136ae50cbac4e4af2015d50ef9ff6415808b5f95ddfd1e1dfd034169ec
Reciphers for ciphertext: 0
Decipheredtext:           00000000000000000000000000000000
RESULT CIPHER-DECIPHER: -----OK-----


Test: 113
Hash algorithm: 3
Crypto pad: 2
Symmetric key bit length: 192
IV bit length:            128
Plaintext bit length:     128
Symmetric key:            000000000000000000000000000000000000000000000000
IV:                       00000000000000000000000000004000
Plaintext:                00000000000000000000000000000000
Ciphertext:               bce445f2d14016520d49faa088c5724a9ee0730010e6d549472ca6391428c0fa5bd2be75f73924710738b2d95204e1fd039abd4db9e485873ed7961ceb2938bcde0040f3eb8449f23dd894def30c472a89b5a177b0b8ac5a47d8ca1d81c347d3
Reciphers for ciphertext: 0
Decipheredtext:           00000000000000000000000000000000
RESULT CIPHER-DECIPHER: -----OK-----


Test: 114
Hash algorithm: 5
Crypto pad: 1
Symmetric key bit length: 192
IV bit length:            128
Plaintext bit length:     128
Symmetric key:            000000000000000000000000000000000000000000000000
IV:                       00000000000000000000000000002000
Plaintext:                00000000000000000000000000000000
Ciphertext:               1cebadbafac634b929a1d7c1cc5d2032b932acc0751a02d7e89cfed160697640438d39eca46e73f1224aaefb4b6560cd777ed6f392be9f825bbee8f4430ab5b0
Reciphers for ciphertext: 0
Decipheredtext:           00000000000000000000000000000000
RESULT CIPHER-DECIPHER: -----OK-----


Test: 115
Hash algorithm: 13
Crypto pad: 1
Symmetric key bit length: 192
IV bit length:            128
Plaintext bit length:     128
Symmetric key:            000000000000000000000000000000000000000000000000
IV:                       00000000000000000000000000001000
Plaintext:                00000000000000000000000000000000
Ciphertext:               58461087da47ecd75993f9f64c9af7746aea7d8ed961654b65cbc4833e40a09e184534230939baf89fe1f078525af5867bb1878d8b1b030f75c15f877e8ffd8a
Reciphers for ciphertext: 0
Decipheredtext:           00000000000000000000000000000000
RESULT CIPHER-DECIPHER: -----OK-----


Test: 116
Hash algorithm: 1
Crypto pad: 2
Symmetric key bit length: 192
IV bit length:            128
Plaintext bit length:     128
Symmetric key:            000000000000000000000000000000000000000000000000
IV:                       00000000000000000000000000000800
Plaintext:                00000000000000000000000000000000
Ciphertext:               8de6083068111cd9b07b17a58b4210285cf2abb7766c94fa41cbe0a37e1989edd96c198874f30df31924fd79d410a6394f1fe3f07c81d044d4a3c930fd42aacf
Reciphers for ciphertext: 0
Decipheredtext:           00000000000000000000000000000000
RESULT CIPHER-DECIPHER: -----OK-----


Test: 117
Hash algorithm: 11
Crypto pad: 0
Symmetric key bit length: 192
IV bit length:            128
Plaintext bit length:     128
Symmetric key:            000000000000000000000000000000000000000000000000
IV:                       00000000000000000000000000000400
Plaintext:                00000000000000000000000000000000
Ciphertext:               8fd00a5dd8e6f93ebb73d3ae05c26338760bd1d208afaecf9288463dbbada5ee5d9319dd0749b42d8497788945b21fdd997bdc6bcc47e462e28a16958e42b6b3
Reciphers for ciphertext: 0
Decipheredtext:           00000000000000000000000000000000
RESULT CIPHER-DECIPHER: -----OK-----


Test: 118
Hash algorithm: 7
Crypto pad: 0
Symmetric key bit length: 192
IV bit length:            128
Plaintext bit length:     128
Symmetric key:            000000000000000000000000000000000000000000000000
IV:                       00000000000000000000000000000200
Plaintext:                00000000000000000000000000000000
Ciphertext:               7b4dc0232880d9d7edfb4d89a07a20dd86bf1fa0cddc8efefd06fa3fe351d1c0c41e04df9aeaa31cf365ab084544867d167555b95929d53aa3ad153c4c87d391
Reciphers for ciphertext: 0
Decipheredtext:           00000000000000000000000000000000
RESULT CIPHER-DECIPHER: -----OK-----


Test: 119
Hash algorithm: 5
Crypto pad: 1
Symmetric key bit length: 192
IV bit length:            128
Plaintext bit length:     128
Symmetric key:            000000000000000000000000000000000000000000000000
IV:                       00000000000000000000000000000100
Plaintext:                00000000000000000000000000000000
Ciphertext:               4fb7e947a58b192186cce9aaecc9eaa64773c00ef02f4d40a2c3b04ba03225fd7e858f6d5936bca623564b3998cdabba425708619ab01d2ffef2f53b8c124b32
Reciphers for ciphertext: 0
Decipheredtext:           00000000000000000000000000000000
RESULT CIPHER-DECIPHER: -----OK-----


Test: 120
Hash algorithm: 7
Crypto pad: 1
Symmetric key bit length: 192
IV bit length:            128
Plaintext bit length:     128
Symmetric key:            000000000000000000000000000000000000000000000000
IV:                       00000000000000000000000000000080
Plaintext:                00000000000000000000000000000000
Ciphertext:               bb8a615964c174450d7e68ad32f4f523e4519e864369af22ef6a725f58d9dc11ee9e99952e060d95bacc239b49dc09b71b94c90693ed184622e2d7f7a40fb408
Reciphers for ciphertext: 0
Decipheredtext:           00000000000000000000000000000000
RESULT CIPHER-DECIPHER: -----OK-----


Test: 121
Hash algorithm: 9
Crypto pad: 0
Symmetric key bit length: 192
IV bit length:            128
Plaintext bit length:     128
Symmetric key:            000000000000000000000000000000000000000000000000
IV:                       00000000000000000000000000000040
Plaintext:                00000000000000000000000000000000
Ciphertext:               e37cf906ae4c30a4a4e9f6364989cd56cc3dc12beed4c22549594e043571e81feff263b9710dadf7f9884562be4c01fb062bf3abe0f4cd32ed5dab8e39acc1debc57e225825b08dc2bdda44368aa9bb8
Reciphers for ciphertext: 0
Decipheredtext:           00000000000000000000000000000000
RESULT CIPHER-DECIPHER: -----OK-----


Test: 122
Hash algorithm: 9
Crypto pad: 1
Symmetric key bit length: 192
IV bit length:            128
Plaintext bit length:     128
Symmetric key:            000000000000000000000000000000000000000000000000
IV:                       00000000000000000000000000000020
Plaintext:                00000000000000000000000000000000
Ciphertext:               7b223c8e3fc51b77f4f91a464fd904b64b6778839bc68a96193f56709c242fb237f80518e71d5d1d43b84d3f660c8c2d7fdc47afe25bff8956f186205bbde4ad63c3a9c4c0b76bb71e67a33e4f00365f
Reciphers for ciphertext: 0
Decipheredtext:           00000000000000000000000000000000
RESULT CIPHER-DECIPHER: -----OK-----


Test: 123
Hash algorithm: 4
Crypto pad: 0
Symmetric key bit length: 192
IV bit length:            128
Plaintext bit length:     128
Symmetric key:            000000000000000000000000000000000000000000000000
IV:                       00000000000000000000000000000010
Plaintext:                00000000000000000000000000000000
Ciphertext:               02263d1d95636d0d63806875c42a85bb0fa6ddd2d49fdefeef41ef04471e809f991feb8139d13997c63bf3fb5e497c3e96d5ee88280843a830355fcade63fc33064922c9dac8a8bb95b0a67af9b71cceb0441ee5244db8de1573d74296446aee073ac8ea8def440ff9ceeec9fab70534
Reciphers for ciphertext: 0
Decipheredtext:           00000000000000000000000000000000
RESULT CIPHER-DECIPHER: -----OK-----


Test: 124
Hash algorithm: 8
Crypto pad: 1
Symmetric key bit length: 192
IV bit length:            128
Plaintext bit length:     128
Symmetric key:            000000000000000000000000000000000000000000000000
IV:                       00000000000000000000000000000008
Plaintext:                00000000000000000000000000000000
Ciphertext:               9c25b3aacdc23f99982c8dd96c209c312ab4cbef7fb78a8e65bb3ce939fce9997b695cbd5859b9e3c3e54ce146f6f87520ecb8fb8f45dd00d4324deee75b1d31
Reciphers for ciphertext: 0
Decipheredtext:           00000000000000000000000000000000
RESULT CIPHER-DECIPHER: -----OK-----


Test: 125
Hash algorithm: 0
Crypto pad: 0
Symmetric key bit length: 192
IV bit length:            128
Plaintext bit length:     128
Symmetric key:            000000000000000000000000000000000000000000000000
IV:                       00000000000000000000000000000004
Plaintext:                00000000000000000000000000000000
Ciphertext:               f7e9ad85347a957d3b1e4556595971d209c82dc40e7899aeb2a1fe803a99fe32156fa2dda2ae65b6e97128c8ee863cc822d5c40830fa9315d0f86b6318ff5220
Reciphers for ciphertext: 0
Decipheredtext:           00000000000000000000000000000000
RESULT CIPHER-DECIPHER: -----OK-----


Test: 126
Hash algorithm: 8
Crypto pad: 1
Symmetric key bit length: 192
IV bit length:            128
Plaintext bit length:     128
Symmetric key:            000000000000000000000000000000000000000000000000
IV:                       00000000000000000000000000000002
Plaintext:                00000000000000000000000000000000
Ciphertext:               bad13d578b19df90632a7f7c927d25d48d718c4d2a5beb57537fd1f188c7b44dc2b6bb9f31b9e8752fe547b87bc68f8e7c36f72ed0ee27fc2080302063f8963c
Reciphers for ciphertext: 0
Decipheredtext:           00000000000000000000000000000000
RESULT CIPHER-DECIPHER: -----OK-----


Test: 127
Hash algorithm: 4
Crypto pad: 0
Symmetric key bit length: 192
IV bit length:            128
Plaintext bit length:     128
Symmetric key:            000000000000000000000000000000000000000000000000
IV:                       00000000000000000000000000000001
Plaintext:                00000000000000000000000000000000
Ciphertext:               79cd7df51ac0dc8296f1f3e8dbf610763d83a51612839e5575a81639b09a30df44b61cceadefdadd69f30614f538c42a3b6a7c6be414192913dc23f00c50f816e1663321037c33417a3f61d321534f7ed45dcd1cd7d9f7a138536e12a0090f8e93ebe7f198ecc872f9159ffeb90f7210
Reciphers for ciphertext: 0
Decipheredtext:           00000000000000000000000000000000
RESULT CIPHER-DECIPHER: -----OK-----


 DATA SHA1 (hexadecimal): 9a9a439e7516d28e6da7c8e5acdeb1182cec0f03

