
DiceLock 9.0.0.1

 TEST COMPONENTS:
 ----------------
 DiceLock:           DiceLockIVIndexed class
 Operation Mode:     OFB_Mode class
 Block Cipher:       TDEA class
 Key Modifier:       IncreaseBase0IndexModifier_6_0_0_1 class
   Index bit length: 100
 Random tests:       RandomTestSuite class
                     FrequencyTest class
                     BlockFrequencyTest class
                     CumulativeSumForwardTest class
                     LongestRunOfOnesTest class
                     RunsTest class
 Random alpha:       0.001

 VECTOR TEST: Test vector 4 - Symmetric key all byte value 0xXX


##### INDIVIDUAL TESTS #####

Number tests: 128


Test: 0
Symmetric key bit length: 192
IV bit length:            64
Plaintext bit length:     128
Symmetric key:            000000000000000000000000000000000000000000000000
IV:                       0000000000000000
Plaintext:                00000000000000000000000000000000
Ciphertext:               88a64de9c1b123a700000000c02faffec989d1fc1acb2bf5b53654d5
Reciphers for ciphertext: 4
Decipheredtext:           00000000000000000000000000000000
RESULT CIPHER-DECIPHER: -----OK-----


Test: 1
Symmetric key bit length: 192
IV bit length:            64
Plaintext bit length:     128
Symmetric key:            010101010101010101010101010101010101010101010101
IV:                       0000000000000000
Plaintext:                00000000000000000000000000000000
Ciphertext:               8fa64de9c1b123a700000000c02faffec989d1fc1acb2bf5b53654d5
Reciphers for ciphertext: 3
Decipheredtext:           00000000000000000000000000000000
RESULT CIPHER-DECIPHER: -----OK-----


Test: 2
Symmetric key bit length: 192
IV bit length:            64
Plaintext bit length:     128
Symmetric key:            020202020202020202020202020202020202020202020202
IV:                       0000000000000000
Plaintext:                00000000000000000000000000000000
Ciphertext:               c4af51bd0a0f8add9f39b554c4af51bd0a0f8add9f39b55411213445
Reciphers for ciphertext: 0
Decipheredtext:           00000000000000000000000000000000
RESULT CIPHER-DECIPHER: -----OK-----


Test: 3
Symmetric key bit length: 192
IV bit length:            64
Plaintext bit length:     128
Symmetric key:            030303030303030303030303030303030303030303030303
IV:                       0000000000000000
Plaintext:                00000000000000000000000000000000
Ciphertext:               c4af51bd0a0f8add9f39b554c4af51bd0a0f8add9f39b55411213445
Reciphers for ciphertext: 0
Decipheredtext:           00000000000000000000000000000000
RESULT CIPHER-DECIPHER: -----OK-----


Test: 4
Symmetric key bit length: 192
IV bit length:            64
Plaintext bit length:     128
Symmetric key:            040404040404040404040404040404040404040404040404
IV:                       0000000000000000
Plaintext:                00000000000000000000000000000000
Ciphertext:               8ca0964581b0eb53a16b32338ca0964581b0eb53a16b32336f90dd53
Reciphers for ciphertext: 0
Decipheredtext:           00000000000000000000000000000000
RESULT CIPHER-DECIPHER: -----OK-----


Test: 5
Symmetric key bit length: 192
IV bit length:            64
Plaintext bit length:     128
Symmetric key:            050505050505050505050505050505050505050505050505
IV:                       0000000000000000
Plaintext:                00000000000000000000000000000000
Ciphertext:               8ca0964581b0eb53a16b32338ca0964581b0eb53a16b32336f90dd53
Reciphers for ciphertext: 0
Decipheredtext:           00000000000000000000000000000000
RESULT CIPHER-DECIPHER: -----OK-----


Test: 6
Symmetric key bit length: 192
IV bit length:            64
Plaintext bit length:     128
Symmetric key:            060606060606060606060606060606060606060606060606
IV:                       0000000000000000
Plaintext:                00000000000000000000000000000000
Ciphertext:               e818736e6ea987db9ab6b7e4e818736e6ea987db9ab6b7e44f32346a
Reciphers for ciphertext: 0
Decipheredtext:           00000000000000000000000000000000
RESULT CIPHER-DECIPHER: -----OK-----


Test: 7
Symmetric key bit length: 192
IV bit length:            64
Plaintext bit length:     128
Symmetric key:            070707070707070707070707070707070707070707070707
IV:                       0000000000000000
Plaintext:                00000000000000000000000000000000
Ciphertext:               e818736e6ea987db9ab6b7e4e818736e6ea987db9ab6b7e44f32346a
Reciphers for ciphertext: 0
Decipheredtext:           00000000000000000000000000000000
RESULT CIPHER-DECIPHER: -----OK-----


Test: 8
Symmetric key bit length: 192
IV bit length:            64
Plaintext bit length:     128
Symmetric key:            080808080808080808080808080808080808080808080808
IV:                       0000000000000000
Plaintext:                00000000000000000000000000000000
Ciphertext:               d6a875a7a871df70cc5e8e49d6a875a7a871df70cc5e8e49c64f61c9
Reciphers for ciphertext: 0
Decipheredtext:           00000000000000000000000000000000
RESULT CIPHER-DECIPHER: -----OK-----


Test: 9
Symmetric key bit length: 192
IV bit length:            64
Plaintext bit length:     128
Symmetric key:            090909090909090909090909090909090909090909090909
IV:                       0000000000000000
Plaintext:                00000000000000000000000000000000
Ciphertext:               d6a875a7a871df70cc5e8e49d6a875a7a871df70cc5e8e49c64f61c9
Reciphers for ciphertext: 0
Decipheredtext:           00000000000000000000000000000000
RESULT CIPHER-DECIPHER: -----OK-----


Test: 10
Symmetric key bit length: 192
IV bit length:            64
Plaintext bit length:     128
Symmetric key:            0a0a0a0a0a0a0a0a0a0a0a0a0a0a0a0a0a0a0a0a0a0a0a0a
IV:                       0000000000000000
Plaintext:                00000000000000000000000000000000
Ciphertext:               e7920457f6a431321691ba2ee7920457f6a431321691ba2e3a8a88a1
Reciphers for ciphertext: 0
Decipheredtext:           00000000000000000000000000000000
RESULT CIPHER-DECIPHER: -----OK-----


Test: 11
Symmetric key bit length: 192
IV bit length:            64
Plaintext bit length:     128
Symmetric key:            0b0b0b0b0b0b0b0b0b0b0b0b0b0b0b0b0b0b0b0b0b0b0b0b
IV:                       0000000000000000
Plaintext:                00000000000000000000000000000000
Ciphertext:               e7920457f6a431321691ba2ee7920457f6a431321691ba2e3a8a88a1
Reciphers for ciphertext: 0
Decipheredtext:           00000000000000000000000000000000
RESULT CIPHER-DECIPHER: -----OK-----


Test: 12
Symmetric key bit length: 192
IV bit length:            64
Plaintext bit length:     128
Symmetric key:            0c0c0c0c0c0c0c0c0c0c0c0c0c0c0c0c0c0c0c0c0c0c0c0c
IV:                       0000000000000000
Plaintext:                00000000000000000000000000000000
Ciphertext:               88f8569b4502edfa0f804bc788f8569b4502edfa0f804bc7dfe7b5b2
Reciphers for ciphertext: 0
Decipheredtext:           00000000000000000000000000000000
RESULT CIPHER-DECIPHER: -----OK-----


Test: 13
Symmetric key bit length: 192
IV bit length:            64
Plaintext bit length:     128
Symmetric key:            0d0d0d0d0d0d0d0d0d0d0d0d0d0d0d0d0d0d0d0d0d0d0d0d
IV:                       0000000000000000
Plaintext:                00000000000000000000000000000000
Ciphertext:               88f8569b4502edfa0f804bc788f8569b4502edfa0f804bc7dfe7b5b2
Reciphers for ciphertext: 0
Decipheredtext:           00000000000000000000000000000000
RESULT CIPHER-DECIPHER: -----OK-----


Test: 14
Symmetric key bit length: 192
IV bit length:            64
Plaintext bit length:     128
Symmetric key:            0e0e0e0e0e0e0e0e0e0e0e0e0e0e0e0e0e0e0e0e0e0e0e0e
IV:                       0000000000000000
Plaintext:                00000000000000000000000000000000
Ciphertext:               508d26d80e298ca14d08f511508d26d80e298ca14d08f51160f1393f
Reciphers for ciphertext: 0
Decipheredtext:           00000000000000000000000000000000
RESULT CIPHER-DECIPHER: -----OK-----


Test: 15
Symmetric key bit length: 192
IV bit length:            64
Plaintext bit length:     128
Symmetric key:            0f0f0f0f0f0f0f0f0f0f0f0f0f0f0f0f0f0f0f0f0f0f0f0f
IV:                       0000000000000000
Plaintext:                00000000000000000000000000000000
Ciphertext:               508d26d80e298ca14d08f511508d26d80e298ca14d08f51160f1393f
Reciphers for ciphertext: 0
Decipheredtext:           00000000000000000000000000000000
RESULT CIPHER-DECIPHER: -----OK-----


Test: 16
Symmetric key bit length: 192
IV bit length:            64
Plaintext bit length:     128
Symmetric key:            101010101010101010101010101010101010101010101010
IV:                       0000000000000000
Plaintext:                00000000000000000000000000000000
Ciphertext:               82e13665b4624df57bd24a7882e13665b4624df57bd24a786c3f60cf
Reciphers for ciphertext: 0
Decipheredtext:           00000000000000000000000000000000
RESULT CIPHER-DECIPHER: -----OK-----


Test: 17
Symmetric key bit length: 192
IV bit length:            64
Plaintext bit length:     128
Symmetric key:            111111111111111111111111111111111111111111111111
IV:                       0000000000000000
Plaintext:                00000000000000000000000000000000
Ciphertext:               82e13665b4624df57bd24a7882e13665b4624df57bd24a786c3f60cf
Reciphers for ciphertext: 0
Decipheredtext:           00000000000000000000000000000000
RESULT CIPHER-DECIPHER: -----OK-----


Test: 18
Symmetric key bit length: 192
IV bit length:            64
Plaintext bit length:     128
Symmetric key:            121212121212121212121212121212121212121212121212
IV:                       0000000000000000
Plaintext:                00000000000000000000000000000000
Ciphertext:               a8b7b5bd4a67d640a56f085fa8b7b5bd4a67d640a56f085f20da8665
Reciphers for ciphertext: 0
Decipheredtext:           00000000000000000000000000000000
RESULT CIPHER-DECIPHER: -----OK-----


Test: 19
Symmetric key bit length: 192
IV bit length:            64
Plaintext bit length:     128
Symmetric key:            131313131313131313131313131313131313131313131313
IV:                       0000000000000000
Plaintext:                00000000000000000000000000000000
Ciphertext:               a8b7b5bd4a67d640a56f085fa8b7b5bd4a67d640a56f085f20da8665
Reciphers for ciphertext: 0
Decipheredtext:           00000000000000000000000000000000
RESULT CIPHER-DECIPHER: -----OK-----


Test: 20
Symmetric key bit length: 192
IV bit length:            64
Plaintext bit length:     128
Symmetric key:            141414141414141414141414141414141414141414141414
IV:                       0000000000000000
Plaintext:                00000000000000000000000000000000
Ciphertext:               265a7abf6b3f4a17edd5628b265a7abf6b3f4a17edd5628bf5102929
Reciphers for ciphertext: 0
Decipheredtext:           00000000000000000000000000000000
RESULT CIPHER-DECIPHER: -----OK-----


Test: 21
Symmetric key bit length: 192
IV bit length:            64
Plaintext bit length:     128
Symmetric key:            151515151515151515151515151515151515151515151515
IV:                       0000000000000000
Plaintext:                00000000000000000000000000000000
Ciphertext:               265a7abf6b3f4a17edd5628b265a7abf6b3f4a17edd5628bf5102929
Reciphers for ciphertext: 0
Decipheredtext:           00000000000000000000000000000000
RESULT CIPHER-DECIPHER: -----OK-----


Test: 22
Symmetric key bit length: 192
IV bit length:            64
Plaintext bit length:     128
Symmetric key:            161616161616161616161616161616161616161616161616
IV:                       0000000000000000
Plaintext:                00000000000000000000000000000000
Ciphertext:               38debbe036e29c8ee43967d84e21948fb45dae3cac220996ac1ffad6
Reciphers for ciphertext: 2
Decipheredtext:           00000000000000000000000000000000
RESULT CIPHER-DECIPHER: -----OK-----


Test: 23
Symmetric key bit length: 192
IV bit length:            64
Plaintext bit length:     128
Symmetric key:            171717171717171717171717171717171717171717171717
IV:                       0000000000000000
Plaintext:                00000000000000000000000000000000
Ciphertext:               3bdebbe036e29c8ee43967d84e21948fb45dae3cac220996ac1ffad6
Reciphers for ciphertext: 1
Decipheredtext:           00000000000000000000000000000000
RESULT CIPHER-DECIPHER: -----OK-----


Test: 24
Symmetric key bit length: 192
IV bit length:            64
Plaintext bit length:     128
Symmetric key:            181818181818181818181818181818181818181818181818
IV:                       0000000000000000
Plaintext:                00000000000000000000000000000000
Ciphertext:               9da493aa4b21b8d1f92c82bf9da493aa4b21b8d1f92c82bf5541a19a
Reciphers for ciphertext: 0
Decipheredtext:           00000000000000000000000000000000
RESULT CIPHER-DECIPHER: -----OK-----


Test: 25
Symmetric key bit length: 192
IV bit length:            64
Plaintext bit length:     128
Symmetric key:            191919191919191919191919191919191919191919191919
IV:                       0000000000000000
Plaintext:                00000000000000000000000000000000
Ciphertext:               9da493aa4b21b8d1f92c82bf9da493aa4b21b8d1f92c82bf5541a19a
Reciphers for ciphertext: 0
Decipheredtext:           00000000000000000000000000000000
RESULT CIPHER-DECIPHER: -----OK-----


Test: 26
Symmetric key bit length: 192
IV bit length:            64
Plaintext bit length:     128
Symmetric key:            1a1a1a1a1a1a1a1a1a1a1a1a1a1a1a1a1a1a1a1a1a1a1a1a
IV:                       0000000000000000
Plaintext:                00000000000000000000000000000000
Ciphertext:               7eed30f7d699a4138ebd34cd7eed30f7d699a4138ebd34cdd379b575
Reciphers for ciphertext: 0
Decipheredtext:           00000000000000000000000000000000
RESULT CIPHER-DECIPHER: -----OK-----


Test: 27
Symmetric key bit length: 192
IV bit length:            64
Plaintext bit length:     128
Symmetric key:            1b1b1b1b1b1b1b1b1b1b1b1b1b1b1b1b1b1b1b1b1b1b1b1b
IV:                       0000000000000000
Plaintext:                00000000000000000000000000000000
Ciphertext:               7eed30f7d699a4138ebd34cd7eed30f7d699a4138ebd34cdd379b575
Reciphers for ciphertext: 0
Decipheredtext:           00000000000000000000000000000000
RESULT CIPHER-DECIPHER: -----OK-----


Test: 28
Symmetric key bit length: 192
IV bit length:            64
Plaintext bit length:     128
Symmetric key:            1c1c1c1c1c1c1c1c1c1c1c1c1c1c1c1c1c1c1c1c1c1c1c1c
IV:                       0000000000000000
Plaintext:                00000000000000000000000000000000
Ciphertext:               77800cba1e6054a59ae77abc77800cba1e6054a59ae77abc5461af56
Reciphers for ciphertext: 0
Decipheredtext:           00000000000000000000000000000000
RESULT CIPHER-DECIPHER: -----OK-----


Test: 29
Symmetric key bit length: 192
IV bit length:            64
Plaintext bit length:     128
Symmetric key:            1d1d1d1d1d1d1d1d1d1d1d1d1d1d1d1d1d1d1d1d1d1d1d1d
IV:                       0000000000000000
Plaintext:                00000000000000000000000000000000
Ciphertext:               77800cba1e6054a59ae77abc77800cba1e6054a59ae77abc5461af56
Reciphers for ciphertext: 0
Decipheredtext:           00000000000000000000000000000000
RESULT CIPHER-DECIPHER: -----OK-----


Test: 30
Symmetric key bit length: 192
IV bit length:            64
Plaintext bit length:     128
Symmetric key:            1e1e1e1e1e1e1e1e1e1e1e1e1e1e1e1e1e1e1e1e1e1e1e1e
IV:                       0000000000000000
Plaintext:                00000000000000000000000000000000
Ciphertext:               4bb0c823540b654c8eafe2154bb0c823540b654c8eafe21506ee6ebb
Reciphers for ciphertext: 0
Decipheredtext:           00000000000000000000000000000000
RESULT CIPHER-DECIPHER: -----OK-----


Test: 31
Symmetric key bit length: 192
IV bit length:            64
Plaintext bit length:     128
Symmetric key:            1f1f1f1f1f1f1f1f1f1f1f1f1f1f1f1f1f1f1f1f1f1f1f1f
IV:                       0000000000000000
Plaintext:                00000000000000000000000000000000
Ciphertext:               4bb0c823540b654c8eafe2154bb0c823540b654c8eafe21506ee6ebb
Reciphers for ciphertext: 0
Decipheredtext:           00000000000000000000000000000000
RESULT CIPHER-DECIPHER: -----OK-----


Test: 32
Symmetric key bit length: 192
IV bit length:            64
Plaintext bit length:     128
Symmetric key:            202020202020202020202020202020202020202020202020
IV:                       0000000000000000
Plaintext:                00000000000000000000000000000000
Ciphertext:               9772208c6b1993f3aeaaeb5f9772208c6b1993f3aeaaeb5fd46b3392
Reciphers for ciphertext: 0
Decipheredtext:           00000000000000000000000000000000
RESULT CIPHER-DECIPHER: -----OK-----


Test: 33
Symmetric key bit length: 192
IV bit length:            64
Plaintext bit length:     128
Symmetric key:            212121212121212121212121212121212121212121212121
IV:                       0000000000000000
Plaintext:                00000000000000000000000000000000
Ciphertext:               9772208c6b1993f3aeaaeb5f9772208c6b1993f3aeaaeb5fd46b3392
Reciphers for ciphertext: 0
Decipheredtext:           00000000000000000000000000000000
RESULT CIPHER-DECIPHER: -----OK-----


Test: 34
Symmetric key bit length: 192
IV bit length:            64
Plaintext bit length:     128
Symmetric key:            222222222222222222222222222222222222222222222222
IV:                       0000000000000000
Plaintext:                00000000000000000000000000000000
Ciphertext:               00962b60aa556e6570a6c40f00962b60aa556e6570a6c40fa4fc9eee
Reciphers for ciphertext: 0
Decipheredtext:           00000000000000000000000000000000
RESULT CIPHER-DECIPHER: -----OK-----


Test: 35
Symmetric key bit length: 192
IV bit length:            64
Plaintext bit length:     128
Symmetric key:            232323232323232323232323232323232323232323232323
IV:                       0000000000000000
Plaintext:                00000000000000000000000000000000
Ciphertext:               00962b60aa556e6570a6c40f00962b60aa556e6570a6c40fa4fc9eee
Reciphers for ciphertext: 0
Decipheredtext:           00000000000000000000000000000000
RESULT CIPHER-DECIPHER: -----OK-----


Test: 36
Symmetric key bit length: 192
IV bit length:            64
Plaintext bit length:     128
Symmetric key:            242424242424242424242424242424242424242424242424
IV:                       0000000000000000
Plaintext:                00000000000000000000000000000000
Ciphertext:               c335c9d8a63cc1f4357f5bf7c335c9d8a63cc1f4357f5bf7cc4ebeaa
Reciphers for ciphertext: 0
Decipheredtext:           00000000000000000000000000000000
RESULT CIPHER-DECIPHER: -----OK-----


Test: 37
Symmetric key bit length: 192
IV bit length:            64
Plaintext bit length:     128
Symmetric key:            252525252525252525252525252525252525252525252525
IV:                       0000000000000000
Plaintext:                00000000000000000000000000000000
Ciphertext:               c335c9d8a63cc1f4357f5bf7c335c9d8a63cc1f4357f5bf7cc4ebeaa
Reciphers for ciphertext: 0
Decipheredtext:           00000000000000000000000000000000
RESULT CIPHER-DECIPHER: -----OK-----


Test: 38
Symmetric key bit length: 192
IV bit length:            64
Plaintext bit length:     128
Symmetric key:            262626262626262626262626262626262626262626262626
IV:                       0000000000000000
Plaintext:                00000000000000000000000000000000
Ciphertext:               4e5a416420dfd5cd01d23d224e5a416420dfd5cd01d23d2281ac9832
Reciphers for ciphertext: 0
Decipheredtext:           00000000000000000000000000000000
RESULT CIPHER-DECIPHER: -----OK-----


Test: 39
Symmetric key bit length: 192
IV bit length:            64
Plaintext bit length:     128
Symmetric key:            272727272727272727272727272727272727272727272727
IV:                       0000000000000000
Plaintext:                00000000000000000000000000000000
Ciphertext:               4e5a416420dfd5cd01d23d224e5a416420dfd5cd01d23d2281ac9832
Reciphers for ciphertext: 0
Decipheredtext:           00000000000000000000000000000000
RESULT CIPHER-DECIPHER: -----OK-----


Test: 40
Symmetric key bit length: 192
IV bit length:            64
Plaintext bit length:     128
Symmetric key:            282828282828282828282828282828282828282828282828
IV:                       0000000000000000
Plaintext:                00000000000000000000000000000000
Ciphertext:               50af41cdd6ecf0d4f1903aa650af41cdd6ecf0d4f1903aa65388f78e
Reciphers for ciphertext: 0
Decipheredtext:           00000000000000000000000000000000
RESULT CIPHER-DECIPHER: -----OK-----


Test: 41
Symmetric key bit length: 192
IV bit length:            64
Plaintext bit length:     128
Symmetric key:            292929292929292929292929292929292929292929292929
IV:                       0000000000000000
Plaintext:                00000000000000000000000000000000
Ciphertext:               50af41cdd6ecf0d4f1903aa650af41cdd6ecf0d4f1903aa65388f78e
Reciphers for ciphertext: 0
Decipheredtext:           00000000000000000000000000000000
RESULT CIPHER-DECIPHER: -----OK-----


Test: 42
Symmetric key bit length: 192
IV bit length:            64
Plaintext bit length:     128
Symmetric key:            2a2a2a2a2a2a2a2a2a2a2a2a2a2a2a2a2a2a2a2a2a2a2a2a
IV:                       0000000000000000
Plaintext:                00000000000000000000000000000000
Ciphertext:               30825bb00b2f8959546f98be30825bb00b2f8959546f98be57d6419b
Reciphers for ciphertext: 0
Decipheredtext:           00000000000000000000000000000000
RESULT CIPHER-DECIPHER: -----OK-----


Test: 43
Symmetric key bit length: 192
IV bit length:            64
Plaintext bit length:     128
Symmetric key:            2b2b2b2b2b2b2b2b2b2b2b2b2b2b2b2b2b2b2b2b2b2b2b2b
IV:                       0000000000000000
Plaintext:                00000000000000000000000000000000
Ciphertext:               30825bb00b2f8959546f98be30825bb00b2f8959546f98be57d6419b
Reciphers for ciphertext: 0
Decipheredtext:           00000000000000000000000000000000
RESULT CIPHER-DECIPHER: -----OK-----


Test: 44
Symmetric key bit length: 192
IV bit length:            64
Plaintext bit length:     128
Symmetric key:            2c2c2c2c2c2c2c2c2c2c2c2c2c2c2c2c2c2c2c2c2c2c2c2c
IV:                       0000000000000000
Plaintext:                00000000000000000000000000000000
Ciphertext:               7dccc004ffd49e04e960ca357dccc004ffd49e04e960ca35c671ac37
Reciphers for ciphertext: 0
Decipheredtext:           00000000000000000000000000000000
RESULT CIPHER-DECIPHER: -----OK-----


Test: 45
Symmetric key bit length: 192
IV bit length:            64
Plaintext bit length:     128
Symmetric key:            2d2d2d2d2d2d2d2d2d2d2d2d2d2d2d2d2d2d2d2d2d2d2d2d
IV:                       0000000000000000
Plaintext:                00000000000000000000000000000000
Ciphertext:               7dccc004ffd49e04e960ca357dccc004ffd49e04e960ca35c671ac37
Reciphers for ciphertext: 0
Decipheredtext:           00000000000000000000000000000000
RESULT CIPHER-DECIPHER: -----OK-----


Test: 46
Symmetric key bit length: 192
IV bit length:            64
Plaintext bit length:     128
Symmetric key:            2e2e2e2e2e2e2e2e2e2e2e2e2e2e2e2e2e2e2e2e2e2e2e2e
IV:                       0000000000000000
Plaintext:                00000000000000000000000000000000
Ciphertext:               40d2e042fdd5cc28c6df951740d2e042fdd5cc28c6df9517d1885228
Reciphers for ciphertext: 0
Decipheredtext:           00000000000000000000000000000000
RESULT CIPHER-DECIPHER: -----OK-----


Test: 47
Symmetric key bit length: 192
IV bit length:            64
Plaintext bit length:     128
Symmetric key:            2f2f2f2f2f2f2f2f2f2f2f2f2f2f2f2f2f2f2f2f2f2f2f2f
IV:                       0000000000000000
Plaintext:                00000000000000000000000000000000
Ciphertext:               40d2e042fdd5cc28c6df951740d2e042fdd5cc28c6df9517d1885228
Reciphers for ciphertext: 0
Decipheredtext:           00000000000000000000000000000000
RESULT CIPHER-DECIPHER: -----OK-----


Test: 48
Symmetric key bit length: 192
IV bit length:            64
Plaintext bit length:     128
Symmetric key:            303030303030303030303030303030303030303030303030
IV:                       0000000000000000
Plaintext:                00000000000000000000000000000000
Ciphertext:               42826a5800608c8736b5c6ad90c47d33ac447d7e0b1050bae5bf8309
Reciphers for ciphertext: 2
Decipheredtext:           00000000000000000000000000000000
RESULT CIPHER-DECIPHER: -----OK-----


Test: 49
Symmetric key bit length: 192
IV bit length:            64
Plaintext bit length:     128
Symmetric key:            313131313131313131313131313131313131313131313131
IV:                       0000000000000000
Plaintext:                00000000000000000000000000000000
Ciphertext:               41826a5800608c8736b5c6ad90c47d33ac447d7e0b1050bae5bf8309
Reciphers for ciphertext: 1
Decipheredtext:           00000000000000000000000000000000
RESULT CIPHER-DECIPHER: -----OK-----


Test: 50
Symmetric key bit length: 192
IV bit length:            64
Plaintext bit length:     128
Symmetric key:            323232323232323232323232323232323232323232323232
IV:                       0000000000000000
Plaintext:                00000000000000000000000000000000
Ciphertext:               adc67d8473bf2f065a530328adc67d8473bf2f065a5303289322c067
Reciphers for ciphertext: 0
Decipheredtext:           00000000000000000000000000000000
RESULT CIPHER-DECIPHER: -----OK-----


Test: 51
Symmetric key bit length: 192
IV bit length:            64
Plaintext bit length:     128
Symmetric key:            333333333333333333333333333333333333333333333333
IV:                       0000000000000000
Plaintext:                00000000000000000000000000000000
Ciphertext:               adc67d8473bf2f065a530328adc67d8473bf2f065a5303289322c067
Reciphers for ciphertext: 0
Decipheredtext:           00000000000000000000000000000000
RESULT CIPHER-DECIPHER: -----OK-----


Test: 52
Symmetric key bit length: 192
IV bit length:            64
Plaintext bit length:     128
Symmetric key:            343434343434343434343434343434343434343434343434
IV:                       0000000000000000
Plaintext:                00000000000000000000000000000000
Ciphertext:               d2db51f1d2013a6300573802d2db51f1d2013a6300573802a09e9d37
Reciphers for ciphertext: 0
Decipheredtext:           00000000000000000000000000000000
RESULT CIPHER-DECIPHER: -----OK-----


Test: 53
Symmetric key bit length: 192
IV bit length:            64
Plaintext bit length:     128
Symmetric key:            353535353535353535353535353535353535353535353535
IV:                       0000000000000000
Plaintext:                00000000000000000000000000000000
Ciphertext:               d2db51f1d2013a6300573802d2db51f1d2013a6300573802a09e9d37
Reciphers for ciphertext: 0
Decipheredtext:           00000000000000000000000000000000
RESULT CIPHER-DECIPHER: -----OK-----


Test: 54
Symmetric key bit length: 192
IV bit length:            64
Plaintext bit length:     128
Symmetric key:            363636363636363636363636363636363636363636363636
IV:                       0000000000000000
Plaintext:                00000000000000000000000000000000
Ciphertext:               3aa3ea2d72ecf9fa1a0773f33aa3ea2d72ecf9fa1a0773f380af650f
Reciphers for ciphertext: 0
Decipheredtext:           00000000000000000000000000000000
RESULT CIPHER-DECIPHER: -----OK-----


Test: 55
Symmetric key bit length: 192
IV bit length:            64
Plaintext bit length:     128
Symmetric key:            373737373737373737373737373737373737373737373737
IV:                       0000000000000000
Plaintext:                00000000000000000000000000000000
Ciphertext:               3aa3ea2d72ecf9fa1a0773f33aa3ea2d72ecf9fa1a0773f380af650f
Reciphers for ciphertext: 0
Decipheredtext:           00000000000000000000000000000000
RESULT CIPHER-DECIPHER: -----OK-----


Test: 56
Symmetric key bit length: 192
IV bit length:            64
Plaintext bit length:     128
Symmetric key:            383838383838383838383838383838383838383838383838
IV:                       0000000000000000
Plaintext:                00000000000000000000000000000000
Ciphertext:               74d669c708972b1a389456d774d669c708972b1a389456d7b11dd16b
Reciphers for ciphertext: 0
Decipheredtext:           00000000000000000000000000000000
RESULT CIPHER-DECIPHER: -----OK-----


Test: 57
Symmetric key bit length: 192
IV bit length:            64
Plaintext bit length:     128
Symmetric key:            393939393939393939393939393939393939393939393939
IV:                       0000000000000000
Plaintext:                00000000000000000000000000000000
Ciphertext:               74d669c708972b1a389456d774d669c708972b1a389456d7b11dd16b
Reciphers for ciphertext: 0
Decipheredtext:           00000000000000000000000000000000
RESULT CIPHER-DECIPHER: -----OK-----


Test: 58
Symmetric key bit length: 192
IV bit length:            64
Plaintext bit length:     128
Symmetric key:            3a3a3a3a3a3a3a3a3a3a3a3a3a3a3a3a3a3a3a3a3a3a3a3a
IV:                       0000000000000000
Plaintext:                00000000000000000000000000000000
Ciphertext:               4c372b229cceb764ba6116244c372b229cceb764ba6116248b546f2e
Reciphers for ciphertext: 0
Decipheredtext:           00000000000000000000000000000000
RESULT CIPHER-DECIPHER: -----OK-----


Test: 59
Symmetric key bit length: 192
IV bit length:            64
Plaintext bit length:     128
Symmetric key:            3b3b3b3b3b3b3b3b3b3b3b3b3b3b3b3b3b3b3b3b3b3b3b3b
IV:                       0000000000000000
Plaintext:                00000000000000000000000000000000
Ciphertext:               4c372b229cceb764ba6116244c372b229cceb764ba6116248b546f2e
Reciphers for ciphertext: 0
Decipheredtext:           00000000000000000000000000000000
RESULT CIPHER-DECIPHER: -----OK-----


Test: 60
Symmetric key bit length: 192
IV bit length:            64
Plaintext bit length:     128
Symmetric key:            3c3c3c3c3c3c3c3c3c3c3c3c3c3c3c3c3c3c3c3c3c3c3c3c
IV:                       0000000000000000
Plaintext:                00000000000000000000000000000000
Ciphertext:               46d327dadabb677aa892af3646d327dadabb677aa892af3645dfa7cb
Reciphers for ciphertext: 0
Decipheredtext:           00000000000000000000000000000000
RESULT CIPHER-DECIPHER: -----OK-----


Test: 61
Symmetric key bit length: 192
IV bit length:            64
Plaintext bit length:     128
Symmetric key:            3d3d3d3d3d3d3d3d3d3d3d3d3d3d3d3d3d3d3d3d3d3d3d3d
IV:                       0000000000000000
Plaintext:                00000000000000000000000000000000
Ciphertext:               46d327dadabb677aa892af3646d327dadabb677aa892af3645dfa7cb
Reciphers for ciphertext: 0
Decipheredtext:           00000000000000000000000000000000
RESULT CIPHER-DECIPHER: -----OK-----


Test: 62
Symmetric key bit length: 192
IV bit length:            64
Plaintext bit length:     128
Symmetric key:            3e3e3e3e3e3e3e3e3e3e3e3e3e3e3e3e3e3e3e3e3e3e3e3e
IV:                       0000000000000000
Plaintext:                00000000000000000000000000000000
Ciphertext:               f0a427ae4bdbde04a6c7d768f0a427ae4bdbde04a6c7d76830932960
Reciphers for ciphertext: 0
Decipheredtext:           00000000000000000000000000000000
RESULT CIPHER-DECIPHER: -----OK-----


Test: 63
Symmetric key bit length: 192
IV bit length:            64
Plaintext bit length:     128
Symmetric key:            3f3f3f3f3f3f3f3f3f3f3f3f3f3f3f3f3f3f3f3f3f3f3f3f
IV:                       0000000000000000
Plaintext:                00000000000000000000000000000000
Ciphertext:               f0a427ae4bdbde04a6c7d768f0a427ae4bdbde04a6c7d76830932960
Reciphers for ciphertext: 0
Decipheredtext:           00000000000000000000000000000000
RESULT CIPHER-DECIPHER: -----OK-----


Test: 64
Symmetric key bit length: 192
IV bit length:            64
Plaintext bit length:     128
Symmetric key:            404040404040404040404040404040404040404040404040
IV:                       0000000000000000
Plaintext:                00000000000000000000000000000000
Ciphertext:               c4b738cdd18d6e4802ce6defc4b738cdd18d6e4802ce6def788d4485
Reciphers for ciphertext: 0
Decipheredtext:           00000000000000000000000000000000
RESULT CIPHER-DECIPHER: -----OK-----


Test: 65
Symmetric key bit length: 192
IV bit length:            64
Plaintext bit length:     128
Symmetric key:            414141414141414141414141414141414141414141414141
IV:                       0000000000000000
Plaintext:                00000000000000000000000000000000
Ciphertext:               c4b738cdd18d6e4802ce6defc4b738cdd18d6e4802ce6def788d4485
Reciphers for ciphertext: 0
Decipheredtext:           00000000000000000000000000000000
RESULT CIPHER-DECIPHER: -----OK-----


Test: 66
Symmetric key bit length: 192
IV bit length:            64
Plaintext bit length:     128
Symmetric key:            424242424242424242424242424242424242424242424242
IV:                       0000000000000000
Plaintext:                00000000000000000000000000000000
Ciphertext:               fdbaffe6d2aa6d9674ff13002d92624f7b12a80e11af4dcbf7e2a118
Reciphers for ciphertext: 2
Decipheredtext:           00000000000000000000000000000000
RESULT CIPHER-DECIPHER: -----OK-----


Test: 67
Symmetric key bit length: 192
IV bit length:            64
Plaintext bit length:     128
Symmetric key:            434343434343434343434343434343434343434343434343
IV:                       0000000000000000
Plaintext:                00000000000000000000000000000000
Ciphertext:               febaffe6d2aa6d9674ff13002d92624f7b12a80e11af4dcbf7e2a118
Reciphers for ciphertext: 1
Decipheredtext:           00000000000000000000000000000000
RESULT CIPHER-DECIPHER: -----OK-----


Test: 68
Symmetric key bit length: 192
IV bit length:            64
Plaintext bit length:     128
Symmetric key:            444444444444444444444444444444444444444444444444
IV:                       0000000000000000
Plaintext:                00000000000000000000000000000000
Ciphertext:               e2f2434039aa34acd2d7a99ee2f2434039aa34acd2d7a99e1e0ff9dc
Reciphers for ciphertext: 0
Decipheredtext:           00000000000000000000000000000000
RESULT CIPHER-DECIPHER: -----OK-----


Test: 69
Symmetric key bit length: 192
IV bit length:            64
Plaintext bit length:     128
Symmetric key:            454545454545454545454545454545454545454545454545
IV:                       0000000000000000
Plaintext:                00000000000000000000000000000000
Ciphertext:               e2f2434039aa34acd2d7a99ee2f2434039aa34acd2d7a99e1e0ff9dc
Reciphers for ciphertext: 0
Decipheredtext:           00000000000000000000000000000000
RESULT CIPHER-DECIPHER: -----OK-----


Test: 70
Symmetric key bit length: 192
IV bit length:            64
Plaintext bit length:     128
Symmetric key:            464646464646464646464646464646464646464646464646
IV:                       0000000000000000
Plaintext:                00000000000000000000000000000000
Ciphertext:               b99d86495b7f4c65478133b3b99d86495b7f4c65478133b32d30a53d
Reciphers for ciphertext: 0
Decipheredtext:           00000000000000000000000000000000
RESULT CIPHER-DECIPHER: -----OK-----


Test: 71
Symmetric key bit length: 192
IV bit length:            64
Plaintext bit length:     128
Symmetric key:            474747474747474747474747474747474747474747474747
IV:                       0000000000000000
Plaintext:                00000000000000000000000000000000
Ciphertext:               b99d86495b7f4c65478133b3b99d86495b7f4c65478133b32d30a53d
Reciphers for ciphertext: 0
Decipheredtext:           00000000000000000000000000000000
RESULT CIPHER-DECIPHER: -----OK-----


Test: 72
Symmetric key bit length: 192
IV bit length:            64
Plaintext bit length:     128
Symmetric key:            484848484848484848484848484848484848484848484848
IV:                       0000000000000000
Plaintext:                00000000000000000000000000000000
Ciphertext:               d549caf0e8bae9b10d8d8927d549caf0e8bae9b10d8d8927b4c1e5f0
Reciphers for ciphertext: 0
Decipheredtext:           00000000000000000000000000000000
RESULT CIPHER-DECIPHER: -----OK-----


Test: 73
Symmetric key bit length: 192
IV bit length:            64
Plaintext bit length:     128
Symmetric key:            494949494949494949494949494949494949494949494949
IV:                       0000000000000000
Plaintext:                00000000000000000000000000000000
Ciphertext:               d549caf0e8bae9b10d8d8927d549caf0e8bae9b10d8d8927b4c1e5f0
Reciphers for ciphertext: 0
Decipheredtext:           00000000000000000000000000000000
RESULT CIPHER-DECIPHER: -----OK-----


Test: 74
Symmetric key bit length: 192
IV bit length:            64
Plaintext bit length:     128
Symmetric key:            4a4a4a4a4a4a4a4a4a4a4a4a4a4a4a4a4a4a4a4a4a4a4a4a
IV:                       0000000000000000
Plaintext:                00000000000000000000000000000000
Ciphertext:               cdace95ef9ecac1a3a77b165cdace95ef9ecac1a3a77b165edd8f0e5
Reciphers for ciphertext: 0
Decipheredtext:           00000000000000000000000000000000
RESULT CIPHER-DECIPHER: -----OK-----


Test: 75
Symmetric key bit length: 192
IV bit length:            64
Plaintext bit length:     128
Symmetric key:            4b4b4b4b4b4b4b4b4b4b4b4b4b4b4b4b4b4b4b4b4b4b4b4b
IV:                       0000000000000000
Plaintext:                00000000000000000000000000000000
Ciphertext:               cdace95ef9ecac1a3a77b165cdace95ef9ecac1a3a77b165edd8f0e5
Reciphers for ciphertext: 0
Decipheredtext:           00000000000000000000000000000000
RESULT CIPHER-DECIPHER: -----OK-----


Test: 76
Symmetric key bit length: 192
IV bit length:            64
Plaintext bit length:     128
Symmetric key:            4c4c4c4c4c4c4c4c4c4c4c4c4c4c4c4c4c4c4c4c4c4c4c4c
IV:                       0000000000000000
Plaintext:                00000000000000000000000000000000
Ciphertext:               e878ddf761277a18e32ae52be878ddf761277a18e32ae52bcbea54c3
Reciphers for ciphertext: 0
Decipheredtext:           00000000000000000000000000000000
RESULT CIPHER-DECIPHER: -----OK-----


Test: 77
Symmetric key bit length: 192
IV bit length:            64
Plaintext bit length:     128
Symmetric key:            4d4d4d4d4d4d4d4d4d4d4d4d4d4d4d4d4d4d4d4d4d4d4d4d
IV:                       0000000000000000
Plaintext:                00000000000000000000000000000000
Ciphertext:               e878ddf761277a18e32ae52be878ddf761277a18e32ae52bcbea54c3
Reciphers for ciphertext: 0
Decipheredtext:           00000000000000000000000000000000
RESULT CIPHER-DECIPHER: -----OK-----


Test: 78
Symmetric key bit length: 192
IV bit length:            64
Plaintext bit length:     128
Symmetric key:            4e4e4e4e4e4e4e4e4e4e4e4e4e4e4e4e4e4e4e4e4e4e4e4e
IV:                       0000000000000000
Plaintext:                00000000000000000000000000000000
Ciphertext:               06744c265ff9cebc49964e3706744c265ff9cebc49964e37c470d0c2
Reciphers for ciphertext: 0
Decipheredtext:           00000000000000000000000000000000
RESULT CIPHER-DECIPHER: -----OK-----


Test: 79
Symmetric key bit length: 192
IV bit length:            64
Plaintext bit length:     128
Symmetric key:            4f4f4f4f4f4f4f4f4f4f4f4f4f4f4f4f4f4f4f4f4f4f4f4f
IV:                       0000000000000000
Plaintext:                00000000000000000000000000000000
Ciphertext:               06744c265ff9cebc49964e3706744c265ff9cebc49964e37c470d0c2
Reciphers for ciphertext: 0
Decipheredtext:           00000000000000000000000000000000
RESULT CIPHER-DECIPHER: -----OK-----


Test: 80
Symmetric key bit length: 192
IV bit length:            64
Plaintext bit length:     128
Symmetric key:            505050505050505050505050505050505050505050505050
IV:                       0000000000000000
Plaintext:                00000000000000000000000000000000
Ciphertext:               070edb0735f68d05ab8e5be3070edb0735f68d05ab8e5be3688e8547
Reciphers for ciphertext: 0
Decipheredtext:           00000000000000000000000000000000
RESULT CIPHER-DECIPHER: -----OK-----


Test: 81
Symmetric key bit length: 192
IV bit length:            64
Plaintext bit length:     128
Symmetric key:            515151515151515151515151515151515151515151515151
IV:                       0000000000000000
Plaintext:                00000000000000000000000000000000
Ciphertext:               070edb0735f68d05ab8e5be3070edb0735f68d05ab8e5be3688e8547
Reciphers for ciphertext: 0
Decipheredtext:           00000000000000000000000000000000
RESULT CIPHER-DECIPHER: -----OK-----


Test: 82
Symmetric key bit length: 192
IV bit length:            64
Plaintext bit length:     128
Symmetric key:            525252525252525252525252525252525252525252525252
IV:                       0000000000000000
Plaintext:                00000000000000000000000000000000
Ciphertext:               17d819b45d919a56dabc7c8917d819b45d919a56dabc7c892aa13e8c
Reciphers for ciphertext: 0
Decipheredtext:           00000000000000000000000000000000
RESULT CIPHER-DECIPHER: -----OK-----


Test: 83
Symmetric key bit length: 192
IV bit length:            64
Plaintext bit length:     128
Symmetric key:            535353535353535353535353535353535353535353535353
IV:                       0000000000000000
Plaintext:                00000000000000000000000000000000
Ciphertext:               17d819b45d919a56dabc7c8917d819b45d919a56dabc7c892aa13e8c
Reciphers for ciphertext: 0
Decipheredtext:           00000000000000000000000000000000
RESULT CIPHER-DECIPHER: -----OK-----


Test: 84
Symmetric key bit length: 192
IV bit length:            64
Plaintext bit length:     128
Symmetric key:            545454545454545454545454545454545454545454545454
IV:                       0000000000000000
Plaintext:                00000000000000000000000000000000
Ciphertext:               0cd7dc4903a8b88b1da74bea0cd7dc4903a8b88b1da74beabf8ab51b
Reciphers for ciphertext: 0
Decipheredtext:           00000000000000000000000000000000
RESULT CIPHER-DECIPHER: -----OK-----


Test: 85
Symmetric key bit length: 192
IV bit length:            64
Plaintext bit length:     128
Symmetric key:            555555555555555555555555555555555555555555555555
IV:                       0000000000000000
Plaintext:                00000000000000000000000000000000
Ciphertext:               0cd7dc4903a8b88b1da74bea0cd7dc4903a8b88b1da74beabf8ab51b
Reciphers for ciphertext: 0
Decipheredtext:           00000000000000000000000000000000
RESULT CIPHER-DECIPHER: -----OK-----


Test: 86
Symmetric key bit length: 192
IV bit length:            64
Plaintext bit length:     128
Symmetric key:            565656565656565656565656565656565656565656565656
IV:                       0000000000000000
Plaintext:                00000000000000000000000000000000
Ciphertext:               c994711eaa5e210d58222b8cc994711eaa5e210d58222b8cd5d12b97
Reciphers for ciphertext: 0
Decipheredtext:           00000000000000000000000000000000
RESULT CIPHER-DECIPHER: -----OK-----


Test: 87
Symmetric key bit length: 192
IV bit length:            64
Plaintext bit length:     128
Symmetric key:            575757575757575757575757575757575757575757575757
IV:                       0000000000000000
Plaintext:                00000000000000000000000000000000
Ciphertext:               c994711eaa5e210d58222b8cc994711eaa5e210d58222b8cd5d12b97
Reciphers for ciphertext: 0
Decipheredtext:           00000000000000000000000000000000
RESULT CIPHER-DECIPHER: -----OK-----


Test: 88
Symmetric key bit length: 192
IV bit length:            64
Plaintext bit length:     128
Symmetric key:            585858585858585858585858585858585858585858585858
IV:                       0000000000000000
Plaintext:                00000000000000000000000000000000
Ciphertext:               059ccc383210c57c8c9486da059ccc383210c57c8c9486dada3e3c1b
Reciphers for ciphertext: 0
Decipheredtext:           00000000000000000000000000000000
RESULT CIPHER-DECIPHER: -----OK-----


Test: 89
Symmetric key bit length: 192
IV bit length:            64
Plaintext bit length:     128
Symmetric key:            595959595959595959595959595959595959595959595959
IV:                       0000000000000000
Plaintext:                00000000000000000000000000000000
Ciphertext:               059ccc383210c57c8c9486da059ccc383210c57c8c9486dada3e3c1b
Reciphers for ciphertext: 0
Decipheredtext:           00000000000000000000000000000000
RESULT CIPHER-DECIPHER: -----OK-----


Test: 90
Symmetric key bit length: 192
IV bit length:            64
Plaintext bit length:     128
Symmetric key:            5a5a5a5a5a5a5a5a5a5a5a5a5a5a5a5a5a5a5a5a5a5a5a5a
IV:                       0000000000000000
Plaintext:                00000000000000000000000000000000
Ciphertext:               c747b49fb22cad2a5e6fd0d5c747b49fb22cad2a5e6fd0d5d360f2a5
Reciphers for ciphertext: 0
Decipheredtext:           00000000000000000000000000000000
RESULT CIPHER-DECIPHER: -----OK-----


Test: 91
Symmetric key bit length: 192
IV bit length:            64
Plaintext bit length:     128
Symmetric key:            5b5b5b5b5b5b5b5b5b5b5b5b5b5b5b5b5b5b5b5b5b5b5b5b
IV:                       0000000000000000
Plaintext:                00000000000000000000000000000000
Ciphertext:               c747b49fb22cad2a5e6fd0d5c747b49fb22cad2a5e6fd0d5d360f2a5
Reciphers for ciphertext: 0
Decipheredtext:           00000000000000000000000000000000
RESULT CIPHER-DECIPHER: -----OK-----


Test: 92
Symmetric key bit length: 192
IV bit length:            64
Plaintext bit length:     128
Symmetric key:            5c5c5c5c5c5c5c5c5c5c5c5c5c5c5c5c5c5c5c5c5c5c5c5c
IV:                       0000000000000000
Plaintext:                00000000000000000000000000000000
Ciphertext:               cb7d0ff2de460aba2369edb2cb7d0ff2de460aba2369edb2b341b65f
Reciphers for ciphertext: 0
Decipheredtext:           00000000000000000000000000000000
RESULT CIPHER-DECIPHER: -----OK-----


Test: 93
Symmetric key bit length: 192
IV bit length:            64
Plaintext bit length:     128
Symmetric key:            5d5d5d5d5d5d5d5d5d5d5d5d5d5d5d5d5d5d5d5d5d5d5d5d
IV:                       0000000000000000
Plaintext:                00000000000000000000000000000000
Ciphertext:               cb7d0ff2de460aba2369edb2cb7d0ff2de460aba2369edb2b341b65f
Reciphers for ciphertext: 0
Decipheredtext:           00000000000000000000000000000000
RESULT CIPHER-DECIPHER: -----OK-----


Test: 94
Symmetric key bit length: 192
IV bit length:            64
Plaintext bit length:     128
Symmetric key:            5e5e5e5e5e5e5e5e5e5e5e5e5e5e5e5e5e5e5e5e5e5e5e5e
IV:                       0000000000000000
Plaintext:                00000000000000000000000000000000
Ciphertext:               e2acb69a1c6f513285e114fae2acb69a1c6f513285e114faafc4b0f9
Reciphers for ciphertext: 0
Decipheredtext:           00000000000000000000000000000000
RESULT CIPHER-DECIPHER: -----OK-----


Test: 95
Symmetric key bit length: 192
IV bit length:            64
Plaintext bit length:     128
Symmetric key:            5f5f5f5f5f5f5f5f5f5f5f5f5f5f5f5f5f5f5f5f5f5f5f5f
IV:                       0000000000000000
Plaintext:                00000000000000000000000000000000
Ciphertext:               e2acb69a1c6f513285e114fae2acb69a1c6f513285e114faafc4b0f9
Reciphers for ciphertext: 0
Decipheredtext:           00000000000000000000000000000000
RESULT CIPHER-DECIPHER: -----OK-----


Test: 96
Symmetric key bit length: 192
IV bit length:            64
Plaintext bit length:     128
Symmetric key:            606060606060606060606060606060606060606060606060
IV:                       0000000000000000
Plaintext:                00000000000000000000000000000000
Ciphertext:               5ff660cb09f83313415d84445ff660cb09f83313415d8444eef756dd
Reciphers for ciphertext: 0
Decipheredtext:           00000000000000000000000000000000
RESULT CIPHER-DECIPHER: -----OK-----


Test: 97
Symmetric key bit length: 192
IV bit length:            64
Plaintext bit length:     128
Symmetric key:            616161616161616161616161616161616161616161616161
IV:                       0000000000000000
Plaintext:                00000000000000000000000000000000
Ciphertext:               5ff660cb09f83313415d84445ff660cb09f83313415d8444eef756dd
Reciphers for ciphertext: 0
Decipheredtext:           00000000000000000000000000000000
RESULT CIPHER-DECIPHER: -----OK-----


Test: 98
Symmetric key bit length: 192
IV bit length:            64
Plaintext bit length:     128
Symmetric key:            626262626262626262626262626262626262626262626262
IV:                       0000000000000000
Plaintext:                00000000000000000000000000000000
Ciphertext:               3ba0c9c8d5a1549395ad600e3ba0c9c8d5a1549395ad600ece0ee2ec
Reciphers for ciphertext: 0
Decipheredtext:           00000000000000000000000000000000
RESULT CIPHER-DECIPHER: -----OK-----


Test: 99
Symmetric key bit length: 192
IV bit length:            64
Plaintext bit length:     128
Symmetric key:            636363636363636363636363636363636363636363636363
IV:                       0000000000000000
Plaintext:                00000000000000000000000000000000
Ciphertext:               3ba0c9c8d5a1549395ad600e3ba0c9c8d5a1549395ad600ece0ee2ec
Reciphers for ciphertext: 0
Decipheredtext:           00000000000000000000000000000000
RESULT CIPHER-DECIPHER: -----OK-----


Test: 100
Symmetric key bit length: 192
IV bit length:            64
Plaintext bit length:     128
Symmetric key:            646464646464646464646464646464646464646464646464
IV:                       0000000000000000
Plaintext:                00000000000000000000000000000000
Ciphertext:               57a7e1986c2c69a4f80bbb5857a7e1986c2c69a4f80bbb58befb63b6
Reciphers for ciphertext: 0
Decipheredtext:           00000000000000000000000000000000
RESULT CIPHER-DECIPHER: -----OK-----


Test: 101
Symmetric key bit length: 192
IV bit length:            64
Plaintext bit length:     128
Symmetric key:            656565656565656565656565656565656565656565656565
IV:                       0000000000000000
Plaintext:                00000000000000000000000000000000
Ciphertext:               57a7e1986c2c69a4f80bbb5857a7e1986c2c69a4f80bbb58befb63b6
Reciphers for ciphertext: 0
Decipheredtext:           00000000000000000000000000000000
RESULT CIPHER-DECIPHER: -----OK-----


Test: 102
Symmetric key bit length: 192
IV bit length:            64
Plaintext bit length:     128
Symmetric key:            666666666666666666666666666666666666666666666666
IV:                       0000000000000000
Plaintext:                00000000000000000000000000000000
Ciphertext:               b0b563c2e4ac77212f1b37a7b0b563c2e4ac77212f1b37a7d7a12fd9
Reciphers for ciphertext: 0
Decipheredtext:           00000000000000000000000000000000
RESULT CIPHER-DECIPHER: -----OK-----


Test: 103
Symmetric key bit length: 192
IV bit length:            64
Plaintext bit length:     128
Symmetric key:            676767676767676767676767676767676767676767676767
IV:                       0000000000000000
Plaintext:                00000000000000000000000000000000
Ciphertext:               b0b563c2e4ac77212f1b37a7b0b563c2e4ac77212f1b37a7d7a12fd9
Reciphers for ciphertext: 0
Decipheredtext:           00000000000000000000000000000000
RESULT CIPHER-DECIPHER: -----OK-----


Test: 104
Symmetric key bit length: 192
IV bit length:            64
Plaintext bit length:     128
Symmetric key:            686868686868686868686868686868686868686868686868
IV:                       0000000000000000
Plaintext:                00000000000000000000000000000000
Ciphertext:               15e63703e499d1ab38c047a215e63703e499d1ab38c047a2f1a95c6e
Reciphers for ciphertext: 0
Decipheredtext:           00000000000000000000000000000000
RESULT CIPHER-DECIPHER: -----OK-----


Test: 105
Symmetric key bit length: 192
IV bit length:            64
Plaintext bit length:     128
Symmetric key:            696969696969696969696969696969696969696969696969
IV:                       0000000000000000
Plaintext:                00000000000000000000000000000000
Ciphertext:               15e63703e499d1ab38c047a215e63703e499d1ab38c047a2f1a95c6e
Reciphers for ciphertext: 0
Decipheredtext:           00000000000000000000000000000000
RESULT CIPHER-DECIPHER: -----OK-----


Test: 106
Symmetric key bit length: 192
IV bit length:            64
Plaintext bit length:     128
Symmetric key:            6a6a6a6a6a6a6a6a6a6a6a6a6a6a6a6a6a6a6a6a6a6a6a6a
IV:                       0000000000000000
Plaintext:                00000000000000000000000000000000
Ciphertext:               0cfa0f95e515647fe4f2262b0cfa0f95e515647fe4f2262b37af02e6
Reciphers for ciphertext: 0
Decipheredtext:           00000000000000000000000000000000
RESULT CIPHER-DECIPHER: -----OK-----


Test: 107
Symmetric key bit length: 192
IV bit length:            64
Plaintext bit length:     128
Symmetric key:            6b6b6b6b6b6b6b6b6b6b6b6b6b6b6b6b6b6b6b6b6b6b6b6b
IV:                       0000000000000000
Plaintext:                00000000000000000000000000000000
Ciphertext:               0cfa0f95e515647fe4f2262b0cfa0f95e515647fe4f2262b37af02e6
Reciphers for ciphertext: 0
Decipheredtext:           00000000000000000000000000000000
RESULT CIPHER-DECIPHER: -----OK-----


Test: 108
Symmetric key bit length: 192
IV bit length:            64
Plaintext bit length:     128
Symmetric key:            6c6c6c6c6c6c6c6c6c6c6c6c6c6c6c6c6c6c6c6c6c6c6c6c
IV:                       0000000000000000
Plaintext:                00000000000000000000000000000000
Ciphertext:               813cc9417d4ae3e55c0b2f42813cc9417d4ae3e55c0b2f42de55aac4
Reciphers for ciphertext: 0
Decipheredtext:           00000000000000000000000000000000
RESULT CIPHER-DECIPHER: -----OK-----


Test: 109
Symmetric key bit length: 192
IV bit length:            64
Plaintext bit length:     128
Symmetric key:            6d6d6d6d6d6d6d6d6d6d6d6d6d6d6d6d6d6d6d6d6d6d6d6d
IV:                       0000000000000000
Plaintext:                00000000000000000000000000000000
Ciphertext:               813cc9417d4ae3e55c0b2f42813cc9417d4ae3e55c0b2f42de55aac4
Reciphers for ciphertext: 0
Decipheredtext:           00000000000000000000000000000000
RESULT CIPHER-DECIPHER: -----OK-----


Test: 110
Symmetric key bit length: 192
IV bit length:            64
Plaintext bit length:     128
Symmetric key:            6e6e6e6e6e6e6e6e6e6e6e6e6e6e6e6e6e6e6e6e6e6e6e6e
IV:                       0000000000000000
Plaintext:                00000000000000000000000000000000
Ciphertext:               6dca86cb5a0faed09b1f271a6dca86cb5a0faed09b1f271a242f4791
Reciphers for ciphertext: 0
Decipheredtext:           00000000000000000000000000000000
RESULT CIPHER-DECIPHER: -----OK-----


Test: 111
Symmetric key bit length: 192
IV bit length:            64
Plaintext bit length:     128
Symmetric key:            6f6f6f6f6f6f6f6f6f6f6f6f6f6f6f6f6f6f6f6f6f6f6f6f
IV:                       0000000000000000
Plaintext:                00000000000000000000000000000000
Ciphertext:               6dca86cb5a0faed09b1f271a6dca86cb5a0faed09b1f271a242f4791
Reciphers for ciphertext: 0
Decipheredtext:           00000000000000000000000000000000
RESULT CIPHER-DECIPHER: -----OK-----


Test: 112
Symmetric key bit length: 192
IV bit length:            64
Plaintext bit length:     128
Symmetric key:            707070707070707070707070707070707070707070707070
IV:                       0000000000000000
Plaintext:                00000000000000000000000000000000
Ciphertext:               db294ebc6c922253aa573b8fdb294ebc6c922253aa573b8f8777668d
Reciphers for ciphertext: 0
Decipheredtext:           00000000000000000000000000000000
RESULT CIPHER-DECIPHER: -----OK-----


Test: 113
Symmetric key bit length: 192
IV bit length:            64
Plaintext bit length:     128
Symmetric key:            717171717171717171717171717171717171717171717171
IV:                       0000000000000000
Plaintext:                00000000000000000000000000000000
Ciphertext:               db294ebc6c922253aa573b8fdb294ebc6c922253aa573b8f8777668d
Reciphers for ciphertext: 0
Decipheredtext:           00000000000000000000000000000000
RESULT CIPHER-DECIPHER: -----OK-----


Test: 114
Symmetric key bit length: 192
IV bit length:            64
Plaintext bit length:     128
Symmetric key:            727272727272727272727272727272727272727272727272
IV:                       0000000000000000
Plaintext:                00000000000000000000000000000000
Ciphertext:               19e79e1032880b88dc584f7319e79e1032880b88dc584f733915ef82
Reciphers for ciphertext: 0
Decipheredtext:           00000000000000000000000000000000
RESULT CIPHER-DECIPHER: -----OK-----


Test: 115
Symmetric key bit length: 192
IV bit length:            64
Plaintext bit length:     128
Symmetric key:            737373737373737373737373737373737373737373737373
IV:                       0000000000000000
Plaintext:                00000000000000000000000000000000
Ciphertext:               19e79e1032880b88dc584f7319e79e1032880b88dc584f733915ef82
Reciphers for ciphertext: 0
Decipheredtext:           00000000000000000000000000000000
RESULT CIPHER-DECIPHER: -----OK-----


Test: 116
Symmetric key bit length: 192
IV bit length:            64
Plaintext bit length:     128
Symmetric key:            747474747474747474747474747474747474747474747474
IV:                       0000000000000000
Plaintext:                00000000000000000000000000000000
Ciphertext:               2dd21e58f1fe5167ccd7fc482dd21e58f1fe5167ccd7fc483b8342cc
Reciphers for ciphertext: 0
Decipheredtext:           00000000000000000000000000000000
RESULT CIPHER-DECIPHER: -----OK-----


Test: 117
Symmetric key bit length: 192
IV bit length:            64
Plaintext bit length:     128
Symmetric key:            757575757575757575757575757575757575757575757575
IV:                       0000000000000000
Plaintext:                00000000000000000000000000000000
Ciphertext:               2dd21e58f1fe5167ccd7fc482dd21e58f1fe5167ccd7fc483b8342cc
Reciphers for ciphertext: 0
Decipheredtext:           00000000000000000000000000000000
RESULT CIPHER-DECIPHER: -----OK-----


Test: 118
Symmetric key bit length: 192
IV bit length:            64
Plaintext bit length:     128
Symmetric key:            767676767676767676767676767676767676767676767676
IV:                       0000000000000000
Plaintext:                00000000000000000000000000000000
Ciphertext:               4cbe91beadba353f8aec9e924cbe91beadba353f8aec9e92084ec3f4
Reciphers for ciphertext: 0
Decipheredtext:           00000000000000000000000000000000
RESULT CIPHER-DECIPHER: -----OK-----


Test: 119
Symmetric key bit length: 192
IV bit length:            64
Plaintext bit length:     128
Symmetric key:            777777777777777777777777777777777777777777777777
IV:                       0000000000000000
Plaintext:                00000000000000000000000000000000
Ciphertext:               4cbe91beadba353f8aec9e924cbe91beadba353f8aec9e92084ec3f4
Reciphers for ciphertext: 0
Decipheredtext:           00000000000000000000000000000000
RESULT CIPHER-DECIPHER: -----OK-----


Test: 120
Symmetric key bit length: 192
IV bit length:            64
Plaintext bit length:     128
Symmetric key:            787878787878787878787878787878787878787878787878
IV:                       0000000000000000
Plaintext:                00000000000000000000000000000000
Ciphertext:               3cc323b2465e3a8ce89b6c733cc323b2465e3a8ce89b6c73b5bffbb2
Reciphers for ciphertext: 0
Decipheredtext:           00000000000000000000000000000000
RESULT CIPHER-DECIPHER: -----OK-----


Test: 121
Symmetric key bit length: 192
IV bit length:            64
Plaintext bit length:     128
Symmetric key:            797979797979797979797979797979797979797979797979
IV:                       0000000000000000
Plaintext:                00000000000000000000000000000000
Ciphertext:               3cc323b2465e3a8ce89b6c733cc323b2465e3a8ce89b6c73b5bffbb2
Reciphers for ciphertext: 0
Decipheredtext:           00000000000000000000000000000000
RESULT CIPHER-DECIPHER: -----OK-----


Test: 122
Symmetric key bit length: 192
IV bit length:            64
Plaintext bit length:     128
Symmetric key:            7a7a7a7a7a7a7a7a7a7a7a7a7a7a7a7a7a7a7a7a7a7a7a7a
IV:                       0000000000000000
Plaintext:                00000000000000000000000000000000
Ciphertext:               d15f4504f20845f6a7365ddcd15f4504f20845f6a7365ddc88974300
Reciphers for ciphertext: 0
Decipheredtext:           00000000000000000000000000000000
RESULT CIPHER-DECIPHER: -----OK-----


Test: 123
Symmetric key bit length: 192
IV bit length:            64
Plaintext bit length:     128
Symmetric key:            7b7b7b7b7b7b7b7b7b7b7b7b7b7b7b7b7b7b7b7b7b7b7b7b
IV:                       0000000000000000
Plaintext:                00000000000000000000000000000000
Ciphertext:               d15f4504f20845f6a7365ddcd15f4504f20845f6a7365ddc88974300
Reciphers for ciphertext: 0
Decipheredtext:           00000000000000000000000000000000
RESULT CIPHER-DECIPHER: -----OK-----


Test: 124
Symmetric key bit length: 192
IV bit length:            64
Plaintext bit length:     128
Symmetric key:            7c7c7c7c7c7c7c7c7c7c7c7c7c7c7c7c7c7c7c7c7c7c7c7c
IV:                       0000000000000000
Plaintext:                00000000000000000000000000000000
Ciphertext:               8b1536d4d60fec196f1b90e18b1536d4d60fec196f1b90e1abcae9a5
Reciphers for ciphertext: 0
Decipheredtext:           00000000000000000000000000000000
RESULT CIPHER-DECIPHER: -----OK-----


Test: 125
Symmetric key bit length: 192
IV bit length:            64
Plaintext bit length:     128
Symmetric key:            7d7d7d7d7d7d7d7d7d7d7d7d7d7d7d7d7d7d7d7d7d7d7d7d
IV:                       0000000000000000
Plaintext:                00000000000000000000000000000000
Ciphertext:               8b1536d4d60fec196f1b90e18b1536d4d60fec196f1b90e1abcae9a5
Reciphers for ciphertext: 0
Decipheredtext:           00000000000000000000000000000000
RESULT CIPHER-DECIPHER: -----OK-----


Test: 126
Symmetric key bit length: 192
IV bit length:            64
Plaintext bit length:     128
Symmetric key:            7e7e7e7e7e7e7e7e7e7e7e7e7e7e7e7e7e7e7e7e7e7e7e7e
IV:                       0000000000000000
Plaintext:                00000000000000000000000000000000
Ciphertext:               5efa76b8a5a9eb374a1db5b75efa76b8a5a9eb374a1db5b713f5aaa3
Reciphers for ciphertext: 0
Decipheredtext:           00000000000000000000000000000000
RESULT CIPHER-DECIPHER: -----OK-----


Test: 127
Symmetric key bit length: 192
IV bit length:            64
Plaintext bit length:     128
Symmetric key:            7f7f7f7f7f7f7f7f7f7f7f7f7f7f7f7f7f7f7f7f7f7f7f7f
IV:                       0000000000000000
Plaintext:                00000000000000000000000000000000
Ciphertext:               5efa76b8a5a9eb374a1db5b75efa76b8a5a9eb374a1db5b713f5aaa3
Reciphers for ciphertext: 0
Decipheredtext:           00000000000000000000000000000000
RESULT CIPHER-DECIPHER: -----OK-----


 DATA SHA1 (hexadecimal): 5d348d2229f4b855a21235458d16d82b88eb798b

