
DiceLock 9.0.0.1

 TEST COMPONENTS:
 ----------------
 DiceLock:           DiceLockIVIndexed class
 Operation Mode:     OFB_Mode class
 Block Cipher:       Serpent256 class
 Key Modifier:       IncreaseBase0IndexModifier_6_0_0_1 class
   Index bit length: 256
 Random tests:       RandomTestSuite class
                     FrequencyTest class
                     BlockFrequencyTest class
                     CumulativeSumForwardTest class
                     LongestRunOfOnesTest class
                     RunsTest class
 Random alpha:       0.001

 VECTOR TEST: Test vector 5 - IV all byte value 0xXX


##### INDIVIDUAL TESTS #####

Number tests: 128


Test: 0
Symmetric key bit length: 256
IV bit length:            128
Plaintext bit length:     136
Symmetric key:            0000000000000000000000000000000000000000000000000000000000000000
IV:                       00000000000000000000000000000000
Plaintext:                0000000000000000000000000000000000
Ciphertext:               8910494504181950f98dd998a82b6749608db8ce25ef9d4aef6a7df6737cc91f8910494504181950f98dd998a82b674960
Reciphers for ciphertext: 0
Decipheredtext:           0000000000000000000000000000000000
RESULT CIPHER-DECIPHER: -----OK-----


Test: 1
Symmetric key bit length: 256
IV bit length:            128
Plaintext bit length:     136
Symmetric key:            0000000000000000000000000000000000000000000000000000000000000000
IV:                       01010101010101010101010101010101
Plaintext:                0000000000000000000000000000000000
Ciphertext:               b5cf0e3514094b683c3a23a455b0438bb6191a8de0f044a1dcae7ec6a24293ddb5cf0e3514094b683c3a23a455b0438bb6
Reciphers for ciphertext: 0
Decipheredtext:           0000000000000000000000000000000000
RESULT CIPHER-DECIPHER: -----OK-----


Test: 2
Symmetric key bit length: 256
IV bit length:            128
Plaintext bit length:     136
Symmetric key:            0000000000000000000000000000000000000000000000000000000000000000
IV:                       02020202020202020202020202020202
Plaintext:                0000000000000000000000000000000000
Ciphertext:               e54c8aca6e60b036735cebc0b3cd2ac81a6f56e0d8f079fadc1e774420d43f3ee54c8aca6e60b036735cebc0b3cd2ac81a
Reciphers for ciphertext: 0
Decipheredtext:           0000000000000000000000000000000000
RESULT CIPHER-DECIPHER: -----OK-----


Test: 3
Symmetric key bit length: 256
IV bit length:            128
Plaintext bit length:     136
Symmetric key:            0000000000000000000000000000000000000000000000000000000000000000
IV:                       03030303030303030303030303030303
Plaintext:                0000000000000000000000000000000000
Ciphertext:               02dee59e30c671f7224f9ea1c937131c59db37467ad959383d5f417de38069e202dee59e30c671f7224f9ea1c937131c59
Reciphers for ciphertext: 0
Decipheredtext:           0000000000000000000000000000000000
RESULT CIPHER-DECIPHER: -----OK-----


Test: 4
Symmetric key bit length: 256
IV bit length:            128
Plaintext bit length:     136
Symmetric key:            0000000000000000000000000000000000000000000000000000000000000000
IV:                       04040404040404040404040404040404
Plaintext:                0000000000000000000000000000000000
Ciphertext:               91e79dc262727470b45d3865a2f5dccca331ac889d0be65ec1011c50023adcc591e79dc262727470b45d3865a2f5dccca3
Reciphers for ciphertext: 0
Decipheredtext:           0000000000000000000000000000000000
RESULT CIPHER-DECIPHER: -----OK-----


Test: 5
Symmetric key bit length: 256
IV bit length:            128
Plaintext bit length:     136
Symmetric key:            0000000000000000000000000000000000000000000000000000000000000000
IV:                       05050505050505050505050505050505
Plaintext:                0000000000000000000000000000000000
Ciphertext:               945176245e431310176001db764783a8d8da0a01f1c6f1dbf5688d45e418358b945176245e431310176001db764783a8d8
Reciphers for ciphertext: 0
Decipheredtext:           0000000000000000000000000000000000
RESULT CIPHER-DECIPHER: -----OK-----


Test: 6
Symmetric key bit length: 256
IV bit length:            128
Plaintext bit length:     136
Symmetric key:            0000000000000000000000000000000000000000000000000000000000000000
IV:                       06060606060606060606060606060606
Plaintext:                0000000000000000000000000000000000
Ciphertext:               b075cd937c479ad18e8b70c99376687cc5eb89bf41080a607e6a6bc2474eff6fb075cd937c479ad18e8b70c99376687cc5
Reciphers for ciphertext: 0
Decipheredtext:           0000000000000000000000000000000000
RESULT CIPHER-DECIPHER: -----OK-----


Test: 7
Symmetric key bit length: 256
IV bit length:            128
Plaintext bit length:     136
Symmetric key:            0000000000000000000000000000000000000000000000000000000000000000
IV:                       07070707070707070707070707070707
Plaintext:                0000000000000000000000000000000000
Ciphertext:               d1be6dfa69c33543af632d58acadbe50c980c84ca77c91fecae40f2f77ca7ac5fcee2aa18409e726fc791dec5a9e7933fa
Reciphers for ciphertext: 1
Decipheredtext:           0000000000000000000000000000000000
RESULT CIPHER-DECIPHER: -----OK-----


Test: 8
Symmetric key bit length: 256
IV bit length:            128
Plaintext bit length:     136
Symmetric key:            0000000000000000000000000000000000000000000000000000000000000000
IV:                       08080808080808080808080808080808
Plaintext:                0000000000000000000000000000000000
Ciphertext:               af18a86bb10355b6891e859117d3ff552f096817b56c228a303b211d76728495af18a86bb10355b6891e859117d3ff552f
Reciphers for ciphertext: 0
Decipheredtext:           0000000000000000000000000000000000
RESULT CIPHER-DECIPHER: -----OK-----


Test: 9
Symmetric key bit length: 256
IV bit length:            128
Plaintext bit length:     136
Symmetric key:            0000000000000000000000000000000000000000000000000000000000000000
IV:                       09090909090909090909090909090909
Plaintext:                0000000000000000000000000000000000
Ciphertext:               98cca7067f5e028f615f55c25a3b72825d0b4f9e16422f61b8413874440ede3098cca7067f5e028f615f55c25a3b72825d
Reciphers for ciphertext: 0
Decipheredtext:           0000000000000000000000000000000000
RESULT CIPHER-DECIPHER: -----OK-----


Test: 10
Symmetric key bit length: 256
IV bit length:            128
Plaintext bit length:     136
Symmetric key:            0000000000000000000000000000000000000000000000000000000000000000
IV:                       0a0a0a0a0a0a0a0a0a0a0a0a0a0a0a0a
Plaintext:                0000000000000000000000000000000000
Ciphertext:               3bb29125fd1dc4b1b3d4b554d5c48c1e3310bb80362d2ff7fb60ae84708257603bb29125fd1dc4b1b3d4b554d5c48c1e33
Reciphers for ciphertext: 0
Decipheredtext:           0000000000000000000000000000000000
RESULT CIPHER-DECIPHER: -----OK-----


Test: 11
Symmetric key bit length: 256
IV bit length:            128
Plaintext bit length:     136
Symmetric key:            0000000000000000000000000000000000000000000000000000000000000000
IV:                       0b0b0b0b0b0b0b0b0b0b0b0b0b0b0b0b
Plaintext:                0000000000000000000000000000000000
Ciphertext:               54bb014441aa35cf4763e1b01faa172e0085296055e3ee20b9d4d1314fce89e054bb014441aa35cf4763e1b01faa172e00
Reciphers for ciphertext: 0
Decipheredtext:           0000000000000000000000000000000000
RESULT CIPHER-DECIPHER: -----OK-----


Test: 12
Symmetric key bit length: 256
IV bit length:            128
Plaintext bit length:     136
Symmetric key:            0000000000000000000000000000000000000000000000000000000000000000
IV:                       0c0c0c0c0c0c0c0c0c0c0c0c0c0c0c0c
Plaintext:                0000000000000000000000000000000000
Ciphertext:               e866d3e02875ff871d33e106b8011c7adb93b37bcb7a654b99dd46c8ded8f61ce866d3e02875ff871d33e106b8011c7adb
Reciphers for ciphertext: 0
Decipheredtext:           0000000000000000000000000000000000
RESULT CIPHER-DECIPHER: -----OK-----


Test: 13
Symmetric key bit length: 256
IV bit length:            128
Plaintext bit length:     136
Symmetric key:            0000000000000000000000000000000000000000000000000000000000000000
IV:                       0d0d0d0d0d0d0d0d0d0d0d0d0d0d0d0d
Plaintext:                0000000000000000000000000000000000
Ciphertext:               6f56868c3081760ccf8f7f41c88ed5502ee16c0b279470ca564c016f39ec73316f56868c3081760ccf8f7f41c88ed5502e
Reciphers for ciphertext: 0
Decipheredtext:           0000000000000000000000000000000000
RESULT CIPHER-DECIPHER: -----OK-----


Test: 14
Symmetric key bit length: 256
IV bit length:            128
Plaintext bit length:     136
Symmetric key:            0000000000000000000000000000000000000000000000000000000000000000
IV:                       0e0e0e0e0e0e0e0e0e0e0e0e0e0e0e0e
Plaintext:                0000000000000000000000000000000000
Ciphertext:               401c45e4d4440db435633a8127741b89f3431095e24c3459275fa56501a472dd401c45e4d4440db435633a8127741b89f3
Reciphers for ciphertext: 0
Decipheredtext:           0000000000000000000000000000000000
RESULT CIPHER-DECIPHER: -----OK-----


Test: 15
Symmetric key bit length: 256
IV bit length:            128
Plaintext bit length:     136
Symmetric key:            0000000000000000000000000000000000000000000000000000000000000000
IV:                       0f0f0f0f0f0f0f0f0f0f0f0f0f0f0f0f
Plaintext:                0000000000000000000000000000000000
Ciphertext:               bc187a17afa1e2d9e9c841986219105dc5a3c041c98dd72ba3f6cf42e21f98b9bc187a17afa1e2d9e9c841986219105dc5
Reciphers for ciphertext: 0
Decipheredtext:           0000000000000000000000000000000000
RESULT CIPHER-DECIPHER: -----OK-----


Test: 16
Symmetric key bit length: 256
IV bit length:            128
Plaintext bit length:     136
Symmetric key:            0000000000000000000000000000000000000000000000000000000000000000
IV:                       10101010101010101010101010101010
Plaintext:                0000000000000000000000000000000000
Ciphertext:               0c648d3f6758e3603ab71bb07d663b8ba41e8a7c31459d1fc11c8aa8e13b3daf0c648d3f6758e3603ab71bb07d663b8ba4
Reciphers for ciphertext: 0
Decipheredtext:           0000000000000000000000000000000000
RESULT CIPHER-DECIPHER: -----OK-----


Test: 17
Symmetric key bit length: 256
IV bit length:            128
Plaintext bit length:     136
Symmetric key:            0000000000000000000000000000000000000000000000000000000000000000
IV:                       11111111111111111111111111111111
Plaintext:                0000000000000000000000000000000000
Ciphertext:               147c0f0b6b28b7f2451f9aeb6b6168982d8c561f2ddde2014fdb215dfb311101147c0f0b6b28b7f2451f9aeb6b6168982d
Reciphers for ciphertext: 0
Decipheredtext:           0000000000000000000000000000000000
RESULT CIPHER-DECIPHER: -----OK-----


Test: 18
Symmetric key bit length: 256
IV bit length:            128
Plaintext bit length:     136
Symmetric key:            0000000000000000000000000000000000000000000000000000000000000000
IV:                       12121212121212121212121212121212
Plaintext:                0000000000000000000000000000000000
Ciphertext:               fb58bfc422ce9ad1a2de6202bae74a7be4b6ecf1b95c0ae027f6db59e2b2a2a9fb58bfc422ce9ad1a2de6202bae74a7be4
Reciphers for ciphertext: 0
Decipheredtext:           0000000000000000000000000000000000
RESULT CIPHER-DECIPHER: -----OK-----


Test: 19
Symmetric key bit length: 256
IV bit length:            128
Plaintext bit length:     136
Symmetric key:            0000000000000000000000000000000000000000000000000000000000000000
IV:                       13131313131313131313131313131313
Plaintext:                0000000000000000000000000000000000
Ciphertext:               e4447169f8ee27ac4ea32a32a8303364ab5fa7cc9d8635690494cb1e26a6022ae4447169f8ee27ac4ea32a32a8303364ab
Reciphers for ciphertext: 0
Decipheredtext:           0000000000000000000000000000000000
RESULT CIPHER-DECIPHER: -----OK-----


Test: 20
Symmetric key bit length: 256
IV bit length:            128
Plaintext bit length:     136
Symmetric key:            0000000000000000000000000000000000000000000000000000000000000000
IV:                       14141414141414141414141414141414
Plaintext:                0000000000000000000000000000000000
Ciphertext:               8c3f5a9f2e096cbd590664313342b66ac4af80f1e527b1327f6287c92e7671b88c3f5a9f2e096cbd590664313342b66ac4
Reciphers for ciphertext: 0
Decipheredtext:           0000000000000000000000000000000000
RESULT CIPHER-DECIPHER: -----OK-----


Test: 21
Symmetric key bit length: 256
IV bit length:            128
Plaintext bit length:     136
Symmetric key:            0000000000000000000000000000000000000000000000000000000000000000
IV:                       15151515151515151515151515151515
Plaintext:                0000000000000000000000000000000000
Ciphertext:               73a9f5f7de94b462aff9a53ddbb77a5a99b579bd7b67a3c42992b937a5f849acec18679020299866da62df9ef835b70964
Reciphers for ciphertext: 1
Decipheredtext:           0000000000000000000000000000000000
RESULT CIPHER-DECIPHER: -----OK-----


Test: 22
Symmetric key bit length: 256
IV bit length:            128
Plaintext bit length:     136
Symmetric key:            0000000000000000000000000000000000000000000000000000000000000000
IV:                       16161616161616161616161616161616
Plaintext:                0000000000000000000000000000000000
Ciphertext:               cb9f730fe72a14d2e212c806b6446874be478c6aba73468d70af395d6f5bb169cb9f730fe72a14d2e212c806b6446874be
Reciphers for ciphertext: 0
Decipheredtext:           0000000000000000000000000000000000
RESULT CIPHER-DECIPHER: -----OK-----


Test: 23
Symmetric key bit length: 256
IV bit length:            128
Plaintext bit length:     136
Symmetric key:            0000000000000000000000000000000000000000000000000000000000000000
IV:                       17171717171717171717171717171717
Plaintext:                0000000000000000000000000000000000
Ciphertext:               310413b27450d9e821cc4ea9f1955b7342e59080f8097b2903e533340715ba13310413b27450d9e821cc4ea9f1955b7342
Reciphers for ciphertext: 0
Decipheredtext:           0000000000000000000000000000000000
RESULT CIPHER-DECIPHER: -----OK-----


Test: 24
Symmetric key bit length: 256
IV bit length:            128
Plaintext bit length:     136
Symmetric key:            0000000000000000000000000000000000000000000000000000000000000000
IV:                       18181818181818181818181818181818
Plaintext:                0000000000000000000000000000000000
Ciphertext:               77837991272b629b584c4055bc7b5cfb97c0ae31b14731619f4f40a268ce612377837991272b629b584c4055bc7b5cfb97
Reciphers for ciphertext: 0
Decipheredtext:           0000000000000000000000000000000000
RESULT CIPHER-DECIPHER: -----OK-----


Test: 25
Symmetric key bit length: 256
IV bit length:            128
Plaintext bit length:     136
Symmetric key:            0000000000000000000000000000000000000000000000000000000000000000
IV:                       19191919191919191919191919191919
Plaintext:                0000000000000000000000000000000000
Ciphertext:               8f0471aa5fd0c6a03435a01aafb12ede8cdfe9f7fe644fc6a058fce31e9088088f0471aa5fd0c6a03435a01aafb12ede8c
Reciphers for ciphertext: 0
Decipheredtext:           0000000000000000000000000000000000
RESULT CIPHER-DECIPHER: -----OK-----


Test: 26
Symmetric key bit length: 256
IV bit length:            128
Plaintext bit length:     136
Symmetric key:            0000000000000000000000000000000000000000000000000000000000000000
IV:                       1a1a1a1a1a1a1a1a1a1a1a1a1a1a1a1a
Plaintext:                0000000000000000000000000000000000
Ciphertext:               5f64f5e6a0aa5a100a67d62c69f73c38cd80b6f661fcefea8668f752bb050f2f5f64f5e6a0aa5a100a67d62c69f73c38cd
Reciphers for ciphertext: 0
Decipheredtext:           0000000000000000000000000000000000
RESULT CIPHER-DECIPHER: -----OK-----


Test: 27
Symmetric key bit length: 256
IV bit length:            128
Plaintext bit length:     136
Symmetric key:            0000000000000000000000000000000000000000000000000000000000000000
IV:                       1b1b1b1b1b1b1b1b1b1b1b1b1b1b1b1b
Plaintext:                0000000000000000000000000000000000
Ciphertext:               be0c5767dadaadd8ad51bff761f1cff22b02db779408a07b805b0f5c2dbea729be0c5767dadaadd8ad51bff761f1cff22b
Reciphers for ciphertext: 0
Decipheredtext:           0000000000000000000000000000000000
RESULT CIPHER-DECIPHER: -----OK-----


Test: 28
Symmetric key bit length: 256
IV bit length:            128
Plaintext bit length:     136
Symmetric key:            0000000000000000000000000000000000000000000000000000000000000000
IV:                       1c1c1c1c1c1c1c1c1c1c1c1c1c1c1c1c
Plaintext:                0000000000000000000000000000000000
Ciphertext:               a02b732cf94a74686bba7df5e659fc093818798e1d72462022db2a711a160a7aa02b732cf94a74686bba7df5e659fc0938
Reciphers for ciphertext: 0
Decipheredtext:           0000000000000000000000000000000000
RESULT CIPHER-DECIPHER: -----OK-----


Test: 29
Symmetric key bit length: 256
IV bit length:            128
Plaintext bit length:     136
Symmetric key:            0000000000000000000000000000000000000000000000000000000000000000
IV:                       1d1d1d1d1d1d1d1d1d1d1d1d1d1d1d1d
Plaintext:                0000000000000000000000000000000000
Ciphertext:               388ad29491ba3b5af30dcc518eb525f45c668f08105d07ead0f2811bf651a14d388ad29491ba3b5af30dcc518eb525f45c
Reciphers for ciphertext: 0
Decipheredtext:           0000000000000000000000000000000000
RESULT CIPHER-DECIPHER: -----OK-----


Test: 30
Symmetric key bit length: 256
IV bit length:            128
Plaintext bit length:     136
Symmetric key:            0000000000000000000000000000000000000000000000000000000000000000
IV:                       1e1e1e1e1e1e1e1e1e1e1e1e1e1e1e1e
Plaintext:                0000000000000000000000000000000000
Ciphertext:               d66d8dbe935429b8bd89f0afa9ea220d310d717b43fed7e19fb64113a48741a3d66d8dbe935429b8bd89f0afa9ea220d31
Reciphers for ciphertext: 0
Decipheredtext:           0000000000000000000000000000000000
RESULT CIPHER-DECIPHER: -----OK-----


Test: 31
Symmetric key bit length: 256
IV bit length:            128
Plaintext bit length:     136
Symmetric key:            0000000000000000000000000000000000000000000000000000000000000000
IV:                       1f1f1f1f1f1f1f1f1f1f1f1f1f1f1f1f
Plaintext:                0000000000000000000000000000000000
Ciphertext:               90f56f5360f966a61bdf1c143808c8309196917c0b113b90c828f46b1692d48b90f56f5360f966a61bdf1c143808c83091
Reciphers for ciphertext: 0
Decipheredtext:           0000000000000000000000000000000000
RESULT CIPHER-DECIPHER: -----OK-----


Test: 32
Symmetric key bit length: 256
IV bit length:            128
Plaintext bit length:     136
Symmetric key:            0000000000000000000000000000000000000000000000000000000000000000
IV:                       20202020202020202020202020202020
Plaintext:                0000000000000000000000000000000000
Ciphertext:               8dd70b1e8bf83db1877a4e439e18e942dca36e4cc409dc7e1a469c2b548b443d8dd70b1e8bf83db1877a4e439e18e942dc
Reciphers for ciphertext: 0
Decipheredtext:           0000000000000000000000000000000000
RESULT CIPHER-DECIPHER: -----OK-----


Test: 33
Symmetric key bit length: 256
IV bit length:            128
Plaintext bit length:     136
Symmetric key:            0000000000000000000000000000000000000000000000000000000000000000
IV:                       21212121212121212121212121212121
Plaintext:                0000000000000000000000000000000000
Ciphertext:               79683efb73c575b2fbad70d02a2d0f29942fe1aae12fa8e804cc2e750e00c5e379683efb73c575b2fbad70d02a2d0f2994
Reciphers for ciphertext: 0
Decipheredtext:           0000000000000000000000000000000000
RESULT CIPHER-DECIPHER: -----OK-----


Test: 34
Symmetric key bit length: 256
IV bit length:            128
Plaintext bit length:     136
Symmetric key:            0000000000000000000000000000000000000000000000000000000000000000
IV:                       22222222222222222222222222222222
Plaintext:                0000000000000000000000000000000000
Ciphertext:               7e4d16dda019c87de620c002ff60e5cee52b905740cb10b7448b6e106d44b93b7e4d16dda019c87de620c002ff60e5cee5
Reciphers for ciphertext: 0
Decipheredtext:           0000000000000000000000000000000000
RESULT CIPHER-DECIPHER: -----OK-----


Test: 35
Symmetric key bit length: 256
IV bit length:            128
Plaintext bit length:     136
Symmetric key:            0000000000000000000000000000000000000000000000000000000000000000
IV:                       23232323232323232323232323232323
Plaintext:                0000000000000000000000000000000000
Ciphertext:               e001c907b7c9f6bdd8aba5d1aaa44ec6f584d3eb03b17fdbafbaf592750e3de7e001c907b7c9f6bdd8aba5d1aaa44ec6f5
Reciphers for ciphertext: 0
Decipheredtext:           0000000000000000000000000000000000
RESULT CIPHER-DECIPHER: -----OK-----


Test: 36
Symmetric key bit length: 256
IV bit length:            128
Plaintext bit length:     136
Symmetric key:            0000000000000000000000000000000000000000000000000000000000000000
IV:                       24242424242424242424242424242424
Plaintext:                0000000000000000000000000000000000
Ciphertext:               8f8ab053758a8522743565586736d679279c6540a0a96578c8d9b8b38713011c8f8ab053758a8522743565586736d67927
Reciphers for ciphertext: 0
Decipheredtext:           0000000000000000000000000000000000
RESULT CIPHER-DECIPHER: -----OK-----


Test: 37
Symmetric key bit length: 256
IV bit length:            128
Plaintext bit length:     136
Symmetric key:            0000000000000000000000000000000000000000000000000000000000000000
IV:                       25252525252525252525252525252525
Plaintext:                0000000000000000000000000000000000
Ciphertext:               c4171ba3d41c17a6d6d2d089df726dba2c45ca392515fcb3c394367cecae0c47c4171ba3d41c17a6d6d2d089df726dba2c
Reciphers for ciphertext: 0
Decipheredtext:           0000000000000000000000000000000000
RESULT CIPHER-DECIPHER: -----OK-----


Test: 38
Symmetric key bit length: 256
IV bit length:            128
Plaintext bit length:     136
Symmetric key:            0000000000000000000000000000000000000000000000000000000000000000
IV:                       26262626262626262626262626262626
Plaintext:                0000000000000000000000000000000000
Ciphertext:               18d7d6a5c609a98c7eca1dde50274e707d34c1e90d6034d5b9cdc689c99075aa18d7d6a5c609a98c7eca1dde50274e707d
Reciphers for ciphertext: 0
Decipheredtext:           0000000000000000000000000000000000
RESULT CIPHER-DECIPHER: -----OK-----


Test: 39
Symmetric key bit length: 256
IV bit length:            128
Plaintext bit length:     136
Symmetric key:            0000000000000000000000000000000000000000000000000000000000000000
IV:                       27272727272727272727272727272727
Plaintext:                0000000000000000000000000000000000
Ciphertext:               36a58e197f8d2cdd1974da957e62cd419ee6916ae21b392d7dd3c31c9b3522f236a58e197f8d2cdd1974da957e62cd419e
Reciphers for ciphertext: 0
Decipheredtext:           0000000000000000000000000000000000
RESULT CIPHER-DECIPHER: -----OK-----


Test: 40
Symmetric key bit length: 256
IV bit length:            128
Plaintext bit length:     136
Symmetric key:            0000000000000000000000000000000000000000000000000000000000000000
IV:                       28282828282828282828282828282828
Plaintext:                0000000000000000000000000000000000
Ciphertext:               4d1617e66f87b466fb486e2285aa67db427d4409ae03b470895e1b99e7c98c3a4d1617e66f87b466fb486e2285aa67db42
Reciphers for ciphertext: 0
Decipheredtext:           0000000000000000000000000000000000
RESULT CIPHER-DECIPHER: -----OK-----


Test: 41
Symmetric key bit length: 256
IV bit length:            128
Plaintext bit length:     136
Symmetric key:            0000000000000000000000000000000000000000000000000000000000000000
IV:                       29292929292929292929292929292929
Plaintext:                0000000000000000000000000000000000
Ciphertext:               b7e58af059ee51902baa4ba0ed24a40118b55a1d5beb27013cc46c165dba5f27b7e58af059ee51902baa4ba0ed24a40118
Reciphers for ciphertext: 0
Decipheredtext:           0000000000000000000000000000000000
RESULT CIPHER-DECIPHER: -----OK-----


Test: 42
Symmetric key bit length: 256
IV bit length:            128
Plaintext bit length:     136
Symmetric key:            0000000000000000000000000000000000000000000000000000000000000000
IV:                       2a2a2a2a2a2a2a2a2a2a2a2a2a2a2a2a
Plaintext:                0000000000000000000000000000000000
Ciphertext:               a9594f27355d54316fb8dc0b6d6de1ff5a849222618af12b4c76154d4e5ba18ca9594f27355d54316fb8dc0b6d6de1ff5a
Reciphers for ciphertext: 0
Decipheredtext:           0000000000000000000000000000000000
RESULT CIPHER-DECIPHER: -----OK-----


Test: 43
Symmetric key bit length: 256
IV bit length:            128
Plaintext bit length:     136
Symmetric key:            0000000000000000000000000000000000000000000000000000000000000000
IV:                       2b2b2b2b2b2b2b2b2b2b2b2b2b2b2b2b
Plaintext:                0000000000000000000000000000000000
Ciphertext:               be55f8109c950dfe96d4bc5fdea46a0482ef85c482ec5a6d11504837edede61fbe55f8109c950dfe96d4bc5fdea46a0482
Reciphers for ciphertext: 0
Decipheredtext:           0000000000000000000000000000000000
RESULT CIPHER-DECIPHER: -----OK-----


Test: 44
Symmetric key bit length: 256
IV bit length:            128
Plaintext bit length:     136
Symmetric key:            0000000000000000000000000000000000000000000000000000000000000000
IV:                       2c2c2c2c2c2c2c2c2c2c2c2c2c2c2c2c
Plaintext:                0000000000000000000000000000000000
Ciphertext:               b9a566f7b8038b2a5b9160cc1cb16439c31e7027cc4b140379c096af5647cb11b9a566f7b8038b2a5b9160cc1cb16439c3
Reciphers for ciphertext: 0
Decipheredtext:           0000000000000000000000000000000000
RESULT CIPHER-DECIPHER: -----OK-----


Test: 45
Symmetric key bit length: 256
IV bit length:            128
Plaintext bit length:     136
Symmetric key:            0000000000000000000000000000000000000000000000000000000000000000
IV:                       2d2d2d2d2d2d2d2d2d2d2d2d2d2d2d2d
Plaintext:                0000000000000000000000000000000000
Ciphertext:               f33ef62a707c2fae1ec3b8a7828b860a5b25d57437b07568d99dbfe034590774f33ef62a707c2fae1ec3b8a7828b860a5b
Reciphers for ciphertext: 0
Decipheredtext:           0000000000000000000000000000000000
RESULT CIPHER-DECIPHER: -----OK-----


Test: 46
Symmetric key bit length: 256
IV bit length:            128
Plaintext bit length:     136
Symmetric key:            0000000000000000000000000000000000000000000000000000000000000000
IV:                       2e2e2e2e2e2e2e2e2e2e2e2e2e2e2e2e
Plaintext:                0000000000000000000000000000000000
Ciphertext:               796c746cc3df54fcfee00209653a9a14148ce1ed350494e7f74568761dde8283796c746cc3df54fcfee00209653a9a1414
Reciphers for ciphertext: 0
Decipheredtext:           0000000000000000000000000000000000
RESULT CIPHER-DECIPHER: -----OK-----


Test: 47
Symmetric key bit length: 256
IV bit length:            128
Plaintext bit length:     136
Symmetric key:            0000000000000000000000000000000000000000000000000000000000000000
IV:                       2f2f2f2f2f2f2f2f2f2f2f2f2f2f2f2f
Plaintext:                0000000000000000000000000000000000
Ciphertext:               83426c5d9fc880461faa36914796383a4c9be11fd1e441d225f63c8fe54464c383426c5d9fc880461faa36914796383a4c
Reciphers for ciphertext: 0
Decipheredtext:           0000000000000000000000000000000000
RESULT CIPHER-DECIPHER: -----OK-----


Test: 48
Symmetric key bit length: 256
IV bit length:            128
Plaintext bit length:     136
Symmetric key:            0000000000000000000000000000000000000000000000000000000000000000
IV:                       30303030303030303030303030303030
Plaintext:                0000000000000000000000000000000000
Ciphertext:               1f01fc6a4fdd1fc8b4b17a2dd9b206275d7591e5121697e1e4d75f5047508edc1f01fc6a4fdd1fc8b4b17a2dd9b206275d
Reciphers for ciphertext: 0
Decipheredtext:           0000000000000000000000000000000000
RESULT CIPHER-DECIPHER: -----OK-----


Test: 49
Symmetric key bit length: 256
IV bit length:            128
Plaintext bit length:     136
Symmetric key:            0000000000000000000000000000000000000000000000000000000000000000
IV:                       31313131313131313131313131313131
Plaintext:                0000000000000000000000000000000000
Ciphertext:               c0046db678ad86b0722b2c4111cc106e8e2706c46f947bd09ac354c6b06cea49c0046db678ad86b0722b2c4111cc106e8e
Reciphers for ciphertext: 0
Decipheredtext:           0000000000000000000000000000000000
RESULT CIPHER-DECIPHER: -----OK-----


Test: 50
Symmetric key bit length: 256
IV bit length:            128
Plaintext bit length:     136
Symmetric key:            0000000000000000000000000000000000000000000000000000000000000000
IV:                       32323232323232323232323232323232
Plaintext:                0000000000000000000000000000000000
Ciphertext:               e67eaac0619647d95024a5a32f7086804f9f75da0250b0384d37c3504250e15ae67eaac0619647d95024a5a32f7086804f
Reciphers for ciphertext: 0
Decipheredtext:           0000000000000000000000000000000000
RESULT CIPHER-DECIPHER: -----OK-----


Test: 51
Symmetric key bit length: 256
IV bit length:            128
Plaintext bit length:     136
Symmetric key:            0000000000000000000000000000000000000000000000000000000000000000
IV:                       33333333333333333333333333333333
Plaintext:                0000000000000000000000000000000000
Ciphertext:               98b8c987893a24231f6bc48fc8f0d7a778f571c0dbc545adc463d59d061ed44098b8c987893a24231f6bc48fc8f0d7a778
Reciphers for ciphertext: 0
Decipheredtext:           0000000000000000000000000000000000
RESULT CIPHER-DECIPHER: -----OK-----


Test: 52
Symmetric key bit length: 256
IV bit length:            128
Plaintext bit length:     136
Symmetric key:            0000000000000000000000000000000000000000000000000000000000000000
IV:                       34343434343434343434343434343434
Plaintext:                0000000000000000000000000000000000
Ciphertext:               634402541374307003ca02441c6ac09a9c78814d142aaa813ca0f4fde3e83995fd82e069180022a8267527a3fe281fbefe
Reciphers for ciphertext: 1
Decipheredtext:           0000000000000000000000000000000000
RESULT CIPHER-DECIPHER: -----OK-----


Test: 53
Symmetric key bit length: 256
IV bit length:            128
Plaintext bit length:     136
Symmetric key:            0000000000000000000000000000000000000000000000000000000000000000
IV:                       35353535353535353535353535353535
Plaintext:                0000000000000000000000000000000000
Ciphertext:               b57d2c5e386a35d81e7a66478491356e3e3bde571a8a3809ac2833ab0042d48eb57d2c5e386a35d81e7a66478491356e3e
Reciphers for ciphertext: 0
Decipheredtext:           0000000000000000000000000000000000
RESULT CIPHER-DECIPHER: -----OK-----


Test: 54
Symmetric key bit length: 256
IV bit length:            128
Plaintext bit length:     136
Symmetric key:            0000000000000000000000000000000000000000000000000000000000000000
IV:                       36363636363636363636363636363636
Plaintext:                0000000000000000000000000000000000
Ciphertext:               dc85f47a79be9229f699815b580020c63bf0ad1e6dab49f49c7380dc691fbc85dc85f47a79be9229f699815b580020c63b
Reciphers for ciphertext: 0
Decipheredtext:           0000000000000000000000000000000000
RESULT CIPHER-DECIPHER: -----OK-----


Test: 55
Symmetric key bit length: 256
IV bit length:            128
Plaintext bit length:     136
Symmetric key:            0000000000000000000000000000000000000000000000000000000000000000
IV:                       37373737373737373737373737373737
Plaintext:                0000000000000000000000000000000000
Ciphertext:               9057c4ca8987a179a08464056aabbe23c4079afad0225b0b2acc7f0a33c8c7c99057c4ca8987a179a08464056aabbe23c4
Reciphers for ciphertext: 0
Decipheredtext:           0000000000000000000000000000000000
RESULT CIPHER-DECIPHER: -----OK-----


Test: 56
Symmetric key bit length: 256
IV bit length:            128
Plaintext bit length:     136
Symmetric key:            0000000000000000000000000000000000000000000000000000000000000000
IV:                       38383838383838383838383838383838
Plaintext:                0000000000000000000000000000000000
Ciphertext:               74a740568b7d8ca134b5daea2d0f8eae2595ee2d7a64529338899b60d01eb23674a740568b7d8ca134b5daea2d0f8eae25
Reciphers for ciphertext: 0
Decipheredtext:           0000000000000000000000000000000000
RESULT CIPHER-DECIPHER: -----OK-----


Test: 57
Symmetric key bit length: 256
IV bit length:            128
Plaintext bit length:     136
Symmetric key:            0000000000000000000000000000000000000000000000000000000000000000
IV:                       39393939393939393939393939393939
Plaintext:                0000000000000000000000000000000000
Ciphertext:               120d1602a46ca0ff673bead35e31e81ec36882e64dde635755643a02ac3247a8120d1602a46ca0ff673bead35e31e81ec3
Reciphers for ciphertext: 0
Decipheredtext:           0000000000000000000000000000000000
RESULT CIPHER-DECIPHER: -----OK-----


Test: 58
Symmetric key bit length: 256
IV bit length:            128
Plaintext bit length:     136
Symmetric key:            0000000000000000000000000000000000000000000000000000000000000000
IV:                       3a3a3a3a3a3a3a3a3a3a3a3a3a3a3a3a
Plaintext:                0000000000000000000000000000000000
Ciphertext:               85570fd7098bd545ff11c5ba4c0b5257b7320f771e85436e1a4e0a96691b50a485570fd7098bd545ff11c5ba4c0b5257b7
Reciphers for ciphertext: 0
Decipheredtext:           0000000000000000000000000000000000
RESULT CIPHER-DECIPHER: -----OK-----


Test: 59
Symmetric key bit length: 256
IV bit length:            128
Plaintext bit length:     136
Symmetric key:            0000000000000000000000000000000000000000000000000000000000000000
IV:                       3b3b3b3b3b3b3b3b3b3b3b3b3b3b3b3b
Plaintext:                0000000000000000000000000000000000
Ciphertext:               107367982ddfd4c7edb4703b81b0b9a086436f0e592ef5670c968abfc27903f3107367982ddfd4c7edb4703b81b0b9a086
Reciphers for ciphertext: 0
Decipheredtext:           0000000000000000000000000000000000
RESULT CIPHER-DECIPHER: -----OK-----


Test: 60
Symmetric key bit length: 256
IV bit length:            128
Plaintext bit length:     136
Symmetric key:            0000000000000000000000000000000000000000000000000000000000000000
IV:                       3c3c3c3c3c3c3c3c3c3c3c3c3c3c3c3c
Plaintext:                0000000000000000000000000000000000
Ciphertext:               e238d1dddfcbff3f4fbee6cb9e219d9b58d06cce4a83b069964f2eb0fd2ffd9243f02f74b6d3804db7bb3c75d6c22b11a8
Reciphers for ciphertext: 1
Decipheredtext:           0000000000000000000000000000000000
RESULT CIPHER-DECIPHER: -----OK-----


Test: 61
Symmetric key bit length: 256
IV bit length:            128
Plaintext bit length:     136
Symmetric key:            0000000000000000000000000000000000000000000000000000000000000000
IV:                       3d3d3d3d3d3d3d3d3d3d3d3d3d3d3d3d
Plaintext:                0000000000000000000000000000000000
Ciphertext:               4451c0eb920d6843d48dd1bfc631252a9a2a2b9423dc3ebd7d7faf1d5f2a946e4451c0eb920d6843d48dd1bfc631252a9a
Reciphers for ciphertext: 0
Decipheredtext:           0000000000000000000000000000000000
RESULT CIPHER-DECIPHER: -----OK-----


Test: 62
Symmetric key bit length: 256
IV bit length:            128
Plaintext bit length:     136
Symmetric key:            0000000000000000000000000000000000000000000000000000000000000000
IV:                       3e3e3e3e3e3e3e3e3e3e3e3e3e3e3e3e
Plaintext:                0000000000000000000000000000000000
Ciphertext:               63f7e67d952a8f875e5b50129439766ef20626a6313e211b7058a680af9c339963f7e67d952a8f875e5b50129439766ef2
Reciphers for ciphertext: 0
Decipheredtext:           0000000000000000000000000000000000
RESULT CIPHER-DECIPHER: -----OK-----


Test: 63
Symmetric key bit length: 256
IV bit length:            128
Plaintext bit length:     136
Symmetric key:            0000000000000000000000000000000000000000000000000000000000000000
IV:                       3f3f3f3f3f3f3f3f3f3f3f3f3f3f3f3f
Plaintext:                0000000000000000000000000000000000
Ciphertext:               141cb50f59e9f3e27d7f631841cd0d60d755ae3572249e5fa7d59db7c86b5bff141cb50f59e9f3e27d7f631841cd0d60d7
Reciphers for ciphertext: 0
Decipheredtext:           0000000000000000000000000000000000
RESULT CIPHER-DECIPHER: -----OK-----


Test: 64
Symmetric key bit length: 256
IV bit length:            128
Plaintext bit length:     136
Symmetric key:            0000000000000000000000000000000000000000000000000000000000000000
IV:                       40404040404040404040404040404040
Plaintext:                0000000000000000000000000000000000
Ciphertext:               ab1c2f08bb9679050638a13553740cf1a9b31bb69ef8ce67c2b3e208dbab9848ab1c2f08bb9679050638a13553740cf1a9
Reciphers for ciphertext: 0
Decipheredtext:           0000000000000000000000000000000000
RESULT CIPHER-DECIPHER: -----OK-----


Test: 65
Symmetric key bit length: 256
IV bit length:            128
Plaintext bit length:     136
Symmetric key:            0000000000000000000000000000000000000000000000000000000000000000
IV:                       41414141414141414141414141414141
Plaintext:                0000000000000000000000000000000000
Ciphertext:               0b7a1e4e58ce21360fedda15e0079b281ce463f0607ff363dd082e35519208e70b7a1e4e58ce21360fedda15e0079b281c
Reciphers for ciphertext: 0
Decipheredtext:           0000000000000000000000000000000000
RESULT CIPHER-DECIPHER: -----OK-----


Test: 66
Symmetric key bit length: 256
IV bit length:            128
Plaintext bit length:     136
Symmetric key:            0000000000000000000000000000000000000000000000000000000000000000
IV:                       42424242424242424242424242424242
Plaintext:                0000000000000000000000000000000000
Ciphertext:               970364b272817252b7b07d4028a67f628a7ff6c8085234c3a4d9cc7815970fde970364b272817252b7b07d4028a67f628a
Reciphers for ciphertext: 0
Decipheredtext:           0000000000000000000000000000000000
RESULT CIPHER-DECIPHER: -----OK-----


Test: 67
Symmetric key bit length: 256
IV bit length:            128
Plaintext bit length:     136
Symmetric key:            0000000000000000000000000000000000000000000000000000000000000000
IV:                       43434343434343434343434343434343
Plaintext:                0000000000000000000000000000000000
Ciphertext:               acb91f191b2d41e29d280534f97644c6e1b40fed92e827adff8aa260b2ebff4facb91f191b2d41e29d280534f97644c6e1
Reciphers for ciphertext: 0
Decipheredtext:           0000000000000000000000000000000000
RESULT CIPHER-DECIPHER: -----OK-----


Test: 68
Symmetric key bit length: 256
IV bit length:            128
Plaintext bit length:     136
Symmetric key:            0000000000000000000000000000000000000000000000000000000000000000
IV:                       44444444444444444444444444444444
Plaintext:                0000000000000000000000000000000000
Ciphertext:               503869cc93d39f06136a421a47011f35084a5b6810d3734f5115dc0fd6a68c41503869cc93d39f06136a421a47011f3508
Reciphers for ciphertext: 0
Decipheredtext:           0000000000000000000000000000000000
RESULT CIPHER-DECIPHER: -----OK-----


Test: 69
Symmetric key bit length: 256
IV bit length:            128
Plaintext bit length:     136
Symmetric key:            0000000000000000000000000000000000000000000000000000000000000000
IV:                       45454545454545454545454545454545
Plaintext:                0000000000000000000000000000000000
Ciphertext:               8b7c53a4e1bdbd0beda783a4ece0838ddf4502fa6a8b6bdd519f24f491f3374f8b7c53a4e1bdbd0beda783a4ece0838ddf
Reciphers for ciphertext: 0
Decipheredtext:           0000000000000000000000000000000000
RESULT CIPHER-DECIPHER: -----OK-----


Test: 70
Symmetric key bit length: 256
IV bit length:            128
Plaintext bit length:     136
Symmetric key:            0000000000000000000000000000000000000000000000000000000000000000
IV:                       46464646464646464646464646464646
Plaintext:                0000000000000000000000000000000000
Ciphertext:               61a176fce279340fe8ec75a8ab83f419e1937df5fb076276d57043e9e6ea92e161a176fce279340fe8ec75a8ab83f419e1
Reciphers for ciphertext: 0
Decipheredtext:           0000000000000000000000000000000000
RESULT CIPHER-DECIPHER: -----OK-----


Test: 71
Symmetric key bit length: 256
IV bit length:            128
Plaintext bit length:     136
Symmetric key:            0000000000000000000000000000000000000000000000000000000000000000
IV:                       47474747474747474747474747474747
Plaintext:                0000000000000000000000000000000000
Ciphertext:               66c98538b79321f94513586977a24dce76ddb66d0f16c2936fd61f18cb31a44466c98538b79321f94513586977a24dce76
Reciphers for ciphertext: 0
Decipheredtext:           0000000000000000000000000000000000
RESULT CIPHER-DECIPHER: -----OK-----


Test: 72
Symmetric key bit length: 256
IV bit length:            128
Plaintext bit length:     136
Symmetric key:            0000000000000000000000000000000000000000000000000000000000000000
IV:                       48484848484848484848484848484848
Plaintext:                0000000000000000000000000000000000
Ciphertext:               bf964304905d25d6234102584796b22991df27026f9fce7a49e1592387e00a38bf964304905d25d6234102584796b22991
Reciphers for ciphertext: 0
Decipheredtext:           0000000000000000000000000000000000
RESULT CIPHER-DECIPHER: -----OK-----


Test: 73
Symmetric key bit length: 256
IV bit length:            128
Plaintext bit length:     136
Symmetric key:            0000000000000000000000000000000000000000000000000000000000000000
IV:                       49494949494949494949494949494949
Plaintext:                0000000000000000000000000000000000
Ciphertext:               a03950abcc50ec519940ce21474587f7d6f701c5ba96bfbef39bb3a0345090bda03950abcc50ec519940ce21474587f7d6
Reciphers for ciphertext: 0
Decipheredtext:           0000000000000000000000000000000000
RESULT CIPHER-DECIPHER: -----OK-----


Test: 74
Symmetric key bit length: 256
IV bit length:            128
Plaintext bit length:     136
Symmetric key:            0000000000000000000000000000000000000000000000000000000000000000
IV:                       4a4a4a4a4a4a4a4a4a4a4a4a4a4a4a4a
Plaintext:                0000000000000000000000000000000000
Ciphertext:               8fdac3efed25303f571e4bcc449588bf0ea5c7a389e67899f0d0c314c5aefa1b8fdac3efed25303f571e4bcc449588bf0e
Reciphers for ciphertext: 0
Decipheredtext:           0000000000000000000000000000000000
RESULT CIPHER-DECIPHER: -----OK-----


Test: 75
Symmetric key bit length: 256
IV bit length:            128
Plaintext bit length:     136
Symmetric key:            0000000000000000000000000000000000000000000000000000000000000000
IV:                       4b4b4b4b4b4b4b4b4b4b4b4b4b4b4b4b
Plaintext:                0000000000000000000000000000000000
Ciphertext:               15e9f1a3dda52dcd3b66f30c12234ed24cec95ac18a9d88c8051e22f88d873f715e9f1a3dda52dcd3b66f30c12234ed24c
Reciphers for ciphertext: 0
Decipheredtext:           0000000000000000000000000000000000
RESULT CIPHER-DECIPHER: -----OK-----


Test: 76
Symmetric key bit length: 256
IV bit length:            128
Plaintext bit length:     136
Symmetric key:            0000000000000000000000000000000000000000000000000000000000000000
IV:                       4c4c4c4c4c4c4c4c4c4c4c4c4c4c4c4c
Plaintext:                0000000000000000000000000000000000
Ciphertext:               c3bfbdb74e4c7e619d86c6c7e3706317aa6fe84e26ef38dd7b0266be224a3b25c3bfbdb74e4c7e619d86c6c7e3706317aa
Reciphers for ciphertext: 0
Decipheredtext:           0000000000000000000000000000000000
RESULT CIPHER-DECIPHER: -----OK-----


Test: 77
Symmetric key bit length: 256
IV bit length:            128
Plaintext bit length:     136
Symmetric key:            0000000000000000000000000000000000000000000000000000000000000000
IV:                       4d4d4d4d4d4d4d4d4d4d4d4d4d4d4d4d
Plaintext:                0000000000000000000000000000000000
Ciphertext:               9b2d8280861bc51c4b6cf333559e51a6d6e79b96ccc9713037f766eec931263c9b2d8280861bc51c4b6cf333559e51a6d6
Reciphers for ciphertext: 0
Decipheredtext:           0000000000000000000000000000000000
RESULT CIPHER-DECIPHER: -----OK-----


Test: 78
Symmetric key bit length: 256
IV bit length:            128
Plaintext bit length:     136
Symmetric key:            0000000000000000000000000000000000000000000000000000000000000000
IV:                       4e4e4e4e4e4e4e4e4e4e4e4e4e4e4e4e
Plaintext:                0000000000000000000000000000000000
Ciphertext:               51d40ee2f33dd6edfa9df944b71a6315e43584a2de6b5c32cc2fbf7c3e3816dd51d40ee2f33dd6edfa9df944b71a6315e4
Reciphers for ciphertext: 0
Decipheredtext:           0000000000000000000000000000000000
RESULT CIPHER-DECIPHER: -----OK-----


Test: 79
Symmetric key bit length: 256
IV bit length:            128
Plaintext bit length:     136
Symmetric key:            0000000000000000000000000000000000000000000000000000000000000000
IV:                       4f4f4f4f4f4f4f4f4f4f4f4f4f4f4f4f
Plaintext:                0000000000000000000000000000000000
Ciphertext:               7006004bf0c2fa6994975626c93cb50c79017f9a36f3fa8d5f7784be8c8180697006004bf0c2fa6994975626c93cb50c79
Reciphers for ciphertext: 0
Decipheredtext:           0000000000000000000000000000000000
RESULT CIPHER-DECIPHER: -----OK-----


Test: 80
Symmetric key bit length: 256
IV bit length:            128
Plaintext bit length:     136
Symmetric key:            0000000000000000000000000000000000000000000000000000000000000000
IV:                       50505050505050505050505050505050
Plaintext:                0000000000000000000000000000000000
Ciphertext:               32db059a13ffe896e2a33a7722f5d48c239d5d7597afb02efd9aae4872c6ed2a32db059a13ffe896e2a33a7722f5d48c23
Reciphers for ciphertext: 0
Decipheredtext:           0000000000000000000000000000000000
RESULT CIPHER-DECIPHER: -----OK-----


Test: 81
Symmetric key bit length: 256
IV bit length:            128
Plaintext bit length:     136
Symmetric key:            0000000000000000000000000000000000000000000000000000000000000000
IV:                       51515151515151515151515151515151
Plaintext:                0000000000000000000000000000000000
Ciphertext:               0cb5325ad5ddbd73944794a30cca4d53686b6a2bed47c68508a98243c0d17ff70cb5325ad5ddbd73944794a30cca4d5368
Reciphers for ciphertext: 0
Decipheredtext:           0000000000000000000000000000000000
RESULT CIPHER-DECIPHER: -----OK-----


Test: 82
Symmetric key bit length: 256
IV bit length:            128
Plaintext bit length:     136
Symmetric key:            0000000000000000000000000000000000000000000000000000000000000000
IV:                       52525252525252525252525252525252
Plaintext:                0000000000000000000000000000000000
Ciphertext:               629c9bf0a62c168dbcb9e5eee34ed2ed4997ec65d1ee6971eb1e40cea18ea4d1629c9bf0a62c168dbcb9e5eee34ed2ed49
Reciphers for ciphertext: 0
Decipheredtext:           0000000000000000000000000000000000
RESULT CIPHER-DECIPHER: -----OK-----


Test: 83
Symmetric key bit length: 256
IV bit length:            128
Plaintext bit length:     136
Symmetric key:            0000000000000000000000000000000000000000000000000000000000000000
IV:                       53535353535353535353535353535353
Plaintext:                0000000000000000000000000000000000
Ciphertext:               d3440490159c9dee76630817b24a919306dac72263a195b1f32fe21696c71d16d3440490159c9dee76630817b24a919306
Reciphers for ciphertext: 0
Decipheredtext:           0000000000000000000000000000000000
RESULT CIPHER-DECIPHER: -----OK-----


Test: 84
Symmetric key bit length: 256
IV bit length:            128
Plaintext bit length:     136
Symmetric key:            0000000000000000000000000000000000000000000000000000000000000000
IV:                       54545454545454545454545454545454
Plaintext:                0000000000000000000000000000000000
Ciphertext:               1b248ad04e8e2397c68338362515bd7a8ab80e68d0df8330d6affa9e287840101b248ad04e8e2397c68338362515bd7a8a
Reciphers for ciphertext: 0
Decipheredtext:           0000000000000000000000000000000000
RESULT CIPHER-DECIPHER: -----OK-----


Test: 85
Symmetric key bit length: 256
IV bit length:            128
Plaintext bit length:     136
Symmetric key:            0000000000000000000000000000000000000000000000000000000000000000
IV:                       55555555555555555555555555555555
Plaintext:                0000000000000000000000000000000000
Ciphertext:               c816313533e00494d908f7e8a1535c3c02c212e40320b217aaf91e538ddd936bc816313533e00494d908f7e8a1535c3c02
Reciphers for ciphertext: 0
Decipheredtext:           0000000000000000000000000000000000
RESULT CIPHER-DECIPHER: -----OK-----


Test: 86
Symmetric key bit length: 256
IV bit length:            128
Plaintext bit length:     136
Symmetric key:            0000000000000000000000000000000000000000000000000000000000000000
IV:                       56565656565656565656565656565656
Plaintext:                0000000000000000000000000000000000
Ciphertext:               4e81826e06b005ab31556ccbe6abe823edca576b89b7ef4c1aff211780d09ea24e81826e06b005ab31556ccbe6abe823ed
Reciphers for ciphertext: 0
Decipheredtext:           0000000000000000000000000000000000
RESULT CIPHER-DECIPHER: -----OK-----


Test: 87
Symmetric key bit length: 256
IV bit length:            128
Plaintext bit length:     136
Symmetric key:            0000000000000000000000000000000000000000000000000000000000000000
IV:                       57575757575757575757575757575757
Plaintext:                0000000000000000000000000000000000
Ciphertext:               4e8d1aefb6298fa46359655ad27f43f31376df3036d0ab9f383d3cc811ee65cd21df7d2b6c080295d9ac0c97d0967a2a56
Reciphers for ciphertext: 2
Decipheredtext:           0000000000000000000000000000000000
RESULT CIPHER-DECIPHER: -----OK-----


Test: 88
Symmetric key bit length: 256
IV bit length:            128
Plaintext bit length:     136
Symmetric key:            0000000000000000000000000000000000000000000000000000000000000000
IV:                       58585858585858585858585858585858
Plaintext:                0000000000000000000000000000000000
Ciphertext:               3c9f5ebf7a48a912b64823048431edc80883993ad9590f6e48645a8bab67b8683c9f5ebf7a48a912b64823048431edc808
Reciphers for ciphertext: 0
Decipheredtext:           0000000000000000000000000000000000
RESULT CIPHER-DECIPHER: -----OK-----


Test: 89
Symmetric key bit length: 256
IV bit length:            128
Plaintext bit length:     136
Symmetric key:            0000000000000000000000000000000000000000000000000000000000000000
IV:                       59595959595959595959595959595959
Plaintext:                0000000000000000000000000000000000
Ciphertext:               31b58dde87465402ad373c66888e284a5ceecafbcff16f5994dddab4c603120331b58dde87465402ad373c66888e284a5c
Reciphers for ciphertext: 0
Decipheredtext:           0000000000000000000000000000000000
RESULT CIPHER-DECIPHER: -----OK-----


Test: 90
Symmetric key bit length: 256
IV bit length:            128
Plaintext bit length:     136
Symmetric key:            0000000000000000000000000000000000000000000000000000000000000000
IV:                       5a5a5a5a5a5a5a5a5a5a5a5a5a5a5a5a
Plaintext:                0000000000000000000000000000000000
Ciphertext:               ff3450ff0c7d8033b087236752e9dca052ac7fbf81da9482ec6ce97c77fa5f7aff3450ff0c7d8033b087236752e9dca052
Reciphers for ciphertext: 0
Decipheredtext:           0000000000000000000000000000000000
RESULT CIPHER-DECIPHER: -----OK-----


Test: 91
Symmetric key bit length: 256
IV bit length:            128
Plaintext bit length:     136
Symmetric key:            0000000000000000000000000000000000000000000000000000000000000000
IV:                       5b5b5b5b5b5b5b5b5b5b5b5b5b5b5b5b
Plaintext:                0000000000000000000000000000000000
Ciphertext:               e5335b72ba2b3df9c2cc9083ed6a1758ad323947a1cec7624926170f0b22256ee5335b72ba2b3df9c2cc9083ed6a1758ad
Reciphers for ciphertext: 0
Decipheredtext:           0000000000000000000000000000000000
RESULT CIPHER-DECIPHER: -----OK-----


Test: 92
Symmetric key bit length: 256
IV bit length:            128
Plaintext bit length:     136
Symmetric key:            0000000000000000000000000000000000000000000000000000000000000000
IV:                       5c5c5c5c5c5c5c5c5c5c5c5c5c5c5c5c
Plaintext:                0000000000000000000000000000000000
Ciphertext:               1b0e9c81c168bce8644b066fa6c162a761b71cd9ad1b959132f3b1f6003890511b0e9c81c168bce8644b066fa6c162a761
Reciphers for ciphertext: 0
Decipheredtext:           0000000000000000000000000000000000
RESULT CIPHER-DECIPHER: -----OK-----


Test: 93
Symmetric key bit length: 256
IV bit length:            128
Plaintext bit length:     136
Symmetric key:            0000000000000000000000000000000000000000000000000000000000000000
IV:                       5d5d5d5d5d5d5d5d5d5d5d5d5d5d5d5d
Plaintext:                0000000000000000000000000000000000
Ciphertext:               b3b8ee770a8af38176a576123db17479a049bef870f6f4fda68b145e67b9a1b4b3b8ee770a8af38176a576123db17479a0
Reciphers for ciphertext: 0
Decipheredtext:           0000000000000000000000000000000000
RESULT CIPHER-DECIPHER: -----OK-----


Test: 94
Symmetric key bit length: 256
IV bit length:            128
Plaintext bit length:     136
Symmetric key:            0000000000000000000000000000000000000000000000000000000000000000
IV:                       5e5e5e5e5e5e5e5e5e5e5e5e5e5e5e5e
Plaintext:                0000000000000000000000000000000000
Ciphertext:               ac4af39a7c87428da0b19531f26deab1e7425679636efdb98b424399cddc41b6ac4af39a7c87428da0b19531f26deab1e7
Reciphers for ciphertext: 0
Decipheredtext:           0000000000000000000000000000000000
RESULT CIPHER-DECIPHER: -----OK-----


Test: 95
Symmetric key bit length: 256
IV bit length:            128
Plaintext bit length:     136
Symmetric key:            0000000000000000000000000000000000000000000000000000000000000000
IV:                       5f5f5f5f5f5f5f5f5f5f5f5f5f5f5f5f
Plaintext:                0000000000000000000000000000000000
Ciphertext:               a7f5da55f3f2ab8d664e318010a83e1f9266ec9fe9a1c582b74a6d8bb589e4aca7f5da55f3f2ab8d664e318010a83e1f92
Reciphers for ciphertext: 0
Decipheredtext:           0000000000000000000000000000000000
RESULT CIPHER-DECIPHER: -----OK-----


Test: 96
Symmetric key bit length: 256
IV bit length:            128
Plaintext bit length:     136
Symmetric key:            0000000000000000000000000000000000000000000000000000000000000000
IV:                       60606060606060606060606060606060
Plaintext:                0000000000000000000000000000000000
Ciphertext:               cab8f97fce9a5f68b19594bc6aba765d60a334b98d1076123d255247f5e7c54acab8f97fce9a5f68b19594bc6aba765d60
Reciphers for ciphertext: 0
Decipheredtext:           0000000000000000000000000000000000
RESULT CIPHER-DECIPHER: -----OK-----


Test: 97
Symmetric key bit length: 256
IV bit length:            128
Plaintext bit length:     136
Symmetric key:            0000000000000000000000000000000000000000000000000000000000000000
IV:                       61616161616161616161616161616161
Plaintext:                0000000000000000000000000000000000
Ciphertext:               d8d60c75a429b9a4ff3abceaabaa414e72bf6338fd7d0d6dd24103528f905bdcd8d60c75a429b9a4ff3abceaabaa414e72
Reciphers for ciphertext: 0
Decipheredtext:           0000000000000000000000000000000000
RESULT CIPHER-DECIPHER: -----OK-----


Test: 98
Symmetric key bit length: 256
IV bit length:            128
Plaintext bit length:     136
Symmetric key:            0000000000000000000000000000000000000000000000000000000000000000
IV:                       62626262626262626262626262626262
Plaintext:                0000000000000000000000000000000000
Ciphertext:               373f9c6dd1827c31d08c4d2fb72f3d6b34f997f812e1b6ad706dfb3cd415a7e3373f9c6dd1827c31d08c4d2fb72f3d6b34
Reciphers for ciphertext: 0
Decipheredtext:           0000000000000000000000000000000000
RESULT CIPHER-DECIPHER: -----OK-----


Test: 99
Symmetric key bit length: 256
IV bit length:            128
Plaintext bit length:     136
Symmetric key:            0000000000000000000000000000000000000000000000000000000000000000
IV:                       63636363636363636363636363636363
Plaintext:                0000000000000000000000000000000000
Ciphertext:               109e5ad743a3e461a041b6086a8dedd58b2164855953137850e7b3f2bf856415109e5ad743a3e461a041b6086a8dedd58b
Reciphers for ciphertext: 0
Decipheredtext:           0000000000000000000000000000000000
RESULT CIPHER-DECIPHER: -----OK-----


Test: 100
Symmetric key bit length: 256
IV bit length:            128
Plaintext bit length:     136
Symmetric key:            0000000000000000000000000000000000000000000000000000000000000000
IV:                       64646464646464646464646464646464
Plaintext:                0000000000000000000000000000000000
Ciphertext:               e9e07663347a17cb1b20d847a7447d6a102e9f710b2fee7f230a128ce70dd018e9e07663347a17cb1b20d847a7447d6a10
Reciphers for ciphertext: 0
Decipheredtext:           0000000000000000000000000000000000
RESULT CIPHER-DECIPHER: -----OK-----


Test: 101
Symmetric key bit length: 256
IV bit length:            128
Plaintext bit length:     136
Symmetric key:            0000000000000000000000000000000000000000000000000000000000000000
IV:                       65656565656565656565656565656565
Plaintext:                0000000000000000000000000000000000
Ciphertext:               1f68e05d2c47882cb5a50049b4531c54c216507d33d1c2e97747bbfd97b3420c1f68e05d2c47882cb5a50049b4531c54c2
Reciphers for ciphertext: 0
Decipheredtext:           0000000000000000000000000000000000
RESULT CIPHER-DECIPHER: -----OK-----


Test: 102
Symmetric key bit length: 256
IV bit length:            128
Plaintext bit length:     136
Symmetric key:            0000000000000000000000000000000000000000000000000000000000000000
IV:                       66666666666666666666666666666666
Plaintext:                0000000000000000000000000000000000
Ciphertext:               96a6a3d90976cb4d892501eed1014de59235b207de3b3da11b3712de580c886396a6a3d90976cb4d892501eed1014de592
Reciphers for ciphertext: 0
Decipheredtext:           0000000000000000000000000000000000
RESULT CIPHER-DECIPHER: -----OK-----


Test: 103
Symmetric key bit length: 256
IV bit length:            128
Plaintext bit length:     136
Symmetric key:            0000000000000000000000000000000000000000000000000000000000000000
IV:                       67676767676767676767676767676767
Plaintext:                0000000000000000000000000000000000
Ciphertext:               512a7d0d3928f5c2426d5953502a9fe2c50a4fd49efa09e74db9938992dfe0c5512a7d0d3928f5c2426d5953502a9fe2c5
Reciphers for ciphertext: 0
Decipheredtext:           0000000000000000000000000000000000
RESULT CIPHER-DECIPHER: -----OK-----


Test: 104
Symmetric key bit length: 256
IV bit length:            128
Plaintext bit length:     136
Symmetric key:            0000000000000000000000000000000000000000000000000000000000000000
IV:                       68686868686868686868686868686868
Plaintext:                0000000000000000000000000000000000
Ciphertext:               f73c9d4c6a0c08b680952749de1a0db41b25580ac3ad04a17edbbbff193d63f4f73c9d4c6a0c08b680952749de1a0db41b
Reciphers for ciphertext: 0
Decipheredtext:           0000000000000000000000000000000000
RESULT CIPHER-DECIPHER: -----OK-----


Test: 105
Symmetric key bit length: 256
IV bit length:            128
Plaintext bit length:     136
Symmetric key:            0000000000000000000000000000000000000000000000000000000000000000
IV:                       69696969696969696969696969696969
Plaintext:                0000000000000000000000000000000000
Ciphertext:               948090f638735b0b55e56f3bb366cc7f72607cdd682651316be6d11427be20a9948090f638735b0b55e56f3bb366cc7f72
Reciphers for ciphertext: 0
Decipheredtext:           0000000000000000000000000000000000
RESULT CIPHER-DECIPHER: -----OK-----


Test: 106
Symmetric key bit length: 256
IV bit length:            128
Plaintext bit length:     136
Symmetric key:            0000000000000000000000000000000000000000000000000000000000000000
IV:                       6a6a6a6a6a6a6a6a6a6a6a6a6a6a6a6a
Plaintext:                0000000000000000000000000000000000
Ciphertext:               bc51294e23d4c8dce4608a3736de81f486b90981cae1bbd03ca3867be1707546bc51294e23d4c8dce4608a3736de81f486
Reciphers for ciphertext: 0
Decipheredtext:           0000000000000000000000000000000000
RESULT CIPHER-DECIPHER: -----OK-----


Test: 107
Symmetric key bit length: 256
IV bit length:            128
Plaintext bit length:     136
Symmetric key:            0000000000000000000000000000000000000000000000000000000000000000
IV:                       6b6b6b6b6b6b6b6b6b6b6b6b6b6b6b6b
Plaintext:                0000000000000000000000000000000000
Ciphertext:               50a80a605e7b0a630c6f83c4a0f9050e90ff00966099715c4963955bfa505e8d50a80a605e7b0a630c6f83c4a0f9050e90
Reciphers for ciphertext: 0
Decipheredtext:           0000000000000000000000000000000000
RESULT CIPHER-DECIPHER: -----OK-----


Test: 108
Symmetric key bit length: 256
IV bit length:            128
Plaintext bit length:     136
Symmetric key:            0000000000000000000000000000000000000000000000000000000000000000
IV:                       6c6c6c6c6c6c6c6c6c6c6c6c6c6c6c6c
Plaintext:                0000000000000000000000000000000000
Ciphertext:               cbf56b125ac58a13878aecc910799d746e95e431f87aebb09bafc10e87d7c615cbf56b125ac58a13878aecc910799d746e
Reciphers for ciphertext: 0
Decipheredtext:           0000000000000000000000000000000000
RESULT CIPHER-DECIPHER: -----OK-----


Test: 109
Symmetric key bit length: 256
IV bit length:            128
Plaintext bit length:     136
Symmetric key:            0000000000000000000000000000000000000000000000000000000000000000
IV:                       6d6d6d6d6d6d6d6d6d6d6d6d6d6d6d6d
Plaintext:                0000000000000000000000000000000000
Ciphertext:               3f0a3f95defadb8514d4eb48079640bb9f0e284e74cc0c4d59e16f6236e2b08c3f0a3f95defadb8514d4eb48079640bb9f
Reciphers for ciphertext: 0
Decipheredtext:           0000000000000000000000000000000000
RESULT CIPHER-DECIPHER: -----OK-----


Test: 110
Symmetric key bit length: 256
IV bit length:            128
Plaintext bit length:     136
Symmetric key:            0000000000000000000000000000000000000000000000000000000000000000
IV:                       6e6e6e6e6e6e6e6e6e6e6e6e6e6e6e6e
Plaintext:                0000000000000000000000000000000000
Ciphertext:               5a271b8f6b68ed6dfcf692e7d2fa40ecefac6876ef68d883eef9b34918a2b0d05a271b8f6b68ed6dfcf692e7d2fa40ecef
Reciphers for ciphertext: 0
Decipheredtext:           0000000000000000000000000000000000
RESULT CIPHER-DECIPHER: -----OK-----


Test: 111
Symmetric key bit length: 256
IV bit length:            128
Plaintext bit length:     136
Symmetric key:            0000000000000000000000000000000000000000000000000000000000000000
IV:                       6f6f6f6f6f6f6f6f6f6f6f6f6f6f6f6f
Plaintext:                0000000000000000000000000000000000
Ciphertext:               a8aa4e3f26c17e2d2bb82b6eb9dd22dbea6ee46dae0ee24e929adcc89a824e05f4723ecb0fce27526e47a585ffcb651f7d
Reciphers for ciphertext: 1
Decipheredtext:           0000000000000000000000000000000000
RESULT CIPHER-DECIPHER: -----OK-----


Test: 112
Symmetric key bit length: 256
IV bit length:            128
Plaintext bit length:     136
Symmetric key:            0000000000000000000000000000000000000000000000000000000000000000
IV:                       70707070707070707070707070707070
Plaintext:                0000000000000000000000000000000000
Ciphertext:               503ad9d2550727645edebee9c566f8a01a8a9055cfed5b523a5afe2a7bf01555503ad9d2550727645edebee9c566f8a01a
Reciphers for ciphertext: 0
Decipheredtext:           0000000000000000000000000000000000
RESULT CIPHER-DECIPHER: -----OK-----


Test: 113
Symmetric key bit length: 256
IV bit length:            128
Plaintext bit length:     136
Symmetric key:            0000000000000000000000000000000000000000000000000000000000000000
IV:                       71717171717171717171717171717171
Plaintext:                0000000000000000000000000000000000
Ciphertext:               93c14cbe0f403b3d3c693d99986097cffdcad4bff69aea912e3ea3d58bb4852993c14cbe0f403b3d3c693d99986097cffd
Reciphers for ciphertext: 0
Decipheredtext:           0000000000000000000000000000000000
RESULT CIPHER-DECIPHER: -----OK-----


Test: 114
Symmetric key bit length: 256
IV bit length:            128
Plaintext bit length:     136
Symmetric key:            0000000000000000000000000000000000000000000000000000000000000000
IV:                       72727272727272727272727272727272
Plaintext:                0000000000000000000000000000000000
Ciphertext:               bd05ba7535fc90978dd2131beb28a0ba4fefeb6b6b2c76dc886eb8c538ec4c1bbd05ba7535fc90978dd2131beb28a0ba4f
Reciphers for ciphertext: 0
Decipheredtext:           0000000000000000000000000000000000
RESULT CIPHER-DECIPHER: -----OK-----


Test: 115
Symmetric key bit length: 256
IV bit length:            128
Plaintext bit length:     136
Symmetric key:            0000000000000000000000000000000000000000000000000000000000000000
IV:                       73737373737373737373737373737373
Plaintext:                0000000000000000000000000000000000
Ciphertext:               f3ed79b37c366bd7bce592064a9ca22bc41056856aad14e28bb1605c13737a4af3ed79b37c366bd7bce592064a9ca22bc4
Reciphers for ciphertext: 0
Decipheredtext:           0000000000000000000000000000000000
RESULT CIPHER-DECIPHER: -----OK-----


Test: 116
Symmetric key bit length: 256
IV bit length:            128
Plaintext bit length:     136
Symmetric key:            0000000000000000000000000000000000000000000000000000000000000000
IV:                       74747474747474747474747474747474
Plaintext:                0000000000000000000000000000000000
Ciphertext:               1619c3915cb7631a17a03b271528da19da1d42fd5603696af7ae2654e67360681619c3915cb7631a17a03b271528da19da
Reciphers for ciphertext: 0
Decipheredtext:           0000000000000000000000000000000000
RESULT CIPHER-DECIPHER: -----OK-----


Test: 117
Symmetric key bit length: 256
IV bit length:            128
Plaintext bit length:     136
Symmetric key:            0000000000000000000000000000000000000000000000000000000000000000
IV:                       75757575757575757575757575757575
Plaintext:                0000000000000000000000000000000000
Ciphertext:               914cc5beb8241c5f98b65b61f18dfb691438c92ee5d2fc446951b915a3eee1cf914cc5beb8241c5f98b65b61f18dfb6914
Reciphers for ciphertext: 0
Decipheredtext:           0000000000000000000000000000000000
RESULT CIPHER-DECIPHER: -----OK-----


Test: 118
Symmetric key bit length: 256
IV bit length:            128
Plaintext bit length:     136
Symmetric key:            0000000000000000000000000000000000000000000000000000000000000000
IV:                       76767676767676767676767676767676
Plaintext:                0000000000000000000000000000000000
Ciphertext:               f4d7661a6f71089785039293f9629978b197cb05829da514129108dae7ae6339f4d7661a6f71089785039293f9629978b1
Reciphers for ciphertext: 0
Decipheredtext:           0000000000000000000000000000000000
RESULT CIPHER-DECIPHER: -----OK-----


Test: 119
Symmetric key bit length: 256
IV bit length:            128
Plaintext bit length:     136
Symmetric key:            0000000000000000000000000000000000000000000000000000000000000000
IV:                       77777777777777777777777777777777
Plaintext:                0000000000000000000000000000000000
Ciphertext:               88db99772fd0c4cd13d3a7e5568d701de3d4950c031572b587510aa14970dfe988db99772fd0c4cd13d3a7e5568d701de3
Reciphers for ciphertext: 0
Decipheredtext:           0000000000000000000000000000000000
RESULT CIPHER-DECIPHER: -----OK-----


Test: 120
Symmetric key bit length: 256
IV bit length:            128
Plaintext bit length:     136
Symmetric key:            0000000000000000000000000000000000000000000000000000000000000000
IV:                       78787878787878787878787878787878
Plaintext:                0000000000000000000000000000000000
Ciphertext:               9f6e24bf31d805fab2f2913ba3e2e931d370b844ce3339d89e5ab5c8ebf737069f6e24bf31d805fab2f2913ba3e2e931d3
Reciphers for ciphertext: 0
Decipheredtext:           0000000000000000000000000000000000
RESULT CIPHER-DECIPHER: -----OK-----


Test: 121
Symmetric key bit length: 256
IV bit length:            128
Plaintext bit length:     136
Symmetric key:            0000000000000000000000000000000000000000000000000000000000000000
IV:                       79797979797979797979797979797979
Plaintext:                0000000000000000000000000000000000
Ciphertext:               a8c7e363fb113bda8a7d36fb864dd9ce503262723b5a299ff4b1e89aedc5fe57a8c7e363fb113bda8a7d36fb864dd9ce50
Reciphers for ciphertext: 0
Decipheredtext:           0000000000000000000000000000000000
RESULT CIPHER-DECIPHER: -----OK-----


Test: 122
Symmetric key bit length: 256
IV bit length:            128
Plaintext bit length:     136
Symmetric key:            0000000000000000000000000000000000000000000000000000000000000000
IV:                       7a7a7a7a7a7a7a7a7a7a7a7a7a7a7a7a
Plaintext:                0000000000000000000000000000000000
Ciphertext:               fedfe853dda2a29cb2bfa99e05e5a92dfa13cc6daa7680c080f8de53754aa345fedfe853dda2a29cb2bfa99e05e5a92dfa
Reciphers for ciphertext: 0
Decipheredtext:           0000000000000000000000000000000000
RESULT CIPHER-DECIPHER: -----OK-----


Test: 123
Symmetric key bit length: 256
IV bit length:            128
Plaintext bit length:     136
Symmetric key:            0000000000000000000000000000000000000000000000000000000000000000
IV:                       7b7b7b7b7b7b7b7b7b7b7b7b7b7b7b7b
Plaintext:                0000000000000000000000000000000000
Ciphertext:               b965a3673a8396a918e9dc16d93beec381bc549c6985933844c3b6f2ee065f4fb965a3673a8396a918e9dc16d93beec381
Reciphers for ciphertext: 0
Decipheredtext:           0000000000000000000000000000000000
RESULT CIPHER-DECIPHER: -----OK-----


Test: 124
Symmetric key bit length: 256
IV bit length:            128
Plaintext bit length:     136
Symmetric key:            0000000000000000000000000000000000000000000000000000000000000000
IV:                       7c7c7c7c7c7c7c7c7c7c7c7c7c7c7c7c
Plaintext:                0000000000000000000000000000000000
Ciphertext:               d13b14c5c71dab20e6e966acb534480cbbf0789fe2693e215c39e18ee5632ad8d13b14c5c71dab20e6e966acb534480cbb
Reciphers for ciphertext: 0
Decipheredtext:           0000000000000000000000000000000000
RESULT CIPHER-DECIPHER: -----OK-----


Test: 125
Symmetric key bit length: 256
IV bit length:            128
Plaintext bit length:     136
Symmetric key:            0000000000000000000000000000000000000000000000000000000000000000
IV:                       7d7d7d7d7d7d7d7d7d7d7d7d7d7d7d7d
Plaintext:                0000000000000000000000000000000000
Ciphertext:               4977ff8f04563ac1cf843fb15027dc0e0a87bbe37b079eaabf9fe61933b263404977ff8f04563ac1cf843fb15027dc0e0a
Reciphers for ciphertext: 0
Decipheredtext:           0000000000000000000000000000000000
RESULT CIPHER-DECIPHER: -----OK-----


Test: 126
Symmetric key bit length: 256
IV bit length:            128
Plaintext bit length:     136
Symmetric key:            0000000000000000000000000000000000000000000000000000000000000000
IV:                       7e7e7e7e7e7e7e7e7e7e7e7e7e7e7e7e
Plaintext:                0000000000000000000000000000000000
Ciphertext:               cda588e68607930fab44c4d2d04825a4872791f9c9c1d2500e2e59166da33563cda588e68607930fab44c4d2d04825a487
Reciphers for ciphertext: 0
Decipheredtext:           0000000000000000000000000000000000
RESULT CIPHER-DECIPHER: -----OK-----


Test: 127
Symmetric key bit length: 256
IV bit length:            128
Plaintext bit length:     136
Symmetric key:            0000000000000000000000000000000000000000000000000000000000000000
IV:                       7f7f7f7f7f7f7f7f7f7f7f7f7f7f7f7f
Plaintext:                0000000000000000000000000000000000
Ciphertext:               3c49986b3271573366ef358eee84f23a1450a35599bc793d6030b3dc70712b623c49986b3271573366ef358eee84f23a14
Reciphers for ciphertext: 0
Decipheredtext:           0000000000000000000000000000000000
RESULT CIPHER-DECIPHER: -----OK-----


 DATA SHA1 (hexadecimal): 2a2930f038374d3ca9449e6bdd69a2f8faa22cbf

