
DiceLock 9.0.0.1

 TEST COMPONENTS:
 ----------------
 DiceLock:           DiceLockIVIndexed class
 Base Stream Cipher: Sosemanuk128 class
 Key Modifier:       IncreaseBase0IndexModifier_6_0_0_1 class
   Index bit length: 128
 Random tests:       RandomTestSuite class
                     FrequencyTest class
                     BlockFrequencyTest class
                     CumulativeSumForwardTest class
                     LongestRunOfOnesTest class
                     RunsTest class
 Random alpha:       0.001

 VECTOR TEST: Test vector 5 - IV all byte value 0xXX


##### INDIVIDUAL TESTS #####

Number tests: 128


Test: 0
Symmetric key bit length: 128
IV bit length:            128
Plaintext bit length:     128
Symmetric key:            00000000000000000000000000000000
IV:                       00000000000000000000000000000000
Plaintext:                00000000000000000000000000000000
Ciphertext:               761c68bc2eb1912a8edc71807c4f291f761c68bc2eb1912a8edc71807c4f291f
Reciphers for ciphertext: 0
Decipheredtext:           00000000000000000000000000000000
RESULT CIPHER-DECIPHER: -----OK-----


Test: 1
Symmetric key bit length: 128
IV bit length:            128
Plaintext bit length:     128
Symmetric key:            00000000000000000000000000000000
IV:                       01010101010101010101010101010101
Plaintext:                00000000000000000000000000000000
Ciphertext:               2b9a6d13aa90948809b4fe7d13aca7292b9a6d13aa90948809b4fe7d13aca729
Reciphers for ciphertext: 0
Decipheredtext:           00000000000000000000000000000000
RESULT CIPHER-DECIPHER: -----OK-----


Test: 2
Symmetric key bit length: 128
IV bit length:            128
Plaintext bit length:     128
Symmetric key:            00000000000000000000000000000000
IV:                       02020202020202020202020202020202
Plaintext:                00000000000000000000000000000000
Ciphertext:               1fbb0f96a107ee8bca41197fb44901d91fbb0f96a107ee8bca41197fb44901d9
Reciphers for ciphertext: 0
Decipheredtext:           00000000000000000000000000000000
RESULT CIPHER-DECIPHER: -----OK-----


Test: 3
Symmetric key bit length: 128
IV bit length:            128
Plaintext bit length:     128
Symmetric key:            00000000000000000000000000000000
IV:                       03030303030303030303030303030303
Plaintext:                00000000000000000000000000000000
Ciphertext:               826fa3bc969bf062a886bfd1601a4d5e9e2460bfb76fbecaf91e7680a62e2855
Reciphers for ciphertext: 1
Decipheredtext:           00000000000000000000000000000000
RESULT CIPHER-DECIPHER: -----OK-----


Test: 4
Symmetric key bit length: 128
IV bit length:            128
Plaintext bit length:     128
Symmetric key:            00000000000000000000000000000000
IV:                       04040404040404040404040404040404
Plaintext:                00000000000000000000000000000000
Ciphertext:               f95170ead618752f422669f03bdfddb4f95170ead618752f422669f03bdfddb4
Reciphers for ciphertext: 0
Decipheredtext:           00000000000000000000000000000000
RESULT CIPHER-DECIPHER: -----OK-----


Test: 5
Symmetric key bit length: 128
IV bit length:            128
Plaintext bit length:     128
Symmetric key:            00000000000000000000000000000000
IV:                       05050505050505050505050505050505
Plaintext:                00000000000000000000000000000000
Ciphertext:               c947476bc0446ceb50878dfe113fca15c947476bc0446ceb50878dfe113fca15
Reciphers for ciphertext: 0
Decipheredtext:           00000000000000000000000000000000
RESULT CIPHER-DECIPHER: -----OK-----


Test: 6
Symmetric key bit length: 128
IV bit length:            128
Plaintext bit length:     128
Symmetric key:            00000000000000000000000000000000
IV:                       06060606060606060606060606060606
Plaintext:                00000000000000000000000000000000
Ciphertext:               9ddd04bd6b47b1a95b47dbb63a28f1209ddd04bd6b47b1a95b47dbb63a28f120
Reciphers for ciphertext: 0
Decipheredtext:           00000000000000000000000000000000
RESULT CIPHER-DECIPHER: -----OK-----


Test: 7
Symmetric key bit length: 128
IV bit length:            128
Plaintext bit length:     128
Symmetric key:            00000000000000000000000000000000
IV:                       07070707070707070707070707070707
Plaintext:                00000000000000000000000000000000
Ciphertext:               2af52fa4c5545da616defcb81c2a24922af52fa4c5545da616defcb81c2a2492
Reciphers for ciphertext: 0
Decipheredtext:           00000000000000000000000000000000
RESULT CIPHER-DECIPHER: -----OK-----


Test: 8
Symmetric key bit length: 128
IV bit length:            128
Plaintext bit length:     128
Symmetric key:            00000000000000000000000000000000
IV:                       08080808080808080808080808080808
Plaintext:                00000000000000000000000000000000
Ciphertext:               7a4a262bd163145939ee9175450ab4747a4a262bd163145939ee9175450ab474
Reciphers for ciphertext: 0
Decipheredtext:           00000000000000000000000000000000
RESULT CIPHER-DECIPHER: -----OK-----


Test: 9
Symmetric key bit length: 128
IV bit length:            128
Plaintext bit length:     128
Symmetric key:            00000000000000000000000000000000
IV:                       09090909090909090909090909090909
Plaintext:                00000000000000000000000000000000
Ciphertext:               338b148646eeda11e171c91a47442a10338b148646eeda11e171c91a47442a10
Reciphers for ciphertext: 0
Decipheredtext:           00000000000000000000000000000000
RESULT CIPHER-DECIPHER: -----OK-----


Test: 10
Symmetric key bit length: 128
IV bit length:            128
Plaintext bit length:     128
Symmetric key:            00000000000000000000000000000000
IV:                       0a0a0a0a0a0a0a0a0a0a0a0a0a0a0a0a
Plaintext:                00000000000000000000000000000000
Ciphertext:               aef10773ff22b789014e1a636f9f5958aef10773ff22b789014e1a636f9f5958
Reciphers for ciphertext: 0
Decipheredtext:           00000000000000000000000000000000
RESULT CIPHER-DECIPHER: -----OK-----


Test: 11
Symmetric key bit length: 128
IV bit length:            128
Plaintext bit length:     128
Symmetric key:            00000000000000000000000000000000
IV:                       0b0b0b0b0b0b0b0b0b0b0b0b0b0b0b0b
Plaintext:                00000000000000000000000000000000
Ciphertext:               420fb534522972e95c025a363d59d367420fb534522972e95c025a363d59d367
Reciphers for ciphertext: 0
Decipheredtext:           00000000000000000000000000000000
RESULT CIPHER-DECIPHER: -----OK-----


Test: 12
Symmetric key bit length: 128
IV bit length:            128
Plaintext bit length:     128
Symmetric key:            00000000000000000000000000000000
IV:                       0c0c0c0c0c0c0c0c0c0c0c0c0c0c0c0c
Plaintext:                00000000000000000000000000000000
Ciphertext:               88929e5c8a2674260acaebf92561092b88929e5c8a2674260acaebf92561092b
Reciphers for ciphertext: 0
Decipheredtext:           00000000000000000000000000000000
RESULT CIPHER-DECIPHER: -----OK-----


Test: 13
Symmetric key bit length: 128
IV bit length:            128
Plaintext bit length:     128
Symmetric key:            00000000000000000000000000000000
IV:                       0d0d0d0d0d0d0d0d0d0d0d0d0d0d0d0d
Plaintext:                00000000000000000000000000000000
Ciphertext:               52b33c3718a408eae9d3450420ca0eb652b33c3718a408eae9d3450420ca0eb6
Reciphers for ciphertext: 0
Decipheredtext:           00000000000000000000000000000000
RESULT CIPHER-DECIPHER: -----OK-----


Test: 14
Symmetric key bit length: 128
IV bit length:            128
Plaintext bit length:     128
Symmetric key:            00000000000000000000000000000000
IV:                       0e0e0e0e0e0e0e0e0e0e0e0e0e0e0e0e
Plaintext:                00000000000000000000000000000000
Ciphertext:               674d57b2d5a8aae0b9456d1e5b798077674d57b2d5a8aae0b9456d1e5b798077
Reciphers for ciphertext: 0
Decipheredtext:           00000000000000000000000000000000
RESULT CIPHER-DECIPHER: -----OK-----


Test: 15
Symmetric key bit length: 128
IV bit length:            128
Plaintext bit length:     128
Symmetric key:            00000000000000000000000000000000
IV:                       0f0f0f0f0f0f0f0f0f0f0f0f0f0f0f0f
Plaintext:                00000000000000000000000000000000
Ciphertext:               849bdb25b31d627329c4ed0d7ad124e0849bdb25b31d627329c4ed0d7ad124e0
Reciphers for ciphertext: 0
Decipheredtext:           00000000000000000000000000000000
RESULT CIPHER-DECIPHER: -----OK-----


Test: 16
Symmetric key bit length: 128
IV bit length:            128
Plaintext bit length:     128
Symmetric key:            00000000000000000000000000000000
IV:                       10101010101010101010101010101010
Plaintext:                00000000000000000000000000000000
Ciphertext:               37678441809af0c86736264846c2c25c37678441809af0c86736264846c2c25c
Reciphers for ciphertext: 0
Decipheredtext:           00000000000000000000000000000000
RESULT CIPHER-DECIPHER: -----OK-----


Test: 17
Symmetric key bit length: 128
IV bit length:            128
Plaintext bit length:     128
Symmetric key:            00000000000000000000000000000000
IV:                       11111111111111111111111111111111
Plaintext:                00000000000000000000000000000000
Ciphertext:               677d8d0e7fd8bce3c3195034e8b170ca677d8d0e7fd8bce3c3195034e8b170ca
Reciphers for ciphertext: 0
Decipheredtext:           00000000000000000000000000000000
RESULT CIPHER-DECIPHER: -----OK-----


Test: 18
Symmetric key bit length: 128
IV bit length:            128
Plaintext bit length:     128
Symmetric key:            00000000000000000000000000000000
IV:                       12121212121212121212121212121212
Plaintext:                00000000000000000000000000000000
Ciphertext:               3fdd638c2c1cc0604d23d8e632c60bd3bc82e6824e4894d1002988dfeb9ce5e5
Reciphers for ciphertext: 1
Decipheredtext:           00000000000000000000000000000000
RESULT CIPHER-DECIPHER: -----OK-----


Test: 19
Symmetric key bit length: 128
IV bit length:            128
Plaintext bit length:     128
Symmetric key:            00000000000000000000000000000000
IV:                       13131313131313131313131313131313
Plaintext:                00000000000000000000000000000000
Ciphertext:               48dac97d28f6bf9cd81f1dd8b6f48dae48dac97d28f6bf9cd81f1dd8b6f48dae
Reciphers for ciphertext: 0
Decipheredtext:           00000000000000000000000000000000
RESULT CIPHER-DECIPHER: -----OK-----


Test: 20
Symmetric key bit length: 128
IV bit length:            128
Plaintext bit length:     128
Symmetric key:            00000000000000000000000000000000
IV:                       14141414141414141414141414141414
Plaintext:                00000000000000000000000000000000
Ciphertext:               2430a9dbef8784c141f88ed934f226392430a9dbef8784c141f88ed934f22639
Reciphers for ciphertext: 0
Decipheredtext:           00000000000000000000000000000000
RESULT CIPHER-DECIPHER: -----OK-----


Test: 21
Symmetric key bit length: 128
IV bit length:            128
Plaintext bit length:     128
Symmetric key:            00000000000000000000000000000000
IV:                       15151515151515151515151515151515
Plaintext:                00000000000000000000000000000000
Ciphertext:               0f5be27887ec3d51b8f3ec5fce7edd58a64d32ea76f36d731d7c48c98c427c35
Reciphers for ciphertext: 1
Decipheredtext:           00000000000000000000000000000000
RESULT CIPHER-DECIPHER: -----OK-----


Test: 22
Symmetric key bit length: 128
IV bit length:            128
Plaintext bit length:     128
Symmetric key:            00000000000000000000000000000000
IV:                       16161616161616161616161616161616
Plaintext:                00000000000000000000000000000000
Ciphertext:               4bcde1c30e05bfefc47b2cae10105b764bcde1c30e05bfefc47b2cae10105b76
Reciphers for ciphertext: 0
Decipheredtext:           00000000000000000000000000000000
RESULT CIPHER-DECIPHER: -----OK-----


Test: 23
Symmetric key bit length: 128
IV bit length:            128
Plaintext bit length:     128
Symmetric key:            00000000000000000000000000000000
IV:                       17171717171717171717171717171717
Plaintext:                00000000000000000000000000000000
Ciphertext:               4ba64ea1e06ab8a73fb893f12480a8524ba64ea1e06ab8a73fb893f12480a852
Reciphers for ciphertext: 0
Decipheredtext:           00000000000000000000000000000000
RESULT CIPHER-DECIPHER: -----OK-----


Test: 24
Symmetric key bit length: 128
IV bit length:            128
Plaintext bit length:     128
Symmetric key:            00000000000000000000000000000000
IV:                       18181818181818181818181818181818
Plaintext:                00000000000000000000000000000000
Ciphertext:               5abf4722c2ef4be1fda9f621da67c8ee5abf4722c2ef4be1fda9f621da67c8ee
Reciphers for ciphertext: 0
Decipheredtext:           00000000000000000000000000000000
RESULT CIPHER-DECIPHER: -----OK-----


Test: 25
Symmetric key bit length: 128
IV bit length:            128
Plaintext bit length:     128
Symmetric key:            00000000000000000000000000000000
IV:                       19191919191919191919191919191919
Plaintext:                00000000000000000000000000000000
Ciphertext:               0fcc796e6a5338789df4dbf9f7024c630fcc796e6a5338789df4dbf9f7024c63
Reciphers for ciphertext: 0
Decipheredtext:           00000000000000000000000000000000
RESULT CIPHER-DECIPHER: -----OK-----


Test: 26
Symmetric key bit length: 128
IV bit length:            128
Plaintext bit length:     128
Symmetric key:            00000000000000000000000000000000
IV:                       1a1a1a1a1a1a1a1a1a1a1a1a1a1a1a1a
Plaintext:                00000000000000000000000000000000
Ciphertext:               af18921b6115aca9f2bc96752bbffdbdaf18921b6115aca9f2bc96752bbffdbd
Reciphers for ciphertext: 0
Decipheredtext:           00000000000000000000000000000000
RESULT CIPHER-DECIPHER: -----OK-----


Test: 27
Symmetric key bit length: 128
IV bit length:            128
Plaintext bit length:     128
Symmetric key:            00000000000000000000000000000000
IV:                       1b1b1b1b1b1b1b1b1b1b1b1b1b1b1b1b
Plaintext:                00000000000000000000000000000000
Ciphertext:               9eabbaafa31cc84b6640b5ea25db07559eabbaafa31cc84b6640b5ea25db0755
Reciphers for ciphertext: 0
Decipheredtext:           00000000000000000000000000000000
RESULT CIPHER-DECIPHER: -----OK-----


Test: 28
Symmetric key bit length: 128
IV bit length:            128
Plaintext bit length:     128
Symmetric key:            00000000000000000000000000000000
IV:                       1c1c1c1c1c1c1c1c1c1c1c1c1c1c1c1c
Plaintext:                00000000000000000000000000000000
Ciphertext:               57823618adef581c74cbee4907dfc4af57823618adef581c74cbee4907dfc4af
Reciphers for ciphertext: 0
Decipheredtext:           00000000000000000000000000000000
RESULT CIPHER-DECIPHER: -----OK-----


Test: 29
Symmetric key bit length: 128
IV bit length:            128
Plaintext bit length:     128
Symmetric key:            00000000000000000000000000000000
IV:                       1d1d1d1d1d1d1d1d1d1d1d1d1d1d1d1d
Plaintext:                00000000000000000000000000000000
Ciphertext:               96ae170a30a6bb35268d134991235b6696ae170a30a6bb35268d134991235b66
Reciphers for ciphertext: 0
Decipheredtext:           00000000000000000000000000000000
RESULT CIPHER-DECIPHER: -----OK-----


Test: 30
Symmetric key bit length: 128
IV bit length:            128
Plaintext bit length:     128
Symmetric key:            00000000000000000000000000000000
IV:                       1e1e1e1e1e1e1e1e1e1e1e1e1e1e1e1e
Plaintext:                00000000000000000000000000000000
Ciphertext:               b9505e04b7faa161bef4757258439c5eb9505e04b7faa161bef4757258439c5e
Reciphers for ciphertext: 0
Decipheredtext:           00000000000000000000000000000000
RESULT CIPHER-DECIPHER: -----OK-----


Test: 31
Symmetric key bit length: 128
IV bit length:            128
Plaintext bit length:     128
Symmetric key:            00000000000000000000000000000000
IV:                       1f1f1f1f1f1f1f1f1f1f1f1f1f1f1f1f
Plaintext:                00000000000000000000000000000000
Ciphertext:               a401f8d86100b09ab52274d6a806770ea401f8d86100b09ab52274d6a806770e
Reciphers for ciphertext: 0
Decipheredtext:           00000000000000000000000000000000
RESULT CIPHER-DECIPHER: -----OK-----


Test: 32
Symmetric key bit length: 128
IV bit length:            128
Plaintext bit length:     128
Symmetric key:            00000000000000000000000000000000
IV:                       20202020202020202020202020202020
Plaintext:                00000000000000000000000000000000
Ciphertext:               5c751abfea81ede5ff3c02403924f9a75c751abfea81ede5ff3c02403924f9a7
Reciphers for ciphertext: 0
Decipheredtext:           00000000000000000000000000000000
RESULT CIPHER-DECIPHER: -----OK-----


Test: 33
Symmetric key bit length: 128
IV bit length:            128
Plaintext bit length:     128
Symmetric key:            00000000000000000000000000000000
IV:                       21212121212121212121212121212121
Plaintext:                00000000000000000000000000000000
Ciphertext:               204ef8c61ccd8cc8c81b67138b192f6d204ef8c61ccd8cc8c81b67138b192f6d
Reciphers for ciphertext: 0
Decipheredtext:           00000000000000000000000000000000
RESULT CIPHER-DECIPHER: -----OK-----


Test: 34
Symmetric key bit length: 128
IV bit length:            128
Plaintext bit length:     128
Symmetric key:            00000000000000000000000000000000
IV:                       22222222222222222222222222222222
Plaintext:                00000000000000000000000000000000
Ciphertext:               029f3e45a594171555cf1ce0f8e3df03029f3e45a594171555cf1ce0f8e3df03
Reciphers for ciphertext: 0
Decipheredtext:           00000000000000000000000000000000
RESULT CIPHER-DECIPHER: -----OK-----


Test: 35
Symmetric key bit length: 128
IV bit length:            128
Plaintext bit length:     128
Symmetric key:            00000000000000000000000000000000
IV:                       23232323232323232323232323232323
Plaintext:                00000000000000000000000000000000
Ciphertext:               786d2a290f3c0ef6679d96f14d802cae786d2a290f3c0ef6679d96f14d802cae
Reciphers for ciphertext: 0
Decipheredtext:           00000000000000000000000000000000
RESULT CIPHER-DECIPHER: -----OK-----


Test: 36
Symmetric key bit length: 128
IV bit length:            128
Plaintext bit length:     128
Symmetric key:            00000000000000000000000000000000
IV:                       24242424242424242424242424242424
Plaintext:                00000000000000000000000000000000
Ciphertext:               9974b1685cec8d89f3c72172a40e2b9c9974b1685cec8d89f3c72172a40e2b9c
Reciphers for ciphertext: 0
Decipheredtext:           00000000000000000000000000000000
RESULT CIPHER-DECIPHER: -----OK-----


Test: 37
Symmetric key bit length: 128
IV bit length:            128
Plaintext bit length:     128
Symmetric key:            00000000000000000000000000000000
IV:                       25252525252525252525252525252525
Plaintext:                00000000000000000000000000000000
Ciphertext:               430ac132871ba9c0b35c81f53d7198cc430ac132871ba9c0b35c81f53d7198cc
Reciphers for ciphertext: 0
Decipheredtext:           00000000000000000000000000000000
RESULT CIPHER-DECIPHER: -----OK-----


Test: 38
Symmetric key bit length: 128
IV bit length:            128
Plaintext bit length:     128
Symmetric key:            00000000000000000000000000000000
IV:                       26262626262626262626262626262626
Plaintext:                00000000000000000000000000000000
Ciphertext:               0c95ce162658f27b37d1c76e6ef068930c95ce162658f27b37d1c76e6ef06893
Reciphers for ciphertext: 0
Decipheredtext:           00000000000000000000000000000000
RESULT CIPHER-DECIPHER: -----OK-----


Test: 39
Symmetric key bit length: 128
IV bit length:            128
Plaintext bit length:     128
Symmetric key:            00000000000000000000000000000000
IV:                       27272727272727272727272727272727
Plaintext:                00000000000000000000000000000000
Ciphertext:               669557d9cd05782cf39e760238ae15a1669557d9cd05782cf39e760238ae15a1
Reciphers for ciphertext: 0
Decipheredtext:           00000000000000000000000000000000
RESULT CIPHER-DECIPHER: -----OK-----


Test: 40
Symmetric key bit length: 128
IV bit length:            128
Plaintext bit length:     128
Symmetric key:            00000000000000000000000000000000
IV:                       28282828282828282828282828282828
Plaintext:                00000000000000000000000000000000
Ciphertext:               43e8e0354602c8b737e87413f308b23f43e8e0354602c8b737e87413f308b23f
Reciphers for ciphertext: 0
Decipheredtext:           00000000000000000000000000000000
RESULT CIPHER-DECIPHER: -----OK-----


Test: 41
Symmetric key bit length: 128
IV bit length:            128
Plaintext bit length:     128
Symmetric key:            00000000000000000000000000000000
IV:                       29292929292929292929292929292929
Plaintext:                00000000000000000000000000000000
Ciphertext:               b9d396fbcf27cc1037343e4b7bbc30bdb9d396fbcf27cc1037343e4b7bbc30bd
Reciphers for ciphertext: 0
Decipheredtext:           00000000000000000000000000000000
RESULT CIPHER-DECIPHER: -----OK-----


Test: 42
Symmetric key bit length: 128
IV bit length:            128
Plaintext bit length:     128
Symmetric key:            00000000000000000000000000000000
IV:                       2a2a2a2a2a2a2a2a2a2a2a2a2a2a2a2a
Plaintext:                00000000000000000000000000000000
Ciphertext:               428d175e8333e922e118d005e27232f0428d175e8333e922e118d005e27232f0
Reciphers for ciphertext: 0
Decipheredtext:           00000000000000000000000000000000
RESULT CIPHER-DECIPHER: -----OK-----


Test: 43
Symmetric key bit length: 128
IV bit length:            128
Plaintext bit length:     128
Symmetric key:            00000000000000000000000000000000
IV:                       2b2b2b2b2b2b2b2b2b2b2b2b2b2b2b2b
Plaintext:                00000000000000000000000000000000
Ciphertext:               5951ec1d1300d9b46048a94000a321e2eade39a5beda4f22ee5c7053d452529a
Reciphers for ciphertext: 1
Decipheredtext:           00000000000000000000000000000000
RESULT CIPHER-DECIPHER: -----OK-----


Test: 44
Symmetric key bit length: 128
IV bit length:            128
Plaintext bit length:     128
Symmetric key:            00000000000000000000000000000000
IV:                       2c2c2c2c2c2c2c2c2c2c2c2c2c2c2c2c
Plaintext:                00000000000000000000000000000000
Ciphertext:               b36dcf236ab808725d3feb3bd857d8d2b36dcf236ab808725d3feb3bd857d8d2
Reciphers for ciphertext: 0
Decipheredtext:           00000000000000000000000000000000
RESULT CIPHER-DECIPHER: -----OK-----


Test: 45
Symmetric key bit length: 128
IV bit length:            128
Plaintext bit length:     128
Symmetric key:            00000000000000000000000000000000
IV:                       2d2d2d2d2d2d2d2d2d2d2d2d2d2d2d2d
Plaintext:                00000000000000000000000000000000
Ciphertext:               f5f509d6147b829836a9dc2165b32f6df5f509d6147b829836a9dc2165b32f6d
Reciphers for ciphertext: 0
Decipheredtext:           00000000000000000000000000000000
RESULT CIPHER-DECIPHER: -----OK-----


Test: 46
Symmetric key bit length: 128
IV bit length:            128
Plaintext bit length:     128
Symmetric key:            00000000000000000000000000000000
IV:                       2e2e2e2e2e2e2e2e2e2e2e2e2e2e2e2e
Plaintext:                00000000000000000000000000000000
Ciphertext:               bd6052fb68bb8c9460e44e68a6e73f7fbd6052fb68bb8c9460e44e68a6e73f7f
Reciphers for ciphertext: 0
Decipheredtext:           00000000000000000000000000000000
RESULT CIPHER-DECIPHER: -----OK-----


Test: 47
Symmetric key bit length: 128
IV bit length:            128
Plaintext bit length:     128
Symmetric key:            00000000000000000000000000000000
IV:                       2f2f2f2f2f2f2f2f2f2f2f2f2f2f2f2f
Plaintext:                00000000000000000000000000000000
Ciphertext:               c312a17988503d9ba01b3ee8a34f3772c312a17988503d9ba01b3ee8a34f3772
Reciphers for ciphertext: 0
Decipheredtext:           00000000000000000000000000000000
RESULT CIPHER-DECIPHER: -----OK-----


Test: 48
Symmetric key bit length: 128
IV bit length:            128
Plaintext bit length:     128
Symmetric key:            00000000000000000000000000000000
IV:                       30303030303030303030303030303030
Plaintext:                00000000000000000000000000000000
Ciphertext:               91fab794da89b182a8ab5fc6e0d9f0f391fab794da89b182a8ab5fc6e0d9f0f3
Reciphers for ciphertext: 0
Decipheredtext:           00000000000000000000000000000000
RESULT CIPHER-DECIPHER: -----OK-----


Test: 49
Symmetric key bit length: 128
IV bit length:            128
Plaintext bit length:     128
Symmetric key:            00000000000000000000000000000000
IV:                       31313131313131313131313131313131
Plaintext:                00000000000000000000000000000000
Ciphertext:               af93070bd049fa948546ab37798cbff1af93070bd049fa948546ab37798cbff1
Reciphers for ciphertext: 0
Decipheredtext:           00000000000000000000000000000000
RESULT CIPHER-DECIPHER: -----OK-----


Test: 50
Symmetric key bit length: 128
IV bit length:            128
Plaintext bit length:     128
Symmetric key:            00000000000000000000000000000000
IV:                       32323232323232323232323232323232
Plaintext:                00000000000000000000000000000000
Ciphertext:               211c996fa204a60cce9f908c40343c34211c996fa204a60cce9f908c40343c34
Reciphers for ciphertext: 0
Decipheredtext:           00000000000000000000000000000000
RESULT CIPHER-DECIPHER: -----OK-----


Test: 51
Symmetric key bit length: 128
IV bit length:            128
Plaintext bit length:     128
Symmetric key:            00000000000000000000000000000000
IV:                       33333333333333333333333333333333
Plaintext:                00000000000000000000000000000000
Ciphertext:               305e77d1ab811fc522b5498ec7115c17305e77d1ab811fc522b5498ec7115c17
Reciphers for ciphertext: 0
Decipheredtext:           00000000000000000000000000000000
RESULT CIPHER-DECIPHER: -----OK-----


Test: 52
Symmetric key bit length: 128
IV bit length:            128
Plaintext bit length:     128
Symmetric key:            00000000000000000000000000000000
IV:                       34343434343434343434343434343434
Plaintext:                00000000000000000000000000000000
Ciphertext:               170b8f2a7efc83164055c9b54e22384f170b8f2a7efc83164055c9b54e22384f
Reciphers for ciphertext: 0
Decipheredtext:           00000000000000000000000000000000
RESULT CIPHER-DECIPHER: -----OK-----


Test: 53
Symmetric key bit length: 128
IV bit length:            128
Plaintext bit length:     128
Symmetric key:            00000000000000000000000000000000
IV:                       35353535353535353535353535353535
Plaintext:                00000000000000000000000000000000
Ciphertext:               9dda57f91209fde55c6fd22d8edccb1b9dda57f91209fde55c6fd22d8edccb1b
Reciphers for ciphertext: 0
Decipheredtext:           00000000000000000000000000000000
RESULT CIPHER-DECIPHER: -----OK-----


Test: 54
Symmetric key bit length: 128
IV bit length:            128
Plaintext bit length:     128
Symmetric key:            00000000000000000000000000000000
IV:                       36363636363636363636363636363636
Plaintext:                00000000000000000000000000000000
Ciphertext:               f3c5eb8ea50f0eb8a9faa28db7d30987f3c5eb8ea50f0eb8a9faa28db7d30987
Reciphers for ciphertext: 0
Decipheredtext:           00000000000000000000000000000000
RESULT CIPHER-DECIPHER: -----OK-----


Test: 55
Symmetric key bit length: 128
IV bit length:            128
Plaintext bit length:     128
Symmetric key:            00000000000000000000000000000000
IV:                       37373737373737373737373737373737
Plaintext:                00000000000000000000000000000000
Ciphertext:               bb5a59553d879516fdb521febcb22537663c30875d498f28bc826cdbf76da036
Reciphers for ciphertext: 1
Decipheredtext:           00000000000000000000000000000000
RESULT CIPHER-DECIPHER: -----OK-----


Test: 56
Symmetric key bit length: 128
IV bit length:            128
Plaintext bit length:     128
Symmetric key:            00000000000000000000000000000000
IV:                       38383838383838383838383838383838
Plaintext:                00000000000000000000000000000000
Ciphertext:               74a04f4f7ad8c7fe9d30e45f445a4d9d74a04f4f7ad8c7fe9d30e45f445a4d9d
Reciphers for ciphertext: 0
Decipheredtext:           00000000000000000000000000000000
RESULT CIPHER-DECIPHER: -----OK-----


Test: 57
Symmetric key bit length: 128
IV bit length:            128
Plaintext bit length:     128
Symmetric key:            00000000000000000000000000000000
IV:                       39393939393939393939393939393939
Plaintext:                00000000000000000000000000000000
Ciphertext:               0b9e805808107e996d852380d04d976c098681896b35c9c81c62eb28a1178850
Reciphers for ciphertext: 1
Decipheredtext:           00000000000000000000000000000000
RESULT CIPHER-DECIPHER: -----OK-----


Test: 58
Symmetric key bit length: 128
IV bit length:            128
Plaintext bit length:     128
Symmetric key:            00000000000000000000000000000000
IV:                       3a3a3a3a3a3a3a3a3a3a3a3a3a3a3a3a
Plaintext:                00000000000000000000000000000000
Ciphertext:               2880898964757487ec62617fc33466952880898964757487ec62617fc3346695
Reciphers for ciphertext: 0
Decipheredtext:           00000000000000000000000000000000
RESULT CIPHER-DECIPHER: -----OK-----


Test: 59
Symmetric key bit length: 128
IV bit length:            128
Plaintext bit length:     128
Symmetric key:            00000000000000000000000000000000
IV:                       3b3b3b3b3b3b3b3b3b3b3b3b3b3b3b3b
Plaintext:                00000000000000000000000000000000
Ciphertext:               16afd2580025671e0f6d8bf24afaf77c16afd2580025671e0f6d8bf24afaf77c
Reciphers for ciphertext: 0
Decipheredtext:           00000000000000000000000000000000
RESULT CIPHER-DECIPHER: -----OK-----


Test: 60
Symmetric key bit length: 128
IV bit length:            128
Plaintext bit length:     128
Symmetric key:            00000000000000000000000000000000
IV:                       3c3c3c3c3c3c3c3c3c3c3c3c3c3c3c3c
Plaintext:                00000000000000000000000000000000
Ciphertext:               c8ab7c7efd81e2d4634616705cea160bc8ab7c7efd81e2d4634616705cea160b
Reciphers for ciphertext: 0
Decipheredtext:           00000000000000000000000000000000
RESULT CIPHER-DECIPHER: -----OK-----


Test: 61
Symmetric key bit length: 128
IV bit length:            128
Plaintext bit length:     128
Symmetric key:            00000000000000000000000000000000
IV:                       3d3d3d3d3d3d3d3d3d3d3d3d3d3d3d3d
Plaintext:                00000000000000000000000000000000
Ciphertext:               7bcd3bf76401d4cfa9e98f1383ecb0357bcd3bf76401d4cfa9e98f1383ecb035
Reciphers for ciphertext: 0
Decipheredtext:           00000000000000000000000000000000
RESULT CIPHER-DECIPHER: -----OK-----


Test: 62
Symmetric key bit length: 128
IV bit length:            128
Plaintext bit length:     128
Symmetric key:            00000000000000000000000000000000
IV:                       3e3e3e3e3e3e3e3e3e3e3e3e3e3e3e3e
Plaintext:                00000000000000000000000000000000
Ciphertext:               03c6ce1025e1da11a54de1fa3914840f03c6ce1025e1da11a54de1fa3914840f
Reciphers for ciphertext: 0
Decipheredtext:           00000000000000000000000000000000
RESULT CIPHER-DECIPHER: -----OK-----


Test: 63
Symmetric key bit length: 128
IV bit length:            128
Plaintext bit length:     128
Symmetric key:            00000000000000000000000000000000
IV:                       3f3f3f3f3f3f3f3f3f3f3f3f3f3f3f3f
Plaintext:                00000000000000000000000000000000
Ciphertext:               cbcfa1026a21264a75b0745aa74b326ccbcfa1026a21264a75b0745aa74b326c
Reciphers for ciphertext: 0
Decipheredtext:           00000000000000000000000000000000
RESULT CIPHER-DECIPHER: -----OK-----


Test: 64
Symmetric key bit length: 128
IV bit length:            128
Plaintext bit length:     128
Symmetric key:            00000000000000000000000000000000
IV:                       40404040404040404040404040404040
Plaintext:                00000000000000000000000000000000
Ciphertext:               68eee1d8483b8d1da9609c8deececd3e68eee1d8483b8d1da9609c8deececd3e
Reciphers for ciphertext: 0
Decipheredtext:           00000000000000000000000000000000
RESULT CIPHER-DECIPHER: -----OK-----


Test: 65
Symmetric key bit length: 128
IV bit length:            128
Plaintext bit length:     128
Symmetric key:            00000000000000000000000000000000
IV:                       41414141414141414141414141414141
Plaintext:                00000000000000000000000000000000
Ciphertext:               2b2fa96f3c3eb2aac6755dcc91d97cf52b2fa96f3c3eb2aac6755dcc91d97cf5
Reciphers for ciphertext: 0
Decipheredtext:           00000000000000000000000000000000
RESULT CIPHER-DECIPHER: -----OK-----


Test: 66
Symmetric key bit length: 128
IV bit length:            128
Plaintext bit length:     128
Symmetric key:            00000000000000000000000000000000
IV:                       42424242424242424242424242424242
Plaintext:                00000000000000000000000000000000
Ciphertext:               6666dbb48a499b25bbe0fc55a4dbd2756666dbb48a499b25bbe0fc55a4dbd275
Reciphers for ciphertext: 0
Decipheredtext:           00000000000000000000000000000000
RESULT CIPHER-DECIPHER: -----OK-----


Test: 67
Symmetric key bit length: 128
IV bit length:            128
Plaintext bit length:     128
Symmetric key:            00000000000000000000000000000000
IV:                       43434343434343434343434343434343
Plaintext:                00000000000000000000000000000000
Ciphertext:               aeefc6accb445705deddd6269ab014d9aeefc6accb445705deddd6269ab014d9
Reciphers for ciphertext: 0
Decipheredtext:           00000000000000000000000000000000
RESULT CIPHER-DECIPHER: -----OK-----


Test: 68
Symmetric key bit length: 128
IV bit length:            128
Plaintext bit length:     128
Symmetric key:            00000000000000000000000000000000
IV:                       44444444444444444444444444444444
Plaintext:                00000000000000000000000000000000
Ciphertext:               7b399722931c9750b195eab9f362654a7b399722931c9750b195eab9f362654a
Reciphers for ciphertext: 0
Decipheredtext:           00000000000000000000000000000000
RESULT CIPHER-DECIPHER: -----OK-----


Test: 69
Symmetric key bit length: 128
IV bit length:            128
Plaintext bit length:     128
Symmetric key:            00000000000000000000000000000000
IV:                       45454545454545454545454545454545
Plaintext:                00000000000000000000000000000000
Ciphertext:               a8caf403522409ba845666a3cb8f7b87a8caf403522409ba845666a3cb8f7b87
Reciphers for ciphertext: 0
Decipheredtext:           00000000000000000000000000000000
RESULT CIPHER-DECIPHER: -----OK-----


Test: 70
Symmetric key bit length: 128
IV bit length:            128
Plaintext bit length:     128
Symmetric key:            00000000000000000000000000000000
IV:                       46464646464646464646464646464646
Plaintext:                00000000000000000000000000000000
Ciphertext:               44f47a806a4f6fa1fe303a4cc906c49444f47a806a4f6fa1fe303a4cc906c494
Reciphers for ciphertext: 0
Decipheredtext:           00000000000000000000000000000000
RESULT CIPHER-DECIPHER: -----OK-----


Test: 71
Symmetric key bit length: 128
IV bit length:            128
Plaintext bit length:     128
Symmetric key:            00000000000000000000000000000000
IV:                       47474747474747474747474747474747
Plaintext:                00000000000000000000000000000000
Ciphertext:               0120e987295ebafccbbe85c3917e4e4e0120e987295ebafccbbe85c3917e4e4e
Reciphers for ciphertext: 0
Decipheredtext:           00000000000000000000000000000000
RESULT CIPHER-DECIPHER: -----OK-----


Test: 72
Symmetric key bit length: 128
IV bit length:            128
Plaintext bit length:     128
Symmetric key:            00000000000000000000000000000000
IV:                       48484848484848484848484848484848
Plaintext:                00000000000000000000000000000000
Ciphertext:               a791b86905c7eb01b0da47b4fb31fdb8a791b86905c7eb01b0da47b4fb31fdb8
Reciphers for ciphertext: 0
Decipheredtext:           00000000000000000000000000000000
RESULT CIPHER-DECIPHER: -----OK-----


Test: 73
Symmetric key bit length: 128
IV bit length:            128
Plaintext bit length:     128
Symmetric key:            00000000000000000000000000000000
IV:                       49494949494949494949494949494949
Plaintext:                00000000000000000000000000000000
Ciphertext:               3ed66232624951729fef9f708b2ea2ad3ed66232624951729fef9f708b2ea2ad
Reciphers for ciphertext: 0
Decipheredtext:           00000000000000000000000000000000
RESULT CIPHER-DECIPHER: -----OK-----


Test: 74
Symmetric key bit length: 128
IV bit length:            128
Plaintext bit length:     128
Symmetric key:            00000000000000000000000000000000
IV:                       4a4a4a4a4a4a4a4a4a4a4a4a4a4a4a4a
Plaintext:                00000000000000000000000000000000
Ciphertext:               ea97e829ef87d36d49695f9a68470fe8ea97e829ef87d36d49695f9a68470fe8
Reciphers for ciphertext: 0
Decipheredtext:           00000000000000000000000000000000
RESULT CIPHER-DECIPHER: -----OK-----


Test: 75
Symmetric key bit length: 128
IV bit length:            128
Plaintext bit length:     128
Symmetric key:            00000000000000000000000000000000
IV:                       4b4b4b4b4b4b4b4b4b4b4b4b4b4b4b4b
Plaintext:                00000000000000000000000000000000
Ciphertext:               24b2caa8a0613455d4ad77e465506a0424b2caa8a0613455d4ad77e465506a04
Reciphers for ciphertext: 0
Decipheredtext:           00000000000000000000000000000000
RESULT CIPHER-DECIPHER: -----OK-----


Test: 76
Symmetric key bit length: 128
IV bit length:            128
Plaintext bit length:     128
Symmetric key:            00000000000000000000000000000000
IV:                       4c4c4c4c4c4c4c4c4c4c4c4c4c4c4c4c
Plaintext:                00000000000000000000000000000000
Ciphertext:               a9045177289111247fd8125f8a8a71535a4a70f005a0b26556ec9d587d07c3d4
Reciphers for ciphertext: 1
Decipheredtext:           00000000000000000000000000000000
RESULT CIPHER-DECIPHER: -----OK-----


Test: 77
Symmetric key bit length: 128
IV bit length:            128
Plaintext bit length:     128
Symmetric key:            00000000000000000000000000000000
IV:                       4d4d4d4d4d4d4d4d4d4d4d4d4d4d4d4d
Plaintext:                00000000000000000000000000000000
Ciphertext:               d47b29628c5fe9a2f2b6efae19ca5844d47b29628c5fe9a2f2b6efae19ca5844
Reciphers for ciphertext: 0
Decipheredtext:           00000000000000000000000000000000
RESULT CIPHER-DECIPHER: -----OK-----


Test: 78
Symmetric key bit length: 128
IV bit length:            128
Plaintext bit length:     128
Symmetric key:            00000000000000000000000000000000
IV:                       4e4e4e4e4e4e4e4e4e4e4e4e4e4e4e4e
Plaintext:                00000000000000000000000000000000
Ciphertext:               ea010c24efc3e3e743aec049f8bf698e9e803d882e2a8913be1d5ac94bc5bf62
Reciphers for ciphertext: 1
Decipheredtext:           00000000000000000000000000000000
RESULT CIPHER-DECIPHER: -----OK-----


Test: 79
Symmetric key bit length: 128
IV bit length:            128
Plaintext bit length:     128
Symmetric key:            00000000000000000000000000000000
IV:                       4f4f4f4f4f4f4f4f4f4f4f4f4f4f4f4f
Plaintext:                00000000000000000000000000000000
Ciphertext:               c88f8a904ddb3fcba868af213e467455c88f8a904ddb3fcba868af213e467455
Reciphers for ciphertext: 0
Decipheredtext:           00000000000000000000000000000000
RESULT CIPHER-DECIPHER: -----OK-----


Test: 80
Symmetric key bit length: 128
IV bit length:            128
Plaintext bit length:     128
Symmetric key:            00000000000000000000000000000000
IV:                       50505050505050505050505050505050
Plaintext:                00000000000000000000000000000000
Ciphertext:               94d83e3a057ac8603409bdfe91ca77bb94d83e3a057ac8603409bdfe91ca77bb
Reciphers for ciphertext: 0
Decipheredtext:           00000000000000000000000000000000
RESULT CIPHER-DECIPHER: -----OK-----


Test: 81
Symmetric key bit length: 128
IV bit length:            128
Plaintext bit length:     128
Symmetric key:            00000000000000000000000000000000
IV:                       51515151515151515151515151515151
Plaintext:                00000000000000000000000000000000
Ciphertext:               cc876bfb121c6f8f62b1e865e0888e55cc876bfb121c6f8f62b1e865e0888e55
Reciphers for ciphertext: 0
Decipheredtext:           00000000000000000000000000000000
RESULT CIPHER-DECIPHER: -----OK-----


Test: 82
Symmetric key bit length: 128
IV bit length:            128
Plaintext bit length:     128
Symmetric key:            00000000000000000000000000000000
IV:                       52525252525252525252525252525252
Plaintext:                00000000000000000000000000000000
Ciphertext:               c67028aa6310226fbb2dd723dac4766cc67028aa6310226fbb2dd723dac4766c
Reciphers for ciphertext: 0
Decipheredtext:           00000000000000000000000000000000
RESULT CIPHER-DECIPHER: -----OK-----


Test: 83
Symmetric key bit length: 128
IV bit length:            128
Plaintext bit length:     128
Symmetric key:            00000000000000000000000000000000
IV:                       53535353535353535353535353535353
Plaintext:                00000000000000000000000000000000
Ciphertext:               a36a5d1d3758b536371fa4ef9a979a9ca36a5d1d3758b536371fa4ef9a979a9c
Reciphers for ciphertext: 0
Decipheredtext:           00000000000000000000000000000000
RESULT CIPHER-DECIPHER: -----OK-----


Test: 84
Symmetric key bit length: 128
IV bit length:            128
Plaintext bit length:     128
Symmetric key:            00000000000000000000000000000000
IV:                       54545454545454545454545454545454
Plaintext:                00000000000000000000000000000000
Ciphertext:               557de2e566efde020be0e82cdaf110b3557de2e566efde020be0e82cdaf110b3
Reciphers for ciphertext: 0
Decipheredtext:           00000000000000000000000000000000
RESULT CIPHER-DECIPHER: -----OK-----


Test: 85
Symmetric key bit length: 128
IV bit length:            128
Plaintext bit length:     128
Symmetric key:            00000000000000000000000000000000
IV:                       55555555555555555555555555555555
Plaintext:                00000000000000000000000000000000
Ciphertext:               2ef53980160484cac8c5b097597da0572ef53980160484cac8c5b097597da057
Reciphers for ciphertext: 0
Decipheredtext:           00000000000000000000000000000000
RESULT CIPHER-DECIPHER: -----OK-----


Test: 86
Symmetric key bit length: 128
IV bit length:            128
Plaintext bit length:     128
Symmetric key:            00000000000000000000000000000000
IV:                       56565656565656565656565656565656
Plaintext:                00000000000000000000000000000000
Ciphertext:               d3de0434c756cf673a99880822bf5c69d3de0434c756cf673a99880822bf5c69
Reciphers for ciphertext: 0
Decipheredtext:           00000000000000000000000000000000
RESULT CIPHER-DECIPHER: -----OK-----


Test: 87
Symmetric key bit length: 128
IV bit length:            128
Plaintext bit length:     128
Symmetric key:            00000000000000000000000000000000
IV:                       57575757575757575757575757575757
Plaintext:                00000000000000000000000000000000
Ciphertext:               1183b369843395718392da9b280b0a8f1183b369843395718392da9b280b0a8f
Reciphers for ciphertext: 0
Decipheredtext:           00000000000000000000000000000000
RESULT CIPHER-DECIPHER: -----OK-----


Test: 88
Symmetric key bit length: 128
IV bit length:            128
Plaintext bit length:     128
Symmetric key:            00000000000000000000000000000000
IV:                       58585858585858585858585858585858
Plaintext:                00000000000000000000000000000000
Ciphertext:               b51c90ea3456bf43f8e01e469f634203b51c90ea3456bf43f8e01e469f634203
Reciphers for ciphertext: 0
Decipheredtext:           00000000000000000000000000000000
RESULT CIPHER-DECIPHER: -----OK-----


Test: 89
Symmetric key bit length: 128
IV bit length:            128
Plaintext bit length:     128
Symmetric key:            00000000000000000000000000000000
IV:                       59595959595959595959595959595959
Plaintext:                00000000000000000000000000000000
Ciphertext:               a65852ef81ad806e6b286af69106cbd6a65852ef81ad806e6b286af69106cbd6
Reciphers for ciphertext: 0
Decipheredtext:           00000000000000000000000000000000
RESULT CIPHER-DECIPHER: -----OK-----


Test: 90
Symmetric key bit length: 128
IV bit length:            128
Plaintext bit length:     128
Symmetric key:            00000000000000000000000000000000
IV:                       5a5a5a5a5a5a5a5a5a5a5a5a5a5a5a5a
Plaintext:                00000000000000000000000000000000
Ciphertext:               3dbf06a48db571f15a0c64326cdaff643dbf06a48db571f15a0c64326cdaff64
Reciphers for ciphertext: 0
Decipheredtext:           00000000000000000000000000000000
RESULT CIPHER-DECIPHER: -----OK-----


Test: 91
Symmetric key bit length: 128
IV bit length:            128
Plaintext bit length:     128
Symmetric key:            00000000000000000000000000000000
IV:                       5b5b5b5b5b5b5b5b5b5b5b5b5b5b5b5b
Plaintext:                00000000000000000000000000000000
Ciphertext:               2cb0b492e03c804c39c1938dc2ac23362cb0b492e03c804c39c1938dc2ac2336
Reciphers for ciphertext: 0
Decipheredtext:           00000000000000000000000000000000
RESULT CIPHER-DECIPHER: -----OK-----


Test: 92
Symmetric key bit length: 128
IV bit length:            128
Plaintext bit length:     128
Symmetric key:            00000000000000000000000000000000
IV:                       5c5c5c5c5c5c5c5c5c5c5c5c5c5c5c5c
Plaintext:                00000000000000000000000000000000
Ciphertext:               0895853bde2ae74dd626ae9e4c8703800895853bde2ae74dd626ae9e4c870380
Reciphers for ciphertext: 0
Decipheredtext:           00000000000000000000000000000000
RESULT CIPHER-DECIPHER: -----OK-----


Test: 93
Symmetric key bit length: 128
IV bit length:            128
Plaintext bit length:     128
Symmetric key:            00000000000000000000000000000000
IV:                       5d5d5d5d5d5d5d5d5d5d5d5d5d5d5d5d
Plaintext:                00000000000000000000000000000000
Ciphertext:               de91aa05e2f45c4dd17493d3ac1cd758de91aa05e2f45c4dd17493d3ac1cd758
Reciphers for ciphertext: 0
Decipheredtext:           00000000000000000000000000000000
RESULT CIPHER-DECIPHER: -----OK-----


Test: 94
Symmetric key bit length: 128
IV bit length:            128
Plaintext bit length:     128
Symmetric key:            00000000000000000000000000000000
IV:                       5e5e5e5e5e5e5e5e5e5e5e5e5e5e5e5e
Plaintext:                00000000000000000000000000000000
Ciphertext:               5d9a25d50e782829d469bcde52f9e1775d9a25d50e782829d469bcde52f9e177
Reciphers for ciphertext: 0
Decipheredtext:           00000000000000000000000000000000
RESULT CIPHER-DECIPHER: -----OK-----


Test: 95
Symmetric key bit length: 128
IV bit length:            128
Plaintext bit length:     128
Symmetric key:            00000000000000000000000000000000
IV:                       5f5f5f5f5f5f5f5f5f5f5f5f5f5f5f5f
Plaintext:                00000000000000000000000000000000
Ciphertext:               8fa7d8bb6f1fec7120c7e4066259d5658fa7d8bb6f1fec7120c7e4066259d565
Reciphers for ciphertext: 0
Decipheredtext:           00000000000000000000000000000000
RESULT CIPHER-DECIPHER: -----OK-----


Test: 96
Symmetric key bit length: 128
IV bit length:            128
Plaintext bit length:     128
Symmetric key:            00000000000000000000000000000000
IV:                       60606060606060606060606060606060
Plaintext:                00000000000000000000000000000000
Ciphertext:               0b3eeeb6b40425870b77a99faa7670870b3eeeb6b40425870b77a99faa767087
Reciphers for ciphertext: 0
Decipheredtext:           00000000000000000000000000000000
RESULT CIPHER-DECIPHER: -----OK-----


Test: 97
Symmetric key bit length: 128
IV bit length:            128
Plaintext bit length:     128
Symmetric key:            00000000000000000000000000000000
IV:                       61616161616161616161616161616161
Plaintext:                00000000000000000000000000000000
Ciphertext:               1c7d54a936d62c73be6e569c2dc961111c7d54a936d62c73be6e569c2dc96111
Reciphers for ciphertext: 0
Decipheredtext:           00000000000000000000000000000000
RESULT CIPHER-DECIPHER: -----OK-----


Test: 98
Symmetric key bit length: 128
IV bit length:            128
Plaintext bit length:     128
Symmetric key:            00000000000000000000000000000000
IV:                       62626262626262626262626262626262
Plaintext:                00000000000000000000000000000000
Ciphertext:               1012b6a4cef55258e0e485d51a8736c21012b6a4cef55258e0e485d51a8736c2
Reciphers for ciphertext: 0
Decipheredtext:           00000000000000000000000000000000
RESULT CIPHER-DECIPHER: -----OK-----


Test: 99
Symmetric key bit length: 128
IV bit length:            128
Plaintext bit length:     128
Symmetric key:            00000000000000000000000000000000
IV:                       63636363636363636363636363636363
Plaintext:                00000000000000000000000000000000
Ciphertext:               54e81fba47049d4024434d1b5a3e683d54e81fba47049d4024434d1b5a3e683d
Reciphers for ciphertext: 0
Decipheredtext:           00000000000000000000000000000000
RESULT CIPHER-DECIPHER: -----OK-----


Test: 100
Symmetric key bit length: 128
IV bit length:            128
Plaintext bit length:     128
Symmetric key:            00000000000000000000000000000000
IV:                       64646464646464646464646464646464
Plaintext:                00000000000000000000000000000000
Ciphertext:               a94c98e0db8511e473dbeb7d40766d31a94c98e0db8511e473dbeb7d40766d31
Reciphers for ciphertext: 0
Decipheredtext:           00000000000000000000000000000000
RESULT CIPHER-DECIPHER: -----OK-----


Test: 101
Symmetric key bit length: 128
IV bit length:            128
Plaintext bit length:     128
Symmetric key:            00000000000000000000000000000000
IV:                       65656565656565656565656565656565
Plaintext:                00000000000000000000000000000000
Ciphertext:               9f04209a403a03b81ec5bad86f8885aa9f04209a403a03b81ec5bad86f8885aa
Reciphers for ciphertext: 0
Decipheredtext:           00000000000000000000000000000000
RESULT CIPHER-DECIPHER: -----OK-----


Test: 102
Symmetric key bit length: 128
IV bit length:            128
Plaintext bit length:     128
Symmetric key:            00000000000000000000000000000000
IV:                       66666666666666666666666666666666
Plaintext:                00000000000000000000000000000000
Ciphertext:               f690961110ba846444d968949190114d95da746365886d6dfa3f3134f2bd38cd
Reciphers for ciphertext: 1
Decipheredtext:           00000000000000000000000000000000
RESULT CIPHER-DECIPHER: -----OK-----


Test: 103
Symmetric key bit length: 128
IV bit length:            128
Plaintext bit length:     128
Symmetric key:            00000000000000000000000000000000
IV:                       67676767676767676767676767676767
Plaintext:                00000000000000000000000000000000
Ciphertext:               88c4d94ef0e84cfa31cf08de6709072288c4d94ef0e84cfa31cf08de67090722
Reciphers for ciphertext: 0
Decipheredtext:           00000000000000000000000000000000
RESULT CIPHER-DECIPHER: -----OK-----


Test: 104
Symmetric key bit length: 128
IV bit length:            128
Plaintext bit length:     128
Symmetric key:            00000000000000000000000000000000
IV:                       68686868686868686868686868686868
Plaintext:                00000000000000000000000000000000
Ciphertext:               51b5310aa29f6aa12461092d068222c42bbeda80e6adab974793cc148aeff208
Reciphers for ciphertext: 1
Decipheredtext:           00000000000000000000000000000000
RESULT CIPHER-DECIPHER: -----OK-----


Test: 105
Symmetric key bit length: 128
IV bit length:            128
Plaintext bit length:     128
Symmetric key:            00000000000000000000000000000000
IV:                       69696969696969696969696969696969
Plaintext:                00000000000000000000000000000000
Ciphertext:               c11fd44345c8bfb5bff9ac034348b9d1c11fd44345c8bfb5bff9ac034348b9d1
Reciphers for ciphertext: 0
Decipheredtext:           00000000000000000000000000000000
RESULT CIPHER-DECIPHER: -----OK-----


Test: 106
Symmetric key bit length: 128
IV bit length:            128
Plaintext bit length:     128
Symmetric key:            00000000000000000000000000000000
IV:                       6a6a6a6a6a6a6a6a6a6a6a6a6a6a6a6a
Plaintext:                00000000000000000000000000000000
Ciphertext:               9166153212114a3b4b2f07d4422876709166153212114a3b4b2f07d442287670
Reciphers for ciphertext: 0
Decipheredtext:           00000000000000000000000000000000
RESULT CIPHER-DECIPHER: -----OK-----


Test: 107
Symmetric key bit length: 128
IV bit length:            128
Plaintext bit length:     128
Symmetric key:            00000000000000000000000000000000
IV:                       6b6b6b6b6b6b6b6b6b6b6b6b6b6b6b6b
Plaintext:                00000000000000000000000000000000
Ciphertext:               def329f74639acf7d365e08b007ab775def329f74639acf7d365e08b007ab775
Reciphers for ciphertext: 0
Decipheredtext:           00000000000000000000000000000000
RESULT CIPHER-DECIPHER: -----OK-----


Test: 108
Symmetric key bit length: 128
IV bit length:            128
Plaintext bit length:     128
Symmetric key:            00000000000000000000000000000000
IV:                       6c6c6c6c6c6c6c6c6c6c6c6c6c6c6c6c
Plaintext:                00000000000000000000000000000000
Ciphertext:               9be400490200e00b6cdd3bde2f5dd2599be400490200e00b6cdd3bde2f5dd259
Reciphers for ciphertext: 0
Decipheredtext:           00000000000000000000000000000000
RESULT CIPHER-DECIPHER: -----OK-----


Test: 109
Symmetric key bit length: 128
IV bit length:            128
Plaintext bit length:     128
Symmetric key:            00000000000000000000000000000000
IV:                       6d6d6d6d6d6d6d6d6d6d6d6d6d6d6d6d
Plaintext:                00000000000000000000000000000000
Ciphertext:               66131c424f76f104e3f404d5550019a266131c424f76f104e3f404d5550019a2
Reciphers for ciphertext: 0
Decipheredtext:           00000000000000000000000000000000
RESULT CIPHER-DECIPHER: -----OK-----


Test: 110
Symmetric key bit length: 128
IV bit length:            128
Plaintext bit length:     128
Symmetric key:            00000000000000000000000000000000
IV:                       6e6e6e6e6e6e6e6e6e6e6e6e6e6e6e6e
Plaintext:                00000000000000000000000000000000
Ciphertext:               da0ff5c27fee993cd6e521541fb2645cda0ff5c27fee993cd6e521541fb2645c
Reciphers for ciphertext: 0
Decipheredtext:           00000000000000000000000000000000
RESULT CIPHER-DECIPHER: -----OK-----


Test: 111
Symmetric key bit length: 128
IV bit length:            128
Plaintext bit length:     128
Symmetric key:            00000000000000000000000000000000
IV:                       6f6f6f6f6f6f6f6f6f6f6f6f6f6f6f6f
Plaintext:                00000000000000000000000000000000
Ciphertext:               adaf29b2a2a1ad0ee987ba96efe20aecadaf29b2a2a1ad0ee987ba96efe20aec
Reciphers for ciphertext: 0
Decipheredtext:           00000000000000000000000000000000
RESULT CIPHER-DECIPHER: -----OK-----


Test: 112
Symmetric key bit length: 128
IV bit length:            128
Plaintext bit length:     128
Symmetric key:            00000000000000000000000000000000
IV:                       70707070707070707070707070707070
Plaintext:                00000000000000000000000000000000
Ciphertext:               3e440a7f7e907b762bd0c7b66cd5be333e440a7f7e907b762bd0c7b66cd5be33
Reciphers for ciphertext: 0
Decipheredtext:           00000000000000000000000000000000
RESULT CIPHER-DECIPHER: -----OK-----


Test: 113
Symmetric key bit length: 128
IV bit length:            128
Plaintext bit length:     128
Symmetric key:            00000000000000000000000000000000
IV:                       71717171717171717171717171717171
Plaintext:                00000000000000000000000000000000
Ciphertext:               f0485c7b602e5343e1b6c828a0d11151f0485c7b602e5343e1b6c828a0d11151
Reciphers for ciphertext: 0
Decipheredtext:           00000000000000000000000000000000
RESULT CIPHER-DECIPHER: -----OK-----


Test: 114
Symmetric key bit length: 128
IV bit length:            128
Plaintext bit length:     128
Symmetric key:            00000000000000000000000000000000
IV:                       72727272727272727272727272727272
Plaintext:                00000000000000000000000000000000
Ciphertext:               4821118c005154a2ee5cd5fa26e1cb344821118c005154a2ee5cd5fa26e1cb34
Reciphers for ciphertext: 0
Decipheredtext:           00000000000000000000000000000000
RESULT CIPHER-DECIPHER: -----OK-----


Test: 115
Symmetric key bit length: 128
IV bit length:            128
Plaintext bit length:     128
Symmetric key:            00000000000000000000000000000000
IV:                       73737373737373737373737373737373
Plaintext:                00000000000000000000000000000000
Ciphertext:               bc12f6ea63350e117d5fc457862544afbc12f6ea63350e117d5fc457862544af
Reciphers for ciphertext: 0
Decipheredtext:           00000000000000000000000000000000
RESULT CIPHER-DECIPHER: -----OK-----


Test: 116
Symmetric key bit length: 128
IV bit length:            128
Plaintext bit length:     128
Symmetric key:            00000000000000000000000000000000
IV:                       74747474747474747474747474747474
Plaintext:                00000000000000000000000000000000
Ciphertext:               2cdf42db27c0f3b9d8aff877ce27f9592cdf42db27c0f3b9d8aff877ce27f959
Reciphers for ciphertext: 0
Decipheredtext:           00000000000000000000000000000000
RESULT CIPHER-DECIPHER: -----OK-----


Test: 117
Symmetric key bit length: 128
IV bit length:            128
Plaintext bit length:     128
Symmetric key:            00000000000000000000000000000000
IV:                       75757575757575757575757575757575
Plaintext:                00000000000000000000000000000000
Ciphertext:               471001bbcc1d6a7f7fb976d3a8ae2bff471001bbcc1d6a7f7fb976d3a8ae2bff
Reciphers for ciphertext: 0
Decipheredtext:           00000000000000000000000000000000
RESULT CIPHER-DECIPHER: -----OK-----


Test: 118
Symmetric key bit length: 128
IV bit length:            128
Plaintext bit length:     128
Symmetric key:            00000000000000000000000000000000
IV:                       76767676767676767676767676767676
Plaintext:                00000000000000000000000000000000
Ciphertext:               af40da4dbd10ff3ef741a65dd2bddb7daf40da4dbd10ff3ef741a65dd2bddb7d
Reciphers for ciphertext: 0
Decipheredtext:           00000000000000000000000000000000
RESULT CIPHER-DECIPHER: -----OK-----


Test: 119
Symmetric key bit length: 128
IV bit length:            128
Plaintext bit length:     128
Symmetric key:            00000000000000000000000000000000
IV:                       77777777777777777777777777777777
Plaintext:                00000000000000000000000000000000
Ciphertext:               a86c1857606791bbe3f97431834d3001a86c1857606791bbe3f97431834d3001
Reciphers for ciphertext: 0
Decipheredtext:           00000000000000000000000000000000
RESULT CIPHER-DECIPHER: -----OK-----


Test: 120
Symmetric key bit length: 128
IV bit length:            128
Plaintext bit length:     128
Symmetric key:            00000000000000000000000000000000
IV:                       78787878787878787878787878787878
Plaintext:                00000000000000000000000000000000
Ciphertext:               b91d4f1b9d386b6fae9a7e50ae1c03b7b91d4f1b9d386b6fae9a7e50ae1c03b7
Reciphers for ciphertext: 0
Decipheredtext:           00000000000000000000000000000000
RESULT CIPHER-DECIPHER: -----OK-----


Test: 121
Symmetric key bit length: 128
IV bit length:            128
Plaintext bit length:     128
Symmetric key:            00000000000000000000000000000000
IV:                       79797979797979797979797979797979
Plaintext:                00000000000000000000000000000000
Ciphertext:               695be02e034e34fce14fce9bc4ea2616695be02e034e34fce14fce9bc4ea2616
Reciphers for ciphertext: 0
Decipheredtext:           00000000000000000000000000000000
RESULT CIPHER-DECIPHER: -----OK-----


Test: 122
Symmetric key bit length: 128
IV bit length:            128
Plaintext bit length:     128
Symmetric key:            00000000000000000000000000000000
IV:                       7a7a7a7a7a7a7a7a7a7a7a7a7a7a7a7a
Plaintext:                00000000000000000000000000000000
Ciphertext:               085fd371ec90880a933ddc09bf281d30085fd371ec90880a933ddc09bf281d30
Reciphers for ciphertext: 0
Decipheredtext:           00000000000000000000000000000000
RESULT CIPHER-DECIPHER: -----OK-----


Test: 123
Symmetric key bit length: 128
IV bit length:            128
Plaintext bit length:     128
Symmetric key:            00000000000000000000000000000000
IV:                       7b7b7b7b7b7b7b7b7b7b7b7b7b7b7b7b
Plaintext:                00000000000000000000000000000000
Ciphertext:               e20a4a6b4a97a8e1481d9815ddcc80ce2b27f94edc858bc194dc64c0afa957e3
Reciphers for ciphertext: 1
Decipheredtext:           00000000000000000000000000000000
RESULT CIPHER-DECIPHER: -----OK-----


Test: 124
Symmetric key bit length: 128
IV bit length:            128
Plaintext bit length:     128
Symmetric key:            00000000000000000000000000000000
IV:                       7c7c7c7c7c7c7c7c7c7c7c7c7c7c7c7c
Plaintext:                00000000000000000000000000000000
Ciphertext:               dbde5709871d1d1a1a9c8fe24d65342fdbde5709871d1d1a1a9c8fe24d65342f
Reciphers for ciphertext: 0
Decipheredtext:           00000000000000000000000000000000
RESULT CIPHER-DECIPHER: -----OK-----


Test: 125
Symmetric key bit length: 128
IV bit length:            128
Plaintext bit length:     128
Symmetric key:            00000000000000000000000000000000
IV:                       7d7d7d7d7d7d7d7d7d7d7d7d7d7d7d7d
Plaintext:                00000000000000000000000000000000
Ciphertext:               0cc05cfdba73a7f8a7994d9b7ac0c5750cc05cfdba73a7f8a7994d9b7ac0c575
Reciphers for ciphertext: 0
Decipheredtext:           00000000000000000000000000000000
RESULT CIPHER-DECIPHER: -----OK-----


Test: 126
Symmetric key bit length: 128
IV bit length:            128
Plaintext bit length:     128
Symmetric key:            00000000000000000000000000000000
IV:                       7e7e7e7e7e7e7e7e7e7e7e7e7e7e7e7e
Plaintext:                00000000000000000000000000000000
Ciphertext:               d2da33182856607e2cbd95bca7dc95d3d2da33182856607e2cbd95bca7dc95d3
Reciphers for ciphertext: 0
Decipheredtext:           00000000000000000000000000000000
RESULT CIPHER-DECIPHER: -----OK-----


Test: 127
Symmetric key bit length: 128
IV bit length:            128
Plaintext bit length:     128
Symmetric key:            00000000000000000000000000000000
IV:                       7f7f7f7f7f7f7f7f7f7f7f7f7f7f7f7f
Plaintext:                00000000000000000000000000000000
Ciphertext:               e41e6322131b1cd0fc16593eda484c45e41e6322131b1cd0fc16593eda484c45
Reciphers for ciphertext: 0
Decipheredtext:           00000000000000000000000000000000
RESULT CIPHER-DECIPHER: -----OK-----


 DATA SHA1 (hexadecimal): e1c9da96252cf494fe54f219508aa77ce77c5662

