
DiceLock 9.0.0.1

 TEST COMPONENTS:
 ----------------
 DiceLock:           DiceLockIVIndexed class
 Base Stream Cipher: Sosemanuk256 class
 Key Modifier:       IncreaseBase0IndexModifier_6_0_0_1 class
   Index bit length: 256
 Random tests:       RandomTestSuite class
                     FrequencyTest class
                     BlockFrequencyTest class
                     CumulativeSumForwardTest class
                     LongestRunOfOnesTest class
                     RunsTest class
 Random alpha:       0.001

 VECTOR TEST: Test vector 5 - IV all byte value 0xXX


##### INDIVIDUAL TESTS #####

Number tests: 128


Test: 0
Symmetric key bit length: 256
IV bit length:            128
Plaintext bit length:     128
Symmetric key:            0000000000000000000000000000000000000000000000000000000000000000
IV:                       00000000000000000000000000000000
Plaintext:                00000000000000000000000000000000
Ciphertext:               494e66132da70c4797448e14af376091352ac66e108621e9e175551f05625f8b494e66132da70c4797448e14af376091
Reciphers for ciphertext: 0
Decipheredtext:           00000000000000000000000000000000
RESULT CIPHER-DECIPHER: -----OK-----


Test: 1
Symmetric key bit length: 256
IV bit length:            128
Plaintext bit length:     128
Symmetric key:            0000000000000000000000000000000000000000000000000000000000000000
IV:                       01010101010101010101010101010101
Plaintext:                00000000000000000000000000000000
Ciphertext:               d6a7749fe4c32b5e5a7bf15eeb7eab63dd25a4267a2158eeb693a60ee875c7ccd6a7749fe4c32b5e5a7bf15eeb7eab63
Reciphers for ciphertext: 0
Decipheredtext:           00000000000000000000000000000000
RESULT CIPHER-DECIPHER: -----OK-----


Test: 2
Symmetric key bit length: 256
IV bit length:            128
Plaintext bit length:     128
Symmetric key:            0000000000000000000000000000000000000000000000000000000000000000
IV:                       02020202020202020202020202020202
Plaintext:                00000000000000000000000000000000
Ciphertext:               c0ffdb8eeedde063b54610f92ae16de89123aa0cffedaec1edc7eaff479093c0c0ffdb8eeedde063b54610f92ae16de8
Reciphers for ciphertext: 0
Decipheredtext:           00000000000000000000000000000000
RESULT CIPHER-DECIPHER: -----OK-----


Test: 3
Symmetric key bit length: 256
IV bit length:            128
Plaintext bit length:     128
Symmetric key:            0000000000000000000000000000000000000000000000000000000000000000
IV:                       03030303030303030303030303030303
Plaintext:                00000000000000000000000000000000
Ciphertext:               069ad71dd41bb5abd17ffe8fc8069d53524d2dd57479ea791d233e88f7724db2069ad71dd41bb5abd17ffe8fc8069d53
Reciphers for ciphertext: 0
Decipheredtext:           00000000000000000000000000000000
RESULT CIPHER-DECIPHER: -----OK-----


Test: 4
Symmetric key bit length: 256
IV bit length:            128
Plaintext bit length:     128
Symmetric key:            0000000000000000000000000000000000000000000000000000000000000000
IV:                       04040404040404040404040404040404
Plaintext:                00000000000000000000000000000000
Ciphertext:               34dd81981e0b64afec0a30604bf812347c80de685ceb87289386e4bf8ff05e8934dd81981e0b64afec0a30604bf81234
Reciphers for ciphertext: 0
Decipheredtext:           00000000000000000000000000000000
RESULT CIPHER-DECIPHER: -----OK-----


Test: 5
Symmetric key bit length: 256
IV bit length:            128
Plaintext bit length:     128
Symmetric key:            0000000000000000000000000000000000000000000000000000000000000000
IV:                       05050505050505050505050505050505
Plaintext:                00000000000000000000000000000000
Ciphertext:               105ac126885fa27c6ba3b0844dd4c42a062b7e4a0eedfb91455364e364f03e4c105ac126885fa27c6ba3b0844dd4c42a
Reciphers for ciphertext: 0
Decipheredtext:           00000000000000000000000000000000
RESULT CIPHER-DECIPHER: -----OK-----


Test: 6
Symmetric key bit length: 256
IV bit length:            128
Plaintext bit length:     128
Symmetric key:            0000000000000000000000000000000000000000000000000000000000000000
IV:                       06060606060606060606060606060606
Plaintext:                00000000000000000000000000000000
Ciphertext:               ea51f9d8a7889d13ee7a34148b4ad292c1560530a48fd07f0509fe22078f0870ea51f9d8a7889d13ee7a34148b4ad292
Reciphers for ciphertext: 0
Decipheredtext:           00000000000000000000000000000000
RESULT CIPHER-DECIPHER: -----OK-----


Test: 7
Symmetric key bit length: 256
IV bit length:            128
Plaintext bit length:     128
Symmetric key:            0000000000000000000000000000000000000000000000000000000000000000
IV:                       07070707070707070707070707070707
Plaintext:                00000000000000000000000000000000
Ciphertext:               b410475b957f6d50eaa2ab058631a3822349c686e9e104669a7736416e5fe3f1b410475b957f6d50eaa2ab058631a382
Reciphers for ciphertext: 0
Decipheredtext:           00000000000000000000000000000000
RESULT CIPHER-DECIPHER: -----OK-----


Test: 8
Symmetric key bit length: 256
IV bit length:            128
Plaintext bit length:     128
Symmetric key:            0000000000000000000000000000000000000000000000000000000000000000
IV:                       08080808080808080808080808080808
Plaintext:                00000000000000000000000000000000
Ciphertext:               02718752cc0c2e67216564b4df9a1d2b9be46fb97dee9a79882d6c79ac51fb3502718752cc0c2e67216564b4df9a1d2b
Reciphers for ciphertext: 0
Decipheredtext:           00000000000000000000000000000000
RESULT CIPHER-DECIPHER: -----OK-----


Test: 9
Symmetric key bit length: 256
IV bit length:            128
Plaintext bit length:     128
Symmetric key:            0000000000000000000000000000000000000000000000000000000000000000
IV:                       09090909090909090909090909090909
Plaintext:                00000000000000000000000000000000
Ciphertext:               de621c6c40932c37d21875644364bd27f769d49a43577dff7a3742289464b242de621c6c40932c37d21875644364bd27
Reciphers for ciphertext: 0
Decipheredtext:           00000000000000000000000000000000
RESULT CIPHER-DECIPHER: -----OK-----


Test: 10
Symmetric key bit length: 256
IV bit length:            128
Plaintext bit length:     128
Symmetric key:            0000000000000000000000000000000000000000000000000000000000000000
IV:                       0a0a0a0a0a0a0a0a0a0a0a0a0a0a0a0a
Plaintext:                00000000000000000000000000000000
Ciphertext:               73fd33cd6d69e00aa17aef1c9686f21f372dc21f724359687d317d4e42881dd973fd33cd6d69e00aa17aef1c9686f21f
Reciphers for ciphertext: 0
Decipheredtext:           00000000000000000000000000000000
RESULT CIPHER-DECIPHER: -----OK-----


Test: 11
Symmetric key bit length: 256
IV bit length:            128
Plaintext bit length:     128
Symmetric key:            0000000000000000000000000000000000000000000000000000000000000000
IV:                       0b0b0b0b0b0b0b0b0b0b0b0b0b0b0b0b
Plaintext:                00000000000000000000000000000000
Ciphertext:               e81838e822b06d49ea30a134147294403626ce0558e5eb67b0439e9780d6594ae81838e822b06d49ea30a13414729440
Reciphers for ciphertext: 0
Decipheredtext:           00000000000000000000000000000000
RESULT CIPHER-DECIPHER: -----OK-----


Test: 12
Symmetric key bit length: 256
IV bit length:            128
Plaintext bit length:     128
Symmetric key:            0000000000000000000000000000000000000000000000000000000000000000
IV:                       0c0c0c0c0c0c0c0c0c0c0c0c0c0c0c0c
Plaintext:                00000000000000000000000000000000
Ciphertext:               d7511276b1fe95df3a89ee892496d93d50e7bec46349e05c035fbc19b507273cd7511276b1fe95df3a89ee892496d93d
Reciphers for ciphertext: 0
Decipheredtext:           00000000000000000000000000000000
RESULT CIPHER-DECIPHER: -----OK-----


Test: 13
Symmetric key bit length: 256
IV bit length:            128
Plaintext bit length:     128
Symmetric key:            0000000000000000000000000000000000000000000000000000000000000000
IV:                       0d0d0d0d0d0d0d0d0d0d0d0d0d0d0d0d
Plaintext:                00000000000000000000000000000000
Ciphertext:               60ecf04aa87ae0be1ae083677de15dd1b16a4cf5cbf01328fa3cd36f46f64abd60ecf04aa87ae0be1ae083677de15dd1
Reciphers for ciphertext: 0
Decipheredtext:           00000000000000000000000000000000
RESULT CIPHER-DECIPHER: -----OK-----


Test: 14
Symmetric key bit length: 256
IV bit length:            128
Plaintext bit length:     128
Symmetric key:            0000000000000000000000000000000000000000000000000000000000000000
IV:                       0e0e0e0e0e0e0e0e0e0e0e0e0e0e0e0e
Plaintext:                00000000000000000000000000000000
Ciphertext:               490c6759bbe68327533b6601f80350f238021ec2f3e0f095f699027ef431396b490c6759bbe68327533b6601f80350f2
Reciphers for ciphertext: 0
Decipheredtext:           00000000000000000000000000000000
RESULT CIPHER-DECIPHER: -----OK-----


Test: 15
Symmetric key bit length: 256
IV bit length:            128
Plaintext bit length:     128
Symmetric key:            0000000000000000000000000000000000000000000000000000000000000000
IV:                       0f0f0f0f0f0f0f0f0f0f0f0f0f0f0f0f
Plaintext:                00000000000000000000000000000000
Ciphertext:               cef4bb9f535d93e91cadcf7e636176b9b646ffccc8efaa87bd7f04ffbc330087042dc5f21a87459d7a85abf52ceb2ca2
Reciphers for ciphertext: 1
Decipheredtext:           00000000000000000000000000000000
RESULT CIPHER-DECIPHER: -----OK-----


Test: 16
Symmetric key bit length: 256
IV bit length:            128
Plaintext bit length:     128
Symmetric key:            0000000000000000000000000000000000000000000000000000000000000000
IV:                       10101010101010101010101010101010
Plaintext:                00000000000000000000000000000000
Ciphertext:               d5f79c312e6af21288bd8b2c35775582829fe10fadd19a9aa6219dcbe5db9c74d5f79c312e6af21288bd8b2c35775582
Reciphers for ciphertext: 0
Decipheredtext:           00000000000000000000000000000000
RESULT CIPHER-DECIPHER: -----OK-----


Test: 17
Symmetric key bit length: 256
IV bit length:            128
Plaintext bit length:     128
Symmetric key:            0000000000000000000000000000000000000000000000000000000000000000
IV:                       11111111111111111111111111111111
Plaintext:                00000000000000000000000000000000
Ciphertext:               7d04ee7986b84ce3d3cd9d114a1ef05099e993c880ec6f084a4a4696b23ef0f87d04ee7986b84ce3d3cd9d114a1ef050
Reciphers for ciphertext: 0
Decipheredtext:           00000000000000000000000000000000
RESULT CIPHER-DECIPHER: -----OK-----


Test: 18
Symmetric key bit length: 256
IV bit length:            128
Plaintext bit length:     128
Symmetric key:            0000000000000000000000000000000000000000000000000000000000000000
IV:                       12121212121212121212121212121212
Plaintext:                00000000000000000000000000000000
Ciphertext:               d32945cc27088b672eb22c9c8a1496c219764275ff391fb1943a68986f509f06d32945cc27088b672eb22c9c8a1496c2
Reciphers for ciphertext: 0
Decipheredtext:           00000000000000000000000000000000
RESULT CIPHER-DECIPHER: -----OK-----


Test: 19
Symmetric key bit length: 256
IV bit length:            128
Plaintext bit length:     128
Symmetric key:            0000000000000000000000000000000000000000000000000000000000000000
IV:                       13131313131313131313131313131313
Plaintext:                00000000000000000000000000000000
Ciphertext:               11931a1c57576feacf07904fb0bf961318c11737648c64990654866c1605b90811931a1c57576feacf07904fb0bf9613
Reciphers for ciphertext: 0
Decipheredtext:           00000000000000000000000000000000
RESULT CIPHER-DECIPHER: -----OK-----


Test: 20
Symmetric key bit length: 256
IV bit length:            128
Plaintext bit length:     128
Symmetric key:            0000000000000000000000000000000000000000000000000000000000000000
IV:                       14141414141414141414141414141414
Plaintext:                00000000000000000000000000000000
Ciphertext:               6a689ed1f37999c81d889949373b408313e2af075e5dd99be2061c9770a622126a689ed1f37999c81d889949373b4083
Reciphers for ciphertext: 0
Decipheredtext:           00000000000000000000000000000000
RESULT CIPHER-DECIPHER: -----OK-----


Test: 21
Symmetric key bit length: 256
IV bit length:            128
Plaintext bit length:     128
Symmetric key:            0000000000000000000000000000000000000000000000000000000000000000
IV:                       15151515151515151515151515151515
Plaintext:                00000000000000000000000000000000
Ciphertext:               2e95f3ed9e798dac5f5c200cd794337f1d3564c0f13927f356fb7fadc2ec703c2e95f3ed9e798dac5f5c200cd794337f
Reciphers for ciphertext: 0
Decipheredtext:           00000000000000000000000000000000
RESULT CIPHER-DECIPHER: -----OK-----


Test: 22
Symmetric key bit length: 256
IV bit length:            128
Plaintext bit length:     128
Symmetric key:            0000000000000000000000000000000000000000000000000000000000000000
IV:                       16161616161616161616161616161616
Plaintext:                00000000000000000000000000000000
Ciphertext:               91007960639ec78eea14260ee1dd8bdff9b97fc2a4bb482d3509dc15d54d83fb91007960639ec78eea14260ee1dd8bdf
Reciphers for ciphertext: 0
Decipheredtext:           00000000000000000000000000000000
RESULT CIPHER-DECIPHER: -----OK-----


Test: 23
Symmetric key bit length: 256
IV bit length:            128
Plaintext bit length:     128
Symmetric key:            0000000000000000000000000000000000000000000000000000000000000000
IV:                       17171717171717171717171717171717
Plaintext:                00000000000000000000000000000000
Ciphertext:               aa31dbb7714e9185d70b3ece01c6532ce78adf0f059656c9e61648ab6053ab48aa31dbb7714e9185d70b3ece01c6532c
Reciphers for ciphertext: 0
Decipheredtext:           00000000000000000000000000000000
RESULT CIPHER-DECIPHER: -----OK-----


Test: 24
Symmetric key bit length: 256
IV bit length:            128
Plaintext bit length:     128
Symmetric key:            0000000000000000000000000000000000000000000000000000000000000000
IV:                       18181818181818181818181818181818
Plaintext:                00000000000000000000000000000000
Ciphertext:               0d0ac7fc528ed410e44376e4bb00ff2f0b96cec8e98366c5142b7c1885aa88c90d0ac7fc528ed410e44376e4bb00ff2f
Reciphers for ciphertext: 0
Decipheredtext:           00000000000000000000000000000000
RESULT CIPHER-DECIPHER: -----OK-----


Test: 25
Symmetric key bit length: 256
IV bit length:            128
Plaintext bit length:     128
Symmetric key:            0000000000000000000000000000000000000000000000000000000000000000
IV:                       19191919191919191919191919191919
Plaintext:                00000000000000000000000000000000
Ciphertext:               6d4605c29bbcc5f00abe1c4ed7ed72d0306f6d00df39d209b96b47ae1576b20d6d4605c29bbcc5f00abe1c4ed7ed72d0
Reciphers for ciphertext: 0
Decipheredtext:           00000000000000000000000000000000
RESULT CIPHER-DECIPHER: -----OK-----


Test: 26
Symmetric key bit length: 256
IV bit length:            128
Plaintext bit length:     128
Symmetric key:            0000000000000000000000000000000000000000000000000000000000000000
IV:                       1a1a1a1a1a1a1a1a1a1a1a1a1a1a1a1a
Plaintext:                00000000000000000000000000000000
Ciphertext:               6e1bcbd92a40ed561dae0dfd2fdbb6d2b89d628181e6ce3570cdbdf3db35d21a6e1bcbd92a40ed561dae0dfd2fdbb6d2
Reciphers for ciphertext: 0
Decipheredtext:           00000000000000000000000000000000
RESULT CIPHER-DECIPHER: -----OK-----


Test: 27
Symmetric key bit length: 256
IV bit length:            128
Plaintext bit length:     128
Symmetric key:            0000000000000000000000000000000000000000000000000000000000000000
IV:                       1b1b1b1b1b1b1b1b1b1b1b1b1b1b1b1b
Plaintext:                00000000000000000000000000000000
Ciphertext:               04a25729ea9c98c68bbd10c73be66b07627b12fd88f3a1868095a2f1f653168304a25729ea9c98c68bbd10c73be66b07
Reciphers for ciphertext: 0
Decipheredtext:           00000000000000000000000000000000
RESULT CIPHER-DECIPHER: -----OK-----


Test: 28
Symmetric key bit length: 256
IV bit length:            128
Plaintext bit length:     128
Symmetric key:            0000000000000000000000000000000000000000000000000000000000000000
IV:                       1c1c1c1c1c1c1c1c1c1c1c1c1c1c1c1c
Plaintext:                00000000000000000000000000000000
Ciphertext:               75f6b44c0fc3b2723048bc17cdc700389a35b75d6ffc454ec7c3de1522419da875f6b44c0fc3b2723048bc17cdc70038
Reciphers for ciphertext: 0
Decipheredtext:           00000000000000000000000000000000
RESULT CIPHER-DECIPHER: -----OK-----


Test: 29
Symmetric key bit length: 256
IV bit length:            128
Plaintext bit length:     128
Symmetric key:            0000000000000000000000000000000000000000000000000000000000000000
IV:                       1d1d1d1d1d1d1d1d1d1d1d1d1d1d1d1d
Plaintext:                00000000000000000000000000000000
Ciphertext:               4bcee3c24366ee5f2fb1753da48504bcf5999cffd3fa9b369194fbbd709e02094bcee3c24366ee5f2fb1753da48504bc
Reciphers for ciphertext: 0
Decipheredtext:           00000000000000000000000000000000
RESULT CIPHER-DECIPHER: -----OK-----


Test: 30
Symmetric key bit length: 256
IV bit length:            128
Plaintext bit length:     128
Symmetric key:            0000000000000000000000000000000000000000000000000000000000000000
IV:                       1e1e1e1e1e1e1e1e1e1e1e1e1e1e1e1e
Plaintext:                00000000000000000000000000000000
Ciphertext:               caea76c9c77690fb36e197ce0a0118ea920227a9456f82219c3ce6585f7dc724caea76c9c77690fb36e197ce0a0118ea
Reciphers for ciphertext: 0
Decipheredtext:           00000000000000000000000000000000
RESULT CIPHER-DECIPHER: -----OK-----


Test: 31
Symmetric key bit length: 256
IV bit length:            128
Plaintext bit length:     128
Symmetric key:            0000000000000000000000000000000000000000000000000000000000000000
IV:                       1f1f1f1f1f1f1f1f1f1f1f1f1f1f1f1f
Plaintext:                00000000000000000000000000000000
Ciphertext:               f357569c10421da34019b8822a2e86f2c46060f33a9132aec00b06f39c6085043d5be5890e6fe06e88d513b71fc8e4a7
Reciphers for ciphertext: 1
Decipheredtext:           00000000000000000000000000000000
RESULT CIPHER-DECIPHER: -----OK-----


Test: 32
Symmetric key bit length: 256
IV bit length:            128
Plaintext bit length:     128
Symmetric key:            0000000000000000000000000000000000000000000000000000000000000000
IV:                       20202020202020202020202020202020
Plaintext:                00000000000000000000000000000000
Ciphertext:               2921af1cb67c8de095d35baac65e2fbee1257327a18a04e57381df08cfa1c45a2921af1cb67c8de095d35baac65e2fbe
Reciphers for ciphertext: 0
Decipheredtext:           00000000000000000000000000000000
RESULT CIPHER-DECIPHER: -----OK-----


Test: 33
Symmetric key bit length: 256
IV bit length:            128
Plaintext bit length:     128
Symmetric key:            0000000000000000000000000000000000000000000000000000000000000000
IV:                       21212121212121212121212121212121
Plaintext:                00000000000000000000000000000000
Ciphertext:               52c218628c5c0530fe14475aa97ad97e22e4e3aad12af4539f3278fc26e1f2a152c218628c5c0530fe14475aa97ad97e
Reciphers for ciphertext: 0
Decipheredtext:           00000000000000000000000000000000
RESULT CIPHER-DECIPHER: -----OK-----


Test: 34
Symmetric key bit length: 256
IV bit length:            128
Plaintext bit length:     128
Symmetric key:            0000000000000000000000000000000000000000000000000000000000000000
IV:                       22222222222222222222222222222222
Plaintext:                00000000000000000000000000000000
Ciphertext:               5bae6f8eb8ebfe327d85f6444db4b7f9f1fc823f8006d552873fabb912717b1d5bae6f8eb8ebfe327d85f6444db4b7f9
Reciphers for ciphertext: 0
Decipheredtext:           00000000000000000000000000000000
RESULT CIPHER-DECIPHER: -----OK-----


Test: 35
Symmetric key bit length: 256
IV bit length:            128
Plaintext bit length:     128
Symmetric key:            0000000000000000000000000000000000000000000000000000000000000000
IV:                       23232323232323232323232323232323
Plaintext:                00000000000000000000000000000000
Ciphertext:               bd152d34ba0f9475e2adb5fed1af115b2ae205cfab5b9cc37af77dc403005d3dbd152d34ba0f9475e2adb5fed1af115b
Reciphers for ciphertext: 0
Decipheredtext:           00000000000000000000000000000000
RESULT CIPHER-DECIPHER: -----OK-----


Test: 36
Symmetric key bit length: 256
IV bit length:            128
Plaintext bit length:     128
Symmetric key:            0000000000000000000000000000000000000000000000000000000000000000
IV:                       24242424242424242424242424242424
Plaintext:                00000000000000000000000000000000
Ciphertext:               07ac1e26452bab0bccd5d6d25d2139530a4853f6ee96d309a31cc9a73cc16d7707ac1e26452bab0bccd5d6d25d213953
Reciphers for ciphertext: 0
Decipheredtext:           00000000000000000000000000000000
RESULT CIPHER-DECIPHER: -----OK-----


Test: 37
Symmetric key bit length: 256
IV bit length:            128
Plaintext bit length:     128
Symmetric key:            0000000000000000000000000000000000000000000000000000000000000000
IV:                       25252525252525252525252525252525
Plaintext:                00000000000000000000000000000000
Ciphertext:               25e46ffa7e6986bd074129f39aea38afa558da02aef970cc7d475d110924b58825e46ffa7e6986bd074129f39aea38af
Reciphers for ciphertext: 0
Decipheredtext:           00000000000000000000000000000000
RESULT CIPHER-DECIPHER: -----OK-----


Test: 38
Symmetric key bit length: 256
IV bit length:            128
Plaintext bit length:     128
Symmetric key:            0000000000000000000000000000000000000000000000000000000000000000
IV:                       26262626262626262626262626262626
Plaintext:                00000000000000000000000000000000
Ciphertext:               7857aabce83cc5c7a60ed69f06548ddc7c715a88f1a395ab72d244ffd8d8ee9c7857aabce83cc5c7a60ed69f06548ddc
Reciphers for ciphertext: 0
Decipheredtext:           00000000000000000000000000000000
RESULT CIPHER-DECIPHER: -----OK-----


Test: 39
Symmetric key bit length: 256
IV bit length:            128
Plaintext bit length:     128
Symmetric key:            0000000000000000000000000000000000000000000000000000000000000000
IV:                       27272727272727272727272727272727
Plaintext:                00000000000000000000000000000000
Ciphertext:               bda15f5e3f91cb3eb56c0ba04bbe8b06a330d1d3a76260e16f007a768823ebf1bda15f5e3f91cb3eb56c0ba04bbe8b06
Reciphers for ciphertext: 0
Decipheredtext:           00000000000000000000000000000000
RESULT CIPHER-DECIPHER: -----OK-----


Test: 40
Symmetric key bit length: 256
IV bit length:            128
Plaintext bit length:     128
Symmetric key:            0000000000000000000000000000000000000000000000000000000000000000
IV:                       28282828282828282828282828282828
Plaintext:                00000000000000000000000000000000
Ciphertext:               ff3e132c3bd198d5fc67efaea6d407ed908fc9a681ea14d1dd7a6705941d3b8bff3e132c3bd198d5fc67efaea6d407ed
Reciphers for ciphertext: 0
Decipheredtext:           00000000000000000000000000000000
RESULT CIPHER-DECIPHER: -----OK-----


Test: 41
Symmetric key bit length: 256
IV bit length:            128
Plaintext bit length:     128
Symmetric key:            0000000000000000000000000000000000000000000000000000000000000000
IV:                       29292929292929292929292929292929
Plaintext:                00000000000000000000000000000000
Ciphertext:               c3fb701ded34697d4998b8c1926749139451fd6978019bec784025af6495528bc3fb701ded34697d4998b8c192674913
Reciphers for ciphertext: 0
Decipheredtext:           00000000000000000000000000000000
RESULT CIPHER-DECIPHER: -----OK-----


Test: 42
Symmetric key bit length: 256
IV bit length:            128
Plaintext bit length:     128
Symmetric key:            0000000000000000000000000000000000000000000000000000000000000000
IV:                       2a2a2a2a2a2a2a2a2a2a2a2a2a2a2a2a
Plaintext:                00000000000000000000000000000000
Ciphertext:               56cba7af6db613221512c15b3b520c6610634b9694ed7f8462e748f422b3fdb456cba7af6db613221512c15b3b520c66
Reciphers for ciphertext: 0
Decipheredtext:           00000000000000000000000000000000
RESULT CIPHER-DECIPHER: -----OK-----


Test: 43
Symmetric key bit length: 256
IV bit length:            128
Plaintext bit length:     128
Symmetric key:            0000000000000000000000000000000000000000000000000000000000000000
IV:                       2b2b2b2b2b2b2b2b2b2b2b2b2b2b2b2b
Plaintext:                00000000000000000000000000000000
Ciphertext:               0931a2c9d8851dc24550090bce5ca131b554b1e34f5e50d391f120546e634aae0931a2c9d8851dc24550090bce5ca131
Reciphers for ciphertext: 0
Decipheredtext:           00000000000000000000000000000000
RESULT CIPHER-DECIPHER: -----OK-----


Test: 44
Symmetric key bit length: 256
IV bit length:            128
Plaintext bit length:     128
Symmetric key:            0000000000000000000000000000000000000000000000000000000000000000
IV:                       2c2c2c2c2c2c2c2c2c2c2c2c2c2c2c2c
Plaintext:                00000000000000000000000000000000
Ciphertext:               7339f3837275062f1ee045a46ccf83be0a5127a3770ee65ce1c606b3e6fc670a7339f3837275062f1ee045a46ccf83be
Reciphers for ciphertext: 0
Decipheredtext:           00000000000000000000000000000000
RESULT CIPHER-DECIPHER: -----OK-----


Test: 45
Symmetric key bit length: 256
IV bit length:            128
Plaintext bit length:     128
Symmetric key:            0000000000000000000000000000000000000000000000000000000000000000
IV:                       2d2d2d2d2d2d2d2d2d2d2d2d2d2d2d2d
Plaintext:                00000000000000000000000000000000
Ciphertext:               78757c96e6a403c07052d0e51f32d2a02f729c54c515dc5f70d07f468005f47878757c96e6a403c07052d0e51f32d2a0
Reciphers for ciphertext: 0
Decipheredtext:           00000000000000000000000000000000
RESULT CIPHER-DECIPHER: -----OK-----


Test: 46
Symmetric key bit length: 256
IV bit length:            128
Plaintext bit length:     128
Symmetric key:            0000000000000000000000000000000000000000000000000000000000000000
IV:                       2e2e2e2e2e2e2e2e2e2e2e2e2e2e2e2e
Plaintext:                00000000000000000000000000000000
Ciphertext:               e266c3a8bf44afbacdd724d70f14a7e20efa816f62f5ed527473bbcdb352d5c0e266c3a8bf44afbacdd724d70f14a7e2
Reciphers for ciphertext: 0
Decipheredtext:           00000000000000000000000000000000
RESULT CIPHER-DECIPHER: -----OK-----


Test: 47
Symmetric key bit length: 256
IV bit length:            128
Plaintext bit length:     128
Symmetric key:            0000000000000000000000000000000000000000000000000000000000000000
IV:                       2f2f2f2f2f2f2f2f2f2f2f2f2f2f2f2f
Plaintext:                00000000000000000000000000000000
Ciphertext:               a9f96dcf128e49f3be0fc145d3e9573966a152dbb1e9cf063acb562da1c29464a9f96dcf128e49f3be0fc145d3e95739
Reciphers for ciphertext: 0
Decipheredtext:           00000000000000000000000000000000
RESULT CIPHER-DECIPHER: -----OK-----


Test: 48
Symmetric key bit length: 256
IV bit length:            128
Plaintext bit length:     128
Symmetric key:            0000000000000000000000000000000000000000000000000000000000000000
IV:                       30303030303030303030303030303030
Plaintext:                00000000000000000000000000000000
Ciphertext:               2bac09459054086d05b62a4598e41db8e50a0f9a0d728d92868ae179c1fad4c72bac09459054086d05b62a4598e41db8
Reciphers for ciphertext: 0
Decipheredtext:           00000000000000000000000000000000
RESULT CIPHER-DECIPHER: -----OK-----


Test: 49
Symmetric key bit length: 256
IV bit length:            128
Plaintext bit length:     128
Symmetric key:            0000000000000000000000000000000000000000000000000000000000000000
IV:                       31313131313131313131313131313131
Plaintext:                00000000000000000000000000000000
Ciphertext:               85b15633bb9da3a0d16face5b4a4587a7f2bb163a572a4e568ba8d8595e453fd85b15633bb9da3a0d16face5b4a4587a
Reciphers for ciphertext: 0
Decipheredtext:           00000000000000000000000000000000
RESULT CIPHER-DECIPHER: -----OK-----


Test: 50
Symmetric key bit length: 256
IV bit length:            128
Plaintext bit length:     128
Symmetric key:            0000000000000000000000000000000000000000000000000000000000000000
IV:                       32323232323232323232323232323232
Plaintext:                00000000000000000000000000000000
Ciphertext:               ae6f7459b2e5436ffb7fdc1adc2242832042ff074aeef6eed64d52daf3b81079ae6f7459b2e5436ffb7fdc1adc224283
Reciphers for ciphertext: 0
Decipheredtext:           00000000000000000000000000000000
RESULT CIPHER-DECIPHER: -----OK-----


Test: 51
Symmetric key bit length: 256
IV bit length:            128
Plaintext bit length:     128
Symmetric key:            0000000000000000000000000000000000000000000000000000000000000000
IV:                       33333333333333333333333333333333
Plaintext:                00000000000000000000000000000000
Ciphertext:               51c4dd4add88be38fdbd1501cdd0804dc1f69cc36b4984ea956f48e5107b709751c4dd4add88be38fdbd1501cdd0804d
Reciphers for ciphertext: 0
Decipheredtext:           00000000000000000000000000000000
RESULT CIPHER-DECIPHER: -----OK-----


Test: 52
Symmetric key bit length: 256
IV bit length:            128
Plaintext bit length:     128
Symmetric key:            0000000000000000000000000000000000000000000000000000000000000000
IV:                       34343434343434343434343434343434
Plaintext:                00000000000000000000000000000000
Ciphertext:               bba934009bf36f9661fd28088ab9f7deda9e4ae6dc534b5a32f859a7a430a56bbba934009bf36f9661fd28088ab9f7de
Reciphers for ciphertext: 0
Decipheredtext:           00000000000000000000000000000000
RESULT CIPHER-DECIPHER: -----OK-----


Test: 53
Symmetric key bit length: 256
IV bit length:            128
Plaintext bit length:     128
Symmetric key:            0000000000000000000000000000000000000000000000000000000000000000
IV:                       35353535353535353535353535353535
Plaintext:                00000000000000000000000000000000
Ciphertext:               8b9053001981725449a5e1188e19a6b89fcb4a0a2f8df786382071ed8cf5f6778b9053001981725449a5e1188e19a6b8
Reciphers for ciphertext: 0
Decipheredtext:           00000000000000000000000000000000
RESULT CIPHER-DECIPHER: -----OK-----


Test: 54
Symmetric key bit length: 256
IV bit length:            128
Plaintext bit length:     128
Symmetric key:            0000000000000000000000000000000000000000000000000000000000000000
IV:                       36363636363636363636363636363636
Plaintext:                00000000000000000000000000000000
Ciphertext:               8b184f47e6edb717ac1ef4b19bd7f60b853f74d4372cc7c4b44884f5888cd0348b184f47e6edb717ac1ef4b19bd7f60b
Reciphers for ciphertext: 0
Decipheredtext:           00000000000000000000000000000000
RESULT CIPHER-DECIPHER: -----OK-----


Test: 55
Symmetric key bit length: 256
IV bit length:            128
Plaintext bit length:     128
Symmetric key:            0000000000000000000000000000000000000000000000000000000000000000
IV:                       37373737373737373737373737373737
Plaintext:                00000000000000000000000000000000
Ciphertext:               2623ed47ea1df261c66e9310000666a8cef88690d92a8b969b44294a21fb657a2623ed47ea1df261c66e9310000666a8
Reciphers for ciphertext: 0
Decipheredtext:           00000000000000000000000000000000
RESULT CIPHER-DECIPHER: -----OK-----


Test: 56
Symmetric key bit length: 256
IV bit length:            128
Plaintext bit length:     128
Symmetric key:            0000000000000000000000000000000000000000000000000000000000000000
IV:                       38383838383838383838383838383838
Plaintext:                00000000000000000000000000000000
Ciphertext:               400cafe26c89de8513e79ad3b6a5e26f98a715bbafdde50950fe9ef6a4374259400cafe26c89de8513e79ad3b6a5e26f
Reciphers for ciphertext: 0
Decipheredtext:           00000000000000000000000000000000
RESULT CIPHER-DECIPHER: -----OK-----


Test: 57
Symmetric key bit length: 256
IV bit length:            128
Plaintext bit length:     128
Symmetric key:            0000000000000000000000000000000000000000000000000000000000000000
IV:                       39393939393939393939393939393939
Plaintext:                00000000000000000000000000000000
Ciphertext:               a9b637f7a488d2110739b156b4497fca41e43f7f553f1f7fcd6c832ca2e2c618a9b637f7a488d2110739b156b4497fca
Reciphers for ciphertext: 0
Decipheredtext:           00000000000000000000000000000000
RESULT CIPHER-DECIPHER: -----OK-----


Test: 58
Symmetric key bit length: 256
IV bit length:            128
Plaintext bit length:     128
Symmetric key:            0000000000000000000000000000000000000000000000000000000000000000
IV:                       3a3a3a3a3a3a3a3a3a3a3a3a3a3a3a3a
Plaintext:                00000000000000000000000000000000
Ciphertext:               b727f7660d3d7051aa4c1f0d0e4f5eb4bf512ae3a9132b9fc2efabdd230336e8b727f7660d3d7051aa4c1f0d0e4f5eb4
Reciphers for ciphertext: 0
Decipheredtext:           00000000000000000000000000000000
RESULT CIPHER-DECIPHER: -----OK-----


Test: 59
Symmetric key bit length: 256
IV bit length:            128
Plaintext bit length:     128
Symmetric key:            0000000000000000000000000000000000000000000000000000000000000000
IV:                       3b3b3b3b3b3b3b3b3b3b3b3b3b3b3b3b
Plaintext:                00000000000000000000000000000000
Ciphertext:               b41b89c2151a6acd270b32eb6861175543755ef5b4496181e24faddee062369ab41b89c2151a6acd270b32eb68611755
Reciphers for ciphertext: 0
Decipheredtext:           00000000000000000000000000000000
RESULT CIPHER-DECIPHER: -----OK-----


Test: 60
Symmetric key bit length: 256
IV bit length:            128
Plaintext bit length:     128
Symmetric key:            0000000000000000000000000000000000000000000000000000000000000000
IV:                       3c3c3c3c3c3c3c3c3c3c3c3c3c3c3c3c
Plaintext:                00000000000000000000000000000000
Ciphertext:               b5fa8c644303074691e797c5057adc8d454177845334fbfb9ddd1bd5278a6547b5fa8c644303074691e797c5057adc8d
Reciphers for ciphertext: 0
Decipheredtext:           00000000000000000000000000000000
RESULT CIPHER-DECIPHER: -----OK-----


Test: 61
Symmetric key bit length: 256
IV bit length:            128
Plaintext bit length:     128
Symmetric key:            0000000000000000000000000000000000000000000000000000000000000000
IV:                       3d3d3d3d3d3d3d3d3d3d3d3d3d3d3d3d
Plaintext:                00000000000000000000000000000000
Ciphertext:               0b5e582d016ba278a3033eb9c93fdbae502e4275815ee30c62163aab319f1beb0b5e582d016ba278a3033eb9c93fdbae
Reciphers for ciphertext: 0
Decipheredtext:           00000000000000000000000000000000
RESULT CIPHER-DECIPHER: -----OK-----


Test: 62
Symmetric key bit length: 256
IV bit length:            128
Plaintext bit length:     128
Symmetric key:            0000000000000000000000000000000000000000000000000000000000000000
IV:                       3e3e3e3e3e3e3e3e3e3e3e3e3e3e3e3e
Plaintext:                00000000000000000000000000000000
Ciphertext:               dcd411406eec078f58dfe02bf0f8fb62b74be2e42750eaf4e862d5efe8fcff3edcd411406eec078f58dfe02bf0f8fb62
Reciphers for ciphertext: 0
Decipheredtext:           00000000000000000000000000000000
RESULT CIPHER-DECIPHER: -----OK-----


Test: 63
Symmetric key bit length: 256
IV bit length:            128
Plaintext bit length:     128
Symmetric key:            0000000000000000000000000000000000000000000000000000000000000000
IV:                       3f3f3f3f3f3f3f3f3f3f3f3f3f3f3f3f
Plaintext:                00000000000000000000000000000000
Ciphertext:               6e7bad126b52cd59da1821f3ec60841b33b292a129b7b233252acedf2f52b5206e7bad126b52cd59da1821f3ec60841b
Reciphers for ciphertext: 0
Decipheredtext:           00000000000000000000000000000000
RESULT CIPHER-DECIPHER: -----OK-----


Test: 64
Symmetric key bit length: 256
IV bit length:            128
Plaintext bit length:     128
Symmetric key:            0000000000000000000000000000000000000000000000000000000000000000
IV:                       40404040404040404040404040404040
Plaintext:                00000000000000000000000000000000
Ciphertext:               0d594620bac8f6f65dcfc47a4277464db66ce78992a6b101e4ced0c941e13ee80d594620bac8f6f65dcfc47a4277464d
Reciphers for ciphertext: 0
Decipheredtext:           00000000000000000000000000000000
RESULT CIPHER-DECIPHER: -----OK-----


Test: 65
Symmetric key bit length: 256
IV bit length:            128
Plaintext bit length:     128
Symmetric key:            0000000000000000000000000000000000000000000000000000000000000000
IV:                       41414141414141414141414141414141
Plaintext:                00000000000000000000000000000000
Ciphertext:               8925043cce74fbd2f1b8faa70ad7016444dceef768237e5476421a2cd8c29dfe8925043cce74fbd2f1b8faa70ad70164
Reciphers for ciphertext: 0
Decipheredtext:           00000000000000000000000000000000
RESULT CIPHER-DECIPHER: -----OK-----


Test: 66
Symmetric key bit length: 256
IV bit length:            128
Plaintext bit length:     128
Symmetric key:            0000000000000000000000000000000000000000000000000000000000000000
IV:                       42424242424242424242424242424242
Plaintext:                00000000000000000000000000000000
Ciphertext:               6a64810646e31c50f061abbba39ea05e680610e296275841d66a8be219f56def6a64810646e31c50f061abbba39ea05e
Reciphers for ciphertext: 0
Decipheredtext:           00000000000000000000000000000000
RESULT CIPHER-DECIPHER: -----OK-----


Test: 67
Symmetric key bit length: 256
IV bit length:            128
Plaintext bit length:     128
Symmetric key:            0000000000000000000000000000000000000000000000000000000000000000
IV:                       43434343434343434343434343434343
Plaintext:                00000000000000000000000000000000
Ciphertext:               10bf56e214e04f3fdf3f91107d12ed49b2fcdcf00ead5ad1005c9e8dbcb5425610bf56e214e04f3fdf3f91107d12ed49
Reciphers for ciphertext: 0
Decipheredtext:           00000000000000000000000000000000
RESULT CIPHER-DECIPHER: -----OK-----


Test: 68
Symmetric key bit length: 256
IV bit length:            128
Plaintext bit length:     128
Symmetric key:            0000000000000000000000000000000000000000000000000000000000000000
IV:                       44444444444444444444444444444444
Plaintext:                00000000000000000000000000000000
Ciphertext:               9853a574826e7d632039cd8ff292a79b86069080853b22ee836a07876b6af6d79853a574826e7d632039cd8ff292a79b
Reciphers for ciphertext: 0
Decipheredtext:           00000000000000000000000000000000
RESULT CIPHER-DECIPHER: -----OK-----


Test: 69
Symmetric key bit length: 256
IV bit length:            128
Plaintext bit length:     128
Symmetric key:            0000000000000000000000000000000000000000000000000000000000000000
IV:                       45454545454545454545454545454545
Plaintext:                00000000000000000000000000000000
Ciphertext:               ff3e30a099d80903c583af33db9b4ded28814d4ef1092f0ee30341004e0ac686ff3e30a099d80903c583af33db9b4ded
Reciphers for ciphertext: 0
Decipheredtext:           00000000000000000000000000000000
RESULT CIPHER-DECIPHER: -----OK-----


Test: 70
Symmetric key bit length: 256
IV bit length:            128
Plaintext bit length:     128
Symmetric key:            0000000000000000000000000000000000000000000000000000000000000000
IV:                       46464646464646464646464646464646
Plaintext:                00000000000000000000000000000000
Ciphertext:               ce11534422b6f73ebc776cf43a552e92e69c7cc14b136c06c42b7d872b093c85ce11534422b6f73ebc776cf43a552e92
Reciphers for ciphertext: 0
Decipheredtext:           00000000000000000000000000000000
RESULT CIPHER-DECIPHER: -----OK-----


Test: 71
Symmetric key bit length: 256
IV bit length:            128
Plaintext bit length:     128
Symmetric key:            0000000000000000000000000000000000000000000000000000000000000000
IV:                       47474747474747474747474747474747
Plaintext:                00000000000000000000000000000000
Ciphertext:               70d7a3e421a0c9e542fcd90774204566c715ea4e1818287052d6fd8280173b2970d7a3e421a0c9e542fcd90774204566
Reciphers for ciphertext: 0
Decipheredtext:           00000000000000000000000000000000
RESULT CIPHER-DECIPHER: -----OK-----


Test: 72
Symmetric key bit length: 256
IV bit length:            128
Plaintext bit length:     128
Symmetric key:            0000000000000000000000000000000000000000000000000000000000000000
IV:                       48484848484848484848484848484848
Plaintext:                00000000000000000000000000000000
Ciphertext:               dc93e2706c944df0c8a8c9572a43e2abcc8b3ef37140b54af8b978ee477632a0dc93e2706c944df0c8a8c9572a43e2ab
Reciphers for ciphertext: 0
Decipheredtext:           00000000000000000000000000000000
RESULT CIPHER-DECIPHER: -----OK-----


Test: 73
Symmetric key bit length: 256
IV bit length:            128
Plaintext bit length:     128
Symmetric key:            0000000000000000000000000000000000000000000000000000000000000000
IV:                       49494949494949494949494949494949
Plaintext:                00000000000000000000000000000000
Ciphertext:               1e6a96370f414ff66e354bd59c41a752dfd729460f7c3ae5a80996ce15440a571e6a96370f414ff66e354bd59c41a752
Reciphers for ciphertext: 0
Decipheredtext:           00000000000000000000000000000000
RESULT CIPHER-DECIPHER: -----OK-----


Test: 74
Symmetric key bit length: 256
IV bit length:            128
Plaintext bit length:     128
Symmetric key:            0000000000000000000000000000000000000000000000000000000000000000
IV:                       4a4a4a4a4a4a4a4a4a4a4a4a4a4a4a4a
Plaintext:                00000000000000000000000000000000
Ciphertext:               12c77870cb65d4fac90698532a11ec887ab2b993304d96d8fb51aede333c253712c77870cb65d4fac90698532a11ec88
Reciphers for ciphertext: 0
Decipheredtext:           00000000000000000000000000000000
RESULT CIPHER-DECIPHER: -----OK-----


Test: 75
Symmetric key bit length: 256
IV bit length:            128
Plaintext bit length:     128
Symmetric key:            0000000000000000000000000000000000000000000000000000000000000000
IV:                       4b4b4b4b4b4b4b4b4b4b4b4b4b4b4b4b
Plaintext:                00000000000000000000000000000000
Ciphertext:               735115c36da4f9631a0f696e409f7b88ecd7aff22390dc11cb2f257d4c598987735115c36da4f9631a0f696e409f7b88
Reciphers for ciphertext: 0
Decipheredtext:           00000000000000000000000000000000
RESULT CIPHER-DECIPHER: -----OK-----


Test: 76
Symmetric key bit length: 256
IV bit length:            128
Plaintext bit length:     128
Symmetric key:            0000000000000000000000000000000000000000000000000000000000000000
IV:                       4c4c4c4c4c4c4c4c4c4c4c4c4c4c4c4c
Plaintext:                00000000000000000000000000000000
Ciphertext:               d0b17da9b4a7987ef22a8c1d80689188edb44d9a4f099a495feadd0ab8208b5cd0b17da9b4a7987ef22a8c1d80689188
Reciphers for ciphertext: 0
Decipheredtext:           00000000000000000000000000000000
RESULT CIPHER-DECIPHER: -----OK-----


Test: 77
Symmetric key bit length: 256
IV bit length:            128
Plaintext bit length:     128
Symmetric key:            0000000000000000000000000000000000000000000000000000000000000000
IV:                       4d4d4d4d4d4d4d4d4d4d4d4d4d4d4d4d
Plaintext:                00000000000000000000000000000000
Ciphertext:               0afa7be9277c9b745b2a9eab613154f79f3f87237b3f4bfd1f17d30fd45e5ea60afa7be9277c9b745b2a9eab613154f7
Reciphers for ciphertext: 0
Decipheredtext:           00000000000000000000000000000000
RESULT CIPHER-DECIPHER: -----OK-----


Test: 78
Symmetric key bit length: 256
IV bit length:            128
Plaintext bit length:     128
Symmetric key:            0000000000000000000000000000000000000000000000000000000000000000
IV:                       4e4e4e4e4e4e4e4e4e4e4e4e4e4e4e4e
Plaintext:                00000000000000000000000000000000
Ciphertext:               64c27e43eb1addc280177e60e9d87294120dd3fc53695594647c2433555c649c64c27e43eb1addc280177e60e9d87294
Reciphers for ciphertext: 0
Decipheredtext:           00000000000000000000000000000000
RESULT CIPHER-DECIPHER: -----OK-----


Test: 79
Symmetric key bit length: 256
IV bit length:            128
Plaintext bit length:     128
Symmetric key:            0000000000000000000000000000000000000000000000000000000000000000
IV:                       4f4f4f4f4f4f4f4f4f4f4f4f4f4f4f4f
Plaintext:                00000000000000000000000000000000
Ciphertext:               73ff6165173758ed5cdb3ea22f827ade4461d172c6b16a0266faa3b3e89073b973ff6165173758ed5cdb3ea22f827ade
Reciphers for ciphertext: 0
Decipheredtext:           00000000000000000000000000000000
RESULT CIPHER-DECIPHER: -----OK-----


Test: 80
Symmetric key bit length: 256
IV bit length:            128
Plaintext bit length:     128
Symmetric key:            0000000000000000000000000000000000000000000000000000000000000000
IV:                       50505050505050505050505050505050
Plaintext:                00000000000000000000000000000000
Ciphertext:               763a3a954b4d02a9532543d6766584675b78f596b8e913d9c72210b93a0b2382763a3a954b4d02a9532543d676658467
Reciphers for ciphertext: 0
Decipheredtext:           00000000000000000000000000000000
RESULT CIPHER-DECIPHER: -----OK-----


Test: 81
Symmetric key bit length: 256
IV bit length:            128
Plaintext bit length:     128
Symmetric key:            0000000000000000000000000000000000000000000000000000000000000000
IV:                       51515151515151515151515151515151
Plaintext:                00000000000000000000000000000000
Ciphertext:               0409c2b2990fa6627eb667447e74b14f9758738b20bc06494e6cda0e9de600940409c2b2990fa6627eb667447e74b14f
Reciphers for ciphertext: 0
Decipheredtext:           00000000000000000000000000000000
RESULT CIPHER-DECIPHER: -----OK-----


Test: 82
Symmetric key bit length: 256
IV bit length:            128
Plaintext bit length:     128
Symmetric key:            0000000000000000000000000000000000000000000000000000000000000000
IV:                       52525252525252525252525252525252
Plaintext:                00000000000000000000000000000000
Ciphertext:               787bdf3b2729f6d246b8387e3ca204f17769f604e8e48c13cef73ae70b5bcbf3787bdf3b2729f6d246b8387e3ca204f1
Reciphers for ciphertext: 0
Decipheredtext:           00000000000000000000000000000000
RESULT CIPHER-DECIPHER: -----OK-----


Test: 83
Symmetric key bit length: 256
IV bit length:            128
Plaintext bit length:     128
Symmetric key:            0000000000000000000000000000000000000000000000000000000000000000
IV:                       53535353535353535353535353535353
Plaintext:                00000000000000000000000000000000
Ciphertext:               f37cc0f54e2aa73cdec4a34b7b0fa23def575f880bbc951b2fb323271204da1e521ce06588bd4cc791e3fedb2190799f
Reciphers for ciphertext: 1
Decipheredtext:           00000000000000000000000000000000
RESULT CIPHER-DECIPHER: -----OK-----


Test: 84
Symmetric key bit length: 256
IV bit length:            128
Plaintext bit length:     128
Symmetric key:            0000000000000000000000000000000000000000000000000000000000000000
IV:                       54545454545454545454545454545454
Plaintext:                00000000000000000000000000000000
Ciphertext:               ac204fefbed04e740b47ec7a5d1f8393972eebb37629007dcedcd2d6362999c4ac204fefbed04e740b47ec7a5d1f8393
Reciphers for ciphertext: 0
Decipheredtext:           00000000000000000000000000000000
RESULT CIPHER-DECIPHER: -----OK-----


Test: 85
Symmetric key bit length: 256
IV bit length:            128
Plaintext bit length:     128
Symmetric key:            0000000000000000000000000000000000000000000000000000000000000000
IV:                       55555555555555555555555555555555
Plaintext:                00000000000000000000000000000000
Ciphertext:               5ec2054d03ecbb38d8b5fafe715eaba3c4a8801fba4c38ab26802a76478ee7db5ec2054d03ecbb38d8b5fafe715eaba3
Reciphers for ciphertext: 0
Decipheredtext:           00000000000000000000000000000000
RESULT CIPHER-DECIPHER: -----OK-----


Test: 86
Symmetric key bit length: 256
IV bit length:            128
Plaintext bit length:     128
Symmetric key:            0000000000000000000000000000000000000000000000000000000000000000
IV:                       56565656565656565656565656565656
Plaintext:                00000000000000000000000000000000
Ciphertext:               d4fa5a7a48eeea60bc0f65c70fd808eadec03c40d6a539a2d3a29492728c504fd4fa5a7a48eeea60bc0f65c70fd808ea
Reciphers for ciphertext: 0
Decipheredtext:           00000000000000000000000000000000
RESULT CIPHER-DECIPHER: -----OK-----


Test: 87
Symmetric key bit length: 256
IV bit length:            128
Plaintext bit length:     128
Symmetric key:            0000000000000000000000000000000000000000000000000000000000000000
IV:                       57575757575757575757575757575757
Plaintext:                00000000000000000000000000000000
Ciphertext:               f2d77b829556537fb921b0d083b7ce129ee7d6c704fe9667ae6562e4629dfcbaf2d77b829556537fb921b0d083b7ce12
Reciphers for ciphertext: 0
Decipheredtext:           00000000000000000000000000000000
RESULT CIPHER-DECIPHER: -----OK-----


Test: 88
Symmetric key bit length: 256
IV bit length:            128
Plaintext bit length:     128
Symmetric key:            0000000000000000000000000000000000000000000000000000000000000000
IV:                       58585858585858585858585858585858
Plaintext:                00000000000000000000000000000000
Ciphertext:               9d49853440953b11d331d3f424034088320f5df61a5c8384a650c41f5f2b3b5a9d49853440953b11d331d3f424034088
Reciphers for ciphertext: 0
Decipheredtext:           00000000000000000000000000000000
RESULT CIPHER-DECIPHER: -----OK-----


Test: 89
Symmetric key bit length: 256
IV bit length:            128
Plaintext bit length:     128
Symmetric key:            0000000000000000000000000000000000000000000000000000000000000000
IV:                       59595959595959595959595959595959
Plaintext:                00000000000000000000000000000000
Ciphertext:               bfa4b5d8908fb8b3f35d68f96d3fd70d52d8278e71c3765abf7045efb18dca42bfa4b5d8908fb8b3f35d68f96d3fd70d
Reciphers for ciphertext: 0
Decipheredtext:           00000000000000000000000000000000
RESULT CIPHER-DECIPHER: -----OK-----


Test: 90
Symmetric key bit length: 256
IV bit length:            128
Plaintext bit length:     128
Symmetric key:            0000000000000000000000000000000000000000000000000000000000000000
IV:                       5a5a5a5a5a5a5a5a5a5a5a5a5a5a5a5a
Plaintext:                00000000000000000000000000000000
Ciphertext:               1bea1d42fe7393f92ffff5f2bd6eccfb190b74802959c3853955e65d14c9f666f5d01208649b181c5df92d3cc83b6396
Reciphers for ciphertext: 1
Decipheredtext:           00000000000000000000000000000000
RESULT CIPHER-DECIPHER: -----OK-----


Test: 91
Symmetric key bit length: 256
IV bit length:            128
Plaintext bit length:     128
Symmetric key:            0000000000000000000000000000000000000000000000000000000000000000
IV:                       5b5b5b5b5b5b5b5b5b5b5b5b5b5b5b5b
Plaintext:                00000000000000000000000000000000
Ciphertext:               df35c361e66751bb72310fa2e010fe23ec611bb143ec2b7b6820d1d62ecfe607df35c361e66751bb72310fa2e010fe23
Reciphers for ciphertext: 0
Decipheredtext:           00000000000000000000000000000000
RESULT CIPHER-DECIPHER: -----OK-----


Test: 92
Symmetric key bit length: 256
IV bit length:            128
Plaintext bit length:     128
Symmetric key:            0000000000000000000000000000000000000000000000000000000000000000
IV:                       5c5c5c5c5c5c5c5c5c5c5c5c5c5c5c5c
Plaintext:                00000000000000000000000000000000
Ciphertext:               abe33a6b3daf85d89a1007d2fa8ee9f59ceebd2d28c37346b08edaa51ca19d0eabe33a6b3daf85d89a1007d2fa8ee9f5
Reciphers for ciphertext: 0
Decipheredtext:           00000000000000000000000000000000
RESULT CIPHER-DECIPHER: -----OK-----


Test: 93
Symmetric key bit length: 256
IV bit length:            128
Plaintext bit length:     128
Symmetric key:            0000000000000000000000000000000000000000000000000000000000000000
IV:                       5d5d5d5d5d5d5d5d5d5d5d5d5d5d5d5d
Plaintext:                00000000000000000000000000000000
Ciphertext:               1c2a4674a199f28610455af2729340092509c4b6678ff524b502fea5d7106b2f1c2a4674a199f28610455af272934009
Reciphers for ciphertext: 0
Decipheredtext:           00000000000000000000000000000000
RESULT CIPHER-DECIPHER: -----OK-----


Test: 94
Symmetric key bit length: 256
IV bit length:            128
Plaintext bit length:     128
Symmetric key:            0000000000000000000000000000000000000000000000000000000000000000
IV:                       5e5e5e5e5e5e5e5e5e5e5e5e5e5e5e5e
Plaintext:                00000000000000000000000000000000
Ciphertext:               6c2a545669f2e620d899d9db6f1d5c2ce727f55a7b868ad6c2b361f11af7f9026c2a545669f2e620d899d9db6f1d5c2c
Reciphers for ciphertext: 0
Decipheredtext:           00000000000000000000000000000000
RESULT CIPHER-DECIPHER: -----OK-----


Test: 95
Symmetric key bit length: 256
IV bit length:            128
Plaintext bit length:     128
Symmetric key:            0000000000000000000000000000000000000000000000000000000000000000
IV:                       5f5f5f5f5f5f5f5f5f5f5f5f5f5f5f5f
Plaintext:                00000000000000000000000000000000
Ciphertext:               7fde8f81caf0d00732ebbb77a26d2c89b1ea19c2034ef375b603982e5b4c2ce47fde8f81caf0d00732ebbb77a26d2c89
Reciphers for ciphertext: 0
Decipheredtext:           00000000000000000000000000000000
RESULT CIPHER-DECIPHER: -----OK-----


Test: 96
Symmetric key bit length: 256
IV bit length:            128
Plaintext bit length:     128
Symmetric key:            0000000000000000000000000000000000000000000000000000000000000000
IV:                       60606060606060606060606060606060
Plaintext:                00000000000000000000000000000000
Ciphertext:               408aea5d7bda58596a75af32548478858e7d675a8eb85adda8276ff103b5dfd7408aea5d7bda58596a75af3254847885
Reciphers for ciphertext: 0
Decipheredtext:           00000000000000000000000000000000
RESULT CIPHER-DECIPHER: -----OK-----


Test: 97
Symmetric key bit length: 256
IV bit length:            128
Plaintext bit length:     128
Symmetric key:            0000000000000000000000000000000000000000000000000000000000000000
IV:                       61616161616161616161616161616161
Plaintext:                00000000000000000000000000000000
Ciphertext:               964393408b85861786c342579c461dad3e4006707fbde4baeaaf8fb1ca39000d964393408b85861786c342579c461dad
Reciphers for ciphertext: 0
Decipheredtext:           00000000000000000000000000000000
RESULT CIPHER-DECIPHER: -----OK-----


Test: 98
Symmetric key bit length: 256
IV bit length:            128
Plaintext bit length:     128
Symmetric key:            0000000000000000000000000000000000000000000000000000000000000000
IV:                       62626262626262626262626262626262
Plaintext:                00000000000000000000000000000000
Ciphertext:               b5ab328e93b3cd784de875c542241ab13e40eb0dcd9a57144420d00d956ba166b5ab328e93b3cd784de875c542241ab1
Reciphers for ciphertext: 0
Decipheredtext:           00000000000000000000000000000000
RESULT CIPHER-DECIPHER: -----OK-----


Test: 99
Symmetric key bit length: 256
IV bit length:            128
Plaintext bit length:     128
Symmetric key:            0000000000000000000000000000000000000000000000000000000000000000
IV:                       63636363636363636363636363636363
Plaintext:                00000000000000000000000000000000
Ciphertext:               de51058071362b58f6db5c45bf041e38831848ea8ca62269f87644a2db9647adde51058071362b58f6db5c45bf041e38
Reciphers for ciphertext: 0
Decipheredtext:           00000000000000000000000000000000
RESULT CIPHER-DECIPHER: -----OK-----


Test: 100
Symmetric key bit length: 256
IV bit length:            128
Plaintext bit length:     128
Symmetric key:            0000000000000000000000000000000000000000000000000000000000000000
IV:                       64646464646464646464646464646464
Plaintext:                00000000000000000000000000000000
Ciphertext:               70feee714e0c66f44ef9b12de342fd5f98906c3d2cd6f7656a067eb4a148752770feee714e0c66f44ef9b12de342fd5f
Reciphers for ciphertext: 0
Decipheredtext:           00000000000000000000000000000000
RESULT CIPHER-DECIPHER: -----OK-----


Test: 101
Symmetric key bit length: 256
IV bit length:            128
Plaintext bit length:     128
Symmetric key:            0000000000000000000000000000000000000000000000000000000000000000
IV:                       65656565656565656565656565656565
Plaintext:                00000000000000000000000000000000
Ciphertext:               ad2b2966b7d03357eb44e95d15e607de94cd6588ee7a754cedafd62578a5f6daad2b2966b7d03357eb44e95d15e607de
Reciphers for ciphertext: 0
Decipheredtext:           00000000000000000000000000000000
RESULT CIPHER-DECIPHER: -----OK-----


Test: 102
Symmetric key bit length: 256
IV bit length:            128
Plaintext bit length:     128
Symmetric key:            0000000000000000000000000000000000000000000000000000000000000000
IV:                       66666666666666666666666666666666
Plaintext:                00000000000000000000000000000000
Ciphertext:               a70ebbc4188754fdfccc6ecf42cebac1a63b1ea3b083a8e789eed0fac0a3e9c5a70ebbc4188754fdfccc6ecf42cebac1
Reciphers for ciphertext: 0
Decipheredtext:           00000000000000000000000000000000
RESULT CIPHER-DECIPHER: -----OK-----


Test: 103
Symmetric key bit length: 256
IV bit length:            128
Plaintext bit length:     128
Symmetric key:            0000000000000000000000000000000000000000000000000000000000000000
IV:                       67676767676767676767676767676767
Plaintext:                00000000000000000000000000000000
Ciphertext:               ced8bbe0827e903e733ff9326613b95b5e444b92b6dc197b787170359c0fdb33ced8bbe0827e903e733ff9326613b95b
Reciphers for ciphertext: 0
Decipheredtext:           00000000000000000000000000000000
RESULT CIPHER-DECIPHER: -----OK-----


Test: 104
Symmetric key bit length: 256
IV bit length:            128
Plaintext bit length:     128
Symmetric key:            0000000000000000000000000000000000000000000000000000000000000000
IV:                       68686868686868686868686868686868
Plaintext:                00000000000000000000000000000000
Ciphertext:               99195ac42098ebc2e0f15df2e7f4ec0e1b825ebac5ff8d0a9ddf9dc20cfe48ad99195ac42098ebc2e0f15df2e7f4ec0e
Reciphers for ciphertext: 0
Decipheredtext:           00000000000000000000000000000000
RESULT CIPHER-DECIPHER: -----OK-----


Test: 105
Symmetric key bit length: 256
IV bit length:            128
Plaintext bit length:     128
Symmetric key:            0000000000000000000000000000000000000000000000000000000000000000
IV:                       69696969696969696969696969696969
Plaintext:                00000000000000000000000000000000
Ciphertext:               ea7c53f12622911f9aeca544aef2d8ff623d2ebed96726352397388e6d154704ea7c53f12622911f9aeca544aef2d8ff
Reciphers for ciphertext: 0
Decipheredtext:           00000000000000000000000000000000
RESULT CIPHER-DECIPHER: -----OK-----


Test: 106
Symmetric key bit length: 256
IV bit length:            128
Plaintext bit length:     128
Symmetric key:            0000000000000000000000000000000000000000000000000000000000000000
IV:                       6a6a6a6a6a6a6a6a6a6a6a6a6a6a6a6a
Plaintext:                00000000000000000000000000000000
Ciphertext:               61b4ed7ebb2523452c83391849b171eb06cee132dfd18284fd68910a94475f5c61b4ed7ebb2523452c83391849b171eb
Reciphers for ciphertext: 0
Decipheredtext:           00000000000000000000000000000000
RESULT CIPHER-DECIPHER: -----OK-----


Test: 107
Symmetric key bit length: 256
IV bit length:            128
Plaintext bit length:     128
Symmetric key:            0000000000000000000000000000000000000000000000000000000000000000
IV:                       6b6b6b6b6b6b6b6b6b6b6b6b6b6b6b6b
Plaintext:                00000000000000000000000000000000
Ciphertext:               9c1d4a88db3390e623fe08955171b59393da031d58d332da2d28a2256eec43ce9c1d4a88db3390e623fe08955171b593
Reciphers for ciphertext: 0
Decipheredtext:           00000000000000000000000000000000
RESULT CIPHER-DECIPHER: -----OK-----


Test: 108
Symmetric key bit length: 256
IV bit length:            128
Plaintext bit length:     128
Symmetric key:            0000000000000000000000000000000000000000000000000000000000000000
IV:                       6c6c6c6c6c6c6c6c6c6c6c6c6c6c6c6c
Plaintext:                00000000000000000000000000000000
Ciphertext:               da9674db8ee60ac301b6b3a843a4857977899bac6d915496309f8ac7fef65044da9674db8ee60ac301b6b3a843a48579
Reciphers for ciphertext: 0
Decipheredtext:           00000000000000000000000000000000
RESULT CIPHER-DECIPHER: -----OK-----


Test: 109
Symmetric key bit length: 256
IV bit length:            128
Plaintext bit length:     128
Symmetric key:            0000000000000000000000000000000000000000000000000000000000000000
IV:                       6d6d6d6d6d6d6d6d6d6d6d6d6d6d6d6d
Plaintext:                00000000000000000000000000000000
Ciphertext:               4b39cd2e68aa1a3c78a4a665c5a282ff714fdbe6af37fde9457b08eadc65659b4b39cd2e68aa1a3c78a4a665c5a282ff
Reciphers for ciphertext: 0
Decipheredtext:           00000000000000000000000000000000
RESULT CIPHER-DECIPHER: -----OK-----


Test: 110
Symmetric key bit length: 256
IV bit length:            128
Plaintext bit length:     128
Symmetric key:            0000000000000000000000000000000000000000000000000000000000000000
IV:                       6e6e6e6e6e6e6e6e6e6e6e6e6e6e6e6e
Plaintext:                00000000000000000000000000000000
Ciphertext:               ad0e7b4efca98add8e8d13c9ccff437633e368efb6bab3c0383cc2e354e7c678ad0e7b4efca98add8e8d13c9ccff4376
Reciphers for ciphertext: 0
Decipheredtext:           00000000000000000000000000000000
RESULT CIPHER-DECIPHER: -----OK-----


Test: 111
Symmetric key bit length: 256
IV bit length:            128
Plaintext bit length:     128
Symmetric key:            0000000000000000000000000000000000000000000000000000000000000000
IV:                       6f6f6f6f6f6f6f6f6f6f6f6f6f6f6f6f
Plaintext:                00000000000000000000000000000000
Ciphertext:               09785a2431ac3b964bab6c376eafcdf941d5fb661ed5b2f277cc7145b9f2be7909785a2431ac3b964bab6c376eafcdf9
Reciphers for ciphertext: 0
Decipheredtext:           00000000000000000000000000000000
RESULT CIPHER-DECIPHER: -----OK-----


Test: 112
Symmetric key bit length: 256
IV bit length:            128
Plaintext bit length:     128
Symmetric key:            0000000000000000000000000000000000000000000000000000000000000000
IV:                       70707070707070707070707070707070
Plaintext:                00000000000000000000000000000000
Ciphertext:               a3f6322c0694264b666fa6471ebfcb386d804f5c5b6aab5afbe663a32cbada77a3f6322c0694264b666fa6471ebfcb38
Reciphers for ciphertext: 0
Decipheredtext:           00000000000000000000000000000000
RESULT CIPHER-DECIPHER: -----OK-----


Test: 113
Symmetric key bit length: 256
IV bit length:            128
Plaintext bit length:     128
Symmetric key:            0000000000000000000000000000000000000000000000000000000000000000
IV:                       71717171717171717171717171717171
Plaintext:                00000000000000000000000000000000
Ciphertext:               6563248378d7e09a14ce19d7a67faf810300dac9fcde99da56fa27325cd635536563248378d7e09a14ce19d7a67faf81
Reciphers for ciphertext: 0
Decipheredtext:           00000000000000000000000000000000
RESULT CIPHER-DECIPHER: -----OK-----


Test: 114
Symmetric key bit length: 256
IV bit length:            128
Plaintext bit length:     128
Symmetric key:            0000000000000000000000000000000000000000000000000000000000000000
IV:                       72727272727272727272727272727272
Plaintext:                00000000000000000000000000000000
Ciphertext:               6b48122ba5fe298c16211c3e4988cc7c8355a8e44e135814bf0002afb37cf9da6b48122ba5fe298c16211c3e4988cc7c
Reciphers for ciphertext: 0
Decipheredtext:           00000000000000000000000000000000
RESULT CIPHER-DECIPHER: -----OK-----


Test: 115
Symmetric key bit length: 256
IV bit length:            128
Plaintext bit length:     128
Symmetric key:            0000000000000000000000000000000000000000000000000000000000000000
IV:                       73737373737373737373737373737373
Plaintext:                00000000000000000000000000000000
Ciphertext:               ba6c4bf3d279c07d701f5cfd2ce71530c7c6b4026cf7e402a084d9c9b275b976ba6c4bf3d279c07d701f5cfd2ce71530
Reciphers for ciphertext: 0
Decipheredtext:           00000000000000000000000000000000
RESULT CIPHER-DECIPHER: -----OK-----


Test: 116
Symmetric key bit length: 256
IV bit length:            128
Plaintext bit length:     128
Symmetric key:            0000000000000000000000000000000000000000000000000000000000000000
IV:                       74747474747474747474747474747474
Plaintext:                00000000000000000000000000000000
Ciphertext:               1ca95a4872a83fe7bf38095f2d0a318307f3dc66f588b436abb0d19f733606aa1ca95a4872a83fe7bf38095f2d0a3183
Reciphers for ciphertext: 0
Decipheredtext:           00000000000000000000000000000000
RESULT CIPHER-DECIPHER: -----OK-----


Test: 117
Symmetric key bit length: 256
IV bit length:            128
Plaintext bit length:     128
Symmetric key:            0000000000000000000000000000000000000000000000000000000000000000
IV:                       75757575757575757575757575757575
Plaintext:                00000000000000000000000000000000
Ciphertext:               4873b84201e150a1a5036bd1282b1fa902371eeaf65122e110a2295e10363260db9004e3c78fd6a74969b00d073e0b08
Reciphers for ciphertext: 1
Decipheredtext:           00000000000000000000000000000000
RESULT CIPHER-DECIPHER: -----OK-----


Test: 118
Symmetric key bit length: 256
IV bit length:            128
Plaintext bit length:     128
Symmetric key:            0000000000000000000000000000000000000000000000000000000000000000
IV:                       76767676767676767676767676767676
Plaintext:                00000000000000000000000000000000
Ciphertext:               e590629cceff935f3ba172247bef3b1c265d1603f1842d905ea966de00fcae6fe590629cceff935f3ba172247bef3b1c
Reciphers for ciphertext: 0
Decipheredtext:           00000000000000000000000000000000
RESULT CIPHER-DECIPHER: -----OK-----


Test: 119
Symmetric key bit length: 256
IV bit length:            128
Plaintext bit length:     128
Symmetric key:            0000000000000000000000000000000000000000000000000000000000000000
IV:                       77777777777777777777777777777777
Plaintext:                00000000000000000000000000000000
Ciphertext:               87dcfc79aceabef2590f517dd65c6461d5bc5e710cbdde101da11b4bbedbdea287dcfc79aceabef2590f517dd65c6461
Reciphers for ciphertext: 0
Decipheredtext:           00000000000000000000000000000000
RESULT CIPHER-DECIPHER: -----OK-----


Test: 120
Symmetric key bit length: 256
IV bit length:            128
Plaintext bit length:     128
Symmetric key:            0000000000000000000000000000000000000000000000000000000000000000
IV:                       78787878787878787878787878787878
Plaintext:                00000000000000000000000000000000
Ciphertext:               e7678b82367f97988ab0d980b1808a95b2ada4dd7b4d1c58d776fc4eb4a35d3ee7678b82367f97988ab0d980b1808a95
Reciphers for ciphertext: 0
Decipheredtext:           00000000000000000000000000000000
RESULT CIPHER-DECIPHER: -----OK-----


Test: 121
Symmetric key bit length: 256
IV bit length:            128
Plaintext bit length:     128
Symmetric key:            0000000000000000000000000000000000000000000000000000000000000000
IV:                       79797979797979797979797979797979
Plaintext:                00000000000000000000000000000000
Ciphertext:               c9ab1ab3b4121761e0abe1c4d1bbf543d641c0e50c34dfcc93e55a78ac8e5e23c9ab1ab3b4121761e0abe1c4d1bbf543
Reciphers for ciphertext: 0
Decipheredtext:           00000000000000000000000000000000
RESULT CIPHER-DECIPHER: -----OK-----


Test: 122
Symmetric key bit length: 256
IV bit length:            128
Plaintext bit length:     128
Symmetric key:            0000000000000000000000000000000000000000000000000000000000000000
IV:                       7a7a7a7a7a7a7a7a7a7a7a7a7a7a7a7a
Plaintext:                00000000000000000000000000000000
Ciphertext:               d19eec03213d74a11aa3b1f2f33bc3380fa14c1adf517a5dd73c3f4d5f672f89d19eec03213d74a11aa3b1f2f33bc338
Reciphers for ciphertext: 0
Decipheredtext:           00000000000000000000000000000000
RESULT CIPHER-DECIPHER: -----OK-----


Test: 123
Symmetric key bit length: 256
IV bit length:            128
Plaintext bit length:     128
Symmetric key:            0000000000000000000000000000000000000000000000000000000000000000
IV:                       7b7b7b7b7b7b7b7b7b7b7b7b7b7b7b7b
Plaintext:                00000000000000000000000000000000
Ciphertext:               977cb58865c68060f62ea7ba29a81fba6cd116364d49120f1593a8cf2975816a977cb58865c68060f62ea7ba29a81fba
Reciphers for ciphertext: 0
Decipheredtext:           00000000000000000000000000000000
RESULT CIPHER-DECIPHER: -----OK-----


Test: 124
Symmetric key bit length: 256
IV bit length:            128
Plaintext bit length:     128
Symmetric key:            0000000000000000000000000000000000000000000000000000000000000000
IV:                       7c7c7c7c7c7c7c7c7c7c7c7c7c7c7c7c
Plaintext:                00000000000000000000000000000000
Ciphertext:               aff6edfa145ccc3f0e6305e9a94e8ffd92f32b83c910558a78302afb6b5df4cdaff6edfa145ccc3f0e6305e9a94e8ffd
Reciphers for ciphertext: 0
Decipheredtext:           00000000000000000000000000000000
RESULT CIPHER-DECIPHER: -----OK-----


Test: 125
Symmetric key bit length: 256
IV bit length:            128
Plaintext bit length:     128
Symmetric key:            0000000000000000000000000000000000000000000000000000000000000000
IV:                       7d7d7d7d7d7d7d7d7d7d7d7d7d7d7d7d
Plaintext:                00000000000000000000000000000000
Ciphertext:               5e20a278f318f624f6a7c94ec133c0780e1405f033091b35a12498fba3ed7bd85e20a278f318f624f6a7c94ec133c078
Reciphers for ciphertext: 0
Decipheredtext:           00000000000000000000000000000000
RESULT CIPHER-DECIPHER: -----OK-----


Test: 126
Symmetric key bit length: 256
IV bit length:            128
Plaintext bit length:     128
Symmetric key:            0000000000000000000000000000000000000000000000000000000000000000
IV:                       7e7e7e7e7e7e7e7e7e7e7e7e7e7e7e7e
Plaintext:                00000000000000000000000000000000
Ciphertext:               2c723be4b8ac585d26f364157eb73616e07d99daa4630be81df7bdfb069790312c723be4b8ac585d26f364157eb73616
Reciphers for ciphertext: 0
Decipheredtext:           00000000000000000000000000000000
RESULT CIPHER-DECIPHER: -----OK-----


Test: 127
Symmetric key bit length: 256
IV bit length:            128
Plaintext bit length:     128
Symmetric key:            0000000000000000000000000000000000000000000000000000000000000000
IV:                       7f7f7f7f7f7f7f7f7f7f7f7f7f7f7f7f
Plaintext:                00000000000000000000000000000000
Ciphertext:               4ff2c502901abbfe898968645fd636f75da54601cd301978b214acd72db05dd24ff2c502901abbfe898968645fd636f7
Reciphers for ciphertext: 0
Decipheredtext:           00000000000000000000000000000000
RESULT CIPHER-DECIPHER: -----OK-----


 DATA SHA1 (hexadecimal): 653c3dee91cea6ae565641964c136b4be6e49796

