
DiceLock 9.0.0.1

 TEST COMPONENTS:
 ----------------
 DiceLock:           DiceLockIVIndexed class
 Base Stream Cipher: Sosemanuk128 class
 Key Modifier:       IncreaseBase0IndexModifier_6_0_0_1 class
   Index bit length: 128
 Random tests:       RandomTestSuite class
                     FrequencyTest class
                     BlockFrequencyTest class
                     CumulativeSumForwardTest class
                     LongestRunOfOnesTest class
                     RunsTest class
 Random alpha:       0.001

 VECTOR TEST: Test vector 2 - Changing plaintext, shifting 1 bit set


##### INDIVIDUAL TESTS #####

Number tests: 128


Test: 0
Symmetric key bit length: 128
IV bit length:            128
Plaintext bit length:     128
Symmetric key:            00000000000000000000000000000000
IV:                       00000000000000000000000000000000
Plaintext:                80000000000000000000000000000000
Ciphertext:               761c68bc2eb1912a8edc71807c4f291ff61c68bc2eb1912a8edc71807c4f291f
Reciphers for ciphertext: 0
Decipheredtext:           80000000000000000000000000000000
RESULT CIPHER-DECIPHER: -----OK-----


Test: 1
Symmetric key bit length: 128
IV bit length:            128
Plaintext bit length:     128
Symmetric key:            00000000000000000000000000000000
IV:                       00000000000000000000000000000000
Plaintext:                40000000000000000000000000000000
Ciphertext:               761c68bc2eb1912a8edc71807c4f291f361c68bc2eb1912a8edc71807c4f291f
Reciphers for ciphertext: 0
Decipheredtext:           40000000000000000000000000000000
RESULT CIPHER-DECIPHER: -----OK-----


Test: 2
Symmetric key bit length: 128
IV bit length:            128
Plaintext bit length:     128
Symmetric key:            00000000000000000000000000000000
IV:                       00000000000000000000000000000000
Plaintext:                20000000000000000000000000000000
Ciphertext:               761c68bc2eb1912a8edc71807c4f291f561c68bc2eb1912a8edc71807c4f291f
Reciphers for ciphertext: 0
Decipheredtext:           20000000000000000000000000000000
RESULT CIPHER-DECIPHER: -----OK-----


Test: 3
Symmetric key bit length: 128
IV bit length:            128
Plaintext bit length:     128
Symmetric key:            00000000000000000000000000000000
IV:                       00000000000000000000000000000000
Plaintext:                10000000000000000000000000000000
Ciphertext:               761c68bc2eb1912a8edc71807c4f291f661c68bc2eb1912a8edc71807c4f291f
Reciphers for ciphertext: 0
Decipheredtext:           10000000000000000000000000000000
RESULT CIPHER-DECIPHER: -----OK-----


Test: 4
Symmetric key bit length: 128
IV bit length:            128
Plaintext bit length:     128
Symmetric key:            00000000000000000000000000000000
IV:                       00000000000000000000000000000000
Plaintext:                08000000000000000000000000000000
Ciphertext:               761c68bc2eb1912a8edc71807c4f291f7e1c68bc2eb1912a8edc71807c4f291f
Reciphers for ciphertext: 0
Decipheredtext:           08000000000000000000000000000000
RESULT CIPHER-DECIPHER: -----OK-----


Test: 5
Symmetric key bit length: 128
IV bit length:            128
Plaintext bit length:     128
Symmetric key:            00000000000000000000000000000000
IV:                       00000000000000000000000000000000
Plaintext:                04000000000000000000000000000000
Ciphertext:               761c68bc2eb1912a8edc71807c4f291f721c68bc2eb1912a8edc71807c4f291f
Reciphers for ciphertext: 0
Decipheredtext:           04000000000000000000000000000000
RESULT CIPHER-DECIPHER: -----OK-----


Test: 6
Symmetric key bit length: 128
IV bit length:            128
Plaintext bit length:     128
Symmetric key:            00000000000000000000000000000000
IV:                       00000000000000000000000000000000
Plaintext:                02000000000000000000000000000000
Ciphertext:               761c68bc2eb1912a8edc71807c4f291f741c68bc2eb1912a8edc71807c4f291f
Reciphers for ciphertext: 0
Decipheredtext:           02000000000000000000000000000000
RESULT CIPHER-DECIPHER: -----OK-----


Test: 7
Symmetric key bit length: 128
IV bit length:            128
Plaintext bit length:     128
Symmetric key:            00000000000000000000000000000000
IV:                       00000000000000000000000000000000
Plaintext:                01000000000000000000000000000000
Ciphertext:               761c68bc2eb1912a8edc71807c4f291f771c68bc2eb1912a8edc71807c4f291f
Reciphers for ciphertext: 0
Decipheredtext:           01000000000000000000000000000000
RESULT CIPHER-DECIPHER: -----OK-----


Test: 8
Symmetric key bit length: 128
IV bit length:            128
Plaintext bit length:     128
Symmetric key:            00000000000000000000000000000000
IV:                       00000000000000000000000000000000
Plaintext:                00800000000000000000000000000000
Ciphertext:               761c68bc2eb1912a8edc71807c4f291f769c68bc2eb1912a8edc71807c4f291f
Reciphers for ciphertext: 0
Decipheredtext:           00800000000000000000000000000000
RESULT CIPHER-DECIPHER: -----OK-----


Test: 9
Symmetric key bit length: 128
IV bit length:            128
Plaintext bit length:     128
Symmetric key:            00000000000000000000000000000000
IV:                       00000000000000000000000000000000
Plaintext:                00400000000000000000000000000000
Ciphertext:               761c68bc2eb1912a8edc71807c4f291f765c68bc2eb1912a8edc71807c4f291f
Reciphers for ciphertext: 0
Decipheredtext:           00400000000000000000000000000000
RESULT CIPHER-DECIPHER: -----OK-----


Test: 10
Symmetric key bit length: 128
IV bit length:            128
Plaintext bit length:     128
Symmetric key:            00000000000000000000000000000000
IV:                       00000000000000000000000000000000
Plaintext:                00200000000000000000000000000000
Ciphertext:               761c68bc2eb1912a8edc71807c4f291f763c68bc2eb1912a8edc71807c4f291f
Reciphers for ciphertext: 0
Decipheredtext:           00200000000000000000000000000000
RESULT CIPHER-DECIPHER: -----OK-----


Test: 11
Symmetric key bit length: 128
IV bit length:            128
Plaintext bit length:     128
Symmetric key:            00000000000000000000000000000000
IV:                       00000000000000000000000000000000
Plaintext:                00100000000000000000000000000000
Ciphertext:               761c68bc2eb1912a8edc71807c4f291f760c68bc2eb1912a8edc71807c4f291f
Reciphers for ciphertext: 0
Decipheredtext:           00100000000000000000000000000000
RESULT CIPHER-DECIPHER: -----OK-----


Test: 12
Symmetric key bit length: 128
IV bit length:            128
Plaintext bit length:     128
Symmetric key:            00000000000000000000000000000000
IV:                       00000000000000000000000000000000
Plaintext:                00080000000000000000000000000000
Ciphertext:               761c68bc2eb1912a8edc71807c4f291f761468bc2eb1912a8edc71807c4f291f
Reciphers for ciphertext: 0
Decipheredtext:           00080000000000000000000000000000
RESULT CIPHER-DECIPHER: -----OK-----


Test: 13
Symmetric key bit length: 128
IV bit length:            128
Plaintext bit length:     128
Symmetric key:            00000000000000000000000000000000
IV:                       00000000000000000000000000000000
Plaintext:                00040000000000000000000000000000
Ciphertext:               761c68bc2eb1912a8edc71807c4f291f761868bc2eb1912a8edc71807c4f291f
Reciphers for ciphertext: 0
Decipheredtext:           00040000000000000000000000000000
RESULT CIPHER-DECIPHER: -----OK-----


Test: 14
Symmetric key bit length: 128
IV bit length:            128
Plaintext bit length:     128
Symmetric key:            00000000000000000000000000000000
IV:                       00000000000000000000000000000000
Plaintext:                00020000000000000000000000000000
Ciphertext:               761c68bc2eb1912a8edc71807c4f291f761e68bc2eb1912a8edc71807c4f291f
Reciphers for ciphertext: 0
Decipheredtext:           00020000000000000000000000000000
RESULT CIPHER-DECIPHER: -----OK-----


Test: 15
Symmetric key bit length: 128
IV bit length:            128
Plaintext bit length:     128
Symmetric key:            00000000000000000000000000000000
IV:                       00000000000000000000000000000000
Plaintext:                00010000000000000000000000000000
Ciphertext:               761c68bc2eb1912a8edc71807c4f291f761d68bc2eb1912a8edc71807c4f291f
Reciphers for ciphertext: 0
Decipheredtext:           00010000000000000000000000000000
RESULT CIPHER-DECIPHER: -----OK-----


Test: 16
Symmetric key bit length: 128
IV bit length:            128
Plaintext bit length:     128
Symmetric key:            00000000000000000000000000000000
IV:                       00000000000000000000000000000000
Plaintext:                00008000000000000000000000000000
Ciphertext:               761c68bc2eb1912a8edc71807c4f291f761ce8bc2eb1912a8edc71807c4f291f
Reciphers for ciphertext: 0
Decipheredtext:           00008000000000000000000000000000
RESULT CIPHER-DECIPHER: -----OK-----


Test: 17
Symmetric key bit length: 128
IV bit length:            128
Plaintext bit length:     128
Symmetric key:            00000000000000000000000000000000
IV:                       00000000000000000000000000000000
Plaintext:                00004000000000000000000000000000
Ciphertext:               761c68bc2eb1912a8edc71807c4f291f761c28bc2eb1912a8edc71807c4f291f
Reciphers for ciphertext: 0
Decipheredtext:           00004000000000000000000000000000
RESULT CIPHER-DECIPHER: -----OK-----


Test: 18
Symmetric key bit length: 128
IV bit length:            128
Plaintext bit length:     128
Symmetric key:            00000000000000000000000000000000
IV:                       00000000000000000000000000000000
Plaintext:                00002000000000000000000000000000
Ciphertext:               761c68bc2eb1912a8edc71807c4f291f761c48bc2eb1912a8edc71807c4f291f
Reciphers for ciphertext: 0
Decipheredtext:           00002000000000000000000000000000
RESULT CIPHER-DECIPHER: -----OK-----


Test: 19
Symmetric key bit length: 128
IV bit length:            128
Plaintext bit length:     128
Symmetric key:            00000000000000000000000000000000
IV:                       00000000000000000000000000000000
Plaintext:                00001000000000000000000000000000
Ciphertext:               761c68bc2eb1912a8edc71807c4f291f761c78bc2eb1912a8edc71807c4f291f
Reciphers for ciphertext: 0
Decipheredtext:           00001000000000000000000000000000
RESULT CIPHER-DECIPHER: -----OK-----


Test: 20
Symmetric key bit length: 128
IV bit length:            128
Plaintext bit length:     128
Symmetric key:            00000000000000000000000000000000
IV:                       00000000000000000000000000000000
Plaintext:                00000800000000000000000000000000
Ciphertext:               761c68bc2eb1912a8edc71807c4f291f761c60bc2eb1912a8edc71807c4f291f
Reciphers for ciphertext: 0
Decipheredtext:           00000800000000000000000000000000
RESULT CIPHER-DECIPHER: -----OK-----


Test: 21
Symmetric key bit length: 128
IV bit length:            128
Plaintext bit length:     128
Symmetric key:            00000000000000000000000000000000
IV:                       00000000000000000000000000000000
Plaintext:                00000400000000000000000000000000
Ciphertext:               761c68bc2eb1912a8edc71807c4f291f761c6cbc2eb1912a8edc71807c4f291f
Reciphers for ciphertext: 0
Decipheredtext:           00000400000000000000000000000000
RESULT CIPHER-DECIPHER: -----OK-----


Test: 22
Symmetric key bit length: 128
IV bit length:            128
Plaintext bit length:     128
Symmetric key:            00000000000000000000000000000000
IV:                       00000000000000000000000000000000
Plaintext:                00000200000000000000000000000000
Ciphertext:               761c68bc2eb1912a8edc71807c4f291f761c6abc2eb1912a8edc71807c4f291f
Reciphers for ciphertext: 0
Decipheredtext:           00000200000000000000000000000000
RESULT CIPHER-DECIPHER: -----OK-----


Test: 23
Symmetric key bit length: 128
IV bit length:            128
Plaintext bit length:     128
Symmetric key:            00000000000000000000000000000000
IV:                       00000000000000000000000000000000
Plaintext:                00000100000000000000000000000000
Ciphertext:               761c68bc2eb1912a8edc71807c4f291f761c69bc2eb1912a8edc71807c4f291f
Reciphers for ciphertext: 0
Decipheredtext:           00000100000000000000000000000000
RESULT CIPHER-DECIPHER: -----OK-----


Test: 24
Symmetric key bit length: 128
IV bit length:            128
Plaintext bit length:     128
Symmetric key:            00000000000000000000000000000000
IV:                       00000000000000000000000000000000
Plaintext:                00000080000000000000000000000000
Ciphertext:               761c68bc2eb1912a8edc71807c4f291f761c683c2eb1912a8edc71807c4f291f
Reciphers for ciphertext: 0
Decipheredtext:           00000080000000000000000000000000
RESULT CIPHER-DECIPHER: -----OK-----


Test: 25
Symmetric key bit length: 128
IV bit length:            128
Plaintext bit length:     128
Symmetric key:            00000000000000000000000000000000
IV:                       00000000000000000000000000000000
Plaintext:                00000040000000000000000000000000
Ciphertext:               761c68bc2eb1912a8edc71807c4f291f761c68fc2eb1912a8edc71807c4f291f
Reciphers for ciphertext: 0
Decipheredtext:           00000040000000000000000000000000
RESULT CIPHER-DECIPHER: -----OK-----


Test: 26
Symmetric key bit length: 128
IV bit length:            128
Plaintext bit length:     128
Symmetric key:            00000000000000000000000000000000
IV:                       00000000000000000000000000000000
Plaintext:                00000020000000000000000000000000
Ciphertext:               761c68bc2eb1912a8edc71807c4f291f761c689c2eb1912a8edc71807c4f291f
Reciphers for ciphertext: 0
Decipheredtext:           00000020000000000000000000000000
RESULT CIPHER-DECIPHER: -----OK-----


Test: 27
Symmetric key bit length: 128
IV bit length:            128
Plaintext bit length:     128
Symmetric key:            00000000000000000000000000000000
IV:                       00000000000000000000000000000000
Plaintext:                00000010000000000000000000000000
Ciphertext:               761c68bc2eb1912a8edc71807c4f291f761c68ac2eb1912a8edc71807c4f291f
Reciphers for ciphertext: 0
Decipheredtext:           00000010000000000000000000000000
RESULT CIPHER-DECIPHER: -----OK-----


Test: 28
Symmetric key bit length: 128
IV bit length:            128
Plaintext bit length:     128
Symmetric key:            00000000000000000000000000000000
IV:                       00000000000000000000000000000000
Plaintext:                00000008000000000000000000000000
Ciphertext:               761c68bc2eb1912a8edc71807c4f291f761c68b42eb1912a8edc71807c4f291f
Reciphers for ciphertext: 0
Decipheredtext:           00000008000000000000000000000000
RESULT CIPHER-DECIPHER: -----OK-----


Test: 29
Symmetric key bit length: 128
IV bit length:            128
Plaintext bit length:     128
Symmetric key:            00000000000000000000000000000000
IV:                       00000000000000000000000000000000
Plaintext:                00000004000000000000000000000000
Ciphertext:               761c68bc2eb1912a8edc71807c4f291f761c68b82eb1912a8edc71807c4f291f
Reciphers for ciphertext: 0
Decipheredtext:           00000004000000000000000000000000
RESULT CIPHER-DECIPHER: -----OK-----


Test: 30
Symmetric key bit length: 128
IV bit length:            128
Plaintext bit length:     128
Symmetric key:            00000000000000000000000000000000
IV:                       00000000000000000000000000000000
Plaintext:                00000002000000000000000000000000
Ciphertext:               761c68bc2eb1912a8edc71807c4f291f761c68be2eb1912a8edc71807c4f291f
Reciphers for ciphertext: 0
Decipheredtext:           00000002000000000000000000000000
RESULT CIPHER-DECIPHER: -----OK-----


Test: 31
Symmetric key bit length: 128
IV bit length:            128
Plaintext bit length:     128
Symmetric key:            00000000000000000000000000000000
IV:                       00000000000000000000000000000000
Plaintext:                00000001000000000000000000000000
Ciphertext:               761c68bc2eb1912a8edc71807c4f291f761c68bd2eb1912a8edc71807c4f291f
Reciphers for ciphertext: 0
Decipheredtext:           00000001000000000000000000000000
RESULT CIPHER-DECIPHER: -----OK-----


Test: 32
Symmetric key bit length: 128
IV bit length:            128
Plaintext bit length:     128
Symmetric key:            00000000000000000000000000000000
IV:                       00000000000000000000000000000000
Plaintext:                00000000800000000000000000000000
Ciphertext:               761c68bc2eb1912a8edc71807c4f291f761c68bcaeb1912a8edc71807c4f291f
Reciphers for ciphertext: 0
Decipheredtext:           00000000800000000000000000000000
RESULT CIPHER-DECIPHER: -----OK-----


Test: 33
Symmetric key bit length: 128
IV bit length:            128
Plaintext bit length:     128
Symmetric key:            00000000000000000000000000000000
IV:                       00000000000000000000000000000000
Plaintext:                00000000400000000000000000000000
Ciphertext:               761c68bc2eb1912a8edc71807c4f291f761c68bc6eb1912a8edc71807c4f291f
Reciphers for ciphertext: 0
Decipheredtext:           00000000400000000000000000000000
RESULT CIPHER-DECIPHER: -----OK-----


Test: 34
Symmetric key bit length: 128
IV bit length:            128
Plaintext bit length:     128
Symmetric key:            00000000000000000000000000000000
IV:                       00000000000000000000000000000000
Plaintext:                00000000200000000000000000000000
Ciphertext:               761c68bc2eb1912a8edc71807c4f291f761c68bc0eb1912a8edc71807c4f291f
Reciphers for ciphertext: 0
Decipheredtext:           00000000200000000000000000000000
RESULT CIPHER-DECIPHER: -----OK-----


Test: 35
Symmetric key bit length: 128
IV bit length:            128
Plaintext bit length:     128
Symmetric key:            00000000000000000000000000000000
IV:                       00000000000000000000000000000000
Plaintext:                00000000100000000000000000000000
Ciphertext:               761c68bc2eb1912a8edc71807c4f291f761c68bc3eb1912a8edc71807c4f291f
Reciphers for ciphertext: 0
Decipheredtext:           00000000100000000000000000000000
RESULT CIPHER-DECIPHER: -----OK-----


Test: 36
Symmetric key bit length: 128
IV bit length:            128
Plaintext bit length:     128
Symmetric key:            00000000000000000000000000000000
IV:                       00000000000000000000000000000000
Plaintext:                00000000080000000000000000000000
Ciphertext:               761c68bc2eb1912a8edc71807c4f291f761c68bc26b1912a8edc71807c4f291f
Reciphers for ciphertext: 0
Decipheredtext:           00000000080000000000000000000000
RESULT CIPHER-DECIPHER: -----OK-----


Test: 37
Symmetric key bit length: 128
IV bit length:            128
Plaintext bit length:     128
Symmetric key:            00000000000000000000000000000000
IV:                       00000000000000000000000000000000
Plaintext:                00000000040000000000000000000000
Ciphertext:               761c68bc2eb1912a8edc71807c4f291f761c68bc2ab1912a8edc71807c4f291f
Reciphers for ciphertext: 0
Decipheredtext:           00000000040000000000000000000000
RESULT CIPHER-DECIPHER: -----OK-----


Test: 38
Symmetric key bit length: 128
IV bit length:            128
Plaintext bit length:     128
Symmetric key:            00000000000000000000000000000000
IV:                       00000000000000000000000000000000
Plaintext:                00000000020000000000000000000000
Ciphertext:               761c68bc2eb1912a8edc71807c4f291f761c68bc2cb1912a8edc71807c4f291f
Reciphers for ciphertext: 0
Decipheredtext:           00000000020000000000000000000000
RESULT CIPHER-DECIPHER: -----OK-----


Test: 39
Symmetric key bit length: 128
IV bit length:            128
Plaintext bit length:     128
Symmetric key:            00000000000000000000000000000000
IV:                       00000000000000000000000000000000
Plaintext:                00000000010000000000000000000000
Ciphertext:               761c68bc2eb1912a8edc71807c4f291f761c68bc2fb1912a8edc71807c4f291f
Reciphers for ciphertext: 0
Decipheredtext:           00000000010000000000000000000000
RESULT CIPHER-DECIPHER: -----OK-----


Test: 40
Symmetric key bit length: 128
IV bit length:            128
Plaintext bit length:     128
Symmetric key:            00000000000000000000000000000000
IV:                       00000000000000000000000000000000
Plaintext:                00000000008000000000000000000000
Ciphertext:               761c68bc2eb1912a8edc71807c4f291f761c68bc2e31912a8edc71807c4f291f
Reciphers for ciphertext: 0
Decipheredtext:           00000000008000000000000000000000
RESULT CIPHER-DECIPHER: -----OK-----


Test: 41
Symmetric key bit length: 128
IV bit length:            128
Plaintext bit length:     128
Symmetric key:            00000000000000000000000000000000
IV:                       00000000000000000000000000000000
Plaintext:                00000000004000000000000000000000
Ciphertext:               761c68bc2eb1912a8edc71807c4f291f761c68bc2ef1912a8edc71807c4f291f
Reciphers for ciphertext: 0
Decipheredtext:           00000000004000000000000000000000
RESULT CIPHER-DECIPHER: -----OK-----


Test: 42
Symmetric key bit length: 128
IV bit length:            128
Plaintext bit length:     128
Symmetric key:            00000000000000000000000000000000
IV:                       00000000000000000000000000000000
Plaintext:                00000000002000000000000000000000
Ciphertext:               761c68bc2eb1912a8edc71807c4f291f761c68bc2e91912a8edc71807c4f291f
Reciphers for ciphertext: 0
Decipheredtext:           00000000002000000000000000000000
RESULT CIPHER-DECIPHER: -----OK-----


Test: 43
Symmetric key bit length: 128
IV bit length:            128
Plaintext bit length:     128
Symmetric key:            00000000000000000000000000000000
IV:                       00000000000000000000000000000000
Plaintext:                00000000001000000000000000000000
Ciphertext:               761c68bc2eb1912a8edc71807c4f291f761c68bc2ea1912a8edc71807c4f291f
Reciphers for ciphertext: 0
Decipheredtext:           00000000001000000000000000000000
RESULT CIPHER-DECIPHER: -----OK-----


Test: 44
Symmetric key bit length: 128
IV bit length:            128
Plaintext bit length:     128
Symmetric key:            00000000000000000000000000000000
IV:                       00000000000000000000000000000000
Plaintext:                00000000000800000000000000000000
Ciphertext:               761c68bc2eb1912a8edc71807c4f291f761c68bc2eb9912a8edc71807c4f291f
Reciphers for ciphertext: 0
Decipheredtext:           00000000000800000000000000000000
RESULT CIPHER-DECIPHER: -----OK-----


Test: 45
Symmetric key bit length: 128
IV bit length:            128
Plaintext bit length:     128
Symmetric key:            00000000000000000000000000000000
IV:                       00000000000000000000000000000000
Plaintext:                00000000000400000000000000000000
Ciphertext:               761c68bc2eb1912a8edc71807c4f291f761c68bc2eb5912a8edc71807c4f291f
Reciphers for ciphertext: 0
Decipheredtext:           00000000000400000000000000000000
RESULT CIPHER-DECIPHER: -----OK-----


Test: 46
Symmetric key bit length: 128
IV bit length:            128
Plaintext bit length:     128
Symmetric key:            00000000000000000000000000000000
IV:                       00000000000000000000000000000000
Plaintext:                00000000000200000000000000000000
Ciphertext:               761c68bc2eb1912a8edc71807c4f291f761c68bc2eb3912a8edc71807c4f291f
Reciphers for ciphertext: 0
Decipheredtext:           00000000000200000000000000000000
RESULT CIPHER-DECIPHER: -----OK-----


Test: 47
Symmetric key bit length: 128
IV bit length:            128
Plaintext bit length:     128
Symmetric key:            00000000000000000000000000000000
IV:                       00000000000000000000000000000000
Plaintext:                00000000000100000000000000000000
Ciphertext:               761c68bc2eb1912a8edc71807c4f291f761c68bc2eb0912a8edc71807c4f291f
Reciphers for ciphertext: 0
Decipheredtext:           00000000000100000000000000000000
RESULT CIPHER-DECIPHER: -----OK-----


Test: 48
Symmetric key bit length: 128
IV bit length:            128
Plaintext bit length:     128
Symmetric key:            00000000000000000000000000000000
IV:                       00000000000000000000000000000000
Plaintext:                00000000000080000000000000000000
Ciphertext:               761c68bc2eb1912a8edc71807c4f291f761c68bc2eb1112a8edc71807c4f291f
Reciphers for ciphertext: 0
Decipheredtext:           00000000000080000000000000000000
RESULT CIPHER-DECIPHER: -----OK-----


Test: 49
Symmetric key bit length: 128
IV bit length:            128
Plaintext bit length:     128
Symmetric key:            00000000000000000000000000000000
IV:                       00000000000000000000000000000000
Plaintext:                00000000000040000000000000000000
Ciphertext:               761c68bc2eb1912a8edc71807c4f291f761c68bc2eb1d12a8edc71807c4f291f
Reciphers for ciphertext: 0
Decipheredtext:           00000000000040000000000000000000
RESULT CIPHER-DECIPHER: -----OK-----


Test: 50
Symmetric key bit length: 128
IV bit length:            128
Plaintext bit length:     128
Symmetric key:            00000000000000000000000000000000
IV:                       00000000000000000000000000000000
Plaintext:                00000000000020000000000000000000
Ciphertext:               761c68bc2eb1912a8edc71807c4f291f761c68bc2eb1b12a8edc71807c4f291f
Reciphers for ciphertext: 0
Decipheredtext:           00000000000020000000000000000000
RESULT CIPHER-DECIPHER: -----OK-----


Test: 51
Symmetric key bit length: 128
IV bit length:            128
Plaintext bit length:     128
Symmetric key:            00000000000000000000000000000000
IV:                       00000000000000000000000000000000
Plaintext:                00000000000010000000000000000000
Ciphertext:               761c68bc2eb1912a8edc71807c4f291f761c68bc2eb1812a8edc71807c4f291f
Reciphers for ciphertext: 0
Decipheredtext:           00000000000010000000000000000000
RESULT CIPHER-DECIPHER: -----OK-----


Test: 52
Symmetric key bit length: 128
IV bit length:            128
Plaintext bit length:     128
Symmetric key:            00000000000000000000000000000000
IV:                       00000000000000000000000000000000
Plaintext:                00000000000008000000000000000000
Ciphertext:               761c68bc2eb1912a8edc71807c4f291f761c68bc2eb1992a8edc71807c4f291f
Reciphers for ciphertext: 0
Decipheredtext:           00000000000008000000000000000000
RESULT CIPHER-DECIPHER: -----OK-----


Test: 53
Symmetric key bit length: 128
IV bit length:            128
Plaintext bit length:     128
Symmetric key:            00000000000000000000000000000000
IV:                       00000000000000000000000000000000
Plaintext:                00000000000004000000000000000000
Ciphertext:               761c68bc2eb1912a8edc71807c4f291f761c68bc2eb1952a8edc71807c4f291f
Reciphers for ciphertext: 0
Decipheredtext:           00000000000004000000000000000000
RESULT CIPHER-DECIPHER: -----OK-----


Test: 54
Symmetric key bit length: 128
IV bit length:            128
Plaintext bit length:     128
Symmetric key:            00000000000000000000000000000000
IV:                       00000000000000000000000000000000
Plaintext:                00000000000002000000000000000000
Ciphertext:               761c68bc2eb1912a8edc71807c4f291f761c68bc2eb1932a8edc71807c4f291f
Reciphers for ciphertext: 0
Decipheredtext:           00000000000002000000000000000000
RESULT CIPHER-DECIPHER: -----OK-----


Test: 55
Symmetric key bit length: 128
IV bit length:            128
Plaintext bit length:     128
Symmetric key:            00000000000000000000000000000000
IV:                       00000000000000000000000000000000
Plaintext:                00000000000001000000000000000000
Ciphertext:               761c68bc2eb1912a8edc71807c4f291f761c68bc2eb1902a8edc71807c4f291f
Reciphers for ciphertext: 0
Decipheredtext:           00000000000001000000000000000000
RESULT CIPHER-DECIPHER: -----OK-----


Test: 56
Symmetric key bit length: 128
IV bit length:            128
Plaintext bit length:     128
Symmetric key:            00000000000000000000000000000000
IV:                       00000000000000000000000000000000
Plaintext:                00000000000000800000000000000000
Ciphertext:               761c68bc2eb1912a8edc71807c4f291f761c68bc2eb191aa8edc71807c4f291f
Reciphers for ciphertext: 0
Decipheredtext:           00000000000000800000000000000000
RESULT CIPHER-DECIPHER: -----OK-----


Test: 57
Symmetric key bit length: 128
IV bit length:            128
Plaintext bit length:     128
Symmetric key:            00000000000000000000000000000000
IV:                       00000000000000000000000000000000
Plaintext:                00000000000000400000000000000000
Ciphertext:               761c68bc2eb1912a8edc71807c4f291f761c68bc2eb1916a8edc71807c4f291f
Reciphers for ciphertext: 0
Decipheredtext:           00000000000000400000000000000000
RESULT CIPHER-DECIPHER: -----OK-----


Test: 58
Symmetric key bit length: 128
IV bit length:            128
Plaintext bit length:     128
Symmetric key:            00000000000000000000000000000000
IV:                       00000000000000000000000000000000
Plaintext:                00000000000000200000000000000000
Ciphertext:               761c68bc2eb1912a8edc71807c4f291f761c68bc2eb1910a8edc71807c4f291f
Reciphers for ciphertext: 0
Decipheredtext:           00000000000000200000000000000000
RESULT CIPHER-DECIPHER: -----OK-----


Test: 59
Symmetric key bit length: 128
IV bit length:            128
Plaintext bit length:     128
Symmetric key:            00000000000000000000000000000000
IV:                       00000000000000000000000000000000
Plaintext:                00000000000000100000000000000000
Ciphertext:               761c68bc2eb1912a8edc71807c4f291f761c68bc2eb1913a8edc71807c4f291f
Reciphers for ciphertext: 0
Decipheredtext:           00000000000000100000000000000000
RESULT CIPHER-DECIPHER: -----OK-----


Test: 60
Symmetric key bit length: 128
IV bit length:            128
Plaintext bit length:     128
Symmetric key:            00000000000000000000000000000000
IV:                       00000000000000000000000000000000
Plaintext:                00000000000000080000000000000000
Ciphertext:               761c68bc2eb1912a8edc71807c4f291f761c68bc2eb191228edc71807c4f291f
Reciphers for ciphertext: 0
Decipheredtext:           00000000000000080000000000000000
RESULT CIPHER-DECIPHER: -----OK-----


Test: 61
Symmetric key bit length: 128
IV bit length:            128
Plaintext bit length:     128
Symmetric key:            00000000000000000000000000000000
IV:                       00000000000000000000000000000000
Plaintext:                00000000000000040000000000000000
Ciphertext:               761c68bc2eb1912a8edc71807c4f291f761c68bc2eb1912e8edc71807c4f291f
Reciphers for ciphertext: 0
Decipheredtext:           00000000000000040000000000000000
RESULT CIPHER-DECIPHER: -----OK-----


Test: 62
Symmetric key bit length: 128
IV bit length:            128
Plaintext bit length:     128
Symmetric key:            00000000000000000000000000000000
IV:                       00000000000000000000000000000000
Plaintext:                00000000000000020000000000000000
Ciphertext:               761c68bc2eb1912a8edc71807c4f291f761c68bc2eb191288edc71807c4f291f
Reciphers for ciphertext: 0
Decipheredtext:           00000000000000020000000000000000
RESULT CIPHER-DECIPHER: -----OK-----


Test: 63
Symmetric key bit length: 128
IV bit length:            128
Plaintext bit length:     128
Symmetric key:            00000000000000000000000000000000
IV:                       00000000000000000000000000000000
Plaintext:                00000000000000010000000000000000
Ciphertext:               761c68bc2eb1912a8edc71807c4f291f761c68bc2eb1912b8edc71807c4f291f
Reciphers for ciphertext: 0
Decipheredtext:           00000000000000010000000000000000
RESULT CIPHER-DECIPHER: -----OK-----


Test: 64
Symmetric key bit length: 128
IV bit length:            128
Plaintext bit length:     128
Symmetric key:            00000000000000000000000000000000
IV:                       00000000000000000000000000000000
Plaintext:                00000000000000008000000000000000
Ciphertext:               761c68bc2eb1912a8edc71807c4f291f761c68bc2eb1912a0edc71807c4f291f
Reciphers for ciphertext: 0
Decipheredtext:           00000000000000008000000000000000
RESULT CIPHER-DECIPHER: -----OK-----


Test: 65
Symmetric key bit length: 128
IV bit length:            128
Plaintext bit length:     128
Symmetric key:            00000000000000000000000000000000
IV:                       00000000000000000000000000000000
Plaintext:                00000000000000004000000000000000
Ciphertext:               761c68bc2eb1912a8edc71807c4f291f761c68bc2eb1912acedc71807c4f291f
Reciphers for ciphertext: 0
Decipheredtext:           00000000000000004000000000000000
RESULT CIPHER-DECIPHER: -----OK-----


Test: 66
Symmetric key bit length: 128
IV bit length:            128
Plaintext bit length:     128
Symmetric key:            00000000000000000000000000000000
IV:                       00000000000000000000000000000000
Plaintext:                00000000000000002000000000000000
Ciphertext:               761c68bc2eb1912a8edc71807c4f291f761c68bc2eb1912aaedc71807c4f291f
Reciphers for ciphertext: 0
Decipheredtext:           00000000000000002000000000000000
RESULT CIPHER-DECIPHER: -----OK-----


Test: 67
Symmetric key bit length: 128
IV bit length:            128
Plaintext bit length:     128
Symmetric key:            00000000000000000000000000000000
IV:                       00000000000000000000000000000000
Plaintext:                00000000000000001000000000000000
Ciphertext:               761c68bc2eb1912a8edc71807c4f291f761c68bc2eb1912a9edc71807c4f291f
Reciphers for ciphertext: 0
Decipheredtext:           00000000000000001000000000000000
RESULT CIPHER-DECIPHER: -----OK-----


Test: 68
Symmetric key bit length: 128
IV bit length:            128
Plaintext bit length:     128
Symmetric key:            00000000000000000000000000000000
IV:                       00000000000000000000000000000000
Plaintext:                00000000000000000800000000000000
Ciphertext:               761c68bc2eb1912a8edc71807c4f291f761c68bc2eb1912a86dc71807c4f291f
Reciphers for ciphertext: 0
Decipheredtext:           00000000000000000800000000000000
RESULT CIPHER-DECIPHER: -----OK-----


Test: 69
Symmetric key bit length: 128
IV bit length:            128
Plaintext bit length:     128
Symmetric key:            00000000000000000000000000000000
IV:                       00000000000000000000000000000000
Plaintext:                00000000000000000400000000000000
Ciphertext:               761c68bc2eb1912a8edc71807c4f291f761c68bc2eb1912a8adc71807c4f291f
Reciphers for ciphertext: 0
Decipheredtext:           00000000000000000400000000000000
RESULT CIPHER-DECIPHER: -----OK-----


Test: 70
Symmetric key bit length: 128
IV bit length:            128
Plaintext bit length:     128
Symmetric key:            00000000000000000000000000000000
IV:                       00000000000000000000000000000000
Plaintext:                00000000000000000200000000000000
Ciphertext:               761c68bc2eb1912a8edc71807c4f291f761c68bc2eb1912a8cdc71807c4f291f
Reciphers for ciphertext: 0
Decipheredtext:           00000000000000000200000000000000
RESULT CIPHER-DECIPHER: -----OK-----


Test: 71
Symmetric key bit length: 128
IV bit length:            128
Plaintext bit length:     128
Symmetric key:            00000000000000000000000000000000
IV:                       00000000000000000000000000000000
Plaintext:                00000000000000000100000000000000
Ciphertext:               761c68bc2eb1912a8edc71807c4f291f761c68bc2eb1912a8fdc71807c4f291f
Reciphers for ciphertext: 0
Decipheredtext:           00000000000000000100000000000000
RESULT CIPHER-DECIPHER: -----OK-----


Test: 72
Symmetric key bit length: 128
IV bit length:            128
Plaintext bit length:     128
Symmetric key:            00000000000000000000000000000000
IV:                       00000000000000000000000000000000
Plaintext:                00000000000000000080000000000000
Ciphertext:               761c68bc2eb1912a8edc71807c4f291f761c68bc2eb1912a8e5c71807c4f291f
Reciphers for ciphertext: 0
Decipheredtext:           00000000000000000080000000000000
RESULT CIPHER-DECIPHER: -----OK-----


Test: 73
Symmetric key bit length: 128
IV bit length:            128
Plaintext bit length:     128
Symmetric key:            00000000000000000000000000000000
IV:                       00000000000000000000000000000000
Plaintext:                00000000000000000040000000000000
Ciphertext:               761c68bc2eb1912a8edc71807c4f291f761c68bc2eb1912a8e9c71807c4f291f
Reciphers for ciphertext: 0
Decipheredtext:           00000000000000000040000000000000
RESULT CIPHER-DECIPHER: -----OK-----


Test: 74
Symmetric key bit length: 128
IV bit length:            128
Plaintext bit length:     128
Symmetric key:            00000000000000000000000000000000
IV:                       00000000000000000000000000000000
Plaintext:                00000000000000000020000000000000
Ciphertext:               761c68bc2eb1912a8edc71807c4f291f761c68bc2eb1912a8efc71807c4f291f
Reciphers for ciphertext: 0
Decipheredtext:           00000000000000000020000000000000
RESULT CIPHER-DECIPHER: -----OK-----


Test: 75
Symmetric key bit length: 128
IV bit length:            128
Plaintext bit length:     128
Symmetric key:            00000000000000000000000000000000
IV:                       00000000000000000000000000000000
Plaintext:                00000000000000000010000000000000
Ciphertext:               761c68bc2eb1912a8edc71807c4f291f761c68bc2eb1912a8ecc71807c4f291f
Reciphers for ciphertext: 0
Decipheredtext:           00000000000000000010000000000000
RESULT CIPHER-DECIPHER: -----OK-----


Test: 76
Symmetric key bit length: 128
IV bit length:            128
Plaintext bit length:     128
Symmetric key:            00000000000000000000000000000000
IV:                       00000000000000000000000000000000
Plaintext:                00000000000000000008000000000000
Ciphertext:               761c68bc2eb1912a8edc71807c4f291f761c68bc2eb1912a8ed471807c4f291f
Reciphers for ciphertext: 0
Decipheredtext:           00000000000000000008000000000000
RESULT CIPHER-DECIPHER: -----OK-----


Test: 77
Symmetric key bit length: 128
IV bit length:            128
Plaintext bit length:     128
Symmetric key:            00000000000000000000000000000000
IV:                       00000000000000000000000000000000
Plaintext:                00000000000000000004000000000000
Ciphertext:               761c68bc2eb1912a8edc71807c4f291f761c68bc2eb1912a8ed871807c4f291f
Reciphers for ciphertext: 0
Decipheredtext:           00000000000000000004000000000000
RESULT CIPHER-DECIPHER: -----OK-----


Test: 78
Symmetric key bit length: 128
IV bit length:            128
Plaintext bit length:     128
Symmetric key:            00000000000000000000000000000000
IV:                       00000000000000000000000000000000
Plaintext:                00000000000000000002000000000000
Ciphertext:               761c68bc2eb1912a8edc71807c4f291f761c68bc2eb1912a8ede71807c4f291f
Reciphers for ciphertext: 0
Decipheredtext:           00000000000000000002000000000000
RESULT CIPHER-DECIPHER: -----OK-----


Test: 79
Symmetric key bit length: 128
IV bit length:            128
Plaintext bit length:     128
Symmetric key:            00000000000000000000000000000000
IV:                       00000000000000000000000000000000
Plaintext:                00000000000000000001000000000000
Ciphertext:               761c68bc2eb1912a8edc71807c4f291f761c68bc2eb1912a8edd71807c4f291f
Reciphers for ciphertext: 0
Decipheredtext:           00000000000000000001000000000000
RESULT CIPHER-DECIPHER: -----OK-----


Test: 80
Symmetric key bit length: 128
IV bit length:            128
Plaintext bit length:     128
Symmetric key:            00000000000000000000000000000000
IV:                       00000000000000000000000000000000
Plaintext:                00000000000000000000800000000000
Ciphertext:               761c68bc2eb1912a8edc71807c4f291f761c68bc2eb1912a8edcf1807c4f291f
Reciphers for ciphertext: 0
Decipheredtext:           00000000000000000000800000000000
RESULT CIPHER-DECIPHER: -----OK-----


Test: 81
Symmetric key bit length: 128
IV bit length:            128
Plaintext bit length:     128
Symmetric key:            00000000000000000000000000000000
IV:                       00000000000000000000000000000000
Plaintext:                00000000000000000000400000000000
Ciphertext:               761c68bc2eb1912a8edc71807c4f291f761c68bc2eb1912a8edc31807c4f291f
Reciphers for ciphertext: 0
Decipheredtext:           00000000000000000000400000000000
RESULT CIPHER-DECIPHER: -----OK-----


Test: 82
Symmetric key bit length: 128
IV bit length:            128
Plaintext bit length:     128
Symmetric key:            00000000000000000000000000000000
IV:                       00000000000000000000000000000000
Plaintext:                00000000000000000000200000000000
Ciphertext:               761c68bc2eb1912a8edc71807c4f291f761c68bc2eb1912a8edc51807c4f291f
Reciphers for ciphertext: 0
Decipheredtext:           00000000000000000000200000000000
RESULT CIPHER-DECIPHER: -----OK-----


Test: 83
Symmetric key bit length: 128
IV bit length:            128
Plaintext bit length:     128
Symmetric key:            00000000000000000000000000000000
IV:                       00000000000000000000000000000000
Plaintext:                00000000000000000000100000000000
Ciphertext:               761c68bc2eb1912a8edc71807c4f291f761c68bc2eb1912a8edc61807c4f291f
Reciphers for ciphertext: 0
Decipheredtext:           00000000000000000000100000000000
RESULT CIPHER-DECIPHER: -----OK-----


Test: 84
Symmetric key bit length: 128
IV bit length:            128
Plaintext bit length:     128
Symmetric key:            00000000000000000000000000000000
IV:                       00000000000000000000000000000000
Plaintext:                00000000000000000000080000000000
Ciphertext:               761c68bc2eb1912a8edc71807c4f291f761c68bc2eb1912a8edc79807c4f291f
Reciphers for ciphertext: 0
Decipheredtext:           00000000000000000000080000000000
RESULT CIPHER-DECIPHER: -----OK-----


Test: 85
Symmetric key bit length: 128
IV bit length:            128
Plaintext bit length:     128
Symmetric key:            00000000000000000000000000000000
IV:                       00000000000000000000000000000000
Plaintext:                00000000000000000000040000000000
Ciphertext:               761c68bc2eb1912a8edc71807c4f291f761c68bc2eb1912a8edc75807c4f291f
Reciphers for ciphertext: 0
Decipheredtext:           00000000000000000000040000000000
RESULT CIPHER-DECIPHER: -----OK-----


Test: 86
Symmetric key bit length: 128
IV bit length:            128
Plaintext bit length:     128
Symmetric key:            00000000000000000000000000000000
IV:                       00000000000000000000000000000000
Plaintext:                00000000000000000000020000000000
Ciphertext:               761c68bc2eb1912a8edc71807c4f291f761c68bc2eb1912a8edc73807c4f291f
Reciphers for ciphertext: 0
Decipheredtext:           00000000000000000000020000000000
RESULT CIPHER-DECIPHER: -----OK-----


Test: 87
Symmetric key bit length: 128
IV bit length:            128
Plaintext bit length:     128
Symmetric key:            00000000000000000000000000000000
IV:                       00000000000000000000000000000000
Plaintext:                00000000000000000000010000000000
Ciphertext:               761c68bc2eb1912a8edc71807c4f291f761c68bc2eb1912a8edc70807c4f291f
Reciphers for ciphertext: 0
Decipheredtext:           00000000000000000000010000000000
RESULT CIPHER-DECIPHER: -----OK-----


Test: 88
Symmetric key bit length: 128
IV bit length:            128
Plaintext bit length:     128
Symmetric key:            00000000000000000000000000000000
IV:                       00000000000000000000000000000000
Plaintext:                00000000000000000000008000000000
Ciphertext:               761c68bc2eb1912a8edc71807c4f291f761c68bc2eb1912a8edc71007c4f291f
Reciphers for ciphertext: 0
Decipheredtext:           00000000000000000000008000000000
RESULT CIPHER-DECIPHER: -----OK-----


Test: 89
Symmetric key bit length: 128
IV bit length:            128
Plaintext bit length:     128
Symmetric key:            00000000000000000000000000000000
IV:                       00000000000000000000000000000000
Plaintext:                00000000000000000000004000000000
Ciphertext:               761c68bc2eb1912a8edc71807c4f291f761c68bc2eb1912a8edc71c07c4f291f
Reciphers for ciphertext: 0
Decipheredtext:           00000000000000000000004000000000
RESULT CIPHER-DECIPHER: -----OK-----


Test: 90
Symmetric key bit length: 128
IV bit length:            128
Plaintext bit length:     128
Symmetric key:            00000000000000000000000000000000
IV:                       00000000000000000000000000000000
Plaintext:                00000000000000000000002000000000
Ciphertext:               761c68bc2eb1912a8edc71807c4f291f761c68bc2eb1912a8edc71a07c4f291f
Reciphers for ciphertext: 0
Decipheredtext:           00000000000000000000002000000000
RESULT CIPHER-DECIPHER: -----OK-----


Test: 91
Symmetric key bit length: 128
IV bit length:            128
Plaintext bit length:     128
Symmetric key:            00000000000000000000000000000000
IV:                       00000000000000000000000000000000
Plaintext:                00000000000000000000001000000000
Ciphertext:               761c68bc2eb1912a8edc71807c4f291f761c68bc2eb1912a8edc71907c4f291f
Reciphers for ciphertext: 0
Decipheredtext:           00000000000000000000001000000000
RESULT CIPHER-DECIPHER: -----OK-----


Test: 92
Symmetric key bit length: 128
IV bit length:            128
Plaintext bit length:     128
Symmetric key:            00000000000000000000000000000000
IV:                       00000000000000000000000000000000
Plaintext:                00000000000000000000000800000000
Ciphertext:               761c68bc2eb1912a8edc71807c4f291f761c68bc2eb1912a8edc71887c4f291f
Reciphers for ciphertext: 0
Decipheredtext:           00000000000000000000000800000000
RESULT CIPHER-DECIPHER: -----OK-----


Test: 93
Symmetric key bit length: 128
IV bit length:            128
Plaintext bit length:     128
Symmetric key:            00000000000000000000000000000000
IV:                       00000000000000000000000000000000
Plaintext:                00000000000000000000000400000000
Ciphertext:               761c68bc2eb1912a8edc71807c4f291f761c68bc2eb1912a8edc71847c4f291f
Reciphers for ciphertext: 0
Decipheredtext:           00000000000000000000000400000000
RESULT CIPHER-DECIPHER: -----OK-----


Test: 94
Symmetric key bit length: 128
IV bit length:            128
Plaintext bit length:     128
Symmetric key:            00000000000000000000000000000000
IV:                       00000000000000000000000000000000
Plaintext:                00000000000000000000000200000000
Ciphertext:               761c68bc2eb1912a8edc71807c4f291f761c68bc2eb1912a8edc71827c4f291f
Reciphers for ciphertext: 0
Decipheredtext:           00000000000000000000000200000000
RESULT CIPHER-DECIPHER: -----OK-----


Test: 95
Symmetric key bit length: 128
IV bit length:            128
Plaintext bit length:     128
Symmetric key:            00000000000000000000000000000000
IV:                       00000000000000000000000000000000
Plaintext:                00000000000000000000000100000000
Ciphertext:               761c68bc2eb1912a8edc71807c4f291f761c68bc2eb1912a8edc71817c4f291f
Reciphers for ciphertext: 0
Decipheredtext:           00000000000000000000000100000000
RESULT CIPHER-DECIPHER: -----OK-----


Test: 96
Symmetric key bit length: 128
IV bit length:            128
Plaintext bit length:     128
Symmetric key:            00000000000000000000000000000000
IV:                       00000000000000000000000000000000
Plaintext:                00000000000000000000000080000000
Ciphertext:               761c68bc2eb1912a8edc71807c4f291f761c68bc2eb1912a8edc7180fc4f291f
Reciphers for ciphertext: 0
Decipheredtext:           00000000000000000000000080000000
RESULT CIPHER-DECIPHER: -----OK-----


Test: 97
Symmetric key bit length: 128
IV bit length:            128
Plaintext bit length:     128
Symmetric key:            00000000000000000000000000000000
IV:                       00000000000000000000000000000000
Plaintext:                00000000000000000000000040000000
Ciphertext:               761c68bc2eb1912a8edc71807c4f291f761c68bc2eb1912a8edc71803c4f291f
Reciphers for ciphertext: 0
Decipheredtext:           00000000000000000000000040000000
RESULT CIPHER-DECIPHER: -----OK-----


Test: 98
Symmetric key bit length: 128
IV bit length:            128
Plaintext bit length:     128
Symmetric key:            00000000000000000000000000000000
IV:                       00000000000000000000000000000000
Plaintext:                00000000000000000000000020000000
Ciphertext:               761c68bc2eb1912a8edc71807c4f291f761c68bc2eb1912a8edc71805c4f291f
Reciphers for ciphertext: 0
Decipheredtext:           00000000000000000000000020000000
RESULT CIPHER-DECIPHER: -----OK-----


Test: 99
Symmetric key bit length: 128
IV bit length:            128
Plaintext bit length:     128
Symmetric key:            00000000000000000000000000000000
IV:                       00000000000000000000000000000000
Plaintext:                00000000000000000000000010000000
Ciphertext:               761c68bc2eb1912a8edc71807c4f291f761c68bc2eb1912a8edc71806c4f291f
Reciphers for ciphertext: 0
Decipheredtext:           00000000000000000000000010000000
RESULT CIPHER-DECIPHER: -----OK-----


Test: 100
Symmetric key bit length: 128
IV bit length:            128
Plaintext bit length:     128
Symmetric key:            00000000000000000000000000000000
IV:                       00000000000000000000000000000000
Plaintext:                00000000000000000000000008000000
Ciphertext:               761c68bc2eb1912a8edc71807c4f291f761c68bc2eb1912a8edc7180744f291f
Reciphers for ciphertext: 0
Decipheredtext:           00000000000000000000000008000000
RESULT CIPHER-DECIPHER: -----OK-----


Test: 101
Symmetric key bit length: 128
IV bit length:            128
Plaintext bit length:     128
Symmetric key:            00000000000000000000000000000000
IV:                       00000000000000000000000000000000
Plaintext:                00000000000000000000000004000000
Ciphertext:               761c68bc2eb1912a8edc71807c4f291f761c68bc2eb1912a8edc7180784f291f
Reciphers for ciphertext: 0
Decipheredtext:           00000000000000000000000004000000
RESULT CIPHER-DECIPHER: -----OK-----


Test: 102
Symmetric key bit length: 128
IV bit length:            128
Plaintext bit length:     128
Symmetric key:            00000000000000000000000000000000
IV:                       00000000000000000000000000000000
Plaintext:                00000000000000000000000002000000
Ciphertext:               761c68bc2eb1912a8edc71807c4f291f761c68bc2eb1912a8edc71807e4f291f
Reciphers for ciphertext: 0
Decipheredtext:           00000000000000000000000002000000
RESULT CIPHER-DECIPHER: -----OK-----


Test: 103
Symmetric key bit length: 128
IV bit length:            128
Plaintext bit length:     128
Symmetric key:            00000000000000000000000000000000
IV:                       00000000000000000000000000000000
Plaintext:                00000000000000000000000001000000
Ciphertext:               761c68bc2eb1912a8edc71807c4f291f761c68bc2eb1912a8edc71807d4f291f
Reciphers for ciphertext: 0
Decipheredtext:           00000000000000000000000001000000
RESULT CIPHER-DECIPHER: -----OK-----


Test: 104
Symmetric key bit length: 128
IV bit length:            128
Plaintext bit length:     128
Symmetric key:            00000000000000000000000000000000
IV:                       00000000000000000000000000000000
Plaintext:                00000000000000000000000000800000
Ciphertext:               761c68bc2eb1912a8edc71807c4f291f761c68bc2eb1912a8edc71807ccf291f
Reciphers for ciphertext: 0
Decipheredtext:           00000000000000000000000000800000
RESULT CIPHER-DECIPHER: -----OK-----


Test: 105
Symmetric key bit length: 128
IV bit length:            128
Plaintext bit length:     128
Symmetric key:            00000000000000000000000000000000
IV:                       00000000000000000000000000000000
Plaintext:                00000000000000000000000000400000
Ciphertext:               761c68bc2eb1912a8edc71807c4f291f761c68bc2eb1912a8edc71807c0f291f
Reciphers for ciphertext: 0
Decipheredtext:           00000000000000000000000000400000
RESULT CIPHER-DECIPHER: -----OK-----


Test: 106
Symmetric key bit length: 128
IV bit length:            128
Plaintext bit length:     128
Symmetric key:            00000000000000000000000000000000
IV:                       00000000000000000000000000000000
Plaintext:                00000000000000000000000000200000
Ciphertext:               761c68bc2eb1912a8edc71807c4f291f761c68bc2eb1912a8edc71807c6f291f
Reciphers for ciphertext: 0
Decipheredtext:           00000000000000000000000000200000
RESULT CIPHER-DECIPHER: -----OK-----


Test: 107
Symmetric key bit length: 128
IV bit length:            128
Plaintext bit length:     128
Symmetric key:            00000000000000000000000000000000
IV:                       00000000000000000000000000000000
Plaintext:                00000000000000000000000000100000
Ciphertext:               761c68bc2eb1912a8edc71807c4f291f761c68bc2eb1912a8edc71807c5f291f
Reciphers for ciphertext: 0
Decipheredtext:           00000000000000000000000000100000
RESULT CIPHER-DECIPHER: -----OK-----


Test: 108
Symmetric key bit length: 128
IV bit length:            128
Plaintext bit length:     128
Symmetric key:            00000000000000000000000000000000
IV:                       00000000000000000000000000000000
Plaintext:                00000000000000000000000000080000
Ciphertext:               761c68bc2eb1912a8edc71807c4f291f761c68bc2eb1912a8edc71807c47291f
Reciphers for ciphertext: 0
Decipheredtext:           00000000000000000000000000080000
RESULT CIPHER-DECIPHER: -----OK-----


Test: 109
Symmetric key bit length: 128
IV bit length:            128
Plaintext bit length:     128
Symmetric key:            00000000000000000000000000000000
IV:                       00000000000000000000000000000000
Plaintext:                00000000000000000000000000040000
Ciphertext:               761c68bc2eb1912a8edc71807c4f291f761c68bc2eb1912a8edc71807c4b291f
Reciphers for ciphertext: 0
Decipheredtext:           00000000000000000000000000040000
RESULT CIPHER-DECIPHER: -----OK-----


Test: 110
Symmetric key bit length: 128
IV bit length:            128
Plaintext bit length:     128
Symmetric key:            00000000000000000000000000000000
IV:                       00000000000000000000000000000000
Plaintext:                00000000000000000000000000020000
Ciphertext:               761c68bc2eb1912a8edc71807c4f291f761c68bc2eb1912a8edc71807c4d291f
Reciphers for ciphertext: 0
Decipheredtext:           00000000000000000000000000020000
RESULT CIPHER-DECIPHER: -----OK-----


Test: 111
Symmetric key bit length: 128
IV bit length:            128
Plaintext bit length:     128
Symmetric key:            00000000000000000000000000000000
IV:                       00000000000000000000000000000000
Plaintext:                00000000000000000000000000010000
Ciphertext:               761c68bc2eb1912a8edc71807c4f291f761c68bc2eb1912a8edc71807c4e291f
Reciphers for ciphertext: 0
Decipheredtext:           00000000000000000000000000010000
RESULT CIPHER-DECIPHER: -----OK-----


Test: 112
Symmetric key bit length: 128
IV bit length:            128
Plaintext bit length:     128
Symmetric key:            00000000000000000000000000000000
IV:                       00000000000000000000000000000000
Plaintext:                00000000000000000000000000008000
Ciphertext:               761c68bc2eb1912a8edc71807c4f291f761c68bc2eb1912a8edc71807c4fa91f
Reciphers for ciphertext: 0
Decipheredtext:           00000000000000000000000000008000
RESULT CIPHER-DECIPHER: -----OK-----


Test: 113
Symmetric key bit length: 128
IV bit length:            128
Plaintext bit length:     128
Symmetric key:            00000000000000000000000000000000
IV:                       00000000000000000000000000000000
Plaintext:                00000000000000000000000000004000
Ciphertext:               761c68bc2eb1912a8edc71807c4f291f761c68bc2eb1912a8edc71807c4f691f
Reciphers for ciphertext: 0
Decipheredtext:           00000000000000000000000000004000
RESULT CIPHER-DECIPHER: -----OK-----


Test: 114
Symmetric key bit length: 128
IV bit length:            128
Plaintext bit length:     128
Symmetric key:            00000000000000000000000000000000
IV:                       00000000000000000000000000000000
Plaintext:                00000000000000000000000000002000
Ciphertext:               761c68bc2eb1912a8edc71807c4f291f761c68bc2eb1912a8edc71807c4f091f
Reciphers for ciphertext: 0
Decipheredtext:           00000000000000000000000000002000
RESULT CIPHER-DECIPHER: -----OK-----


Test: 115
Symmetric key bit length: 128
IV bit length:            128
Plaintext bit length:     128
Symmetric key:            00000000000000000000000000000000
IV:                       00000000000000000000000000000000
Plaintext:                00000000000000000000000000001000
Ciphertext:               761c68bc2eb1912a8edc71807c4f291f761c68bc2eb1912a8edc71807c4f391f
Reciphers for ciphertext: 0
Decipheredtext:           00000000000000000000000000001000
RESULT CIPHER-DECIPHER: -----OK-----


Test: 116
Symmetric key bit length: 128
IV bit length:            128
Plaintext bit length:     128
Symmetric key:            00000000000000000000000000000000
IV:                       00000000000000000000000000000000
Plaintext:                00000000000000000000000000000800
Ciphertext:               761c68bc2eb1912a8edc71807c4f291f761c68bc2eb1912a8edc71807c4f211f
Reciphers for ciphertext: 0
Decipheredtext:           00000000000000000000000000000800
RESULT CIPHER-DECIPHER: -----OK-----


Test: 117
Symmetric key bit length: 128
IV bit length:            128
Plaintext bit length:     128
Symmetric key:            00000000000000000000000000000000
IV:                       00000000000000000000000000000000
Plaintext:                00000000000000000000000000000400
Ciphertext:               761c68bc2eb1912a8edc71807c4f291f761c68bc2eb1912a8edc71807c4f2d1f
Reciphers for ciphertext: 0
Decipheredtext:           00000000000000000000000000000400
RESULT CIPHER-DECIPHER: -----OK-----


Test: 118
Symmetric key bit length: 128
IV bit length:            128
Plaintext bit length:     128
Symmetric key:            00000000000000000000000000000000
IV:                       00000000000000000000000000000000
Plaintext:                00000000000000000000000000000200
Ciphertext:               761c68bc2eb1912a8edc71807c4f291f761c68bc2eb1912a8edc71807c4f2b1f
Reciphers for ciphertext: 0
Decipheredtext:           00000000000000000000000000000200
RESULT CIPHER-DECIPHER: -----OK-----


Test: 119
Symmetric key bit length: 128
IV bit length:            128
Plaintext bit length:     128
Symmetric key:            00000000000000000000000000000000
IV:                       00000000000000000000000000000000
Plaintext:                00000000000000000000000000000100
Ciphertext:               761c68bc2eb1912a8edc71807c4f291f761c68bc2eb1912a8edc71807c4f281f
Reciphers for ciphertext: 0
Decipheredtext:           00000000000000000000000000000100
RESULT CIPHER-DECIPHER: -----OK-----


Test: 120
Symmetric key bit length: 128
IV bit length:            128
Plaintext bit length:     128
Symmetric key:            00000000000000000000000000000000
IV:                       00000000000000000000000000000000
Plaintext:                00000000000000000000000000000080
Ciphertext:               761c68bc2eb1912a8edc71807c4f291f761c68bc2eb1912a8edc71807c4f299f
Reciphers for ciphertext: 0
Decipheredtext:           00000000000000000000000000000080
RESULT CIPHER-DECIPHER: -----OK-----


Test: 121
Symmetric key bit length: 128
IV bit length:            128
Plaintext bit length:     128
Symmetric key:            00000000000000000000000000000000
IV:                       00000000000000000000000000000000
Plaintext:                00000000000000000000000000000040
Ciphertext:               761c68bc2eb1912a8edc71807c4f291f761c68bc2eb1912a8edc71807c4f295f
Reciphers for ciphertext: 0
Decipheredtext:           00000000000000000000000000000040
RESULT CIPHER-DECIPHER: -----OK-----


Test: 122
Symmetric key bit length: 128
IV bit length:            128
Plaintext bit length:     128
Symmetric key:            00000000000000000000000000000000
IV:                       00000000000000000000000000000000
Plaintext:                00000000000000000000000000000020
Ciphertext:               761c68bc2eb1912a8edc71807c4f291f761c68bc2eb1912a8edc71807c4f293f
Reciphers for ciphertext: 0
Decipheredtext:           00000000000000000000000000000020
RESULT CIPHER-DECIPHER: -----OK-----


Test: 123
Symmetric key bit length: 128
IV bit length:            128
Plaintext bit length:     128
Symmetric key:            00000000000000000000000000000000
IV:                       00000000000000000000000000000000
Plaintext:                00000000000000000000000000000010
Ciphertext:               761c68bc2eb1912a8edc71807c4f291f761c68bc2eb1912a8edc71807c4f290f
Reciphers for ciphertext: 0
Decipheredtext:           00000000000000000000000000000010
RESULT CIPHER-DECIPHER: -----OK-----


Test: 124
Symmetric key bit length: 128
IV bit length:            128
Plaintext bit length:     128
Symmetric key:            00000000000000000000000000000000
IV:                       00000000000000000000000000000000
Plaintext:                00000000000000000000000000000008
Ciphertext:               761c68bc2eb1912a8edc71807c4f291f761c68bc2eb1912a8edc71807c4f2917
Reciphers for ciphertext: 0
Decipheredtext:           00000000000000000000000000000008
RESULT CIPHER-DECIPHER: -----OK-----


Test: 125
Symmetric key bit length: 128
IV bit length:            128
Plaintext bit length:     128
Symmetric key:            00000000000000000000000000000000
IV:                       00000000000000000000000000000000
Plaintext:                00000000000000000000000000000004
Ciphertext:               761c68bc2eb1912a8edc71807c4f291f761c68bc2eb1912a8edc71807c4f291b
Reciphers for ciphertext: 0
Decipheredtext:           00000000000000000000000000000004
RESULT CIPHER-DECIPHER: -----OK-----


Test: 126
Symmetric key bit length: 128
IV bit length:            128
Plaintext bit length:     128
Symmetric key:            00000000000000000000000000000000
IV:                       00000000000000000000000000000000
Plaintext:                00000000000000000000000000000002
Ciphertext:               761c68bc2eb1912a8edc71807c4f291f761c68bc2eb1912a8edc71807c4f291d
Reciphers for ciphertext: 0
Decipheredtext:           00000000000000000000000000000002
RESULT CIPHER-DECIPHER: -----OK-----


Test: 127
Symmetric key bit length: 128
IV bit length:            128
Plaintext bit length:     128
Symmetric key:            00000000000000000000000000000000
IV:                       00000000000000000000000000000000
Plaintext:                00000000000000000000000000000001
Ciphertext:               761c68bc2eb1912a8edc71807c4f291f761c68bc2eb1912a8edc71807c4f291e
Reciphers for ciphertext: 0
Decipheredtext:           00000000000000000000000000000001
RESULT CIPHER-DECIPHER: -----OK-----


 DATA SHA1 (hexadecimal): 5009610e407b45f9fd2a8b55355077d02fae9796

