
DiceLock 9.0.0.1

 TEST COMPONENTS:
 ----------------
 DiceLock:           DiceLockIVIndexed class
 Base Stream Cipher: HC128 class
 Key Modifier:       IncreaseBase0IndexModifier_6_0_0_1 class
   Index bit length: 128
 Random tests:       RandomTestSuite class
                     FrequencyTest class
                     BlockFrequencyTest class
                     CumulativeSumForwardTest class
                     LongestRunOfOnesTest class
                     RunsTest class
 Random alpha:       0.001

 VECTOR TEST: Test vector 2 - Changing plaintext, shifting 1 bit set


##### INDIVIDUAL TESTS #####

Number tests: 128


Test: 0
Symmetric key bit length: 128
IV bit length:            128
Plaintext bit length:     136
Symmetric key:            00000000000000000000000000000000
IV:                       00000000000000000000000000000000
Plaintext:                0080000000000000000000000000000000
Ciphertext:               82001573a003fd3b7fd72ffb0eaf63aa82801573a003fd3b7fd72ffb0eaf63aac6
Reciphers for ciphertext: 0
Decipheredtext:           0080000000000000000000000000000000
RESULT CIPHER-DECIPHER: -----OK-----


Test: 1
Symmetric key bit length: 128
IV bit length:            128
Plaintext bit length:     136
Symmetric key:            00000000000000000000000000000000
IV:                       00000000000000000000000000000000
Plaintext:                0040000000000000000000000000000000
Ciphertext:               82001573a003fd3b7fd72ffb0eaf63aa82401573a003fd3b7fd72ffb0eaf63aac6
Reciphers for ciphertext: 0
Decipheredtext:           0040000000000000000000000000000000
RESULT CIPHER-DECIPHER: -----OK-----


Test: 2
Symmetric key bit length: 128
IV bit length:            128
Plaintext bit length:     136
Symmetric key:            00000000000000000000000000000000
IV:                       00000000000000000000000000000000
Plaintext:                0020000000000000000000000000000000
Ciphertext:               82001573a003fd3b7fd72ffb0eaf63aa82201573a003fd3b7fd72ffb0eaf63aac6
Reciphers for ciphertext: 0
Decipheredtext:           0020000000000000000000000000000000
RESULT CIPHER-DECIPHER: -----OK-----


Test: 3
Symmetric key bit length: 128
IV bit length:            128
Plaintext bit length:     136
Symmetric key:            00000000000000000000000000000000
IV:                       00000000000000000000000000000000
Plaintext:                0010000000000000000000000000000000
Ciphertext:               82001573a003fd3b7fd72ffb0eaf63aa82101573a003fd3b7fd72ffb0eaf63aac6
Reciphers for ciphertext: 0
Decipheredtext:           0010000000000000000000000000000000
RESULT CIPHER-DECIPHER: -----OK-----


Test: 4
Symmetric key bit length: 128
IV bit length:            128
Plaintext bit length:     136
Symmetric key:            00000000000000000000000000000000
IV:                       00000000000000000000000000000000
Plaintext:                0008000000000000000000000000000000
Ciphertext:               82001573a003fd3b7fd72ffb0eaf63aa82081573a003fd3b7fd72ffb0eaf63aac6
Reciphers for ciphertext: 0
Decipheredtext:           0008000000000000000000000000000000
RESULT CIPHER-DECIPHER: -----OK-----


Test: 5
Symmetric key bit length: 128
IV bit length:            128
Plaintext bit length:     136
Symmetric key:            00000000000000000000000000000000
IV:                       00000000000000000000000000000000
Plaintext:                0004000000000000000000000000000000
Ciphertext:               82001573a003fd3b7fd72ffb0eaf63aa82041573a003fd3b7fd72ffb0eaf63aac6
Reciphers for ciphertext: 0
Decipheredtext:           0004000000000000000000000000000000
RESULT CIPHER-DECIPHER: -----OK-----


Test: 6
Symmetric key bit length: 128
IV bit length:            128
Plaintext bit length:     136
Symmetric key:            00000000000000000000000000000000
IV:                       00000000000000000000000000000000
Plaintext:                0002000000000000000000000000000000
Ciphertext:               82001573a003fd3b7fd72ffb0eaf63aa82021573a003fd3b7fd72ffb0eaf63aac6
Reciphers for ciphertext: 0
Decipheredtext:           0002000000000000000000000000000000
RESULT CIPHER-DECIPHER: -----OK-----


Test: 7
Symmetric key bit length: 128
IV bit length:            128
Plaintext bit length:     136
Symmetric key:            00000000000000000000000000000000
IV:                       00000000000000000000000000000000
Plaintext:                0001000000000000000000000000000000
Ciphertext:               82001573a003fd3b7fd72ffb0eaf63aa82011573a003fd3b7fd72ffb0eaf63aac6
Reciphers for ciphertext: 0
Decipheredtext:           0001000000000000000000000000000000
RESULT CIPHER-DECIPHER: -----OK-----


Test: 8
Symmetric key bit length: 128
IV bit length:            128
Plaintext bit length:     136
Symmetric key:            00000000000000000000000000000000
IV:                       00000000000000000000000000000000
Plaintext:                0000800000000000000000000000000000
Ciphertext:               82001573a003fd3b7fd72ffb0eaf63aa82009573a003fd3b7fd72ffb0eaf63aac6
Reciphers for ciphertext: 0
Decipheredtext:           0000800000000000000000000000000000
RESULT CIPHER-DECIPHER: -----OK-----


Test: 9
Symmetric key bit length: 128
IV bit length:            128
Plaintext bit length:     136
Symmetric key:            00000000000000000000000000000000
IV:                       00000000000000000000000000000000
Plaintext:                0000400000000000000000000000000000
Ciphertext:               82001573a003fd3b7fd72ffb0eaf63aa82005573a003fd3b7fd72ffb0eaf63aac6
Reciphers for ciphertext: 0
Decipheredtext:           0000400000000000000000000000000000
RESULT CIPHER-DECIPHER: -----OK-----


Test: 10
Symmetric key bit length: 128
IV bit length:            128
Plaintext bit length:     136
Symmetric key:            00000000000000000000000000000000
IV:                       00000000000000000000000000000000
Plaintext:                0000200000000000000000000000000000
Ciphertext:               82001573a003fd3b7fd72ffb0eaf63aa82003573a003fd3b7fd72ffb0eaf63aac6
Reciphers for ciphertext: 0
Decipheredtext:           0000200000000000000000000000000000
RESULT CIPHER-DECIPHER: -----OK-----


Test: 11
Symmetric key bit length: 128
IV bit length:            128
Plaintext bit length:     136
Symmetric key:            00000000000000000000000000000000
IV:                       00000000000000000000000000000000
Plaintext:                0000100000000000000000000000000000
Ciphertext:               82001573a003fd3b7fd72ffb0eaf63aa82000573a003fd3b7fd72ffb0eaf63aac6
Reciphers for ciphertext: 0
Decipheredtext:           0000100000000000000000000000000000
RESULT CIPHER-DECIPHER: -----OK-----


Test: 12
Symmetric key bit length: 128
IV bit length:            128
Plaintext bit length:     136
Symmetric key:            00000000000000000000000000000000
IV:                       00000000000000000000000000000000
Plaintext:                0000080000000000000000000000000000
Ciphertext:               82001573a003fd3b7fd72ffb0eaf63aa82001d73a003fd3b7fd72ffb0eaf63aac6
Reciphers for ciphertext: 0
Decipheredtext:           0000080000000000000000000000000000
RESULT CIPHER-DECIPHER: -----OK-----


Test: 13
Symmetric key bit length: 128
IV bit length:            128
Plaintext bit length:     136
Symmetric key:            00000000000000000000000000000000
IV:                       00000000000000000000000000000000
Plaintext:                0000040000000000000000000000000000
Ciphertext:               82001573a003fd3b7fd72ffb0eaf63aa82001173a003fd3b7fd72ffb0eaf63aac6
Reciphers for ciphertext: 0
Decipheredtext:           0000040000000000000000000000000000
RESULT CIPHER-DECIPHER: -----OK-----


Test: 14
Symmetric key bit length: 128
IV bit length:            128
Plaintext bit length:     136
Symmetric key:            00000000000000000000000000000000
IV:                       00000000000000000000000000000000
Plaintext:                0000020000000000000000000000000000
Ciphertext:               82001573a003fd3b7fd72ffb0eaf63aa82001773a003fd3b7fd72ffb0eaf63aac6
Reciphers for ciphertext: 0
Decipheredtext:           0000020000000000000000000000000000
RESULT CIPHER-DECIPHER: -----OK-----


Test: 15
Symmetric key bit length: 128
IV bit length:            128
Plaintext bit length:     136
Symmetric key:            00000000000000000000000000000000
IV:                       00000000000000000000000000000000
Plaintext:                0000010000000000000000000000000000
Ciphertext:               82001573a003fd3b7fd72ffb0eaf63aa82001473a003fd3b7fd72ffb0eaf63aac6
Reciphers for ciphertext: 0
Decipheredtext:           0000010000000000000000000000000000
RESULT CIPHER-DECIPHER: -----OK-----


Test: 16
Symmetric key bit length: 128
IV bit length:            128
Plaintext bit length:     136
Symmetric key:            00000000000000000000000000000000
IV:                       00000000000000000000000000000000
Plaintext:                0000008000000000000000000000000000
Ciphertext:               82001573a003fd3b7fd72ffb0eaf63aa820015f3a003fd3b7fd72ffb0eaf63aac6
Reciphers for ciphertext: 0
Decipheredtext:           0000008000000000000000000000000000
RESULT CIPHER-DECIPHER: -----OK-----


Test: 17
Symmetric key bit length: 128
IV bit length:            128
Plaintext bit length:     136
Symmetric key:            00000000000000000000000000000000
IV:                       00000000000000000000000000000000
Plaintext:                0000004000000000000000000000000000
Ciphertext:               82001573a003fd3b7fd72ffb0eaf63aa82001533a003fd3b7fd72ffb0eaf63aac6
Reciphers for ciphertext: 0
Decipheredtext:           0000004000000000000000000000000000
RESULT CIPHER-DECIPHER: -----OK-----


Test: 18
Symmetric key bit length: 128
IV bit length:            128
Plaintext bit length:     136
Symmetric key:            00000000000000000000000000000000
IV:                       00000000000000000000000000000000
Plaintext:                0000002000000000000000000000000000
Ciphertext:               82001573a003fd3b7fd72ffb0eaf63aa82001553a003fd3b7fd72ffb0eaf63aac6
Reciphers for ciphertext: 0
Decipheredtext:           0000002000000000000000000000000000
RESULT CIPHER-DECIPHER: -----OK-----


Test: 19
Symmetric key bit length: 128
IV bit length:            128
Plaintext bit length:     136
Symmetric key:            00000000000000000000000000000000
IV:                       00000000000000000000000000000000
Plaintext:                0000001000000000000000000000000000
Ciphertext:               82001573a003fd3b7fd72ffb0eaf63aa82001563a003fd3b7fd72ffb0eaf63aac6
Reciphers for ciphertext: 0
Decipheredtext:           0000001000000000000000000000000000
RESULT CIPHER-DECIPHER: -----OK-----


Test: 20
Symmetric key bit length: 128
IV bit length:            128
Plaintext bit length:     136
Symmetric key:            00000000000000000000000000000000
IV:                       00000000000000000000000000000000
Plaintext:                0000000800000000000000000000000000
Ciphertext:               82001573a003fd3b7fd72ffb0eaf63aa8200157ba003fd3b7fd72ffb0eaf63aac6
Reciphers for ciphertext: 0
Decipheredtext:           0000000800000000000000000000000000
RESULT CIPHER-DECIPHER: -----OK-----


Test: 21
Symmetric key bit length: 128
IV bit length:            128
Plaintext bit length:     136
Symmetric key:            00000000000000000000000000000000
IV:                       00000000000000000000000000000000
Plaintext:                0000000400000000000000000000000000
Ciphertext:               82001573a003fd3b7fd72ffb0eaf63aa82001577a003fd3b7fd72ffb0eaf63aac6
Reciphers for ciphertext: 0
Decipheredtext:           0000000400000000000000000000000000
RESULT CIPHER-DECIPHER: -----OK-----


Test: 22
Symmetric key bit length: 128
IV bit length:            128
Plaintext bit length:     136
Symmetric key:            00000000000000000000000000000000
IV:                       00000000000000000000000000000000
Plaintext:                0000000200000000000000000000000000
Ciphertext:               82001573a003fd3b7fd72ffb0eaf63aa82001571a003fd3b7fd72ffb0eaf63aac6
Reciphers for ciphertext: 0
Decipheredtext:           0000000200000000000000000000000000
RESULT CIPHER-DECIPHER: -----OK-----


Test: 23
Symmetric key bit length: 128
IV bit length:            128
Plaintext bit length:     136
Symmetric key:            00000000000000000000000000000000
IV:                       00000000000000000000000000000000
Plaintext:                0000000100000000000000000000000000
Ciphertext:               82001573a003fd3b7fd72ffb0eaf63aa82001572a003fd3b7fd72ffb0eaf63aac6
Reciphers for ciphertext: 0
Decipheredtext:           0000000100000000000000000000000000
RESULT CIPHER-DECIPHER: -----OK-----


Test: 24
Symmetric key bit length: 128
IV bit length:            128
Plaintext bit length:     136
Symmetric key:            00000000000000000000000000000000
IV:                       00000000000000000000000000000000
Plaintext:                0000000080000000000000000000000000
Ciphertext:               82001573a003fd3b7fd72ffb0eaf63aa820015732003fd3b7fd72ffb0eaf63aac6
Reciphers for ciphertext: 0
Decipheredtext:           0000000080000000000000000000000000
RESULT CIPHER-DECIPHER: -----OK-----


Test: 25
Symmetric key bit length: 128
IV bit length:            128
Plaintext bit length:     136
Symmetric key:            00000000000000000000000000000000
IV:                       00000000000000000000000000000000
Plaintext:                0000000040000000000000000000000000
Ciphertext:               82001573a003fd3b7fd72ffb0eaf63aa82001573e003fd3b7fd72ffb0eaf63aac6
Reciphers for ciphertext: 0
Decipheredtext:           0000000040000000000000000000000000
RESULT CIPHER-DECIPHER: -----OK-----


Test: 26
Symmetric key bit length: 128
IV bit length:            128
Plaintext bit length:     136
Symmetric key:            00000000000000000000000000000000
IV:                       00000000000000000000000000000000
Plaintext:                0000000020000000000000000000000000
Ciphertext:               82001573a003fd3b7fd72ffb0eaf63aa820015738003fd3b7fd72ffb0eaf63aac6
Reciphers for ciphertext: 0
Decipheredtext:           0000000020000000000000000000000000
RESULT CIPHER-DECIPHER: -----OK-----


Test: 27
Symmetric key bit length: 128
IV bit length:            128
Plaintext bit length:     136
Symmetric key:            00000000000000000000000000000000
IV:                       00000000000000000000000000000000
Plaintext:                0000000010000000000000000000000000
Ciphertext:               82001573a003fd3b7fd72ffb0eaf63aa82001573b003fd3b7fd72ffb0eaf63aac6
Reciphers for ciphertext: 0
Decipheredtext:           0000000010000000000000000000000000
RESULT CIPHER-DECIPHER: -----OK-----


Test: 28
Symmetric key bit length: 128
IV bit length:            128
Plaintext bit length:     136
Symmetric key:            00000000000000000000000000000000
IV:                       00000000000000000000000000000000
Plaintext:                0000000008000000000000000000000000
Ciphertext:               82001573a003fd3b7fd72ffb0eaf63aa82001573a803fd3b7fd72ffb0eaf63aac6
Reciphers for ciphertext: 0
Decipheredtext:           0000000008000000000000000000000000
RESULT CIPHER-DECIPHER: -----OK-----


Test: 29
Symmetric key bit length: 128
IV bit length:            128
Plaintext bit length:     136
Symmetric key:            00000000000000000000000000000000
IV:                       00000000000000000000000000000000
Plaintext:                0000000004000000000000000000000000
Ciphertext:               82001573a003fd3b7fd72ffb0eaf63aa82001573a403fd3b7fd72ffb0eaf63aac6
Reciphers for ciphertext: 0
Decipheredtext:           0000000004000000000000000000000000
RESULT CIPHER-DECIPHER: -----OK-----


Test: 30
Symmetric key bit length: 128
IV bit length:            128
Plaintext bit length:     136
Symmetric key:            00000000000000000000000000000000
IV:                       00000000000000000000000000000000
Plaintext:                0000000002000000000000000000000000
Ciphertext:               82001573a003fd3b7fd72ffb0eaf63aa82001573a203fd3b7fd72ffb0eaf63aac6
Reciphers for ciphertext: 0
Decipheredtext:           0000000002000000000000000000000000
RESULT CIPHER-DECIPHER: -----OK-----


Test: 31
Symmetric key bit length: 128
IV bit length:            128
Plaintext bit length:     136
Symmetric key:            00000000000000000000000000000000
IV:                       00000000000000000000000000000000
Plaintext:                0000000001000000000000000000000000
Ciphertext:               82001573a003fd3b7fd72ffb0eaf63aa82001573a103fd3b7fd72ffb0eaf63aac6
Reciphers for ciphertext: 0
Decipheredtext:           0000000001000000000000000000000000
RESULT CIPHER-DECIPHER: -----OK-----


Test: 32
Symmetric key bit length: 128
IV bit length:            128
Plaintext bit length:     136
Symmetric key:            00000000000000000000000000000000
IV:                       00000000000000000000000000000000
Plaintext:                0000000000800000000000000000000000
Ciphertext:               82001573a003fd3b7fd72ffb0eaf63aa82001573a083fd3b7fd72ffb0eaf63aac6
Reciphers for ciphertext: 0
Decipheredtext:           0000000000800000000000000000000000
RESULT CIPHER-DECIPHER: -----OK-----


Test: 33
Symmetric key bit length: 128
IV bit length:            128
Plaintext bit length:     136
Symmetric key:            00000000000000000000000000000000
IV:                       00000000000000000000000000000000
Plaintext:                0000000000400000000000000000000000
Ciphertext:               82001573a003fd3b7fd72ffb0eaf63aa82001573a043fd3b7fd72ffb0eaf63aac6
Reciphers for ciphertext: 0
Decipheredtext:           0000000000400000000000000000000000
RESULT CIPHER-DECIPHER: -----OK-----


Test: 34
Symmetric key bit length: 128
IV bit length:            128
Plaintext bit length:     136
Symmetric key:            00000000000000000000000000000000
IV:                       00000000000000000000000000000000
Plaintext:                0000000000200000000000000000000000
Ciphertext:               82001573a003fd3b7fd72ffb0eaf63aa82001573a023fd3b7fd72ffb0eaf63aac6
Reciphers for ciphertext: 0
Decipheredtext:           0000000000200000000000000000000000
RESULT CIPHER-DECIPHER: -----OK-----


Test: 35
Symmetric key bit length: 128
IV bit length:            128
Plaintext bit length:     136
Symmetric key:            00000000000000000000000000000000
IV:                       00000000000000000000000000000000
Plaintext:                0000000000100000000000000000000000
Ciphertext:               82001573a003fd3b7fd72ffb0eaf63aa82001573a013fd3b7fd72ffb0eaf63aac6
Reciphers for ciphertext: 0
Decipheredtext:           0000000000100000000000000000000000
RESULT CIPHER-DECIPHER: -----OK-----


Test: 36
Symmetric key bit length: 128
IV bit length:            128
Plaintext bit length:     136
Symmetric key:            00000000000000000000000000000000
IV:                       00000000000000000000000000000000
Plaintext:                0000000000080000000000000000000000
Ciphertext:               82001573a003fd3b7fd72ffb0eaf63aa82001573a00bfd3b7fd72ffb0eaf63aac6
Reciphers for ciphertext: 0
Decipheredtext:           0000000000080000000000000000000000
RESULT CIPHER-DECIPHER: -----OK-----


Test: 37
Symmetric key bit length: 128
IV bit length:            128
Plaintext bit length:     136
Symmetric key:            00000000000000000000000000000000
IV:                       00000000000000000000000000000000
Plaintext:                0000000000040000000000000000000000
Ciphertext:               82001573a003fd3b7fd72ffb0eaf63aa82001573a007fd3b7fd72ffb0eaf63aac6
Reciphers for ciphertext: 0
Decipheredtext:           0000000000040000000000000000000000
RESULT CIPHER-DECIPHER: -----OK-----


Test: 38
Symmetric key bit length: 128
IV bit length:            128
Plaintext bit length:     136
Symmetric key:            00000000000000000000000000000000
IV:                       00000000000000000000000000000000
Plaintext:                0000000000020000000000000000000000
Ciphertext:               82001573a003fd3b7fd72ffb0eaf63aa82001573a001fd3b7fd72ffb0eaf63aac6
Reciphers for ciphertext: 0
Decipheredtext:           0000000000020000000000000000000000
RESULT CIPHER-DECIPHER: -----OK-----


Test: 39
Symmetric key bit length: 128
IV bit length:            128
Plaintext bit length:     136
Symmetric key:            00000000000000000000000000000000
IV:                       00000000000000000000000000000000
Plaintext:                0000000000010000000000000000000000
Ciphertext:               82001573a003fd3b7fd72ffb0eaf63aa82001573a002fd3b7fd72ffb0eaf63aac6
Reciphers for ciphertext: 0
Decipheredtext:           0000000000010000000000000000000000
RESULT CIPHER-DECIPHER: -----OK-----


Test: 40
Symmetric key bit length: 128
IV bit length:            128
Plaintext bit length:     136
Symmetric key:            00000000000000000000000000000000
IV:                       00000000000000000000000000000000
Plaintext:                0000000000008000000000000000000000
Ciphertext:               82001573a003fd3b7fd72ffb0eaf63aa82001573a0037d3b7fd72ffb0eaf63aac6
Reciphers for ciphertext: 0
Decipheredtext:           0000000000008000000000000000000000
RESULT CIPHER-DECIPHER: -----OK-----


Test: 41
Symmetric key bit length: 128
IV bit length:            128
Plaintext bit length:     136
Symmetric key:            00000000000000000000000000000000
IV:                       00000000000000000000000000000000
Plaintext:                0000000000004000000000000000000000
Ciphertext:               82001573a003fd3b7fd72ffb0eaf63aa82001573a003bd3b7fd72ffb0eaf63aac6
Reciphers for ciphertext: 0
Decipheredtext:           0000000000004000000000000000000000
RESULT CIPHER-DECIPHER: -----OK-----


Test: 42
Symmetric key bit length: 128
IV bit length:            128
Plaintext bit length:     136
Symmetric key:            00000000000000000000000000000000
IV:                       00000000000000000000000000000000
Plaintext:                0000000000002000000000000000000000
Ciphertext:               82001573a003fd3b7fd72ffb0eaf63aa82001573a003dd3b7fd72ffb0eaf63aac6
Reciphers for ciphertext: 0
Decipheredtext:           0000000000002000000000000000000000
RESULT CIPHER-DECIPHER: -----OK-----


Test: 43
Symmetric key bit length: 128
IV bit length:            128
Plaintext bit length:     136
Symmetric key:            00000000000000000000000000000000
IV:                       00000000000000000000000000000000
Plaintext:                0000000000001000000000000000000000
Ciphertext:               82001573a003fd3b7fd72ffb0eaf63aa82001573a003ed3b7fd72ffb0eaf63aac6
Reciphers for ciphertext: 0
Decipheredtext:           0000000000001000000000000000000000
RESULT CIPHER-DECIPHER: -----OK-----


Test: 44
Symmetric key bit length: 128
IV bit length:            128
Plaintext bit length:     136
Symmetric key:            00000000000000000000000000000000
IV:                       00000000000000000000000000000000
Plaintext:                0000000000000800000000000000000000
Ciphertext:               82001573a003fd3b7fd72ffb0eaf63aa82001573a003f53b7fd72ffb0eaf63aac6
Reciphers for ciphertext: 0
Decipheredtext:           0000000000000800000000000000000000
RESULT CIPHER-DECIPHER: -----OK-----


Test: 45
Symmetric key bit length: 128
IV bit length:            128
Plaintext bit length:     136
Symmetric key:            00000000000000000000000000000000
IV:                       00000000000000000000000000000000
Plaintext:                0000000000000400000000000000000000
Ciphertext:               82001573a003fd3b7fd72ffb0eaf63aa82001573a003f93b7fd72ffb0eaf63aac6
Reciphers for ciphertext: 0
Decipheredtext:           0000000000000400000000000000000000
RESULT CIPHER-DECIPHER: -----OK-----


Test: 46
Symmetric key bit length: 128
IV bit length:            128
Plaintext bit length:     136
Symmetric key:            00000000000000000000000000000000
IV:                       00000000000000000000000000000000
Plaintext:                0000000000000200000000000000000000
Ciphertext:               82001573a003fd3b7fd72ffb0eaf63aa82001573a003ff3b7fd72ffb0eaf63aac6
Reciphers for ciphertext: 0
Decipheredtext:           0000000000000200000000000000000000
RESULT CIPHER-DECIPHER: -----OK-----


Test: 47
Symmetric key bit length: 128
IV bit length:            128
Plaintext bit length:     136
Symmetric key:            00000000000000000000000000000000
IV:                       00000000000000000000000000000000
Plaintext:                0000000000000100000000000000000000
Ciphertext:               82001573a003fd3b7fd72ffb0eaf63aa82001573a003fc3b7fd72ffb0eaf63aac6
Reciphers for ciphertext: 0
Decipheredtext:           0000000000000100000000000000000000
RESULT CIPHER-DECIPHER: -----OK-----


Test: 48
Symmetric key bit length: 128
IV bit length:            128
Plaintext bit length:     136
Symmetric key:            00000000000000000000000000000000
IV:                       00000000000000000000000000000000
Plaintext:                0000000000000080000000000000000000
Ciphertext:               82001573a003fd3b7fd72ffb0eaf63aa82001573a003fdbb7fd72ffb0eaf63aac6
Reciphers for ciphertext: 0
Decipheredtext:           0000000000000080000000000000000000
RESULT CIPHER-DECIPHER: -----OK-----


Test: 49
Symmetric key bit length: 128
IV bit length:            128
Plaintext bit length:     136
Symmetric key:            00000000000000000000000000000000
IV:                       00000000000000000000000000000000
Plaintext:                0000000000000040000000000000000000
Ciphertext:               82001573a003fd3b7fd72ffb0eaf63aa82001573a003fd7b7fd72ffb0eaf63aac6
Reciphers for ciphertext: 0
Decipheredtext:           0000000000000040000000000000000000
RESULT CIPHER-DECIPHER: -----OK-----


Test: 50
Symmetric key bit length: 128
IV bit length:            128
Plaintext bit length:     136
Symmetric key:            00000000000000000000000000000000
IV:                       00000000000000000000000000000000
Plaintext:                0000000000000020000000000000000000
Ciphertext:               82001573a003fd3b7fd72ffb0eaf63aa82001573a003fd1b7fd72ffb0eaf63aac6
Reciphers for ciphertext: 0
Decipheredtext:           0000000000000020000000000000000000
RESULT CIPHER-DECIPHER: -----OK-----


Test: 51
Symmetric key bit length: 128
IV bit length:            128
Plaintext bit length:     136
Symmetric key:            00000000000000000000000000000000
IV:                       00000000000000000000000000000000
Plaintext:                0000000000000010000000000000000000
Ciphertext:               82001573a003fd3b7fd72ffb0eaf63aa82001573a003fd2b7fd72ffb0eaf63aac6
Reciphers for ciphertext: 0
Decipheredtext:           0000000000000010000000000000000000
RESULT CIPHER-DECIPHER: -----OK-----


Test: 52
Symmetric key bit length: 128
IV bit length:            128
Plaintext bit length:     136
Symmetric key:            00000000000000000000000000000000
IV:                       00000000000000000000000000000000
Plaintext:                0000000000000008000000000000000000
Ciphertext:               82001573a003fd3b7fd72ffb0eaf63aa82001573a003fd337fd72ffb0eaf63aac6
Reciphers for ciphertext: 0
Decipheredtext:           0000000000000008000000000000000000
RESULT CIPHER-DECIPHER: -----OK-----


Test: 53
Symmetric key bit length: 128
IV bit length:            128
Plaintext bit length:     136
Symmetric key:            00000000000000000000000000000000
IV:                       00000000000000000000000000000000
Plaintext:                0000000000000004000000000000000000
Ciphertext:               82001573a003fd3b7fd72ffb0eaf63aa82001573a003fd3f7fd72ffb0eaf63aac6
Reciphers for ciphertext: 0
Decipheredtext:           0000000000000004000000000000000000
RESULT CIPHER-DECIPHER: -----OK-----


Test: 54
Symmetric key bit length: 128
IV bit length:            128
Plaintext bit length:     136
Symmetric key:            00000000000000000000000000000000
IV:                       00000000000000000000000000000000
Plaintext:                0000000000000002000000000000000000
Ciphertext:               82001573a003fd3b7fd72ffb0eaf63aa82001573a003fd397fd72ffb0eaf63aac6
Reciphers for ciphertext: 0
Decipheredtext:           0000000000000002000000000000000000
RESULT CIPHER-DECIPHER: -----OK-----


Test: 55
Symmetric key bit length: 128
IV bit length:            128
Plaintext bit length:     136
Symmetric key:            00000000000000000000000000000000
IV:                       00000000000000000000000000000000
Plaintext:                0000000000000001000000000000000000
Ciphertext:               82001573a003fd3b7fd72ffb0eaf63aa82001573a003fd3a7fd72ffb0eaf63aac6
Reciphers for ciphertext: 0
Decipheredtext:           0000000000000001000000000000000000
RESULT CIPHER-DECIPHER: -----OK-----


Test: 56
Symmetric key bit length: 128
IV bit length:            128
Plaintext bit length:     136
Symmetric key:            00000000000000000000000000000000
IV:                       00000000000000000000000000000000
Plaintext:                0000000000000000800000000000000000
Ciphertext:               82001573a003fd3b7fd72ffb0eaf63aa82001573a003fd3bffd72ffb0eaf63aac6
Reciphers for ciphertext: 0
Decipheredtext:           0000000000000000800000000000000000
RESULT CIPHER-DECIPHER: -----OK-----


Test: 57
Symmetric key bit length: 128
IV bit length:            128
Plaintext bit length:     136
Symmetric key:            00000000000000000000000000000000
IV:                       00000000000000000000000000000000
Plaintext:                0000000000000000400000000000000000
Ciphertext:               82001573a003fd3b7fd72ffb0eaf63aa82001573a003fd3b3fd72ffb0eaf63aac6
Reciphers for ciphertext: 0
Decipheredtext:           0000000000000000400000000000000000
RESULT CIPHER-DECIPHER: -----OK-----


Test: 58
Symmetric key bit length: 128
IV bit length:            128
Plaintext bit length:     136
Symmetric key:            00000000000000000000000000000000
IV:                       00000000000000000000000000000000
Plaintext:                0000000000000000200000000000000000
Ciphertext:               82001573a003fd3b7fd72ffb0eaf63aa82001573a003fd3b5fd72ffb0eaf63aac6
Reciphers for ciphertext: 0
Decipheredtext:           0000000000000000200000000000000000
RESULT CIPHER-DECIPHER: -----OK-----


Test: 59
Symmetric key bit length: 128
IV bit length:            128
Plaintext bit length:     136
Symmetric key:            00000000000000000000000000000000
IV:                       00000000000000000000000000000000
Plaintext:                0000000000000000100000000000000000
Ciphertext:               82001573a003fd3b7fd72ffb0eaf63aa82001573a003fd3b6fd72ffb0eaf63aac6
Reciphers for ciphertext: 0
Decipheredtext:           0000000000000000100000000000000000
RESULT CIPHER-DECIPHER: -----OK-----


Test: 60
Symmetric key bit length: 128
IV bit length:            128
Plaintext bit length:     136
Symmetric key:            00000000000000000000000000000000
IV:                       00000000000000000000000000000000
Plaintext:                0000000000000000080000000000000000
Ciphertext:               82001573a003fd3b7fd72ffb0eaf63aa82001573a003fd3b77d72ffb0eaf63aac6
Reciphers for ciphertext: 0
Decipheredtext:           0000000000000000080000000000000000
RESULT CIPHER-DECIPHER: -----OK-----


Test: 61
Symmetric key bit length: 128
IV bit length:            128
Plaintext bit length:     136
Symmetric key:            00000000000000000000000000000000
IV:                       00000000000000000000000000000000
Plaintext:                0000000000000000040000000000000000
Ciphertext:               82001573a003fd3b7fd72ffb0eaf63aa82001573a003fd3b7bd72ffb0eaf63aac6
Reciphers for ciphertext: 0
Decipheredtext:           0000000000000000040000000000000000
RESULT CIPHER-DECIPHER: -----OK-----


Test: 62
Symmetric key bit length: 128
IV bit length:            128
Plaintext bit length:     136
Symmetric key:            00000000000000000000000000000000
IV:                       00000000000000000000000000000000
Plaintext:                0000000000000000020000000000000000
Ciphertext:               82001573a003fd3b7fd72ffb0eaf63aa82001573a003fd3b7dd72ffb0eaf63aac6
Reciphers for ciphertext: 0
Decipheredtext:           0000000000000000020000000000000000
RESULT CIPHER-DECIPHER: -----OK-----


Test: 63
Symmetric key bit length: 128
IV bit length:            128
Plaintext bit length:     136
Symmetric key:            00000000000000000000000000000000
IV:                       00000000000000000000000000000000
Plaintext:                0000000000000000010000000000000000
Ciphertext:               82001573a003fd3b7fd72ffb0eaf63aa82001573a003fd3b7ed72ffb0eaf63aac6
Reciphers for ciphertext: 0
Decipheredtext:           0000000000000000010000000000000000
RESULT CIPHER-DECIPHER: -----OK-----


Test: 64
Symmetric key bit length: 128
IV bit length:            128
Plaintext bit length:     136
Symmetric key:            00000000000000000000000000000000
IV:                       00000000000000000000000000000000
Plaintext:                0000000000000000008000000000000000
Ciphertext:               82001573a003fd3b7fd72ffb0eaf63aa82001573a003fd3b7f572ffb0eaf63aac6
Reciphers for ciphertext: 0
Decipheredtext:           0000000000000000008000000000000000
RESULT CIPHER-DECIPHER: -----OK-----


Test: 65
Symmetric key bit length: 128
IV bit length:            128
Plaintext bit length:     136
Symmetric key:            00000000000000000000000000000000
IV:                       00000000000000000000000000000000
Plaintext:                0000000000000000004000000000000000
Ciphertext:               82001573a003fd3b7fd72ffb0eaf63aa82001573a003fd3b7f972ffb0eaf63aac6
Reciphers for ciphertext: 0
Decipheredtext:           0000000000000000004000000000000000
RESULT CIPHER-DECIPHER: -----OK-----


Test: 66
Symmetric key bit length: 128
IV bit length:            128
Plaintext bit length:     136
Symmetric key:            00000000000000000000000000000000
IV:                       00000000000000000000000000000000
Plaintext:                0000000000000000002000000000000000
Ciphertext:               82001573a003fd3b7fd72ffb0eaf63aa82001573a003fd3b7ff72ffb0eaf63aac6
Reciphers for ciphertext: 0
Decipheredtext:           0000000000000000002000000000000000
RESULT CIPHER-DECIPHER: -----OK-----


Test: 67
Symmetric key bit length: 128
IV bit length:            128
Plaintext bit length:     136
Symmetric key:            00000000000000000000000000000000
IV:                       00000000000000000000000000000000
Plaintext:                0000000000000000001000000000000000
Ciphertext:               82001573a003fd3b7fd72ffb0eaf63aa82001573a003fd3b7fc72ffb0eaf63aac6
Reciphers for ciphertext: 0
Decipheredtext:           0000000000000000001000000000000000
RESULT CIPHER-DECIPHER: -----OK-----


Test: 68
Symmetric key bit length: 128
IV bit length:            128
Plaintext bit length:     136
Symmetric key:            00000000000000000000000000000000
IV:                       00000000000000000000000000000000
Plaintext:                0000000000000000000800000000000000
Ciphertext:               82001573a003fd3b7fd72ffb0eaf63aa82001573a003fd3b7fdf2ffb0eaf63aac6
Reciphers for ciphertext: 0
Decipheredtext:           0000000000000000000800000000000000
RESULT CIPHER-DECIPHER: -----OK-----


Test: 69
Symmetric key bit length: 128
IV bit length:            128
Plaintext bit length:     136
Symmetric key:            00000000000000000000000000000000
IV:                       00000000000000000000000000000000
Plaintext:                0000000000000000000400000000000000
Ciphertext:               82001573a003fd3b7fd72ffb0eaf63aa82001573a003fd3b7fd32ffb0eaf63aac6
Reciphers for ciphertext: 0
Decipheredtext:           0000000000000000000400000000000000
RESULT CIPHER-DECIPHER: -----OK-----


Test: 70
Symmetric key bit length: 128
IV bit length:            128
Plaintext bit length:     136
Symmetric key:            00000000000000000000000000000000
IV:                       00000000000000000000000000000000
Plaintext:                0000000000000000000200000000000000
Ciphertext:               82001573a003fd3b7fd72ffb0eaf63aa82001573a003fd3b7fd52ffb0eaf63aac6
Reciphers for ciphertext: 0
Decipheredtext:           0000000000000000000200000000000000
RESULT CIPHER-DECIPHER: -----OK-----


Test: 71
Symmetric key bit length: 128
IV bit length:            128
Plaintext bit length:     136
Symmetric key:            00000000000000000000000000000000
IV:                       00000000000000000000000000000000
Plaintext:                0000000000000000000100000000000000
Ciphertext:               82001573a003fd3b7fd72ffb0eaf63aa82001573a003fd3b7fd62ffb0eaf63aac6
Reciphers for ciphertext: 0
Decipheredtext:           0000000000000000000100000000000000
RESULT CIPHER-DECIPHER: -----OK-----


Test: 72
Symmetric key bit length: 128
IV bit length:            128
Plaintext bit length:     136
Symmetric key:            00000000000000000000000000000000
IV:                       00000000000000000000000000000000
Plaintext:                0000000000000000000080000000000000
Ciphertext:               82001573a003fd3b7fd72ffb0eaf63aa82001573a003fd3b7fd7affb0eaf63aac6
Reciphers for ciphertext: 0
Decipheredtext:           0000000000000000000080000000000000
RESULT CIPHER-DECIPHER: -----OK-----


Test: 73
Symmetric key bit length: 128
IV bit length:            128
Plaintext bit length:     136
Symmetric key:            00000000000000000000000000000000
IV:                       00000000000000000000000000000000
Plaintext:                0000000000000000000040000000000000
Ciphertext:               82001573a003fd3b7fd72ffb0eaf63aa82001573a003fd3b7fd76ffb0eaf63aac6
Reciphers for ciphertext: 0
Decipheredtext:           0000000000000000000040000000000000
RESULT CIPHER-DECIPHER: -----OK-----


Test: 74
Symmetric key bit length: 128
IV bit length:            128
Plaintext bit length:     136
Symmetric key:            00000000000000000000000000000000
IV:                       00000000000000000000000000000000
Plaintext:                0000000000000000000020000000000000
Ciphertext:               82001573a003fd3b7fd72ffb0eaf63aa82001573a003fd3b7fd70ffb0eaf63aac6
Reciphers for ciphertext: 0
Decipheredtext:           0000000000000000000020000000000000
RESULT CIPHER-DECIPHER: -----OK-----


Test: 75
Symmetric key bit length: 128
IV bit length:            128
Plaintext bit length:     136
Symmetric key:            00000000000000000000000000000000
IV:                       00000000000000000000000000000000
Plaintext:                0000000000000000000010000000000000
Ciphertext:               82001573a003fd3b7fd72ffb0eaf63aa82001573a003fd3b7fd73ffb0eaf63aac6
Reciphers for ciphertext: 0
Decipheredtext:           0000000000000000000010000000000000
RESULT CIPHER-DECIPHER: -----OK-----


Test: 76
Symmetric key bit length: 128
IV bit length:            128
Plaintext bit length:     136
Symmetric key:            00000000000000000000000000000000
IV:                       00000000000000000000000000000000
Plaintext:                0000000000000000000008000000000000
Ciphertext:               82001573a003fd3b7fd72ffb0eaf63aa82001573a003fd3b7fd727fb0eaf63aac6
Reciphers for ciphertext: 0
Decipheredtext:           0000000000000000000008000000000000
RESULT CIPHER-DECIPHER: -----OK-----


Test: 77
Symmetric key bit length: 128
IV bit length:            128
Plaintext bit length:     136
Symmetric key:            00000000000000000000000000000000
IV:                       00000000000000000000000000000000
Plaintext:                0000000000000000000004000000000000
Ciphertext:               82001573a003fd3b7fd72ffb0eaf63aa82001573a003fd3b7fd72bfb0eaf63aac6
Reciphers for ciphertext: 0
Decipheredtext:           0000000000000000000004000000000000
RESULT CIPHER-DECIPHER: -----OK-----


Test: 78
Symmetric key bit length: 128
IV bit length:            128
Plaintext bit length:     136
Symmetric key:            00000000000000000000000000000000
IV:                       00000000000000000000000000000000
Plaintext:                0000000000000000000002000000000000
Ciphertext:               82001573a003fd3b7fd72ffb0eaf63aa82001573a003fd3b7fd72dfb0eaf63aac6
Reciphers for ciphertext: 0
Decipheredtext:           0000000000000000000002000000000000
RESULT CIPHER-DECIPHER: -----OK-----


Test: 79
Symmetric key bit length: 128
IV bit length:            128
Plaintext bit length:     136
Symmetric key:            00000000000000000000000000000000
IV:                       00000000000000000000000000000000
Plaintext:                0000000000000000000001000000000000
Ciphertext:               82001573a003fd3b7fd72ffb0eaf63aa82001573a003fd3b7fd72efb0eaf63aac6
Reciphers for ciphertext: 0
Decipheredtext:           0000000000000000000001000000000000
RESULT CIPHER-DECIPHER: -----OK-----


Test: 80
Symmetric key bit length: 128
IV bit length:            128
Plaintext bit length:     136
Symmetric key:            00000000000000000000000000000000
IV:                       00000000000000000000000000000000
Plaintext:                0000000000000000000000800000000000
Ciphertext:               82001573a003fd3b7fd72ffb0eaf63aa82001573a003fd3b7fd72f7b0eaf63aac6
Reciphers for ciphertext: 0
Decipheredtext:           0000000000000000000000800000000000
RESULT CIPHER-DECIPHER: -----OK-----


Test: 81
Symmetric key bit length: 128
IV bit length:            128
Plaintext bit length:     136
Symmetric key:            00000000000000000000000000000000
IV:                       00000000000000000000000000000000
Plaintext:                0000000000000000000000400000000000
Ciphertext:               82001573a003fd3b7fd72ffb0eaf63aa82001573a003fd3b7fd72fbb0eaf63aac6
Reciphers for ciphertext: 0
Decipheredtext:           0000000000000000000000400000000000
RESULT CIPHER-DECIPHER: -----OK-----


Test: 82
Symmetric key bit length: 128
IV bit length:            128
Plaintext bit length:     136
Symmetric key:            00000000000000000000000000000000
IV:                       00000000000000000000000000000000
Plaintext:                0000000000000000000000200000000000
Ciphertext:               82001573a003fd3b7fd72ffb0eaf63aa82001573a003fd3b7fd72fdb0eaf63aac6
Reciphers for ciphertext: 0
Decipheredtext:           0000000000000000000000200000000000
RESULT CIPHER-DECIPHER: -----OK-----


Test: 83
Symmetric key bit length: 128
IV bit length:            128
Plaintext bit length:     136
Symmetric key:            00000000000000000000000000000000
IV:                       00000000000000000000000000000000
Plaintext:                0000000000000000000000100000000000
Ciphertext:               82001573a003fd3b7fd72ffb0eaf63aa82001573a003fd3b7fd72feb0eaf63aac6
Reciphers for ciphertext: 0
Decipheredtext:           0000000000000000000000100000000000
RESULT CIPHER-DECIPHER: -----OK-----


Test: 84
Symmetric key bit length: 128
IV bit length:            128
Plaintext bit length:     136
Symmetric key:            00000000000000000000000000000000
IV:                       00000000000000000000000000000000
Plaintext:                0000000000000000000000080000000000
Ciphertext:               82001573a003fd3b7fd72ffb0eaf63aa82001573a003fd3b7fd72ff30eaf63aac6
Reciphers for ciphertext: 0
Decipheredtext:           0000000000000000000000080000000000
RESULT CIPHER-DECIPHER: -----OK-----


Test: 85
Symmetric key bit length: 128
IV bit length:            128
Plaintext bit length:     136
Symmetric key:            00000000000000000000000000000000
IV:                       00000000000000000000000000000000
Plaintext:                0000000000000000000000040000000000
Ciphertext:               82001573a003fd3b7fd72ffb0eaf63aa82001573a003fd3b7fd72fff0eaf63aac6
Reciphers for ciphertext: 0
Decipheredtext:           0000000000000000000000040000000000
RESULT CIPHER-DECIPHER: -----OK-----


Test: 86
Symmetric key bit length: 128
IV bit length:            128
Plaintext bit length:     136
Symmetric key:            00000000000000000000000000000000
IV:                       00000000000000000000000000000000
Plaintext:                0000000000000000000000020000000000
Ciphertext:               82001573a003fd3b7fd72ffb0eaf63aa82001573a003fd3b7fd72ff90eaf63aac6
Reciphers for ciphertext: 0
Decipheredtext:           0000000000000000000000020000000000
RESULT CIPHER-DECIPHER: -----OK-----


Test: 87
Symmetric key bit length: 128
IV bit length:            128
Plaintext bit length:     136
Symmetric key:            00000000000000000000000000000000
IV:                       00000000000000000000000000000000
Plaintext:                0000000000000000000000010000000000
Ciphertext:               82001573a003fd3b7fd72ffb0eaf63aa82001573a003fd3b7fd72ffa0eaf63aac6
Reciphers for ciphertext: 0
Decipheredtext:           0000000000000000000000010000000000
RESULT CIPHER-DECIPHER: -----OK-----


Test: 88
Symmetric key bit length: 128
IV bit length:            128
Plaintext bit length:     136
Symmetric key:            00000000000000000000000000000000
IV:                       00000000000000000000000000000000
Plaintext:                0000000000000000000000008000000000
Ciphertext:               82001573a003fd3b7fd72ffb0eaf63aa82001573a003fd3b7fd72ffb8eaf63aac6
Reciphers for ciphertext: 0
Decipheredtext:           0000000000000000000000008000000000
RESULT CIPHER-DECIPHER: -----OK-----


Test: 89
Symmetric key bit length: 128
IV bit length:            128
Plaintext bit length:     136
Symmetric key:            00000000000000000000000000000000
IV:                       00000000000000000000000000000000
Plaintext:                0000000000000000000000004000000000
Ciphertext:               82001573a003fd3b7fd72ffb0eaf63aa82001573a003fd3b7fd72ffb4eaf63aac6
Reciphers for ciphertext: 0
Decipheredtext:           0000000000000000000000004000000000
RESULT CIPHER-DECIPHER: -----OK-----


Test: 90
Symmetric key bit length: 128
IV bit length:            128
Plaintext bit length:     136
Symmetric key:            00000000000000000000000000000000
IV:                       00000000000000000000000000000000
Plaintext:                0000000000000000000000002000000000
Ciphertext:               82001573a003fd3b7fd72ffb0eaf63aa82001573a003fd3b7fd72ffb2eaf63aac6
Reciphers for ciphertext: 0
Decipheredtext:           0000000000000000000000002000000000
RESULT CIPHER-DECIPHER: -----OK-----


Test: 91
Symmetric key bit length: 128
IV bit length:            128
Plaintext bit length:     136
Symmetric key:            00000000000000000000000000000000
IV:                       00000000000000000000000000000000
Plaintext:                0000000000000000000000001000000000
Ciphertext:               82001573a003fd3b7fd72ffb0eaf63aa82001573a003fd3b7fd72ffb1eaf63aac6
Reciphers for ciphertext: 0
Decipheredtext:           0000000000000000000000001000000000
RESULT CIPHER-DECIPHER: -----OK-----


Test: 92
Symmetric key bit length: 128
IV bit length:            128
Plaintext bit length:     136
Symmetric key:            00000000000000000000000000000000
IV:                       00000000000000000000000000000000
Plaintext:                0000000000000000000000000800000000
Ciphertext:               82001573a003fd3b7fd72ffb0eaf63aa82001573a003fd3b7fd72ffb06af63aac6
Reciphers for ciphertext: 0
Decipheredtext:           0000000000000000000000000800000000
RESULT CIPHER-DECIPHER: -----OK-----


Test: 93
Symmetric key bit length: 128
IV bit length:            128
Plaintext bit length:     136
Symmetric key:            00000000000000000000000000000000
IV:                       00000000000000000000000000000000
Plaintext:                0000000000000000000000000400000000
Ciphertext:               82001573a003fd3b7fd72ffb0eaf63aa82001573a003fd3b7fd72ffb0aaf63aac6
Reciphers for ciphertext: 0
Decipheredtext:           0000000000000000000000000400000000
RESULT CIPHER-DECIPHER: -----OK-----


Test: 94
Symmetric key bit length: 128
IV bit length:            128
Plaintext bit length:     136
Symmetric key:            00000000000000000000000000000000
IV:                       00000000000000000000000000000000
Plaintext:                0000000000000000000000000200000000
Ciphertext:               82001573a003fd3b7fd72ffb0eaf63aa82001573a003fd3b7fd72ffb0caf63aac6
Reciphers for ciphertext: 0
Decipheredtext:           0000000000000000000000000200000000
RESULT CIPHER-DECIPHER: -----OK-----


Test: 95
Symmetric key bit length: 128
IV bit length:            128
Plaintext bit length:     136
Symmetric key:            00000000000000000000000000000000
IV:                       00000000000000000000000000000000
Plaintext:                0000000000000000000000000100000000
Ciphertext:               82001573a003fd3b7fd72ffb0eaf63aa82001573a003fd3b7fd72ffb0faf63aac6
Reciphers for ciphertext: 0
Decipheredtext:           0000000000000000000000000100000000
RESULT CIPHER-DECIPHER: -----OK-----


Test: 96
Symmetric key bit length: 128
IV bit length:            128
Plaintext bit length:     136
Symmetric key:            00000000000000000000000000000000
IV:                       00000000000000000000000000000000
Plaintext:                0000000000000000000000000080000000
Ciphertext:               82001573a003fd3b7fd72ffb0eaf63aa82001573a003fd3b7fd72ffb0e2f63aac6
Reciphers for ciphertext: 0
Decipheredtext:           0000000000000000000000000080000000
RESULT CIPHER-DECIPHER: -----OK-----


Test: 97
Symmetric key bit length: 128
IV bit length:            128
Plaintext bit length:     136
Symmetric key:            00000000000000000000000000000000
IV:                       00000000000000000000000000000000
Plaintext:                0000000000000000000000000040000000
Ciphertext:               82001573a003fd3b7fd72ffb0eaf63aa82001573a003fd3b7fd72ffb0eef63aac6
Reciphers for ciphertext: 0
Decipheredtext:           0000000000000000000000000040000000
RESULT CIPHER-DECIPHER: -----OK-----


Test: 98
Symmetric key bit length: 128
IV bit length:            128
Plaintext bit length:     136
Symmetric key:            00000000000000000000000000000000
IV:                       00000000000000000000000000000000
Plaintext:                0000000000000000000000000020000000
Ciphertext:               82001573a003fd3b7fd72ffb0eaf63aa82001573a003fd3b7fd72ffb0e8f63aac6
Reciphers for ciphertext: 0
Decipheredtext:           0000000000000000000000000020000000
RESULT CIPHER-DECIPHER: -----OK-----


Test: 99
Symmetric key bit length: 128
IV bit length:            128
Plaintext bit length:     136
Symmetric key:            00000000000000000000000000000000
IV:                       00000000000000000000000000000000
Plaintext:                0000000000000000000000000010000000
Ciphertext:               82001573a003fd3b7fd72ffb0eaf63aa82001573a003fd3b7fd72ffb0ebf63aac6
Reciphers for ciphertext: 0
Decipheredtext:           0000000000000000000000000010000000
RESULT CIPHER-DECIPHER: -----OK-----


Test: 100
Symmetric key bit length: 128
IV bit length:            128
Plaintext bit length:     136
Symmetric key:            00000000000000000000000000000000
IV:                       00000000000000000000000000000000
Plaintext:                0000000000000000000000000008000000
Ciphertext:               82001573a003fd3b7fd72ffb0eaf63aa82001573a003fd3b7fd72ffb0ea763aac6
Reciphers for ciphertext: 0
Decipheredtext:           0000000000000000000000000008000000
RESULT CIPHER-DECIPHER: -----OK-----


Test: 101
Symmetric key bit length: 128
IV bit length:            128
Plaintext bit length:     136
Symmetric key:            00000000000000000000000000000000
IV:                       00000000000000000000000000000000
Plaintext:                0000000000000000000000000004000000
Ciphertext:               82001573a003fd3b7fd72ffb0eaf63aa82001573a003fd3b7fd72ffb0eab63aac6
Reciphers for ciphertext: 0
Decipheredtext:           0000000000000000000000000004000000
RESULT CIPHER-DECIPHER: -----OK-----


Test: 102
Symmetric key bit length: 128
IV bit length:            128
Plaintext bit length:     136
Symmetric key:            00000000000000000000000000000000
IV:                       00000000000000000000000000000000
Plaintext:                0000000000000000000000000002000000
Ciphertext:               82001573a003fd3b7fd72ffb0eaf63aa82001573a003fd3b7fd72ffb0ead63aac6
Reciphers for ciphertext: 0
Decipheredtext:           0000000000000000000000000002000000
RESULT CIPHER-DECIPHER: -----OK-----


Test: 103
Symmetric key bit length: 128
IV bit length:            128
Plaintext bit length:     136
Symmetric key:            00000000000000000000000000000000
IV:                       00000000000000000000000000000000
Plaintext:                0000000000000000000000000001000000
Ciphertext:               82001573a003fd3b7fd72ffb0eaf63aa82001573a003fd3b7fd72ffb0eae63aac6
Reciphers for ciphertext: 0
Decipheredtext:           0000000000000000000000000001000000
RESULT CIPHER-DECIPHER: -----OK-----


Test: 104
Symmetric key bit length: 128
IV bit length:            128
Plaintext bit length:     136
Symmetric key:            00000000000000000000000000000000
IV:                       00000000000000000000000000000000
Plaintext:                0000000000000000000000000000800000
Ciphertext:               82001573a003fd3b7fd72ffb0eaf63aa82001573a003fd3b7fd72ffb0eafe3aac6
Reciphers for ciphertext: 0
Decipheredtext:           0000000000000000000000000000800000
RESULT CIPHER-DECIPHER: -----OK-----


Test: 105
Symmetric key bit length: 128
IV bit length:            128
Plaintext bit length:     136
Symmetric key:            00000000000000000000000000000000
IV:                       00000000000000000000000000000000
Plaintext:                0000000000000000000000000000400000
Ciphertext:               82001573a003fd3b7fd72ffb0eaf63aa82001573a003fd3b7fd72ffb0eaf23aac6
Reciphers for ciphertext: 0
Decipheredtext:           0000000000000000000000000000400000
RESULT CIPHER-DECIPHER: -----OK-----


Test: 106
Symmetric key bit length: 128
IV bit length:            128
Plaintext bit length:     136
Symmetric key:            00000000000000000000000000000000
IV:                       00000000000000000000000000000000
Plaintext:                0000000000000000000000000000200000
Ciphertext:               82001573a003fd3b7fd72ffb0eaf63aa82001573a003fd3b7fd72ffb0eaf43aac6
Reciphers for ciphertext: 0
Decipheredtext:           0000000000000000000000000000200000
RESULT CIPHER-DECIPHER: -----OK-----


Test: 107
Symmetric key bit length: 128
IV bit length:            128
Plaintext bit length:     136
Symmetric key:            00000000000000000000000000000000
IV:                       00000000000000000000000000000000
Plaintext:                0000000000000000000000000000100000
Ciphertext:               82001573a003fd3b7fd72ffb0eaf63aa82001573a003fd3b7fd72ffb0eaf73aac6
Reciphers for ciphertext: 0
Decipheredtext:           0000000000000000000000000000100000
RESULT CIPHER-DECIPHER: -----OK-----


Test: 108
Symmetric key bit length: 128
IV bit length:            128
Plaintext bit length:     136
Symmetric key:            00000000000000000000000000000000
IV:                       00000000000000000000000000000000
Plaintext:                0000000000000000000000000000080000
Ciphertext:               82001573a003fd3b7fd72ffb0eaf63aa82001573a003fd3b7fd72ffb0eaf6baac6
Reciphers for ciphertext: 0
Decipheredtext:           0000000000000000000000000000080000
RESULT CIPHER-DECIPHER: -----OK-----


Test: 109
Symmetric key bit length: 128
IV bit length:            128
Plaintext bit length:     136
Symmetric key:            00000000000000000000000000000000
IV:                       00000000000000000000000000000000
Plaintext:                0000000000000000000000000000040000
Ciphertext:               82001573a003fd3b7fd72ffb0eaf63aa82001573a003fd3b7fd72ffb0eaf67aac6
Reciphers for ciphertext: 0
Decipheredtext:           0000000000000000000000000000040000
RESULT CIPHER-DECIPHER: -----OK-----


Test: 110
Symmetric key bit length: 128
IV bit length:            128
Plaintext bit length:     136
Symmetric key:            00000000000000000000000000000000
IV:                       00000000000000000000000000000000
Plaintext:                0000000000000000000000000000020000
Ciphertext:               82001573a003fd3b7fd72ffb0eaf63aa82001573a003fd3b7fd72ffb0eaf61aac6
Reciphers for ciphertext: 0
Decipheredtext:           0000000000000000000000000000020000
RESULT CIPHER-DECIPHER: -----OK-----


Test: 111
Symmetric key bit length: 128
IV bit length:            128
Plaintext bit length:     136
Symmetric key:            00000000000000000000000000000000
IV:                       00000000000000000000000000000000
Plaintext:                0000000000000000000000000000010000
Ciphertext:               82001573a003fd3b7fd72ffb0eaf63aa82001573a003fd3b7fd72ffb0eaf62aac6
Reciphers for ciphertext: 0
Decipheredtext:           0000000000000000000000000000010000
RESULT CIPHER-DECIPHER: -----OK-----


Test: 112
Symmetric key bit length: 128
IV bit length:            128
Plaintext bit length:     136
Symmetric key:            00000000000000000000000000000000
IV:                       00000000000000000000000000000000
Plaintext:                0000000000000000000000000000008000
Ciphertext:               82001573a003fd3b7fd72ffb0eaf63aa82001573a003fd3b7fd72ffb0eaf632ac6
Reciphers for ciphertext: 0
Decipheredtext:           0000000000000000000000000000008000
RESULT CIPHER-DECIPHER: -----OK-----


Test: 113
Symmetric key bit length: 128
IV bit length:            128
Plaintext bit length:     136
Symmetric key:            00000000000000000000000000000000
IV:                       00000000000000000000000000000000
Plaintext:                0000000000000000000000000000004000
Ciphertext:               82001573a003fd3b7fd72ffb0eaf63aa82001573a003fd3b7fd72ffb0eaf63eac6
Reciphers for ciphertext: 0
Decipheredtext:           0000000000000000000000000000004000
RESULT CIPHER-DECIPHER: -----OK-----


Test: 114
Symmetric key bit length: 128
IV bit length:            128
Plaintext bit length:     136
Symmetric key:            00000000000000000000000000000000
IV:                       00000000000000000000000000000000
Plaintext:                0000000000000000000000000000002000
Ciphertext:               82001573a003fd3b7fd72ffb0eaf63aa82001573a003fd3b7fd72ffb0eaf638ac6
Reciphers for ciphertext: 0
Decipheredtext:           0000000000000000000000000000002000
RESULT CIPHER-DECIPHER: -----OK-----


Test: 115
Symmetric key bit length: 128
IV bit length:            128
Plaintext bit length:     136
Symmetric key:            00000000000000000000000000000000
IV:                       00000000000000000000000000000000
Plaintext:                0000000000000000000000000000001000
Ciphertext:               82001573a003fd3b7fd72ffb0eaf63aa82001573a003fd3b7fd72ffb0eaf63bac6
Reciphers for ciphertext: 0
Decipheredtext:           0000000000000000000000000000001000
RESULT CIPHER-DECIPHER: -----OK-----


Test: 116
Symmetric key bit length: 128
IV bit length:            128
Plaintext bit length:     136
Symmetric key:            00000000000000000000000000000000
IV:                       00000000000000000000000000000000
Plaintext:                0000000000000000000000000000000800
Ciphertext:               82001573a003fd3b7fd72ffb0eaf63aa82001573a003fd3b7fd72ffb0eaf63a2c6
Reciphers for ciphertext: 0
Decipheredtext:           0000000000000000000000000000000800
RESULT CIPHER-DECIPHER: -----OK-----


Test: 117
Symmetric key bit length: 128
IV bit length:            128
Plaintext bit length:     136
Symmetric key:            00000000000000000000000000000000
IV:                       00000000000000000000000000000000
Plaintext:                0000000000000000000000000000000400
Ciphertext:               82001573a003fd3b7fd72ffb0eaf63aa82001573a003fd3b7fd72ffb0eaf63aec6
Reciphers for ciphertext: 0
Decipheredtext:           0000000000000000000000000000000400
RESULT CIPHER-DECIPHER: -----OK-----


Test: 118
Symmetric key bit length: 128
IV bit length:            128
Plaintext bit length:     136
Symmetric key:            00000000000000000000000000000000
IV:                       00000000000000000000000000000000
Plaintext:                0000000000000000000000000000000200
Ciphertext:               82001573a003fd3b7fd72ffb0eaf63aa82001573a003fd3b7fd72ffb0eaf63a8c6
Reciphers for ciphertext: 0
Decipheredtext:           0000000000000000000000000000000200
RESULT CIPHER-DECIPHER: -----OK-----


Test: 119
Symmetric key bit length: 128
IV bit length:            128
Plaintext bit length:     136
Symmetric key:            00000000000000000000000000000000
IV:                       00000000000000000000000000000000
Plaintext:                0000000000000000000000000000000100
Ciphertext:               82001573a003fd3b7fd72ffb0eaf63aa82001573a003fd3b7fd72ffb0eaf63abc6
Reciphers for ciphertext: 0
Decipheredtext:           0000000000000000000000000000000100
RESULT CIPHER-DECIPHER: -----OK-----


Test: 120
Symmetric key bit length: 128
IV bit length:            128
Plaintext bit length:     136
Symmetric key:            00000000000000000000000000000000
IV:                       00000000000000000000000000000000
Plaintext:                0000000000000000000000000000000080
Ciphertext:               82001573a003fd3b7fd72ffb0eaf63aa82001573a003fd3b7fd72ffb0eaf63aa46
Reciphers for ciphertext: 0
Decipheredtext:           0000000000000000000000000000000080
RESULT CIPHER-DECIPHER: -----OK-----


Test: 121
Symmetric key bit length: 128
IV bit length:            128
Plaintext bit length:     136
Symmetric key:            00000000000000000000000000000000
IV:                       00000000000000000000000000000000
Plaintext:                0000000000000000000000000000000040
Ciphertext:               82001573a003fd3b7fd72ffb0eaf63aa82001573a003fd3b7fd72ffb0eaf63aa86
Reciphers for ciphertext: 0
Decipheredtext:           0000000000000000000000000000000040
RESULT CIPHER-DECIPHER: -----OK-----


Test: 122
Symmetric key bit length: 128
IV bit length:            128
Plaintext bit length:     136
Symmetric key:            00000000000000000000000000000000
IV:                       00000000000000000000000000000000
Plaintext:                0000000000000000000000000000000020
Ciphertext:               82001573a003fd3b7fd72ffb0eaf63aa82001573a003fd3b7fd72ffb0eaf63aae6
Reciphers for ciphertext: 0
Decipheredtext:           0000000000000000000000000000000020
RESULT CIPHER-DECIPHER: -----OK-----


Test: 123
Symmetric key bit length: 128
IV bit length:            128
Plaintext bit length:     136
Symmetric key:            00000000000000000000000000000000
IV:                       00000000000000000000000000000000
Plaintext:                0000000000000000000000000000000010
Ciphertext:               82001573a003fd3b7fd72ffb0eaf63aa82001573a003fd3b7fd72ffb0eaf63aad6
Reciphers for ciphertext: 0
Decipheredtext:           0000000000000000000000000000000010
RESULT CIPHER-DECIPHER: -----OK-----


Test: 124
Symmetric key bit length: 128
IV bit length:            128
Plaintext bit length:     136
Symmetric key:            00000000000000000000000000000000
IV:                       00000000000000000000000000000000
Plaintext:                0000000000000000000000000000000008
Ciphertext:               82001573a003fd3b7fd72ffb0eaf63aa82001573a003fd3b7fd72ffb0eaf63aace
Reciphers for ciphertext: 0
Decipheredtext:           0000000000000000000000000000000008
RESULT CIPHER-DECIPHER: -----OK-----


Test: 125
Symmetric key bit length: 128
IV bit length:            128
Plaintext bit length:     136
Symmetric key:            00000000000000000000000000000000
IV:                       00000000000000000000000000000000
Plaintext:                0000000000000000000000000000000004
Ciphertext:               82001573a003fd3b7fd72ffb0eaf63aa82001573a003fd3b7fd72ffb0eaf63aac2
Reciphers for ciphertext: 0
Decipheredtext:           0000000000000000000000000000000004
RESULT CIPHER-DECIPHER: -----OK-----


Test: 126
Symmetric key bit length: 128
IV bit length:            128
Plaintext bit length:     136
Symmetric key:            00000000000000000000000000000000
IV:                       00000000000000000000000000000000
Plaintext:                0000000000000000000000000000000002
Ciphertext:               82001573a003fd3b7fd72ffb0eaf63aa82001573a003fd3b7fd72ffb0eaf63aac4
Reciphers for ciphertext: 0
Decipheredtext:           0000000000000000000000000000000002
RESULT CIPHER-DECIPHER: -----OK-----


Test: 127
Symmetric key bit length: 128
IV bit length:            128
Plaintext bit length:     136
Symmetric key:            00000000000000000000000000000000
IV:                       00000000000000000000000000000000
Plaintext:                0000000000000000000000000000000001
Ciphertext:               82001573a003fd3b7fd72ffb0eaf63aa82001573a003fd3b7fd72ffb0eaf63aac7
Reciphers for ciphertext: 0
Decipheredtext:           0000000000000000000000000000000001
RESULT CIPHER-DECIPHER: -----OK-----


 DATA SHA1 (hexadecimal): 3a29f15c45bd5829d42c096328da66009f2880e1

